%!PS-Adobe-3.0 EPSF-3.0
%%Title: gl2ps_renderer figure
%%Creator: GL2PS 1.4.0, (C) 1999-2017 C. Geuzaine
%%For: Octave
%%CreationDate: Fri Feb 28 14:23:56 2020
%%LanguageLevel: 3
%%DocumentData: Clean7Bit
%%Pages: 1
%%BoundingBox: 0 0 576 432
%%EndComments
%%BeginProlog
/gl2psdict 64 dict def gl2psdict begin
/tryPS3shading false def % set to false to force subdivision
/rThreshold 0.064 def % red component subdivision threshold
/gThreshold 0.034 def % green component subdivision threshold
/bThreshold 0.1 def % blue component subdivision threshold
/BD { bind def } bind def
/C  { setrgbcolor } BD
/G  { 0.082 mul exch 0.6094 mul add exch 0.3086 mul add neg 1.0 add setgray } BD
/W  { setlinewidth } BD
/LC  { setlinecap } BD
/LJ  { setlinejoin } BD
/FC { findfont exch /SH exch def SH scalefont setfont } BD
/SW { dup stringwidth pop } BD
/S  { FC moveto show } BD
/SBC{ FC moveto SW -2 div 0 rmoveto show } BD
/SBR{ FC moveto SW neg 0 rmoveto show } BD
/SCL{ FC moveto 0 SH -2 div rmoveto show } BD
/SCC{ FC moveto SW -2 div SH -2 div rmoveto show } BD
/SCR{ FC moveto SW neg SH -2 div rmoveto show } BD
/STL{ FC moveto 0 SH neg rmoveto show } BD
/STC{ FC moveto SW -2 div SH neg rmoveto show } BD
/STR{ FC moveto SW neg SH neg rmoveto show } BD
/FCT { FC translate 0 0 } BD
/SR  { gsave FCT moveto rotate show grestore } BD
/SRX  { gsave FCT moveto rotate xshow grestore } BD
/SBCR{ gsave FCT moveto rotate SW -2 div 0 rmoveto show grestore } BD
/SBRR{ gsave FCT moveto rotate SW neg 0 rmoveto show grestore } BD
/SCLR{ gsave FCT moveto rotate 0 SH -2 div rmoveto show grestore} BD
/SCCR{ gsave FCT moveto rotate SW -2 div SH -2 div rmoveto show grestore} BD
/SCRR{ gsave FCT moveto rotate SW neg SH -2 div rmoveto show grestore} BD
/STLR{ gsave FCT moveto rotate 0 SH neg rmoveto show grestore } BD
/STCR{ gsave FCT moveto rotate SW -2 div SH neg rmoveto show grestore } BD
/STRR{ gsave FCT moveto rotate SW neg SH neg rmoveto show grestore } BD
/P  { newpath 0.0 360.0 arc closepath fill } BD
/LS { newpath moveto } BD
/L  { lineto } BD
/LE { lineto stroke } BD
/T  { newpath moveto lineto lineto closepath fill } BD
/STshfill {
      /b1 exch def /g1 exch def /r1 exch def /y1 exch def /x1 exch def
      /b2 exch def /g2 exch def /r2 exch def /y2 exch def /x2 exch def
      /b3 exch def /g3 exch def /r3 exch def /y3 exch def /x3 exch def
      gsave << /ShadingType 4 /ColorSpace [/DeviceRGB]
      /DataSource [ 0 x1 y1 r1 g1 b1 0 x2 y2 r2 g2 b2 0 x3 y3 r3 g3 b3 ] >>
      shfill grestore } BD
/Tm { 3 -1 roll 8 -1 roll 13 -1 roll add add 3 div
      3 -1 roll 7 -1 roll 11 -1 roll add add 3 div
      3 -1 roll 6 -1 roll 9 -1 roll add add 3 div C T } BD
/STsplit {
      4 index 15 index add 0.5 mul
      4 index 15 index add 0.5 mul
      4 index 15 index add 0.5 mul
      4 index 15 index add 0.5 mul
      4 index 15 index add 0.5 mul
      5 copy 5 copy 25 15 roll
      9 index 30 index add 0.5 mul
      9 index 30 index add 0.5 mul
      9 index 30 index add 0.5 mul
      9 index 30 index add 0.5 mul
      9 index 30 index add 0.5 mul
      5 copy 5 copy 35 5 roll 25 5 roll 15 5 roll
      4 index 10 index add 0.5 mul
      4 index 10 index add 0.5 mul
      4 index 10 index add 0.5 mul
      4 index 10 index add 0.5 mul
      4 index 10 index add 0.5 mul
      5 copy 5 copy 40 5 roll 25 5 roll 15 5 roll 25 5 roll
      STnoshfill STnoshfill STnoshfill STnoshfill } BD
/STnoshfill {
      2 index 8 index sub abs rThreshold gt
      { STsplit }
      { 1 index 7 index sub abs gThreshold gt
        { STsplit }
        { dup 6 index sub abs bThreshold gt
          { STsplit }
          { 2 index 13 index sub abs rThreshold gt
            { STsplit }
            { 1 index 12 index sub abs gThreshold gt
              { STsplit }
              { dup 11 index sub abs bThreshold gt
                { STsplit }
                { 7 index 13 index sub abs rThreshold gt
                  { STsplit }
                  { 6 index 12 index sub abs gThreshold gt
                    { STsplit }
                    { 5 index 11 index sub abs bThreshold gt
                      { STsplit }
                      { Tm }
                      ifelse }
                    ifelse }
                  ifelse }
                ifelse }
              ifelse }
            ifelse }
          ifelse }
        ifelse }
      ifelse } BD
tryPS3shading
{ /shfill where
  { /ST { STshfill } BD }
  { /ST { STnoshfill } BD }
  ifelse }
{ /ST { STnoshfill } BD }
ifelse
end
%%EndProlog
%%BeginSetup
/DeviceRGB setcolorspace
gl2psdict begin
%%EndSetup
%%Page: 1 1
%%BeginPageSetup
%%EndPageSetup
mark
gsave
1.0 1.0 scale
1 1 1 C
newpath 0 0 moveto 576 0 lineto 576 432 lineto 0 432 lineto
closepath fill
gsave
1.0 1.0 scale
1 1 1 C
newpath 0 0 moveto 576 0 lineto 576 432 lineto 0 432 lineto
closepath fill
newpath 0 0 moveto 576 0 lineto 576 432 lineto 0 432 lineto
closepath clip
1 1 1 C
74.88 385.851 187.079 312.441 74.88 312.441 T
74.88 385.851 187.079 385.851 187.079 312.441 T
0.5 W
0.15 0.15 0.15 C
98.5008 312.441 LS
98.5008 313.57 LE
98.5008 385.851 LS
98.5008 384.723 LE
128.027 312.441 LS
128.027 313.57 LE
128.027 385.851 LS
128.027 384.723 LE
157.553 312.441 LS
157.553 313.57 LE
157.553 385.851 LS
157.553 384.723 LE
187.079 312.441 LS
187.079 313.57 LE
187.079 385.851 LS
187.079 384.723 LE
gsave
0.14902 0.14902 0.14902 C
(5) [10] 0 95.5008 296.899 10 /Helvetica SRX
grestore

gsave
0.14902 0.14902 0.14902 C
(10) [6 10] 0 122.027 296.899 10 /Helvetica SRX
grestore

gsave
0.14902 0.14902 0.14902 C
(15) [6 10] 0 151.553 296.899 10 /Helvetica SRX
grestore

gsave
0.14902 0.14902 0.14902 C
(20) [6 10] 0 181.079 296.899 10 /Helvetica SRX
grestore

74.88 312.441 LS
76.004 312.441 LE
187.079 312.441 LS
185.955 312.441 LE
74.88 327.123 LS
76.004 327.123 LE
187.079 327.123 LS
185.955 327.123 LE
74.88 341.805 LS
76.004 341.805 LE
187.079 341.805 LS
185.955 341.805 LE
74.88 356.487 LS
76.004 356.487 LE
187.079 356.487 LS
185.955 356.487 LE
74.88 371.169 LS
76.004 371.169 LE
187.079 371.169 LS
185.955 371.169 LE
74.88 385.851 LS
76.004 385.851 LE
187.079 385.851 LS
185.955 385.851 LE
gsave
0.14902 0.14902 0.14902 C
(0) [10] 0 63.8711 308.441 10 /Helvetica SRX
grestore

gsave
0.14902 0.14902 0.14902 C
(0.005) [6 3 6 6 10] 0 42.8711 323.123 10 /Helvetica SRX
grestore

gsave
0.14902 0.14902 0.14902 C
(0.01) [6 3 6 10] 0 48.8711 337.805 10 /Helvetica SRX
grestore

gsave
0.14902 0.14902 0.14902 C
(0.015) [6 3 6 6 10] 0 42.8711 352.487 10 /Helvetica SRX
grestore

gsave
0.14902 0.14902 0.14902 C
(0.02) [6 3 6 10] 0 48.8711 367.169 10 /Helvetica SRX
grestore

gsave
0.14902 0.14902 0.14902 C
(0.025) [6 3 6 6 10] 0 42.8711 381.851 10 /Helvetica SRX
grestore

2 LC
[16 0] 0 setdash
74.88 312.441 LS
187.079 312.441 LE
74.88 385.851 LS
187.079 385.851 LE
74.88 312.441 LS
74.88 385.851 LE
187.079 312.441 LS
187.079 385.851 LE
gsave
0 0 0 C
(Y_hat) [7 6 7 6 10] 0 115.979 397.851 11 /Helvetica-Bold SRX
grestore

1 W
0 LC
1 LJ
[] 0 setdash
0 0 0 C
74.88 363.684 LS
80.7852 369.939 L
86.6904 371.213 L
92.5956 369.839 L
98.5008 367.2 L
104.406 364.054 L
110.311 360.799 L
116.216 357.638 L
122.122 354.672 L
128.027 351.945 L
133.932 349.47 L
139.837 347.244 L
145.742 345.254 L
151.648 343.48 L
157.553 341.903 L
163.458 340.5 L
169.363 339.251 L
175.268 338.138 L
181.173 337.142 L
187.079 336.249 LE
0.5 W
1 0 0 C
74.88 312.441 LS
187.079 312.441 LE
grestore
gsave
1.0 1.0 scale
newpath 0 0 moveto 576 0 lineto 576 432 lineto 0 432 lineto
closepath clip
1 1 1 C
241.981 385.851 354.179 312.441 241.981 312.441 T
241.981 385.851 354.179 385.851 354.179 312.441 T
0.5 W
0.15 0.15 0.15 C
265.601 312.441 LS
265.601 313.57 LE
265.601 385.851 LS
265.601 384.723 LE
295.127 312.441 LS
295.127 313.57 LE
295.127 385.851 LS
295.127 384.723 LE
324.653 312.441 LS
324.653 313.57 LE
324.653 385.851 LS
324.653 384.723 LE
354.179 312.441 LS
354.179 313.57 LE
354.179 385.851 LS
354.179 384.723 LE
gsave
0.14902 0.14902 0.14902 C
(5) [10] 0 262.601 296.899 10 /Helvetica SRX
grestore

gsave
0.14902 0.14902 0.14902 C
(10) [6 10] 0 289.127 296.899 10 /Helvetica SRX
grestore

gsave
0.14902 0.14902 0.14902 C
(15) [6 10] 0 318.653 296.899 10 /Helvetica SRX
grestore

gsave
0.14902 0.14902 0.14902 C
(20) [6 10] 0 348.179 296.899 10 /Helvetica SRX
grestore

241.981 312.441 LS
243.105 312.441 LE
354.179 312.441 LS
353.055 312.441 LE
241.981 327.123 LS
243.105 327.123 LE
354.179 327.123 LS
353.055 327.123 LE
241.981 341.805 LS
243.105 341.805 LE
354.179 341.805 LS
353.055 341.805 LE
241.981 356.487 LS
243.105 356.487 LE
354.179 356.487 LS
353.055 356.487 LE
241.981 371.169 LS
243.105 371.169 LE
354.179 371.169 LS
353.055 371.169 LE
241.981 385.851 LS
243.105 385.851 LE
354.179 385.851 LS
353.055 385.851 LE
gsave
0.14902 0.14902 0.14902 C
(0) [10] 0 230.972 308.441 10 /Helvetica SRX
grestore

gsave
0.14902 0.14902 0.14902 C
(0.002) [6 3 6 6 10] 0 209.972 323.123 10 /Helvetica SRX
grestore

gsave
0.14902 0.14902 0.14902 C
(0.004) [6 3 6 6 10] 0 209.972 337.805 10 /Helvetica SRX
grestore

gsave
0.14902 0.14902 0.14902 C
(0.006) [6 3 6 6 10] 0 209.972 352.487 10 /Helvetica SRX
grestore

gsave
0.14902 0.14902 0.14902 C
(0.008) [6 3 6 6 10] 0 209.972 367.169 10 /Helvetica SRX
grestore

gsave
0.14902 0.14902 0.14902 C
(0.01) [6 3 6 10] 0 215.972 381.851 10 /Helvetica SRX
grestore

2 LC
[16 0] 0 setdash
241.981 312.441 LS
354.179 312.441 LE
241.981 385.851 LS
354.179 385.851 LE
241.981 312.441 LS
241.981 385.851 LE
354.179 312.441 LS
354.179 385.851 LE
gsave
0 0 0 C
(C_hat) [8 6 7 6 10] 0 282.58 397.851 11 /Helvetica-Bold SRX
grestore

1 W
0 LC
1 LJ
[] 0 setdash
0 0 0 C
241.981 334.635 LS
247.886 350.941 L
253.791 361.776 L
259.696 368.416 L
265.601 372.059 L
271.507 373.646 L
277.412 373.867 L
283.317 373.222 L
289.222 372.061 L
295.127 370.629 L
301.033 369.09 L
306.938 367.549 L
312.843 366.069 L
318.748 364.683 L
324.653 363.405 L
330.559 362.237 L
336.464 361.172 L
342.369 360.201 L
348.274 359.313 L
354.179 358.498 LE
0.5 W
1 0 0 C
241.981 312.441 LS
354.179 312.441 LE
grestore
gsave
1.0 1.0 scale
newpath 0 0 moveto 576 0 lineto 576 432 lineto 0 432 lineto
closepath clip
1 1 1 C
409.081 385.851 521.28 312.441 409.081 312.441 T
409.081 385.851 521.28 385.851 521.28 312.441 T
0.5 W
0.15 0.15 0.15 C
432.702 312.441 LS
432.702 313.57 LE
432.702 385.851 LS
432.702 384.723 LE
462.228 312.441 LS
462.228 313.57 LE
462.228 385.851 LS
462.228 384.723 LE
491.754 312.441 LS
491.754 313.57 LE
491.754 385.851 LS
491.754 384.723 LE
521.28 312.441 LS
521.28 313.57 LE
521.28 385.851 LS
521.28 384.723 LE
gsave
0.14902 0.14902 0.14902 C
(5) [10] 0 429.702 296.899 10 /Helvetica SRX
grestore

gsave
0.14902 0.14902 0.14902 C
(10) [6 10] 0 456.228 296.899 10 /Helvetica SRX
grestore

gsave
0.14902 0.14902 0.14902 C
(15) [6 10] 0 485.754 296.899 10 /Helvetica SRX
grestore

gsave
0.14902 0.14902 0.14902 C
(20) [6 10] 0 515.28 296.899 10 /Helvetica SRX
grestore

409.081 312.441 LS
410.205 312.441 LE
521.28 312.441 LS
520.156 312.441 LE
409.081 324.676 LS
410.205 324.676 LE
521.28 324.676 LS
520.156 324.676 LE
409.081 336.911 LS
410.205 336.911 LE
521.28 336.911 LS
520.156 336.911 LE
409.081 349.146 LS
410.205 349.146 LE
521.28 349.146 LS
520.156 349.146 LE
409.081 361.381 LS
410.205 361.381 LE
521.28 361.381 LS
520.156 361.381 LE
409.081 373.616 LS
410.205 373.616 LE
521.28 373.616 LS
520.156 373.616 LE
409.081 385.851 LS
410.205 385.851 LE
521.28 385.851 LS
520.156 385.851 LE
gsave
0.14902 0.14902 0.14902 C
(0) [10] 0 398.072 308.441 10 /Helvetica SRX
grestore

gsave
0.14902 0.14902 0.14902 C
(0.01) [6 3 6 10] 0 383.072 320.676 10 /Helvetica SRX
grestore

gsave
0.14902 0.14902 0.14902 C
(0.02) [6 3 6 10] 0 383.072 332.911 10 /Helvetica SRX
grestore

gsave
0.14902 0.14902 0.14902 C
(0.03) [6 3 6 10] 0 383.072 345.146 10 /Helvetica SRX
grestore

gsave
0.14902 0.14902 0.14902 C
(0.04) [6 3 6 10] 0 383.072 357.381 10 /Helvetica SRX
grestore

gsave
0.14902 0.14902 0.14902 C
(0.05) [6 3 6 10] 0 383.072 369.616 10 /Helvetica SRX
grestore

gsave
0.14902 0.14902 0.14902 C
(0.06) [6 3 6 10] 0 383.072 381.851 10 /Helvetica SRX
grestore

2 LC
[16 0] 0 setdash
409.081 312.441 LS
521.28 312.441 LE
409.081 385.851 LS
521.28 385.851 LE
409.081 312.441 LS
409.081 385.851 LE
521.28 312.441 LS
521.28 385.851 LE
gsave
0 0 0 C
(I_hat) [3 6 7 6 10] 0 452.181 397.851 11 /Helvetica-Bold SRX
grestore

1 W
0 LC
1 LJ
[] 0 setdash
0 0 0 C
409.081 378.302 LS
414.987 373.712 L
420.892 368.836 L
426.797 363.692 L
432.702 358.459 L
438.607 353.371 L
444.513 348.638 L
450.418 344.402 L
456.323 340.728 L
462.228 337.615 L
468.133 335.016 L
474.038 332.862 L
479.944 331.074 L
485.849 329.579 L
491.754 328.314 L
497.659 327.229 L
503.564 326.286 L
509.47 325.457 L
515.375 324.723 L
521.28 324.069 LE
0.5 W
1 0 0 C
409.081 312.441 LS
521.28 312.441 LE
grestore
gsave
1.0 1.0 scale
newpath 0 0 moveto 576 0 lineto 576 432 lineto 0 432 lineto
closepath clip
1 1 1 C
74.88 253.39 187.079 179.981 74.88 179.981 T
74.88 253.39 187.079 253.39 187.079 179.981 T
0.5 W
0.15 0.15 0.15 C
98.5008 179.981 LS
98.5008 181.109 LE
98.5008 253.39 LS
98.5008 252.262 LE
128.027 179.981 LS
128.027 181.109 LE
128.027 253.39 LS
128.027 252.262 LE
157.553 179.981 LS
157.553 181.109 LE
157.553 253.39 LS
157.553 252.262 LE
187.079 179.981 LS
187.079 181.109 LE
187.079 253.39 LS
187.079 252.262 LE
gsave
0.14902 0.14902 0.14902 C
(5) [10] 0 95.5008 164.439 10 /Helvetica SRX
grestore

gsave
0.14902 0.14902 0.14902 C
(10) [6 10] 0 122.027 164.439 10 /Helvetica SRX
grestore

gsave
0.14902 0.14902 0.14902 C
(15) [6 10] 0 151.553 164.439 10 /Helvetica SRX
grestore

gsave
0.14902 0.14902 0.14902 C
(20) [6 10] 0 181.079 164.439 10 /Helvetica SRX
grestore

74.88 179.981 LS
76.004 179.981 LE
187.079 179.981 LS
185.955 179.981 LE
74.88 198.333 LS
76.004 198.333 LE
187.079 198.333 LS
185.955 198.333 LE
74.88 216.686 LS
76.004 216.686 LE
187.079 216.686 LS
185.955 216.686 LE
74.88 235.038 LS
76.004 235.038 LE
187.079 235.038 LS
185.955 235.038 LE
74.88 253.39 LS
76.004 253.39 LE
187.079 253.39 LS
185.955 253.39 LE
gsave
0.14902 0.14902 0.14902 C
(0) [10] 0 63.8711 175.981 10 /Helvetica SRX
grestore

gsave
0.14902 0.14902 0.14902 C
(0.002) [6 3 6 6 10] 0 42.8711 194.333 10 /Helvetica SRX
grestore

gsave
0.14902 0.14902 0.14902 C
(0.004) [6 3 6 6 10] 0 42.8711 212.686 10 /Helvetica SRX
grestore

gsave
0.14902 0.14902 0.14902 C
(0.006) [6 3 6 6 10] 0 42.8711 231.038 10 /Helvetica SRX
grestore

gsave
0.14902 0.14902 0.14902 C
(0.008) [6 3 6 6 10] 0 42.8711 249.39 10 /Helvetica SRX
grestore

2 LC
[16 0] 0 setdash
74.88 179.981 LS
187.079 179.981 LE
74.88 253.39 LS
187.079 253.39 LE
74.88 179.981 LS
74.88 253.39 LE
187.079 179.981 LS
187.079 253.39 LE
gsave
0 0 0 C
(L_hat) [7 6 7 6 10] 0 115.979 265.39 11 /Helvetica-Bold SRX
grestore

1 W
0 LC
1 LJ
[] 0 setdash
0 0 0 C
74.88 215.299 LS
80.7852 233.789 L
86.6904 242.921 L
92.5956 246.754 L
98.5008 247.536 L
104.406 246.554 L
110.311 244.575 L
116.216 242.082 L
122.122 239.38 L
128.027 236.668 L
133.932 234.07 L
139.837 231.655 L
145.742 229.457 L
151.648 227.484 L
157.553 225.728 L
163.458 224.172 L
169.363 222.794 L
175.268 221.573 L
181.173 220.486 L
187.079 219.515 LE
0.5 W
1 0 0 C
74.88 179.981 LS
187.079 179.981 LE
grestore
gsave
1.0 1.0 scale
newpath 0 0 moveto 576 0 lineto 576 432 lineto 0 432 lineto
closepath clip
1 1 1 C
241.981 253.39 354.179 179.981 241.981 179.981 T
241.981 253.39 354.179 253.39 354.179 179.981 T
0.5 W
0.15 0.15 0.15 C
265.601 179.981 LS
265.601 181.109 LE
265.601 253.39 LS
265.601 252.262 LE
295.127 179.981 LS
295.127 181.109 LE
295.127 253.39 LS
295.127 252.262 LE
324.653 179.981 LS
324.653 181.109 LE
324.653 253.39 LS
324.653 252.262 LE
354.179 179.981 LS
354.179 181.109 LE
354.179 253.39 LS
354.179 252.262 LE
gsave
0.14902 0.14902 0.14902 C
(5) [10] 0 262.601 164.439 10 /Helvetica SRX
grestore

gsave
0.14902 0.14902 0.14902 C
(10) [6 10] 0 289.127 164.439 10 /Helvetica SRX
grestore

gsave
0.14902 0.14902 0.14902 C
(15) [6 10] 0 318.653 164.439 10 /Helvetica SRX
grestore

gsave
0.14902 0.14902 0.14902 C
(20) [6 10] 0 348.179 164.439 10 /Helvetica SRX
grestore

241.981 179.981 LS
243.105 179.981 LE
354.179 179.981 LS
353.055 179.981 LE
241.981 198.333 LS
243.105 198.333 LE
354.179 198.333 LS
353.055 198.333 LE
241.981 216.686 LS
243.105 216.686 LE
354.179 216.686 LS
353.055 216.686 LE
241.981 235.038 LS
243.105 235.038 LE
354.179 235.038 LS
353.055 235.038 LE
241.981 253.39 LS
243.105 253.39 LE
354.179 253.39 LS
353.055 253.39 LE
gsave
0.14902 0.14902 0.14902 C
(-0.001) [3 6 3 6 6 10] 0 206.972 175.981 10 /Helvetica SRX
grestore

gsave
0.14902 0.14902 0.14902 C
(-0.0005) [3 6 3 6 6 6 10] 0 200.972 194.333 10 /Helvetica SRX
grestore

gsave
0.14902 0.14902 0.14902 C
(0) [10] 0 230.972 212.686 10 /Helvetica SRX
grestore

gsave
0.14902 0.14902 0.14902 C
(0.0005) [6 3 6 6 6 10] 0 203.972 231.038 10 /Helvetica SRX
grestore

gsave
0.14902 0.14902 0.14902 C
(0.001) [6 3 6 6 10] 0 209.972 249.39 10 /Helvetica SRX
grestore

2 LC
[16 0] 0 setdash
241.981 179.981 LS
354.179 179.981 LE
241.981 253.39 LS
354.179 253.39 LE
241.981 179.981 LS
241.981 253.39 LE
354.179 179.981 LS
354.179 253.39 LE
gsave
0 0 0 C
(tb_y_hat) [4 7 6 6 6 7 6 10] 0 275.08 266.39 11 /Helvetica-Bold SRX
grestore

1 W
0 LC
1 LJ
[] 0 setdash
0 0 0 C
241.981 248.201 LS
247.886 226.561 L
253.791 207.6 L
259.696 196.029 L
265.601 191.416 L
271.507 191.684 L
277.412 194.638 L
283.317 198.56 L
289.222 202.347 L
295.127 205.436 L
301.033 207.652 L
306.938 209.059 L
312.843 209.833 L
318.748 210.175 L
324.653 210.264 L
330.559 210.237 L
336.464 210.183 L
342.369 210.149 L
348.274 210.156 L
354.179 210.205 LE
0.5 W
1 0 0 C
241.981 216.686 LS
354.179 216.686 LE
grestore
gsave
1.0 1.0 scale
newpath 0 0 moveto 576 0 lineto 576 432 lineto 0 432 lineto
closepath clip
1 1 1 C
409.081 253.39 521.28 179.981 409.081 179.981 T
409.081 253.39 521.28 253.39 521.28 179.981 T
0.5 W
0.15 0.15 0.15 C
432.702 179.981 LS
432.702 181.109 LE
432.702 253.39 LS
432.702 252.262 LE
462.228 179.981 LS
462.228 181.109 LE
462.228 253.39 LS
462.228 252.262 LE
491.754 179.981 LS
491.754 181.109 LE
491.754 253.39 LS
491.754 252.262 LE
521.28 179.981 LS
521.28 181.109 LE
521.28 253.39 LS
521.28 252.262 LE
gsave
0.14902 0.14902 0.14902 C
(5) [10] 0 429.702 164.439 10 /Helvetica SRX
grestore

gsave
0.14902 0.14902 0.14902 C
(10) [6 10] 0 456.228 164.439 10 /Helvetica SRX
grestore

gsave
0.14902 0.14902 0.14902 C
(15) [6 10] 0 485.754 164.439 10 /Helvetica SRX
grestore

gsave
0.14902 0.14902 0.14902 C
(20) [6 10] 0 515.28 164.439 10 /Helvetica SRX
grestore

409.081 179.981 LS
410.205 179.981 LE
521.28 179.981 LS
520.156 179.981 LE
409.081 192.216 LS
410.205 192.216 LE
521.28 192.216 LS
520.156 192.216 LE
409.081 204.451 LS
410.205 204.451 LE
521.28 204.451 LS
520.156 204.451 LE
409.081 216.686 LS
410.205 216.686 LE
521.28 216.686 LS
520.156 216.686 LE
409.081 228.92 LS
410.205 228.92 LE
521.28 228.92 LS
520.156 228.92 LE
409.081 241.155 LS
410.205 241.155 LE
521.28 241.155 LS
520.156 241.155 LE
409.081 253.39 LS
410.205 253.39 LE
521.28 253.39 LS
520.156 253.39 LE
gsave
0.14902 0.14902 0.14902 C
(0) [10] 0 398.072 175.981 10 /Helvetica SRX
grestore

gsave
0.14902 0.14902 0.14902 C
(0.005) [6 3 6 6 10] 0 377.072 188.216 10 /Helvetica SRX
grestore

gsave
0.14902 0.14902 0.14902 C
(0.01) [6 3 6 10] 0 383.072 200.451 10 /Helvetica SRX
grestore

gsave
0.14902 0.14902 0.14902 C
(0.015) [6 3 6 6 10] 0 377.072 212.686 10 /Helvetica SRX
grestore

gsave
0.14902 0.14902 0.14902 C
(0.02) [6 3 6 10] 0 383.072 224.92 10 /Helvetica SRX
grestore

gsave
0.14902 0.14902 0.14902 C
(0.025) [6 3 6 6 10] 0 377.072 237.155 10 /Helvetica SRX
grestore

gsave
0.14902 0.14902 0.14902 C
(0.03) [6 3 6 10] 0 383.072 249.39 10 /Helvetica SRX
grestore

2 LC
[16 0] 0 setdash
409.081 179.981 LS
521.28 179.981 LE
409.081 253.39 LS
521.28 253.39 LE
409.081 179.981 LS
409.081 253.39 LE
521.28 179.981 LS
521.28 253.39 LE
gsave
0 0 0 C
(A_T_hat) [8 6 7 6 7 6 10] 0 443.181 265.39 11 /Helvetica-Bold SRX
grestore

1 W
0 LC
1 LJ
[] 0 setdash
0 0 0 C
409.081 243.602 LS
414.987 235.332 L
420.892 228.136 L
426.797 221.876 L
432.702 216.429 L
438.607 211.691 L
444.513 207.569 L
450.418 203.982 L
456.323 200.862 L
462.228 198.147 L
468.133 195.786 L
474.038 193.731 L
479.944 191.944 L
485.849 190.388 L
491.754 189.035 L
497.659 187.858 L
503.564 186.834 L
509.47 185.943 L
515.375 185.168 L
521.28 184.494 LE
0.5 W
1 0 0 C
409.081 179.981 LS
521.28 179.981 LE
grestore
gsave
1.0 1.0 scale
newpath 0 0 moveto 576 0 lineto 576 432 lineto 0 432 lineto
closepath clip
1 1 1 C
74.88 120.93 187.079 47.52 74.88 47.52 T
74.88 120.93 187.079 120.93 187.079 47.52 T
0.5 W
0.15 0.15 0.15 C
98.5008 47.52 LS
98.5008 48.6483 LE
98.5008 120.93 LS
98.5008 119.801 LE
128.027 47.52 LS
128.027 48.6483 LE
128.027 120.93 LS
128.027 119.801 LE
157.553 47.52 LS
157.553 48.6483 LE
157.553 120.93 LS
157.553 119.801 LE
187.079 47.52 LS
187.079 48.6483 LE
187.079 120.93 LS
187.079 119.801 LE
gsave
0.14902 0.14902 0.14902 C
(5) [10] 0 95.5008 31.9779 10 /Helvetica SRX
grestore

gsave
0.14902 0.14902 0.14902 C
(10) [6 10] 0 122.027 31.9779 10 /Helvetica SRX
grestore

gsave
0.14902 0.14902 0.14902 C
(15) [6 10] 0 151.553 31.9779 10 /Helvetica SRX
grestore

gsave
0.14902 0.14902 0.14902 C
(20) [6 10] 0 181.079 31.9779 10 /Helvetica SRX
grestore

74.88 47.52 LS
76.004 47.52 LE
187.079 47.52 LS
185.955 47.52 LE
74.88 59.7549 LS
76.004 59.7549 LE
187.079 59.7549 LS
185.955 59.7549 LE
74.88 71.9899 LS
76.004 71.9899 LE
187.079 71.9899 LS
185.955 71.9899 LE
74.88 84.2248 LS
76.004 84.2248 LE
187.079 84.2248 LS
185.955 84.2248 LE
74.88 96.4598 LS
76.004 96.4598 LE
187.079 96.4598 LS
185.955 96.4598 LE
74.88 108.695 LS
76.004 108.695 LE
187.079 108.695 LS
185.955 108.695 LE
74.88 120.93 LS
76.004 120.93 LE
187.079 120.93 LS
185.955 120.93 LE
gsave
0.14902 0.14902 0.14902 C
(-0.0003) [3 6 3 6 6 6 10] 0 33.8711 43.52 10 /Helvetica SRX
grestore

gsave
0.14902 0.14902 0.14902 C
(-0.00025) [3 6 3 6 6 6 6 10] 0 27.8711 55.7549 10 /Helvetica SRX
grestore

gsave
0.14902 0.14902 0.14902 C
(-0.0002) [3 6 3 6 6 6 10] 0 33.8711 67.9899 10 /Helvetica SRX
grestore

gsave
0.14902 0.14902 0.14902 C
(-0.00015) [3 6 3 6 6 6 6 10] 0 27.8711 80.2248 10 /Helvetica SRX
grestore

gsave
0.14902 0.14902 0.14902 C
(-0.0001) [3 6 3 6 6 6 10] 0 33.8711 92.4598 10 /Helvetica SRX
grestore

gsave
0.14902 0.14902 0.14902 C
(-5e-05) [3 6 5 3 6 10] 0 40.8711 104.695 10 /Helvetica SRX
grestore

gsave
0.14902 0.14902 0.14902 C
(0) [10] 0 63.8711 116.93 10 /Helvetica SRX
grestore

2 LC
[16 0] 0 setdash
74.88 47.52 LS
187.079 47.52 LE
74.88 120.93 LS
187.079 120.93 LE
74.88 47.52 LS
74.88 120.93 LE
187.079 47.52 LS
187.079 120.93 LE
gsave
0 0 0 C
(r_hat) [4 6 7 6 10] 0 117.479 132.93 11 /Helvetica-Bold SRX
grestore

1 W
0 LC
1 LJ
[] 0 setdash
0 0 0 C
74.88 120.93 LS
80.7852 103.185 L
86.6904 80.7387 L
92.5956 62.3752 L
98.5008 51.7162 L
104.406 48.7351 L
110.311 51.5394 L
116.216 57.7184 L
122.122 65.1369 L
128.027 72.2746 L
133.932 78.2672 L
139.837 82.7896 L
145.742 85.884 L
151.648 87.7942 L
157.553 88.8371 L
163.458 89.3186 L
169.363 89.4893 L
175.268 89.5291 L
181.173 89.5517 L
187.079 89.6173 LE
0.5 W
1 0 0 C
74.88 120.93 LS
187.079 120.93 LE
grestore
grestore
showpage
cleartomark
%%PageTrailer
%%Trailer
end
%%EOF
