%!PS-Adobe-3.0 EPSF-3.0
%%Title: gl2ps_renderer figure
%%Creator: GL2PS 1.4.2, (C) 1999-2020 C. Geuzaine
%%For: Octave
%%CreationDate: Mon Jun 29 20:41:41 2020
%%LanguageLevel: 3
%%DocumentData: Clean7Bit
%%Pages: 1
%%BoundingBox: 0 0 576 432
%%EndComments
%%BeginProlog
/gl2psdict 64 dict def gl2psdict begin
/tryPS3shading false def % set to false to force subdivision
/rThreshold 0.064 def % red component subdivision threshold
/gThreshold 0.034 def % green component subdivision threshold
/bThreshold 0.1 def % blue component subdivision threshold
/BD { bind def } bind def
/C  { setrgbcolor } BD
/G  { 0.082 mul exch 0.6094 mul add exch 0.3086 mul add neg 1.0 add setgray } BD
/W  { setlinewidth } BD
/LC  { setlinecap } BD
/LJ  { setlinejoin } BD
/FC { findfont exch /SH exch def SH scalefont setfont } BD
/SW { dup stringwidth pop } BD
/S  { FC moveto show } BD
/SBC{ FC moveto SW -2 div 0 rmoveto show } BD
/SBR{ FC moveto SW neg 0 rmoveto show } BD
/SCL{ FC moveto 0 SH -2 div rmoveto show } BD
/SCC{ FC moveto SW -2 div SH -2 div rmoveto show } BD
/SCR{ FC moveto SW neg SH -2 div rmoveto show } BD
/STL{ FC moveto 0 SH neg rmoveto show } BD
/STC{ FC moveto SW -2 div SH neg rmoveto show } BD
/STR{ FC moveto SW neg SH neg rmoveto show } BD
/FCT { FC translate 0 0 } BD
/SR  { gsave FCT moveto rotate show grestore } BD
/SRX  { gsave FCT moveto rotate xshow grestore } BD
/SBCR{ gsave FCT moveto rotate SW -2 div 0 rmoveto show grestore } BD
/SBRR{ gsave FCT moveto rotate SW neg 0 rmoveto show grestore } BD
/SCLR{ gsave FCT moveto rotate 0 SH -2 div rmoveto show grestore} BD
/SCCR{ gsave FCT moveto rotate SW -2 div SH -2 div rmoveto show grestore} BD
/SCRR{ gsave FCT moveto rotate SW neg SH -2 div rmoveto show grestore} BD
/STLR{ gsave FCT moveto rotate 0 SH neg rmoveto show grestore } BD
/STCR{ gsave FCT moveto rotate SW -2 div SH neg rmoveto show grestore } BD
/STRR{ gsave FCT moveto rotate SW neg SH neg rmoveto show grestore } BD
/P  { newpath 0.0 360.0 arc closepath fill } BD
/LS { newpath moveto } BD
/L  { lineto } BD
/LE { lineto stroke } BD
/T  { newpath moveto lineto lineto closepath fill } BD
/STshfill {
      /b1 exch def /g1 exch def /r1 exch def /y1 exch def /x1 exch def
      /b2 exch def /g2 exch def /r2 exch def /y2 exch def /x2 exch def
      /b3 exch def /g3 exch def /r3 exch def /y3 exch def /x3 exch def
      gsave << /ShadingType 4 /ColorSpace [/DeviceRGB]
      /DataSource [ 0 x1 y1 r1 g1 b1 0 x2 y2 r2 g2 b2 0 x3 y3 r3 g3 b3 ] >>
      shfill grestore } BD
/Tm { 3 -1 roll 8 -1 roll 13 -1 roll add add 3 div
      3 -1 roll 7 -1 roll 11 -1 roll add add 3 div
      3 -1 roll 6 -1 roll 9 -1 roll add add 3 div C T } BD
/STsplit {
      4 index 15 index add 0.5 mul
      4 index 15 index add 0.5 mul
      4 index 15 index add 0.5 mul
      4 index 15 index add 0.5 mul
      4 index 15 index add 0.5 mul
      5 copy 5 copy 25 15 roll
      9 index 30 index add 0.5 mul
      9 index 30 index add 0.5 mul
      9 index 30 index add 0.5 mul
      9 index 30 index add 0.5 mul
      9 index 30 index add 0.5 mul
      5 copy 5 copy 35 5 roll 25 5 roll 15 5 roll
      4 index 10 index add 0.5 mul
      4 index 10 index add 0.5 mul
      4 index 10 index add 0.5 mul
      4 index 10 index add 0.5 mul
      4 index 10 index add 0.5 mul
      5 copy 5 copy 40 5 roll 25 5 roll 15 5 roll 25 5 roll
      STnoshfill STnoshfill STnoshfill STnoshfill } BD
/STnoshfill {
      2 index 8 index sub abs rThreshold gt
      { STsplit }
      { 1 index 7 index sub abs gThreshold gt
        { STsplit }
        { dup 6 index sub abs bThreshold gt
          { STsplit }
          { 2 index 13 index sub abs rThreshold gt
            { STsplit }
            { 1 index 12 index sub abs gThreshold gt
              { STsplit }
              { dup 11 index sub abs bThreshold gt
                { STsplit }
                { 7 index 13 index sub abs rThreshold gt
                  { STsplit }
                  { 6 index 12 index sub abs gThreshold gt
                    { STsplit }
                    { 5 index 11 index sub abs bThreshold gt
                      { STsplit }
                      { Tm }
                      ifelse }
                    ifelse }
                  ifelse }
                ifelse }
              ifelse }
            ifelse }
          ifelse }
        ifelse }
      ifelse } BD
tryPS3shading
{ /shfill where
  { /ST { STshfill } BD }
  { /ST { STnoshfill } BD }
  ifelse }
{ /ST { STnoshfill } BD }
ifelse
end
%%EndProlog
%%BeginSetup
/DeviceRGB setcolorspace
gl2psdict begin
%%EndSetup
%%Page: 1 1
%%BeginPageSetup
%%EndPageSetup
mark
gsave
1.0 1.0 scale
1 1 1 C
newpath 0 0 moveto 576 0 lineto 576 432 lineto 0 432 lineto
closepath fill
gsave
1.0 1.0 scale
1 1 1 C
newpath 0 0 moveto 576 0 lineto 576 432 lineto 0 432 lineto
closepath fill
newpath 0 0 moveto 576 0 lineto 576 432 lineto 0 432 lineto
closepath clip
1 1 1 C
74.88 385.841 261.039 312.427 74.88 312.427 T
74.88 385.841 261.039 385.841 261.039 312.427 T
0.5 W
0.15 0.15 0.15 C
116.008 312.427 LS
116.008 314.3 LE
116.008 385.841 LS
116.008 383.968 LE
159.301 312.427 LS
159.301 314.3 LE
159.301 385.841 LS
159.301 383.968 LE
202.594 312.427 LS
202.594 314.3 LE
202.594 385.841 LS
202.594 383.968 LE
245.887 312.427 LS
245.887 314.3 LE
245.887 385.841 LS
245.887 383.968 LE
gsave
0.14902 0.14902 0.14902 C
(20) [6 10] 0 110.008 296.885 10 /Helvetica SRX
grestore

gsave
0.14902 0.14902 0.14902 C
(40) [6 10] 0 153.301 296.885 10 /Helvetica SRX
grestore

gsave
0.14902 0.14902 0.14902 C
(60) [6 10] 0 196.594 296.885 10 /Helvetica SRX
grestore

gsave
0.14902 0.14902 0.14902 C
(80) [6 10] 0 239.887 296.885 10 /Helvetica SRX
grestore

74.88 312.427 LS
76.7432 312.427 LE
261.039 312.427 LS
259.176 312.427 LE
74.88 321.604 LS
76.7432 321.604 LE
261.039 321.604 LS
259.176 321.604 LE
74.88 330.781 LS
76.7432 330.781 LE
261.039 330.781 LS
259.176 330.781 LE
74.88 339.957 LS
76.7432 339.957 LE
261.039 339.957 LS
259.176 339.957 LE
74.88 349.134 LS
76.7432 349.134 LE
261.039 349.134 LS
259.176 349.134 LE
74.88 358.311 LS
76.7432 358.311 LE
261.039 358.311 LS
259.176 358.311 LE
74.88 367.487 LS
76.7432 367.487 LE
261.039 367.487 LS
259.176 367.487 LE
74.88 376.664 LS
76.7432 376.664 LE
261.039 376.664 LS
259.176 376.664 LE
74.88 385.841 LS
76.7432 385.841 LE
261.039 385.841 LS
259.176 385.841 LE
gsave
0.14902 0.14902 0.14902 C
(-0.2) [3 6 3 10] 0 51.8757 308.427 10 /Helvetica SRX
grestore

gsave
0.14902 0.14902 0.14902 C
(-0.15) [3 6 3 6 10] 0 45.8757 317.604 10 /Helvetica SRX
grestore

gsave
0.14902 0.14902 0.14902 C
(-0.1) [3 6 3 10] 0 51.8757 326.781 10 /Helvetica SRX
grestore

gsave
0.14902 0.14902 0.14902 C
(-0.05) [3 6 3 6 10] 0 45.8757 335.957 10 /Helvetica SRX
grestore

gsave
0.14902 0.14902 0.14902 C
(0) [10] 0 63.8757 345.134 10 /Helvetica SRX
grestore

gsave
0.14902 0.14902 0.14902 C
(0.05) [6 3 6 10] 0 48.8757 354.311 10 /Helvetica SRX
grestore

gsave
0.14902 0.14902 0.14902 C
(0.1) [6 3 10] 0 54.8757 363.487 10 /Helvetica SRX
grestore

gsave
0.14902 0.14902 0.14902 C
(0.15) [6 3 6 10] 0 48.8757 372.664 10 /Helvetica SRX
grestore

gsave
0.14902 0.14902 0.14902 C
(0.2) [6 3 10] 0 54.8757 381.841 10 /Helvetica SRX
grestore

2 LC
[16 0] 0 setdash
74.88 312.427 LS
261.039 312.427 LE
74.88 385.841 LS
261.039 385.841 LE
74.88 312.427 LS
74.88 385.841 LE
261.039 312.427 LS
261.039 385.841 LE
gsave
0 0 0 C
(y_obs) [6 6 7 7 10] 0 151.96 398.841 11 /Helvetica-Bold SRX
grestore

1 W
0 LC
1 LJ
[] 0 setdash
1 0 0 C
74.88 344.341 LS
77.0446 351.265 L
79.2093 351.615 L
81.3739 371.659 L
83.5386 354.4 L
85.7032 351.834 L
87.8679 356.144 L
90.0325 351.729 L
92.1972 354.698 L
94.3618 354.668 L
96.5265 354.197 L
98.6911 352.962 L
100.856 350.538 L
103.02 351.567 L
105.185 349.587 L
107.35 345.035 L
109.514 345.733 L
111.679 344.96 L
113.844 343.201 L
116.008 343.706 L
118.173 347.278 L
120.338 346.257 L
122.502 346.113 L
124.667 347.103 L
126.831 347.081 L
128.996 344.767 L
131.161 341.558 L
133.325 341.1 L
135.49 341.733 L
137.655 343.144 L
139.819 343.734 L
141.984 345.19 L
144.149 340.678 L
146.313 338.752 L
148.478 339.599 L
150.643 340.767 L
152.807 341.945 L
154.972 344.174 L
157.137 345.823 L
159.301 346.436 L
161.466 343.947 L
163.63 346.498 L
165.795 344.085 L
167.96 344.807 L
170.124 346.269 L
172.289 344.937 L
174.454 346.565 L
176.618 347.874 L
178.783 350.21 L
180.948 351.031 L
183.112 351.374 L
185.277 354.315 L
187.442 355.736 L
189.606 356.856 L
191.771 358.254 L
193.935 350.418 L
196.1 345.765 L
198.265 347.42 L
200.429 350.555 L
202.594 354.328 L
204.759 356.471 L
206.923 357.014 L
209.088 357.481 L
211.253 358.891 L
213.417 360.06 L
215.582 360.172 L
217.747 358.567 L
219.911 358.094 L
222.076 357.332 L
224.24 356.69 L
226.405 357.894 L
228.57 357.194 L
230.734 356.281 L
232.899 358.676 L
235.064 357.697 L
237.228 356.336 L
239.393 356.836 L
241.558 352.639 L
243.722 351.403 L
245.887 350.278 L
248.052 347.825 L
250.216 341.84 L
252.381 337.766 L
254.546 333.741 L
256.71 332.085 L
258.875 329.817 L
261.039 327.263 LE
[4 4 4 4] 0 setdash
0 0 0 C
74.88 344.341 LS
77.0446 351.265 L
79.2093 351.615 L
81.3739 371.659 L
83.5386 354.4 L
85.7032 351.834 L
87.8679 356.144 L
90.0325 351.729 L
92.1972 354.698 L
94.3618 354.668 L
96.5265 354.197 L
98.6911 352.962 L
100.856 350.538 L
103.02 351.567 L
105.185 349.587 L
107.35 345.035 L
109.514 345.733 L
111.679 344.96 L
113.844 343.201 L
116.008 343.706 L
118.173 347.278 L
120.338 346.257 L
122.502 346.113 L
124.667 347.103 L
126.831 347.081 L
128.996 344.767 L
131.161 341.558 L
133.325 341.1 L
135.49 341.733 L
137.655 343.144 L
139.819 343.734 L
141.984 345.19 L
144.149 340.678 L
146.313 338.752 L
148.478 339.599 L
150.643 340.767 L
152.807 341.945 L
154.972 344.174 L
157.137 345.823 L
159.301 346.436 L
161.466 343.947 L
163.63 346.498 L
165.795 344.085 L
167.96 344.807 L
170.124 346.269 L
172.289 344.937 L
174.454 346.565 L
176.618 347.874 L
178.783 350.21 L
180.948 351.031 L
183.112 351.374 L
185.277 354.315 L
187.442 355.736 L
189.606 356.856 L
191.771 358.254 L
193.935 350.418 L
196.1 345.765 L
198.265 347.42 L
200.429 350.555 L
202.594 354.328 L
204.759 356.471 L
206.923 357.014 L
209.088 357.481 L
211.253 358.891 L
213.417 360.06 L
215.582 360.172 L
217.747 358.567 L
219.911 358.094 L
222.076 357.332 L
224.24 356.69 L
226.405 357.894 L
228.57 357.194 L
230.734 356.281 L
232.899 358.676 L
235.064 357.697 L
237.228 356.336 L
239.393 356.836 L
241.558 352.639 L
243.722 351.403 L
245.887 350.278 L
248.052 347.825 L
250.216 341.84 L
252.381 337.766 L
254.546 333.741 L
256.71 332.085 L
258.875 329.817 L
261.039 327.263 LE
grestore
gsave
1.0 1.0 scale
newpath 0 0 moveto 576 0 lineto 576 432 lineto 0 432 lineto
closepath clip
1 1 1 C
335.121 385.841 521.28 312.427 335.121 312.427 T
335.121 385.841 521.28 385.841 521.28 312.427 T
0.5 W
[] 0 setdash
0.15 0.15 0.15 C
376.249 312.427 LS
376.249 314.3 LE
376.249 385.841 LS
376.249 383.968 LE
419.542 312.427 LS
419.542 314.3 LE
419.542 385.841 LS
419.542 383.968 LE
462.835 312.427 LS
462.835 314.3 LE
462.835 385.841 LS
462.835 383.968 LE
506.127 312.427 LS
506.127 314.3 LE
506.127 385.841 LS
506.127 383.968 LE
gsave
0.14902 0.14902 0.14902 C
(20) [6 10] 0 370.249 296.885 10 /Helvetica SRX
grestore

gsave
0.14902 0.14902 0.14902 C
(40) [6 10] 0 413.542 296.885 10 /Helvetica SRX
grestore

gsave
0.14902 0.14902 0.14902 C
(60) [6 10] 0 456.835 296.885 10 /Helvetica SRX
grestore

gsave
0.14902 0.14902 0.14902 C
(80) [6 10] 0 500.127 296.885 10 /Helvetica SRX
grestore

335.121 312.427 LS
336.984 312.427 LE
521.28 312.427 LS
519.417 312.427 LE
335.121 324.663 LS
336.984 324.663 LE
521.28 324.663 LS
519.417 324.663 LE
335.121 336.898 LS
336.984 336.898 LE
521.28 336.898 LS
519.417 336.898 LE
335.121 349.134 LS
336.984 349.134 LE
521.28 349.134 LS
519.417 349.134 LE
335.121 361.37 LS
336.984 361.37 LE
521.28 361.37 LS
519.417 361.37 LE
335.121 373.605 LS
336.984 373.605 LE
521.28 373.605 LS
519.417 373.605 LE
335.121 385.841 LS
336.984 385.841 LE
521.28 385.841 LS
519.417 385.841 LE
gsave
0.14902 0.14902 0.14902 C
(-0.2) [3 6 3 10] 0 312.116 308.427 10 /Helvetica SRX
grestore

gsave
0.14902 0.14902 0.14902 C
(-0.15) [3 6 3 6 10] 0 306.116 320.663 10 /Helvetica SRX
grestore

gsave
0.14902 0.14902 0.14902 C
(-0.1) [3 6 3 10] 0 312.116 332.898 10 /Helvetica SRX
grestore

gsave
0.14902 0.14902 0.14902 C
(-0.05) [3 6 3 6 10] 0 306.116 345.134 10 /Helvetica SRX
grestore

gsave
0.14902 0.14902 0.14902 C
(0) [10] 0 324.116 357.37 10 /Helvetica SRX
grestore

gsave
0.14902 0.14902 0.14902 C
(0.05) [6 3 6 10] 0 309.116 369.605 10 /Helvetica SRX
grestore

gsave
0.14902 0.14902 0.14902 C
(0.1) [6 3 10] 0 315.116 381.841 10 /Helvetica SRX
grestore

2 LC
[16 0] 0 setdash
335.121 312.427 LS
521.28 312.427 LE
335.121 385.841 LS
521.28 385.841 LE
335.121 312.427 LS
335.121 385.841 LE
521.28 312.427 LS
521.28 385.841 LE
gsave
0 0 0 C
(c_obs) [6 6 7 7 10] 0 412.2 397.841 11 /Helvetica-Bold SRX
grestore

1 W
0 LC
1 LJ
[] 0 setdash
1 0 0 C
335.121 338.241 LS
337.285 349.692 L
339.45 359.496 L
341.615 376.633 L
343.779 363.728 L
345.944 365.494 L
348.108 369.678 L
350.273 371.591 L
352.438 374.237 L
354.602 373.954 L
356.767 368.716 L
358.932 369.469 L
361.096 365.92 L
363.261 363.675 L
365.426 362.615 L
367.59 359.211 L
369.755 359.749 L
371.92 357.712 L
374.084 363.736 L
376.249 362.111 L
378.413 356.617 L
380.578 367.279 L
382.743 367.706 L
384.907 370.256 L
387.072 364.341 L
389.237 367.453 L
391.401 358.914 L
393.566 354.859 L
395.731 354.033 L
397.895 351.143 L
400.06 355.109 L
402.225 356.666 L
404.389 357.787 L
406.554 351.545 L
408.718 348.158 L
410.883 345.395 L
413.048 348.227 L
415.212 347.596 L
417.377 352.801 L
419.542 356.355 L
421.706 353.365 L
423.871 353.549 L
426.036 353.044 L
428.2 353.846 L
430.365 357.261 L
432.53 357.541 L
434.694 354.396 L
436.859 354.198 L
439.023 357.76 L
441.188 360.033 L
443.353 359.267 L
445.517 365.493 L
447.682 366.209 L
449.847 364.712 L
452.011 367.476 L
454.176 360.704 L
456.341 358.89 L
458.505 366.884 L
460.67 371.049 L
462.835 366.464 L
464.999 368.412 L
467.164 369.465 L
469.329 368.16 L
471.493 369.274 L
473.658 371.425 L
475.822 370.951 L
477.987 370.171 L
480.152 369.133 L
482.316 367.676 L
484.481 369.645 L
486.646 372.84 L
488.81 374.824 L
490.975 370.451 L
493.14 371.548 L
495.304 372.435 L
497.469 370.415 L
499.634 370.428 L
501.798 368.521 L
503.963 365.719 L
506.127 369.367 L
508.292 361.256 L
510.457 355.794 L
512.621 350.117 L
514.786 346.722 L
516.951 342.203 L
519.115 336.955 L
521.28 335.203 LE
[4 4 4 4] 0 setdash
0 0 0 C
335.121 338.241 LS
337.285 349.692 L
339.45 359.496 L
341.615 376.633 L
343.779 363.728 L
345.944 365.494 L
348.108 369.678 L
350.273 371.591 L
352.438 374.237 L
354.602 373.954 L
356.767 368.716 L
358.932 369.469 L
361.096 365.92 L
363.261 363.675 L
365.426 362.615 L
367.59 359.211 L
369.755 359.749 L
371.92 357.712 L
374.084 363.736 L
376.249 362.111 L
378.413 356.617 L
380.578 367.279 L
382.743 367.706 L
384.907 370.256 L
387.072 364.341 L
389.237 367.453 L
391.401 358.914 L
393.566 354.859 L
395.731 354.033 L
397.895 351.143 L
400.06 355.109 L
402.225 356.666 L
404.389 357.787 L
406.554 351.545 L
408.718 348.158 L
410.883 345.395 L
413.048 348.227 L
415.212 347.596 L
417.377 352.801 L
419.542 356.355 L
421.706 353.365 L
423.871 353.549 L
426.036 353.044 L
428.2 353.846 L
430.365 357.261 L
432.53 357.541 L
434.694 354.396 L
436.859 354.198 L
439.023 357.76 L
441.188 360.033 L
443.353 359.267 L
445.517 365.493 L
447.682 366.209 L
449.847 364.712 L
452.011 367.476 L
454.176 360.704 L
456.341 358.89 L
458.505 366.884 L
460.67 371.049 L
462.835 366.464 L
464.999 368.412 L
467.164 369.465 L
469.329 368.16 L
471.493 369.274 L
473.658 371.425 L
475.822 370.951 L
477.987 370.171 L
480.152 369.133 L
482.316 367.676 L
484.481 369.645 L
486.646 372.84 L
488.81 374.824 L
490.975 370.451 L
493.14 371.548 L
495.304 372.435 L
497.469 370.415 L
499.634 370.428 L
501.798 368.521 L
503.963 365.719 L
506.127 369.367 L
508.292 361.256 L
510.457 355.794 L
512.621 350.117 L
514.786 346.722 L
516.951 342.203 L
519.115 336.955 L
521.28 335.203 LE
grestore
gsave
1.0 1.0 scale
newpath 0 0 moveto 576 0 lineto 576 432 lineto 0 432 lineto
closepath clip
1 1 1 C
74.88 253.387 261.039 179.974 74.88 179.974 T
74.88 253.387 261.039 253.387 261.039 179.974 T
0.5 W
[] 0 setdash
0.15 0.15 0.15 C
116.008 179.974 LS
116.008 181.846 LE
116.008 253.387 LS
116.008 251.515 LE
159.301 179.974 LS
159.301 181.846 LE
159.301 253.387 LS
159.301 251.515 LE
202.594 179.974 LS
202.594 181.846 LE
202.594 253.387 LS
202.594 251.515 LE
245.887 179.974 LS
245.887 181.846 LE
245.887 253.387 LS
245.887 251.515 LE
gsave
0.14902 0.14902 0.14902 C
(20) [6 10] 0 110.008 164.431 10 /Helvetica SRX
grestore

gsave
0.14902 0.14902 0.14902 C
(40) [6 10] 0 153.301 164.431 10 /Helvetica SRX
grestore

gsave
0.14902 0.14902 0.14902 C
(60) [6 10] 0 196.594 164.431 10 /Helvetica SRX
grestore

gsave
0.14902 0.14902 0.14902 C
(80) [6 10] 0 239.887 164.431 10 /Helvetica SRX
grestore

74.88 179.974 LS
76.7432 179.974 LE
261.039 179.974 LS
259.176 179.974 LE
74.88 194.656 LS
76.7432 194.656 LE
261.039 194.656 LS
259.176 194.656 LE
74.88 209.339 LS
76.7432 209.339 LE
261.039 209.339 LS
259.176 209.339 LE
74.88 224.022 LS
76.7432 224.022 LE
261.039 224.022 LS
259.176 224.022 LE
74.88 238.704 LS
76.7432 238.704 LE
261.039 238.704 LS
259.176 238.704 LE
74.88 253.387 LS
76.7432 253.387 LE
261.039 253.387 LS
259.176 253.387 LE
gsave
0.14902 0.14902 0.14902 C
(-0.02) [3 6 3 6 10] 0 45.8757 175.974 10 /Helvetica SRX
grestore

gsave
0.14902 0.14902 0.14902 C
(-0.01) [3 6 3 6 10] 0 45.8757 190.656 10 /Helvetica SRX
grestore

gsave
0.14902 0.14902 0.14902 C
(0) [10] 0 63.8757 205.339 10 /Helvetica SRX
grestore

gsave
0.14902 0.14902 0.14902 C
(0.01) [6 3 6 10] 0 48.8757 220.022 10 /Helvetica SRX
grestore

gsave
0.14902 0.14902 0.14902 C
(0.02) [6 3 6 10] 0 48.8757 234.704 10 /Helvetica SRX
grestore

gsave
0.14902 0.14902 0.14902 C
(0.03) [6 3 6 10] 0 48.8757 249.387 10 /Helvetica SRX
grestore

2 LC
[16 0] 0 setdash
74.88 179.974 LS
261.039 179.974 LE
74.88 253.387 LS
261.039 253.387 LE
74.88 179.974 LS
74.88 253.387 LE
261.039 179.974 LS
261.039 253.387 LE
gsave
0 0 0 C
(R_obs) [8 6 7 7 10] 0 150.96 265.387 11 /Helvetica-Bold SRX
grestore

1 W
0 LC
1 LJ
[] 0 setdash
1 0 0 C
74.88 213.246 LS
77.0446 212.195 L
79.2093 208.806 L
81.3739 208.291 L
83.5386 201.311 L
85.7032 200.887 L
87.8679 197.31 L
90.0325 195.615 L
92.1972 192.986 L
94.3618 193.189 L
96.5265 192.596 L
98.6911 199.176 L
100.856 199.815 L
103.02 202.621 L
105.185 218.721 L
107.35 223.834 L
109.514 230.8 L
111.679 217.802 L
113.844 222.548 L
116.008 216.206 L
118.173 213.682 L
120.338 216.874 L
122.502 215.565 L
124.667 217.913 L
126.831 212.691 L
128.996 213.278 L
131.161 216.988 L
133.325 215.797 L
135.49 209.435 L
137.655 218.669 L
139.819 249.513 L
141.984 244.428 L
144.149 226.391 L
146.313 210.67 L
148.478 208.619 L
150.643 202.374 L
152.807 201.647 L
154.972 207.184 L
157.137 203.548 L
159.301 201.593 L
161.466 202.611 L
163.63 204.935 L
165.795 206.314 L
167.96 205.641 L
170.124 204.65 L
172.289 206.725 L
174.454 207.099 L
176.618 207.992 L
178.783 209.336 L
180.948 206.457 L
183.112 207.689 L
185.277 206.667 L
187.442 204.222 L
189.606 203.636 L
191.771 205.288 L
193.935 208.357 L
196.1 207.805 L
198.265 205.521 L
200.429 205.782 L
202.594 207.065 L
204.759 206.711 L
206.923 207.188 L
209.088 205.386 L
211.253 202.81 L
213.417 202.164 L
215.582 201.918 L
217.747 202.29 L
219.911 203.088 L
222.076 203.941 L
224.24 204.177 L
226.405 204.564 L
228.57 203.992 L
230.734 203.865 L
232.899 205.823 L
235.064 208.436 L
237.228 209.134 L
239.393 209.354 L
241.558 208.136 L
243.722 207.155 L
245.887 209.049 L
248.052 212.972 L
250.216 213.894 L
252.381 216.943 L
254.546 221.102 L
256.71 223.602 L
258.875 219.309 L
261.039 216.881 LE
[4 4 4 4] 0 setdash
0 0 0 C
74.88 213.246 LS
77.0446 212.195 L
79.2093 208.806 L
81.3739 208.291 L
83.5386 201.311 L
85.7032 200.887 L
87.8679 197.31 L
90.0325 195.615 L
92.1972 192.986 L
94.3618 193.189 L
96.5265 192.596 L
98.6911 199.176 L
100.856 199.815 L
103.02 202.621 L
105.185 218.721 L
107.35 223.834 L
109.514 230.8 L
111.679 217.802 L
113.844 222.548 L
116.008 216.206 L
118.173 213.682 L
120.338 216.874 L
122.502 215.565 L
124.667 217.913 L
126.831 212.691 L
128.996 213.278 L
131.161 216.988 L
133.325 215.797 L
135.49 209.435 L
137.655 218.669 L
139.819 249.513 L
141.984 244.428 L
144.149 226.391 L
146.313 210.67 L
148.478 208.619 L
150.643 202.374 L
152.807 201.647 L
154.972 207.184 L
157.137 203.548 L
159.301 201.593 L
161.466 202.611 L
163.63 204.935 L
165.795 206.314 L
167.96 205.641 L
170.124 204.65 L
172.289 206.725 L
174.454 207.099 L
176.618 207.992 L
178.783 209.336 L
180.948 206.457 L
183.112 207.689 L
185.277 206.667 L
187.442 204.222 L
189.606 203.636 L
191.771 205.288 L
193.935 208.357 L
196.1 207.805 L
198.265 205.521 L
200.429 205.782 L
202.594 207.065 L
204.759 206.711 L
206.923 207.188 L
209.088 205.386 L
211.253 202.81 L
213.417 202.164 L
215.582 201.918 L
217.747 202.29 L
219.911 203.088 L
222.076 203.941 L
224.24 204.177 L
226.405 204.564 L
228.57 203.992 L
230.734 203.865 L
232.899 205.823 L
235.064 208.436 L
237.228 209.134 L
239.393 209.354 L
241.558 208.136 L
243.722 207.155 L
245.887 209.049 L
248.052 212.972 L
250.216 213.894 L
252.381 216.943 L
254.546 221.102 L
256.71 223.602 L
258.875 219.309 L
261.039 216.881 LE
grestore
gsave
1.0 1.0 scale
newpath 0 0 moveto 576 0 lineto 576 432 lineto 0 432 lineto
closepath clip
1 1 1 C
335.121 253.387 521.28 179.974 335.121 179.974 T
335.121 253.387 521.28 253.387 521.28 179.974 T
0.5 W
[] 0 setdash
0.15 0.15 0.15 C
376.249 179.974 LS
376.249 181.846 LE
376.249 253.387 LS
376.249 251.515 LE
419.542 179.974 LS
419.542 181.846 LE
419.542 253.387 LS
419.542 251.515 LE
462.835 179.974 LS
462.835 181.846 LE
462.835 253.387 LS
462.835 251.515 LE
506.127 179.974 LS
506.127 181.846 LE
506.127 253.387 LS
506.127 251.515 LE
gsave
0.14902 0.14902 0.14902 C
(20) [6 10] 0 370.249 164.431 10 /Helvetica SRX
grestore

gsave
0.14902 0.14902 0.14902 C
(40) [6 10] 0 413.542 164.431 10 /Helvetica SRX
grestore

gsave
0.14902 0.14902 0.14902 C
(60) [6 10] 0 456.835 164.431 10 /Helvetica SRX
grestore

gsave
0.14902 0.14902 0.14902 C
(80) [6 10] 0 500.127 164.431 10 /Helvetica SRX
grestore

335.121 179.974 LS
336.984 179.974 LE
521.28 179.974 LS
519.417 179.974 LE
335.121 192.209 LS
336.984 192.209 LE
521.28 192.209 LS
519.417 192.209 LE
335.121 204.445 LS
336.984 204.445 LE
521.28 204.445 LS
519.417 204.445 LE
335.121 216.68 LS
336.984 216.68 LE
521.28 216.68 LS
519.417 216.68 LE
335.121 228.916 LS
336.984 228.916 LE
521.28 228.916 LS
519.417 228.916 LE
335.121 241.151 LS
336.984 241.151 LE
521.28 241.151 LS
519.417 241.151 LE
335.121 253.387 LS
336.984 253.387 LE
521.28 253.387 LS
519.417 253.387 LE
gsave
0.14902 0.14902 0.14902 C
(-0.8) [3 6 3 10] 0 312.116 175.974 10 /Helvetica SRX
grestore

gsave
0.14902 0.14902 0.14902 C
(-0.6) [3 6 3 10] 0 312.116 188.209 10 /Helvetica SRX
grestore

gsave
0.14902 0.14902 0.14902 C
(-0.4) [3 6 3 10] 0 312.116 200.445 10 /Helvetica SRX
grestore

gsave
0.14902 0.14902 0.14902 C
(-0.2) [3 6 3 10] 0 312.116 212.68 10 /Helvetica SRX
grestore

gsave
0.14902 0.14902 0.14902 C
(0) [10] 0 324.116 224.916 10 /Helvetica SRX
grestore

gsave
0.14902 0.14902 0.14902 C
(0.2) [6 3 10] 0 315.116 237.151 10 /Helvetica SRX
grestore

gsave
0.14902 0.14902 0.14902 C
(0.4) [6 3 10] 0 315.116 249.387 10 /Helvetica SRX
grestore

2 LC
[16 0] 0 setdash
335.121 179.974 LS
521.28 179.974 LE
335.121 253.387 LS
521.28 253.387 LE
335.121 179.974 LS
335.121 253.387 LE
521.28 179.974 LS
521.28 253.387 LE
gsave
0 0 0 C
(p_C_obs) [7 6 8 6 7 7 10] 0 404.7 266.387 11 /Helvetica-Bold SRX
grestore

1 W
0 LC
1 LJ
[] 0 setdash
1 0 0 C
335.121 248.117 LS
337.285 244.953 L
339.45 243.074 L
341.615 241.707 L
343.779 241.372 L
345.944 241.803 L
348.108 239.166 L
350.273 239.394 L
352.438 240.201 L
354.602 237.162 L
356.767 234.923 L
358.932 232.246 L
361.096 225.241 L
363.261 221.647 L
365.426 217.958 L
367.59 214.126 L
369.755 211.16 L
371.92 214.633 L
374.084 218.809 L
376.249 222.264 L
378.413 224.868 L
380.578 222.187 L
382.743 222.516 L
384.907 222.279 L
387.072 219.246 L
389.237 218.031 L
391.401 214.732 L
393.566 209.08 L
395.731 210.484 L
397.895 212.804 L
400.06 213.803 L
402.225 215.3 L
404.389 216.849 L
406.554 212.472 L
408.718 213.405 L
410.883 217.93 L
413.048 221.117 L
415.212 221.383 L
417.377 222.38 L
419.542 223.918 L
421.706 225.626 L
423.871 225.653 L
426.036 229.154 L
428.2 230.134 L
430.365 233.429 L
432.53 237.771 L
434.694 238.932 L
436.859 238.892 L
439.023 237.329 L
441.188 240.183 L
443.353 240.792 L
445.517 243.873 L
447.682 247.774 L
449.847 248.74 L
452.011 245.851 L
454.176 224.035 L
456.341 217.512 L
458.505 223.468 L
460.67 230.939 L
462.835 234.981 L
464.999 236.012 L
467.164 236.74 L
469.329 237.391 L
471.493 244.837 L
473.658 249.387 L
475.822 249.189 L
477.987 246.147 L
480.152 241.045 L
482.316 241.625 L
484.481 238.587 L
486.646 238.203 L
488.81 238.449 L
490.975 238.377 L
493.14 235.26 L
495.304 236.026 L
497.469 235.851 L
499.634 234.542 L
501.798 233.473 L
503.963 231.161 L
506.127 225.144 L
508.292 216.978 L
510.457 215.902 L
512.621 210.445 L
514.786 206.341 L
516.951 202.953 L
519.115 207.26 L
521.28 208.541 LE
[4 4 4 4] 0 setdash
0 0 0 C
335.121 248.117 LS
337.285 244.953 L
339.45 243.074 L
341.615 241.707 L
343.779 241.372 L
345.944 241.803 L
348.108 239.166 L
350.273 239.394 L
352.438 240.201 L
354.602 237.162 L
356.767 234.923 L
358.932 232.246 L
361.096 225.241 L
363.261 221.647 L
365.426 217.958 L
367.59 214.126 L
369.755 211.16 L
371.92 214.633 L
374.084 218.809 L
376.249 222.264 L
378.413 224.868 L
380.578 222.187 L
382.743 222.516 L
384.907 222.279 L
387.072 219.246 L
389.237 218.031 L
391.401 214.732 L
393.566 209.08 L
395.731 210.484 L
397.895 212.804 L
400.06 213.803 L
402.225 215.3 L
404.389 216.849 L
406.554 212.472 L
408.718 213.405 L
410.883 217.93 L
413.048 221.117 L
415.212 221.383 L
417.377 222.38 L
419.542 223.918 L
421.706 225.626 L
423.871 225.653 L
426.036 229.154 L
428.2 230.134 L
430.365 233.429 L
432.53 237.771 L
434.694 238.932 L
436.859 238.892 L
439.023 237.329 L
441.188 240.183 L
443.353 240.792 L
445.517 243.873 L
447.682 247.774 L
449.847 248.74 L
452.011 245.851 L
454.176 224.035 L
456.341 217.512 L
458.505 223.468 L
460.67 230.939 L
462.835 234.981 L
464.999 236.012 L
467.164 236.74 L
469.329 237.391 L
471.493 244.837 L
473.658 249.387 L
475.822 249.189 L
477.987 246.147 L
480.152 241.045 L
482.316 241.625 L
484.481 238.587 L
486.646 238.203 L
488.81 238.449 L
490.975 238.377 L
493.14 235.26 L
495.304 236.026 L
497.469 235.851 L
499.634 234.542 L
501.798 233.473 L
503.963 231.161 L
506.127 225.144 L
508.292 216.978 L
510.457 215.902 L
512.621 210.445 L
514.786 206.341 L
516.951 202.953 L
519.115 207.26 L
521.28 208.541 LE
grestore
gsave
1.0 1.0 scale
newpath 0 0 moveto 576 0 lineto 576 432 lineto 0 432 lineto
closepath clip
1 1 1 C
74.88 120.933 261.039 47.52 74.88 47.52 T
74.88 120.933 261.039 120.933 261.039 47.52 T
0.5 W
[] 0 setdash
0.15 0.15 0.15 C
116.008 47.52 LS
116.008 49.3921 LE
116.008 120.933 LS
116.008 119.061 LE
159.301 47.52 LS
159.301 49.3921 LE
159.301 120.933 LS
159.301 119.061 LE
202.594 47.52 LS
202.594 49.3921 LE
202.594 120.933 LS
202.594 119.061 LE
245.887 47.52 LS
245.887 49.3921 LE
245.887 120.933 LS
245.887 119.061 LE
gsave
0.14902 0.14902 0.14902 C
(20) [6 10] 0 110.008 31.9776 10 /Helvetica SRX
grestore

gsave
0.14902 0.14902 0.14902 C
(40) [6 10] 0 153.301 31.9776 10 /Helvetica SRX
grestore

gsave
0.14902 0.14902 0.14902 C
(60) [6 10] 0 196.594 31.9776 10 /Helvetica SRX
grestore

gsave
0.14902 0.14902 0.14902 C
(80) [6 10] 0 239.887 31.9776 10 /Helvetica SRX
grestore

74.88 47.52 LS
76.7432 47.52 LE
261.039 47.52 LS
259.176 47.52 LE
74.88 58.0076 LS
76.7432 58.0076 LE
261.039 58.0076 LS
259.176 58.0076 LE
74.88 68.4952 LS
76.7432 68.4952 LE
261.039 68.4952 LS
259.176 68.4952 LE
74.88 78.9828 LS
76.7432 78.9828 LE
261.039 78.9828 LS
259.176 78.9828 LE
74.88 89.4703 LS
76.7432 89.4703 LE
261.039 89.4703 LS
259.176 89.4703 LE
74.88 99.9579 LS
76.7432 99.9579 LE
261.039 99.9579 LS
259.176 99.9579 LE
74.88 110.446 LS
76.7432 110.446 LE
261.039 110.446 LS
259.176 110.446 LE
74.88 120.933 LS
76.7432 120.933 LE
261.039 120.933 LS
259.176 120.933 LE
gsave
0.14902 0.14902 0.14902 C
(-0.03) [3 6 3 6 10] 0 45.8757 43.52 10 /Helvetica SRX
grestore

gsave
0.14902 0.14902 0.14902 C
(-0.02) [3 6 3 6 10] 0 45.8757 54.0076 10 /Helvetica SRX
grestore

gsave
0.14902 0.14902 0.14902 C
(-0.01) [3 6 3 6 10] 0 45.8757 64.4952 10 /Helvetica SRX
grestore

gsave
0.14902 0.14902 0.14902 C
(0) [10] 0 63.8757 74.9828 10 /Helvetica SRX
grestore

gsave
0.14902 0.14902 0.14902 C
(0.01) [6 3 6 10] 0 48.8757 85.4704 10 /Helvetica SRX
grestore

gsave
0.14902 0.14902 0.14902 C
(0.02) [6 3 6 10] 0 48.8757 95.958 10 /Helvetica SRX
grestore

gsave
0.14902 0.14902 0.14902 C
(0.03) [6 3 6 10] 0 48.8757 106.446 10 /Helvetica SRX
grestore

gsave
0.14902 0.14902 0.14902 C
(0.04) [6 3 6 10] 0 48.8757 116.933 10 /Helvetica SRX
grestore

2 LC
[16 0] 0 setdash
74.88 47.52 LS
261.039 47.52 LE
74.88 120.933 LS
261.039 120.933 LE
74.88 47.52 LS
74.88 120.933 LE
261.039 47.52 LS
261.039 120.933 LE
gsave
0 0 0 C
(tb_y_obs) [4 7 6 6 6 7 7 10] 0 143.46 133.933 11 /Helvetica-Bold SRX
grestore

1 W
0 LC
1 LJ
[] 0 setdash
1 0 0 C
74.88 91.5703 LS
77.0446 88.2794 L
79.2093 99.9345 L
81.3739 102.953 L
83.5386 93.6769 L
85.7032 88.6116 L
87.8679 78.375 L
90.0325 71.0801 L
92.1972 70.2162 L
94.3618 72.9527 L
96.5265 69.1125 L
98.6911 70.9598 L
100.856 68.9969 L
103.02 73.1976 L
105.185 64.874 L
107.35 62.5546 L
109.514 73.9991 L
111.679 67.4354 L
113.844 65.8429 L
116.008 64.7233 L
118.173 66.6599 L
120.338 62.5378 L
122.502 60.0854 L
124.667 47.8082 L
126.831 48.6321 L
128.996 49.9154 L
131.161 59.2322 L
133.325 62.9245 L
135.49 65.5503 L
137.655 63.7482 L
139.819 98.7126 L
141.984 104.331 L
144.149 90.6125 L
146.313 95.2835 L
148.478 99.0494 L
150.643 99.7456 L
152.807 103.506 L
154.972 112.426 L
157.137 110.007 L
159.301 101.961 L
161.466 108.102 L
163.63 104.462 L
165.795 107.465 L
167.96 104.279 L
170.124 100.338 L
172.289 92.9303 L
174.454 103.18 L
176.618 96.8171 L
178.783 91.2945 L
180.948 87.9952 L
183.112 83.1543 L
185.277 78.198 L
187.442 67.8449 L
189.606 68.7449 L
191.771 71.6911 L
193.935 68.8839 L
196.1 70.6377 L
198.265 77.0952 L
200.429 68.9781 L
202.594 62.4028 L
204.759 64.1703 L
206.923 65.8791 L
209.088 61.825 L
211.253 68.1841 L
213.417 72.5233 L
215.582 69.2789 L
217.747 73.0958 L
219.911 69.5651 L
222.076 73.5195 L
224.24 65.3932 L
226.405 72.7782 L
228.57 64.1967 L
230.734 61.6594 L
232.899 62.6731 L
235.064 61.0231 L
237.228 68.8181 L
239.393 64.4371 L
241.558 67.5317 L
243.722 67.9436 L
245.887 62.1216 L
248.052 69.9116 L
250.216 82.6957 L
252.381 91.7337 L
254.546 101.383 L
256.71 113.014 L
258.875 110.713 L
261.039 108.865 LE
[4 4 4 4] 0 setdash
0 0 0 C
74.88 91.5703 LS
77.0446 88.2794 L
79.2093 99.9345 L
81.3739 102.953 L
83.5386 93.6769 L
85.7032 88.6116 L
87.8679 78.375 L
90.0325 71.0801 L
92.1972 70.2162 L
94.3618 72.9527 L
96.5265 69.1125 L
98.6911 70.9598 L
100.856 68.9969 L
103.02 73.1976 L
105.185 64.874 L
107.35 62.5546 L
109.514 73.9991 L
111.679 67.4354 L
113.844 65.8429 L
116.008 64.7233 L
118.173 66.6599 L
120.338 62.5378 L
122.502 60.0854 L
124.667 47.8082 L
126.831 48.6321 L
128.996 49.9154 L
131.161 59.2322 L
133.325 62.9245 L
135.49 65.5503 L
137.655 63.7482 L
139.819 98.7126 L
141.984 104.331 L
144.149 90.6125 L
146.313 95.2835 L
148.478 99.0494 L
150.643 99.7456 L
152.807 103.506 L
154.972 112.426 L
157.137 110.007 L
159.301 101.961 L
161.466 108.102 L
163.63 104.462 L
165.795 107.465 L
167.96 104.279 L
170.124 100.338 L
172.289 92.9303 L
174.454 103.18 L
176.618 96.8171 L
178.783 91.2945 L
180.948 87.9952 L
183.112 83.1543 L
185.277 78.198 L
187.442 67.8449 L
189.606 68.7449 L
191.771 71.6911 L
193.935 68.8839 L
196.1 70.6377 L
198.265 77.0952 L
200.429 68.9781 L
202.594 62.4028 L
204.759 64.1703 L
206.923 65.8791 L
209.088 61.825 L
211.253 68.1841 L
213.417 72.5233 L
215.582 69.2789 L
217.747 73.0958 L
219.911 69.5651 L
222.076 73.5195 L
224.24 65.3932 L
226.405 72.7782 L
228.57 64.1967 L
230.734 61.6594 L
232.899 62.6731 L
235.064 61.0231 L
237.228 68.8181 L
239.393 64.4371 L
241.558 67.5317 L
243.722 67.9436 L
245.887 62.1216 L
248.052 69.9116 L
250.216 82.6957 L
252.381 91.7337 L
254.546 101.383 L
256.71 113.014 L
258.875 110.713 L
261.039 108.865 LE
grestore
grestore
showpage
cleartomark
%%PageTrailer
%%Trailer
end
%%EOF
