%!PS-Adobe-3.0 EPSF-3.0
%%Title: gl2ps_renderer figure
%%Creator: GL2PS 1.4.0, (C) 1999-2017 C. Geuzaine
%%For: Octave
%%CreationDate: Fri Feb 28 14:24:04 2020
%%LanguageLevel: 3
%%DocumentData: Clean7Bit
%%Pages: 1
%%BoundingBox: 0 0 576 432
%%EndComments
%%BeginProlog
/gl2psdict 64 dict def gl2psdict begin
/tryPS3shading false def % set to false to force subdivision
/rThreshold 0.064 def % red component subdivision threshold
/gThreshold 0.034 def % green component subdivision threshold
/bThreshold 0.1 def % blue component subdivision threshold
/BD { bind def } bind def
/C  { setrgbcolor } BD
/G  { 0.082 mul exch 0.6094 mul add exch 0.3086 mul add neg 1.0 add setgray } BD
/W  { setlinewidth } BD
/LC  { setlinecap } BD
/LJ  { setlinejoin } BD
/FC { findfont exch /SH exch def SH scalefont setfont } BD
/SW { dup stringwidth pop } BD
/S  { FC moveto show } BD
/SBC{ FC moveto SW -2 div 0 rmoveto show } BD
/SBR{ FC moveto SW neg 0 rmoveto show } BD
/SCL{ FC moveto 0 SH -2 div rmoveto show } BD
/SCC{ FC moveto SW -2 div SH -2 div rmoveto show } BD
/SCR{ FC moveto SW neg SH -2 div rmoveto show } BD
/STL{ FC moveto 0 SH neg rmoveto show } BD
/STC{ FC moveto SW -2 div SH neg rmoveto show } BD
/STR{ FC moveto SW neg SH neg rmoveto show } BD
/FCT { FC translate 0 0 } BD
/SR  { gsave FCT moveto rotate show grestore } BD
/SRX  { gsave FCT moveto rotate xshow grestore } BD
/SBCR{ gsave FCT moveto rotate SW -2 div 0 rmoveto show grestore } BD
/SBRR{ gsave FCT moveto rotate SW neg 0 rmoveto show grestore } BD
/SCLR{ gsave FCT moveto rotate 0 SH -2 div rmoveto show grestore} BD
/SCCR{ gsave FCT moveto rotate SW -2 div SH -2 div rmoveto show grestore} BD
/SCRR{ gsave FCT moveto rotate SW neg SH -2 div rmoveto show grestore} BD
/STLR{ gsave FCT moveto rotate 0 SH neg rmoveto show grestore } BD
/STCR{ gsave FCT moveto rotate SW -2 div SH neg rmoveto show grestore } BD
/STRR{ gsave FCT moveto rotate SW neg SH neg rmoveto show grestore } BD
/P  { newpath 0.0 360.0 arc closepath fill } BD
/LS { newpath moveto } BD
/L  { lineto } BD
/LE { lineto stroke } BD
/T  { newpath moveto lineto lineto closepath fill } BD
/STshfill {
      /b1 exch def /g1 exch def /r1 exch def /y1 exch def /x1 exch def
      /b2 exch def /g2 exch def /r2 exch def /y2 exch def /x2 exch def
      /b3 exch def /g3 exch def /r3 exch def /y3 exch def /x3 exch def
      gsave << /ShadingType 4 /ColorSpace [/DeviceRGB]
      /DataSource [ 0 x1 y1 r1 g1 b1 0 x2 y2 r2 g2 b2 0 x3 y3 r3 g3 b3 ] >>
      shfill grestore } BD
/Tm { 3 -1 roll 8 -1 roll 13 -1 roll add add 3 div
      3 -1 roll 7 -1 roll 11 -1 roll add add 3 div
      3 -1 roll 6 -1 roll 9 -1 roll add add 3 div C T } BD
/STsplit {
      4 index 15 index add 0.5 mul
      4 index 15 index add 0.5 mul
      4 index 15 index add 0.5 mul
      4 index 15 index add 0.5 mul
      4 index 15 index add 0.5 mul
      5 copy 5 copy 25 15 roll
      9 index 30 index add 0.5 mul
      9 index 30 index add 0.5 mul
      9 index 30 index add 0.5 mul
      9 index 30 index add 0.5 mul
      9 index 30 index add 0.5 mul
      5 copy 5 copy 35 5 roll 25 5 roll 15 5 roll
      4 index 10 index add 0.5 mul
      4 index 10 index add 0.5 mul
      4 index 10 index add 0.5 mul
      4 index 10 index add 0.5 mul
      4 index 10 index add 0.5 mul
      5 copy 5 copy 40 5 roll 25 5 roll 15 5 roll 25 5 roll
      STnoshfill STnoshfill STnoshfill STnoshfill } BD
/STnoshfill {
      2 index 8 index sub abs rThreshold gt
      { STsplit }
      { 1 index 7 index sub abs gThreshold gt
        { STsplit }
        { dup 6 index sub abs bThreshold gt
          { STsplit }
          { 2 index 13 index sub abs rThreshold gt
            { STsplit }
            { 1 index 12 index sub abs gThreshold gt
              { STsplit }
              { dup 11 index sub abs bThreshold gt
                { STsplit }
                { 7 index 13 index sub abs rThreshold gt
                  { STsplit }
                  { 6 index 12 index sub abs gThreshold gt
                    { STsplit }
                    { 5 index 11 index sub abs bThreshold gt
                      { STsplit }
                      { Tm }
                      ifelse }
                    ifelse }
                  ifelse }
                ifelse }
              ifelse }
            ifelse }
          ifelse }
        ifelse }
      ifelse } BD
tryPS3shading
{ /shfill where
  { /ST { STshfill } BD }
  { /ST { STnoshfill } BD }
  ifelse }
{ /ST { STnoshfill } BD }
ifelse
end
%%EndProlog
%%BeginSetup
/DeviceRGB setcolorspace
gl2psdict begin
%%EndSetup
%%Page: 1 1
%%BeginPageSetup
%%EndPageSetup
mark
gsave
1.0 1.0 scale
1 1 1 C
newpath 0 0 moveto 576 0 lineto 576 432 lineto 0 432 lineto
closepath fill
gsave
1.0 1.0 scale
1 1 1 C
newpath 0 0 moveto 576 0 lineto 576 432 lineto 0 432 lineto
closepath fill
newpath 0 0 moveto 576 0 lineto 576 432 lineto 0 432 lineto
closepath clip
1 1 1 C
74.88 385.851 187.079 312.441 74.88 312.441 T
74.88 385.851 187.079 385.851 187.079 312.441 T
0.5 W
0.15 0.15 0.15 C
98.5008 312.441 LS
98.5008 313.57 LE
98.5008 385.851 LS
98.5008 384.723 LE
128.027 312.441 LS
128.027 313.57 LE
128.027 385.851 LS
128.027 384.723 LE
157.553 312.441 LS
157.553 313.57 LE
157.553 385.851 LS
157.553 384.723 LE
187.079 312.441 LS
187.079 313.57 LE
187.079 385.851 LS
187.079 384.723 LE
gsave
0.14902 0.14902 0.14902 C
(5) [10] 0 95.5008 296.899 10 /Helvetica SRX
grestore

gsave
0.14902 0.14902 0.14902 C
(10) [6 10] 0 122.027 296.899 10 /Helvetica SRX
grestore

gsave
0.14902 0.14902 0.14902 C
(15) [6 10] 0 151.553 296.899 10 /Helvetica SRX
grestore

gsave
0.14902 0.14902 0.14902 C
(20) [6 10] 0 181.079 296.899 10 /Helvetica SRX
grestore

74.88 312.441 LS
76.004 312.441 LE
187.079 312.441 LS
185.955 312.441 LE
74.88 327.123 LS
76.004 327.123 LE
187.079 327.123 LS
185.955 327.123 LE
74.88 341.805 LS
76.004 341.805 LE
187.079 341.805 LS
185.955 341.805 LE
74.88 356.487 LS
76.004 356.487 LE
187.079 356.487 LS
185.955 356.487 LE
74.88 371.169 LS
76.004 371.169 LE
187.079 371.169 LS
185.955 371.169 LE
74.88 385.851 LS
76.004 385.851 LE
187.079 385.851 LS
185.955 385.851 LE
gsave
0.14902 0.14902 0.14902 C
(-0.02) [3 6 3 6 10] 0 45.8711 308.441 10 /Helvetica SRX
grestore

gsave
0.14902 0.14902 0.14902 C
(-0.015) [3 6 3 6 6 10] 0 39.8711 323.123 10 /Helvetica SRX
grestore

gsave
0.14902 0.14902 0.14902 C
(-0.01) [3 6 3 6 10] 0 45.8711 337.805 10 /Helvetica SRX
grestore

gsave
0.14902 0.14902 0.14902 C
(-0.005) [3 6 3 6 6 10] 0 39.8711 352.487 10 /Helvetica SRX
grestore

gsave
0.14902 0.14902 0.14902 C
(0) [10] 0 63.8711 367.169 10 /Helvetica SRX
grestore

gsave
0.14902 0.14902 0.14902 C
(0.005) [6 3 6 6 10] 0 42.8711 381.851 10 /Helvetica SRX
grestore

2 LC
[16 0] 0 setdash
74.88 312.441 LS
187.079 312.441 LE
74.88 385.851 LS
187.079 385.851 LE
74.88 312.441 LS
74.88 385.851 LE
187.079 312.441 LS
187.079 385.851 LE
gsave
0 0 0 C
(Y_hat) [7 6 7 6 10] 0 115.979 397.851 11 /Helvetica-Bold SRX
grestore

1 W
0 LC
1 LJ
[] 0 setdash
0 0 0 C
74.88 318.185 LS
80.7852 352.029 L
86.6904 367.418 L
92.5956 374.988 L
98.5008 378.926 L
104.406 381.007 L
110.311 382.057 L
116.216 382.506 L
122.122 382.6 L
128.027 382.487 L
133.932 382.263 L
139.837 381.987 L
145.742 381.694 L
151.648 381.405 L
157.553 381.13 L
163.458 380.874 L
169.363 380.637 L
175.268 380.418 L
181.173 380.215 L
187.079 380.027 LE
0.5 W
1 0 0 C
74.88 371.169 LS
187.079 371.169 LE
grestore
gsave
1.0 1.0 scale
newpath 0 0 moveto 576 0 lineto 576 432 lineto 0 432 lineto
closepath clip
1 1 1 C
241.981 385.851 354.179 312.441 241.981 312.441 T
241.981 385.851 354.179 385.851 354.179 312.441 T
0.5 W
0.15 0.15 0.15 C
265.601 312.441 LS
265.601 313.57 LE
265.601 385.851 LS
265.601 384.723 LE
295.127 312.441 LS
295.127 313.57 LE
295.127 385.851 LS
295.127 384.723 LE
324.653 312.441 LS
324.653 313.57 LE
324.653 385.851 LS
324.653 384.723 LE
354.179 312.441 LS
354.179 313.57 LE
354.179 385.851 LS
354.179 384.723 LE
gsave
0.14902 0.14902 0.14902 C
(5) [10] 0 262.601 296.899 10 /Helvetica SRX
grestore

gsave
0.14902 0.14902 0.14902 C
(10) [6 10] 0 289.127 296.899 10 /Helvetica SRX
grestore

gsave
0.14902 0.14902 0.14902 C
(15) [6 10] 0 318.653 296.899 10 /Helvetica SRX
grestore

gsave
0.14902 0.14902 0.14902 C
(20) [6 10] 0 348.179 296.899 10 /Helvetica SRX
grestore

241.981 312.441 LS
243.105 312.441 LE
354.179 312.441 LS
353.055 312.441 LE
241.981 327.123 LS
243.105 327.123 LE
354.179 327.123 LS
353.055 327.123 LE
241.981 341.805 LS
243.105 341.805 LE
354.179 341.805 LS
353.055 341.805 LE
241.981 356.487 LS
243.105 356.487 LE
354.179 356.487 LS
353.055 356.487 LE
241.981 371.169 LS
243.105 371.169 LE
354.179 371.169 LS
353.055 371.169 LE
241.981 385.851 LS
243.105 385.851 LE
354.179 385.851 LS
353.055 385.851 LE
gsave
0.14902 0.14902 0.14902 C
(0) [10] 0 230.972 308.441 10 /Helvetica SRX
grestore

gsave
0.14902 0.14902 0.14902 C
(0.002) [6 3 6 6 10] 0 209.972 323.123 10 /Helvetica SRX
grestore

gsave
0.14902 0.14902 0.14902 C
(0.004) [6 3 6 6 10] 0 209.972 337.805 10 /Helvetica SRX
grestore

gsave
0.14902 0.14902 0.14902 C
(0.006) [6 3 6 6 10] 0 209.972 352.487 10 /Helvetica SRX
grestore

gsave
0.14902 0.14902 0.14902 C
(0.008) [6 3 6 6 10] 0 209.972 367.169 10 /Helvetica SRX
grestore

gsave
0.14902 0.14902 0.14902 C
(0.01) [6 3 6 10] 0 215.972 381.851 10 /Helvetica SRX
grestore

2 LC
[16 0] 0 setdash
241.981 312.441 LS
354.179 312.441 LE
241.981 385.851 LS
354.179 385.851 LE
241.981 312.441 LS
241.981 385.851 LE
354.179 312.441 LS
354.179 385.851 LE
gsave
0 0 0 C
(C_hat) [8 6 7 6 10] 0 282.58 397.851 11 /Helvetica-Bold SRX
grestore

1 W
0 LC
1 LJ
[] 0 setdash
0 0 0 C
241.981 356.167 LS
247.886 373.162 L
253.791 379.044 L
259.696 379.729 L
265.601 377.737 L
271.507 374.317 L
277.412 370.189 L
283.317 365.808 L
289.222 361.47 L
295.127 357.363 L
301.033 353.593 L
306.938 350.212 L
312.843 347.231 L
318.748 344.633 L
324.653 342.388 L
330.559 340.458 L
336.464 338.802 L
342.369 337.382 L
348.274 336.163 L
354.179 335.115 LE
0.5 W
1 0 0 C
241.981 312.441 LS
354.179 312.441 LE
grestore
gsave
1.0 1.0 scale
newpath 0 0 moveto 576 0 lineto 576 432 lineto 0 432 lineto
closepath clip
1 1 1 C
409.081 385.851 521.28 312.441 409.081 312.441 T
409.081 385.851 521.28 385.851 521.28 312.441 T
0.5 W
0.15 0.15 0.15 C
432.702 312.441 LS
432.702 313.57 LE
432.702 385.851 LS
432.702 384.723 LE
462.228 312.441 LS
462.228 313.57 LE
462.228 385.851 LS
462.228 384.723 LE
491.754 312.441 LS
491.754 313.57 LE
491.754 385.851 LS
491.754 384.723 LE
521.28 312.441 LS
521.28 313.57 LE
521.28 385.851 LS
521.28 384.723 LE
gsave
0.14902 0.14902 0.14902 C
(5) [10] 0 429.702 296.899 10 /Helvetica SRX
grestore

gsave
0.14902 0.14902 0.14902 C
(10) [6 10] 0 456.228 296.899 10 /Helvetica SRX
grestore

gsave
0.14902 0.14902 0.14902 C
(15) [6 10] 0 485.754 296.899 10 /Helvetica SRX
grestore

gsave
0.14902 0.14902 0.14902 C
(20) [6 10] 0 515.28 296.899 10 /Helvetica SRX
grestore

409.081 312.441 LS
410.205 312.441 LE
521.28 312.441 LS
520.156 312.441 LE
409.081 324.676 LS
410.205 324.676 LE
521.28 324.676 LS
520.156 324.676 LE
409.081 336.911 LS
410.205 336.911 LE
521.28 336.911 LS
520.156 336.911 LE
409.081 349.146 LS
410.205 349.146 LE
521.28 349.146 LS
520.156 349.146 LE
409.081 361.381 LS
410.205 361.381 LE
521.28 361.381 LS
520.156 361.381 LE
409.081 373.616 LS
410.205 373.616 LE
521.28 373.616 LS
520.156 373.616 LE
409.081 385.851 LS
410.205 385.851 LE
521.28 385.851 LS
520.156 385.851 LE
gsave
0.14902 0.14902 0.14902 C
(0) [10] 0 398.072 308.441 10 /Helvetica SRX
grestore

gsave
0.14902 0.14902 0.14902 C
(0.005) [6 3 6 6 10] 0 377.072 320.676 10 /Helvetica SRX
grestore

gsave
0.14902 0.14902 0.14902 C
(0.01) [6 3 6 10] 0 383.072 332.911 10 /Helvetica SRX
grestore

gsave
0.14902 0.14902 0.14902 C
(0.015) [6 3 6 6 10] 0 377.072 345.146 10 /Helvetica SRX
grestore

gsave
0.14902 0.14902 0.14902 C
(0.02) [6 3 6 10] 0 383.072 357.381 10 /Helvetica SRX
grestore

gsave
0.14902 0.14902 0.14902 C
(0.025) [6 3 6 6 10] 0 377.072 369.616 10 /Helvetica SRX
grestore

gsave
0.14902 0.14902 0.14902 C
(0.03) [6 3 6 10] 0 383.072 381.851 10 /Helvetica SRX
grestore

2 LC
[16 0] 0 setdash
409.081 312.441 LS
521.28 312.441 LE
409.081 385.851 LS
521.28 385.851 LE
409.081 312.441 LS
409.081 385.851 LE
521.28 312.441 LS
521.28 385.851 LE
gsave
0 0 0 C
(I_hat) [3 6 7 6 10] 0 452.181 397.851 11 /Helvetica-Bold SRX
grestore

1 W
0 LC
1 LJ
[] 0 setdash
0 0 0 C
409.081 371.488 LS
414.987 373.92 L
420.892 372.078 L
426.797 367.057 L
432.702 360.266 L
438.607 352.96 L
444.513 346.043 L
450.418 340.042 L
456.323 335.167 L
462.228 331.405 L
468.133 328.61 L
474.038 326.586 L
479.944 325.131 L
485.849 324.072 L
491.754 323.275 L
497.659 322.642 L
503.564 322.114 L
509.47 321.653 L
515.375 321.24 L
521.28 320.865 LE
0.5 W
1 0 0 C
409.081 312.441 LS
521.28 312.441 LE
grestore
gsave
1.0 1.0 scale
newpath 0 0 moveto 576 0 lineto 576 432 lineto 0 432 lineto
closepath clip
1 1 1 C
74.88 253.39 187.079 179.981 74.88 179.981 T
74.88 253.39 187.079 253.39 187.079 179.981 T
0.5 W
0.15 0.15 0.15 C
98.5008 179.981 LS
98.5008 181.109 LE
98.5008 253.39 LS
98.5008 252.262 LE
128.027 179.981 LS
128.027 181.109 LE
128.027 253.39 LS
128.027 252.262 LE
157.553 179.981 LS
157.553 181.109 LE
157.553 253.39 LS
157.553 252.262 LE
187.079 179.981 LS
187.079 181.109 LE
187.079 253.39 LS
187.079 252.262 LE
gsave
0.14902 0.14902 0.14902 C
(5) [10] 0 95.5008 164.439 10 /Helvetica SRX
grestore

gsave
0.14902 0.14902 0.14902 C
(10) [6 10] 0 122.027 164.439 10 /Helvetica SRX
grestore

gsave
0.14902 0.14902 0.14902 C
(15) [6 10] 0 151.553 164.439 10 /Helvetica SRX
grestore

gsave
0.14902 0.14902 0.14902 C
(20) [6 10] 0 181.079 164.439 10 /Helvetica SRX
grestore

74.88 179.981 LS
76.004 179.981 LE
187.079 179.981 LS
185.955 179.981 LE
74.88 190.468 LS
76.004 190.468 LE
187.079 190.468 LS
185.955 190.468 LE
74.88 200.955 LS
76.004 200.955 LE
187.079 200.955 LS
185.955 200.955 LE
74.88 211.442 LS
76.004 211.442 LE
187.079 211.442 LS
185.955 211.442 LE
74.88 221.929 LS
76.004 221.929 LE
187.079 221.929 LS
185.955 221.929 LE
74.88 232.416 LS
76.004 232.416 LE
187.079 232.416 LS
185.955 232.416 LE
74.88 242.903 LS
76.004 242.903 LE
187.079 242.903 LS
185.955 242.903 LE
74.88 253.39 LS
76.004 253.39 LE
187.079 253.39 LS
185.955 253.39 LE
gsave
0.14902 0.14902 0.14902 C
(0) [10] 0 63.8711 175.981 10 /Helvetica SRX
grestore

gsave
0.14902 0.14902 0.14902 C
(0.001) [6 3 6 6 10] 0 42.8711 186.468 10 /Helvetica SRX
grestore

gsave
0.14902 0.14902 0.14902 C
(0.002) [6 3 6 6 10] 0 42.8711 196.955 10 /Helvetica SRX
grestore

gsave
0.14902 0.14902 0.14902 C
(0.003) [6 3 6 6 10] 0 42.8711 207.442 10 /Helvetica SRX
grestore

gsave
0.14902 0.14902 0.14902 C
(0.004) [6 3 6 6 10] 0 42.8711 217.929 10 /Helvetica SRX
grestore

gsave
0.14902 0.14902 0.14902 C
(0.005) [6 3 6 6 10] 0 42.8711 228.416 10 /Helvetica SRX
grestore

gsave
0.14902 0.14902 0.14902 C
(0.006) [6 3 6 6 10] 0 42.8711 238.903 10 /Helvetica SRX
grestore

gsave
0.14902 0.14902 0.14902 C
(0.007) [6 3 6 6 10] 0 42.8711 249.39 10 /Helvetica SRX
grestore

2 LC
[16 0] 0 setdash
74.88 179.981 LS
187.079 179.981 LE
74.88 253.39 LS
187.079 253.39 LE
74.88 179.981 LS
74.88 253.39 LE
187.079 179.981 LS
187.079 253.39 LE
gsave
0 0 0 C
(L_hat) [7 6 7 6 10] 0 115.979 265.39 11 /Helvetica-Bold SRX
grestore

1 W
0 LC
1 LJ
[] 0 setdash
0 0 0 C
74.88 220.275 LS
80.7852 240.302 L
86.6904 249.277 L
92.5956 251.939 L
98.5008 250.9 L
104.406 247.711 L
110.311 243.353 L
116.216 238.476 L
122.122 233.513 L
128.027 228.741 L
133.932 224.326 L
139.837 220.352 L
145.742 216.845 L
151.648 213.794 L
157.553 211.164 L
163.458 208.911 L
169.363 206.986 L
175.268 205.341 L
181.173 203.936 L
187.079 202.732 LE
0.5 W
1 0 0 C
74.88 179.981 LS
187.079 179.981 LE
grestore
gsave
1.0 1.0 scale
newpath 0 0 moveto 576 0 lineto 576 432 lineto 0 432 lineto
closepath clip
1 1 1 C
241.981 253.39 354.179 179.981 241.981 179.981 T
241.981 253.39 354.179 253.39 354.179 179.981 T
0.5 W
0.15 0.15 0.15 C
265.601 179.981 LS
265.601 181.109 LE
265.601 253.39 LS
265.601 252.262 LE
295.127 179.981 LS
295.127 181.109 LE
295.127 253.39 LS
295.127 252.262 LE
324.653 179.981 LS
324.653 181.109 LE
324.653 253.39 LS
324.653 252.262 LE
354.179 179.981 LS
354.179 181.109 LE
354.179 253.39 LS
354.179 252.262 LE
gsave
0.14902 0.14902 0.14902 C
(5) [10] 0 262.601 164.439 10 /Helvetica SRX
grestore

gsave
0.14902 0.14902 0.14902 C
(10) [6 10] 0 289.127 164.439 10 /Helvetica SRX
grestore

gsave
0.14902 0.14902 0.14902 C
(15) [6 10] 0 318.653 164.439 10 /Helvetica SRX
grestore

gsave
0.14902 0.14902 0.14902 C
(20) [6 10] 0 348.179 164.439 10 /Helvetica SRX
grestore

241.981 179.981 LS
243.105 179.981 LE
354.179 179.981 LS
353.055 179.981 LE
241.981 194.663 LS
243.105 194.663 LE
354.179 194.663 LS
353.055 194.663 LE
241.981 209.345 LS
243.105 209.345 LE
354.179 209.345 LS
353.055 209.345 LE
241.981 224.026 LS
243.105 224.026 LE
354.179 224.026 LS
353.055 224.026 LE
241.981 238.708 LS
243.105 238.708 LE
354.179 238.708 LS
353.055 238.708 LE
241.981 253.39 LS
243.105 253.39 LE
354.179 253.39 LS
353.055 253.39 LE
gsave
0.14902 0.14902 0.14902 C
(-0.002) [3 6 3 6 6 10] 0 206.972 175.981 10 /Helvetica SRX
grestore

gsave
0.14902 0.14902 0.14902 C
(-0.001) [3 6 3 6 6 10] 0 206.972 190.663 10 /Helvetica SRX
grestore

gsave
0.14902 0.14902 0.14902 C
(0) [10] 0 230.972 205.345 10 /Helvetica SRX
grestore

gsave
0.14902 0.14902 0.14902 C
(0.001) [6 3 6 6 10] 0 209.972 220.026 10 /Helvetica SRX
grestore

gsave
0.14902 0.14902 0.14902 C
(0.002) [6 3 6 6 10] 0 209.972 234.708 10 /Helvetica SRX
grestore

gsave
0.14902 0.14902 0.14902 C
(0.003) [6 3 6 6 10] 0 209.972 249.39 10 /Helvetica SRX
grestore

2 LC
[16 0] 0 setdash
241.981 179.981 LS
354.179 179.981 LE
241.981 253.39 LS
354.179 253.39 LE
241.981 179.981 LS
241.981 253.39 LE
354.179 179.981 LS
354.179 253.39 LE
gsave
0 0 0 C
(tb_y_hat) [4 7 6 6 6 7 6 10] 0 275.08 266.39 11 /Helvetica-Bold SRX
grestore

1 W
0 LC
1 LJ
[] 0 setdash
0 0 0 C
241.981 247.766 LS
247.886 215.326 L
253.791 200.425 L
259.696 194.864 L
265.601 194.429 L
271.507 196.541 L
277.412 199.563 L
283.317 202.525 L
289.222 204.946 L
295.127 206.673 L
301.033 207.753 L
306.938 208.321 L
312.843 208.539 L
318.748 208.551 L
324.653 208.465 L
330.559 208.355 L
336.464 208.261 L
342.369 208.199 L
348.274 208.171 L
354.179 208.172 LE
0.5 W
1 0 0 C
241.981 209.345 LS
354.179 209.345 LE
grestore
gsave
1.0 1.0 scale
newpath 0 0 moveto 576 0 lineto 576 432 lineto 0 432 lineto
closepath clip
1 1 1 C
409.081 253.39 521.28 179.981 409.081 179.981 T
409.081 253.39 521.28 253.39 521.28 179.981 T
0.5 W
0.15 0.15 0.15 C
432.702 179.981 LS
432.702 181.109 LE
432.702 253.39 LS
432.702 252.262 LE
462.228 179.981 LS
462.228 181.109 LE
462.228 253.39 LS
462.228 252.262 LE
491.754 179.981 LS
491.754 181.109 LE
491.754 253.39 LS
491.754 252.262 LE
521.28 179.981 LS
521.28 181.109 LE
521.28 253.39 LS
521.28 252.262 LE
gsave
0.14902 0.14902 0.14902 C
(5) [10] 0 429.702 164.439 10 /Helvetica SRX
grestore

gsave
0.14902 0.14902 0.14902 C
(10) [6 10] 0 456.228 164.439 10 /Helvetica SRX
grestore

gsave
0.14902 0.14902 0.14902 C
(15) [6 10] 0 485.754 164.439 10 /Helvetica SRX
grestore

gsave
0.14902 0.14902 0.14902 C
(20) [6 10] 0 515.28 164.439 10 /Helvetica SRX
grestore

409.081 179.981 LS
410.205 179.981 LE
521.28 179.981 LS
520.156 179.981 LE
409.081 198.333 LS
410.205 198.333 LE
521.28 198.333 LS
520.156 198.333 LE
409.081 216.686 LS
410.205 216.686 LE
521.28 216.686 LS
520.156 216.686 LE
409.081 235.038 LS
410.205 235.038 LE
521.28 235.038 LS
520.156 235.038 LE
409.081 253.39 LS
410.205 253.39 LE
521.28 253.39 LS
520.156 253.39 LE
gsave
0.14902 0.14902 0.14902 C
(0) [10] 0 398.072 175.981 10 /Helvetica SRX
grestore

gsave
0.14902 0.14902 0.14902 C
(0.005) [6 3 6 6 10] 0 377.072 194.333 10 /Helvetica SRX
grestore

gsave
0.14902 0.14902 0.14902 C
(0.01) [6 3 6 10] 0 383.072 212.686 10 /Helvetica SRX
grestore

gsave
0.14902 0.14902 0.14902 C
(0.015) [6 3 6 6 10] 0 377.072 231.038 10 /Helvetica SRX
grestore

gsave
0.14902 0.14902 0.14902 C
(0.02) [6 3 6 10] 0 383.072 249.39 10 /Helvetica SRX
grestore

2 LC
[16 0] 0 setdash
409.081 179.981 LS
521.28 179.981 LE
409.081 253.39 LS
521.28 253.39 LE
409.081 179.981 LS
409.081 253.39 LE
521.28 179.981 LS
521.28 253.39 LE
gsave
0 0 0 C
(A_N_hat) [8 6 8 6 7 6 10] 0 442.681 265.39 11 /Helvetica-Bold SRX
grestore

1 W
0 LC
1 LJ
[] 0 setdash
0 0 0 C
409.081 250.454 LS
414.987 239.178 L
420.892 229.707 L
426.797 221.75 L
432.702 215.067 L
438.607 209.453 L
444.513 204.738 L
450.418 200.777 L
456.323 197.449 L
462.228 194.654 L
468.133 192.307 L
474.038 190.334 L
479.944 188.678 L
485.849 187.286 L
491.754 186.117 L
497.659 185.135 L
503.564 184.311 L
509.47 183.618 L
515.375 183.036 L
521.28 182.547 LE
0.5 W
1 0 0 C
409.081 179.981 LS
521.28 179.981 LE
grestore
gsave
1.0 1.0 scale
newpath 0 0 moveto 576 0 lineto 576 432 lineto 0 432 lineto
closepath clip
1 1 1 C
74.88 120.93 187.079 47.52 74.88 47.52 T
74.88 120.93 187.079 120.93 187.079 47.52 T
0.5 W
0.15 0.15 0.15 C
98.5008 47.52 LS
98.5008 48.6483 LE
98.5008 120.93 LS
98.5008 119.801 LE
128.027 47.52 LS
128.027 48.6483 LE
128.027 120.93 LS
128.027 119.801 LE
157.553 47.52 LS
157.553 48.6483 LE
157.553 120.93 LS
157.553 119.801 LE
187.079 47.52 LS
187.079 48.6483 LE
187.079 120.93 LS
187.079 119.801 LE
gsave
0.14902 0.14902 0.14902 C
(5) [10] 0 95.5008 31.9779 10 /Helvetica SRX
grestore

gsave
0.14902 0.14902 0.14902 C
(10) [6 10] 0 122.027 31.9779 10 /Helvetica SRX
grestore

gsave
0.14902 0.14902 0.14902 C
(15) [6 10] 0 151.553 31.9779 10 /Helvetica SRX
grestore

gsave
0.14902 0.14902 0.14902 C
(20) [6 10] 0 181.079 31.9779 10 /Helvetica SRX
grestore

74.88 47.52 LS
76.004 47.52 LE
187.079 47.52 LS
185.955 47.52 LE
74.88 62.2019 LS
76.004 62.2019 LE
187.079 62.2019 LS
185.955 62.2019 LE
74.88 76.8839 LS
76.004 76.8839 LE
187.079 76.8839 LS
185.955 76.8839 LE
74.88 91.5658 LS
76.004 91.5658 LE
187.079 91.5658 LS
185.955 91.5658 LE
74.88 106.248 LS
76.004 106.248 LE
187.079 106.248 LS
185.955 106.248 LE
74.88 120.93 LS
76.004 120.93 LE
187.079 120.93 LS
185.955 120.93 LE
gsave
0.14902 0.14902 0.14902 C
(-0.0005) [3 6 3 6 6 6 10] 0 33.8711 43.52 10 /Helvetica SRX
grestore

gsave
0.14902 0.14902 0.14902 C
(-0.0004) [3 6 3 6 6 6 10] 0 33.8711 58.2019 10 /Helvetica SRX
grestore

gsave
0.14902 0.14902 0.14902 C
(-0.0003) [3 6 3 6 6 6 10] 0 33.8711 72.8839 10 /Helvetica SRX
grestore

gsave
0.14902 0.14902 0.14902 C
(-0.0002) [3 6 3 6 6 6 10] 0 33.8711 87.5658 10 /Helvetica SRX
grestore

gsave
0.14902 0.14902 0.14902 C
(-0.0001) [3 6 3 6 6 6 10] 0 33.8711 102.248 10 /Helvetica SRX
grestore

gsave
0.14902 0.14902 0.14902 C
(0) [10] 0 63.8711 116.93 10 /Helvetica SRX
grestore

2 LC
[16 0] 0 setdash
74.88 47.52 LS
187.079 47.52 LE
74.88 120.93 LS
187.079 120.93 LE
74.88 47.52 LS
74.88 120.93 LE
187.079 47.52 LS
187.079 120.93 LE
gsave
0 0 0 C
(r_hat) [4 6 7 6 10] 0 117.479 132.93 11 /Helvetica-Bold SRX
grestore

1 W
0 LC
1 LJ
[] 0 setdash
0 0 0 C
74.88 120.93 LS
80.7852 95.8207 L
86.6904 71.8299 L
92.5956 57.4193 L
98.5008 53.2599 L
104.406 56.9049 L
110.311 65.1474 L
116.216 75.1604 L
122.122 84.9318 L
128.027 93.3029 L
133.932 99.8106 L
139.837 104.467 L
145.742 107.549 L
151.648 109.437 L
157.553 110.507 L
163.458 111.075 L
169.363 111.373 L
175.268 111.553 L
181.173 111.704 L
187.079 111.866 LE
0.5 W
1 0 0 C
74.88 120.93 LS
187.079 120.93 LE
grestore
grestore
showpage
cleartomark
%%PageTrailer
%%Trailer
end
%%EOF
