%!PS-Adobe-3.0 EPSF-3.0
%%Title: gl2ps_renderer figure
%%Creator: GL2PS 1.4.2, (C) 1999-2020 C. Geuzaine
%%For: Octave
%%CreationDate: Mon Jun 29 20:41:39 2020
%%LanguageLevel: 3
%%DocumentData: Clean7Bit
%%Pages: 1
%%BoundingBox: 0 0 576 432
%%EndComments
%%BeginProlog
/gl2psdict 64 dict def gl2psdict begin
/tryPS3shading false def % set to false to force subdivision
/rThreshold 0.064 def % red component subdivision threshold
/gThreshold 0.034 def % green component subdivision threshold
/bThreshold 0.1 def % blue component subdivision threshold
/BD { bind def } bind def
/C  { setrgbcolor } BD
/G  { 0.082 mul exch 0.6094 mul add exch 0.3086 mul add neg 1.0 add setgray } BD
/W  { setlinewidth } BD
/LC  { setlinecap } BD
/LJ  { setlinejoin } BD
/FC { findfont exch /SH exch def SH scalefont setfont } BD
/SW { dup stringwidth pop } BD
/S  { FC moveto show } BD
/SBC{ FC moveto SW -2 div 0 rmoveto show } BD
/SBR{ FC moveto SW neg 0 rmoveto show } BD
/SCL{ FC moveto 0 SH -2 div rmoveto show } BD
/SCC{ FC moveto SW -2 div SH -2 div rmoveto show } BD
/SCR{ FC moveto SW neg SH -2 div rmoveto show } BD
/STL{ FC moveto 0 SH neg rmoveto show } BD
/STC{ FC moveto SW -2 div SH neg rmoveto show } BD
/STR{ FC moveto SW neg SH neg rmoveto show } BD
/FCT { FC translate 0 0 } BD
/SR  { gsave FCT moveto rotate show grestore } BD
/SRX  { gsave FCT moveto rotate xshow grestore } BD
/SBCR{ gsave FCT moveto rotate SW -2 div 0 rmoveto show grestore } BD
/SBRR{ gsave FCT moveto rotate SW neg 0 rmoveto show grestore } BD
/SCLR{ gsave FCT moveto rotate 0 SH -2 div rmoveto show grestore} BD
/SCCR{ gsave FCT moveto rotate SW -2 div SH -2 div rmoveto show grestore} BD
/SCRR{ gsave FCT moveto rotate SW neg SH -2 div rmoveto show grestore} BD
/STLR{ gsave FCT moveto rotate 0 SH neg rmoveto show grestore } BD
/STCR{ gsave FCT moveto rotate SW -2 div SH neg rmoveto show grestore } BD
/STRR{ gsave FCT moveto rotate SW neg SH neg rmoveto show grestore } BD
/P  { newpath 0.0 360.0 arc closepath fill } BD
/LS { newpath moveto } BD
/L  { lineto } BD
/LE { lineto stroke } BD
/T  { newpath moveto lineto lineto closepath fill } BD
/STshfill {
      /b1 exch def /g1 exch def /r1 exch def /y1 exch def /x1 exch def
      /b2 exch def /g2 exch def /r2 exch def /y2 exch def /x2 exch def
      /b3 exch def /g3 exch def /r3 exch def /y3 exch def /x3 exch def
      gsave << /ShadingType 4 /ColorSpace [/DeviceRGB]
      /DataSource [ 0 x1 y1 r1 g1 b1 0 x2 y2 r2 g2 b2 0 x3 y3 r3 g3 b3 ] >>
      shfill grestore } BD
/Tm { 3 -1 roll 8 -1 roll 13 -1 roll add add 3 div
      3 -1 roll 7 -1 roll 11 -1 roll add add 3 div
      3 -1 roll 6 -1 roll 9 -1 roll add add 3 div C T } BD
/STsplit {
      4 index 15 index add 0.5 mul
      4 index 15 index add 0.5 mul
      4 index 15 index add 0.5 mul
      4 index 15 index add 0.5 mul
      4 index 15 index add 0.5 mul
      5 copy 5 copy 25 15 roll
      9 index 30 index add 0.5 mul
      9 index 30 index add 0.5 mul
      9 index 30 index add 0.5 mul
      9 index 30 index add 0.5 mul
      9 index 30 index add 0.5 mul
      5 copy 5 copy 35 5 roll 25 5 roll 15 5 roll
      4 index 10 index add 0.5 mul
      4 index 10 index add 0.5 mul
      4 index 10 index add 0.5 mul
      4 index 10 index add 0.5 mul
      4 index 10 index add 0.5 mul
      5 copy 5 copy 40 5 roll 25 5 roll 15 5 roll 25 5 roll
      STnoshfill STnoshfill STnoshfill STnoshfill } BD
/STnoshfill {
      2 index 8 index sub abs rThreshold gt
      { STsplit }
      { 1 index 7 index sub abs gThreshold gt
        { STsplit }
        { dup 6 index sub abs bThreshold gt
          { STsplit }
          { 2 index 13 index sub abs rThreshold gt
            { STsplit }
            { 1 index 12 index sub abs gThreshold gt
              { STsplit }
              { dup 11 index sub abs bThreshold gt
                { STsplit }
                { 7 index 13 index sub abs rThreshold gt
                  { STsplit }
                  { 6 index 12 index sub abs gThreshold gt
                    { STsplit }
                    { 5 index 11 index sub abs bThreshold gt
                      { STsplit }
                      { Tm }
                      ifelse }
                    ifelse }
                  ifelse }
                ifelse }
              ifelse }
            ifelse }
          ifelse }
        ifelse }
      ifelse } BD
tryPS3shading
{ /shfill where
  { /ST { STshfill } BD }
  { /ST { STnoshfill } BD }
  ifelse }
{ /ST { STnoshfill } BD }
ifelse
end
%%EndProlog
%%BeginSetup
/DeviceRGB setcolorspace
gl2psdict begin
%%EndSetup
%%Page: 1 1
%%BeginPageSetup
%%EndPageSetup
mark
gsave
1.0 1.0 scale
1 1 1 C
newpath 0 0 moveto 576 0 lineto 576 432 lineto 0 432 lineto
closepath fill
gsave
1.0 1.0 scale
1 1 1 C
newpath 0 0 moveto 576 0 lineto 576 432 lineto 0 432 lineto
closepath fill
newpath 0 0 moveto 576 0 lineto 576 432 lineto 0 432 lineto
closepath clip
1 1 1 C
74.88 385.841 187.093 312.427 74.88 312.427 T
74.88 385.841 187.093 385.841 187.093 312.427 T
0.5 W
0.15 0.15 0.15 C
99.6711 312.427 LS
99.6711 313.556 LE
99.6711 385.841 LS
99.6711 384.712 LE
125.767 312.427 LS
125.767 313.556 LE
125.767 385.841 LS
125.767 384.712 LE
151.863 312.427 LS
151.863 313.556 LE
151.863 385.841 LS
151.863 384.712 LE
177.959 312.427 LS
177.959 313.556 LE
177.959 385.841 LS
177.959 384.712 LE
gsave
0.14902 0.14902 0.14902 C
(20) [6 10] 0 93.6712 296.885 10 /Helvetica SRX
grestore

gsave
0.14902 0.14902 0.14902 C
(40) [6 10] 0 119.767 296.885 10 /Helvetica SRX
grestore

gsave
0.14902 0.14902 0.14902 C
(60) [6 10] 0 145.863 296.885 10 /Helvetica SRX
grestore

gsave
0.14902 0.14902 0.14902 C
(80) [6 10] 0 171.959 296.885 10 /Helvetica SRX
grestore

74.88 312.427 LS
76.0043 312.427 LE
187.093 312.427 LS
185.968 312.427 LE
74.88 324.663 LS
76.0043 324.663 LE
187.093 324.663 LS
185.968 324.663 LE
74.88 336.898 LS
76.0043 336.898 LE
187.093 336.898 LS
185.968 336.898 LE
74.88 349.134 LS
76.0043 349.134 LE
187.093 349.134 LS
185.968 349.134 LE
74.88 361.37 LS
76.0043 361.37 LE
187.093 361.37 LS
185.968 361.37 LE
74.88 373.605 LS
76.0043 373.605 LE
187.093 373.605 LS
185.968 373.605 LE
74.88 385.841 LS
76.0043 385.841 LE
187.093 385.841 LS
185.968 385.841 LE
gsave
0.14902 0.14902 0.14902 C
(-0.2) [3 6 3 10] 0 51.8705 308.427 10 /Helvetica SRX
grestore

gsave
0.14902 0.14902 0.14902 C
(-0.15) [3 6 3 6 10] 0 45.8705 320.663 10 /Helvetica SRX
grestore

gsave
0.14902 0.14902 0.14902 C
(-0.1) [3 6 3 10] 0 51.8705 332.898 10 /Helvetica SRX
grestore

gsave
0.14902 0.14902 0.14902 C
(-0.05) [3 6 3 6 10] 0 45.8705 345.134 10 /Helvetica SRX
grestore

gsave
0.14902 0.14902 0.14902 C
(0) [10] 0 63.8705 357.37 10 /Helvetica SRX
grestore

gsave
0.14902 0.14902 0.14902 C
(0.05) [6 3 6 10] 0 48.8705 369.605 10 /Helvetica SRX
grestore

gsave
0.14902 0.14902 0.14902 C
(0.1) [6 3 10] 0 54.8705 381.841 10 /Helvetica SRX
grestore

2 LC
[16 0] 0 setdash
74.88 312.427 LS
187.093 312.427 LE
74.88 385.841 LS
187.093 385.841 LE
74.88 312.427 LS
74.88 385.841 LE
187.093 312.427 LS
187.093 385.841 LE
gsave
0 0 0 C
(eps_C_news0) [6 7 6 6 8 6 7 6 9 6 10] 0 94.4863 398.841 11 /Helvetica-Bold SRX
grestore

0 LC
1 LJ
[] 0 setdash
1 0 0 C
74.88 361.37 LS
187.093 361.37 LE
1 W
0 0 0 C
74.88 363.253 LS
76.1848 363.205 L
77.4896 362.443 L
78.7944 368.955 L
80.0992 358.441 L
81.404 366.589 L
82.7088 362.253 L
84.0136 366.321 L
85.3184 367.673 L
86.6232 355.585 L
87.928 361.814 L
89.2328 360.569 L
90.5376 349.88 L
91.8424 359.618 L
93.1472 359.256 L
94.452 353.925 L
95.7568 355.449 L
97.0616 367.056 L
98.3663 364.924 L
99.6711 362.142 L
100.976 358.399 L
102.281 356.111 L
103.586 359.99 L
104.89 359.962 L
106.195 348.636 L
107.5 358.444 L
108.805 348.286 L
110.11 346.172 L
111.414 364.736 L
112.719 359.789 L
114.024 358.672 L
115.329 357.062 L
116.634 357.952 L
117.938 342.468 L
119.243 363.526 L
120.548 367.522 L
121.853 362.817 L
123.158 359.003 L
124.462 363.296 L
125.767 365.61 L
127.072 361.134 L
128.377 362.355 L
129.682 368.979 L
130.986 362.171 L
132.291 370.931 L
133.596 370.291 L
134.901 361.449 L
136.205 364.262 L
137.51 363.539 L
138.815 371.985 L
140.12 363.343 L
141.425 373.215 L
142.729 370.32 L
144.034 362.776 L
145.339 359.067 L
146.644 317.858 L
147.949 367.791 L
149.253 380.97 L
150.558 373.267 L
151.863 363.299 L
153.168 361.531 L
154.473 363.327 L
155.777 362.458 L
157.082 378.575 L
158.387 365.869 L
159.692 361.048 L
160.997 356.886 L
162.301 357.302 L
163.606 368.734 L
164.911 357.875 L
166.216 365.086 L
167.521 364.136 L
168.825 361.385 L
170.13 355.893 L
171.435 367.43 L
172.74 358.552 L
174.045 359.829 L
175.349 358.574 L
176.654 356.223 L
177.959 351.905 L
179.264 345.113 L
180.569 361.603 L
181.873 346.812 L
183.178 353.941 L
184.483 353.791 L
185.788 369.631 L
187.093 357.364 LE
grestore
gsave
1.0 1.0 scale
newpath 0 0 moveto 576 0 lineto 576 432 lineto 0 432 lineto
closepath clip
1 1 1 C
241.974 385.841 354.186 312.427 241.974 312.427 T
241.974 385.841 354.186 385.841 354.186 312.427 T
0.5 W
0.15 0.15 0.15 C
266.765 312.427 LS
266.765 313.556 LE
266.765 385.841 LS
266.765 384.712 LE
292.861 312.427 LS
292.861 313.556 LE
292.861 385.841 LS
292.861 384.712 LE
318.957 312.427 LS
318.957 313.556 LE
318.957 385.841 LS
318.957 384.712 LE
345.053 312.427 LS
345.053 313.556 LE
345.053 385.841 LS
345.053 384.712 LE
gsave
0.14902 0.14902 0.14902 C
(20) [6 10] 0 260.765 296.885 10 /Helvetica SRX
grestore

gsave
0.14902 0.14902 0.14902 C
(40) [6 10] 0 286.861 296.885 10 /Helvetica SRX
grestore

gsave
0.14902 0.14902 0.14902 C
(60) [6 10] 0 312.957 296.885 10 /Helvetica SRX
grestore

gsave
0.14902 0.14902 0.14902 C
(80) [6 10] 0 339.053 296.885 10 /Helvetica SRX
grestore

241.974 312.427 LS
243.098 312.427 LE
354.186 312.427 LS
353.062 312.427 LE
241.974 324.663 LS
243.098 324.663 LE
354.186 324.663 LS
353.062 324.663 LE
241.974 336.898 LS
243.098 336.898 LE
354.186 336.898 LS
353.062 336.898 LE
241.974 349.134 LS
243.098 349.134 LE
354.186 349.134 LS
353.062 349.134 LE
241.974 361.37 LS
243.098 361.37 LE
354.186 361.37 LS
353.062 361.37 LE
241.974 373.605 LS
243.098 373.605 LE
354.186 373.605 LS
353.062 373.605 LE
241.974 385.841 LS
243.098 385.841 LE
354.186 385.841 LS
353.062 385.841 LE
gsave
0.14902 0.14902 0.14902 C
(-0.08) [3 6 3 6 10] 0 212.964 308.427 10 /Helvetica SRX
grestore

gsave
0.14902 0.14902 0.14902 C
(-0.06) [3 6 3 6 10] 0 212.964 320.663 10 /Helvetica SRX
grestore

gsave
0.14902 0.14902 0.14902 C
(-0.04) [3 6 3 6 10] 0 212.964 332.898 10 /Helvetica SRX
grestore

gsave
0.14902 0.14902 0.14902 C
(-0.02) [3 6 3 6 10] 0 212.964 345.134 10 /Helvetica SRX
grestore

gsave
0.14902 0.14902 0.14902 C
(0) [10] 0 230.964 357.37 10 /Helvetica SRX
grestore

gsave
0.14902 0.14902 0.14902 C
(0.02) [6 3 6 10] 0 215.964 369.605 10 /Helvetica SRX
grestore

gsave
0.14902 0.14902 0.14902 C
(0.04) [6 3 6 10] 0 215.964 381.841 10 /Helvetica SRX
grestore

2 LC
[16 0] 0 setdash
241.974 312.427 LS
354.186 312.427 LE
241.974 385.841 LS
354.186 385.841 LE
241.974 312.427 LS
241.974 385.841 LE
354.186 312.427 LS
354.186 385.841 LE
gsave
0 0 0 C
(eps_C_news2) [6 7 6 6 8 6 7 6 9 6 10] 0 261.58 398.841 11 /Helvetica-Bold SRX
grestore

0 LC
1 LJ
[] 0 setdash
1 0 0 C
241.974 361.37 LS
354.186 361.37 LE
1 W
0 0 0 C
241.974 365.836 LS
243.278 360.609 L
244.583 370.088 L
245.888 366.987 L
247.193 347.612 L
248.498 366.487 L
249.802 367.952 L
251.107 356.834 L
252.412 360.637 L
253.717 357.1 L
255.022 350.304 L
256.326 362.627 L
257.631 351.944 L
258.936 354.857 L
260.241 360.275 L
261.546 369.757 L
262.85 360.789 L
264.155 361.549 L
265.46 367.939 L
266.765 347.878 L
268.07 363.554 L
269.374 362.206 L
270.679 358.402 L
271.984 361.049 L
273.289 355.416 L
274.594 353.416 L
275.898 365.458 L
277.203 360.06 L
278.508 356.838 L
279.813 364.561 L
281.118 364.257 L
282.422 351.471 L
283.727 363.52 L
285.032 362.794 L
286.337 359.512 L
287.642 356.845 L
288.946 361.431 L
290.251 359.591 L
291.556 364.758 L
292.861 357.779 L
294.166 365.673 L
295.47 359.133 L
296.775 365.13 L
298.08 366.785 L
299.385 362.905 L
300.69 360.817 L
301.994 355.268 L
303.299 370.675 L
304.604 363.699 L
305.909 365.924 L
307.214 368.023 L
308.518 366.244 L
309.823 357.711 L
311.128 323.319 L
312.433 371.707 L
313.738 374.222 L
315.042 364.525 L
316.347 364.459 L
317.652 362.996 L
318.957 362.515 L
320.262 364.09 L
321.566 378.141 L
322.871 366.172 L
324.176 359.054 L
325.481 361.201 L
326.786 357.455 L
328.09 370.197 L
329.395 355.389 L
330.7 365.412 L
332.005 365.12 L
333.31 364.249 L
334.614 357.032 L
335.919 366.249 L
337.224 364.581 L
338.529 360.88 L
339.833 362.371 L
341.138 360.527 L
342.443 349.192 L
343.748 352.726 L
345.053 370.869 L
346.358 347.048 L
347.662 351.699 L
348.967 354.456 L
350.272 369.533 L
351.577 353.043 L
352.882 355.376 L
354.186 358.187 LE
grestore
gsave
1.0 1.0 scale
newpath 0 0 moveto 576 0 lineto 576 432 lineto 0 432 lineto
closepath clip
1 1 1 C
409.067 385.841 521.28 312.427 409.067 312.427 T
409.067 385.841 521.28 385.841 521.28 312.427 T
0.5 W
0.15 0.15 0.15 C
433.859 312.427 LS
433.859 313.556 LE
433.859 385.841 LS
433.859 384.712 LE
459.954 312.427 LS
459.954 313.556 LE
459.954 385.841 LS
459.954 384.712 LE
486.05 312.427 LS
486.05 313.556 LE
486.05 385.841 LS
486.05 384.712 LE
512.146 312.427 LS
512.146 313.556 LE
512.146 385.841 LS
512.146 384.712 LE
gsave
0.14902 0.14902 0.14902 C
(20) [6 10] 0 427.859 296.885 10 /Helvetica SRX
grestore

gsave
0.14902 0.14902 0.14902 C
(40) [6 10] 0 453.955 296.885 10 /Helvetica SRX
grestore

gsave
0.14902 0.14902 0.14902 C
(60) [6 10] 0 480.05 296.885 10 /Helvetica SRX
grestore

gsave
0.14902 0.14902 0.14902 C
(80) [6 10] 0 506.146 296.885 10 /Helvetica SRX
grestore

409.067 312.427 LS
410.192 312.427 LE
521.28 312.427 LS
520.156 312.427 LE
409.067 324.663 LS
410.192 324.663 LE
521.28 324.663 LS
520.156 324.663 LE
409.067 336.898 LS
410.192 336.898 LE
521.28 336.898 LS
520.156 336.898 LE
409.067 349.134 LS
410.192 349.134 LE
521.28 349.134 LS
520.156 349.134 LE
409.067 361.37 LS
410.192 361.37 LE
521.28 361.37 LS
520.156 361.37 LE
409.067 373.605 LS
410.192 373.605 LE
521.28 373.605 LS
520.156 373.605 LE
409.067 385.841 LS
410.192 385.841 LE
521.28 385.841 LS
520.156 385.841 LE
gsave
0.14902 0.14902 0.14902 C
(-0.08) [3 6 3 6 10] 0 380.058 308.427 10 /Helvetica SRX
grestore

gsave
0.14902 0.14902 0.14902 C
(-0.06) [3 6 3 6 10] 0 380.058 320.663 10 /Helvetica SRX
grestore

gsave
0.14902 0.14902 0.14902 C
(-0.04) [3 6 3 6 10] 0 380.058 332.898 10 /Helvetica SRX
grestore

gsave
0.14902 0.14902 0.14902 C
(-0.02) [3 6 3 6 10] 0 380.058 345.134 10 /Helvetica SRX
grestore

gsave
0.14902 0.14902 0.14902 C
(0) [10] 0 398.058 357.37 10 /Helvetica SRX
grestore

gsave
0.14902 0.14902 0.14902 C
(0.02) [6 3 6 10] 0 383.058 369.605 10 /Helvetica SRX
grestore

gsave
0.14902 0.14902 0.14902 C
(0.04) [6 3 6 10] 0 383.058 381.841 10 /Helvetica SRX
grestore

2 LC
[16 0] 0 setdash
409.067 312.427 LS
521.28 312.427 LE
409.067 385.841 LS
521.28 385.841 LE
409.067 312.427 LS
409.067 385.841 LE
521.28 312.427 LS
521.28 385.841 LE
gsave
0 0 0 C
(eps_C_news4) [6 7 6 6 8 6 7 6 9 6 10] 0 428.674 398.841 11 /Helvetica-Bold SRX
grestore

0 LC
1 LJ
[] 0 setdash
1 0 0 C
409.067 361.37 LS
521.28 361.37 LE
1 W
0 0 0 C
409.067 374.822 LS
410.372 359.874 L
411.677 356.035 L
412.982 368.298 L
414.287 355.41 L
415.591 356.186 L
416.896 360.907 L
418.201 357.248 L
419.506 347.23 L
420.811 359.566 L
422.115 350.257 L
423.42 356.383 L
424.725 353.075 L
426.03 372.04 L
427.335 364.963 L
428.639 364.244 L
429.944 365.353 L
431.249 344.79 L
432.554 373.011 L
433.859 354.311 L
435.163 361.028 L
436.468 363.013 L
437.773 363.196 L
439.078 354.198 L
440.383 372.752 L
441.687 366.362 L
442.992 356.76 L
444.297 365.429 L
445.602 362.915 L
446.907 356.305 L
448.211 369.805 L
449.516 371.287 L
450.821 359.415 L
452.126 351.831 L
453.431 358.39 L
454.735 357.155 L
456.04 363.61 L
457.345 351.437 L
458.65 369.984 L
459.954 354.464 L
461.259 362.942 L
462.564 364.998 L
463.869 357.928 L
465.174 357.62 L
466.478 355.589 L
467.783 369.3 L
469.088 356.353 L
470.393 365.71 L
471.698 369.716 L
473.003 360.49 L
474.307 355.011 L
475.612 319.43 L
476.917 372.253 L
478.222 380.781 L
479.526 369.085 L
480.831 359.097 L
482.136 355.297 L
483.441 363.952 L
484.746 365.91 L
486.05 380.48 L
487.355 368.663 L
488.66 358.637 L
489.965 361.539 L
491.27 354.847 L
492.574 375.855 L
493.879 354.296 L
495.184 367.785 L
496.489 363.402 L
497.794 365.106 L
499.098 357.102 L
500.403 369.982 L
501.708 366.089 L
503.013 359.721 L
504.318 368.149 L
505.622 361.295 L
506.927 350.382 L
508.232 355.091 L
509.537 369.791 L
510.842 351.077 L
512.146 358.686 L
513.451 353.134 L
514.756 368.87 L
516.061 351.915 L
517.366 354.401 L
518.67 353.468 L
519.975 355.751 L
521.28 358.419 LE
grestore
gsave
1.0 1.0 scale
newpath 0 0 moveto 576 0 lineto 576 432 lineto 0 432 lineto
closepath clip
1 1 1 C
74.88 253.387 187.093 179.974 74.88 179.974 T
74.88 253.387 187.093 253.387 187.093 179.974 T
0.5 W
0.15 0.15 0.15 C
99.6711 179.974 LS
99.6711 181.102 LE
99.6711 253.387 LS
99.6711 252.258 LE
125.767 179.974 LS
125.767 181.102 LE
125.767 253.387 LS
125.767 252.258 LE
151.863 179.974 LS
151.863 181.102 LE
151.863 253.387 LS
151.863 252.258 LE
177.959 179.974 LS
177.959 181.102 LE
177.959 253.387 LS
177.959 252.258 LE
gsave
0.14902 0.14902 0.14902 C
(20) [6 10] 0 93.6712 164.431 10 /Helvetica SRX
grestore

gsave
0.14902 0.14902 0.14902 C
(40) [6 10] 0 119.767 164.431 10 /Helvetica SRX
grestore

gsave
0.14902 0.14902 0.14902 C
(60) [6 10] 0 145.863 164.431 10 /Helvetica SRX
grestore

gsave
0.14902 0.14902 0.14902 C
(80) [6 10] 0 171.959 164.431 10 /Helvetica SRX
grestore

74.88 179.974 LS
76.0043 179.974 LE
187.093 179.974 LS
185.968 179.974 LE
74.88 189.15 LS
76.0043 189.15 LE
187.093 189.15 LS
185.968 189.15 LE
74.88 198.327 LS
76.0043 198.327 LE
187.093 198.327 LS
185.968 198.327 LE
74.88 207.504 LS
76.0043 207.504 LE
187.093 207.504 LS
185.968 207.504 LE
74.88 216.68 LS
76.0043 216.68 LE
187.093 216.68 LS
185.968 216.68 LE
74.88 225.857 LS
76.0043 225.857 LE
187.093 225.857 LS
185.968 225.857 LE
74.88 235.034 LS
76.0043 235.034 LE
187.093 235.034 LS
185.968 235.034 LE
74.88 244.21 LS
76.0043 244.21 LE
187.093 244.21 LS
185.968 244.21 LE
74.88 253.387 LS
76.0043 253.387 LE
187.093 253.387 LS
185.968 253.387 LE
gsave
0.14902 0.14902 0.14902 C
(-0.2) [3 6 3 10] 0 51.8705 175.974 10 /Helvetica SRX
grestore

gsave
0.14902 0.14902 0.14902 C
(-0.15) [3 6 3 6 10] 0 45.8705 185.15 10 /Helvetica SRX
grestore

gsave
0.14902 0.14902 0.14902 C
(-0.1) [3 6 3 10] 0 51.8705 194.327 10 /Helvetica SRX
grestore

gsave
0.14902 0.14902 0.14902 C
(-0.05) [3 6 3 6 10] 0 45.8705 203.504 10 /Helvetica SRX
grestore

gsave
0.14902 0.14902 0.14902 C
(0) [10] 0 63.8705 212.68 10 /Helvetica SRX
grestore

gsave
0.14902 0.14902 0.14902 C
(0.05) [6 3 6 10] 0 48.8705 221.857 10 /Helvetica SRX
grestore

gsave
0.14902 0.14902 0.14902 C
(0.1) [6 3 10] 0 54.8705 231.034 10 /Helvetica SRX
grestore

gsave
0.14902 0.14902 0.14902 C
(0.15) [6 3 6 10] 0 48.8705 240.21 10 /Helvetica SRX
grestore

gsave
0.14902 0.14902 0.14902 C
(0.2) [6 3 10] 0 54.8705 249.387 10 /Helvetica SRX
grestore

2 LC
[16 0] 0 setdash
74.88 179.974 LS
187.093 179.974 LE
74.88 253.387 LS
187.093 253.387 LE
74.88 179.974 LS
74.88 253.387 LE
187.093 179.974 LS
187.093 253.387 LE
gsave
0 0 0 C
(eps_AT_news0) [6 7 6 6 8 7 6 7 6 9 6 10] 0 90.9863 266.387 11 /Helvetica-Bold SRX
grestore

0 LC
1 LJ
[] 0 setdash
1 0 0 C
74.88 216.68 LS
187.093 216.68 LE
1 W
0 0 0 C
74.88 218.761 LS
76.1848 227.251 L
77.4896 215.107 L
78.7944 237.956 L
80.0992 190.809 L
81.404 222.159 L
82.7088 222.52 L
84.0136 214.482 L
85.3184 220.215 L
86.6232 216.936 L
87.928 215.863 L
89.2328 220.575 L
90.5376 216.605 L
91.8424 219.077 L
93.1472 221.702 L
94.452 214.668 L
95.7568 220.301 L
97.0616 213.23 L
98.3663 219.565 L
99.6711 214.49 L
100.976 213.53 L
102.281 226.725 L
103.586 210.777 L
104.89 220.863 L
106.195 209.151 L
107.5 219.067 L
108.805 206.62 L
110.11 216.671 L
111.414 214.469 L
112.719 216.001 L
114.024 221.135 L
115.329 213.935 L
116.634 210.149 L
117.938 208.095 L
119.243 215.156 L
120.548 215 L
121.853 218.776 L
123.158 218.409 L
124.462 219.691 L
125.767 219.211 L
127.072 211.23 L
128.377 222.218 L
129.682 213.678 L
130.986 219.706 L
132.291 219.388 L
133.596 216.183 L
134.901 216.091 L
136.205 219.892 L
137.51 222.125 L
138.815 217.231 L
140.12 217.057 L
141.425 223.542 L
142.729 215.461 L
144.034 216.751 L
145.339 220.262 L
146.644 212.066 L
147.949 214.524 L
149.253 221.233 L
150.558 219.52 L
151.863 216.022 L
153.168 220.765 L
154.473 216.914 L
155.777 214.904 L
157.082 216.393 L
158.387 215.973 L
159.692 217.101 L
160.997 213.758 L
162.301 218.254 L
163.606 213.54 L
164.911 219.722 L
166.216 217.132 L
167.521 217.066 L
168.825 212.606 L
170.13 220.542 L
171.435 215.849 L
172.74 213.318 L
174.045 217.637 L
175.349 211.385 L
176.654 214.472 L
177.959 220.19 L
179.264 210.109 L
180.569 210.801 L
181.873 214.086 L
183.178 215.587 L
184.483 216.27 L
185.788 214.25 L
187.093 217.91 LE
grestore
gsave
1.0 1.0 scale
newpath 0 0 moveto 576 0 lineto 576 432 lineto 0 432 lineto
closepath clip
1 1 1 C
241.974 253.387 354.186 179.974 241.974 179.974 T
241.974 253.387 354.186 253.387 354.186 179.974 T
0.5 W
0.15 0.15 0.15 C
266.765 179.974 LS
266.765 181.102 LE
266.765 253.387 LS
266.765 252.258 LE
292.861 179.974 LS
292.861 181.102 LE
292.861 253.387 LS
292.861 252.258 LE
318.957 179.974 LS
318.957 181.102 LE
318.957 253.387 LS
318.957 252.258 LE
345.053 179.974 LS
345.053 181.102 LE
345.053 253.387 LS
345.053 252.258 LE
gsave
0.14902 0.14902 0.14902 C
(20) [6 10] 0 260.765 164.431 10 /Helvetica SRX
grestore

gsave
0.14902 0.14902 0.14902 C
(40) [6 10] 0 286.861 164.431 10 /Helvetica SRX
grestore

gsave
0.14902 0.14902 0.14902 C
(60) [6 10] 0 312.957 164.431 10 /Helvetica SRX
grestore

gsave
0.14902 0.14902 0.14902 C
(80) [6 10] 0 339.053 164.431 10 /Helvetica SRX
grestore

241.974 179.974 LS
243.098 179.974 LE
354.186 179.974 LS
353.062 179.974 LE
241.974 194.656 LS
243.098 194.656 LE
354.186 194.656 LS
353.062 194.656 LE
241.974 209.339 LS
243.098 209.339 LE
354.186 209.339 LS
353.062 209.339 LE
241.974 224.022 LS
243.098 224.022 LE
354.186 224.022 LS
353.062 224.022 LE
241.974 238.704 LS
243.098 238.704 LE
354.186 238.704 LS
353.062 238.704 LE
241.974 253.387 LS
243.098 253.387 LE
354.186 253.387 LS
353.062 253.387 LE
gsave
0.14902 0.14902 0.14902 C
(-0.015) [3 6 3 6 6 10] 0 206.964 175.974 10 /Helvetica SRX
grestore

gsave
0.14902 0.14902 0.14902 C
(-0.01) [3 6 3 6 10] 0 212.964 190.656 10 /Helvetica SRX
grestore

gsave
0.14902 0.14902 0.14902 C
(-0.005) [3 6 3 6 6 10] 0 206.964 205.339 10 /Helvetica SRX
grestore

gsave
0.14902 0.14902 0.14902 C
(0) [10] 0 230.964 220.022 10 /Helvetica SRX
grestore

gsave
0.14902 0.14902 0.14902 C
(0.005) [6 3 6 6 10] 0 209.964 234.704 10 /Helvetica SRX
grestore

gsave
0.14902 0.14902 0.14902 C
(0.01) [6 3 6 10] 0 215.964 249.387 10 /Helvetica SRX
grestore

2 LC
[16 0] 0 setdash
241.974 179.974 LS
354.186 179.974 LE
241.974 253.387 LS
354.186 253.387 LE
241.974 179.974 LS
241.974 253.387 LE
354.186 179.974 LS
354.186 253.387 LE
gsave
0 0 0 C
(eps_AT_news2) [6 7 6 6 8 7 6 7 6 9 6 10] 0 258.08 266.387 11 /Helvetica-Bold SRX
grestore

0 LC
1 LJ
[] 0 setdash
1 0 0 C
241.974 224.022 LS
354.186 224.022 LE
1 W
0 0 0 C
241.974 232.85 LS
243.278 241.833 L
244.583 205.631 L
245.888 230.105 L
247.193 192.034 L
248.498 217.124 L
249.802 231.706 L
251.107 229.685 L
252.412 215.006 L
253.717 219.593 L
255.022 224.765 L
256.326 239.284 L
257.631 207.167 L
258.936 220.336 L
260.241 249.065 L
261.546 226.847 L
262.85 213.113 L
264.155 216.896 L
265.46 249.59 L
266.765 216.358 L
268.07 224.24 L
269.374 236.594 L
270.679 243.498 L
271.984 237.754 L
273.289 228.682 L
274.594 248.984 L
275.898 226.325 L
277.203 223.006 L
278.508 228.422 L
279.813 247.982 L
281.118 230.966 L
282.422 238.055 L
283.727 223.552 L
285.032 206.829 L
286.337 218.669 L
287.642 221.724 L
288.946 224.727 L
290.251 208.257 L
291.556 224.188 L
292.861 219.711 L
294.166 207.928 L
295.47 218.534 L
296.775 211.103 L
298.08 209.707 L
299.385 227.502 L
300.69 219.374 L
301.994 206.466 L
303.299 220.932 L
304.604 224.113 L
305.909 213.457 L
307.214 212.911 L
308.518 234.331 L
309.823 228.252 L
311.128 230.252 L
312.433 232.977 L
313.738 213.405 L
315.042 198.438 L
316.347 223.17 L
317.652 237.984 L
318.957 222.439 L
320.262 223.737 L
321.566 222.44 L
322.871 224.259 L
324.176 216.308 L
325.481 232.637 L
326.786 227.428 L
328.09 223.044 L
329.395 220.019 L
330.7 227.421 L
332.005 227.174 L
333.31 223.191 L
334.614 236.101 L
335.919 219.204 L
337.224 236.647 L
338.529 229.697 L
339.833 226.344 L
341.138 233.369 L
342.443 222.781 L
343.748 236.88 L
345.053 244.046 L
346.358 220.473 L
347.662 214.266 L
348.967 226.565 L
350.272 219.137 L
351.577 210.372 L
352.882 201.865 L
354.186 210.885 LE
grestore
gsave
1.0 1.0 scale
newpath 0 0 moveto 576 0 lineto 576 432 lineto 0 432 lineto
closepath clip
1 1 1 C
409.067 253.387 521.28 179.974 409.067 179.974 T
409.067 253.387 521.28 253.387 521.28 179.974 T
0.5 W
0.15 0.15 0.15 C
433.859 179.974 LS
433.859 181.102 LE
433.859 253.387 LS
433.859 252.258 LE
459.954 179.974 LS
459.954 181.102 LE
459.954 253.387 LS
459.954 252.258 LE
486.05 179.974 LS
486.05 181.102 LE
486.05 253.387 LS
486.05 252.258 LE
512.146 179.974 LS
512.146 181.102 LE
512.146 253.387 LS
512.146 252.258 LE
gsave
0.14902 0.14902 0.14902 C
(20) [6 10] 0 427.859 164.431 10 /Helvetica SRX
grestore

gsave
0.14902 0.14902 0.14902 C
(40) [6 10] 0 453.955 164.431 10 /Helvetica SRX
grestore

gsave
0.14902 0.14902 0.14902 C
(60) [6 10] 0 480.05 164.431 10 /Helvetica SRX
grestore

gsave
0.14902 0.14902 0.14902 C
(80) [6 10] 0 506.146 164.431 10 /Helvetica SRX
grestore

409.067 179.974 LS
410.192 179.974 LE
521.28 179.974 LS
520.156 179.974 LE
409.067 194.656 LS
410.192 194.656 LE
521.28 194.656 LS
520.156 194.656 LE
409.067 209.339 LS
410.192 209.339 LE
521.28 209.339 LS
520.156 209.339 LE
409.067 224.022 LS
410.192 224.022 LE
521.28 224.022 LS
520.156 224.022 LE
409.067 238.704 LS
410.192 238.704 LE
521.28 238.704 LS
520.156 238.704 LE
409.067 253.387 LS
410.192 253.387 LE
521.28 253.387 LS
520.156 253.387 LE
gsave
0.14902 0.14902 0.14902 C
(-0.02) [3 6 3 6 10] 0 380.058 175.974 10 /Helvetica SRX
grestore

gsave
0.14902 0.14902 0.14902 C
(-0.01) [3 6 3 6 10] 0 380.058 190.656 10 /Helvetica SRX
grestore

gsave
0.14902 0.14902 0.14902 C
(0) [10] 0 398.058 205.339 10 /Helvetica SRX
grestore

gsave
0.14902 0.14902 0.14902 C
(0.01) [6 3 6 10] 0 383.058 220.022 10 /Helvetica SRX
grestore

gsave
0.14902 0.14902 0.14902 C
(0.02) [6 3 6 10] 0 383.058 234.704 10 /Helvetica SRX
grestore

gsave
0.14902 0.14902 0.14902 C
(0.03) [6 3 6 10] 0 383.058 249.387 10 /Helvetica SRX
grestore

2 LC
[16 0] 0 setdash
409.067 179.974 LS
521.28 179.974 LE
409.067 253.387 LS
521.28 253.387 LE
409.067 179.974 LS
409.067 253.387 LE
521.28 179.974 LS
521.28 253.387 LE
gsave
0 0 0 C
(eps_AT_news4) [6 7 6 6 8 7 6 7 6 9 6 10] 0 425.174 266.387 11 /Helvetica-Bold SRX
grestore

0 LC
1 LJ
[] 0 setdash
1 0 0 C
409.067 209.339 LS
521.28 209.339 LE
1 W
0 0 0 C
409.067 198.754 LS
410.372 188.587 L
411.677 203.788 L
412.982 199.912 L
414.287 181.889 L
415.591 211.789 L
416.896 199.909 L
418.201 207.277 L
419.506 204.208 L
420.811 215.345 L
422.115 191.245 L
423.42 213.26 L
424.725 212.894 L
426.03 212.548 L
427.335 211.36 L
428.639 209.843 L
429.944 223.283 L
431.249 198.522 L
432.554 237.075 L
433.859 198.928 L
435.163 240.415 L
436.468 226.172 L
437.773 244.838 L
439.078 243.503 L
440.383 235.107 L
441.687 229.684 L
442.992 221.835 L
444.297 235.795 L
445.602 213.6 L
446.907 248 L
448.211 226.61 L
449.516 219.032 L
450.821 207.754 L
452.126 196.92 L
453.431 202.636 L
454.735 186.834 L
456.04 204.39 L
457.345 185.765 L
458.65 201.687 L
459.954 189.806 L
461.259 187.581 L
462.564 183.408 L
463.869 197.54 L
465.174 192.013 L
466.478 194.58 L
467.783 196.12 L
469.088 184.862 L
470.393 192.858 L
471.698 196.484 L
473.003 198.903 L
474.307 205.756 L
475.612 224.252 L
476.917 216.072 L
478.222 210.556 L
479.526 194.048 L
480.831 192.233 L
482.136 196.867 L
483.441 207.145 L
484.746 213.175 L
486.05 205.096 L
487.355 212.224 L
488.66 200.554 L
489.965 220.476 L
491.27 205.542 L
492.574 221.163 L
493.879 204.744 L
495.184 218.604 L
496.489 203.96 L
497.794 210.641 L
499.098 223.179 L
500.403 211.229 L
501.708 226.378 L
503.013 212.853 L
504.318 228.235 L
505.622 222.945 L
506.927 219.701 L
508.232 236.197 L
509.537 224.1 L
510.842 227.28 L
512.146 227.032 L
513.451 215.585 L
514.756 198.726 L
516.061 197.631 L
517.366 185.525 L
518.67 182.131 L
519.975 190.808 L
521.28 198.545 LE
grestore
gsave
1.0 1.0 scale
newpath 0 0 moveto 576 0 lineto 576 432 lineto 0 432 lineto
closepath clip
1 1 1 C
74.88 120.933 187.093 47.52 74.88 47.52 T
74.88 120.933 187.093 120.933 187.093 47.52 T
0.5 W
0.15 0.15 0.15 C
99.6711 47.52 LS
99.6711 48.6485 LE
99.6711 120.933 LS
99.6711 119.805 LE
125.767 47.52 LS
125.767 48.6485 LE
125.767 120.933 LS
125.767 119.805 LE
151.863 47.52 LS
151.863 48.6485 LE
151.863 120.933 LS
151.863 119.805 LE
177.959 47.52 LS
177.959 48.6485 LE
177.959 120.933 LS
177.959 119.805 LE
gsave
0.14902 0.14902 0.14902 C
(20) [6 10] 0 93.6712 31.9776 10 /Helvetica SRX
grestore

gsave
0.14902 0.14902 0.14902 C
(40) [6 10] 0 119.767 31.9776 10 /Helvetica SRX
grestore

gsave
0.14902 0.14902 0.14902 C
(60) [6 10] 0 145.863 31.9776 10 /Helvetica SRX
grestore

gsave
0.14902 0.14902 0.14902 C
(80) [6 10] 0 171.959 31.9776 10 /Helvetica SRX
grestore

74.88 47.52 LS
76.0043 47.52 LE
187.093 47.52 LS
185.968 47.52 LE
74.88 59.7555 LS
76.0043 59.7555 LE
187.093 59.7555 LS
185.968 59.7555 LE
74.88 71.991 LS
76.0043 71.991 LE
187.093 71.991 LS
185.968 71.991 LE
74.88 84.2266 LS
76.0043 84.2266 LE
187.093 84.2266 LS
185.968 84.2266 LE
74.88 96.4621 LS
76.0043 96.4621 LE
187.093 96.4621 LS
185.968 96.4621 LE
74.88 108.698 LS
76.0043 108.698 LE
187.093 108.698 LS
185.968 108.698 LE
74.88 120.933 LS
76.0043 120.933 LE
187.093 120.933 LS
185.968 120.933 LE
gsave
0.14902 0.14902 0.14902 C
(-0.06) [3 6 3 6 10] 0 45.8705 43.52 10 /Helvetica SRX
grestore

gsave
0.14902 0.14902 0.14902 C
(-0.04) [3 6 3 6 10] 0 45.8705 55.7555 10 /Helvetica SRX
grestore

gsave
0.14902 0.14902 0.14902 C
(-0.02) [3 6 3 6 10] 0 45.8705 67.991 10 /Helvetica SRX
grestore

gsave
0.14902 0.14902 0.14902 C
(0) [10] 0 63.8705 80.2266 10 /Helvetica SRX
grestore

gsave
0.14902 0.14902 0.14902 C
(0.02) [6 3 6 10] 0 48.8705 92.4621 10 /Helvetica SRX
grestore

gsave
0.14902 0.14902 0.14902 C
(0.04) [6 3 6 10] 0 48.8705 104.698 10 /Helvetica SRX
grestore

gsave
0.14902 0.14902 0.14902 C
(0.06) [6 3 6 10] 0 48.8705 116.933 10 /Helvetica SRX
grestore

2 LC
[16 0] 0 setdash
74.88 47.52 LS
187.093 47.52 LE
74.88 120.933 LS
187.093 120.933 LE
74.88 47.52 LS
74.88 120.933 LE
187.093 47.52 LS
187.093 120.933 LE
gsave
0 0 0 C
(eps_AN_news0) [6 7 6 6 8 8 6 7 6 9 6 10] 0 90.4863 133.933 11 /Helvetica-Bold SRX
grestore

0 LC
1 LJ
[] 0 setdash
1 0 0 C
74.88 84.2266 LS
187.093 84.2266 LE
1 W
0 0 0 C
74.88 86.5354 LS
76.1848 103.828 L
77.4896 98.3404 L
78.7944 110.704 L
80.0992 50.2184 L
81.404 97.9719 L
82.7088 95.3351 L
84.0136 89.2598 L
85.3184 92.2517 L
86.6232 83.8829 L
87.928 74.4265 L
89.2328 91.2876 L
90.5376 79.1301 L
91.8424 80.6251 L
93.1472 86.9512 L
94.452 78.823 L
95.7568 87.5265 L
97.0616 78.147 L
98.3663 101.487 L
99.6711 79.2262 L
100.976 66.7122 L
102.281 114.308 L
103.586 78.9901 L
104.89 89.9982 L
106.195 65.6909 L
107.5 94.5003 L
108.805 63.6861 L
110.11 76.4784 L
111.414 82.4334 L
112.719 75.1097 L
114.024 97.4992 L
115.329 82.8258 L
116.634 85.9265 L
117.938 67.8076 L
119.243 78.2572 L
120.548 78.6401 L
121.853 91.7375 L
123.158 82.1013 L
124.462 94.7961 L
125.767 91.6407 L
127.072 76.7091 L
128.377 87.0596 L
129.682 84.9044 L
130.986 88.0725 L
132.291 93.3456 L
133.596 85.7651 L
134.901 77.6708 L
136.205 84.911 L
137.51 92.6753 L
138.815 87.1195 L
140.12 81.8216 L
141.425 99.1879 L
142.729 81.7235 L
144.034 78.9216 L
145.339 90.3653 L
146.644 69.2324 L
147.949 84.3056 L
149.253 106.671 L
150.558 93.1909 L
151.863 70.1317 L
153.168 89.0356 L
154.473 85.2183 L
155.777 78.676 L
157.082 86.7586 L
158.387 87.9178 L
159.692 82.9504 L
160.997 81.7721 L
162.301 82.8046 L
163.606 80.3569 L
164.911 90.2023 L
166.216 90.4098 L
167.521 87.9847 L
168.825 73.2549 L
170.13 86.345 L
171.435 86.084 L
172.74 78.5952 L
174.045 84.6623 L
175.349 80.5106 L
176.654 78.8307 L
177.959 95.1065 L
179.264 63.5358 L
180.569 76.9179 L
181.873 77.6149 L
183.178 82.7579 L
184.483 78.5405 L
185.788 75.824 L
187.093 85.5077 LE
grestore
gsave
1.0 1.0 scale
newpath 0 0 moveto 576 0 lineto 576 432 lineto 0 432 lineto
closepath clip
1 1 1 C
241.974 120.933 354.186 47.52 241.974 47.52 T
241.974 120.933 354.186 120.933 354.186 47.52 T
0.5 W
0.15 0.15 0.15 C
266.765 47.52 LS
266.765 48.6485 LE
266.765 120.933 LS
266.765 119.805 LE
292.861 47.52 LS
292.861 48.6485 LE
292.861 120.933 LS
292.861 119.805 LE
318.957 47.52 LS
318.957 48.6485 LE
318.957 120.933 LS
318.957 119.805 LE
345.053 47.52 LS
345.053 48.6485 LE
345.053 120.933 LS
345.053 119.805 LE
gsave
0.14902 0.14902 0.14902 C
(20) [6 10] 0 260.765 31.9776 10 /Helvetica SRX
grestore

gsave
0.14902 0.14902 0.14902 C
(40) [6 10] 0 286.861 31.9776 10 /Helvetica SRX
grestore

gsave
0.14902 0.14902 0.14902 C
(60) [6 10] 0 312.957 31.9776 10 /Helvetica SRX
grestore

gsave
0.14902 0.14902 0.14902 C
(80) [6 10] 0 339.053 31.9776 10 /Helvetica SRX
grestore

241.974 47.52 LS
243.098 47.52 LE
354.186 47.52 LS
353.062 47.52 LE
241.974 65.8733 LS
243.098 65.8733 LE
354.186 65.8733 LS
353.062 65.8733 LE
241.974 84.2266 LS
243.098 84.2266 LE
354.186 84.2266 LS
353.062 84.2266 LE
241.974 102.58 LS
243.098 102.58 LE
354.186 102.58 LS
353.062 102.58 LE
241.974 120.933 LS
243.098 120.933 LE
354.186 120.933 LS
353.062 120.933 LE
gsave
0.14902 0.14902 0.14902 C
(-0.01) [3 6 3 6 10] 0 212.964 43.52 10 /Helvetica SRX
grestore

gsave
0.14902 0.14902 0.14902 C
(-0.005) [3 6 3 6 6 10] 0 206.964 61.8733 10 /Helvetica SRX
grestore

gsave
0.14902 0.14902 0.14902 C
(0) [10] 0 230.964 80.2266 10 /Helvetica SRX
grestore

gsave
0.14902 0.14902 0.14902 C
(0.005) [6 3 6 6 10] 0 209.964 98.5799 10 /Helvetica SRX
grestore

gsave
0.14902 0.14902 0.14902 C
(0.01) [6 3 6 10] 0 215.964 116.933 10 /Helvetica SRX
grestore

2 LC
[16 0] 0 setdash
241.974 47.52 LS
354.186 47.52 LE
241.974 120.933 LS
354.186 120.933 LE
241.974 47.52 LS
241.974 120.933 LE
354.186 47.52 LS
354.186 120.933 LE
gsave
0 0 0 C
(eps_AN_news2) [6 7 6 6 8 8 6 7 6 9 6 10] 0 257.58 133.933 11 /Helvetica-Bold SRX
grestore

0 LC
1 LJ
[] 0 setdash
1 0 0 C
241.974 84.2266 LS
354.186 84.2266 LE
1 W
0 0 0 C
241.974 119.86 LS
243.278 101.363 L
244.583 85.2987 L
245.888 90.138 L
247.193 66.1241 L
248.498 100.429 L
249.802 95.288 L
251.107 89.0725 L
252.412 68.0469 L
253.717 84.7025 L
255.022 78.3718 L
256.326 83.1861 L
257.631 71.8787 L
258.936 81.3371 L
260.241 95.4824 L
261.546 83.7662 L
262.85 99.6737 L
264.155 78.9787 L
265.46 76.2038 L
266.765 104.209 L
268.07 92.8699 L
269.374 95.6862 L
270.679 79.5624 L
271.984 100.472 L
273.289 71.5468 L
274.594 80.0409 L
275.898 80.243 L
277.203 69.4109 L
278.508 95.9728 L
279.813 102.301 L
281.118 104.045 L
282.422 77.3584 L
283.727 69.2393 L
285.032 63.827 L
286.337 85.9549 L
287.642 76.4464 L
288.946 96.5701 L
290.251 86.1175 L
291.556 86.0039 L
292.861 73.8817 L
294.166 82.6403 L
295.47 81.9144 L
296.775 87.1202 L
298.08 84.3515 L
299.385 77.5228 L
300.69 75.7595 L
301.994 78.7513 L
303.299 90.8467 L
304.604 82.2546 L
305.909 89.8372 L
307.214 82.2446 L
308.518 83.8763 L
309.823 88.2909 L
311.128 74.9259 L
312.433 89.7762 L
313.738 100.382 L
315.042 84.3674 L
316.347 69.3731 L
317.652 91.19 L
318.957 86.0641 L
320.262 81.1847 L
321.566 86.7465 L
322.871 90.4927 L
324.176 78.4611 L
325.481 90.3181 L
326.786 79.6922 L
328.09 82.8427 L
329.395 84.6207 L
330.7 95.1106 L
332.005 94.4103 L
333.31 75.7694 L
334.614 84.2012 L
335.919 86.6976 L
337.224 89.8333 L
338.529 84.1423 L
339.833 89.03 L
341.138 82.0114 L
342.443 91.0989 L
343.748 73.4347 L
345.053 91.0445 L
346.358 69.2322 L
347.662 74.7942 L
348.967 75.247 L
350.272 72.2346 L
351.577 74.1665 L
352.882 72.6375 L
354.186 78.2119 LE
grestore
gsave
1.0 1.0 scale
newpath 0 0 moveto 576 0 lineto 576 432 lineto 0 432 lineto
closepath clip
1 1 1 C
409.067 120.933 521.28 47.52 409.067 47.52 T
409.067 120.933 521.28 120.933 521.28 47.52 T
0.5 W
0.15 0.15 0.15 C
433.859 47.52 LS
433.859 48.6485 LE
433.859 120.933 LS
433.859 119.805 LE
459.954 47.52 LS
459.954 48.6485 LE
459.954 120.933 LS
459.954 119.805 LE
486.05 47.52 LS
486.05 48.6485 LE
486.05 120.933 LS
486.05 119.805 LE
512.146 47.52 LS
512.146 48.6485 LE
512.146 120.933 LS
512.146 119.805 LE
gsave
0.14902 0.14902 0.14902 C
(20) [6 10] 0 427.859 31.9776 10 /Helvetica SRX
grestore

gsave
0.14902 0.14902 0.14902 C
(40) [6 10] 0 453.955 31.9776 10 /Helvetica SRX
grestore

gsave
0.14902 0.14902 0.14902 C
(60) [6 10] 0 480.05 31.9776 10 /Helvetica SRX
grestore

gsave
0.14902 0.14902 0.14902 C
(80) [6 10] 0 506.146 31.9776 10 /Helvetica SRX
grestore

409.067 47.52 LS
410.192 47.52 LE
521.28 47.52 LS
520.156 47.52 LE
409.067 65.8733 LS
410.192 65.8733 LE
521.28 65.8733 LS
520.156 65.8733 LE
409.067 84.2266 LS
410.192 84.2266 LE
521.28 84.2266 LS
520.156 84.2266 LE
409.067 102.58 LS
410.192 102.58 LE
521.28 102.58 LS
520.156 102.58 LE
409.067 120.933 LS
410.192 120.933 LE
521.28 120.933 LS
520.156 120.933 LE
gsave
0.14902 0.14902 0.14902 C
(-0.01) [3 6 3 6 10] 0 380.058 43.52 10 /Helvetica SRX
grestore

gsave
0.14902 0.14902 0.14902 C
(-0.005) [3 6 3 6 6 10] 0 374.058 61.8733 10 /Helvetica SRX
grestore

gsave
0.14902 0.14902 0.14902 C
(0) [10] 0 398.058 80.2266 10 /Helvetica SRX
grestore

gsave
0.14902 0.14902 0.14902 C
(0.005) [6 3 6 6 10] 0 377.058 98.5799 10 /Helvetica SRX
grestore

gsave
0.14902 0.14902 0.14902 C
(0.01) [6 3 6 10] 0 383.058 116.933 10 /Helvetica SRX
grestore

2 LC
[16 0] 0 setdash
409.067 47.52 LS
521.28 47.52 LE
409.067 120.933 LS
521.28 120.933 LE
409.067 47.52 LS
409.067 120.933 LE
521.28 47.52 LS
521.28 120.933 LE
gsave
0 0 0 C
(eps_AN_news4) [6 7 6 6 8 8 6 7 6 9 6 10] 0 424.674 133.933 11 /Helvetica-Bold SRX
grestore

0 LC
1 LJ
[] 0 setdash
1 0 0 C
409.067 84.2266 LS
521.28 84.2266 LE
1 W
0 0 0 C
409.067 91.1285 LS
410.372 75.0559 L
411.677 87.4632 L
412.982 100.784 L
414.287 71.3592 L
415.591 89.9865 L
416.896 66.9845 L
418.201 86.9004 L
419.506 76.0715 L
420.811 76.4504 L
422.115 71.1543 L
423.42 85.7972 L
424.725 83.1471 L
426.03 84.9078 L
427.335 108.191 L
428.639 83.41 L
429.944 67.3852 L
431.249 105.308 L
432.554 109.989 L
433.859 80.225 L
435.163 85.6942 L
436.468 104.854 L
437.773 87.5685 L
439.078 83.0445 L
440.383 92.9187 L
441.687 79.7451 L
442.992 98.5882 L
444.297 104.298 L
445.602 101.826 L
446.907 89.8727 L
448.211 79.2204 L
449.516 78.1528 L
450.821 86.8914 L
452.126 68.6578 L
453.431 92.047 L
454.735 82.9646 L
456.04 82.9207 L
457.345 63.0515 L
458.65 89.7554 L
459.954 73.7736 L
461.259 82.6936 L
462.564 79.0023 L
463.869 67.5322 L
465.174 69.8104 L
466.478 81.3517 L
467.783 85.5271 L
469.088 67.5989 L
470.393 88.5622 L
471.698 82.7393 L
473.003 71.0465 L
474.307 85.4838 L
475.612 80.1329 L
476.917 87.482 L
478.222 109.977 L
479.526 90.9979 L
480.831 56.3375 L
482.136 77.3399 L
483.441 88.8628 L
484.746 82.6736 L
486.05 85.3721 L
487.355 93.8056 L
488.66 77.5549 L
489.965 91.2872 L
491.27 75.7797 L
492.574 90.0085 L
493.879 84.4046 L
495.184 98.9388 L
496.489 90.056 L
497.794 75.4675 L
499.098 85.6882 L
500.403 92.2051 L
501.708 91.2873 L
503.013 82.1764 L
504.318 99.614 L
505.622 83.2291 L
506.927 98.3449 L
508.232 79.616 L
509.537 86.1392 L
510.842 81.5174 L
512.146 90.1223 L
513.451 74.5688 L
514.756 67.3297 L
516.061 74.4965 L
517.366 72.2271 L
518.67 69.8734 L
519.975 73.9777 L
521.28 78.7492 LE
grestore
grestore
showpage
cleartomark
%%PageTrailer
%%Trailer
end
%%EOF
