%!PS-Adobe-3.0 EPSF-3.0
%%Title: gl2ps_renderer figure
%%Creator: GL2PS 1.4.2, (C) 1999-2020 C. Geuzaine
%%For: Octave
%%CreationDate: Mon Jun 29 20:41:40 2020
%%LanguageLevel: 3
%%DocumentData: Clean7Bit
%%Pages: 1
%%BoundingBox: 0 0 576 432
%%EndComments
%%BeginProlog
/gl2psdict 64 dict def gl2psdict begin
/tryPS3shading false def % set to false to force subdivision
/rThreshold 0.064 def % red component subdivision threshold
/gThreshold 0.034 def % green component subdivision threshold
/bThreshold 0.1 def % blue component subdivision threshold
/BD { bind def } bind def
/C  { setrgbcolor } BD
/G  { 0.082 mul exch 0.6094 mul add exch 0.3086 mul add neg 1.0 add setgray } BD
/W  { setlinewidth } BD
/LC  { setlinecap } BD
/LJ  { setlinejoin } BD
/FC { findfont exch /SH exch def SH scalefont setfont } BD
/SW { dup stringwidth pop } BD
/S  { FC moveto show } BD
/SBC{ FC moveto SW -2 div 0 rmoveto show } BD
/SBR{ FC moveto SW neg 0 rmoveto show } BD
/SCL{ FC moveto 0 SH -2 div rmoveto show } BD
/SCC{ FC moveto SW -2 div SH -2 div rmoveto show } BD
/SCR{ FC moveto SW neg SH -2 div rmoveto show } BD
/STL{ FC moveto 0 SH neg rmoveto show } BD
/STC{ FC moveto SW -2 div SH neg rmoveto show } BD
/STR{ FC moveto SW neg SH neg rmoveto show } BD
/FCT { FC translate 0 0 } BD
/SR  { gsave FCT moveto rotate show grestore } BD
/SRX  { gsave FCT moveto rotate xshow grestore } BD
/SBCR{ gsave FCT moveto rotate SW -2 div 0 rmoveto show grestore } BD
/SBRR{ gsave FCT moveto rotate SW neg 0 rmoveto show grestore } BD
/SCLR{ gsave FCT moveto rotate 0 SH -2 div rmoveto show grestore} BD
/SCCR{ gsave FCT moveto rotate SW -2 div SH -2 div rmoveto show grestore} BD
/SCRR{ gsave FCT moveto rotate SW neg SH -2 div rmoveto show grestore} BD
/STLR{ gsave FCT moveto rotate 0 SH neg rmoveto show grestore } BD
/STCR{ gsave FCT moveto rotate SW -2 div SH neg rmoveto show grestore } BD
/STRR{ gsave FCT moveto rotate SW neg SH neg rmoveto show grestore } BD
/P  { newpath 0.0 360.0 arc closepath fill } BD
/LS { newpath moveto } BD
/L  { lineto } BD
/LE { lineto stroke } BD
/T  { newpath moveto lineto lineto closepath fill } BD
/STshfill {
      /b1 exch def /g1 exch def /r1 exch def /y1 exch def /x1 exch def
      /b2 exch def /g2 exch def /r2 exch def /y2 exch def /x2 exch def
      /b3 exch def /g3 exch def /r3 exch def /y3 exch def /x3 exch def
      gsave << /ShadingType 4 /ColorSpace [/DeviceRGB]
      /DataSource [ 0 x1 y1 r1 g1 b1 0 x2 y2 r2 g2 b2 0 x3 y3 r3 g3 b3 ] >>
      shfill grestore } BD
/Tm { 3 -1 roll 8 -1 roll 13 -1 roll add add 3 div
      3 -1 roll 7 -1 roll 11 -1 roll add add 3 div
      3 -1 roll 6 -1 roll 9 -1 roll add add 3 div C T } BD
/STsplit {
      4 index 15 index add 0.5 mul
      4 index 15 index add 0.5 mul
      4 index 15 index add 0.5 mul
      4 index 15 index add 0.5 mul
      4 index 15 index add 0.5 mul
      5 copy 5 copy 25 15 roll
      9 index 30 index add 0.5 mul
      9 index 30 index add 0.5 mul
      9 index 30 index add 0.5 mul
      9 index 30 index add 0.5 mul
      9 index 30 index add 0.5 mul
      5 copy 5 copy 35 5 roll 25 5 roll 15 5 roll
      4 index 10 index add 0.5 mul
      4 index 10 index add 0.5 mul
      4 index 10 index add 0.5 mul
      4 index 10 index add 0.5 mul
      4 index 10 index add 0.5 mul
      5 copy 5 copy 40 5 roll 25 5 roll 15 5 roll 25 5 roll
      STnoshfill STnoshfill STnoshfill STnoshfill } BD
/STnoshfill {
      2 index 8 index sub abs rThreshold gt
      { STsplit }
      { 1 index 7 index sub abs gThreshold gt
        { STsplit }
        { dup 6 index sub abs bThreshold gt
          { STsplit }
          { 2 index 13 index sub abs rThreshold gt
            { STsplit }
            { 1 index 12 index sub abs gThreshold gt
              { STsplit }
              { dup 11 index sub abs bThreshold gt
                { STsplit }
                { 7 index 13 index sub abs rThreshold gt
                  { STsplit }
                  { 6 index 12 index sub abs gThreshold gt
                    { STsplit }
                    { 5 index 11 index sub abs bThreshold gt
                      { STsplit }
                      { Tm }
                      ifelse }
                    ifelse }
                  ifelse }
                ifelse }
              ifelse }
            ifelse }
          ifelse }
        ifelse }
      ifelse } BD
tryPS3shading
{ /shfill where
  { /ST { STshfill } BD }
  { /ST { STnoshfill } BD }
  ifelse }
{ /ST { STnoshfill } BD }
ifelse
end
%%EndProlog
%%BeginSetup
/DeviceRGB setcolorspace
gl2psdict begin
%%EndSetup
%%Page: 1 1
%%BeginPageSetup
%%EndPageSetup
mark
gsave
1.0 1.0 scale
1 1 1 C
newpath 0 0 moveto 576 0 lineto 576 432 lineto 0 432 lineto
closepath fill
gsave
1.0 1.0 scale
1 1 1 C
newpath 0 0 moveto 576 0 lineto 576 432 lineto 0 432 lineto
closepath fill
newpath 0 0 moveto 576 0 lineto 576 432 lineto 0 432 lineto
closepath clip
1 1 1 C
74.88 387.841 187.093 312.427 74.88 312.427 T
74.88 387.841 187.093 387.841 187.093 312.427 T
0.5 W
0.15 0.15 0.15 C
99.6711 312.427 LS
99.6711 313.556 LE
99.6711 387.841 LS
99.6711 386.712 LE
125.767 312.427 LS
125.767 313.556 LE
125.767 387.841 LS
125.767 386.712 LE
151.863 312.427 LS
151.863 313.556 LE
151.863 387.841 LS
151.863 386.712 LE
177.959 312.427 LS
177.959 313.556 LE
177.959 387.841 LS
177.959 386.712 LE
gsave
0.14902 0.14902 0.14902 C
(20) [6 10] 0 93.6712 296.886 10 /Helvetica SRX
grestore

gsave
0.14902 0.14902 0.14902 C
(40) [6 10] 0 119.767 296.886 10 /Helvetica SRX
grestore

gsave
0.14902 0.14902 0.14902 C
(60) [6 10] 0 145.863 296.886 10 /Helvetica SRX
grestore

gsave
0.14902 0.14902 0.14902 C
(80) [6 10] 0 171.959 296.886 10 /Helvetica SRX
grestore

74.88 312.427 LS
76.0043 312.427 LE
187.093 312.427 LS
185.968 312.427 LE
74.88 323.201 LS
76.0043 323.201 LE
187.093 323.201 LS
185.968 323.201 LE
74.88 333.974 LS
76.0043 333.974 LE
187.093 333.974 LS
185.968 333.974 LE
74.88 344.747 LS
76.0043 344.747 LE
187.093 344.747 LS
185.968 344.747 LE
74.88 355.521 LS
76.0043 355.521 LE
187.093 355.521 LS
185.968 355.521 LE
74.88 366.294 LS
76.0043 366.294 LE
187.093 366.294 LS
185.968 366.294 LE
74.88 377.067 LS
76.0043 377.067 LE
187.093 377.067 LS
185.968 377.067 LE
74.88 387.841 LS
76.0043 387.841 LE
187.093 387.841 LS
185.968 387.841 LE
gsave
0.14902 0.14902 0.14902 C
(-0.08) [3 6 3 6 10] 0 45.8705 308.427 10 /Helvetica SRX
grestore

gsave
0.14902 0.14902 0.14902 C
(-0.06) [3 6 3 6 10] 0 45.8705 319.201 10 /Helvetica SRX
grestore

gsave
0.14902 0.14902 0.14902 C
(-0.04) [3 6 3 6 10] 0 45.8705 329.974 10 /Helvetica SRX
grestore

gsave
0.14902 0.14902 0.14902 C
(-0.02) [3 6 3 6 10] 0 45.8705 340.747 10 /Helvetica SRX
grestore

gsave
0.14902 0.14902 0.14902 C
(0) [10] 0 63.8705 351.521 10 /Helvetica SRX
grestore

gsave
0.14902 0.14902 0.14902 C
(0.02) [6 3 6 10] 0 48.8705 362.294 10 /Helvetica SRX
grestore

gsave
0.14902 0.14902 0.14902 C
(0.04) [6 3 6 10] 0 48.8705 373.067 10 /Helvetica SRX
grestore

gsave
0.14902 0.14902 0.14902 C
(0.06) [6 3 6 10] 0 48.8705 383.841 10 /Helvetica SRX
grestore

2 LC
[16 0] 0 setdash
74.88 312.427 LS
187.093 312.427 LE
74.88 387.841 LS
187.093 387.841 LE
74.88 312.427 LS
74.88 387.841 LE
187.093 312.427 LS
187.093 387.841 LE
gsave
0 0 0 C
(eps_AC_news0) [6 7 6 6 8 8 6 7 6 9 6 10] 0 90.4863 400.841 11 /Helvetica-Bold SRX
grestore

0 LC
1 LJ
[] 0 setdash
1 0 0 C
74.88 355.521 LS
187.093 355.521 LE
1 W
0 0 0 C
74.88 374.428 LS
76.1848 373.138 L
77.4896 371.629 L
78.7944 387.514 L
80.0992 342.852 L
81.404 357.557 L
82.7088 382.985 L
84.0136 340.785 L
85.3184 375.481 L
86.6232 356.096 L
87.928 360.661 L
89.2328 356.434 L
90.5376 360.574 L
91.8424 363.063 L
93.1472 350.597 L
94.452 345.675 L
95.7568 358.332 L
97.0616 347.595 L
98.3663 339.344 L
99.6711 339.344 L
100.976 345.388 L
102.281 339.179 L
103.586 331.574 L
104.89 319.93 L
106.195 339.432 L
107.5 317.634 L
108.805 338.476 L
110.11 330.954 L
111.414 353.889 L
112.719 326.292 L
114.024 354.304 L
115.329 339.516 L
116.634 341.461 L
117.938 353.483 L
119.243 364.692 L
120.548 365.588 L
121.853 371.655 L
123.158 375.228 L
124.462 377.068 L
125.767 367.474 L
127.072 371.907 L
128.377 374.541 L
129.682 375.835 L
130.986 369.312 L
132.291 380.59 L
133.596 358.227 L
134.901 381.936 L
136.205 369.012 L
137.51 377.226 L
138.815 363.586 L
140.12 367.823 L
141.425 362.398 L
142.729 354.735 L
144.034 354.862 L
145.339 364.292 L
146.644 358.802 L
147.949 366.763 L
149.253 368.885 L
150.558 354.463 L
151.863 355.78 L
153.168 362.28 L
154.473 354.71 L
155.777 350.293 L
157.082 351.364 L
158.387 351.903 L
159.692 344.544 L
160.997 354.406 L
162.301 348.23 L
163.606 354.705 L
164.911 342.331 L
166.216 357.629 L
167.521 335.792 L
168.825 345.075 L
170.13 344.293 L
171.435 341.475 L
172.74 335.647 L
174.045 342.782 L
175.349 334.533 L
176.654 340.328 L
177.959 343.12 L
179.264 345.401 L
180.569 348.653 L
181.873 359.061 L
183.178 358.311 L
184.483 371.572 L
185.788 363.38 L
187.093 368.723 LE
grestore
gsave
1.0 1.0 scale
newpath 0 0 moveto 576 0 lineto 576 432 lineto 0 432 lineto
closepath clip
1 1 1 C
241.974 387.841 354.186 312.427 241.974 312.427 T
241.974 387.841 354.186 387.841 354.186 312.427 T
0.5 W
0.15 0.15 0.15 C
266.765 312.427 LS
266.765 313.556 LE
266.765 387.841 LS
266.765 386.712 LE
292.861 312.427 LS
292.861 313.556 LE
292.861 387.841 LS
292.861 386.712 LE
318.957 312.427 LS
318.957 313.556 LE
318.957 387.841 LS
318.957 386.712 LE
345.053 312.427 LS
345.053 313.556 LE
345.053 387.841 LS
345.053 386.712 LE
gsave
0.14902 0.14902 0.14902 C
(20) [6 10] 0 260.765 296.886 10 /Helvetica SRX
grestore

gsave
0.14902 0.14902 0.14902 C
(40) [6 10] 0 286.861 296.886 10 /Helvetica SRX
grestore

gsave
0.14902 0.14902 0.14902 C
(60) [6 10] 0 312.957 296.886 10 /Helvetica SRX
grestore

gsave
0.14902 0.14902 0.14902 C
(80) [6 10] 0 339.053 296.886 10 /Helvetica SRX
grestore

241.974 312.427 LS
243.098 312.427 LE
354.186 312.427 LS
353.062 312.427 LE
241.974 323.201 LS
243.098 323.201 LE
354.186 323.201 LS
353.062 323.201 LE
241.974 333.974 LS
243.098 333.974 LE
354.186 333.974 LS
353.062 333.974 LE
241.974 344.747 LS
243.098 344.747 LE
354.186 344.747 LS
353.062 344.747 LE
241.974 355.521 LS
243.098 355.521 LE
354.186 355.521 LS
353.062 355.521 LE
241.974 366.294 LS
243.098 366.294 LE
354.186 366.294 LS
353.062 366.294 LE
241.974 377.067 LS
243.098 377.067 LE
354.186 377.067 LS
353.062 377.067 LE
241.974 387.841 LS
243.098 387.841 LE
354.186 387.841 LS
353.062 387.841 LE
gsave
0.14902 0.14902 0.14902 C
(-0.02) [3 6 3 6 10] 0 212.964 308.427 10 /Helvetica SRX
grestore

gsave
0.14902 0.14902 0.14902 C
(-0.015) [3 6 3 6 6 10] 0 206.964 319.201 10 /Helvetica SRX
grestore

gsave
0.14902 0.14902 0.14902 C
(-0.01) [3 6 3 6 10] 0 212.964 329.974 10 /Helvetica SRX
grestore

gsave
0.14902 0.14902 0.14902 C
(-0.005) [3 6 3 6 6 10] 0 206.964 340.747 10 /Helvetica SRX
grestore

gsave
0.14902 0.14902 0.14902 C
(0) [10] 0 230.964 351.521 10 /Helvetica SRX
grestore

gsave
0.14902 0.14902 0.14902 C
(0.005) [6 3 6 6 10] 0 209.964 362.294 10 /Helvetica SRX
grestore

gsave
0.14902 0.14902 0.14902 C
(0.01) [6 3 6 10] 0 215.964 373.067 10 /Helvetica SRX
grestore

gsave
0.14902 0.14902 0.14902 C
(0.015) [6 3 6 6 10] 0 209.964 383.841 10 /Helvetica SRX
grestore

2 LC
[16 0] 0 setdash
241.974 312.427 LS
354.186 312.427 LE
241.974 387.841 LS
354.186 387.841 LE
241.974 312.427 LS
241.974 387.841 LE
354.186 312.427 LS
354.186 387.841 LE
gsave
0 0 0 C
(eps_AC_news2) [6 7 6 6 8 8 6 7 6 9 6 10] 0 257.58 400.841 11 /Helvetica-Bold SRX
grestore

0 LC
1 LJ
[] 0 setdash
1 0 0 C
241.974 355.521 LS
354.186 355.521 LE
1 W
0 0 0 C
241.974 377.345 LS
243.278 364.755 L
244.583 371.635 L
245.888 356.976 L
247.193 346.443 L
248.498 343.659 L
249.802 373.344 L
251.107 358.82 L
252.412 357.004 L
253.717 348.268 L
255.022 360.263 L
256.326 368.6 L
257.631 334.547 L
258.936 348.721 L
260.241 368.461 L
261.546 355.298 L
262.85 332.167 L
264.155 340.409 L
265.46 367.923 L
266.765 322.353 L
268.07 343.388 L
269.374 329.533 L
270.679 363.297 L
271.984 328.59 L
273.289 356.49 L
274.594 349.682 L
275.898 356.101 L
277.203 330.886 L
278.508 350.081 L
279.813 359.172 L
281.118 357.576 L
282.422 373.145 L
283.727 363.374 L
285.032 353.898 L
286.337 361.995 L
287.642 367.606 L
288.946 370.02 L
290.251 352.64 L
291.556 377.86 L
292.861 361.375 L
294.166 366.184 L
295.47 360.39 L
296.775 364.589 L
298.08 350.546 L
299.385 381.365 L
300.69 359.438 L
301.994 355.556 L
303.299 360.305 L
304.604 366.809 L
305.909 345.535 L
307.214 350.357 L
308.518 362.663 L
309.823 359.932 L
311.128 368.479 L
312.433 374.102 L
313.738 352.834 L
315.042 335.606 L
316.347 358.25 L
317.652 364.529 L
318.957 353.348 L
320.262 354.68 L
321.566 351.798 L
322.871 353.379 L
324.176 341.463 L
325.481 364.044 L
326.786 349.297 L
328.09 358.518 L
329.395 338.148 L
330.7 358.367 L
332.005 341.034 L
333.31 352.817 L
334.614 347.969 L
335.919 341.315 L
337.224 351.906 L
338.529 346.761 L
339.833 346.084 L
341.138 351.677 L
342.443 338.253 L
343.748 363.521 L
345.053 370.473 L
346.358 358.264 L
347.662 352.432 L
348.967 370.494 L
350.272 362.577 L
351.577 356.716 L
352.882 341.987 L
354.186 348.179 LE
grestore
gsave
1.0 1.0 scale
newpath 0 0 moveto 576 0 lineto 576 432 lineto 0 432 lineto
closepath clip
1 1 1 C
409.067 387.841 521.28 312.427 409.067 312.427 T
409.067 387.841 521.28 387.841 521.28 312.427 T
0.5 W
0.15 0.15 0.15 C
433.859 312.427 LS
433.859 313.556 LE
433.859 387.841 LS
433.859 386.712 LE
459.954 312.427 LS
459.954 313.556 LE
459.954 387.841 LS
459.954 386.712 LE
486.05 312.427 LS
486.05 313.556 LE
486.05 387.841 LS
486.05 386.712 LE
512.146 312.427 LS
512.146 313.556 LE
512.146 387.841 LS
512.146 386.712 LE
gsave
0.14902 0.14902 0.14902 C
(20) [6 10] 0 427.859 296.886 10 /Helvetica SRX
grestore

gsave
0.14902 0.14902 0.14902 C
(40) [6 10] 0 453.955 296.886 10 /Helvetica SRX
grestore

gsave
0.14902 0.14902 0.14902 C
(60) [6 10] 0 480.05 296.886 10 /Helvetica SRX
grestore

gsave
0.14902 0.14902 0.14902 C
(80) [6 10] 0 506.146 296.886 10 /Helvetica SRX
grestore

409.067 312.427 LS
410.192 312.427 LE
521.28 312.427 LS
520.156 312.427 LE
409.067 327.51 LS
410.192 327.51 LE
521.28 327.51 LS
520.156 327.51 LE
409.067 342.593 LS
410.192 342.593 LE
521.28 342.593 LS
520.156 342.593 LE
409.067 357.675 LS
410.192 357.675 LE
521.28 357.675 LS
520.156 357.675 LE
409.067 372.758 LS
410.192 372.758 LE
521.28 372.758 LS
520.156 372.758 LE
409.067 387.841 LS
410.192 387.841 LE
521.28 387.841 LS
520.156 387.841 LE
gsave
0.14902 0.14902 0.14902 C
(-0.03) [3 6 3 6 10] 0 380.058 308.427 10 /Helvetica SRX
grestore

gsave
0.14902 0.14902 0.14902 C
(-0.02) [3 6 3 6 10] 0 380.058 323.51 10 /Helvetica SRX
grestore

gsave
0.14902 0.14902 0.14902 C
(-0.01) [3 6 3 6 10] 0 380.058 338.593 10 /Helvetica SRX
grestore

gsave
0.14902 0.14902 0.14902 C
(0) [10] 0 398.058 353.675 10 /Helvetica SRX
grestore

gsave
0.14902 0.14902 0.14902 C
(0.01) [6 3 6 10] 0 383.058 368.758 10 /Helvetica SRX
grestore

gsave
0.14902 0.14902 0.14902 C
(0.02) [6 3 6 10] 0 383.058 383.841 10 /Helvetica SRX
grestore

2 LC
[16 0] 0 setdash
409.067 312.427 LS
521.28 312.427 LE
409.067 387.841 LS
521.28 387.841 LE
409.067 312.427 LS
409.067 387.841 LE
521.28 312.427 LS
521.28 387.841 LE
gsave
0 0 0 C
(eps_AC_news4) [6 7 6 6 8 8 6 7 6 9 6 10] 0 424.674 400.841 11 /Helvetica-Bold SRX
grestore

0 LC
1 LJ
[] 0 setdash
1 0 0 C
409.067 357.675 LS
521.28 357.675 LE
1 W
0 0 0 C
409.067 376.17 LS
410.372 346.123 L
411.677 367.257 L
412.982 348.299 L
414.287 351.407 L
415.591 360.536 L
416.896 359.466 L
418.201 353.184 L
419.506 359.816 L
420.811 363.385 L
422.115 340.272 L
423.42 356.281 L
424.725 357.358 L
426.03 358.448 L
427.335 344.931 L
428.639 349.231 L
429.944 361.84 L
431.249 328.983 L
432.554 361.62 L
433.859 323.236 L
435.163 369.392 L
436.468 337.937 L
437.773 372.793 L
439.078 356.394 L
440.383 368.664 L
441.687 347.328 L
442.992 354.714 L
444.297 361.08 L
445.602 356.617 L
446.907 383.473 L
448.211 373.525 L
449.516 369.429 L
450.821 363.615 L
452.126 361.389 L
453.431 365.136 L
454.735 352.06 L
456.04 373.669 L
457.345 353.646 L
458.65 372.059 L
459.954 354.973 L
461.259 360.821 L
462.564 348.904 L
463.869 371.127 L
465.174 355.926 L
466.478 359.959 L
467.783 356.686 L
469.088 354.837 L
470.393 347.568 L
471.698 353.825 L
473.003 353.081 L
474.307 358.148 L
475.612 373.614 L
476.917 371.173 L
478.222 361.973 L
479.526 347.119 L
480.831 350.737 L
482.136 352.452 L
483.441 357.431 L
484.746 359.044 L
486.05 353.326 L
487.355 358.196 L
488.66 345.847 L
489.965 365.466 L
491.27 349.372 L
492.574 366.503 L
493.879 343.129 L
495.184 362.606 L
496.489 341.554 L
497.794 356.042 L
499.098 352.669 L
500.403 350.006 L
501.708 356.076 L
503.013 348.765 L
504.318 358.525 L
505.622 355.946 L
506.927 348.808 L
508.232 370.665 L
509.537 365.857 L
510.842 370.797 L
512.146 369.011 L
513.451 370.401 L
514.756 360.174 L
516.061 359.533 L
517.366 346.545 L
518.67 344.956 L
519.975 348.718 L
521.28 352.861 LE
grestore
gsave
1.0 1.0 scale
newpath 0 0 moveto 576 0 lineto 576 432 lineto 0 432 lineto
closepath clip
1 1 1 C
74.88 255.387 187.093 179.974 74.88 179.974 T
74.88 255.387 187.093 255.387 187.093 179.974 T
0.5 W
0.15 0.15 0.15 C
99.6711 179.974 LS
99.6711 181.102 LE
99.6711 255.387 LS
99.6711 254.259 LE
125.767 179.974 LS
125.767 181.102 LE
125.767 255.387 LS
125.767 254.259 LE
151.863 179.974 LS
151.863 181.102 LE
151.863 255.387 LS
151.863 254.259 LE
177.959 179.974 LS
177.959 181.102 LE
177.959 255.387 LS
177.959 254.259 LE
gsave
0.14902 0.14902 0.14902 C
(20) [6 10] 0 93.6712 164.432 10 /Helvetica SRX
grestore

gsave
0.14902 0.14902 0.14902 C
(40) [6 10] 0 119.767 164.432 10 /Helvetica SRX
grestore

gsave
0.14902 0.14902 0.14902 C
(60) [6 10] 0 145.863 164.432 10 /Helvetica SRX
grestore

gsave
0.14902 0.14902 0.14902 C
(80) [6 10] 0 171.959 164.432 10 /Helvetica SRX
grestore

74.88 179.974 LS
76.0043 179.974 LE
187.093 179.974 LS
185.968 179.974 LE
74.88 190.747 LS
76.0043 190.747 LE
187.093 190.747 LS
185.968 190.747 LE
74.88 201.52 LS
76.0043 201.52 LE
187.093 201.52 LS
185.968 201.52 LE
74.88 212.294 LS
76.0043 212.294 LE
187.093 212.294 LS
185.968 212.294 LE
74.88 223.067 LS
76.0043 223.067 LE
187.093 223.067 LS
185.968 223.067 LE
74.88 233.84 LS
76.0043 233.84 LE
187.093 233.84 LS
185.968 233.84 LE
74.88 244.614 LS
76.0043 244.614 LE
187.093 244.614 LS
185.968 244.614 LE
74.88 255.387 LS
76.0043 255.387 LE
187.093 255.387 LS
185.968 255.387 LE
gsave
0.14902 0.14902 0.14902 C
(-0.01) [3 6 3 6 10] 0 45.8705 175.974 10 /Helvetica SRX
grestore

gsave
0.14902 0.14902 0.14902 C
(-0.005) [3 6 3 6 6 10] 0 39.8705 186.747 10 /Helvetica SRX
grestore

gsave
0.14902 0.14902 0.14902 C
(0) [10] 0 63.8705 197.52 10 /Helvetica SRX
grestore

gsave
0.14902 0.14902 0.14902 C
(0.005) [6 3 6 6 10] 0 42.8705 208.294 10 /Helvetica SRX
grestore

gsave
0.14902 0.14902 0.14902 C
(0.01) [6 3 6 10] 0 48.8705 219.067 10 /Helvetica SRX
grestore

gsave
0.14902 0.14902 0.14902 C
(0.015) [6 3 6 6 10] 0 42.8705 229.84 10 /Helvetica SRX
grestore

gsave
0.14902 0.14902 0.14902 C
(0.02) [6 3 6 10] 0 48.8705 240.614 10 /Helvetica SRX
grestore

gsave
0.14902 0.14902 0.14902 C
(0.025) [6 3 6 6 10] 0 42.8705 251.387 10 /Helvetica SRX
grestore

2 LC
[16 0] 0 setdash
74.88 179.974 LS
187.093 179.974 LE
74.88 255.387 LS
187.093 255.387 LE
74.88 179.974 LS
74.88 255.387 LE
187.093 179.974 LS
187.093 255.387 LE
gsave
0 0 0 C
(eps_r) [6 7 6 6 10] 0 116.486 268.387 11 /Helvetica-Bold SRX
grestore

0 LC
1 LJ
[] 0 setdash
1 0 0 C
74.88 201.52 LS
187.093 201.52 LE
1 W
0 0 0 C
74.88 206.808 LS
76.1848 205.832 L
77.4896 201.221 L
78.7944 201.726 L
80.0992 192.261 L
81.404 193.756 L
82.7088 188.865 L
84.0136 187.382 L
85.3184 183.956 L
86.6232 184.731 L
87.928 183.8 L
89.2328 193.463 L
90.5376 192.535 L
91.8424 196.24 L
93.1472 219.031 L
94.452 222.249 L
95.7568 230.598 L
97.0616 209.735 L
98.3663 219.478 L
99.6711 208.761 L
100.976 206.178 L
102.281 210.942 L
103.586 207.787 L
104.89 210.943 L
106.195 201.676 L
107.5 202.813 L
108.805 207.122 L
110.11 203.591 L
111.414 194.02 L
112.719 208.696 L
114.024 251.303 L
115.329 236.798 L
116.634 211.687 L
117.938 192.51 L
119.243 193.421 L
120.548 185.356 L
121.853 186.385 L
123.158 195.323 L
124.462 189.581 L
125.767 188.419 L
127.072 191.075 L
128.377 195.041 L
129.682 197.382 L
130.986 196.874 L
132.291 196.415 L
133.596 200.503 L
134.901 201.035 L
136.205 202.927 L
137.51 205.131 L
138.815 201.093 L
140.12 203.905 L
141.425 202.453 L
142.729 199.359 L
144.034 198.946 L
145.339 201.241 L
146.644 204.265 L
147.949 202.255 L
149.253 199.159 L
150.558 200.459 L
151.863 202.309 L
153.168 201.2 L
154.473 201.719 L
155.777 198.734 L
157.082 195.368 L
158.387 195.065 L
159.692 194.802 L
160.997 195.142 L
162.301 195.956 L
163.606 196.922 L
164.911 196.887 L
166.216 197.126 L
167.521 196.136 L
168.825 195.789 L
170.13 198.186 L
171.435 201.252 L
172.74 201.233 L
174.045 201.08 L
175.349 198.819 L
176.654 197.257 L
177.959 199.701 L
179.264 204.187 L
180.569 204.285 L
181.873 208.283 L
183.178 213.679 L
184.483 216.615 L
185.788 210.595 L
187.093 208.718 LE
grestore
grestore
showpage
cleartomark
%%PageTrailer
%%Trailer
end
%%EOF
