%!PS-Adobe-3.0 EPSF-3.0
%%Title: gl2ps_renderer figure
%%Creator: GL2PS 1.4.0, (C) 1999-2017 C. Geuzaine
%%For: Octave
%%CreationDate: Fri Feb 28 14:24:01 2020
%%LanguageLevel: 3
%%DocumentData: Clean7Bit
%%Pages: 1
%%BoundingBox: 0 0 576 432
%%EndComments
%%BeginProlog
/gl2psdict 64 dict def gl2psdict begin
/tryPS3shading false def % set to false to force subdivision
/rThreshold 0.064 def % red component subdivision threshold
/gThreshold 0.034 def % green component subdivision threshold
/bThreshold 0.1 def % blue component subdivision threshold
/BD { bind def } bind def
/C  { setrgbcolor } BD
/G  { 0.082 mul exch 0.6094 mul add exch 0.3086 mul add neg 1.0 add setgray } BD
/W  { setlinewidth } BD
/LC  { setlinecap } BD
/LJ  { setlinejoin } BD
/FC { findfont exch /SH exch def SH scalefont setfont } BD
/SW { dup stringwidth pop } BD
/S  { FC moveto show } BD
/SBC{ FC moveto SW -2 div 0 rmoveto show } BD
/SBR{ FC moveto SW neg 0 rmoveto show } BD
/SCL{ FC moveto 0 SH -2 div rmoveto show } BD
/SCC{ FC moveto SW -2 div SH -2 div rmoveto show } BD
/SCR{ FC moveto SW neg SH -2 div rmoveto show } BD
/STL{ FC moveto 0 SH neg rmoveto show } BD
/STC{ FC moveto SW -2 div SH neg rmoveto show } BD
/STR{ FC moveto SW neg SH neg rmoveto show } BD
/FCT { FC translate 0 0 } BD
/SR  { gsave FCT moveto rotate show grestore } BD
/SRX  { gsave FCT moveto rotate xshow grestore } BD
/SBCR{ gsave FCT moveto rotate SW -2 div 0 rmoveto show grestore } BD
/SBRR{ gsave FCT moveto rotate SW neg 0 rmoveto show grestore } BD
/SCLR{ gsave FCT moveto rotate 0 SH -2 div rmoveto show grestore} BD
/SCCR{ gsave FCT moveto rotate SW -2 div SH -2 div rmoveto show grestore} BD
/SCRR{ gsave FCT moveto rotate SW neg SH -2 div rmoveto show grestore} BD
/STLR{ gsave FCT moveto rotate 0 SH neg rmoveto show grestore } BD
/STCR{ gsave FCT moveto rotate SW -2 div SH neg rmoveto show grestore } BD
/STRR{ gsave FCT moveto rotate SW neg SH neg rmoveto show grestore } BD
/P  { newpath 0.0 360.0 arc closepath fill } BD
/LS { newpath moveto } BD
/L  { lineto } BD
/LE { lineto stroke } BD
/T  { newpath moveto lineto lineto closepath fill } BD
/STshfill {
      /b1 exch def /g1 exch def /r1 exch def /y1 exch def /x1 exch def
      /b2 exch def /g2 exch def /r2 exch def /y2 exch def /x2 exch def
      /b3 exch def /g3 exch def /r3 exch def /y3 exch def /x3 exch def
      gsave << /ShadingType 4 /ColorSpace [/DeviceRGB]
      /DataSource [ 0 x1 y1 r1 g1 b1 0 x2 y2 r2 g2 b2 0 x3 y3 r3 g3 b3 ] >>
      shfill grestore } BD
/Tm { 3 -1 roll 8 -1 roll 13 -1 roll add add 3 div
      3 -1 roll 7 -1 roll 11 -1 roll add add 3 div
      3 -1 roll 6 -1 roll 9 -1 roll add add 3 div C T } BD
/STsplit {
      4 index 15 index add 0.5 mul
      4 index 15 index add 0.5 mul
      4 index 15 index add 0.5 mul
      4 index 15 index add 0.5 mul
      4 index 15 index add 0.5 mul
      5 copy 5 copy 25 15 roll
      9 index 30 index add 0.5 mul
      9 index 30 index add 0.5 mul
      9 index 30 index add 0.5 mul
      9 index 30 index add 0.5 mul
      9 index 30 index add 0.5 mul
      5 copy 5 copy 35 5 roll 25 5 roll 15 5 roll
      4 index 10 index add 0.5 mul
      4 index 10 index add 0.5 mul
      4 index 10 index add 0.5 mul
      4 index 10 index add 0.5 mul
      4 index 10 index add 0.5 mul
      5 copy 5 copy 40 5 roll 25 5 roll 15 5 roll 25 5 roll
      STnoshfill STnoshfill STnoshfill STnoshfill } BD
/STnoshfill {
      2 index 8 index sub abs rThreshold gt
      { STsplit }
      { 1 index 7 index sub abs gThreshold gt
        { STsplit }
        { dup 6 index sub abs bThreshold gt
          { STsplit }
          { 2 index 13 index sub abs rThreshold gt
            { STsplit }
            { 1 index 12 index sub abs gThreshold gt
              { STsplit }
              { dup 11 index sub abs bThreshold gt
                { STsplit }
                { 7 index 13 index sub abs rThreshold gt
                  { STsplit }
                  { 6 index 12 index sub abs gThreshold gt
                    { STsplit }
                    { 5 index 11 index sub abs bThreshold gt
                      { STsplit }
                      { Tm }
                      ifelse }
                    ifelse }
                  ifelse }
                ifelse }
              ifelse }
            ifelse }
          ifelse }
        ifelse }
      ifelse } BD
tryPS3shading
{ /shfill where
  { /ST { STshfill } BD }
  { /ST { STnoshfill } BD }
  ifelse }
{ /ST { STnoshfill } BD }
ifelse
end
%%EndProlog
%%BeginSetup
/DeviceRGB setcolorspace
gl2psdict begin
%%EndSetup
%%Page: 1 1
%%BeginPageSetup
%%EndPageSetup
mark
gsave
1.0 1.0 scale
1 1 1 C
newpath 0 0 moveto 576 0 lineto 576 432 lineto 0 432 lineto
closepath fill
gsave
1.0 1.0 scale
1 1 1 C
newpath 0 0 moveto 576 0 lineto 576 432 lineto 0 432 lineto
closepath fill
newpath 0 0 moveto 576 0 lineto 576 432 lineto 0 432 lineto
closepath clip
1 1 1 C
74.88 385.851 187.079 312.441 74.88 312.441 T
74.88 385.851 187.079 385.851 187.079 312.441 T
0.5 W
0.15 0.15 0.15 C
98.5008 312.441 LS
98.5008 313.57 LE
98.5008 385.851 LS
98.5008 384.723 LE
128.027 312.441 LS
128.027 313.57 LE
128.027 385.851 LS
128.027 384.723 LE
157.553 312.441 LS
157.553 313.57 LE
157.553 385.851 LS
157.553 384.723 LE
187.079 312.441 LS
187.079 313.57 LE
187.079 385.851 LS
187.079 384.723 LE
gsave
0.14902 0.14902 0.14902 C
(5) [10] 0 95.5008 296.899 10 /Helvetica SRX
grestore

gsave
0.14902 0.14902 0.14902 C
(10) [6 10] 0 122.027 296.899 10 /Helvetica SRX
grestore

gsave
0.14902 0.14902 0.14902 C
(15) [6 10] 0 151.553 296.899 10 /Helvetica SRX
grestore

gsave
0.14902 0.14902 0.14902 C
(20) [6 10] 0 181.079 296.899 10 /Helvetica SRX
grestore

74.88 312.441 LS
76.004 312.441 LE
187.079 312.441 LS
185.955 312.441 LE
74.88 322.928 LS
76.004 322.928 LE
187.079 322.928 LS
185.955 322.928 LE
74.88 333.416 LS
76.004 333.416 LE
187.079 333.416 LS
185.955 333.416 LE
74.88 343.903 LS
76.004 343.903 LE
187.079 343.903 LS
185.955 343.903 LE
74.88 354.39 LS
76.004 354.39 LE
187.079 354.39 LS
185.955 354.39 LE
74.88 364.877 LS
76.004 364.877 LE
187.079 364.877 LS
185.955 364.877 LE
74.88 375.364 LS
76.004 375.364 LE
187.079 375.364 LS
185.955 375.364 LE
74.88 385.851 LS
76.004 385.851 LE
187.079 385.851 LS
185.955 385.851 LE
gsave
0.14902 0.14902 0.14902 C
(0) [10] 0 63.8711 308.441 10 /Helvetica SRX
grestore

gsave
0.14902 0.14902 0.14902 C
(0.002) [6 3 6 6 10] 0 42.8711 318.928 10 /Helvetica SRX
grestore

gsave
0.14902 0.14902 0.14902 C
(0.004) [6 3 6 6 10] 0 42.8711 329.416 10 /Helvetica SRX
grestore

gsave
0.14902 0.14902 0.14902 C
(0.006) [6 3 6 6 10] 0 42.8711 339.903 10 /Helvetica SRX
grestore

gsave
0.14902 0.14902 0.14902 C
(0.008) [6 3 6 6 10] 0 42.8711 350.39 10 /Helvetica SRX
grestore

gsave
0.14902 0.14902 0.14902 C
(0.01) [6 3 6 10] 0 48.8711 360.877 10 /Helvetica SRX
grestore

gsave
0.14902 0.14902 0.14902 C
(0.012) [6 3 6 6 10] 0 42.8711 371.364 10 /Helvetica SRX
grestore

gsave
0.14902 0.14902 0.14902 C
(0.014) [6 3 6 6 10] 0 42.8711 381.851 10 /Helvetica SRX
grestore

2 LC
[16 0] 0 setdash
74.88 312.441 LS
187.079 312.441 LE
74.88 385.851 LS
187.079 385.851 LE
74.88 312.441 LS
74.88 385.851 LE
187.079 312.441 LS
187.079 385.851 LE
gsave
0 0 0 C
(Y_hat) [7 6 7 6 10] 0 115.979 397.851 11 /Helvetica-Bold SRX
grestore

1 W
0 LC
1 LJ
[] 0 setdash
0 0 0 C
74.88 316.037 LS
80.7852 317.648 L
86.6904 320.074 L
92.5956 325.689 L
98.5008 376.183 L
104.406 378.829 L
110.311 378.087 L
116.216 375.641 L
122.122 372.507 L
128.027 369.179 L
133.932 365.866 L
139.837 362.654 L
145.742 359.584 L
151.648 356.683 L
157.553 353.973 L
163.458 351.472 L
169.363 349.188 L
175.268 347.124 L
181.173 345.272 L
187.079 343.62 LE
0.5 W
1 0 0 C
74.88 312.441 LS
187.079 312.441 LE
grestore
gsave
1.0 1.0 scale
newpath 0 0 moveto 576 0 lineto 576 432 lineto 0 432 lineto
closepath clip
1 1 1 C
241.981 385.851 354.179 312.441 241.981 312.441 T
241.981 385.851 354.179 385.851 354.179 312.441 T
0.5 W
0.15 0.15 0.15 C
265.601 312.441 LS
265.601 313.57 LE
265.601 385.851 LS
265.601 384.723 LE
295.127 312.441 LS
295.127 313.57 LE
295.127 385.851 LS
295.127 384.723 LE
324.653 312.441 LS
324.653 313.57 LE
324.653 385.851 LS
324.653 384.723 LE
354.179 312.441 LS
354.179 313.57 LE
354.179 385.851 LS
354.179 384.723 LE
gsave
0.14902 0.14902 0.14902 C
(5) [10] 0 262.601 296.899 10 /Helvetica SRX
grestore

gsave
0.14902 0.14902 0.14902 C
(10) [6 10] 0 289.127 296.899 10 /Helvetica SRX
grestore

gsave
0.14902 0.14902 0.14902 C
(15) [6 10] 0 318.653 296.899 10 /Helvetica SRX
grestore

gsave
0.14902 0.14902 0.14902 C
(20) [6 10] 0 348.179 296.899 10 /Helvetica SRX
grestore

241.981 312.441 LS
243.105 312.441 LE
354.179 312.441 LS
353.055 312.441 LE
241.981 327.123 LS
243.105 327.123 LE
354.179 327.123 LS
353.055 327.123 LE
241.981 341.805 LS
243.105 341.805 LE
354.179 341.805 LS
353.055 341.805 LE
241.981 356.487 LS
243.105 356.487 LE
354.179 356.487 LS
353.055 356.487 LE
241.981 371.169 LS
243.105 371.169 LE
354.179 371.169 LS
353.055 371.169 LE
241.981 385.851 LS
243.105 385.851 LE
354.179 385.851 LS
353.055 385.851 LE
gsave
0.14902 0.14902 0.14902 C
(0) [10] 0 230.972 308.441 10 /Helvetica SRX
grestore

gsave
0.14902 0.14902 0.14902 C
(0.001) [6 3 6 6 10] 0 209.972 323.123 10 /Helvetica SRX
grestore

gsave
0.14902 0.14902 0.14902 C
(0.002) [6 3 6 6 10] 0 209.972 337.805 10 /Helvetica SRX
grestore

gsave
0.14902 0.14902 0.14902 C
(0.003) [6 3 6 6 10] 0 209.972 352.487 10 /Helvetica SRX
grestore

gsave
0.14902 0.14902 0.14902 C
(0.004) [6 3 6 6 10] 0 209.972 367.169 10 /Helvetica SRX
grestore

gsave
0.14902 0.14902 0.14902 C
(0.005) [6 3 6 6 10] 0 209.972 381.851 10 /Helvetica SRX
grestore

2 LC
[16 0] 0 setdash
241.981 312.441 LS
354.179 312.441 LE
241.981 385.851 LS
354.179 385.851 LE
241.981 312.441 LS
241.981 385.851 LE
354.179 312.441 LS
354.179 385.851 LE
gsave
0 0 0 C
(C_hat) [8 6 7 6 10] 0 282.58 397.851 11 /Helvetica-Bold SRX
grestore

1 W
0 LC
1 LJ
[] 0 setdash
0 0 0 C
241.981 319.095 LS
247.886 322.654 L
253.791 326.269 L
259.696 332.784 L
265.601 346.514 L
271.507 358.748 L
277.412 368.159 L
283.317 375.044 L
289.222 379.846 L
295.127 382.916 L
301.033 384.541 L
306.938 384.99 L
312.843 384.531 L
318.748 383.424 L
324.653 381.904 L
330.559 380.164 L
336.464 378.355 L
342.369 376.579 L
348.274 374.9 L
354.179 373.351 LE
0.5 W
1 0 0 C
241.981 312.441 LS
354.179 312.441 LE
grestore
gsave
1.0 1.0 scale
newpath 0 0 moveto 576 0 lineto 576 432 lineto 0 432 lineto
closepath clip
1 1 1 C
409.081 385.851 521.28 312.441 409.081 312.441 T
409.081 385.851 521.28 385.851 521.28 312.441 T
0.5 W
0.15 0.15 0.15 C
432.702 312.441 LS
432.702 313.57 LE
432.702 385.851 LS
432.702 384.723 LE
462.228 312.441 LS
462.228 313.57 LE
462.228 385.851 LS
462.228 384.723 LE
491.754 312.441 LS
491.754 313.57 LE
491.754 385.851 LS
491.754 384.723 LE
521.28 312.441 LS
521.28 313.57 LE
521.28 385.851 LS
521.28 384.723 LE
gsave
0.14902 0.14902 0.14902 C
(5) [10] 0 429.702 296.899 10 /Helvetica SRX
grestore

gsave
0.14902 0.14902 0.14902 C
(10) [6 10] 0 456.228 296.899 10 /Helvetica SRX
grestore

gsave
0.14902 0.14902 0.14902 C
(15) [6 10] 0 485.754 296.899 10 /Helvetica SRX
grestore

gsave
0.14902 0.14902 0.14902 C
(20) [6 10] 0 515.28 296.899 10 /Helvetica SRX
grestore

409.081 312.441 LS
410.205 312.441 LE
521.28 312.441 LS
520.156 312.441 LE
409.081 327.123 LS
410.205 327.123 LE
521.28 327.123 LS
520.156 327.123 LE
409.081 341.805 LS
410.205 341.805 LE
521.28 341.805 LS
520.156 341.805 LE
409.081 356.487 LS
410.205 356.487 LE
521.28 356.487 LS
520.156 356.487 LE
409.081 371.169 LS
410.205 371.169 LE
521.28 371.169 LS
520.156 371.169 LE
409.081 385.851 LS
410.205 385.851 LE
521.28 385.851 LS
520.156 385.851 LE
gsave
0.14902 0.14902 0.14902 C
(0) [10] 0 398.072 308.441 10 /Helvetica SRX
grestore

gsave
0.14902 0.14902 0.14902 C
(0.005) [6 3 6 6 10] 0 377.072 323.123 10 /Helvetica SRX
grestore

gsave
0.14902 0.14902 0.14902 C
(0.01) [6 3 6 10] 0 383.072 337.805 10 /Helvetica SRX
grestore

gsave
0.14902 0.14902 0.14902 C
(0.015) [6 3 6 6 10] 0 377.072 352.487 10 /Helvetica SRX
grestore

gsave
0.14902 0.14902 0.14902 C
(0.02) [6 3 6 10] 0 383.072 367.169 10 /Helvetica SRX
grestore

gsave
0.14902 0.14902 0.14902 C
(0.025) [6 3 6 6 10] 0 377.072 381.851 10 /Helvetica SRX
grestore

2 LC
[16 0] 0 setdash
409.081 312.441 LS
521.28 312.441 LE
409.081 385.851 LS
521.28 385.851 LE
409.081 312.441 LS
409.081 385.851 LE
521.28 312.441 LS
521.28 385.851 LE
gsave
0 0 0 C
(I_hat) [3 6 7 6 10] 0 452.181 397.851 11 /Helvetica-Bold SRX
grestore

1 W
0 LC
1 LJ
[] 0 setdash
0 0 0 C
409.081 332.276 LS
414.987 332.906 L
420.892 335.711 L
426.797 342.283 L
432.702 344.944 L
438.607 355.524 L
444.513 366.579 L
450.418 374.272 L
456.323 377.434 L
462.228 376.489 L
468.133 372.588 L
474.038 367.016 L
479.944 360.865 L
485.849 354.911 L
491.754 349.604 L
497.659 345.131 L
503.564 341.5 L
509.47 338.613 L
515.375 336.33 L
521.28 334.506 LE
0.5 W
1 0 0 C
409.081 312.441 LS
521.28 312.441 LE
grestore
gsave
1.0 1.0 scale
newpath 0 0 moveto 576 0 lineto 576 432 lineto 0 432 lineto
closepath clip
1 1 1 C
74.88 253.39 187.079 179.981 74.88 179.981 T
74.88 253.39 187.079 253.39 187.079 179.981 T
0.5 W
0.15 0.15 0.15 C
98.5008 179.981 LS
98.5008 181.109 LE
98.5008 253.39 LS
98.5008 252.262 LE
128.027 179.981 LS
128.027 181.109 LE
128.027 253.39 LS
128.027 252.262 LE
157.553 179.981 LS
157.553 181.109 LE
157.553 253.39 LS
157.553 252.262 LE
187.079 179.981 LS
187.079 181.109 LE
187.079 253.39 LS
187.079 252.262 LE
gsave
0.14902 0.14902 0.14902 C
(5) [10] 0 95.5008 164.439 10 /Helvetica SRX
grestore

gsave
0.14902 0.14902 0.14902 C
(10) [6 10] 0 122.027 164.439 10 /Helvetica SRX
grestore

gsave
0.14902 0.14902 0.14902 C
(15) [6 10] 0 151.553 164.439 10 /Helvetica SRX
grestore

gsave
0.14902 0.14902 0.14902 C
(20) [6 10] 0 181.079 164.439 10 /Helvetica SRX
grestore

74.88 179.981 LS
76.004 179.981 LE
187.079 179.981 LS
185.955 179.981 LE
74.88 192.216 LS
76.004 192.216 LE
187.079 192.216 LS
185.955 192.216 LE
74.88 204.451 LS
76.004 204.451 LE
187.079 204.451 LS
185.955 204.451 LE
74.88 216.686 LS
76.004 216.686 LE
187.079 216.686 LS
185.955 216.686 LE
74.88 228.92 LS
76.004 228.92 LE
187.079 228.92 LS
185.955 228.92 LE
74.88 241.155 LS
76.004 241.155 LE
187.079 241.155 LS
185.955 241.155 LE
74.88 253.39 LS
76.004 253.39 LE
187.079 253.39 LS
185.955 253.39 LE
gsave
0.14902 0.14902 0.14902 C
(-0.001) [3 6 3 6 6 10] 0 39.8711 175.981 10 /Helvetica SRX
grestore

gsave
0.14902 0.14902 0.14902 C
(0) [10] 0 63.8711 188.216 10 /Helvetica SRX
grestore

gsave
0.14902 0.14902 0.14902 C
(0.001) [6 3 6 6 10] 0 42.8711 200.451 10 /Helvetica SRX
grestore

gsave
0.14902 0.14902 0.14902 C
(0.002) [6 3 6 6 10] 0 42.8711 212.686 10 /Helvetica SRX
grestore

gsave
0.14902 0.14902 0.14902 C
(0.003) [6 3 6 6 10] 0 42.8711 224.92 10 /Helvetica SRX
grestore

gsave
0.14902 0.14902 0.14902 C
(0.004) [6 3 6 6 10] 0 42.8711 237.155 10 /Helvetica SRX
grestore

gsave
0.14902 0.14902 0.14902 C
(0.005) [6 3 6 6 10] 0 42.8711 249.39 10 /Helvetica SRX
grestore

2 LC
[16 0] 0 setdash
74.88 179.981 LS
187.079 179.981 LE
74.88 253.39 LS
187.079 253.39 LE
74.88 179.981 LS
74.88 253.39 LE
187.079 179.981 LS
187.079 253.39 LE
gsave
0 0 0 C
(L_hat) [7 6 7 6 10] 0 115.979 265.39 11 /Helvetica-Bold SRX
grestore

1 W
0 LC
1 LJ
[] 0 setdash
0 0 0 C
74.88 191.712 LS
80.7852 192.638 L
86.6904 196.177 L
92.5956 205.228 L
98.5008 225.142 L
104.406 234.342 L
110.311 238.737 L
116.216 240.955 L
122.122 242.036 L
128.027 242.345 L
133.932 242.01 L
139.837 241.123 L
145.742 239.796 L
151.648 238.162 L
157.553 236.358 L
163.458 234.507 L
169.363 232.704 L
175.268 231.013 L
181.173 229.471 L
187.079 228.092 LE
0.5 W
1 0 0 C
74.88 192.216 LS
187.079 192.216 LE
grestore
gsave
1.0 1.0 scale
newpath 0 0 moveto 576 0 lineto 576 432 lineto 0 432 lineto
closepath clip
1 1 1 C
241.981 253.39 354.179 179.981 241.981 179.981 T
241.981 253.39 354.179 253.39 354.179 179.981 T
0.5 W
0.15 0.15 0.15 C
265.601 179.981 LS
265.601 181.109 LE
265.601 253.39 LS
265.601 252.262 LE
295.127 179.981 LS
295.127 181.109 LE
295.127 253.39 LS
295.127 252.262 LE
324.653 179.981 LS
324.653 181.109 LE
324.653 253.39 LS
324.653 252.262 LE
354.179 179.981 LS
354.179 181.109 LE
354.179 253.39 LS
354.179 252.262 LE
gsave
0.14902 0.14902 0.14902 C
(5) [10] 0 262.601 164.439 10 /Helvetica SRX
grestore

gsave
0.14902 0.14902 0.14902 C
(10) [6 10] 0 289.127 164.439 10 /Helvetica SRX
grestore

gsave
0.14902 0.14902 0.14902 C
(15) [6 10] 0 318.653 164.439 10 /Helvetica SRX
grestore

gsave
0.14902 0.14902 0.14902 C
(20) [6 10] 0 348.179 164.439 10 /Helvetica SRX
grestore

241.981 179.981 LS
243.105 179.981 LE
354.179 179.981 LS
353.055 179.981 LE
241.981 198.333 LS
243.105 198.333 LE
354.179 198.333 LS
353.055 198.333 LE
241.981 216.686 LS
243.105 216.686 LE
354.179 216.686 LS
353.055 216.686 LE
241.981 235.038 LS
243.105 235.038 LE
354.179 235.038 LS
353.055 235.038 LE
241.981 253.39 LS
243.105 253.39 LE
354.179 253.39 LS
353.055 253.39 LE
gsave
0.14902 0.14902 0.14902 C
(-0.002) [3 6 3 6 6 10] 0 206.972 175.981 10 /Helvetica SRX
grestore

gsave
0.14902 0.14902 0.14902 C
(0) [10] 0 230.972 194.333 10 /Helvetica SRX
grestore

gsave
0.14902 0.14902 0.14902 C
(0.002) [6 3 6 6 10] 0 209.972 212.686 10 /Helvetica SRX
grestore

gsave
0.14902 0.14902 0.14902 C
(0.004) [6 3 6 6 10] 0 209.972 231.038 10 /Helvetica SRX
grestore

gsave
0.14902 0.14902 0.14902 C
(0.006) [6 3 6 6 10] 0 209.972 249.39 10 /Helvetica SRX
grestore

2 LC
[16 0] 0 setdash
241.981 179.981 LS
354.179 179.981 LE
241.981 253.39 LS
354.179 253.39 LE
241.981 179.981 LS
241.981 253.39 LE
354.179 179.981 LS
354.179 253.39 LE
gsave
0 0 0 C
(tb_y_hat) [4 7 6 6 6 7 6 10] 0 275.08 266.39 11 /Helvetica-Bold SRX
grestore

1 W
0 LC
1 LJ
[] 0 setdash
0 0 0 C
241.981 183.464 LS
247.886 182.596 L
253.791 181.757 L
259.696 180.119 L
265.601 247.414 L
271.507 232.409 L
277.412 217.387 L
283.317 205.605 L
289.222 197.835 L
295.127 193.625 L
301.033 192.049 L
306.938 192.133 L
312.843 193.067 L
318.748 194.276 L
324.653 195.414 L
330.559 196.316 L
336.464 196.938 L
342.369 197.309 L
348.274 197.489 L
354.179 197.542 LE
0.5 W
1 0 0 C
241.981 198.333 LS
354.179 198.333 LE
grestore
gsave
1.0 1.0 scale
newpath 0 0 moveto 576 0 lineto 576 432 lineto 0 432 lineto
closepath clip
1 1 1 C
409.081 253.39 521.28 179.981 409.081 179.981 T
409.081 253.39 521.28 253.39 521.28 179.981 T
0.5 W
0.15 0.15 0.15 C
432.702 179.981 LS
432.702 181.109 LE
432.702 253.39 LS
432.702 252.262 LE
462.228 179.981 LS
462.228 181.109 LE
462.228 253.39 LS
462.228 252.262 LE
491.754 179.981 LS
491.754 181.109 LE
491.754 253.39 LS
491.754 252.262 LE
521.28 179.981 LS
521.28 181.109 LE
521.28 253.39 LS
521.28 252.262 LE
gsave
0.14902 0.14902 0.14902 C
(5) [10] 0 429.702 164.439 10 /Helvetica SRX
grestore

gsave
0.14902 0.14902 0.14902 C
(10) [6 10] 0 456.228 164.439 10 /Helvetica SRX
grestore

gsave
0.14902 0.14902 0.14902 C
(15) [6 10] 0 485.754 164.439 10 /Helvetica SRX
grestore

gsave
0.14902 0.14902 0.14902 C
(20) [6 10] 0 515.28 164.439 10 /Helvetica SRX
grestore

409.081 179.981 LS
410.205 179.981 LE
521.28 179.981 LS
520.156 179.981 LE
409.081 194.663 LS
410.205 194.663 LE
521.28 194.663 LS
520.156 194.663 LE
409.081 209.345 LS
410.205 209.345 LE
521.28 209.345 LS
520.156 209.345 LE
409.081 224.026 LS
410.205 224.026 LE
521.28 224.026 LS
520.156 224.026 LE
409.081 238.708 LS
410.205 238.708 LE
521.28 238.708 LS
520.156 238.708 LE
409.081 253.39 LS
410.205 253.39 LE
521.28 253.39 LS
520.156 253.39 LE
gsave
0.14902 0.14902 0.14902 C
(-0.005) [3 6 3 6 6 10] 0 374.072 175.981 10 /Helvetica SRX
grestore

gsave
0.14902 0.14902 0.14902 C
(0) [10] 0 398.072 190.663 10 /Helvetica SRX
grestore

gsave
0.14902 0.14902 0.14902 C
(0.005) [6 3 6 6 10] 0 377.072 205.345 10 /Helvetica SRX
grestore

gsave
0.14902 0.14902 0.14902 C
(0.01) [6 3 6 10] 0 383.072 220.026 10 /Helvetica SRX
grestore

gsave
0.14902 0.14902 0.14902 C
(0.015) [6 3 6 6 10] 0 377.072 234.708 10 /Helvetica SRX
grestore

gsave
0.14902 0.14902 0.14902 C
(0.02) [6 3 6 10] 0 383.072 249.39 10 /Helvetica SRX
grestore

2 LC
[16 0] 0 setdash
409.081 179.981 LS
521.28 179.981 LE
409.081 253.39 LS
521.28 253.39 LE
409.081 179.981 LS
409.081 253.39 LE
521.28 179.981 LS
521.28 253.39 LE
gsave
0 0 0 C
(A_T_hat) [8 6 7 6 7 6 10] 0 443.181 265.39 11 /Helvetica-Bold SRX
grestore

1 W
0 LC
1 LJ
[] 0 setdash
0 0 0 C
409.081 194.663 LS
414.987 194.663 L
420.892 194.663 L
426.797 194.663 L
432.702 245.168 L
438.607 238.603 L
444.513 232.89 L
450.418 227.921 L
456.323 223.597 L
462.228 219.836 L
468.133 216.563 L
474.038 213.716 L
479.944 211.239 L
485.849 209.084 L
491.754 207.209 L
497.659 205.578 L
503.564 204.159 L
509.47 202.925 L
515.375 201.851 L
521.28 200.916 LE
0.5 W
1 0 0 C
409.081 194.663 LS
521.28 194.663 LE
grestore
gsave
1.0 1.0 scale
newpath 0 0 moveto 576 0 lineto 576 432 lineto 0 432 lineto
closepath clip
1 1 1 C
74.88 120.93 187.079 47.52 74.88 47.52 T
74.88 120.93 187.079 120.93 187.079 47.52 T
0.5 W
0.15 0.15 0.15 C
98.5008 47.52 LS
98.5008 48.6483 LE
98.5008 120.93 LS
98.5008 119.801 LE
128.027 47.52 LS
128.027 48.6483 LE
128.027 120.93 LS
128.027 119.801 LE
157.553 47.52 LS
157.553 48.6483 LE
157.553 120.93 LS
157.553 119.801 LE
187.079 47.52 LS
187.079 48.6483 LE
187.079 120.93 LS
187.079 119.801 LE
gsave
0.14902 0.14902 0.14902 C
(5) [10] 0 95.5008 31.9779 10 /Helvetica SRX
grestore

gsave
0.14902 0.14902 0.14902 C
(10) [6 10] 0 122.027 31.9779 10 /Helvetica SRX
grestore

gsave
0.14902 0.14902 0.14902 C
(15) [6 10] 0 151.553 31.9779 10 /Helvetica SRX
grestore

gsave
0.14902 0.14902 0.14902 C
(20) [6 10] 0 181.079 31.9779 10 /Helvetica SRX
grestore

74.88 47.52 LS
76.004 47.52 LE
187.079 47.52 LS
185.955 47.52 LE
74.88 65.8724 LS
76.004 65.8724 LE
187.079 65.8724 LS
185.955 65.8724 LE
74.88 84.2248 LS
76.004 84.2248 LE
187.079 84.2248 LS
185.955 84.2248 LE
74.88 102.577 LS
76.004 102.577 LE
187.079 102.577 LS
185.955 102.577 LE
74.88 120.93 LS
76.004 120.93 LE
187.079 120.93 LS
185.955 120.93 LE
gsave
0.14902 0.14902 0.14902 C
(-0.0005) [3 6 3 6 6 6 10] 0 33.8711 43.52 10 /Helvetica SRX
grestore

gsave
0.14902 0.14902 0.14902 C
(0) [10] 0 63.8711 61.8724 10 /Helvetica SRX
grestore

gsave
0.14902 0.14902 0.14902 C
(0.0005) [6 3 6 6 6 10] 0 36.8711 80.2248 10 /Helvetica SRX
grestore

gsave
0.14902 0.14902 0.14902 C
(0.001) [6 3 6 6 10] 0 42.8711 98.5772 10 /Helvetica SRX
grestore

gsave
0.14902 0.14902 0.14902 C
(0.0015) [6 3 6 6 6 10] 0 36.8711 116.93 10 /Helvetica SRX
grestore

2 LC
[16 0] 0 setdash
74.88 47.52 LS
187.079 47.52 LE
74.88 120.93 LS
187.079 120.93 LE
74.88 47.52 LS
74.88 120.93 LE
187.079 47.52 LS
187.079 120.93 LE
gsave
0 0 0 C
(r_hat) [4 6 7 6 10] 0 117.479 132.93 11 /Helvetica-Bold SRX
grestore

1 W
0 LC
1 LJ
[] 0 setdash
0 0 0 C
74.88 65.8724 LS
80.7852 70.0294 L
86.6904 77.8103 L
92.5956 88.9752 L
98.5008 103.718 L
104.406 102.79 L
110.311 94.0245 L
116.216 83.047 L
122.122 73.1499 L
128.027 65.7837 L
133.932 61.1857 L
139.837 58.9358 L
145.742 58.3627 L
151.648 58.7973 L
157.553 59.6992 L
163.458 60.6974 L
169.363 61.5781 L
175.268 62.2494 L
181.173 62.6999 L
187.079 62.9624 LE
0.5 W
1 0 0 C
74.88 65.8724 LS
187.079 65.8724 LE
grestore
grestore
showpage
cleartomark
%%PageTrailer
%%Trailer
end
%%EOF
