%!PS-Adobe-3.0 EPSF-3.0
%%Title: gl2ps_renderer figure
%%Creator: GL2PS 1.4.0, (C) 1999-2017 C. Geuzaine
%%For: Octave
%%CreationDate: Fri Feb 28 14:23:51 2020
%%LanguageLevel: 3
%%DocumentData: Clean7Bit
%%Pages: 1
%%BoundingBox: 0 0 576 432
%%EndComments
%%BeginProlog
/gl2psdict 64 dict def gl2psdict begin
/tryPS3shading false def % set to false to force subdivision
/rThreshold 0.064 def % red component subdivision threshold
/gThreshold 0.034 def % green component subdivision threshold
/bThreshold 0.1 def % blue component subdivision threshold
/BD { bind def } bind def
/C  { setrgbcolor } BD
/G  { 0.082 mul exch 0.6094 mul add exch 0.3086 mul add neg 1.0 add setgray } BD
/W  { setlinewidth } BD
/LC  { setlinecap } BD
/LJ  { setlinejoin } BD
/FC { findfont exch /SH exch def SH scalefont setfont } BD
/SW { dup stringwidth pop } BD
/S  { FC moveto show } BD
/SBC{ FC moveto SW -2 div 0 rmoveto show } BD
/SBR{ FC moveto SW neg 0 rmoveto show } BD
/SCL{ FC moveto 0 SH -2 div rmoveto show } BD
/SCC{ FC moveto SW -2 div SH -2 div rmoveto show } BD
/SCR{ FC moveto SW neg SH -2 div rmoveto show } BD
/STL{ FC moveto 0 SH neg rmoveto show } BD
/STC{ FC moveto SW -2 div SH neg rmoveto show } BD
/STR{ FC moveto SW neg SH neg rmoveto show } BD
/FCT { FC translate 0 0 } BD
/SR  { gsave FCT moveto rotate show grestore } BD
/SRX  { gsave FCT moveto rotate xshow grestore } BD
/SBCR{ gsave FCT moveto rotate SW -2 div 0 rmoveto show grestore } BD
/SBRR{ gsave FCT moveto rotate SW neg 0 rmoveto show grestore } BD
/SCLR{ gsave FCT moveto rotate 0 SH -2 div rmoveto show grestore} BD
/SCCR{ gsave FCT moveto rotate SW -2 div SH -2 div rmoveto show grestore} BD
/SCRR{ gsave FCT moveto rotate SW neg SH -2 div rmoveto show grestore} BD
/STLR{ gsave FCT moveto rotate 0 SH neg rmoveto show grestore } BD
/STCR{ gsave FCT moveto rotate SW -2 div SH neg rmoveto show grestore } BD
/STRR{ gsave FCT moveto rotate SW neg SH neg rmoveto show grestore } BD
/P  { newpath 0.0 360.0 arc closepath fill } BD
/LS { newpath moveto } BD
/L  { lineto } BD
/LE { lineto stroke } BD
/T  { newpath moveto lineto lineto closepath fill } BD
/STshfill {
      /b1 exch def /g1 exch def /r1 exch def /y1 exch def /x1 exch def
      /b2 exch def /g2 exch def /r2 exch def /y2 exch def /x2 exch def
      /b3 exch def /g3 exch def /r3 exch def /y3 exch def /x3 exch def
      gsave << /ShadingType 4 /ColorSpace [/DeviceRGB]
      /DataSource [ 0 x1 y1 r1 g1 b1 0 x2 y2 r2 g2 b2 0 x3 y3 r3 g3 b3 ] >>
      shfill grestore } BD
/Tm { 3 -1 roll 8 -1 roll 13 -1 roll add add 3 div
      3 -1 roll 7 -1 roll 11 -1 roll add add 3 div
      3 -1 roll 6 -1 roll 9 -1 roll add add 3 div C T } BD
/STsplit {
      4 index 15 index add 0.5 mul
      4 index 15 index add 0.5 mul
      4 index 15 index add 0.5 mul
      4 index 15 index add 0.5 mul
      4 index 15 index add 0.5 mul
      5 copy 5 copy 25 15 roll
      9 index 30 index add 0.5 mul
      9 index 30 index add 0.5 mul
      9 index 30 index add 0.5 mul
      9 index 30 index add 0.5 mul
      9 index 30 index add 0.5 mul
      5 copy 5 copy 35 5 roll 25 5 roll 15 5 roll
      4 index 10 index add 0.5 mul
      4 index 10 index add 0.5 mul
      4 index 10 index add 0.5 mul
      4 index 10 index add 0.5 mul
      4 index 10 index add 0.5 mul
      5 copy 5 copy 40 5 roll 25 5 roll 15 5 roll 25 5 roll
      STnoshfill STnoshfill STnoshfill STnoshfill } BD
/STnoshfill {
      2 index 8 index sub abs rThreshold gt
      { STsplit }
      { 1 index 7 index sub abs gThreshold gt
        { STsplit }
        { dup 6 index sub abs bThreshold gt
          { STsplit }
          { 2 index 13 index sub abs rThreshold gt
            { STsplit }
            { 1 index 12 index sub abs gThreshold gt
              { STsplit }
              { dup 11 index sub abs bThreshold gt
                { STsplit }
                { 7 index 13 index sub abs rThreshold gt
                  { STsplit }
                  { 6 index 12 index sub abs gThreshold gt
                    { STsplit }
                    { 5 index 11 index sub abs bThreshold gt
                      { STsplit }
                      { Tm }
                      ifelse }
                    ifelse }
                  ifelse }
                ifelse }
              ifelse }
            ifelse }
          ifelse }
        ifelse }
      ifelse } BD
tryPS3shading
{ /shfill where
  { /ST { STshfill } BD }
  { /ST { STnoshfill } BD }
  ifelse }
{ /ST { STnoshfill } BD }
ifelse
end
%%EndProlog
%%BeginSetup
/DeviceRGB setcolorspace
gl2psdict begin
%%EndSetup
%%Page: 1 1
%%BeginPageSetup
%%EndPageSetup
mark
gsave
1.0 1.0 scale
1 1 1 C
newpath 0 0 moveto 576 0 lineto 576 432 lineto 0 432 lineto
closepath fill
gsave
1.0 1.0 scale
1 1 1 C
newpath 0 0 moveto 576 0 lineto 576 432 lineto 0 432 lineto
closepath fill
newpath 0 0 moveto 576 0 lineto 576 432 lineto 0 432 lineto
closepath clip
1 1 1 C
74.88 385.851 187.079 312.441 74.88 312.441 T
74.88 385.851 187.079 385.851 187.079 312.441 T
0.5 W
0.15 0.15 0.15 C
98.5008 312.441 LS
98.5008 313.57 LE
98.5008 385.851 LS
98.5008 384.723 LE
128.027 312.441 LS
128.027 313.57 LE
128.027 385.851 LS
128.027 384.723 LE
157.553 312.441 LS
157.553 313.57 LE
157.553 385.851 LS
157.553 384.723 LE
187.079 312.441 LS
187.079 313.57 LE
187.079 385.851 LS
187.079 384.723 LE
gsave
0.14902 0.14902 0.14902 C
(5) [10] 0 95.5008 296.899 10 /Helvetica SRX
grestore

gsave
0.14902 0.14902 0.14902 C
(10) [6 10] 0 122.027 296.899 10 /Helvetica SRX
grestore

gsave
0.14902 0.14902 0.14902 C
(15) [6 10] 0 151.553 296.899 10 /Helvetica SRX
grestore

gsave
0.14902 0.14902 0.14902 C
(20) [6 10] 0 181.079 296.899 10 /Helvetica SRX
grestore

74.88 312.441 LS
76.004 312.441 LE
187.079 312.441 LS
185.955 312.441 LE
74.88 322.928 LS
76.004 322.928 LE
187.079 322.928 LS
185.955 322.928 LE
74.88 333.416 LS
76.004 333.416 LE
187.079 333.416 LS
185.955 333.416 LE
74.88 343.903 LS
76.004 343.903 LE
187.079 343.903 LS
185.955 343.903 LE
74.88 354.39 LS
76.004 354.39 LE
187.079 354.39 LS
185.955 354.39 LE
74.88 364.877 LS
76.004 364.877 LE
187.079 364.877 LS
185.955 364.877 LE
74.88 375.364 LS
76.004 375.364 LE
187.079 375.364 LS
185.955 375.364 LE
74.88 385.851 LS
76.004 385.851 LE
187.079 385.851 LS
185.955 385.851 LE
gsave
0.14902 0.14902 0.14902 C
(0) [10] 0 63.8711 308.441 10 /Helvetica SRX
grestore

gsave
0.14902 0.14902 0.14902 C
(0.001) [6 3 6 6 10] 0 42.8711 318.928 10 /Helvetica SRX
grestore

gsave
0.14902 0.14902 0.14902 C
(0.002) [6 3 6 6 10] 0 42.8711 329.416 10 /Helvetica SRX
grestore

gsave
0.14902 0.14902 0.14902 C
(0.003) [6 3 6 6 10] 0 42.8711 339.903 10 /Helvetica SRX
grestore

gsave
0.14902 0.14902 0.14902 C
(0.004) [6 3 6 6 10] 0 42.8711 350.39 10 /Helvetica SRX
grestore

gsave
0.14902 0.14902 0.14902 C
(0.005) [6 3 6 6 10] 0 42.8711 360.877 10 /Helvetica SRX
grestore

gsave
0.14902 0.14902 0.14902 C
(0.006) [6 3 6 6 10] 0 42.8711 371.364 10 /Helvetica SRX
grestore

gsave
0.14902 0.14902 0.14902 C
(0.007) [6 3 6 6 10] 0 42.8711 381.851 10 /Helvetica SRX
grestore

2 LC
[16 0] 0 setdash
74.88 312.441 LS
187.079 312.441 LE
74.88 385.851 LS
187.079 385.851 LE
74.88 312.441 LS
74.88 385.851 LE
187.079 312.441 LS
187.079 385.851 LE
gsave
0 0 0 C
(Y_hat) [7 6 7 6 10] 0 115.979 397.851 11 /Helvetica-Bold SRX
grestore

1 W
0 LC
1 LJ
[] 0 setdash
0 0 0 C
74.88 322.25 LS
80.7852 328.17 L
86.6904 357.723 L
92.5956 373.326 L
98.5008 380.313 L
104.406 381.978 L
110.311 380.417 L
116.216 376.986 L
122.122 372.567 L
128.027 367.737 L
133.932 362.874 L
139.837 358.222 L
145.742 353.927 L
151.648 350.069 L
157.553 346.679 L
163.458 343.756 L
169.363 341.271 L
175.268 339.185 L
181.173 337.449 L
187.079 336.015 LE
0.5 W
1 0 0 C
74.88 312.441 LS
187.079 312.441 LE
grestore
gsave
1.0 1.0 scale
newpath 0 0 moveto 576 0 lineto 576 432 lineto 0 432 lineto
closepath clip
1 1 1 C
241.981 385.851 354.179 312.441 241.981 312.441 T
241.981 385.851 354.179 385.851 354.179 312.441 T
0.5 W
0.15 0.15 0.15 C
265.601 312.441 LS
265.601 313.57 LE
265.601 385.851 LS
265.601 384.723 LE
295.127 312.441 LS
295.127 313.57 LE
295.127 385.851 LS
295.127 384.723 LE
324.653 312.441 LS
324.653 313.57 LE
324.653 385.851 LS
324.653 384.723 LE
354.179 312.441 LS
354.179 313.57 LE
354.179 385.851 LS
354.179 384.723 LE
gsave
0.14902 0.14902 0.14902 C
(5) [10] 0 262.601 296.899 10 /Helvetica SRX
grestore

gsave
0.14902 0.14902 0.14902 C
(10) [6 10] 0 289.127 296.899 10 /Helvetica SRX
grestore

gsave
0.14902 0.14902 0.14902 C
(15) [6 10] 0 318.653 296.899 10 /Helvetica SRX
grestore

gsave
0.14902 0.14902 0.14902 C
(20) [6 10] 0 348.179 296.899 10 /Helvetica SRX
grestore

241.981 312.441 LS
243.105 312.441 LE
354.179 312.441 LS
353.055 312.441 LE
241.981 324.676 LS
243.105 324.676 LE
354.179 324.676 LS
353.055 324.676 LE
241.981 336.911 LS
243.105 336.911 LE
354.179 336.911 LS
353.055 336.911 LE
241.981 349.146 LS
243.105 349.146 LE
354.179 349.146 LS
353.055 349.146 LE
241.981 361.381 LS
243.105 361.381 LE
354.179 361.381 LS
353.055 361.381 LE
241.981 373.616 LS
243.105 373.616 LE
354.179 373.616 LS
353.055 373.616 LE
241.981 385.851 LS
243.105 385.851 LE
354.179 385.851 LS
353.055 385.851 LE
gsave
0.14902 0.14902 0.14902 C
(0) [10] 0 230.972 308.441 10 /Helvetica SRX
grestore

gsave
0.14902 0.14902 0.14902 C
(0.0005) [6 3 6 6 6 10] 0 203.972 320.676 10 /Helvetica SRX
grestore

gsave
0.14902 0.14902 0.14902 C
(0.001) [6 3 6 6 10] 0 209.972 332.911 10 /Helvetica SRX
grestore

gsave
0.14902 0.14902 0.14902 C
(0.0015) [6 3 6 6 6 10] 0 203.972 345.146 10 /Helvetica SRX
grestore

gsave
0.14902 0.14902 0.14902 C
(0.002) [6 3 6 6 10] 0 209.972 357.381 10 /Helvetica SRX
grestore

gsave
0.14902 0.14902 0.14902 C
(0.0025) [6 3 6 6 6 10] 0 203.972 369.616 10 /Helvetica SRX
grestore

gsave
0.14902 0.14902 0.14902 C
(0.003) [6 3 6 6 10] 0 209.972 381.851 10 /Helvetica SRX
grestore

2 LC
[16 0] 0 setdash
241.981 312.441 LS
354.179 312.441 LE
241.981 385.851 LS
354.179 385.851 LE
241.981 312.441 LS
241.981 385.851 LE
354.179 312.441 LS
354.179 385.851 LE
gsave
0 0 0 C
(C_hat) [8 6 7 6 10] 0 282.58 397.851 11 /Helvetica-Bold SRX
grestore

1 W
0 LC
1 LJ
[] 0 setdash
0 0 0 C
241.981 326.169 LS
247.886 335.975 L
253.791 345.638 L
259.696 355.328 L
265.601 364.334 L
271.507 371.947 L
277.412 377.716 L
283.317 381.484 L
289.222 383.337 L
295.127 383.531 L
301.033 382.411 L
306.938 380.352 L
312.843 377.7 L
318.748 374.754 L
324.653 371.746 L
330.559 368.839 L
336.464 366.139 L
342.369 363.704 L
348.274 361.551 L
354.179 359.676 LE
0.5 W
1 0 0 C
241.981 312.441 LS
354.179 312.441 LE
grestore
gsave
1.0 1.0 scale
newpath 0 0 moveto 576 0 lineto 576 432 lineto 0 432 lineto
closepath clip
1 1 1 C
409.081 385.851 521.28 312.441 409.081 312.441 T
409.081 385.851 521.28 385.851 521.28 312.441 T
0.5 W
0.15 0.15 0.15 C
432.702 312.441 LS
432.702 313.57 LE
432.702 385.851 LS
432.702 384.723 LE
462.228 312.441 LS
462.228 313.57 LE
462.228 385.851 LS
462.228 384.723 LE
491.754 312.441 LS
491.754 313.57 LE
491.754 385.851 LS
491.754 384.723 LE
521.28 312.441 LS
521.28 313.57 LE
521.28 385.851 LS
521.28 384.723 LE
gsave
0.14902 0.14902 0.14902 C
(5) [10] 0 429.702 296.899 10 /Helvetica SRX
grestore

gsave
0.14902 0.14902 0.14902 C
(10) [6 10] 0 456.228 296.899 10 /Helvetica SRX
grestore

gsave
0.14902 0.14902 0.14902 C
(15) [6 10] 0 485.754 296.899 10 /Helvetica SRX
grestore

gsave
0.14902 0.14902 0.14902 C
(20) [6 10] 0 515.28 296.899 10 /Helvetica SRX
grestore

409.081 312.441 LS
410.205 312.441 LE
521.28 312.441 LS
520.156 312.441 LE
409.081 322.928 LS
410.205 322.928 LE
521.28 322.928 LS
520.156 322.928 LE
409.081 333.416 LS
410.205 333.416 LE
521.28 333.416 LS
520.156 333.416 LE
409.081 343.903 LS
410.205 343.903 LE
521.28 343.903 LS
520.156 343.903 LE
409.081 354.39 LS
410.205 354.39 LE
521.28 354.39 LS
520.156 354.39 LE
409.081 364.877 LS
410.205 364.877 LE
521.28 364.877 LS
520.156 364.877 LE
409.081 375.364 LS
410.205 375.364 LE
521.28 375.364 LS
520.156 375.364 LE
409.081 385.851 LS
410.205 385.851 LE
521.28 385.851 LS
520.156 385.851 LE
gsave
0.14902 0.14902 0.14902 C
(0) [10] 0 398.072 308.441 10 /Helvetica SRX
grestore

gsave
0.14902 0.14902 0.14902 C
(0.002) [6 3 6 6 10] 0 377.072 318.928 10 /Helvetica SRX
grestore

gsave
0.14902 0.14902 0.14902 C
(0.004) [6 3 6 6 10] 0 377.072 329.416 10 /Helvetica SRX
grestore

gsave
0.14902 0.14902 0.14902 C
(0.006) [6 3 6 6 10] 0 377.072 339.903 10 /Helvetica SRX
grestore

gsave
0.14902 0.14902 0.14902 C
(0.008) [6 3 6 6 10] 0 377.072 350.39 10 /Helvetica SRX
grestore

gsave
0.14902 0.14902 0.14902 C
(0.01) [6 3 6 10] 0 383.072 360.877 10 /Helvetica SRX
grestore

gsave
0.14902 0.14902 0.14902 C
(0.012) [6 3 6 6 10] 0 377.072 371.364 10 /Helvetica SRX
grestore

gsave
0.14902 0.14902 0.14902 C
(0.014) [6 3 6 6 10] 0 377.072 381.851 10 /Helvetica SRX
grestore

2 LC
[16 0] 0 setdash
409.081 312.441 LS
521.28 312.441 LE
409.081 385.851 LS
521.28 385.851 LE
409.081 312.441 LS
409.081 385.851 LE
521.28 312.441 LS
521.28 385.851 LE
gsave
0 0 0 C
(I_hat) [3 6 7 6 10] 0 452.181 397.851 11 /Helvetica-Bold SRX
grestore

1 W
0 LC
1 LJ
[] 0 setdash
0 0 0 C
409.081 361.45 LS
414.987 363.386 L
420.892 368.611 L
426.797 374.666 L
432.702 379.074 L
438.607 380.396 L
444.513 378.336 L
450.418 373.435 L
456.323 366.652 L
462.228 359.025 L
468.133 351.437 L
474.038 344.515 L
479.944 338.614 L
485.849 333.86 L
491.754 330.213 L
497.659 327.532 L
503.564 325.634 L
509.47 324.329 L
515.375 323.452 L
521.28 322.865 LE
0.5 W
1 0 0 C
409.081 312.441 LS
521.28 312.441 LE
grestore
gsave
1.0 1.0 scale
newpath 0 0 moveto 576 0 lineto 576 432 lineto 0 432 lineto
closepath clip
1 1 1 C
74.88 253.39 187.079 179.981 74.88 179.981 T
74.88 253.39 187.079 253.39 187.079 179.981 T
0.5 W
0.15 0.15 0.15 C
98.5008 179.981 LS
98.5008 181.109 LE
98.5008 253.39 LS
98.5008 252.262 LE
128.027 179.981 LS
128.027 181.109 LE
128.027 253.39 LS
128.027 252.262 LE
157.553 179.981 LS
157.553 181.109 LE
157.553 253.39 LS
157.553 252.262 LE
187.079 179.981 LS
187.079 181.109 LE
187.079 253.39 LS
187.079 252.262 LE
gsave
0.14902 0.14902 0.14902 C
(5) [10] 0 95.5008 164.439 10 /Helvetica SRX
grestore

gsave
0.14902 0.14902 0.14902 C
(10) [6 10] 0 122.027 164.439 10 /Helvetica SRX
grestore

gsave
0.14902 0.14902 0.14902 C
(15) [6 10] 0 151.553 164.439 10 /Helvetica SRX
grestore

gsave
0.14902 0.14902 0.14902 C
(20) [6 10] 0 181.079 164.439 10 /Helvetica SRX
grestore

74.88 179.981 LS
76.004 179.981 LE
187.079 179.981 LS
185.955 179.981 LE
74.88 198.333 LS
76.004 198.333 LE
187.079 198.333 LS
185.955 198.333 LE
74.88 216.686 LS
76.004 216.686 LE
187.079 216.686 LS
185.955 216.686 LE
74.88 235.038 LS
76.004 235.038 LE
187.079 235.038 LS
185.955 235.038 LE
74.88 253.39 LS
76.004 253.39 LE
187.079 253.39 LS
185.955 253.39 LE
gsave
0.14902 0.14902 0.14902 C
(0) [10] 0 63.8711 175.981 10 /Helvetica SRX
grestore

gsave
0.14902 0.14902 0.14902 C
(0.001) [6 3 6 6 10] 0 42.8711 194.333 10 /Helvetica SRX
grestore

gsave
0.14902 0.14902 0.14902 C
(0.002) [6 3 6 6 10] 0 42.8711 212.686 10 /Helvetica SRX
grestore

gsave
0.14902 0.14902 0.14902 C
(0.003) [6 3 6 6 10] 0 42.8711 231.038 10 /Helvetica SRX
grestore

gsave
0.14902 0.14902 0.14902 C
(0.004) [6 3 6 6 10] 0 42.8711 249.39 10 /Helvetica SRX
grestore

2 LC
[16 0] 0 setdash
74.88 179.981 LS
187.079 179.981 LE
74.88 253.39 LS
187.079 253.39 LE
74.88 179.981 LS
74.88 253.39 LE
187.079 179.981 LS
187.079 253.39 LE
gsave
0 0 0 C
(L_hat) [7 6 7 6 10] 0 115.979 265.39 11 /Helvetica-Bold SRX
grestore

1 W
0 LC
1 LJ
[] 0 setdash
0 0 0 C
74.88 188.699 LS
80.7852 199.412 L
86.6904 213.197 L
92.5956 225.983 L
98.5008 236.061 L
104.406 242.937 L
110.311 246.737 L
116.216 247.881 L
122.122 246.911 L
128.027 244.389 L
133.932 240.84 L
139.837 236.717 L
145.742 232.382 L
151.648 228.108 L
157.553 224.083 L
163.458 220.42 L
169.363 217.173 L
175.268 214.354 L
181.173 211.945 L
187.079 209.911 LE
0.5 W
1 0 0 C
74.88 179.981 LS
187.079 179.981 LE
grestore
gsave
1.0 1.0 scale
newpath 0 0 moveto 576 0 lineto 576 432 lineto 0 432 lineto
closepath clip
1 1 1 C
241.981 253.39 354.179 179.981 241.981 179.981 T
241.981 253.39 354.179 253.39 354.179 179.981 T
0.5 W
0.15 0.15 0.15 C
265.601 179.981 LS
265.601 181.109 LE
265.601 253.39 LS
265.601 252.262 LE
295.127 179.981 LS
295.127 181.109 LE
295.127 253.39 LS
295.127 252.262 LE
324.653 179.981 LS
324.653 181.109 LE
324.653 253.39 LS
324.653 252.262 LE
354.179 179.981 LS
354.179 181.109 LE
354.179 253.39 LS
354.179 252.262 LE
gsave
0.14902 0.14902 0.14902 C
(5) [10] 0 262.601 164.439 10 /Helvetica SRX
grestore

gsave
0.14902 0.14902 0.14902 C
(10) [6 10] 0 289.127 164.439 10 /Helvetica SRX
grestore

gsave
0.14902 0.14902 0.14902 C
(15) [6 10] 0 318.653 164.439 10 /Helvetica SRX
grestore

gsave
0.14902 0.14902 0.14902 C
(20) [6 10] 0 348.179 164.439 10 /Helvetica SRX
grestore

241.981 179.981 LS
243.105 179.981 LE
354.179 179.981 LS
353.055 179.981 LE
241.981 190.468 LS
243.105 190.468 LE
354.179 190.468 LS
353.055 190.468 LE
241.981 200.955 LS
243.105 200.955 LE
354.179 200.955 LS
353.055 200.955 LE
241.981 211.442 LS
243.105 211.442 LE
354.179 211.442 LS
353.055 211.442 LE
241.981 221.929 LS
243.105 221.929 LE
354.179 221.929 LS
353.055 221.929 LE
241.981 232.416 LS
243.105 232.416 LE
354.179 232.416 LS
353.055 232.416 LE
241.981 242.903 LS
243.105 242.903 LE
354.179 242.903 LS
353.055 242.903 LE
241.981 253.39 LS
243.105 253.39 LE
354.179 253.39 LS
353.055 253.39 LE
gsave
0.14902 0.14902 0.14902 C
(-0.0025) [3 6 3 6 6 6 10] 0 200.972 175.981 10 /Helvetica SRX
grestore

gsave
0.14902 0.14902 0.14902 C
(-0.002) [3 6 3 6 6 10] 0 206.972 186.468 10 /Helvetica SRX
grestore

gsave
0.14902 0.14902 0.14902 C
(-0.0015) [3 6 3 6 6 6 10] 0 200.972 196.955 10 /Helvetica SRX
grestore

gsave
0.14902 0.14902 0.14902 C
(-0.001) [3 6 3 6 6 10] 0 206.972 207.442 10 /Helvetica SRX
grestore

gsave
0.14902 0.14902 0.14902 C
(-0.0005) [3 6 3 6 6 6 10] 0 200.972 217.929 10 /Helvetica SRX
grestore

gsave
0.14902 0.14902 0.14902 C
(0) [10] 0 230.972 228.416 10 /Helvetica SRX
grestore

gsave
0.14902 0.14902 0.14902 C
(0.0005) [6 3 6 6 6 10] 0 203.972 238.903 10 /Helvetica SRX
grestore

gsave
0.14902 0.14902 0.14902 C
(0.001) [6 3 6 6 10] 0 209.972 249.39 10 /Helvetica SRX
grestore

2 LC
[16 0] 0 setdash
241.981 179.981 LS
354.179 179.981 LE
241.981 253.39 LS
354.179 253.39 LE
241.981 179.981 LS
241.981 253.39 LE
354.179 179.981 LS
354.179 253.39 LE
gsave
0 0 0 C
(tb_y_hat) [4 7 6 6 6 7 6 10] 0 275.08 266.39 11 /Helvetica-Bold SRX
grestore

1 W
0 LC
1 LJ
[] 0 setdash
0 0 0 C
241.981 190.389 LS
247.886 189.002 L
253.791 232.364 L
259.696 247.905 L
265.601 249.36 L
271.507 245.176 L
277.412 239.946 L
283.317 235.732 L
289.222 233.109 L
295.127 231.904 L
301.033 231.675 L
306.938 231.964 L
312.843 232.417 L
318.748 232.817 L
324.653 233.061 L
330.559 233.132 L
336.464 233.058 L
342.369 232.889 L
348.274 232.672 L
354.179 232.447 LE
0.5 W
1 0 0 C
241.981 232.416 LS
354.179 232.416 LE
grestore
gsave
1.0 1.0 scale
newpath 0 0 moveto 576 0 lineto 576 432 lineto 0 432 lineto
closepath clip
1 1 1 C
409.081 253.39 521.28 179.981 409.081 179.981 T
409.081 253.39 521.28 253.39 521.28 179.981 T
0.5 W
0.15 0.15 0.15 C
432.702 179.981 LS
432.702 181.109 LE
432.702 253.39 LS
432.702 252.262 LE
462.228 179.981 LS
462.228 181.109 LE
462.228 253.39 LS
462.228 252.262 LE
491.754 179.981 LS
491.754 181.109 LE
491.754 253.39 LS
491.754 252.262 LE
521.28 179.981 LS
521.28 181.109 LE
521.28 253.39 LS
521.28 252.262 LE
gsave
0.14902 0.14902 0.14902 C
(5) [10] 0 429.702 164.439 10 /Helvetica SRX
grestore

gsave
0.14902 0.14902 0.14902 C
(10) [6 10] 0 456.228 164.439 10 /Helvetica SRX
grestore

gsave
0.14902 0.14902 0.14902 C
(15) [6 10] 0 485.754 164.439 10 /Helvetica SRX
grestore

gsave
0.14902 0.14902 0.14902 C
(20) [6 10] 0 515.28 164.439 10 /Helvetica SRX
grestore

409.081 179.981 LS
410.205 179.981 LE
521.28 179.981 LS
520.156 179.981 LE
409.081 194.663 LS
410.205 194.663 LE
521.28 194.663 LS
520.156 194.663 LE
409.081 209.345 LS
410.205 209.345 LE
521.28 209.345 LS
520.156 209.345 LE
409.081 224.026 LS
410.205 224.026 LE
521.28 224.026 LS
520.156 224.026 LE
409.081 238.708 LS
410.205 238.708 LE
521.28 238.708 LS
520.156 238.708 LE
409.081 253.39 LS
410.205 253.39 LE
521.28 253.39 LS
520.156 253.39 LE
gsave
0.14902 0.14902 0.14902 C
(-0.01) [3 6 3 6 10] 0 380.072 175.981 10 /Helvetica SRX
grestore

gsave
0.14902 0.14902 0.14902 C
(0) [10] 0 398.072 190.663 10 /Helvetica SRX
grestore

gsave
0.14902 0.14902 0.14902 C
(0.01) [6 3 6 10] 0 383.072 205.345 10 /Helvetica SRX
grestore

gsave
0.14902 0.14902 0.14902 C
(0.02) [6 3 6 10] 0 383.072 220.026 10 /Helvetica SRX
grestore

gsave
0.14902 0.14902 0.14902 C
(0.03) [6 3 6 10] 0 383.072 234.708 10 /Helvetica SRX
grestore

gsave
0.14902 0.14902 0.14902 C
(0.04) [6 3 6 10] 0 383.072 249.39 10 /Helvetica SRX
grestore

2 LC
[16 0] 0 setdash
409.081 179.981 LS
521.28 179.981 LE
409.081 253.39 LS
521.28 253.39 LE
409.081 179.981 LS
409.081 253.39 LE
521.28 179.981 LS
521.28 253.39 LE
gsave
0 0 0 C
(P_C_hat) [7 6 8 6 7 6 10] 0 443.181 265.39 11 /Helvetica-Bold SRX
grestore

1 W
0 LC
1 LJ
[] 0 setdash
0 0 0 C
409.081 194.663 LS
414.987 194.663 L
420.892 226.963 L
426.797 239.883 L
432.702 242.144 L
438.607 238.979 L
444.513 233.439 L
450.418 227.235 L
456.323 221.263 L
462.228 215.943 L
468.133 211.421 L
474.038 207.697 L
479.944 204.699 L
485.849 202.327 L
491.754 200.475 L
497.659 199.044 L
503.564 197.949 L
509.47 197.116 L
515.375 196.487 L
521.28 196.015 LE
0.5 W
1 0 0 C
409.081 194.663 LS
521.28 194.663 LE
grestore
gsave
1.0 1.0 scale
newpath 0 0 moveto 576 0 lineto 576 432 lineto 0 432 lineto
closepath clip
1 1 1 C
74.88 120.93 187.079 47.52 74.88 47.52 T
74.88 120.93 187.079 120.93 187.079 47.52 T
0.5 W
0.15 0.15 0.15 C
98.5008 47.52 LS
98.5008 48.6483 LE
98.5008 120.93 LS
98.5008 119.801 LE
128.027 47.52 LS
128.027 48.6483 LE
128.027 120.93 LS
128.027 119.801 LE
157.553 47.52 LS
157.553 48.6483 LE
157.553 120.93 LS
157.553 119.801 LE
187.079 47.52 LS
187.079 48.6483 LE
187.079 120.93 LS
187.079 119.801 LE
gsave
0.14902 0.14902 0.14902 C
(5) [10] 0 95.5008 31.9779 10 /Helvetica SRX
grestore

gsave
0.14902 0.14902 0.14902 C
(10) [6 10] 0 122.027 31.9779 10 /Helvetica SRX
grestore

gsave
0.14902 0.14902 0.14902 C
(15) [6 10] 0 151.553 31.9779 10 /Helvetica SRX
grestore

gsave
0.14902 0.14902 0.14902 C
(20) [6 10] 0 181.079 31.9779 10 /Helvetica SRX
grestore

74.88 47.52 LS
76.004 47.52 LE
187.079 47.52 LS
185.955 47.52 LE
74.88 62.2019 LS
76.004 62.2019 LE
187.079 62.2019 LS
185.955 62.2019 LE
74.88 76.8839 LS
76.004 76.8839 LE
187.079 76.8839 LS
185.955 76.8839 LE
74.88 91.5658 LS
76.004 91.5658 LE
187.079 91.5658 LS
185.955 91.5658 LE
74.88 106.248 LS
76.004 106.248 LE
187.079 106.248 LS
185.955 106.248 LE
74.88 120.93 LS
76.004 120.93 LE
187.079 120.93 LS
185.955 120.93 LE
gsave
0.14902 0.14902 0.14902 C
(-0.0003) [3 6 3 6 6 6 10] 0 33.8711 43.52 10 /Helvetica SRX
grestore

gsave
0.14902 0.14902 0.14902 C
(-0.0002) [3 6 3 6 6 6 10] 0 33.8711 58.2019 10 /Helvetica SRX
grestore

gsave
0.14902 0.14902 0.14902 C
(-0.0001) [3 6 3 6 6 6 10] 0 33.8711 72.8839 10 /Helvetica SRX
grestore

gsave
0.14902 0.14902 0.14902 C
(0) [10] 0 63.8711 87.5658 10 /Helvetica SRX
grestore

gsave
0.14902 0.14902 0.14902 C
(0.0001) [6 3 6 6 6 10] 0 36.8711 102.248 10 /Helvetica SRX
grestore

gsave
0.14902 0.14902 0.14902 C
(0.0002) [6 3 6 6 6 10] 0 36.8711 116.93 10 /Helvetica SRX
grestore

2 LC
[16 0] 0 setdash
74.88 47.52 LS
187.079 47.52 LE
74.88 120.93 LS
187.079 120.93 LE
74.88 47.52 LS
74.88 120.93 LE
187.079 47.52 LS
187.079 120.93 LE
gsave
0 0 0 C
(r_hat) [4 6 7 6 10] 0 117.479 132.93 11 /Helvetica-Bold SRX
grestore

1 W
0 LC
1 LJ
[] 0 setdash
0 0 0 C
74.88 91.5658 LS
80.7852 112.119 L
86.6904 118.552 L
92.5956 112.274 L
98.5008 98.7492 L
104.406 83.5465 L
110.311 70.6109 L
116.216 61.9176 L
122.122 57.8244 L
128.027 57.6575 L
133.932 60.2697 L
139.837 64.4548 L
145.742 69.1933 L
151.648 73.7567 L
157.553 77.7132 L
163.458 80.8774 L
169.363 83.2391 L
175.268 84.8924 L
181.173 85.9792 L
187.079 86.6486 LE
0.5 W
1 0 0 C
74.88 91.5658 LS
187.079 91.5658 LE
grestore
grestore
showpage
cleartomark
%%PageTrailer
%%Trailer
end
%%EOF
