%!PS-Adobe-3.0 EPSF-3.0
%%Title: gl2ps_renderer figure
%%Creator: GL2PS 1.4.0, (C) 1999-2017 C. Geuzaine
%%For: Octave
%%CreationDate: Fri Feb 28 14:24:20 2020
%%LanguageLevel: 3
%%DocumentData: Clean7Bit
%%Pages: 1
%%BoundingBox: 0 0 576 432
%%EndComments
%%BeginProlog
/gl2psdict 64 dict def gl2psdict begin
/tryPS3shading false def % set to false to force subdivision
/rThreshold 0.064 def % red component subdivision threshold
/gThreshold 0.034 def % green component subdivision threshold
/bThreshold 0.1 def % blue component subdivision threshold
/BD { bind def } bind def
/C  { setrgbcolor } BD
/G  { 0.082 mul exch 0.6094 mul add exch 0.3086 mul add neg 1.0 add setgray } BD
/W  { setlinewidth } BD
/LC  { setlinecap } BD
/LJ  { setlinejoin } BD
/FC { findfont exch /SH exch def SH scalefont setfont } BD
/SW { dup stringwidth pop } BD
/S  { FC moveto show } BD
/SBC{ FC moveto SW -2 div 0 rmoveto show } BD
/SBR{ FC moveto SW neg 0 rmoveto show } BD
/SCL{ FC moveto 0 SH -2 div rmoveto show } BD
/SCC{ FC moveto SW -2 div SH -2 div rmoveto show } BD
/SCR{ FC moveto SW neg SH -2 div rmoveto show } BD
/STL{ FC moveto 0 SH neg rmoveto show } BD
/STC{ FC moveto SW -2 div SH neg rmoveto show } BD
/STR{ FC moveto SW neg SH neg rmoveto show } BD
/FCT { FC translate 0 0 } BD
/SR  { gsave FCT moveto rotate show grestore } BD
/SRX  { gsave FCT moveto rotate xshow grestore } BD
/SBCR{ gsave FCT moveto rotate SW -2 div 0 rmoveto show grestore } BD
/SBRR{ gsave FCT moveto rotate SW neg 0 rmoveto show grestore } BD
/SCLR{ gsave FCT moveto rotate 0 SH -2 div rmoveto show grestore} BD
/SCCR{ gsave FCT moveto rotate SW -2 div SH -2 div rmoveto show grestore} BD
/SCRR{ gsave FCT moveto rotate SW neg SH -2 div rmoveto show grestore} BD
/STLR{ gsave FCT moveto rotate 0 SH neg rmoveto show grestore } BD
/STCR{ gsave FCT moveto rotate SW -2 div SH neg rmoveto show grestore } BD
/STRR{ gsave FCT moveto rotate SW neg SH neg rmoveto show grestore } BD
/P  { newpath 0.0 360.0 arc closepath fill } BD
/LS { newpath moveto } BD
/L  { lineto } BD
/LE { lineto stroke } BD
/T  { newpath moveto lineto lineto closepath fill } BD
/STshfill {
      /b1 exch def /g1 exch def /r1 exch def /y1 exch def /x1 exch def
      /b2 exch def /g2 exch def /r2 exch def /y2 exch def /x2 exch def
      /b3 exch def /g3 exch def /r3 exch def /y3 exch def /x3 exch def
      gsave << /ShadingType 4 /ColorSpace [/DeviceRGB]
      /DataSource [ 0 x1 y1 r1 g1 b1 0 x2 y2 r2 g2 b2 0 x3 y3 r3 g3 b3 ] >>
      shfill grestore } BD
/Tm { 3 -1 roll 8 -1 roll 13 -1 roll add add 3 div
      3 -1 roll 7 -1 roll 11 -1 roll add add 3 div
      3 -1 roll 6 -1 roll 9 -1 roll add add 3 div C T } BD
/STsplit {
      4 index 15 index add 0.5 mul
      4 index 15 index add 0.5 mul
      4 index 15 index add 0.5 mul
      4 index 15 index add 0.5 mul
      4 index 15 index add 0.5 mul
      5 copy 5 copy 25 15 roll
      9 index 30 index add 0.5 mul
      9 index 30 index add 0.5 mul
      9 index 30 index add 0.5 mul
      9 index 30 index add 0.5 mul
      9 index 30 index add 0.5 mul
      5 copy 5 copy 35 5 roll 25 5 roll 15 5 roll
      4 index 10 index add 0.5 mul
      4 index 10 index add 0.5 mul
      4 index 10 index add 0.5 mul
      4 index 10 index add 0.5 mul
      4 index 10 index add 0.5 mul
      5 copy 5 copy 40 5 roll 25 5 roll 15 5 roll 25 5 roll
      STnoshfill STnoshfill STnoshfill STnoshfill } BD
/STnoshfill {
      2 index 8 index sub abs rThreshold gt
      { STsplit }
      { 1 index 7 index sub abs gThreshold gt
        { STsplit }
        { dup 6 index sub abs bThreshold gt
          { STsplit }
          { 2 index 13 index sub abs rThreshold gt
            { STsplit }
            { 1 index 12 index sub abs gThreshold gt
              { STsplit }
              { dup 11 index sub abs bThreshold gt
                { STsplit }
                { 7 index 13 index sub abs rThreshold gt
                  { STsplit }
                  { 6 index 12 index sub abs gThreshold gt
                    { STsplit }
                    { 5 index 11 index sub abs bThreshold gt
                      { STsplit }
                      { Tm }
                      ifelse }
                    ifelse }
                  ifelse }
                ifelse }
              ifelse }
            ifelse }
          ifelse }
        ifelse }
      ifelse } BD
tryPS3shading
{ /shfill where
  { /ST { STshfill } BD }
  { /ST { STnoshfill } BD }
  ifelse }
{ /ST { STnoshfill } BD }
ifelse
end
%%EndProlog
%%BeginSetup
/DeviceRGB setcolorspace
gl2psdict begin
%%EndSetup
%%Page: 1 1
%%BeginPageSetup
%%EndPageSetup
mark
gsave
1.0 1.0 scale
1 1 1 C
newpath 0 0 moveto 576 0 lineto 576 432 lineto 0 432 lineto
closepath fill
gsave
1.0 1.0 scale
1 1 1 C
newpath 0 0 moveto 576 0 lineto 576 432 lineto 0 432 lineto
closepath fill
newpath 0 0 moveto 576 0 lineto 576 432 lineto 0 432 lineto
closepath clip
1 1 1 C
74.88 385.851 261.029 312.441 74.88 312.441 T
74.88 385.851 261.029 385.851 261.029 312.441 T
0.5 W
0.15 0.15 0.15 C
114.069 312.441 LS
114.069 314.313 LE
114.069 385.851 LS
114.069 383.979 LE
163.056 312.441 LS
163.056 314.313 LE
163.056 385.851 LS
163.056 383.979 LE
212.042 312.441 LS
212.042 314.313 LE
212.042 385.851 LS
212.042 383.979 LE
261.029 312.441 LS
261.029 314.313 LE
261.029 385.851 LS
261.029 383.979 LE
gsave
0.14902 0.14902 0.14902 C
(5) [10] 0 111.069 296.899 10 /Helvetica SRX
grestore

gsave
0.14902 0.14902 0.14902 C
(10) [6 10] 0 157.056 296.899 10 /Helvetica SRX
grestore

gsave
0.14902 0.14902 0.14902 C
(15) [6 10] 0 206.042 296.899 10 /Helvetica SRX
grestore

gsave
0.14902 0.14902 0.14902 C
(20) [6 10] 0 255.029 296.899 10 /Helvetica SRX
grestore

74.88 312.441 LS
76.743 312.441 LE
261.029 312.441 LS
259.166 312.441 LE
74.88 322.928 LS
76.743 322.928 LE
261.029 322.928 LS
259.166 322.928 LE
74.88 333.416 LS
76.743 333.416 LE
261.029 333.416 LS
259.166 333.416 LE
74.88 343.903 LS
76.743 343.903 LE
261.029 343.903 LS
259.166 343.903 LE
74.88 354.39 LS
76.743 354.39 LE
261.029 354.39 LS
259.166 354.39 LE
74.88 364.877 LS
76.743 364.877 LE
261.029 364.877 LS
259.166 364.877 LE
74.88 375.364 LS
76.743 375.364 LE
261.029 375.364 LS
259.166 375.364 LE
74.88 385.851 LS
76.743 385.851 LE
261.029 385.851 LS
259.166 385.851 LE
gsave
0.14902 0.14902 0.14902 C
(-0.007) [3 6 3 6 6 10] 0 39.876 308.441 10 /Helvetica SRX
grestore

gsave
0.14902 0.14902 0.14902 C
(-0.006) [3 6 3 6 6 10] 0 39.876 318.928 10 /Helvetica SRX
grestore

gsave
0.14902 0.14902 0.14902 C
(-0.005) [3 6 3 6 6 10] 0 39.876 329.416 10 /Helvetica SRX
grestore

gsave
0.14902 0.14902 0.14902 C
(-0.004) [3 6 3 6 6 10] 0 39.876 339.903 10 /Helvetica SRX
grestore

gsave
0.14902 0.14902 0.14902 C
(-0.003) [3 6 3 6 6 10] 0 39.876 350.39 10 /Helvetica SRX
grestore

gsave
0.14902 0.14902 0.14902 C
(-0.002) [3 6 3 6 6 10] 0 39.876 360.877 10 /Helvetica SRX
grestore

gsave
0.14902 0.14902 0.14902 C
(-0.001) [3 6 3 6 6 10] 0 39.876 371.364 10 /Helvetica SRX
grestore

gsave
0.14902 0.14902 0.14902 C
(0) [10] 0 63.876 381.851 10 /Helvetica SRX
grestore

2 LC
[16 0] 0 setdash
74.88 312.441 LS
261.029 312.441 LE
74.88 385.851 LS
261.029 385.851 LE
74.88 312.441 LS
74.88 385.851 LE
261.029 312.441 LS
261.029 385.851 LE
gsave
0 0 0 C
(Y_hat) [7 6 7 6 10] 0 152.954 397.851 11 /Helvetica-Bold SRX
grestore

1 W
0 LC
1 LJ
[] 0 setdash
0 0 0 C
74.88 338.319 LS
84.6773 322.153 L
94.4746 323.011 L
104.272 332.789 L
114.069 345.315 L
123.867 356.877 L
133.664 365.775 L
143.461 371.656 L
153.259 374.911 L
163.056 376.235 L
172.853 376.344 L
182.65 375.833 L
192.448 375.12 L
202.245 374.46 L
212.042 373.973 L
221.84 373.689 L
231.637 373.586 L
241.434 373.621 L
251.232 373.745 L
261.029 373.916 LE
0.5 W
1 0 0 C
74.88 385.851 LS
261.029 385.851 LE
grestore
gsave
1.0 1.0 scale
newpath 0 0 moveto 576 0 lineto 576 432 lineto 0 432 lineto
closepath clip
1 1 1 C
335.131 385.851 521.28 312.441 335.131 312.441 T
335.131 385.851 521.28 385.851 521.28 312.441 T
0.5 W
0.15 0.15 0.15 C
374.32 312.441 LS
374.32 314.313 LE
374.32 385.851 LS
374.32 383.979 LE
423.307 312.441 LS
423.307 314.313 LE
423.307 385.851 LS
423.307 383.979 LE
472.293 312.441 LS
472.293 314.313 LE
472.293 385.851 LS
472.293 383.979 LE
521.28 312.441 LS
521.28 314.313 LE
521.28 385.851 LS
521.28 383.979 LE
gsave
0.14902 0.14902 0.14902 C
(5) [10] 0 371.32 296.899 10 /Helvetica SRX
grestore

gsave
0.14902 0.14902 0.14902 C
(10) [6 10] 0 417.307 296.899 10 /Helvetica SRX
grestore

gsave
0.14902 0.14902 0.14902 C
(15) [6 10] 0 466.293 296.899 10 /Helvetica SRX
grestore

gsave
0.14902 0.14902 0.14902 C
(20) [6 10] 0 515.28 296.899 10 /Helvetica SRX
grestore

335.131 312.441 LS
336.994 312.441 LE
521.28 312.441 LS
519.417 312.441 LE
335.131 324.676 LS
336.994 324.676 LE
521.28 324.676 LS
519.417 324.676 LE
335.131 336.911 LS
336.994 336.911 LE
521.28 336.911 LS
519.417 336.911 LE
335.131 349.146 LS
336.994 349.146 LE
521.28 349.146 LS
519.417 349.146 LE
335.131 361.381 LS
336.994 361.381 LE
521.28 361.381 LS
519.417 361.381 LE
335.131 373.616 LS
336.994 373.616 LE
521.28 373.616 LS
519.417 373.616 LE
335.131 385.851 LS
336.994 385.851 LE
521.28 385.851 LS
519.417 385.851 LE
gsave
0.14902 0.14902 0.14902 C
(-0.006) [3 6 3 6 6 10] 0 300.127 308.441 10 /Helvetica SRX
grestore

gsave
0.14902 0.14902 0.14902 C
(-0.005) [3 6 3 6 6 10] 0 300.127 320.676 10 /Helvetica SRX
grestore

gsave
0.14902 0.14902 0.14902 C
(-0.004) [3 6 3 6 6 10] 0 300.127 332.911 10 /Helvetica SRX
grestore

gsave
0.14902 0.14902 0.14902 C
(-0.003) [3 6 3 6 6 10] 0 300.127 345.146 10 /Helvetica SRX
grestore

gsave
0.14902 0.14902 0.14902 C
(-0.002) [3 6 3 6 6 10] 0 300.127 357.381 10 /Helvetica SRX
grestore

gsave
0.14902 0.14902 0.14902 C
(-0.001) [3 6 3 6 6 10] 0 300.127 369.616 10 /Helvetica SRX
grestore

gsave
0.14902 0.14902 0.14902 C
(0) [10] 0 324.127 381.851 10 /Helvetica SRX
grestore

2 LC
[16 0] 0 setdash
335.131 312.441 LS
521.28 312.441 LE
335.131 385.851 LS
521.28 385.851 LE
335.131 312.441 LS
335.131 385.851 LE
521.28 312.441 LS
521.28 385.851 LE
gsave
0 0 0 C
(C_hat) [8 6 7 6 10] 0 412.706 397.851 11 /Helvetica-Bold SRX
grestore

1 W
0 LC
1 LJ
[] 0 setdash
0 0 0 C
335.131 338.29 LS
344.928 320.551 L
354.726 321.763 L
364.523 332.375 L
374.32 345.685 L
384.118 357.788 L
393.915 366.95 L
403.712 372.856 L
413.51 375.968 L
423.307 377.054 L
433.104 376.891 L
442.901 376.114 L
452.699 375.169 L
462.496 374.319 L
472.293 373.683 L
482.091 373.287 L
491.888 373.1 L
501.685 373.071 L
511.483 373.145 L
521.28 373.275 LE
0.5 W
1 0 0 C
335.131 385.851 LS
521.28 385.851 LE
grestore
gsave
1.0 1.0 scale
newpath 0 0 moveto 576 0 lineto 576 432 lineto 0 432 lineto
closepath clip
1 1 1 C
74.88 253.39 261.029 179.981 74.88 179.981 T
74.88 253.39 261.029 253.39 261.029 179.981 T
0.5 W
0.15 0.15 0.15 C
114.069 179.981 LS
114.069 181.853 LE
114.069 253.39 LS
114.069 251.518 LE
163.056 179.981 LS
163.056 181.853 LE
163.056 253.39 LS
163.056 251.518 LE
212.042 179.981 LS
212.042 181.853 LE
212.042 253.39 LS
212.042 251.518 LE
261.029 179.981 LS
261.029 181.853 LE
261.029 253.39 LS
261.029 251.518 LE
gsave
0.14902 0.14902 0.14902 C
(5) [10] 0 111.069 164.439 10 /Helvetica SRX
grestore

gsave
0.14902 0.14902 0.14902 C
(10) [6 10] 0 157.056 164.439 10 /Helvetica SRX
grestore

gsave
0.14902 0.14902 0.14902 C
(15) [6 10] 0 206.042 164.439 10 /Helvetica SRX
grestore

gsave
0.14902 0.14902 0.14902 C
(20) [6 10] 0 255.029 164.439 10 /Helvetica SRX
grestore

74.88 179.981 LS
76.743 179.981 LE
261.029 179.981 LS
259.166 179.981 LE
74.88 194.663 LS
76.743 194.663 LE
261.029 194.663 LS
259.166 194.663 LE
74.88 209.345 LS
76.743 209.345 LE
261.029 209.345 LS
259.166 209.345 LE
74.88 224.026 LS
76.743 224.026 LE
261.029 224.026 LS
259.166 224.026 LE
74.88 238.708 LS
76.743 238.708 LE
261.029 238.708 LS
259.166 238.708 LE
74.88 253.39 LS
76.743 253.39 LE
261.029 253.39 LS
259.166 253.39 LE
gsave
0.14902 0.14902 0.14902 C
(-0.2) [3 6 3 10] 0 51.876 175.981 10 /Helvetica SRX
grestore

gsave
0.14902 0.14902 0.14902 C
(-0.15) [3 6 3 6 10] 0 45.876 190.663 10 /Helvetica SRX
grestore

gsave
0.14902 0.14902 0.14902 C
(-0.1) [3 6 3 10] 0 51.876 205.345 10 /Helvetica SRX
grestore

gsave
0.14902 0.14902 0.14902 C
(-0.05) [3 6 3 6 10] 0 45.876 220.026 10 /Helvetica SRX
grestore

gsave
0.14902 0.14902 0.14902 C
(0) [10] 0 63.876 234.708 10 /Helvetica SRX
grestore

gsave
0.14902 0.14902 0.14902 C
(0.05) [6 3 6 10] 0 48.876 249.39 10 /Helvetica SRX
grestore

2 LC
[16 0] 0 setdash
74.88 179.981 LS
261.029 179.981 LE
74.88 253.39 LS
261.029 253.39 LE
74.88 179.981 LS
74.88 253.39 LE
261.029 179.981 LS
261.029 253.39 LE
gsave
0 0 0 C
(I_hat) [3 6 7 6 10] 0 154.954 265.39 11 /Helvetica-Bold SRX
grestore

1 W
0 LC
1 LJ
[] 0 setdash
0 0 0 C
74.88 198.247 LS
84.6773 220.349 L
94.4746 234.921 L
104.272 242.985 L
114.069 246.251 L
123.867 246.468 L
133.664 245.089 L
143.461 243.147 L
153.259 241.273 L
163.056 239.778 L
172.853 238.752 L
182.65 238.154 L
192.448 237.886 L
202.245 237.836 L
212.042 237.909 L
221.84 238.033 L
231.637 238.16 L
241.434 238.266 L
251.232 238.344 L
261.029 238.393 LE
0.5 W
1 0 0 C
74.88 238.708 LS
261.029 238.708 LE
grestore
gsave
1.0 1.0 scale
newpath 0 0 moveto 576 0 lineto 576 432 lineto 0 432 lineto
closepath clip
1 1 1 C
335.131 253.39 521.28 179.981 335.131 179.981 T
335.131 253.39 521.28 253.39 521.28 179.981 T
0.5 W
0.15 0.15 0.15 C
374.32 179.981 LS
374.32 181.853 LE
374.32 253.39 LS
374.32 251.518 LE
423.307 179.981 LS
423.307 181.853 LE
423.307 253.39 LS
423.307 251.518 LE
472.293 179.981 LS
472.293 181.853 LE
472.293 253.39 LS
472.293 251.518 LE
521.28 179.981 LS
521.28 181.853 LE
521.28 253.39 LS
521.28 251.518 LE
gsave
0.14902 0.14902 0.14902 C
(5) [10] 0 371.32 164.439 10 /Helvetica SRX
grestore

gsave
0.14902 0.14902 0.14902 C
(10) [6 10] 0 417.307 164.439 10 /Helvetica SRX
grestore

gsave
0.14902 0.14902 0.14902 C
(15) [6 10] 0 466.293 164.439 10 /Helvetica SRX
grestore

gsave
0.14902 0.14902 0.14902 C
(20) [6 10] 0 515.28 164.439 10 /Helvetica SRX
grestore

335.131 179.981 LS
336.994 179.981 LE
521.28 179.981 LS
519.417 179.981 LE
335.131 190.468 LS
336.994 190.468 LE
521.28 190.468 LS
519.417 190.468 LE
335.131 200.955 LS
336.994 200.955 LE
521.28 200.955 LS
519.417 200.955 LE
335.131 211.442 LS
336.994 211.442 LE
521.28 211.442 LS
519.417 211.442 LE
335.131 221.929 LS
336.994 221.929 LE
521.28 221.929 LS
519.417 221.929 LE
335.131 232.416 LS
336.994 232.416 LE
521.28 232.416 LS
519.417 232.416 LE
335.131 242.903 LS
336.994 242.903 LE
521.28 242.903 LS
519.417 242.903 LE
335.131 253.39 LS
336.994 253.39 LE
521.28 253.39 LS
519.417 253.39 LE
gsave
0.14902 0.14902 0.14902 C
(-0.007) [3 6 3 6 6 10] 0 300.127 175.981 10 /Helvetica SRX
grestore

gsave
0.14902 0.14902 0.14902 C
(-0.006) [3 6 3 6 6 10] 0 300.127 186.468 10 /Helvetica SRX
grestore

gsave
0.14902 0.14902 0.14902 C
(-0.005) [3 6 3 6 6 10] 0 300.127 196.955 10 /Helvetica SRX
grestore

gsave
0.14902 0.14902 0.14902 C
(-0.004) [3 6 3 6 6 10] 0 300.127 207.442 10 /Helvetica SRX
grestore

gsave
0.14902 0.14902 0.14902 C
(-0.003) [3 6 3 6 6 10] 0 300.127 217.929 10 /Helvetica SRX
grestore

gsave
0.14902 0.14902 0.14902 C
(-0.002) [3 6 3 6 6 10] 0 300.127 228.416 10 /Helvetica SRX
grestore

gsave
0.14902 0.14902 0.14902 C
(-0.001) [3 6 3 6 6 10] 0 300.127 238.903 10 /Helvetica SRX
grestore

gsave
0.14902 0.14902 0.14902 C
(0) [10] 0 324.127 249.39 10 /Helvetica SRX
grestore

2 LC
[16 0] 0 setdash
335.131 179.981 LS
521.28 179.981 LE
335.131 253.39 LS
521.28 253.39 LE
335.131 179.981 LS
335.131 253.39 LE
521.28 179.981 LS
521.28 253.39 LE
gsave
0 0 0 C
(L_hat) [7 6 7 6 10] 0 413.206 265.39 11 /Helvetica-Bold SRX
grestore

1 W
0 LC
1 LJ
[] 0 setdash
0 0 0 C
335.131 205.769 LS
344.928 190.388 L
354.726 193.676 L
364.523 205.525 L
374.32 219.355 L
384.118 231.527 L
393.915 240.54 L
403.712 246.236 L
413.51 249.162 L
423.307 250.117 L
433.104 249.881 L
442.901 249.074 L
452.699 248.125 L
462.496 247.279 L
472.293 246.647 L
482.091 246.247 L
491.888 246.046 L
501.685 245.993 L
511.483 246.033 L
521.28 246.124 LE
0.5 W
1 0 0 C
335.131 253.39 LS
521.28 253.39 LE
grestore
gsave
1.0 1.0 scale
newpath 0 0 moveto 576 0 lineto 576 432 lineto 0 432 lineto
closepath clip
1 1 1 C
74.88 120.93 261.029 47.52 74.88 47.52 T
74.88 120.93 261.029 120.93 261.029 47.52 T
0.5 W
0.15 0.15 0.15 C
114.069 47.52 LS
114.069 49.3919 LE
114.069 120.93 LS
114.069 119.058 LE
163.056 47.52 LS
163.056 49.3919 LE
163.056 120.93 LS
163.056 119.058 LE
212.042 47.52 LS
212.042 49.3919 LE
212.042 120.93 LS
212.042 119.058 LE
261.029 47.52 LS
261.029 49.3919 LE
261.029 120.93 LS
261.029 119.058 LE
gsave
0.14902 0.14902 0.14902 C
(5) [10] 0 111.069 31.9779 10 /Helvetica SRX
grestore

gsave
0.14902 0.14902 0.14902 C
(10) [6 10] 0 157.056 31.9779 10 /Helvetica SRX
grestore

gsave
0.14902 0.14902 0.14902 C
(15) [6 10] 0 206.042 31.9779 10 /Helvetica SRX
grestore

gsave
0.14902 0.14902 0.14902 C
(20) [6 10] 0 255.029 31.9779 10 /Helvetica SRX
grestore

74.88 47.52 LS
76.743 47.52 LE
261.029 47.52 LS
259.166 47.52 LE
74.88 65.8724 LS
76.743 65.8724 LE
261.029 65.8724 LS
259.166 65.8724 LE
74.88 84.2248 LS
76.743 84.2248 LE
261.029 84.2248 LS
259.166 84.2248 LE
74.88 102.577 LS
76.743 102.577 LE
261.029 102.577 LS
259.166 102.577 LE
74.88 120.93 LS
76.743 120.93 LE
261.029 120.93 LS
259.166 120.93 LE
gsave
0.14902 0.14902 0.14902 C
(-0.01) [3 6 3 6 10] 0 45.876 43.52 10 /Helvetica SRX
grestore

gsave
0.14902 0.14902 0.14902 C
(0) [10] 0 63.876 61.8724 10 /Helvetica SRX
grestore

gsave
0.14902 0.14902 0.14902 C
(0.01) [6 3 6 10] 0 48.876 80.2248 10 /Helvetica SRX
grestore

gsave
0.14902 0.14902 0.14902 C
(0.02) [6 3 6 10] 0 48.876 98.5772 10 /Helvetica SRX
grestore

gsave
0.14902 0.14902 0.14902 C
(0.03) [6 3 6 10] 0 48.876 116.93 10 /Helvetica SRX
grestore

2 LC
[16 0] 0 setdash
74.88 47.52 LS
261.029 47.52 LE
74.88 120.93 LS
261.029 120.93 LE
74.88 47.52 LS
74.88 120.93 LE
261.029 47.52 LS
261.029 120.93 LE
gsave
0 0 0 C
(tb_y_hat) [4 7 6 6 6 7 6 10] 0 144.954 133.93 11 /Helvetica-Bold SRX
grestore

1 W
0 LC
1 LJ
[] 0 setdash
0 0 0 C
74.88 113.108 LS
84.6773 85.6175 L
94.4746 68.0181 L
104.272 58.6463 L
114.069 55.1819 L
123.867 55.3698 L
133.664 57.3928 L
143.461 59.9864 L
153.259 62.3991 L
163.056 64.279 L
172.853 65.5429 L
182.65 66.2606 L
192.448 66.5674 L
202.245 66.6076 L
212.042 66.5037 L
221.84 66.3448 L
231.637 66.1865 L
241.434 66.0573 L
251.232 65.9665 L
261.029 65.9118 LE
0.5 W
1 0 0 C
74.88 65.8724 LS
261.029 65.8724 LE
grestore
gsave
1.0 1.0 scale
newpath 0 0 moveto 576 0 lineto 576 432 lineto 0 432 lineto
closepath clip
1 1 1 C
335.131 120.93 521.28 47.52 335.131 47.52 T
335.131 120.93 521.28 120.93 521.28 47.52 T
0.5 W
0.15 0.15 0.15 C
374.32 47.52 LS
374.32 49.3919 LE
374.32 120.93 LS
374.32 119.058 LE
423.307 47.52 LS
423.307 49.3919 LE
423.307 120.93 LS
423.307 119.058 LE
472.293 47.52 LS
472.293 49.3919 LE
472.293 120.93 LS
472.293 119.058 LE
521.28 47.52 LS
521.28 49.3919 LE
521.28 120.93 LS
521.28 119.058 LE
gsave
0.14902 0.14902 0.14902 C
(5) [10] 0 371.32 31.9779 10 /Helvetica SRX
grestore

gsave
0.14902 0.14902 0.14902 C
(10) [6 10] 0 417.307 31.9779 10 /Helvetica SRX
grestore

gsave
0.14902 0.14902 0.14902 C
(15) [6 10] 0 466.293 31.9779 10 /Helvetica SRX
grestore

gsave
0.14902 0.14902 0.14902 C
(20) [6 10] 0 515.28 31.9779 10 /Helvetica SRX
grestore

335.131 47.52 LS
336.994 47.52 LE
521.28 47.52 LS
519.417 47.52 LE
335.131 65.8724 LS
336.994 65.8724 LE
521.28 65.8724 LS
519.417 65.8724 LE
335.131 84.2248 LS
336.994 84.2248 LE
521.28 84.2248 LS
519.417 84.2248 LE
335.131 102.577 LS
336.994 102.577 LE
521.28 102.577 LS
519.417 102.577 LE
335.131 120.93 LS
336.994 120.93 LE
521.28 120.93 LS
519.417 120.93 LE
gsave
0.14902 0.14902 0.14902 C
(-0.005) [3 6 3 6 6 10] 0 300.127 43.52 10 /Helvetica SRX
grestore

gsave
0.14902 0.14902 0.14902 C
(0) [10] 0 324.127 61.8724 10 /Helvetica SRX
grestore

gsave
0.14902 0.14902 0.14902 C
(0.005) [6 3 6 6 10] 0 303.127 80.2248 10 /Helvetica SRX
grestore

gsave
0.14902 0.14902 0.14902 C
(0.01) [6 3 6 10] 0 309.127 98.5772 10 /Helvetica SRX
grestore

gsave
0.14902 0.14902 0.14902 C
(0.015) [6 3 6 6 10] 0 303.127 116.93 10 /Helvetica SRX
grestore

2 LC
[16 0] 0 setdash
335.131 47.52 LS
521.28 47.52 LE
335.131 120.93 LS
521.28 120.93 LE
335.131 47.52 LS
335.131 120.93 LE
521.28 47.52 LS
521.28 120.93 LE
gsave
0 0 0 C
(r_hat) [4 6 7 6 10] 0 414.706 132.93 11 /Helvetica-Bold SRX
grestore

1 W
0 LC
1 LJ
[] 0 setdash
0 0 0 C
335.131 110.285 LS
344.928 94.7834 L
354.726 81.6046 L
364.523 72.0177 L
374.32 66.0152 L
384.118 62.9399 L
393.915 61.9221 L
403.712 62.142 L
413.51 62.9542 L
423.307 63.9207 L
433.104 64.7891 L
442.901 65.4483 L
452.699 65.8796 L
462.496 66.115 L
472.293 66.2068 L
482.091 66.2081 L
491.888 66.1624 L
501.685 66.1008 L
511.483 66.0421 L
521.28 65.9953 LE
0.5 W
1 0 0 C
335.131 65.8724 LS
521.28 65.8724 LE
grestore
grestore
showpage
cleartomark
%%PageTrailer
%%Trailer
end
%%EOF
