%!PS-Adobe-3.0 EPSF-3.0
%%Title: gl2ps_renderer figure
%%Creator: GL2PS 1.4.0, (C) 1999-2017 C. Geuzaine
%%For: Octave
%%CreationDate: Fri Feb 28 14:24:07 2020
%%LanguageLevel: 3
%%DocumentData: Clean7Bit
%%Pages: 1
%%BoundingBox: 0 0 576 432
%%EndComments
%%BeginProlog
/gl2psdict 64 dict def gl2psdict begin
/tryPS3shading false def % set to false to force subdivision
/rThreshold 0.064 def % red component subdivision threshold
/gThreshold 0.034 def % green component subdivision threshold
/bThreshold 0.1 def % blue component subdivision threshold
/BD { bind def } bind def
/C  { setrgbcolor } BD
/G  { 0.082 mul exch 0.6094 mul add exch 0.3086 mul add neg 1.0 add setgray } BD
/W  { setlinewidth } BD
/LC  { setlinecap } BD
/LJ  { setlinejoin } BD
/FC { findfont exch /SH exch def SH scalefont setfont } BD
/SW { dup stringwidth pop } BD
/S  { FC moveto show } BD
/SBC{ FC moveto SW -2 div 0 rmoveto show } BD
/SBR{ FC moveto SW neg 0 rmoveto show } BD
/SCL{ FC moveto 0 SH -2 div rmoveto show } BD
/SCC{ FC moveto SW -2 div SH -2 div rmoveto show } BD
/SCR{ FC moveto SW neg SH -2 div rmoveto show } BD
/STL{ FC moveto 0 SH neg rmoveto show } BD
/STC{ FC moveto SW -2 div SH neg rmoveto show } BD
/STR{ FC moveto SW neg SH neg rmoveto show } BD
/FCT { FC translate 0 0 } BD
/SR  { gsave FCT moveto rotate show grestore } BD
/SRX  { gsave FCT moveto rotate xshow grestore } BD
/SBCR{ gsave FCT moveto rotate SW -2 div 0 rmoveto show grestore } BD
/SBRR{ gsave FCT moveto rotate SW neg 0 rmoveto show grestore } BD
/SCLR{ gsave FCT moveto rotate 0 SH -2 div rmoveto show grestore} BD
/SCCR{ gsave FCT moveto rotate SW -2 div SH -2 div rmoveto show grestore} BD
/SCRR{ gsave FCT moveto rotate SW neg SH -2 div rmoveto show grestore} BD
/STLR{ gsave FCT moveto rotate 0 SH neg rmoveto show grestore } BD
/STCR{ gsave FCT moveto rotate SW -2 div SH neg rmoveto show grestore } BD
/STRR{ gsave FCT moveto rotate SW neg SH neg rmoveto show grestore } BD
/P  { newpath 0.0 360.0 arc closepath fill } BD
/LS { newpath moveto } BD
/L  { lineto } BD
/LE { lineto stroke } BD
/T  { newpath moveto lineto lineto closepath fill } BD
/STshfill {
      /b1 exch def /g1 exch def /r1 exch def /y1 exch def /x1 exch def
      /b2 exch def /g2 exch def /r2 exch def /y2 exch def /x2 exch def
      /b3 exch def /g3 exch def /r3 exch def /y3 exch def /x3 exch def
      gsave << /ShadingType 4 /ColorSpace [/DeviceRGB]
      /DataSource [ 0 x1 y1 r1 g1 b1 0 x2 y2 r2 g2 b2 0 x3 y3 r3 g3 b3 ] >>
      shfill grestore } BD
/Tm { 3 -1 roll 8 -1 roll 13 -1 roll add add 3 div
      3 -1 roll 7 -1 roll 11 -1 roll add add 3 div
      3 -1 roll 6 -1 roll 9 -1 roll add add 3 div C T } BD
/STsplit {
      4 index 15 index add 0.5 mul
      4 index 15 index add 0.5 mul
      4 index 15 index add 0.5 mul
      4 index 15 index add 0.5 mul
      4 index 15 index add 0.5 mul
      5 copy 5 copy 25 15 roll
      9 index 30 index add 0.5 mul
      9 index 30 index add 0.5 mul
      9 index 30 index add 0.5 mul
      9 index 30 index add 0.5 mul
      9 index 30 index add 0.5 mul
      5 copy 5 copy 35 5 roll 25 5 roll 15 5 roll
      4 index 10 index add 0.5 mul
      4 index 10 index add 0.5 mul
      4 index 10 index add 0.5 mul
      4 index 10 index add 0.5 mul
      4 index 10 index add 0.5 mul
      5 copy 5 copy 40 5 roll 25 5 roll 15 5 roll 25 5 roll
      STnoshfill STnoshfill STnoshfill STnoshfill } BD
/STnoshfill {
      2 index 8 index sub abs rThreshold gt
      { STsplit }
      { 1 index 7 index sub abs gThreshold gt
        { STsplit }
        { dup 6 index sub abs bThreshold gt
          { STsplit }
          { 2 index 13 index sub abs rThreshold gt
            { STsplit }
            { 1 index 12 index sub abs gThreshold gt
              { STsplit }
              { dup 11 index sub abs bThreshold gt
                { STsplit }
                { 7 index 13 index sub abs rThreshold gt
                  { STsplit }
                  { 6 index 12 index sub abs gThreshold gt
                    { STsplit }
                    { 5 index 11 index sub abs bThreshold gt
                      { STsplit }
                      { Tm }
                      ifelse }
                    ifelse }
                  ifelse }
                ifelse }
              ifelse }
            ifelse }
          ifelse }
        ifelse }
      ifelse } BD
tryPS3shading
{ /shfill where
  { /ST { STshfill } BD }
  { /ST { STnoshfill } BD }
  ifelse }
{ /ST { STnoshfill } BD }
ifelse
end
%%EndProlog
%%BeginSetup
/DeviceRGB setcolorspace
gl2psdict begin
%%EndSetup
%%Page: 1 1
%%BeginPageSetup
%%EndPageSetup
mark
gsave
1.0 1.0 scale
1 1 1 C
newpath 0 0 moveto 576 0 lineto 576 432 lineto 0 432 lineto
closepath fill
gsave
1.0 1.0 scale
1 1 1 C
newpath 0 0 moveto 576 0 lineto 576 432 lineto 0 432 lineto
closepath fill
newpath 0 0 moveto 576 0 lineto 576 432 lineto 0 432 lineto
closepath clip
1 1 1 C
74.88 385.851 187.079 312.441 74.88 312.441 T
74.88 385.851 187.079 385.851 187.079 312.441 T
0.5 W
0.15 0.15 0.15 C
98.5008 312.441 LS
98.5008 313.57 LE
98.5008 385.851 LS
98.5008 384.723 LE
128.027 312.441 LS
128.027 313.57 LE
128.027 385.851 LS
128.027 384.723 LE
157.553 312.441 LS
157.553 313.57 LE
157.553 385.851 LS
157.553 384.723 LE
187.079 312.441 LS
187.079 313.57 LE
187.079 385.851 LS
187.079 384.723 LE
gsave
0.14902 0.14902 0.14902 C
(5) [10] 0 95.5008 296.899 10 /Helvetica SRX
grestore

gsave
0.14902 0.14902 0.14902 C
(10) [6 10] 0 122.027 296.899 10 /Helvetica SRX
grestore

gsave
0.14902 0.14902 0.14902 C
(15) [6 10] 0 151.553 296.899 10 /Helvetica SRX
grestore

gsave
0.14902 0.14902 0.14902 C
(20) [6 10] 0 181.079 296.899 10 /Helvetica SRX
grestore

74.88 312.441 LS
76.004 312.441 LE
187.079 312.441 LS
185.955 312.441 LE
74.88 330.794 LS
76.004 330.794 LE
187.079 330.794 LS
185.955 330.794 LE
74.88 349.146 LS
76.004 349.146 LE
187.079 349.146 LS
185.955 349.146 LE
74.88 367.499 LS
76.004 367.499 LE
187.079 367.499 LS
185.955 367.499 LE
74.88 385.851 LS
76.004 385.851 LE
187.079 385.851 LS
185.955 385.851 LE
gsave
0.14902 0.14902 0.14902 C
(-0.004) [3 6 3 6 6 10] 0 39.8711 308.441 10 /Helvetica SRX
grestore

gsave
0.14902 0.14902 0.14902 C
(-0.002) [3 6 3 6 6 10] 0 39.8711 326.794 10 /Helvetica SRX
grestore

gsave
0.14902 0.14902 0.14902 C
(0) [10] 0 63.8711 345.146 10 /Helvetica SRX
grestore

gsave
0.14902 0.14902 0.14902 C
(0.002) [6 3 6 6 10] 0 42.8711 363.499 10 /Helvetica SRX
grestore

gsave
0.14902 0.14902 0.14902 C
(0.004) [6 3 6 6 10] 0 42.8711 381.851 10 /Helvetica SRX
grestore

2 LC
[16 0] 0 setdash
74.88 312.441 LS
187.079 312.441 LE
74.88 385.851 LS
187.079 385.851 LE
74.88 312.441 LS
74.88 385.851 LE
187.079 312.441 LS
187.079 385.851 LE
gsave
0 0 0 C
(Y_hat) [7 6 7 6 10] 0 115.979 397.851 11 /Helvetica-Bold SRX
grestore

1 W
0 LC
1 LJ
[] 0 setdash
0 0 0 C
74.88 359.635 LS
80.7852 378.346 L
86.6904 316.899 L
92.5956 340.375 L
98.5008 350.316 L
104.406 354.936 L
110.311 357.26 L
116.216 358.466 L
122.122 359.056 L
128.027 359.275 L
133.932 359.263 L
139.837 359.108 L
145.742 358.873 L
151.648 358.597 L
157.553 358.311 L
163.458 358.03 L
169.363 357.765 L
175.268 357.519 L
181.173 357.294 L
187.079 357.088 LE
0.5 W
1 0 0 C
74.88 349.146 LS
187.079 349.146 LE
grestore
gsave
1.0 1.0 scale
newpath 0 0 moveto 576 0 lineto 576 432 lineto 0 432 lineto
closepath clip
1 1 1 C
241.981 385.851 354.179 312.441 241.981 312.441 T
241.981 385.851 354.179 385.851 354.179 312.441 T
0.5 W
0.15 0.15 0.15 C
265.601 312.441 LS
265.601 313.57 LE
265.601 385.851 LS
265.601 384.723 LE
295.127 312.441 LS
295.127 313.57 LE
295.127 385.851 LS
295.127 384.723 LE
324.653 312.441 LS
324.653 313.57 LE
324.653 385.851 LS
324.653 384.723 LE
354.179 312.441 LS
354.179 313.57 LE
354.179 385.851 LS
354.179 384.723 LE
gsave
0.14902 0.14902 0.14902 C
(5) [10] 0 262.601 296.899 10 /Helvetica SRX
grestore

gsave
0.14902 0.14902 0.14902 C
(10) [6 10] 0 289.127 296.899 10 /Helvetica SRX
grestore

gsave
0.14902 0.14902 0.14902 C
(15) [6 10] 0 318.653 296.899 10 /Helvetica SRX
grestore

gsave
0.14902 0.14902 0.14902 C
(20) [6 10] 0 348.179 296.899 10 /Helvetica SRX
grestore

241.981 312.441 LS
243.105 312.441 LE
354.179 312.441 LS
353.055 312.441 LE
241.981 322.928 LS
243.105 322.928 LE
354.179 322.928 LS
353.055 322.928 LE
241.981 333.416 LS
243.105 333.416 LE
354.179 333.416 LS
353.055 333.416 LE
241.981 343.903 LS
243.105 343.903 LE
354.179 343.903 LS
353.055 343.903 LE
241.981 354.39 LS
243.105 354.39 LE
354.179 354.39 LS
353.055 354.39 LE
241.981 364.877 LS
243.105 364.877 LE
354.179 364.877 LS
353.055 364.877 LE
241.981 375.364 LS
243.105 375.364 LE
354.179 375.364 LS
353.055 375.364 LE
241.981 385.851 LS
243.105 385.851 LE
354.179 385.851 LS
353.055 385.851 LE
gsave
0.14902 0.14902 0.14902 C
(0) [10] 0 230.972 308.441 10 /Helvetica SRX
grestore

gsave
0.14902 0.14902 0.14902 C
(0.0005) [6 3 6 6 6 10] 0 203.972 318.928 10 /Helvetica SRX
grestore

gsave
0.14902 0.14902 0.14902 C
(0.001) [6 3 6 6 10] 0 209.972 329.416 10 /Helvetica SRX
grestore

gsave
0.14902 0.14902 0.14902 C
(0.0015) [6 3 6 6 6 10] 0 203.972 339.903 10 /Helvetica SRX
grestore

gsave
0.14902 0.14902 0.14902 C
(0.002) [6 3 6 6 10] 0 209.972 350.39 10 /Helvetica SRX
grestore

gsave
0.14902 0.14902 0.14902 C
(0.0025) [6 3 6 6 6 10] 0 203.972 360.877 10 /Helvetica SRX
grestore

gsave
0.14902 0.14902 0.14902 C
(0.003) [6 3 6 6 10] 0 209.972 371.364 10 /Helvetica SRX
grestore

gsave
0.14902 0.14902 0.14902 C
(0.0035) [6 3 6 6 6 10] 0 203.972 381.851 10 /Helvetica SRX
grestore

2 LC
[16 0] 0 setdash
241.981 312.441 LS
354.179 312.441 LE
241.981 385.851 LS
354.179 385.851 LE
241.981 312.441 LS
241.981 385.851 LE
354.179 312.441 LS
354.179 385.851 LE
gsave
0 0 0 C
(C_hat) [8 6 7 6 10] 0 282.58 397.851 11 /Helvetica-Bold SRX
grestore

1 W
0 LC
1 LJ
[] 0 setdash
0 0 0 C
241.981 327.123 LS
247.886 345.775 L
253.791 370.967 L
259.696 377.132 L
265.601 376.518 L
271.507 373.413 L
277.412 369.386 L
283.317 365.063 L
289.222 360.732 L
295.127 356.553 L
301.033 352.625 L
306.938 349.011 L
312.843 345.747 L
318.748 342.845 L
324.653 340.298 L
330.559 338.087 L
336.464 336.182 L
342.369 334.549 L
348.274 333.155 L
354.179 331.965 LE
0.5 W
1 0 0 C
241.981 312.441 LS
354.179 312.441 LE
grestore
gsave
1.0 1.0 scale
newpath 0 0 moveto 576 0 lineto 576 432 lineto 0 432 lineto
closepath clip
1 1 1 C
409.081 385.851 521.28 312.441 409.081 312.441 T
409.081 385.851 521.28 385.851 521.28 312.441 T
0.5 W
0.15 0.15 0.15 C
432.702 312.441 LS
432.702 313.57 LE
432.702 385.851 LS
432.702 384.723 LE
462.228 312.441 LS
462.228 313.57 LE
462.228 385.851 LS
462.228 384.723 LE
491.754 312.441 LS
491.754 313.57 LE
491.754 385.851 LS
491.754 384.723 LE
521.28 312.441 LS
521.28 313.57 LE
521.28 385.851 LS
521.28 384.723 LE
gsave
0.14902 0.14902 0.14902 C
(5) [10] 0 429.702 296.899 10 /Helvetica SRX
grestore

gsave
0.14902 0.14902 0.14902 C
(10) [6 10] 0 456.228 296.899 10 /Helvetica SRX
grestore

gsave
0.14902 0.14902 0.14902 C
(15) [6 10] 0 485.754 296.899 10 /Helvetica SRX
grestore

gsave
0.14902 0.14902 0.14902 C
(20) [6 10] 0 515.28 296.899 10 /Helvetica SRX
grestore

409.081 312.441 LS
410.205 312.441 LE
521.28 312.441 LS
520.156 312.441 LE
409.081 324.676 LS
410.205 324.676 LE
521.28 324.676 LS
520.156 324.676 LE
409.081 336.911 LS
410.205 336.911 LE
521.28 336.911 LS
520.156 336.911 LE
409.081 349.146 LS
410.205 349.146 LE
521.28 349.146 LS
520.156 349.146 LE
409.081 361.381 LS
410.205 361.381 LE
521.28 361.381 LS
520.156 361.381 LE
409.081 373.616 LS
410.205 373.616 LE
521.28 373.616 LS
520.156 373.616 LE
409.081 385.851 LS
410.205 385.851 LE
521.28 385.851 LS
520.156 385.851 LE
gsave
0.14902 0.14902 0.14902 C
(0) [10] 0 398.072 308.441 10 /Helvetica SRX
grestore

gsave
0.14902 0.14902 0.14902 C
(0.001) [6 3 6 6 10] 0 377.072 320.676 10 /Helvetica SRX
grestore

gsave
0.14902 0.14902 0.14902 C
(0.002) [6 3 6 6 10] 0 377.072 332.911 10 /Helvetica SRX
grestore

gsave
0.14902 0.14902 0.14902 C
(0.003) [6 3 6 6 10] 0 377.072 345.146 10 /Helvetica SRX
grestore

gsave
0.14902 0.14902 0.14902 C
(0.004) [6 3 6 6 10] 0 377.072 357.381 10 /Helvetica SRX
grestore

gsave
0.14902 0.14902 0.14902 C
(0.005) [6 3 6 6 10] 0 377.072 369.616 10 /Helvetica SRX
grestore

gsave
0.14902 0.14902 0.14902 C
(0.006) [6 3 6 6 10] 0 377.072 381.851 10 /Helvetica SRX
grestore

2 LC
[16 0] 0 setdash
409.081 312.441 LS
521.28 312.441 LE
409.081 385.851 LS
521.28 385.851 LE
409.081 312.441 LS
409.081 385.851 LE
521.28 312.441 LS
521.28 385.851 LE
gsave
0 0 0 C
(I_hat) [3 6 7 6 10] 0 452.181 397.851 11 /Helvetica-Bold SRX
grestore

1 W
0 LC
1 LJ
[] 0 setdash
0 0 0 C
409.081 354.801 LS
414.987 349.2 L
420.892 357.23 L
426.797 366.894 L
432.702 373.067 L
438.607 374.467 L
444.513 371.733 L
450.418 366.241 L
456.323 359.429 L
462.228 352.45 L
468.133 346.064 L
474.038 340.662 L
479.944 336.354 L
485.849 333.064 L
491.754 330.623 L
497.659 328.836 L
503.564 327.519 L
509.47 326.521 L
515.375 325.731 L
521.28 325.074 LE
0.5 W
1 0 0 C
409.081 312.441 LS
521.28 312.441 LE
grestore
gsave
1.0 1.0 scale
newpath 0 0 moveto 576 0 lineto 576 432 lineto 0 432 lineto
closepath clip
1 1 1 C
74.88 253.39 187.079 179.981 74.88 179.981 T
74.88 253.39 187.079 253.39 187.079 179.981 T
0.5 W
0.15 0.15 0.15 C
98.5008 179.981 LS
98.5008 181.109 LE
98.5008 253.39 LS
98.5008 252.262 LE
128.027 179.981 LS
128.027 181.109 LE
128.027 253.39 LS
128.027 252.262 LE
157.553 179.981 LS
157.553 181.109 LE
157.553 253.39 LS
157.553 252.262 LE
187.079 179.981 LS
187.079 181.109 LE
187.079 253.39 LS
187.079 252.262 LE
gsave
0.14902 0.14902 0.14902 C
(5) [10] 0 95.5008 164.439 10 /Helvetica SRX
grestore

gsave
0.14902 0.14902 0.14902 C
(10) [6 10] 0 122.027 164.439 10 /Helvetica SRX
grestore

gsave
0.14902 0.14902 0.14902 C
(15) [6 10] 0 151.553 164.439 10 /Helvetica SRX
grestore

gsave
0.14902 0.14902 0.14902 C
(20) [6 10] 0 181.079 164.439 10 /Helvetica SRX
grestore

74.88 179.981 LS
76.004 179.981 LE
187.079 179.981 LS
185.955 179.981 LE
74.88 194.663 LS
76.004 194.663 LE
187.079 194.663 LS
185.955 194.663 LE
74.88 209.345 LS
76.004 209.345 LE
187.079 209.345 LS
185.955 209.345 LE
74.88 224.026 LS
76.004 224.026 LE
187.079 224.026 LS
185.955 224.026 LE
74.88 238.708 LS
76.004 238.708 LE
187.079 238.708 LS
185.955 238.708 LE
74.88 253.39 LS
76.004 253.39 LE
187.079 253.39 LS
185.955 253.39 LE
gsave
0.14902 0.14902 0.14902 C
(0) [10] 0 63.8711 175.981 10 /Helvetica SRX
grestore

gsave
0.14902 0.14902 0.14902 C
(0.0005) [6 3 6 6 6 10] 0 36.8711 190.663 10 /Helvetica SRX
grestore

gsave
0.14902 0.14902 0.14902 C
(0.001) [6 3 6 6 10] 0 42.8711 205.345 10 /Helvetica SRX
grestore

gsave
0.14902 0.14902 0.14902 C
(0.0015) [6 3 6 6 6 10] 0 36.8711 220.026 10 /Helvetica SRX
grestore

gsave
0.14902 0.14902 0.14902 C
(0.002) [6 3 6 6 10] 0 42.8711 234.708 10 /Helvetica SRX
grestore

gsave
0.14902 0.14902 0.14902 C
(0.0025) [6 3 6 6 6 10] 0 36.8711 249.39 10 /Helvetica SRX
grestore

2 LC
[16 0] 0 setdash
74.88 179.981 LS
187.079 179.981 LE
74.88 253.39 LS
187.079 253.39 LE
74.88 179.981 LS
74.88 253.39 LE
187.079 179.981 LS
187.079 253.39 LE
gsave
0 0 0 C
(L_hat) [7 6 7 6 10] 0 115.979 265.39 11 /Helvetica-Bold SRX
grestore

1 W
0 LC
1 LJ
[] 0 setdash
0 0 0 C
74.88 207.037 LS
80.7852 233.239 L
86.6904 245.542 L
92.5956 248.822 L
98.5008 247.903 L
104.406 244.968 L
110.311 241.041 L
116.216 236.641 L
122.122 232.071 L
128.027 227.534 L
133.932 223.177 L
139.837 219.105 L
145.742 215.386 L
151.648 212.056 L
157.553 209.123 L
163.458 206.572 L
169.363 204.376 L
175.268 202.498 L
181.173 200.9 L
187.079 199.541 LE
0.5 W
1 0 0 C
74.88 179.981 LS
187.079 179.981 LE
grestore
gsave
1.0 1.0 scale
newpath 0 0 moveto 576 0 lineto 576 432 lineto 0 432 lineto
closepath clip
1 1 1 C
241.981 253.39 354.179 179.981 241.981 179.981 T
241.981 253.39 354.179 253.39 354.179 179.981 T
0.5 W
0.15 0.15 0.15 C
265.601 179.981 LS
265.601 181.109 LE
265.601 253.39 LS
265.601 252.262 LE
295.127 179.981 LS
295.127 181.109 LE
295.127 253.39 LS
295.127 252.262 LE
324.653 179.981 LS
324.653 181.109 LE
324.653 253.39 LS
324.653 252.262 LE
354.179 179.981 LS
354.179 181.109 LE
354.179 253.39 LS
354.179 252.262 LE
gsave
0.14902 0.14902 0.14902 C
(5) [10] 0 262.601 164.439 10 /Helvetica SRX
grestore

gsave
0.14902 0.14902 0.14902 C
(10) [6 10] 0 289.127 164.439 10 /Helvetica SRX
grestore

gsave
0.14902 0.14902 0.14902 C
(15) [6 10] 0 318.653 164.439 10 /Helvetica SRX
grestore

gsave
0.14902 0.14902 0.14902 C
(20) [6 10] 0 348.179 164.439 10 /Helvetica SRX
grestore

241.981 179.981 LS
243.105 179.981 LE
354.179 179.981 LS
353.055 179.981 LE
241.981 194.663 LS
243.105 194.663 LE
354.179 194.663 LS
353.055 194.663 LE
241.981 209.345 LS
243.105 209.345 LE
354.179 209.345 LS
353.055 209.345 LE
241.981 224.026 LS
243.105 224.026 LE
354.179 224.026 LS
353.055 224.026 LE
241.981 238.708 LS
243.105 238.708 LE
354.179 238.708 LS
353.055 238.708 LE
241.981 253.39 LS
243.105 253.39 LE
354.179 253.39 LS
353.055 253.39 LE
gsave
0.14902 0.14902 0.14902 C
(-0.001) [3 6 3 6 6 10] 0 206.972 175.981 10 /Helvetica SRX
grestore

gsave
0.14902 0.14902 0.14902 C
(-0.0005) [3 6 3 6 6 6 10] 0 200.972 190.663 10 /Helvetica SRX
grestore

gsave
0.14902 0.14902 0.14902 C
(0) [10] 0 230.972 205.345 10 /Helvetica SRX
grestore

gsave
0.14902 0.14902 0.14902 C
(0.0005) [6 3 6 6 6 10] 0 203.972 220.026 10 /Helvetica SRX
grestore

gsave
0.14902 0.14902 0.14902 C
(0.001) [6 3 6 6 10] 0 209.972 234.708 10 /Helvetica SRX
grestore

gsave
0.14902 0.14902 0.14902 C
(0.0015) [6 3 6 6 6 10] 0 203.972 249.39 10 /Helvetica SRX
grestore

2 LC
[16 0] 0 setdash
241.981 179.981 LS
354.179 179.981 LE
241.981 253.39 LS
354.179 253.39 LE
241.981 179.981 LS
241.981 253.39 LE
354.179 179.981 LS
354.179 253.39 LE
gsave
0 0 0 C
(tb_y_hat) [4 7 6 6 6 7 6 10] 0 275.08 266.39 11 /Helvetica-Bold SRX
grestore

1 W
0 LC
1 LJ
[] 0 setdash
0 0 0 C
241.981 191.894 LS
247.886 191.13 L
253.791 248.639 L
259.696 226.577 L
265.601 213.944 L
271.507 206.991 L
277.412 203.78 L
283.317 202.958 L
289.222 203.491 L
295.127 204.63 L
301.033 205.886 L
306.938 206.986 L
312.843 207.818 L
318.748 208.37 L
324.653 208.688 L
330.559 208.834 L
336.464 208.872 L
342.369 208.853 L
348.274 208.813 L
354.179 208.774 LE
0.5 W
1 0 0 C
241.981 209.345 LS
354.179 209.345 LE
grestore
gsave
1.0 1.0 scale
newpath 0 0 moveto 576 0 lineto 576 432 lineto 0 432 lineto
closepath clip
1 1 1 C
409.081 253.39 521.28 179.981 409.081 179.981 T
409.081 253.39 521.28 253.39 521.28 179.981 T
0.5 W
0.15 0.15 0.15 C
432.702 179.981 LS
432.702 181.109 LE
432.702 253.39 LS
432.702 252.262 LE
462.228 179.981 LS
462.228 181.109 LE
462.228 253.39 LS
462.228 252.262 LE
491.754 179.981 LS
491.754 181.109 LE
491.754 253.39 LS
491.754 252.262 LE
521.28 179.981 LS
521.28 181.109 LE
521.28 253.39 LS
521.28 252.262 LE
gsave
0.14902 0.14902 0.14902 C
(5) [10] 0 429.702 164.439 10 /Helvetica SRX
grestore

gsave
0.14902 0.14902 0.14902 C
(10) [6 10] 0 456.228 164.439 10 /Helvetica SRX
grestore

gsave
0.14902 0.14902 0.14902 C
(15) [6 10] 0 485.754 164.439 10 /Helvetica SRX
grestore

gsave
0.14902 0.14902 0.14902 C
(20) [6 10] 0 515.28 164.439 10 /Helvetica SRX
grestore

409.081 179.981 LS
410.205 179.981 LE
521.28 179.981 LS
520.156 179.981 LE
409.081 190.468 LS
410.205 190.468 LE
521.28 190.468 LS
520.156 190.468 LE
409.081 200.955 LS
410.205 200.955 LE
521.28 200.955 LS
520.156 200.955 LE
409.081 211.442 LS
410.205 211.442 LE
521.28 211.442 LS
520.156 211.442 LE
409.081 221.929 LS
410.205 221.929 LE
521.28 221.929 LS
520.156 221.929 LE
409.081 232.416 LS
410.205 232.416 LE
521.28 232.416 LS
520.156 232.416 LE
409.081 242.903 LS
410.205 242.903 LE
521.28 242.903 LS
520.156 242.903 LE
409.081 253.39 LS
410.205 253.39 LE
521.28 253.39 LS
520.156 253.39 LE
gsave
0.14902 0.14902 0.14902 C
(-0.001) [3 6 3 6 6 10] 0 374.072 175.981 10 /Helvetica SRX
grestore

gsave
0.14902 0.14902 0.14902 C
(0) [10] 0 398.072 186.468 10 /Helvetica SRX
grestore

gsave
0.14902 0.14902 0.14902 C
(0.001) [6 3 6 6 10] 0 377.072 196.955 10 /Helvetica SRX
grestore

gsave
0.14902 0.14902 0.14902 C
(0.002) [6 3 6 6 10] 0 377.072 207.442 10 /Helvetica SRX
grestore

gsave
0.14902 0.14902 0.14902 C
(0.003) [6 3 6 6 10] 0 377.072 217.929 10 /Helvetica SRX
grestore

gsave
0.14902 0.14902 0.14902 C
(0.004) [6 3 6 6 10] 0 377.072 228.416 10 /Helvetica SRX
grestore

gsave
0.14902 0.14902 0.14902 C
(0.005) [6 3 6 6 10] 0 377.072 238.903 10 /Helvetica SRX
grestore

gsave
0.14902 0.14902 0.14902 C
(0.006) [6 3 6 6 10] 0 377.072 249.39 10 /Helvetica SRX
grestore

2 LC
[16 0] 0 setdash
409.081 179.981 LS
521.28 179.981 LE
409.081 253.39 LS
521.28 253.39 LE
409.081 179.981 LS
409.081 253.39 LE
521.28 179.981 LS
521.28 253.39 LE
gsave
0 0 0 C
(A_N_hat) [8 6 8 6 7 6 10] 0 442.681 265.39 11 /Helvetica-Bold SRX
grestore

1 W
0 LC
1 LJ
[] 0 setdash
0 0 0 C
409.081 190.468 LS
414.987 190.468 L
420.892 249.195 L
426.797 239.799 L
432.702 231.906 L
438.607 225.276 L
444.513 219.707 L
450.418 215.028 L
456.323 211.099 L
462.228 207.798 L
468.133 205.025 L
474.038 202.696 L
479.944 200.739 L
485.849 199.096 L
491.754 197.715 L
497.659 196.556 L
503.564 195.582 L
509.47 194.763 L
515.375 194.076 L
521.28 193.499 LE
0.5 W
1 0 0 C
409.081 190.468 LS
521.28 190.468 LE
grestore
gsave
1.0 1.0 scale
newpath 0 0 moveto 576 0 lineto 576 432 lineto 0 432 lineto
closepath clip
1 1 1 C
74.88 120.93 187.079 47.52 74.88 47.52 T
74.88 120.93 187.079 120.93 187.079 47.52 T
0.5 W
0.15 0.15 0.15 C
98.5008 47.52 LS
98.5008 48.6483 LE
98.5008 120.93 LS
98.5008 119.801 LE
128.027 47.52 LS
128.027 48.6483 LE
128.027 120.93 LS
128.027 119.801 LE
157.553 47.52 LS
157.553 48.6483 LE
157.553 120.93 LS
157.553 119.801 LE
187.079 47.52 LS
187.079 48.6483 LE
187.079 120.93 LS
187.079 119.801 LE
gsave
0.14902 0.14902 0.14902 C
(5) [10] 0 95.5008 31.9779 10 /Helvetica SRX
grestore

gsave
0.14902 0.14902 0.14902 C
(10) [6 10] 0 122.027 31.9779 10 /Helvetica SRX
grestore

gsave
0.14902 0.14902 0.14902 C
(15) [6 10] 0 151.553 31.9779 10 /Helvetica SRX
grestore

gsave
0.14902 0.14902 0.14902 C
(20) [6 10] 0 181.079 31.9779 10 /Helvetica SRX
grestore

74.88 47.52 LS
76.004 47.52 LE
187.079 47.52 LS
185.955 47.52 LE
74.88 62.2019 LS
76.004 62.2019 LE
187.079 62.2019 LS
185.955 62.2019 LE
74.88 76.8839 LS
76.004 76.8839 LE
187.079 76.8839 LS
185.955 76.8839 LE
74.88 91.5658 LS
76.004 91.5658 LE
187.079 91.5658 LS
185.955 91.5658 LE
74.88 106.248 LS
76.004 106.248 LE
187.079 106.248 LS
185.955 106.248 LE
74.88 120.93 LS
76.004 120.93 LE
187.079 120.93 LS
185.955 120.93 LE
gsave
0.14902 0.14902 0.14902 C
(-0.0001) [3 6 3 6 6 6 10] 0 33.8711 43.52 10 /Helvetica SRX
grestore

gsave
0.14902 0.14902 0.14902 C
(-5e-05) [3 6 5 3 6 10] 0 40.8711 58.2019 10 /Helvetica SRX
grestore

gsave
0.14902 0.14902 0.14902 C
(0) [10] 0 63.8711 72.8839 10 /Helvetica SRX
grestore

gsave
0.14902 0.14902 0.14902 C
(5e-05) [6 5 3 6 10] 0 43.8711 87.5658 10 /Helvetica SRX
grestore

gsave
0.14902 0.14902 0.14902 C
(0.0001) [6 3 6 6 6 10] 0 36.8711 102.248 10 /Helvetica SRX
grestore

gsave
0.14902 0.14902 0.14902 C
(0.00015) [6 3 6 6 6 6 10] 0 30.8711 116.93 10 /Helvetica SRX
grestore

2 LC
[16 0] 0 setdash
74.88 47.52 LS
187.079 47.52 LE
74.88 120.93 LS
187.079 120.93 LE
74.88 47.52 LS
74.88 120.93 LE
187.079 47.52 LS
187.079 120.93 LE
gsave
0 0 0 C
(r_hat) [4 6 7 6 10] 0 117.479 132.93 11 /Helvetica-Bold SRX
grestore

1 W
0 LC
1 LJ
[] 0 setdash
0 0 0 C
74.88 76.8839 LS
80.7852 88.8967 L
86.6904 110.817 L
92.5956 102.422 L
98.5008 85.3723 L
104.406 69.4932 L
110.311 58.4965 L
116.216 52.8898 L
122.122 51.6785 L
128.027 53.3828 L
133.932 56.5985 L
139.837 60.2497 L
145.742 63.6469 L
151.648 66.4406 L
157.553 68.5297 L
163.458 69.9675 L
169.363 70.8823 L
175.268 71.4215 L
181.173 71.7191 L
187.079 71.8797 LE
0.5 W
1 0 0 C
74.88 76.8839 LS
187.079 76.8839 LE
grestore
grestore
showpage
cleartomark
%%PageTrailer
%%Trailer
end
%%EOF
