\relax 
\providecommand\hyper@newdestlabel[2]{}
\providecommand\HyperFirstAtBeginDocument{\AtBeginDocument}
\HyperFirstAtBeginDocument{\ifx\hyper@anchor\@undefined
\global\let\oldcontentsline\contentsline
\gdef\contentsline#1#2#3#4{\oldcontentsline{#1}{#2}{#3}}
\global\let\oldnewlabel\newlabel
\gdef\newlabel#1#2{\newlabelxx{#1}#2}
\gdef\newlabelxx#1#2#3#4#5#6{\oldnewlabel{#1}{{#2}{#3}}}
\AtEndDocument{\ifx\hyper@anchor\@undefined
\let\contentsline\oldcontentsline
\let\newlabel\oldnewlabel
\fi}
\fi}
\global\let\hyper@last\relax 
\gdef\HyperFirstAtBeginDocument#1{#1}
\providecommand*\HyPL@Entry[1]{}
\gdef \LT@i {\LT@entry 
    {5}{32.42648pt}\LT@entry 
    {5}{38.666pt}\LT@entry 
    {5}{39.77777pt}\LT@entry 
    {5}{39.77777pt}\LT@entry 
    {5}{39.77777pt}\LT@entry 
    {5}{39.77777pt}\LT@entry 
    {1}{48.6666pt}\LT@entry 
    {1}{52.33333pt}}
\gdef \LT@ii {\LT@entry 
    {5}{52.0216pt}\LT@entry 
    {5}{38.666pt}\LT@entry 
    {1}{36.167pt}\LT@entry 
    {5}{39.77777pt}\LT@entry 
    {1}{36.167pt}\LT@entry 
    {5}{39.77777pt}\LT@entry 
    {1}{48.6666pt}\LT@entry 
    {1}{52.33333pt}}
\HyPL@Entry{0<</S/D>>}
\providecommand \oddpage@label [2]{}
\@writefile{toc}{\contentsline {section}{\numberline {1}Model with Adjustment Cost to Capital and Labor}{1}{section.1}\protected@file@percent }
\@writefile{toc}{\contentsline {subsection}{\numberline {1.1}Posterior Mean}{1}{subsection.1.1}\protected@file@percent }
\@writefile{lot}{\contentsline {table}{\numberline {1}{\ignorespaces Results from Metropolis-Hastings (parameters)\relax }}{1}{table.1}\protected@file@percent }
\newlabel{Table:MHPosterior:1}{{1}{1}{Results from Metropolis-Hastings (parameters)\relax }{table.1}{}}
\@writefile{lot}{\contentsline {table}{\numberline {2}{\ignorespaces Results from Metropolis-Hastings (standard deviation of structural shocks)\relax }}{1}{table.2}\protected@file@percent }
\newlabel{Table:MHPosterior:2}{{2}{1}{Results from Metropolis-Hastings (standard deviation of structural shocks)\relax }{table.2}{}}
\@writefile{lot}{\contentsline {table}{\numberline {2}{\ignorespaces (continued)\relax }}{2}{table.2}\protected@file@percent }
