%!PS-Adobe-3.0 EPSF-3.0
%%Title: gl2ps_renderer figure
%%Creator: GL2PS 1.4.2, (C) 1999-2020 C. Geuzaine
%%For: Octave
%%CreationDate: Wed Oct  7 07:02:38 2020
%%LanguageLevel: 3
%%DocumentData: Clean7Bit
%%Pages: 1
%%BoundingBox: 0 0 576 432
%%EndComments
%%BeginProlog
/gl2psdict 64 dict def gl2psdict begin
/tryPS3shading false def % set to false to force subdivision
/rThreshold 0.064 def % red component subdivision threshold
/gThreshold 0.034 def % green component subdivision threshold
/bThreshold 0.1 def % blue component subdivision threshold
/BD { bind def } bind def
/C  { setrgbcolor } BD
/G  { 0.082 mul exch 0.6094 mul add exch 0.3086 mul add neg 1.0 add setgray } BD
/W  { setlinewidth } BD
/LC  { setlinecap } BD
/LJ  { setlinejoin } BD
/FC { findfont exch /SH exch def SH scalefont setfont } BD
/SW { dup stringwidth pop } BD
/S  { FC moveto show } BD
/SBC{ FC moveto SW -2 div 0 rmoveto show } BD
/SBR{ FC moveto SW neg 0 rmoveto show } BD
/SCL{ FC moveto 0 SH -2 div rmoveto show } BD
/SCC{ FC moveto SW -2 div SH -2 div rmoveto show } BD
/SCR{ FC moveto SW neg SH -2 div rmoveto show } BD
/STL{ FC moveto 0 SH neg rmoveto show } BD
/STC{ FC moveto SW -2 div SH neg rmoveto show } BD
/STR{ FC moveto SW neg SH neg rmoveto show } BD
/FCT { FC translate 0 0 } BD
/SR  { gsave FCT moveto rotate show grestore } BD
/SRX  { gsave FCT moveto rotate xshow grestore } BD
/SBCR{ gsave FCT moveto rotate SW -2 div 0 rmoveto show grestore } BD
/SBRR{ gsave FCT moveto rotate SW neg 0 rmoveto show grestore } BD
/SCLR{ gsave FCT moveto rotate 0 SH -2 div rmoveto show grestore} BD
/SCCR{ gsave FCT moveto rotate SW -2 div SH -2 div rmoveto show grestore} BD
/SCRR{ gsave FCT moveto rotate SW neg SH -2 div rmoveto show grestore} BD
/STLR{ gsave FCT moveto rotate 0 SH neg rmoveto show grestore } BD
/STCR{ gsave FCT moveto rotate SW -2 div SH neg rmoveto show grestore } BD
/STRR{ gsave FCT moveto rotate SW neg SH neg rmoveto show grestore } BD
/P  { newpath 0.0 360.0 arc closepath fill } BD
/LS { newpath moveto } BD
/L  { lineto } BD
/LE { lineto stroke } BD
/T  { newpath moveto lineto lineto closepath fill } BD
/STshfill {
      /b1 exch def /g1 exch def /r1 exch def /y1 exch def /x1 exch def
      /b2 exch def /g2 exch def /r2 exch def /y2 exch def /x2 exch def
      /b3 exch def /g3 exch def /r3 exch def /y3 exch def /x3 exch def
      gsave << /ShadingType 4 /ColorSpace [/DeviceRGB]
      /DataSource [ 0 x1 y1 r1 g1 b1 0 x2 y2 r2 g2 b2 0 x3 y3 r3 g3 b3 ] >>
      shfill grestore } BD
/Tm { 3 -1 roll 8 -1 roll 13 -1 roll add add 3 div
      3 -1 roll 7 -1 roll 11 -1 roll add add 3 div
      3 -1 roll 6 -1 roll 9 -1 roll add add 3 div C T } BD
/STsplit {
      4 index 15 index add 0.5 mul
      4 index 15 index add 0.5 mul
      4 index 15 index add 0.5 mul
      4 index 15 index add 0.5 mul
      4 index 15 index add 0.5 mul
      5 copy 5 copy 25 15 roll
      9 index 30 index add 0.5 mul
      9 index 30 index add 0.5 mul
      9 index 30 index add 0.5 mul
      9 index 30 index add 0.5 mul
      9 index 30 index add 0.5 mul
      5 copy 5 copy 35 5 roll 25 5 roll 15 5 roll
      4 index 10 index add 0.5 mul
      4 index 10 index add 0.5 mul
      4 index 10 index add 0.5 mul
      4 index 10 index add 0.5 mul
      4 index 10 index add 0.5 mul
      5 copy 5 copy 40 5 roll 25 5 roll 15 5 roll 25 5 roll
      STnoshfill STnoshfill STnoshfill STnoshfill } BD
/STnoshfill {
      2 index 8 index sub abs rThreshold gt
      { STsplit }
      { 1 index 7 index sub abs gThreshold gt
        { STsplit }
        { dup 6 index sub abs bThreshold gt
          { STsplit }
          { 2 index 13 index sub abs rThreshold gt
            { STsplit }
            { 1 index 12 index sub abs gThreshold gt
              { STsplit }
              { dup 11 index sub abs bThreshold gt
                { STsplit }
                { 7 index 13 index sub abs rThreshold gt
                  { STsplit }
                  { 6 index 12 index sub abs gThreshold gt
                    { STsplit }
                    { 5 index 11 index sub abs bThreshold gt
                      { STsplit }
                      { Tm }
                      ifelse }
                    ifelse }
                  ifelse }
                ifelse }
              ifelse }
            ifelse }
          ifelse }
        ifelse }
      ifelse } BD
tryPS3shading
{ /shfill where
  { /ST { STshfill } BD }
  { /ST { STnoshfill } BD }
  ifelse }
{ /ST { STnoshfill } BD }
ifelse
end
%%EndProlog
%%BeginSetup
/DeviceRGB setcolorspace
gl2psdict begin
%%EndSetup
%%Page: 1 1
%%BeginPageSetup
%%EndPageSetup
mark
gsave
1.0 1.0 scale
1 1 1 C
newpath 0 0 moveto 576 0 lineto 576 432 lineto 0 432 lineto
closepath fill
gsave
1.0 1.0 scale
1 1 1 C
newpath 0 0 moveto 576 0 lineto 576 432 lineto 0 432 lineto
closepath fill
newpath 0 0 moveto 576 0 lineto 576 432 lineto 0 432 lineto
closepath clip
1 1 1 C
74.88 385.841 187.093 312.427 74.88 312.427 T
74.88 385.841 187.093 385.841 187.093 312.427 T
0.5 W
0.15 0.15 0.15 C
98.5037 312.427 LS
98.5037 313.556 LE
98.5037 385.841 LS
98.5037 384.712 LE
128.033 312.427 LS
128.033 313.556 LE
128.033 385.841 LS
128.033 384.712 LE
157.563 312.427 LS
157.563 313.556 LE
157.563 385.841 LS
157.563 384.712 LE
187.093 312.427 LS
187.093 313.556 LE
187.093 385.841 LS
187.093 384.712 LE
gsave
0.14902 0.14902 0.14902 C
(5) [10] 0 95.5037 296.885 10 /Helvetica SRX
grestore

gsave
0.14902 0.14902 0.14902 C
(10) [6 10] 0 122.033 296.885 10 /Helvetica SRX
grestore

gsave
0.14902 0.14902 0.14902 C
(15) [6 10] 0 151.563 296.885 10 /Helvetica SRX
grestore

gsave
0.14902 0.14902 0.14902 C
(20) [6 10] 0 181.093 296.885 10 /Helvetica SRX
grestore

74.88 313.529 LS
76.0043 313.529 LE
187.093 313.529 LS
185.968 313.529 LE
74.88 325.581 LS
76.0043 325.581 LE
187.093 325.581 LS
185.968 325.581 LE
74.88 337.633 LS
76.0043 337.633 LE
187.093 337.633 LS
185.968 337.633 LE
74.88 349.685 LS
76.0043 349.685 LE
187.093 349.685 LS
185.968 349.685 LE
74.88 361.737 LS
76.0043 361.737 LE
187.093 361.737 LS
185.968 361.737 LE
74.88 373.789 LS
76.0043 373.789 LE
187.093 373.789 LS
185.968 373.789 LE
74.88 385.841 LS
76.0043 385.841 LE
187.093 385.841 LS
185.968 385.841 LE
gsave
0.14902 0.14902 0.14902 C
(-0.00012) [3 6 3 6 6 6 6 10] 0 27.8705 309.529 10 /Helvetica SRX
grestore

gsave
0.14902 0.14902 0.14902 C
(-0.0001) [3 6 3 6 6 6 10] 0 33.8705 321.581 10 /Helvetica SRX
grestore

gsave
0.14902 0.14902 0.14902 C
(-8e-05) [3 6 5 3 6 10] 0 40.8705 333.633 10 /Helvetica SRX
grestore

gsave
0.14902 0.14902 0.14902 C
(-6e-05) [3 6 5 3 6 10] 0 40.8705 345.685 10 /Helvetica SRX
grestore

gsave
0.14902 0.14902 0.14902 C
(-4e-05) [3 6 5 3 6 10] 0 40.8705 357.737 10 /Helvetica SRX
grestore

gsave
0.14902 0.14902 0.14902 C
(-2e-05) [3 6 5 3 6 10] 0 40.8705 369.789 10 /Helvetica SRX
grestore

gsave
0.14902 0.14902 0.14902 C
(0) [10] 0 63.8705 381.841 10 /Helvetica SRX
grestore

2 LC
[16 0] 0 setdash
74.88 312.427 LS
187.093 312.427 LE
74.88 385.841 LS
187.093 385.841 LE
74.88 312.427 LS
74.88 385.841 LE
187.093 312.427 LS
187.093 385.841 LE
gsave
0 0 0 C
(r_hat) [4 6 7 6 10] 0 117.486 397.841 11 /Helvetica-Bold SRX
grestore

0.9 0.9 0.9 C
74.88 312.427 74.88 385.841 80.7859 312.427 T
80.7859 379.341 80.7859 312.427 74.88 385.841 T
86.6918 312.427 80.7859 312.427 80.7859 379.341 T
86.6918 372.694 86.6918 312.427 80.7859 379.341 T
92.5978 312.427 86.6918 312.427 86.6918 372.694 T
92.5978 367.623 92.5978 312.427 86.6918 372.694 T
98.5037 312.427 92.5978 312.427 92.5978 367.623 T
98.5037 362.876 98.5037 312.427 92.5978 367.623 T
104.41 312.427 98.5037 312.427 98.5037 362.876 T
104.41 359.241 104.41 312.427 98.5037 362.876 T
110.316 312.427 104.41 312.427 104.41 359.241 T
110.316 354.785 110.316 312.427 104.41 359.241 T
116.221 312.427 110.316 312.427 110.316 354.785 T
116.221 354.873 116.221 312.427 110.316 354.785 T
122.127 312.427 116.221 312.427 116.221 354.873 T
122.127 351.602 122.127 312.427 116.221 354.873 T
128.033 312.427 122.127 312.427 122.127 351.602 T
128.033 350.128 128.033 312.427 122.127 351.602 T
133.939 312.427 128.033 312.427 128.033 350.128 T
133.939 347.998 133.939 312.427 128.033 350.128 T
139.845 312.427 133.939 312.427 133.939 347.998 T
139.845 347.403 139.845 312.427 133.939 347.998 T
145.751 312.427 139.845 312.427 139.845 347.403 T
145.751 346.595 145.751 312.427 139.845 347.403 T
151.657 312.427 145.751 312.427 145.751 346.595 T
151.657 345.738 151.657 312.427 145.751 346.595 T
157.563 312.427 151.657 312.427 151.657 345.738 T
157.563 346.356 157.563 312.427 151.657 345.738 T
163.469 312.427 157.563 312.427 157.563 346.356 T
163.469 344.474 163.469 312.427 157.563 346.356 T
169.375 312.427 163.469 312.427 163.469 344.474 T
169.375 345.697 169.375 312.427 163.469 344.474 T
175.281 312.427 169.375 312.427 169.375 345.697 T
175.281 345.986 175.281 312.427 169.375 345.697 T
181.187 312.427 175.281 312.427 175.281 345.986 T
181.187 346.707 181.187 312.427 175.281 345.986 T
187.093 312.427 181.187 312.427 181.187 346.707 T
187.093 347.528 187.093 312.427 181.187 346.707 T
0 LC
[] 0 setdash
0 0 0 C
187.093 347.528 LS
181.187 346.707 L
175.281 345.986 L
169.375 345.697 L
163.469 344.474 L
157.563 346.356 L
151.657 345.738 L
145.751 346.595 L
139.845 347.403 L
133.939 347.998 L
128.033 350.128 L
122.127 351.602 L
116.221 354.873 L
110.316 354.785 L
104.41 359.241 L
98.5037 362.876 L
92.5978 367.623 L
86.6918 372.694 L
80.7859 379.341 L
74.88 385.841 L
74.88 312.427 L
80.7859 312.427 L
86.6918 312.427 L
92.5978 312.427 L
98.5037 312.427 L
104.41 312.427 L
110.316 312.427 L
116.221 312.427 L
122.127 312.427 L
128.033 312.427 L
133.939 312.427 L
139.845 312.427 L
145.751 312.427 L
151.657 312.427 L
157.563 312.427 L
163.469 312.427 L
169.375 312.427 L
175.281 312.427 L
181.187 312.427 L
187.093 312.427 L
187.093 347.528 LE
1 1 1 C
122.127 312.427 128.033 313.272 128.033 312.427 T
133.939 312.427 128.033 312.427 128.033 313.272 T
133.939 313.572 133.939 312.427 128.033 313.272 T
139.845 312.427 133.939 312.427 133.939 313.572 T
139.845 315.047 139.845 312.427 133.939 313.572 T
145.751 312.427 139.845 312.427 139.845 315.047 T
145.751 316.253 145.751 312.427 139.845 315.047 T
151.657 312.427 145.751 312.427 145.751 316.253 T
151.657 317.281 151.657 312.427 145.751 316.253 T
157.563 312.427 151.657 312.427 151.657 317.281 T
157.563 319.31 157.563 312.427 151.657 317.281 T
163.469 312.427 157.563 312.427 157.563 319.31 T
163.469 319.204 163.469 312.427 157.563 319.31 T
169.375 312.427 163.469 312.427 163.469 319.204 T
169.375 321.51 169.375 312.427 163.469 319.204 T
175.281 312.427 169.375 312.427 169.375 321.51 T
175.281 322.688 175.281 312.427 169.375 321.51 T
181.187 312.427 175.281 312.427 175.281 322.688 T
181.187 323.357 181.187 312.427 175.281 322.688 T
187.093 312.427 181.187 312.427 181.187 323.357 T
187.093 324.265 187.093 312.427 181.187 323.357 T
74.88 312.427 74.88 385.841 80.7859 312.427 T
80.7859 361.312 80.7859 312.427 74.88 385.841 T
86.6918 312.427 80.7859 312.427 80.7859 361.312 T
86.6918 342.893 86.6918 312.427 80.7859 361.312 T
92.5978 312.427 86.6918 312.427 86.6918 342.893 T
92.5978 331.09 92.5978 312.427 86.6918 342.893 T
98.5037 312.427 92.5978 312.427 92.5978 331.09 T
98.5037 322.086 98.5037 312.427 92.5978 331.09 T
104.41 312.427 98.5037 312.427 98.5037 322.086 T
104.41 316.882 104.41 312.427 98.5037 322.086 T
110.316 312.427 104.41 312.427 104.41 316.882 T
110.316 312.489 110.316 312.427 104.41 316.882 T
116.221 312.427 110.316 312.427 110.316 312.489 T
116.221 313.956 116.221 312.427 110.316 312.489 T
122.127 312.427 116.221 312.427 116.221 313.956 T
0 0 0 C
122.127 312.427 LS
116.221 313.956 L
110.316 312.489 L
104.41 316.882 L
98.5037 322.086 L
92.5978 331.09 L
86.6918 342.893 L
80.7859 361.312 L
74.88 385.841 L
74.88 312.427 L
80.7859 312.427 L
86.6918 312.427 L
92.5978 312.427 L
98.5037 312.427 L
104.41 312.427 L
110.316 312.427 L
116.221 312.427 L
122.127 312.427 LE
187.093 324.265 LS
181.187 323.357 L
175.281 322.688 L
169.375 321.51 L
163.469 319.204 L
157.563 319.31 L
151.657 317.281 L
145.751 316.253 L
139.845 315.047 L
133.939 313.572 L
128.033 313.272 L
122.127 312.427 L
128.033 312.427 L
133.939 312.427 L
139.845 312.427 L
145.751 312.427 L
151.657 312.427 L
157.563 312.427 L
163.469 312.427 L
169.375 312.427 L
175.281 312.427 L
181.187 312.427 L
187.093 312.427 L
187.093 324.265 LE
3 W
1 LJ
74.88 385.841 LS
80.7859 370.377 L
86.6918 358.047 L
92.5978 348.81 L
98.5037 342.082 L
104.41 337.306 L
110.316 334.02 L
116.221 331.866 L
122.127 330.572 L
128.033 329.931 L
133.939 329.782 L
139.845 330.002 L
145.751 330.496 L
151.657 331.19 L
157.563 332.024 L
163.469 332.953 L
169.375 333.943 L
175.281 334.967 L
181.187 336.003 L
187.093 337.036 LE
grestore
gsave
1.0 1.0 scale
newpath 0 0 moveto 576 0 lineto 576 432 lineto 0 432 lineto
closepath clip
1 1 1 C
241.974 385.841 354.186 312.427 241.974 312.427 T
241.974 385.841 354.186 385.841 354.186 312.427 T
0.5 W
0.15 0.15 0.15 C
265.597 312.427 LS
265.597 313.556 LE
265.597 385.841 LS
265.597 384.712 LE
295.127 312.427 LS
295.127 313.556 LE
295.127 385.841 LS
295.127 384.712 LE
324.657 312.427 LS
324.657 313.556 LE
324.657 385.841 LS
324.657 384.712 LE
354.186 312.427 LS
354.186 313.556 LE
354.186 385.841 LS
354.186 384.712 LE
gsave
0.14902 0.14902 0.14902 C
(5) [10] 0 262.597 296.885 10 /Helvetica SRX
grestore

gsave
0.14902 0.14902 0.14902 C
(10) [6 10] 0 289.127 296.885 10 /Helvetica SRX
grestore

gsave
0.14902 0.14902 0.14902 C
(15) [6 10] 0 318.657 296.885 10 /Helvetica SRX
grestore

gsave
0.14902 0.14902 0.14902 C
(20) [6 10] 0 348.186 296.885 10 /Helvetica SRX
grestore

241.974 325.203 LS
243.098 325.203 LE
354.186 325.203 LS
353.062 325.203 LE
241.974 339.492 LS
243.098 339.492 LE
354.186 339.492 LS
353.062 339.492 LE
241.974 353.781 LS
243.098 353.781 LE
354.186 353.781 LS
353.062 353.781 LE
241.974 368.07 LS
243.098 368.07 LE
354.186 368.07 LS
353.062 368.07 LE
241.974 382.359 LS
243.098 382.359 LE
354.186 382.359 LS
353.062 382.359 LE
gsave
0.14902 0.14902 0.14902 C
(0.005) [6 3 6 6 10] 0 209.964 321.203 10 /Helvetica SRX
grestore

gsave
0.14902 0.14902 0.14902 C
(0.01) [6 3 6 10] 0 215.964 335.492 10 /Helvetica SRX
grestore

gsave
0.14902 0.14902 0.14902 C
(0.015) [6 3 6 6 10] 0 209.964 349.781 10 /Helvetica SRX
grestore

gsave
0.14902 0.14902 0.14902 C
(0.02) [6 3 6 10] 0 215.964 364.07 10 /Helvetica SRX
grestore

gsave
0.14902 0.14902 0.14902 C
(0.025) [6 3 6 6 10] 0 209.964 378.359 10 /Helvetica SRX
grestore

2 LC
[16 0] 0 setdash
241.974 312.427 LS
354.186 312.427 LE
241.974 385.841 LS
354.186 385.841 LE
241.974 312.427 LS
241.974 385.841 LE
354.186 312.427 LS
354.186 385.841 LE
gsave
0 0 0 C
(A_N_hat) [8 6 8 6 7 6 10] 0 275.58 397.841 11 /Helvetica-Bold SRX
grestore

0.9 0.9 0.9 C
241.974 312.427 241.974 385.841 247.88 312.427 T
247.88 376.639 247.88 312.427 241.974 385.841 T
253.786 312.427 247.88 312.427 247.88 376.639 T
253.786 368.815 253.786 312.427 247.88 376.639 T
259.691 312.427 253.786 312.427 253.786 368.815 T
259.691 362.222 259.691 312.427 253.786 368.815 T
265.597 312.427 259.691 312.427 259.691 362.222 T
265.597 356.528 265.597 312.427 259.691 362.222 T
271.503 312.427 265.597 312.427 265.597 356.528 T
271.503 351.397 271.503 312.427 265.597 356.528 T
277.409 312.427 271.503 312.427 271.503 351.397 T
277.409 346.978 277.409 312.427 271.503 351.397 T
283.315 312.427 277.409 312.427 277.409 346.978 T
283.315 343.187 283.315 312.427 277.409 346.978 T
289.221 312.427 283.315 312.427 283.315 343.187 T
289.221 339.817 289.221 312.427 283.315 343.187 T
295.127 312.427 289.221 312.427 289.221 339.817 T
295.127 336.806 295.127 312.427 289.221 339.817 T
301.033 312.427 295.127 312.427 295.127 336.806 T
301.033 334.394 301.033 312.427 295.127 336.806 T
306.939 312.427 301.033 312.427 301.033 334.394 T
306.939 331.857 306.939 312.427 301.033 334.394 T
312.845 312.427 306.939 312.427 306.939 331.857 T
312.845 329.839 312.845 312.427 306.939 331.857 T
318.751 312.427 312.845 312.427 312.845 329.839 T
318.751 327.775 318.751 312.427 312.845 329.839 T
324.657 312.427 318.751 312.427 318.751 327.775 T
324.657 325.943 324.657 312.427 318.751 327.775 T
330.563 312.427 324.657 312.427 324.657 325.943 T
330.563 324.402 330.563 312.427 324.657 325.943 T
336.469 312.427 330.563 312.427 330.563 324.402 T
336.469 322.992 336.469 312.427 330.563 324.402 T
342.374 312.427 336.469 312.427 336.469 322.992 T
342.374 321.05 342.374 312.427 336.469 322.992 T
348.28 312.427 342.374 312.427 342.374 321.05 T
348.28 319.961 348.28 312.427 342.374 321.05 T
354.186 312.427 348.28 312.427 348.28 319.961 T
354.186 319.034 354.186 312.427 348.28 319.961 T
0 LC
[] 0 setdash
0 0 0 C
354.186 319.034 LS
348.28 319.961 L
342.374 321.05 L
336.469 322.992 L
330.563 324.402 L
324.657 325.943 L
318.751 327.775 L
312.845 329.839 L
306.939 331.857 L
301.033 334.394 L
295.127 336.806 L
289.221 339.817 L
283.315 343.187 L
277.409 346.978 L
271.503 351.397 L
265.597 356.528 L
259.691 362.222 L
253.786 368.815 L
247.88 376.639 L
241.974 385.841 L
241.974 312.427 L
247.88 312.427 L
253.786 312.427 L
259.691 312.427 L
265.597 312.427 L
271.503 312.427 L
277.409 312.427 L
283.315 312.427 L
289.221 312.427 L
295.127 312.427 L
301.033 312.427 L
306.939 312.427 L
312.845 312.427 L
318.751 312.427 L
324.657 312.427 L
330.563 312.427 L
336.469 312.427 L
342.374 312.427 L
348.28 312.427 L
354.186 312.427 L
354.186 319.034 LE
1 1 1 C
241.974 312.427 241.974 363.89 247.88 312.427 T
247.88 357.15 247.88 312.427 241.974 363.89 T
253.786 312.427 247.88 312.427 247.88 357.15 T
253.786 350.35 253.786 312.427 247.88 357.15 T
259.691 312.427 253.786 312.427 253.786 350.35 T
259.691 344.361 259.691 312.427 253.786 350.35 T
265.597 312.427 259.691 312.427 259.691 344.361 T
265.597 339.156 265.597 312.427 259.691 344.361 T
271.503 312.427 265.597 312.427 265.597 339.156 T
271.503 334.528 271.503 312.427 265.597 339.156 T
277.409 312.427 271.503 312.427 271.503 334.528 T
277.409 330.551 277.409 312.427 271.503 334.528 T
283.315 312.427 277.409 312.427 277.409 330.551 T
283.315 327.423 283.315 312.427 277.409 330.551 T
289.221 312.427 283.315 312.427 283.315 327.423 T
289.221 324.723 289.221 312.427 283.315 327.423 T
295.127 312.427 289.221 312.427 289.221 324.723 T
295.127 322.53 295.127 312.427 289.221 324.723 T
301.033 312.427 295.127 312.427 295.127 322.53 T
301.033 320.922 301.033 312.427 295.127 322.53 T
306.939 312.427 301.033 312.427 301.033 320.922 T
306.939 319.242 306.939 312.427 301.033 320.922 T
312.845 312.427 306.939 312.427 306.939 319.242 T
312.845 318.097 312.845 312.427 306.939 319.242 T
318.751 312.427 312.845 312.427 312.845 318.097 T
318.751 316.9 318.751 312.427 312.845 318.097 T
324.657 312.427 318.751 312.427 318.751 316.9 T
324.657 315.87 324.657 312.427 318.751 316.9 T
330.563 312.427 324.657 312.427 324.657 315.87 T
330.563 315.078 330.563 312.427 324.657 315.87 T
336.469 312.427 330.563 312.427 330.563 315.078 T
336.469 314.387 336.469 312.427 330.563 315.078 T
342.374 312.427 336.469 312.427 336.469 314.387 T
342.374 313.139 342.374 312.427 336.469 314.387 T
348.28 312.427 342.374 312.427 342.374 313.139 T
348.28 312.736 348.28 312.427 342.374 313.139 T
354.186 312.427 348.28 312.427 348.28 312.736 T
0 0 0 C
354.186 312.427 LS
348.28 312.736 L
342.374 313.139 L
336.469 314.387 L
330.563 315.078 L
324.657 315.87 L
318.751 316.9 L
312.845 318.097 L
306.939 319.242 L
301.033 320.922 L
295.127 322.53 L
289.221 324.723 L
283.315 327.423 L
277.409 330.551 L
271.503 334.528 L
265.597 339.156 L
259.691 344.361 L
253.786 350.35 L
247.88 357.15 L
241.974 363.89 L
241.974 312.427 L
247.88 312.427 L
253.786 312.427 L
259.691 312.427 L
265.597 312.427 L
271.503 312.427 L
277.409 312.427 L
283.315 312.427 L
289.221 312.427 L
295.127 312.427 L
301.033 312.427 L
306.939 312.427 L
312.845 312.427 L
318.751 312.427 L
324.657 312.427 L
330.563 312.427 L
336.469 312.427 L
342.374 312.427 L
348.28 312.427 L
354.186 312.427 LE
3 W
1 LJ
241.974 374.787 LS
247.88 366.549 L
253.786 359.415 L
259.691 353.229 L
265.597 347.86 L
271.503 343.194 L
277.409 339.135 L
283.315 335.603 L
289.221 332.524 L
295.127 329.84 L
301.033 327.498 L
306.939 325.453 L
312.845 323.666 L
318.751 322.104 L
324.657 320.738 L
330.563 319.542 L
336.469 318.494 L
342.374 317.577 L
348.28 316.772 L
354.186 316.067 LE
grestore
gsave
1.0 1.0 scale
newpath 0 0 moveto 576 0 lineto 576 432 lineto 0 432 lineto
closepath clip
1 1 1 C
409.067 385.841 521.28 312.427 409.067 312.427 T
409.067 385.841 521.28 385.841 521.28 312.427 T
0.5 W
0.15 0.15 0.15 C
432.691 312.427 LS
432.691 313.556 LE
432.691 385.841 LS
432.691 384.712 LE
462.221 312.427 LS
462.221 313.556 LE
462.221 385.841 LS
462.221 384.712 LE
491.75 312.427 LS
491.75 313.556 LE
491.75 385.841 LS
491.75 384.712 LE
521.28 312.427 LS
521.28 313.556 LE
521.28 385.841 LS
521.28 384.712 LE
gsave
0.14902 0.14902 0.14902 C
(5) [10] 0 429.691 296.885 10 /Helvetica SRX
grestore

gsave
0.14902 0.14902 0.14902 C
(10) [6 10] 0 456.221 296.885 10 /Helvetica SRX
grestore

gsave
0.14902 0.14902 0.14902 C
(15) [6 10] 0 485.75 296.885 10 /Helvetica SRX
grestore

gsave
0.14902 0.14902 0.14902 C
(20) [6 10] 0 515.28 296.885 10 /Helvetica SRX
grestore

409.067 315.619 LS
410.192 315.619 LE
521.28 315.619 LS
520.156 315.619 LE
409.067 338.368 LS
410.192 338.368 LE
521.28 338.368 LS
520.156 338.368 LE
409.067 361.118 LS
410.192 361.118 LE
521.28 361.118 LS
520.156 361.118 LE
409.067 383.867 LS
410.192 383.867 LE
521.28 383.867 LS
520.156 383.867 LE
gsave
0.14902 0.14902 0.14902 C
(-0.01) [3 6 3 6 10] 0 380.058 311.619 10 /Helvetica SRX
grestore

gsave
0.14902 0.14902 0.14902 C
(-0.005) [3 6 3 6 6 10] 0 374.058 334.368 10 /Helvetica SRX
grestore

gsave
0.14902 0.14902 0.14902 C
(0) [10] 0 398.058 357.118 10 /Helvetica SRX
grestore

gsave
0.14902 0.14902 0.14902 C
(0.005) [6 3 6 6 10] 0 377.058 379.867 10 /Helvetica SRX
grestore

2 LC
[16 0] 0 setdash
409.067 312.427 LS
521.28 312.427 LE
409.067 385.841 LS
521.28 385.841 LE
409.067 312.427 LS
409.067 385.841 LE
521.28 312.427 LS
521.28 385.841 LE
gsave
0 0 0 C
(Y_hat) [7 6 7 6 10] 0 450.174 397.841 11 /Helvetica-Bold SRX
grestore

0.9 0.9 0.9 C
409.067 312.427 409.067 350.282 414.973 312.427 T
414.973 372.326 414.973 312.427 409.067 350.282 T
420.879 312.427 414.973 312.427 414.973 372.326 T
420.879 378.51 420.879 312.427 414.973 372.326 T
426.785 312.427 420.879 312.427 420.879 378.51 T
426.785 381.713 426.785 312.427 420.879 378.51 T
432.691 312.427 426.785 312.427 426.785 381.713 T
432.691 383.451 432.691 312.427 426.785 381.713 T
438.597 312.427 432.691 312.427 432.691 383.451 T
438.597 384.793 438.597 312.427 432.691 383.451 T
444.503 312.427 438.597 312.427 438.597 384.793 T
444.503 385.573 444.503 312.427 438.597 384.793 T
450.409 312.427 444.503 312.427 444.503 385.573 T
450.409 385.727 450.409 312.427 444.503 385.573 T
456.315 312.427 450.409 312.427 450.409 385.727 T
456.315 385.58 456.315 312.427 450.409 385.727 T
462.221 312.427 456.315 312.427 456.315 385.58 T
462.221 385.841 462.221 312.427 456.315 385.58 T
468.127 312.427 462.221 312.427 462.221 385.841 T
468.127 385.339 468.127 312.427 462.221 385.841 T
474.033 312.427 468.127 312.427 468.127 385.339 T
474.033 385.255 474.033 312.427 468.127 385.339 T
479.939 312.427 474.033 312.427 474.033 385.255 T
479.939 384.844 479.939 312.427 474.033 385.255 T
485.844 312.427 479.939 312.427 479.939 384.844 T
485.844 384.52 485.844 312.427 479.939 384.844 T
491.75 312.427 485.844 312.427 485.844 384.52 T
491.75 384.491 491.75 312.427 485.844 384.52 T
497.656 312.427 491.75 312.427 491.75 384.491 T
497.656 384.18 497.656 312.427 491.75 384.491 T
503.562 312.427 497.656 312.427 497.656 384.18 T
503.562 383.861 503.562 312.427 497.656 384.18 T
509.468 312.427 503.562 312.427 503.562 383.861 T
509.468 383.517 509.468 312.427 503.562 383.861 T
515.374 312.427 509.468 312.427 509.468 383.517 T
515.374 383.178 515.374 312.427 509.468 383.517 T
521.28 312.427 515.374 312.427 515.374 383.178 T
521.28 382.845 521.28 312.427 515.374 383.178 T
0 LC
[] 0 setdash
0 0 0 C
521.28 382.845 LS
515.374 383.178 L
509.468 383.517 L
503.562 383.861 L
497.656 384.18 L
491.75 384.491 L
485.844 384.52 L
479.939 384.844 L
474.033 385.255 L
468.127 385.339 L
462.221 385.841 L
456.315 385.58 L
450.409 385.727 L
444.503 385.573 L
438.597 384.793 L
432.691 383.451 L
426.785 381.713 L
420.879 378.51 L
414.973 372.326 L
409.067 350.282 L
409.067 312.427 L
414.973 312.427 L
420.879 312.427 L
426.785 312.427 L
432.691 312.427 L
438.597 312.427 L
444.503 312.427 L
450.409 312.427 L
456.315 312.427 L
462.221 312.427 L
468.127 312.427 L
474.033 312.427 L
479.939 312.427 L
485.844 312.427 L
491.75 312.427 L
497.656 312.427 L
503.562 312.427 L
509.468 312.427 L
515.374 312.427 L
521.28 312.427 L
521.28 382.845 LE
1 1 1 C
409.067 312.427 414.973 353.694 414.973 312.427 T
420.879 312.427 414.973 312.427 414.973 353.694 T
420.879 367.738 420.879 312.427 414.973 353.694 T
426.785 312.427 420.879 312.427 420.879 367.738 T
426.785 372.527 426.785 312.427 420.879 367.738 T
432.691 312.427 426.785 312.427 426.785 372.527 T
432.691 374.252 432.691 312.427 426.785 372.527 T
438.597 312.427 432.691 312.427 432.691 374.252 T
438.597 375.349 438.597 312.427 432.691 374.252 T
444.503 312.427 438.597 312.427 438.597 375.349 T
444.503 375.765 444.503 312.427 438.597 375.349 T
450.409 312.427 444.503 312.427 444.503 375.765 T
450.409 375.576 450.409 312.427 444.503 375.765 T
456.315 312.427 450.409 312.427 450.409 375.576 T
456.315 375.178 456.315 312.427 450.409 375.576 T
462.221 312.427 456.315 312.427 456.315 375.178 T
462.221 375.252 462.221 312.427 456.315 375.178 T
468.127 312.427 462.221 312.427 462.221 375.252 T
468.127 374.694 468.127 312.427 462.221 375.252 T
474.033 312.427 468.127 312.427 468.127 374.694 T
474.033 374.494 474.033 312.427 468.127 374.694 T
479.939 312.427 474.033 312.427 474.033 374.494 T
479.939 374.064 479.939 312.427 474.033 374.494 T
485.844 312.427 479.939 312.427 479.939 374.064 T
485.844 373.757 485.844 312.427 479.939 374.064 T
491.75 312.427 485.844 312.427 485.844 373.757 T
491.75 373.755 491.75 312.427 485.844 373.757 T
497.656 312.427 491.75 312.427 491.75 373.755 T
497.656 373.512 497.656 312.427 491.75 373.755 T
503.562 312.427 497.656 312.427 497.656 373.512 T
503.562 373.274 503.562 312.427 497.656 373.512 T
509.468 312.427 503.562 312.427 503.562 373.274 T
509.468 373.027 509.468 312.427 503.562 373.274 T
515.374 312.427 509.468 312.427 509.468 373.027 T
515.374 372.818 515.374 312.427 509.468 373.027 T
521.28 312.427 515.374 312.427 515.374 372.818 T
521.28 372.596 521.28 312.427 515.374 372.818 T
0 0 0 C
521.28 372.596 LS
515.374 372.818 L
509.468 373.027 L
503.562 373.274 L
497.656 373.512 L
491.75 373.755 L
485.844 373.757 L
479.939 374.064 L
474.033 374.494 L
468.127 374.694 L
462.221 375.252 L
456.315 375.178 L
450.409 375.576 L
444.503 375.765 L
438.597 375.349 L
432.691 374.252 L
426.785 372.527 L
420.879 367.738 L
414.973 353.694 L
409.067 312.427 L
414.973 312.427 L
420.879 312.427 L
426.785 312.427 L
432.691 312.427 L
438.597 312.427 L
444.503 312.427 L
450.409 312.427 L
456.315 312.427 L
462.221 312.427 L
468.127 312.427 L
474.033 312.427 L
479.939 312.427 L
485.844 312.427 L
491.75 312.427 L
497.656 312.427 L
503.562 312.427 L
509.468 312.427 L
515.374 312.427 L
521.28 312.427 L
521.28 372.596 LE
3 W
1 LJ
409.067 329.601 LS
414.973 362.275 L
420.879 372.497 L
426.785 376.92 L
432.691 379.076 L
438.597 380.149 L
444.503 380.643 L
450.409 380.807 L
456.315 380.774 L
462.221 380.623 L
468.127 380.401 L
474.033 380.137 L
479.939 379.85 L
485.844 379.552 L
491.75 379.252 L
497.656 378.953 L
503.562 378.66 L
509.468 378.374 L
515.374 378.096 L
521.28 377.828 LE
grestore
gsave
1.0 1.0 scale
newpath 0 0 moveto 576 0 lineto 576 432 lineto 0 432 lineto
closepath clip
1 1 1 C
74.88 253.387 187.093 179.974 74.88 179.974 T
74.88 253.387 187.093 253.387 187.093 179.974 T
0.5 W
0.15 0.15 0.15 C
98.5037 179.974 LS
98.5037 181.102 LE
98.5037 253.387 LS
98.5037 252.258 LE
128.033 179.974 LS
128.033 181.102 LE
128.033 253.387 LS
128.033 252.258 LE
157.563 179.974 LS
157.563 181.102 LE
157.563 253.387 LS
157.563 252.258 LE
187.093 179.974 LS
187.093 181.102 LE
187.093 253.387 LS
187.093 252.258 LE
gsave
0.14902 0.14902 0.14902 C
(5) [10] 0 95.5037 164.431 10 /Helvetica SRX
grestore

gsave
0.14902 0.14902 0.14902 C
(10) [6 10] 0 122.033 164.431 10 /Helvetica SRX
grestore

gsave
0.14902 0.14902 0.14902 C
(15) [6 10] 0 151.563 164.431 10 /Helvetica SRX
grestore

gsave
0.14902 0.14902 0.14902 C
(20) [6 10] 0 181.093 164.431 10 /Helvetica SRX
grestore

74.88 190.674 LS
76.0043 190.674 LE
187.093 190.674 LS
185.968 190.674 LE
74.88 213.214 LS
76.0043 213.214 LE
187.093 213.214 LS
185.968 213.214 LE
74.88 235.755 LS
76.0043 235.755 LE
187.093 235.755 LS
185.968 235.755 LE
gsave
0.14902 0.14902 0.14902 C
(0.005) [6 3 6 6 10] 0 42.8705 186.674 10 /Helvetica SRX
grestore

gsave
0.14902 0.14902 0.14902 C
(0.01) [6 3 6 10] 0 48.8705 209.214 10 /Helvetica SRX
grestore

gsave
0.14902 0.14902 0.14902 C
(0.015) [6 3 6 6 10] 0 42.8705 231.755 10 /Helvetica SRX
grestore

2 LC
[16 0] 0 setdash
74.88 179.974 LS
187.093 179.974 LE
74.88 253.387 LS
187.093 253.387 LE
74.88 179.974 LS
74.88 253.387 LE
187.093 179.974 LS
187.093 253.387 LE
gsave
0 0 0 C
(C_hat) [8 6 7 6 10] 0 115.486 265.387 11 /Helvetica-Bold SRX
grestore

0.9 0.9 0.9 C
74.88 179.974 74.88 243.369 80.7859 179.974 T
80.7859 253.387 80.7859 179.974 74.88 243.369 T
86.6918 179.974 80.7859 179.974 80.7859 253.387 T
86.6918 251.911 86.6918 179.974 80.7859 253.387 T
92.5978 179.974 86.6918 179.974 86.6918 251.911 T
92.5978 247.718 92.5978 179.974 86.6918 251.911 T
98.5037 179.974 92.5978 179.974 92.5978 247.718 T
98.5037 242.672 98.5037 179.974 92.5978 247.718 T
104.41 179.974 98.5037 179.974 98.5037 242.672 T
104.41 238.463 104.41 179.974 98.5037 242.672 T
110.316 179.974 104.41 179.974 104.41 238.463 T
110.316 232.53 110.316 179.974 104.41 238.463 T
116.221 179.974 110.316 179.974 110.316 232.53 T
116.221 228.108 116.221 179.974 110.316 232.53 T
122.127 179.974 116.221 179.974 116.221 228.108 T
122.127 223.099 122.127 179.974 116.221 228.108 T
128.033 179.974 122.127 179.974 122.127 223.099 T
128.033 219.14 128.033 179.974 122.127 223.099 T
133.939 179.974 128.033 179.974 128.033 219.14 T
133.939 215.317 133.939 179.974 128.033 219.14 T
139.845 179.974 133.939 179.974 133.939 215.317 T
139.845 211.88 139.845 179.974 133.939 215.317 T
145.751 179.974 139.845 179.974 139.845 211.88 T
145.751 209.022 145.751 179.974 139.845 211.88 T
151.657 179.974 145.751 179.974 145.751 209.022 T
151.657 206.399 151.657 179.974 145.751 209.022 T
157.563 179.974 151.657 179.974 151.657 206.399 T
157.563 203.929 157.563 179.974 151.657 206.399 T
163.469 179.974 157.563 179.974 157.563 203.929 T
163.469 201.904 163.469 179.974 157.563 203.929 T
169.375 179.974 163.469 179.974 163.469 201.904 T
169.375 200.055 169.375 179.974 163.469 201.904 T
175.281 179.974 169.375 179.974 169.375 200.055 T
175.281 198.35 175.281 179.974 169.375 200.055 T
181.187 179.974 175.281 179.974 175.281 198.35 T
181.187 196.844 181.187 179.974 175.281 198.35 T
187.093 179.974 181.187 179.974 181.187 196.844 T
187.093 195.505 187.093 179.974 181.187 196.844 T
0 LC
[] 0 setdash
0 0 0 C
187.093 195.505 LS
181.187 196.844 L
175.281 198.35 L
169.375 200.055 L
163.469 201.904 L
157.563 203.929 L
151.657 206.399 L
145.751 209.022 L
139.845 211.88 L
133.939 215.317 L
128.033 219.14 L
122.127 223.099 L
116.221 228.108 L
110.316 232.53 L
104.41 238.463 L
98.5037 242.672 L
92.5978 247.718 L
86.6918 251.911 L
80.7859 253.387 L
74.88 243.369 L
74.88 179.974 L
80.7859 179.974 L
86.6918 179.974 L
92.5978 179.974 L
98.5037 179.974 L
104.41 179.974 L
110.316 179.974 L
116.221 179.974 L
122.127 179.974 L
128.033 179.974 L
133.939 179.974 L
139.845 179.974 L
145.751 179.974 L
151.657 179.974 L
157.563 179.974 L
163.469 179.974 L
169.375 179.974 L
175.281 179.974 L
181.187 179.974 L
187.093 179.974 L
187.093 195.505 LE
1 1 1 C
74.88 179.974 74.88 220.316 80.7859 179.974 T
80.7859 227.151 80.7859 179.974 74.88 220.316 T
86.6918 179.974 80.7859 179.974 80.7859 227.151 T
86.6918 224.97 86.6918 179.974 80.7859 227.151 T
92.5978 179.974 86.6918 179.974 86.6918 224.97 T
92.5978 219.833 92.5978 179.974 86.6918 224.97 T
98.5037 179.974 92.5978 179.974 92.5978 219.833 T
98.5037 214.579 98.5037 179.974 92.5978 219.833 T
104.41 179.974 98.5037 179.974 98.5037 214.579 T
104.41 210.584 104.41 179.974 98.5037 214.579 T
110.316 179.974 104.41 179.974 104.41 210.584 T
110.316 204.874 110.316 179.974 104.41 210.584 T
116.221 179.974 110.316 179.974 110.316 204.874 T
116.221 200.899 116.221 179.974 110.316 204.874 T
122.127 179.974 116.221 179.974 116.221 200.899 T
122.127 196.589 122.127 179.974 116.221 200.899 T
128.033 179.974 122.127 179.974 122.127 196.589 T
128.033 193.556 128.033 179.974 122.127 196.589 T
133.939 179.974 128.033 179.974 128.033 193.556 T
133.939 190.745 133.939 179.974 128.033 193.556 T
139.845 179.974 133.939 179.974 133.939 190.745 T
139.845 188.388 139.845 179.974 133.939 190.745 T
145.751 179.974 139.845 179.974 139.845 188.388 T
145.751 186.633 145.751 179.974 139.845 188.388 T
151.657 179.974 145.751 179.974 145.751 186.633 T
151.657 185.102 151.657 179.974 145.751 186.633 T
157.563 179.974 151.657 179.974 151.657 185.102 T
157.563 183.803 157.563 179.974 151.657 185.102 T
163.469 179.974 157.563 179.974 157.563 183.803 T
163.469 182.772 163.469 179.974 157.563 183.803 T
169.375 179.974 163.469 179.974 163.469 182.772 T
169.375 181.887 169.375 179.974 163.469 182.772 T
175.281 179.974 169.375 179.974 169.375 181.887 T
175.281 181.138 175.281 179.974 169.375 181.887 T
181.187 179.974 175.281 179.974 175.281 181.138 T
181.187 180.508 181.187 179.974 175.281 181.138 T
187.093 179.974 181.187 179.974 181.187 180.508 T
0 0 0 C
187.093 179.974 LS
181.187 180.508 L
175.281 181.138 L
169.375 181.887 L
163.469 182.772 L
157.563 183.803 L
151.657 185.102 L
145.751 186.633 L
139.845 188.388 L
133.939 190.745 L
128.033 193.556 L
122.127 196.589 L
116.221 200.899 L
110.316 204.874 L
104.41 210.584 L
98.5037 214.579 L
92.5978 219.833 L
86.6918 224.97 L
80.7859 227.151 L
74.88 220.316 L
74.88 179.974 L
80.7859 179.974 L
86.6918 179.974 L
92.5978 179.974 L
98.5037 179.974 L
104.41 179.974 L
110.316 179.974 L
116.221 179.974 L
122.127 179.974 L
128.033 179.974 L
133.939 179.974 L
139.845 179.974 L
145.751 179.974 L
151.657 179.974 L
157.563 179.974 L
163.469 179.974 L
169.375 179.974 L
175.281 179.974 L
181.187 179.974 L
187.093 179.974 LE
3 W
1 LJ
74.88 232.321 LS
80.7859 239.439 L
86.6918 237.884 L
92.5978 233.784 L
98.5037 228.876 L
104.41 223.887 L
110.316 219.142 L
116.221 214.777 L
122.127 210.832 L
128.033 207.305 L
133.939 204.171 L
139.845 201.398 L
145.751 198.948 L
151.657 196.787 L
157.563 194.882 L
163.469 193.202 L
169.375 191.72 L
175.281 190.412 L
181.187 189.257 L
187.093 188.236 LE
grestore
gsave
1.0 1.0 scale
newpath 0 0 moveto 576 0 lineto 576 432 lineto 0 432 lineto
closepath clip
1 1 1 C
241.974 253.387 354.186 179.974 241.974 179.974 T
241.974 253.387 354.186 253.387 354.186 179.974 T
0.5 W
0.15 0.15 0.15 C
265.597 179.974 LS
265.597 181.102 LE
265.597 253.387 LS
265.597 252.258 LE
295.127 179.974 LS
295.127 181.102 LE
295.127 253.387 LS
295.127 252.258 LE
324.657 179.974 LS
324.657 181.102 LE
324.657 253.387 LS
324.657 252.258 LE
354.186 179.974 LS
354.186 181.102 LE
354.186 253.387 LS
354.186 252.258 LE
gsave
0.14902 0.14902 0.14902 C
(5) [10] 0 262.597 164.431 10 /Helvetica SRX
grestore

gsave
0.14902 0.14902 0.14902 C
(10) [6 10] 0 289.127 164.431 10 /Helvetica SRX
grestore

gsave
0.14902 0.14902 0.14902 C
(15) [6 10] 0 318.657 164.431 10 /Helvetica SRX
grestore

gsave
0.14902 0.14902 0.14902 C
(20) [6 10] 0 348.186 164.431 10 /Helvetica SRX
grestore

241.974 184.641 LS
243.098 184.641 LE
354.186 184.641 LS
353.062 184.641 LE
241.974 203.11 LS
243.098 203.11 LE
354.186 203.11 LS
353.062 203.11 LE
241.974 221.579 LS
243.098 221.579 LE
354.186 221.579 LS
353.062 221.579 LE
241.974 240.048 LS
243.098 240.048 LE
354.186 240.048 LS
353.062 240.048 LE
gsave
0.14902 0.14902 0.14902 C
(0.005) [6 3 6 6 10] 0 209.964 180.641 10 /Helvetica SRX
grestore

gsave
0.14902 0.14902 0.14902 C
(0.01) [6 3 6 10] 0 215.964 199.11 10 /Helvetica SRX
grestore

gsave
0.14902 0.14902 0.14902 C
(0.015) [6 3 6 6 10] 0 209.964 217.579 10 /Helvetica SRX
grestore

gsave
0.14902 0.14902 0.14902 C
(0.02) [6 3 6 10] 0 215.964 236.048 10 /Helvetica SRX
grestore

2 LC
[16 0] 0 setdash
241.974 179.974 LS
354.186 179.974 LE
241.974 253.387 LS
354.186 253.387 LE
241.974 179.974 LS
241.974 253.387 LE
354.186 179.974 LS
354.186 253.387 LE
gsave
0 0 0 C
(I_hat) [3 6 7 6 10] 0 285.08 265.387 11 /Helvetica-Bold SRX
grestore

0.9 0.9 0.9 C
241.974 179.974 241.974 253.387 247.88 179.974 T
247.88 249.8 247.88 179.974 241.974 253.387 T
253.786 179.974 247.88 179.974 247.88 249.8 T
253.786 246.383 253.786 179.974 247.88 249.8 T
259.691 179.974 253.786 179.974 253.786 246.383 T
259.691 241.453 259.691 179.974 253.786 246.383 T
265.597 179.974 259.691 179.974 259.691 241.453 T
265.597 235.935 265.597 179.974 259.691 241.453 T
271.503 179.974 265.597 179.974 265.597 235.935 T
271.503 232.456 271.503 179.974 265.597 235.935 T
277.409 179.974 271.503 179.974 271.503 232.456 T
277.409 227.04 277.409 179.974 271.503 232.456 T
283.315 179.974 277.409 179.974 277.409 227.04 T
283.315 223.033 283.315 179.974 277.409 227.04 T
289.221 179.974 283.315 179.974 283.315 223.033 T
289.221 220.587 289.221 179.974 283.315 223.033 T
295.127 179.974 289.221 179.974 289.221 220.587 T
295.127 217.085 295.127 179.974 289.221 220.587 T
301.033 179.974 295.127 179.974 295.127 217.085 T
301.033 214.023 301.033 179.974 295.127 217.085 T
306.939 179.974 301.033 179.974 301.033 214.023 T
306.939 210.443 306.939 179.974 301.033 214.023 T
312.845 179.974 306.939 179.974 306.939 210.443 T
312.845 207.766 312.845 179.974 306.939 210.443 T
318.751 179.974 312.845 179.974 312.845 207.766 T
318.751 205.267 318.751 179.974 312.845 207.766 T
324.657 179.974 318.751 179.974 318.751 205.267 T
324.657 202.996 324.657 179.974 318.751 205.267 T
330.563 179.974 324.657 179.974 324.657 202.996 T
330.563 201.049 330.563 179.974 324.657 202.996 T
336.469 179.974 330.563 179.974 330.563 201.049 T
336.469 199.051 336.469 179.974 330.563 201.049 T
342.374 179.974 336.469 179.974 336.469 199.051 T
342.374 197.342 342.374 179.974 336.469 199.051 T
348.28 179.974 342.374 179.974 342.374 197.342 T
348.28 195.691 348.28 179.974 342.374 197.342 T
354.186 179.974 348.28 179.974 348.28 195.691 T
354.186 194.428 354.186 179.974 348.28 195.691 T
0 LC
[] 0 setdash
0 0 0 C
354.186 194.428 LS
348.28 195.691 L
342.374 197.342 L
336.469 199.051 L
330.563 201.049 L
324.657 202.996 L
318.751 205.267 L
312.845 207.766 L
306.939 210.443 L
301.033 214.023 L
295.127 217.085 L
289.221 220.587 L
283.315 223.033 L
277.409 227.04 L
271.503 232.456 L
265.597 235.935 L
259.691 241.453 L
253.786 246.383 L
247.88 249.8 L
241.974 253.387 L
241.974 179.974 L
247.88 179.974 L
253.786 179.974 L
259.691 179.974 L
265.597 179.974 L
271.503 179.974 L
277.409 179.974 L
283.315 179.974 L
289.221 179.974 L
295.127 179.974 L
301.033 179.974 L
306.939 179.974 L
312.845 179.974 L
318.751 179.974 L
324.657 179.974 L
330.563 179.974 L
336.469 179.974 L
342.374 179.974 L
348.28 179.974 L
354.186 179.974 L
354.186 194.428 LE
1 1 1 C
241.974 179.974 241.974 221.059 247.88 179.974 T
247.88 218.503 247.88 179.974 241.974 221.059 T
253.786 179.974 247.88 179.974 247.88 218.503 T
253.786 215.647 253.786 179.974 247.88 218.503 T
259.691 179.974 253.786 179.974 253.786 215.647 T
259.691 211.636 259.691 179.974 253.786 215.647 T
265.597 179.974 259.691 179.974 259.691 211.636 T
265.597 207.184 265.597 179.974 259.691 211.636 T
271.503 179.974 265.597 179.974 265.597 207.184 T
271.503 204.983 271.503 179.974 265.597 207.184 T
277.409 179.974 271.503 179.974 271.503 204.983 T
277.409 200.729 277.409 179.974 271.503 204.983 T
283.315 179.974 277.409 179.974 277.409 200.729 T
283.315 197.902 283.315 179.974 277.409 200.729 T
289.221 179.974 283.315 179.974 283.315 197.902 T
289.221 196.737 289.221 179.974 283.315 197.902 T
295.127 179.974 289.221 179.974 289.221 196.737 T
295.127 194.513 295.127 179.974 289.221 196.737 T
301.033 179.974 295.127 179.974 295.127 194.513 T
301.033 192.493 301.033 179.974 295.127 194.513 T
306.939 179.974 301.033 179.974 301.033 192.493 T
306.939 190.068 306.939 179.974 301.033 192.493 T
312.845 179.974 306.939 179.974 306.939 190.068 T
312.845 188.379 312.845 179.974 306.939 190.068 T
318.751 179.974 312.845 179.974 312.845 188.379 T
318.751 186.887 318.751 179.974 312.845 188.379 T
324.657 179.974 318.751 179.974 318.751 186.887 T
324.657 185.378 324.657 179.974 318.751 186.887 T
330.563 179.974 324.657 179.974 324.657 185.378 T
330.563 184.08 330.563 179.974 324.657 185.378 T
336.469 179.974 330.563 179.974 330.563 184.08 T
336.469 182.725 336.469 179.974 330.563 184.08 T
342.374 179.974 336.469 179.974 336.469 182.725 T
342.374 181.653 342.374 179.974 336.469 182.725 T
348.28 179.974 342.374 179.974 342.374 181.653 T
348.28 180.601 348.28 179.974 342.374 181.653 T
354.186 179.974 348.28 179.974 348.28 180.601 T
0 0 0 C
354.186 179.974 LS
348.28 180.601 L
342.374 181.653 L
336.469 182.725 L
330.563 184.08 L
324.657 185.378 L
318.751 186.887 L
312.845 188.379 L
306.939 190.068 L
301.033 192.493 L
295.127 194.513 L
289.221 196.737 L
283.315 197.902 L
277.409 200.729 L
271.503 204.983 L
265.597 207.184 L
259.691 211.636 L
253.786 215.647 L
247.88 218.503 L
241.974 221.059 L
241.974 179.974 L
247.88 179.974 L
253.786 179.974 L
259.691 179.974 L
265.597 179.974 L
271.503 179.974 L
277.409 179.974 L
283.315 179.974 L
289.221 179.974 L
295.127 179.974 L
301.033 179.974 L
306.939 179.974 L
312.845 179.974 L
318.751 179.974 L
324.657 179.974 L
330.563 179.974 L
336.469 179.974 L
342.374 179.974 L
348.28 179.974 L
354.186 179.974 LE
3 W
1 LJ
241.974 237.724 LS
247.88 235.146 L
253.786 231.337 L
259.691 227.19 L
265.597 223.053 L
271.503 219.08 L
277.409 215.34 L
283.315 211.862 L
289.221 208.652 L
295.127 205.705 L
301.033 203.009 L
306.939 200.55 L
312.845 198.311 L
318.751 196.275 L
324.657 194.427 L
330.563 192.749 L
336.469 191.226 L
342.374 189.845 L
348.28 188.593 L
354.186 187.456 LE
grestore
gsave
1.0 1.0 scale
newpath 0 0 moveto 576 0 lineto 576 432 lineto 0 432 lineto
closepath clip
1 1 1 C
409.067 253.387 521.28 179.974 409.067 179.974 T
409.067 253.387 521.28 253.387 521.28 179.974 T
0.5 W
0.15 0.15 0.15 C
432.691 179.974 LS
432.691 181.102 LE
432.691 253.387 LS
432.691 252.258 LE
462.221 179.974 LS
462.221 181.102 LE
462.221 253.387 LS
462.221 252.258 LE
491.75 179.974 LS
491.75 181.102 LE
491.75 253.387 LS
491.75 252.258 LE
521.28 179.974 LS
521.28 181.102 LE
521.28 253.387 LS
521.28 252.258 LE
gsave
0.14902 0.14902 0.14902 C
(5) [10] 0 429.691 164.431 10 /Helvetica SRX
grestore

gsave
0.14902 0.14902 0.14902 C
(10) [6 10] 0 456.221 164.431 10 /Helvetica SRX
grestore

gsave
0.14902 0.14902 0.14902 C
(15) [6 10] 0 485.75 164.431 10 /Helvetica SRX
grestore

gsave
0.14902 0.14902 0.14902 C
(20) [6 10] 0 515.28 164.431 10 /Helvetica SRX
grestore

409.067 181.109 LS
410.192 181.109 LE
521.28 181.109 LS
520.156 181.109 LE
409.067 192.589 LS
410.192 192.589 LE
521.28 192.589 LS
520.156 192.589 LE
409.067 204.068 LS
410.192 204.068 LE
521.28 204.068 LS
520.156 204.068 LE
409.067 215.548 LS
410.192 215.548 LE
521.28 215.548 LS
520.156 215.548 LE
409.067 227.027 LS
410.192 227.027 LE
521.28 227.027 LS
520.156 227.027 LE
409.067 238.507 LS
410.192 238.507 LE
521.28 238.507 LS
520.156 238.507 LE
409.067 249.987 LS
410.192 249.987 LE
521.28 249.987 LS
520.156 249.987 LE
gsave
0.14902 0.14902 0.14902 C
(0.002) [6 3 6 6 10] 0 377.058 177.109 10 /Helvetica SRX
grestore

gsave
0.14902 0.14902 0.14902 C
(0.004) [6 3 6 6 10] 0 377.058 188.589 10 /Helvetica SRX
grestore

gsave
0.14902 0.14902 0.14902 C
(0.006) [6 3 6 6 10] 0 377.058 200.068 10 /Helvetica SRX
grestore

gsave
0.14902 0.14902 0.14902 C
(0.008) [6 3 6 6 10] 0 377.058 211.548 10 /Helvetica SRX
grestore

gsave
0.14902 0.14902 0.14902 C
(0.01) [6 3 6 10] 0 383.058 223.027 10 /Helvetica SRX
grestore

gsave
0.14902 0.14902 0.14902 C
(0.012) [6 3 6 6 10] 0 377.058 234.507 10 /Helvetica SRX
grestore

gsave
0.14902 0.14902 0.14902 C
(0.014) [6 3 6 6 10] 0 377.058 245.987 10 /Helvetica SRX
grestore

2 LC
[16 0] 0 setdash
409.067 179.974 LS
521.28 179.974 LE
409.067 253.387 LS
521.28 253.387 LE
409.067 179.974 LS
409.067 253.387 LE
521.28 179.974 LS
521.28 253.387 LE
gsave
0 0 0 C
(L_hat) [7 6 7 6 10] 0 450.174 265.387 11 /Helvetica-Bold SRX
grestore

0.9 0.9 0.9 C
409.067 179.974 409.067 242.488 414.973 179.974 T
414.973 251.989 414.973 179.974 409.067 242.488 T
420.879 179.974 414.973 179.974 414.973 251.989 T
420.879 253.387 420.879 179.974 414.973 251.989 T
426.785 179.974 420.879 179.974 420.879 253.387 T
426.785 251.936 426.785 179.974 420.879 253.387 T
432.691 179.974 426.785 179.974 426.785 251.936 T
432.691 247.02 432.691 179.974 426.785 251.936 T
438.597 179.974 432.691 179.974 432.691 247.02 T
438.597 242.088 438.597 179.974 432.691 247.02 T
444.503 179.974 438.597 179.974 438.597 242.088 T
444.503 237.542 444.503 179.974 438.597 242.088 T
450.409 179.974 444.503 179.974 444.503 237.542 T
450.409 232.511 450.409 179.974 444.503 237.542 T
456.315 179.974 450.409 179.974 450.409 232.511 T
456.315 228.385 456.315 179.974 450.409 232.511 T
462.221 179.974 456.315 179.974 456.315 228.385 T
462.221 221.251 462.221 179.974 456.315 228.385 T
468.127 179.974 462.221 179.974 462.221 221.251 T
468.127 217.279 468.127 179.974 462.221 221.251 T
474.033 179.974 468.127 179.974 468.127 217.279 T
474.033 213.909 474.033 179.974 468.127 217.279 T
479.939 179.974 474.033 179.974 474.033 213.909 T
479.939 210.619 479.939 179.974 474.033 213.909 T
485.844 179.974 479.939 179.974 479.939 210.619 T
485.844 207.601 485.844 179.974 479.939 210.619 T
491.75 179.974 485.844 179.974 485.844 207.601 T
491.75 204.915 491.75 179.974 485.844 207.601 T
497.656 179.974 491.75 179.974 491.75 204.915 T
497.656 202.556 497.656 179.974 491.75 204.915 T
503.562 179.974 497.656 179.974 497.656 202.556 T
503.562 200.429 503.562 179.974 497.656 202.556 T
509.468 179.974 503.562 179.974 503.562 200.429 T
509.468 198.727 509.468 179.974 503.562 200.429 T
515.374 179.974 509.468 179.974 509.468 198.727 T
515.374 196.966 515.374 179.974 509.468 198.727 T
521.28 179.974 515.374 179.974 515.374 196.966 T
521.28 195.568 521.28 179.974 515.374 196.966 T
0 LC
[] 0 setdash
0 0 0 C
521.28 195.568 LS
515.374 196.966 L
509.468 198.727 L
503.562 200.429 L
497.656 202.556 L
491.75 204.915 L
485.844 207.601 L
479.939 210.619 L
474.033 213.909 L
468.127 217.279 L
462.221 221.251 L
456.315 228.385 L
450.409 232.511 L
444.503 237.542 L
438.597 242.088 L
432.691 247.02 L
426.785 251.936 L
420.879 253.387 L
414.973 251.989 L
409.067 242.488 L
409.067 179.974 L
414.973 179.974 L
420.879 179.974 L
426.785 179.974 L
432.691 179.974 L
438.597 179.974 L
444.503 179.974 L
450.409 179.974 L
456.315 179.974 L
462.221 179.974 L
468.127 179.974 L
474.033 179.974 L
479.939 179.974 L
485.844 179.974 L
491.75 179.974 L
497.656 179.974 L
503.562 179.974 L
509.468 179.974 L
515.374 179.974 L
521.28 179.974 L
521.28 195.568 LE
1 1 1 C
409.067 179.974 409.067 211.084 414.973 179.974 T
414.973 223.29 414.973 179.974 409.067 211.084 T
420.879 179.974 414.973 179.974 414.973 223.29 T
420.879 225.334 420.879 179.974 414.973 223.29 T
426.785 179.974 420.879 179.974 420.879 225.334 T
426.785 222.948 426.785 179.974 420.879 225.334 T
432.691 179.974 426.785 179.974 426.785 222.948 T
432.691 217.817 432.691 179.974 426.785 222.948 T
438.597 179.974 432.691 179.974 432.691 217.817 T
438.597 212.978 438.597 179.974 432.691 217.817 T
444.503 179.974 438.597 179.974 438.597 212.978 T
444.503 208.68 444.503 179.974 438.597 212.978 T
450.409 179.974 444.503 179.974 444.503 208.68 T
450.409 204.068 450.409 179.974 444.503 208.68 T
456.315 179.974 450.409 179.974 450.409 204.068 T
456.315 200.7 456.315 179.974 450.409 204.068 T
462.221 179.974 456.315 179.974 456.315 200.7 T
462.221 194.581 462.221 179.974 456.315 200.7 T
468.127 179.974 462.221 179.974 462.221 194.581 T
468.127 191.726 468.127 179.974 462.221 194.581 T
474.033 179.974 468.127 179.974 468.127 191.726 T
474.033 189.547 474.033 179.974 468.127 191.726 T
479.939 179.974 474.033 179.974 474.033 189.547 T
479.939 187.477 479.939 179.974 474.033 189.547 T
485.844 179.974 479.939 179.974 479.939 187.477 T
485.844 185.728 485.844 179.974 479.939 187.477 T
491.75 179.974 485.844 179.974 485.844 185.728 T
491.75 184.262 491.75 179.974 485.844 185.728 T
497.656 179.974 491.75 179.974 491.75 184.262 T
497.656 183.034 497.656 179.974 491.75 184.262 T
503.562 179.974 497.656 179.974 497.656 183.034 T
503.562 181.979 503.562 179.974 497.656 183.034 T
509.468 179.974 503.562 179.974 503.562 181.979 T
509.468 181.366 509.468 179.974 503.562 181.979 T
515.374 179.974 509.468 179.974 509.468 181.366 T
515.374 180.498 515.374 179.974 509.468 181.366 T
521.28 179.974 515.374 179.974 515.374 180.498 T
0 0 0 C
521.28 179.974 LS
515.374 180.498 L
509.468 181.366 L
503.562 181.979 L
497.656 183.034 L
491.75 184.262 L
485.844 185.728 L
479.939 187.477 L
474.033 189.547 L
468.127 191.726 L
462.221 194.581 L
456.315 200.7 L
450.409 204.068 L
444.503 208.68 L
438.597 212.978 L
432.691 217.817 L
426.785 222.948 L
420.879 225.334 L
414.973 223.29 L
409.067 211.084 L
409.067 179.974 L
414.973 179.974 L
420.879 179.974 L
426.785 179.974 L
432.691 179.974 L
438.597 179.974 L
444.503 179.974 L
450.409 179.974 L
456.315 179.974 L
462.221 179.974 L
468.127 179.974 L
474.033 179.974 L
479.939 179.974 L
485.844 179.974 L
491.75 179.974 L
497.656 179.974 L
503.562 179.974 L
509.468 179.974 L
515.374 179.974 L
521.28 179.974 LE
3 W
1 LJ
409.067 224.019 LS
414.973 237.603 L
420.879 239.354 L
426.785 236.676 L
432.691 232.289 L
438.597 227.368 L
444.503 222.459 L
450.409 217.81 L
456.315 213.53 L
462.221 209.651 L
468.127 206.171 L
474.033 203.069 L
479.939 200.316 L
485.844 197.878 L
491.75 195.724 L
497.656 193.822 L
503.562 192.145 L
509.468 190.666 L
515.374 189.361 L
521.28 188.21 LE
grestore
gsave
1.0 1.0 scale
newpath 0 0 moveto 576 0 lineto 576 432 lineto 0 432 lineto
closepath clip
1 1 1 C
74.88 120.933 187.093 47.52 74.88 47.52 T
74.88 120.933 187.093 120.933 187.093 47.52 T
0.5 W
0.15 0.15 0.15 C
98.5037 47.52 LS
98.5037 48.6485 LE
98.5037 120.933 LS
98.5037 119.805 LE
128.033 47.52 LS
128.033 48.6485 LE
128.033 120.933 LS
128.033 119.805 LE
157.563 47.52 LS
157.563 48.6485 LE
157.563 120.933 LS
157.563 119.805 LE
187.093 47.52 LS
187.093 48.6485 LE
187.093 120.933 LS
187.093 119.805 LE
gsave
0.14902 0.14902 0.14902 C
(5) [10] 0 95.5037 31.9776 10 /Helvetica SRX
grestore

gsave
0.14902 0.14902 0.14902 C
(10) [6 10] 0 122.033 31.9776 10 /Helvetica SRX
grestore

gsave
0.14902 0.14902 0.14902 C
(15) [6 10] 0 151.563 31.9776 10 /Helvetica SRX
grestore

gsave
0.14902 0.14902 0.14902 C
(20) [6 10] 0 181.093 31.9776 10 /Helvetica SRX
grestore

74.88 57.4088 LS
76.0043 57.4088 LE
187.093 57.4088 LS
185.968 57.4088 LE
74.88 68.0364 LS
76.0043 68.0364 LE
187.093 68.0364 LS
185.968 68.0364 LE
74.88 78.6641 LS
76.0043 78.6641 LE
187.093 78.6641 LS
185.968 78.6641 LE
74.88 89.2917 LS
76.0043 89.2917 LE
187.093 89.2917 LS
185.968 89.2917 LE
74.88 99.9194 LS
76.0043 99.9194 LE
187.093 99.9194 LS
185.968 99.9194 LE
74.88 110.547 LS
76.0043 110.547 LE
187.093 110.547 LS
185.968 110.547 LE
gsave
0.14902 0.14902 0.14902 C
(0) [10] 0 63.8705 53.4088 10 /Helvetica SRX
grestore

gsave
0.14902 0.14902 0.14902 C
(0.0005) [6 3 6 6 6 10] 0 36.8705 64.0364 10 /Helvetica SRX
grestore

gsave
0.14902 0.14902 0.14902 C
(0.001) [6 3 6 6 10] 0 42.8705 74.6641 10 /Helvetica SRX
grestore

gsave
0.14902 0.14902 0.14902 C
(0.0015) [6 3 6 6 6 10] 0 36.8705 85.2917 10 /Helvetica SRX
grestore

gsave
0.14902 0.14902 0.14902 C
(0.002) [6 3 6 6 10] 0 42.8705 95.9194 10 /Helvetica SRX
grestore

gsave
0.14902 0.14902 0.14902 C
(0.0025) [6 3 6 6 6 10] 0 36.8705 106.547 10 /Helvetica SRX
grestore

2 LC
[16 0] 0 setdash
74.88 47.52 LS
187.093 47.52 LE
74.88 120.933 LS
187.093 120.933 LE
74.88 47.52 LS
74.88 120.933 LE
187.093 47.52 LS
187.093 120.933 LE
gsave
0 0 0 C
(tb_y_hat) [4 7 6 6 6 7 6 10] 0 107.986 133.933 11 /Helvetica-Bold SRX
grestore

0.9 0.9 0.9 C
74.88 47.52 74.88 120.933 80.7859 47.52 T
80.7859 95.9208 80.7859 47.52 74.88 120.933 T
86.6918 47.52 80.7859 47.52 80.7859 95.9208 T
86.6918 84.193 86.6918 47.52 80.7859 95.9208 T
92.5978 47.52 86.6918 47.52 86.6918 84.193 T
92.5978 76.4471 92.5978 47.52 86.6918 84.193 T
98.5037 47.52 92.5978 47.52 92.5978 76.4471 T
98.5037 71.7005 98.5037 47.52 92.5978 76.4471 T
104.41 47.52 98.5037 47.52 98.5037 71.7005 T
104.41 68.3016 104.41 47.52 98.5037 71.7005 T
110.316 47.52 104.41 47.52 104.41 68.3016 T
110.316 64.83 110.316 47.52 104.41 68.3016 T
116.221 47.52 110.316 47.52 110.316 64.83 T
116.221 62.526 116.221 47.52 110.316 64.83 T
122.127 47.52 116.221 47.52 116.221 62.526 T
122.127 60.5284 122.127 47.52 116.221 62.526 T
128.033 47.52 122.127 47.52 122.127 60.5284 T
128.033 58.8851 128.033 47.52 122.127 60.5284 T
133.939 47.52 128.033 47.52 128.033 58.8851 T
133.939 57.5944 133.939 47.52 128.033 58.8851 T
139.845 47.52 133.939 47.52 133.939 57.5944 T
139.845 55.7667 139.845 47.52 133.939 57.5944 T
145.751 47.52 139.845 47.52 139.845 55.7667 T
145.751 54.9907 145.751 47.52 139.845 55.7667 T
151.657 47.52 145.751 47.52 145.751 54.9907 T
151.657 54.7989 151.657 47.52 145.751 54.9907 T
157.563 47.52 151.657 47.52 151.657 54.7989 T
157.563 54.1233 157.563 47.52 151.657 54.7989 T
163.469 47.52 157.563 47.52 157.563 54.1233 T
163.469 53.4301 163.469 47.52 157.563 54.1233 T
169.375 47.52 163.469 47.52 163.469 53.4301 T
169.375 53.3164 169.375 47.52 163.469 53.4301 T
175.281 47.52 169.375 47.52 169.375 53.3164 T
175.281 53.0807 175.281 47.52 169.375 53.3164 T
181.187 47.52 175.281 47.52 175.281 53.0807 T
181.187 52.9369 181.187 47.52 175.281 53.0807 T
187.093 47.52 181.187 47.52 181.187 52.9369 T
187.093 52.8807 187.093 47.52 181.187 52.9369 T
0 LC
[] 0 setdash
0 0 0 C
187.093 52.8807 LS
181.187 52.9369 L
175.281 53.0807 L
169.375 53.3164 L
163.469 53.4301 L
157.563 54.1233 L
151.657 54.7989 L
145.751 54.9907 L
139.845 55.7667 L
133.939 57.5944 L
128.033 58.8851 L
122.127 60.5284 L
116.221 62.526 L
110.316 64.83 L
104.41 68.3016 L
98.5037 71.7005 L
92.5978 76.4471 L
86.6918 84.193 L
80.7859 95.9208 L
74.88 120.933 L
74.88 47.52 L
80.7859 47.52 L
86.6918 47.52 L
92.5978 47.52 L
98.5037 47.52 L
104.41 47.52 L
110.316 47.52 L
116.221 47.52 L
122.127 47.52 L
128.033 47.52 L
133.939 47.52 L
139.845 47.52 L
145.751 47.52 L
151.657 47.52 L
157.563 47.52 L
163.469 47.52 L
169.375 47.52 L
175.281 47.52 L
181.187 47.52 L
187.093 47.52 L
187.093 52.8807 LE
1 1 1 C
139.845 47.52 145.751 47.712 145.751 47.52 T
151.657 47.52 145.751 47.52 145.751 47.712 T
151.657 48.3316 151.657 47.52 145.751 47.712 T
157.563 47.52 151.657 47.52 151.657 48.3316 T
157.563 48.4866 157.563 47.52 151.657 48.3316 T
163.469 47.52 157.563 47.52 157.563 48.4866 T
163.469 48.4058 163.469 47.52 157.563 48.4866 T
169.375 47.52 163.469 47.52 163.469 48.4058 T
169.375 48.8742 169.375 47.52 163.469 48.4058 T
175.281 47.52 169.375 47.52 169.375 48.8742 T
175.281 49.1829 175.281 47.52 169.375 48.8742 T
181.187 47.52 175.281 47.52 175.281 49.1829 T
181.187 49.3489 181.187 47.52 175.281 49.1829 T
187.093 47.52 181.187 47.52 181.187 49.3489 T
187.093 49.5476 187.093 47.52 181.187 49.3489 T
74.88 47.52 74.88 85.2206 80.7859 47.52 T
80.7859 75.6399 80.7859 47.52 74.88 85.2206 T
86.6918 47.52 80.7859 47.52 80.7859 75.6399 T
86.6918 69.3838 86.6918 47.52 80.7859 75.6399 T
92.5978 47.52 86.6918 47.52 86.6918 69.3838 T
92.5978 63.7541 92.5978 47.52 86.6918 69.3838 T
98.5037 47.52 92.5978 47.52 92.5978 63.7541 T
98.5037 59.7469 98.5037 47.52 92.5978 63.7541 T
104.41 47.52 98.5037 47.52 98.5037 59.7469 T
104.41 56.3657 104.41 47.52 98.5037 59.7469 T
110.316 47.52 104.41 47.52 104.41 56.3657 T
110.316 53.1095 110.316 47.52 104.41 56.3657 T
116.221 47.52 110.316 47.52 110.316 53.1095 T
116.221 51.3143 116.221 47.52 110.316 53.1095 T
122.127 47.52 116.221 47.52 116.221 51.3143 T
122.127 49.8298 122.127 47.52 116.221 51.3143 T
128.033 47.52 122.127 47.52 122.127 49.8298 T
128.033 48.8896 128.033 47.52 122.127 49.8298 T
133.939 47.52 128.033 47.52 128.033 48.8896 T
133.939 48.3844 133.939 47.52 128.033 48.8896 T
139.845 47.52 133.939 47.52 133.939 48.3844 T
0 0 0 C
139.845 47.52 LS
133.939 48.3844 L
128.033 48.8896 L
122.127 49.8298 L
116.221 51.3143 L
110.316 53.1095 L
104.41 56.3657 L
98.5037 59.7469 L
92.5978 63.7541 L
86.6918 69.3838 L
80.7859 75.6399 L
74.88 85.2206 L
74.88 47.52 L
80.7859 47.52 L
86.6918 47.52 L
92.5978 47.52 L
98.5037 47.52 L
104.41 47.52 L
110.316 47.52 L
116.221 47.52 L
122.127 47.52 L
128.033 47.52 L
133.939 47.52 L
139.845 47.52 LE
187.093 49.5476 LS
181.187 49.3489 L
175.281 49.1829 L
169.375 48.8742 L
163.469 48.4058 L
157.563 48.4866 L
151.657 48.3316 L
145.751 47.712 L
139.845 47.52 L
145.751 47.52 L
151.657 47.52 L
157.563 47.52 L
163.469 47.52 L
169.375 47.52 L
175.281 47.52 L
181.187 47.52 L
187.093 47.52 L
187.093 49.5476 LE
3 W
1 LJ
74.88 104.35 LS
80.7859 86.1656 L
86.6918 77.1984 L
92.5978 70.5626 L
98.5037 65.5503 L
104.41 61.7624 L
110.316 58.8904 L
116.221 56.708 L
122.127 55.0519 L
128.033 53.8024 L
133.939 52.8699 L
139.845 52.1859 L
145.751 51.6971 L
151.657 51.3616 L
157.563 51.1461 L
163.469 51.0242 L
169.375 50.9748 L
175.281 50.981 L
181.187 51.0291 L
187.093 51.1086 LE
grestore
gsave
1.0 1.0 scale
newpath 0 0 moveto 576 0 lineto 576 432 lineto 0 432 lineto
closepath clip
1 1 1 C
241.974 120.933 354.186 47.52 241.974 47.52 T
241.974 120.933 354.186 120.933 354.186 47.52 T
0.5 W
0.15 0.15 0.15 C
265.597 47.52 LS
265.597 48.6485 LE
265.597 120.933 LS
265.597 119.805 LE
295.127 47.52 LS
295.127 48.6485 LE
295.127 120.933 LS
295.127 119.805 LE
324.657 47.52 LS
324.657 48.6485 LE
324.657 120.933 LS
324.657 119.805 LE
354.186 47.52 LS
354.186 48.6485 LE
354.186 120.933 LS
354.186 119.805 LE
gsave
0.14902 0.14902 0.14902 C
(5) [10] 0 262.597 31.9776 10 /Helvetica SRX
grestore

gsave
0.14902 0.14902 0.14902 C
(10) [6 10] 0 289.127 31.9776 10 /Helvetica SRX
grestore

gsave
0.14902 0.14902 0.14902 C
(15) [6 10] 0 318.657 31.9776 10 /Helvetica SRX
grestore

gsave
0.14902 0.14902 0.14902 C
(20) [6 10] 0 348.186 31.9776 10 /Helvetica SRX
grestore

241.974 50.768 LS
243.098 50.768 LE
354.186 50.768 LS
353.062 50.768 LE
241.974 67.0254 LS
243.098 67.0254 LE
354.186 67.0254 LS
353.062 67.0254 LE
241.974 83.2828 LS
243.098 83.2828 LE
354.186 83.2828 LS
353.062 83.2828 LE
241.974 99.5403 LS
243.098 99.5403 LE
354.186 99.5403 LS
353.062 99.5403 LE
241.974 115.798 LS
243.098 115.798 LE
354.186 115.798 LS
353.062 115.798 LE
gsave
0.14902 0.14902 0.14902 C
(-0.025) [3 6 3 6 6 10] 0 206.964 46.768 10 /Helvetica SRX
grestore

gsave
0.14902 0.14902 0.14902 C
(-0.02) [3 6 3 6 10] 0 212.964 63.0255 10 /Helvetica SRX
grestore

gsave
0.14902 0.14902 0.14902 C
(-0.015) [3 6 3 6 6 10] 0 206.964 79.2829 10 /Helvetica SRX
grestore

gsave
0.14902 0.14902 0.14902 C
(-0.01) [3 6 3 6 10] 0 212.964 95.5403 10 /Helvetica SRX
grestore

gsave
0.14902 0.14902 0.14902 C
(-0.005) [3 6 3 6 6 10] 0 206.964 111.798 10 /Helvetica SRX
grestore

2 LC
[16 0] 0 setdash
241.974 47.52 LS
354.186 47.52 LE
241.974 120.933 LS
354.186 120.933 LE
241.974 47.52 LS
241.974 120.933 LE
354.186 47.52 LS
354.186 120.933 LE
gsave
0 0 0 C
(D_hat) [8 6 7 6 10] 0 282.58 132.933 11 /Helvetica-Bold SRX
grestore

0.9 0.9 0.9 C
241.974 47.52 241.974 120.933 247.88 47.52 T
247.88 112.58 247.88 47.52 241.974 120.933 T
253.786 47.52 247.88 47.52 247.88 112.58 T
253.786 107.325 253.786 47.52 247.88 112.58 T
259.691 47.52 253.786 47.52 253.786 107.325 T
259.691 102.667 259.691 47.52 253.786 107.325 T
265.597 47.52 259.691 47.52 259.691 102.667 T
265.597 97.7837 265.597 47.52 259.691 102.667 T
271.503 47.52 265.597 47.52 265.597 97.7837 T
271.503 96.0875 271.503 47.52 265.597 97.7837 T
277.409 47.52 271.503 47.52 271.503 96.0875 T
277.409 95.0514 277.409 47.52 271.503 96.0875 T
283.315 47.52 277.409 47.52 277.409 95.0514 T
283.315 94.8331 283.315 47.52 277.409 95.0514 T
289.221 47.52 283.315 47.52 283.315 94.8331 T
289.221 94.1376 289.221 47.52 283.315 94.8331 T
295.127 47.52 289.221 47.52 289.221 94.1376 T
295.127 94.6345 295.127 47.52 289.221 94.1376 T
301.033 47.52 295.127 47.52 295.127 94.6345 T
301.033 95.3384 301.033 47.52 295.127 94.6345 T
306.939 47.52 301.033 47.52 301.033 95.3384 T
306.939 98.4832 306.939 47.52 301.033 95.3384 T
312.845 47.52 306.939 47.52 306.939 98.4832 T
312.845 100.183 312.845 47.52 306.939 98.4832 T
318.751 47.52 312.845 47.52 312.845 100.183 T
318.751 99.2611 318.751 47.52 312.845 100.183 T
324.657 47.52 318.751 47.52 318.751 99.2611 T
324.657 100.556 324.657 47.52 318.751 99.2611 T
330.563 47.52 324.657 47.52 324.657 100.556 T
330.563 101.023 330.563 47.52 324.657 100.556 T
336.469 47.52 330.563 47.52 330.563 101.023 T
336.469 102.521 336.469 47.52 330.563 101.023 T
342.374 47.52 336.469 47.52 336.469 102.521 T
342.374 102.925 342.374 47.52 336.469 102.521 T
348.28 47.52 342.374 47.52 342.374 102.925 T
348.28 104.793 348.28 47.52 342.374 102.925 T
354.186 47.52 348.28 47.52 348.28 104.793 T
354.186 105.371 354.186 47.52 348.28 104.793 T
0 LC
[] 0 setdash
0 0 0 C
354.186 105.371 LS
348.28 104.793 L
342.374 102.925 L
336.469 102.521 L
330.563 101.023 L
324.657 100.556 L
318.751 99.2611 L
312.845 100.183 L
306.939 98.4832 L
301.033 95.3384 L
295.127 94.6345 L
289.221 94.1376 L
283.315 94.8331 L
277.409 95.0514 L
271.503 96.0875 L
265.597 97.7837 L
259.691 102.667 L
253.786 107.325 L
247.88 112.58 L
241.974 120.933 L
241.974 47.52 L
247.88 47.52 L
253.786 47.52 L
259.691 47.52 L
265.597 47.52 L
271.503 47.52 L
277.409 47.52 L
283.315 47.52 L
289.221 47.52 L
295.127 47.52 L
301.033 47.52 L
306.939 47.52 L
312.845 47.52 L
318.751 47.52 L
324.657 47.52 L
330.563 47.52 L
336.469 47.52 L
342.374 47.52 L
348.28 47.52 L
354.186 47.52 L
354.186 105.371 LE
1 1 1 C
301.033 47.52 306.939 49.5434 306.939 47.52 T
312.845 47.52 306.939 47.52 306.939 49.5434 T
312.845 49.7757 312.845 47.52 306.939 49.5434 T
318.751 47.52 312.845 47.52 312.845 49.7757 T
318.751 47.6918 318.751 47.52 312.845 49.7757 T
324.657 47.52 318.751 47.52 318.751 47.6918 T
324.657 48.0577 324.657 47.52 318.751 47.6918 T
330.563 47.52 324.657 47.52 324.657 48.0577 T
330.563 47.5643 330.563 47.52 324.657 48.0577 T
336.469 47.52 330.563 47.52 330.563 47.5643 T
336.469 48.5269 336.469 47.52 330.563 47.5643 T
342.374 47.52 336.469 47.52 336.469 48.5269 T
342.374 48.5691 342.374 47.52 336.469 48.5269 T
348.28 47.52 342.374 47.52 342.374 48.5691 T
348.28 50.1809 348.28 47.52 342.374 48.5691 T
354.186 47.52 348.28 47.52 348.28 50.1809 T
354.186 50.6981 354.186 47.52 348.28 50.1809 T
241.974 47.52 241.974 106.609 247.88 47.52 T
247.88 90.1274 247.88 47.52 241.974 106.609 T
253.786 47.52 247.88 47.52 247.88 90.1274 T
253.786 79.2999 253.786 47.52 247.88 90.1274 T
259.691 47.52 253.786 47.52 253.786 79.2999 T
259.691 70.6969 259.691 47.52 253.786 79.2999 T
265.597 47.52 259.691 47.52 259.691 70.6969 T
265.597 62.9844 265.597 47.52 259.691 70.6969 T
271.503 47.52 265.597 47.52 265.597 62.9844 T
271.503 58.4514 271.503 47.52 265.597 62.9844 T
277.409 47.52 271.503 47.52 271.503 58.4514 T
277.409 55.0498 277.409 47.52 271.503 58.4514 T
283.315 47.52 277.409 47.52 277.409 55.0498 T
283.315 52.4222 283.315 47.52 277.409 55.0498 T
289.221 47.52 283.315 47.52 283.315 52.4222 T
289.221 49.4856 289.221 47.52 283.315 52.4222 T
295.127 47.52 289.221 47.52 289.221 49.4856 T
295.127 48.6226 295.127 47.52 289.221 49.4856 T
301.033 47.52 295.127 47.52 295.127 48.6226 T
0 0 0 C
301.033 47.52 LS
295.127 48.6226 L
289.221 49.4856 L
283.315 52.4222 L
277.409 55.0498 L
271.503 58.4514 L
265.597 62.9844 L
259.691 70.6969 L
253.786 79.2999 L
247.88 90.1274 L
241.974 106.609 L
241.974 47.52 L
247.88 47.52 L
253.786 47.52 L
259.691 47.52 L
265.597 47.52 L
271.503 47.52 L
277.409 47.52 L
283.315 47.52 L
289.221 47.52 L
295.127 47.52 L
301.033 47.52 LE
354.186 50.6981 LS
348.28 50.1809 L
342.374 48.5691 L
336.469 48.5269 L
330.563 47.5643 L
324.657 48.0577 L
318.751 47.6918 L
312.845 49.7757 L
306.939 49.5434 L
301.033 47.52 L
306.939 47.52 L
312.845 47.52 L
318.751 47.52 L
324.657 47.52 L
330.563 47.52 L
336.469 47.52 L
342.374 47.52 L
348.28 47.52 L
354.186 47.52 L
354.186 50.6981 LE
3 W
1 LJ
241.974 113.053 LS
247.88 100.691 L
253.786 91.5358 L
259.691 84.8144 L
265.597 79.9601 L
271.503 76.5347 L
277.409 74.2067 L
283.315 72.7247 L
289.221 71.8959 L
295.127 71.5701 L
301.033 71.6298 L
306.939 71.9822 L
312.845 72.5536 L
318.751 73.286 L
324.657 74.1333 L
330.563 75.0593 L
336.469 76.0354 L
342.374 77.0396 L
348.28 78.0546 L
354.186 79.0674 LE
grestore
gsave
1.0 1.0 scale
newpath 0 0 moveto 576 0 lineto 576 432 lineto 0 432 lineto
closepath clip
1 1 1 C
409.067 120.933 521.28 47.52 409.067 47.52 T
409.067 120.933 521.28 120.933 521.28 47.52 T
0.5 W
0.15 0.15 0.15 C
432.691 47.52 LS
432.691 48.6485 LE
432.691 120.933 LS
432.691 119.805 LE
462.221 47.52 LS
462.221 48.6485 LE
462.221 120.933 LS
462.221 119.805 LE
491.75 47.52 LS
491.75 48.6485 LE
491.75 120.933 LS
491.75 119.805 LE
521.28 47.52 LS
521.28 48.6485 LE
521.28 120.933 LS
521.28 119.805 LE
gsave
0.14902 0.14902 0.14902 C
(5) [10] 0 429.691 31.9776 10 /Helvetica SRX
grestore

gsave
0.14902 0.14902 0.14902 C
(10) [6 10] 0 456.221 31.9776 10 /Helvetica SRX
grestore

gsave
0.14902 0.14902 0.14902 C
(15) [6 10] 0 485.75 31.9776 10 /Helvetica SRX
grestore

gsave
0.14902 0.14902 0.14902 C
(20) [6 10] 0 515.28 31.9776 10 /Helvetica SRX
grestore

409.067 60.0156 LS
410.192 60.0156 LE
521.28 60.0156 LS
520.156 60.0156 LE
409.067 80.3076 LS
410.192 80.3076 LE
521.28 80.3076 LS
520.156 80.3076 LE
409.067 100.6 LS
410.192 100.6 LE
521.28 100.6 LS
520.156 100.6 LE
409.067 120.892 LS
410.192 120.892 LE
521.28 120.892 LS
520.156 120.892 LE
gsave
0.14902 0.14902 0.14902 C
(-0.03) [3 6 3 6 10] 0 380.058 56.0156 10 /Helvetica SRX
grestore

gsave
0.14902 0.14902 0.14902 C
(-0.02) [3 6 3 6 10] 0 380.058 76.3077 10 /Helvetica SRX
grestore

gsave
0.14902 0.14902 0.14902 C
(-0.01) [3 6 3 6 10] 0 380.058 96.5997 10 /Helvetica SRX
grestore

gsave
0.14902 0.14902 0.14902 C
(0) [10] 0 398.058 116.892 10 /Helvetica SRX
grestore

2 LC
[16 0] 0 setdash
409.067 47.52 LS
521.28 47.52 LE
409.067 120.933 LS
521.28 120.933 LE
409.067 47.52 LS
409.067 120.933 LE
521.28 47.52 LS
521.28 120.933 LE
gsave
0 0 0 C
(reer_hat) [4 6 6 4 6 7 6 10] 0 443.674 132.933 11 /Helvetica-Bold SRX
grestore

0.9 0.9 0.9 C
409.067 47.52 409.067 72.934 414.973 47.52 T
414.973 85.4514 414.973 47.52 409.067 72.934 T
420.879 47.52 414.973 47.52 414.973 85.4514 T
420.879 91.6529 420.879 47.52 414.973 85.4514 T
426.785 47.52 420.879 47.52 420.879 91.6529 T
426.785 97.3338 426.785 47.52 420.879 91.6529 T
432.691 47.52 426.785 47.52 426.785 97.3338 T
432.691 101.336 432.691 47.52 426.785 97.3338 T
438.597 47.52 432.691 47.52 432.691 101.336 T
438.597 104.866 438.597 47.52 432.691 101.336 T
444.503 47.52 438.597 47.52 438.597 104.866 T
444.503 108.198 444.503 47.52 438.597 104.866 T
450.409 47.52 444.503 47.52 444.503 108.198 T
450.409 110.581 450.409 47.52 444.503 108.198 T
456.315 47.52 450.409 47.52 450.409 110.581 T
456.315 112.482 456.315 47.52 450.409 110.581 T
462.221 47.52 456.315 47.52 456.315 112.482 T
462.221 114.127 462.221 47.52 456.315 112.482 T
468.127 47.52 462.221 47.52 462.221 114.127 T
468.127 115.389 468.127 47.52 462.221 114.127 T
474.033 47.52 468.127 47.52 468.127 115.389 T
474.033 116.614 474.033 47.52 468.127 115.389 T
479.939 47.52 474.033 47.52 474.033 116.614 T
479.939 117.446 479.939 47.52 474.033 116.614 T
485.844 47.52 479.939 47.52 479.939 117.446 T
485.844 118.233 485.844 47.52 479.939 117.446 T
491.75 47.52 485.844 47.52 485.844 118.233 T
491.75 118.924 491.75 47.52 485.844 118.233 T
497.656 47.52 491.75 47.52 491.75 118.924 T
497.656 119.571 497.656 47.52 491.75 118.924 T
503.562 47.52 497.656 47.52 497.656 119.571 T
503.562 119.976 503.562 47.52 497.656 119.571 T
509.468 47.52 503.562 47.52 503.562 119.976 T
509.468 120.324 509.468 47.52 503.562 119.976 T
515.374 47.52 509.468 47.52 509.468 120.324 T
515.374 120.568 515.374 47.52 509.468 120.324 T
521.28 47.52 515.374 47.52 515.374 120.568 T
521.28 120.933 521.28 47.52 515.374 120.568 T
0 LC
[] 0 setdash
0 0 0 C
521.28 120.933 LS
515.374 120.568 L
509.468 120.324 L
503.562 119.976 L
497.656 119.571 L
491.75 118.924 L
485.844 118.233 L
479.939 117.446 L
474.033 116.614 L
468.127 115.389 L
462.221 114.127 L
456.315 112.482 L
450.409 110.581 L
444.503 108.198 L
438.597 104.866 L
432.691 101.336 L
426.785 97.3338 L
420.879 91.6529 L
414.973 85.4514 L
409.067 72.934 L
409.067 47.52 L
414.973 47.52 L
420.879 47.52 L
426.785 47.52 L
432.691 47.52 L
438.597 47.52 L
444.503 47.52 L
450.409 47.52 L
456.315 47.52 L
462.221 47.52 L
468.127 47.52 L
474.033 47.52 L
479.939 47.52 L
485.844 47.52 L
491.75 47.52 L
497.656 47.52 L
503.562 47.52 L
509.468 47.52 L
515.374 47.52 L
521.28 47.52 L
521.28 120.933 LE
1 1 1 C
409.067 47.52 414.973 68.1864 414.973 47.52 T
420.879 47.52 414.973 47.52 414.973 68.1864 T
420.879 77.7059 420.879 47.52 414.973 68.1864 T
426.785 47.52 420.879 47.52 420.879 77.7059 T
426.785 84.411 426.785 47.52 420.879 77.7059 T
432.691 47.52 426.785 47.52 426.785 84.411 T
432.691 89.0672 432.691 47.52 426.785 84.411 T
438.597 47.52 432.691 47.52 432.691 89.0672 T
438.597 93.1643 438.597 47.52 432.691 89.0672 T
444.503 47.52 438.597 47.52 438.597 93.1643 T
444.503 97.0654 444.503 47.52 438.597 93.1643 T
450.409 47.52 444.503 47.52 444.503 97.0654 T
450.409 99.9936 450.409 47.52 444.503 97.0654 T
456.315 47.52 450.409 47.52 450.409 99.9936 T
456.315 102.475 456.315 47.52 450.409 99.9936 T
462.221 47.52 456.315 47.52 456.315 102.475 T
462.221 104.764 462.221 47.52 456.315 102.475 T
468.127 47.52 462.221 47.52 462.221 104.764 T
468.127 106.671 468.127 47.52 462.221 104.764 T
474.033 47.52 468.127 47.52 468.127 106.671 T
474.033 108.585 474.033 47.52 468.127 106.671 T
479.939 47.52 474.033 47.52 474.033 108.585 T
479.939 110.089 479.939 47.52 474.033 108.585 T
485.844 47.52 479.939 47.52 479.939 110.089 T
485.844 111.532 485.844 47.52 479.939 110.089 T
491.75 47.52 485.844 47.52 485.844 111.532 T
491.75 112.805 491.75 47.52 485.844 111.532 T
497.656 47.52 491.75 47.52 491.75 112.805 T
497.656 114.039 497.656 47.52 491.75 112.805 T
503.562 47.52 497.656 47.52 497.656 114.039 T
503.562 114.969 503.562 47.52 497.656 114.039 T
509.468 47.52 503.562 47.52 503.562 114.969 T
509.468 115.816 509.468 47.52 503.562 114.969 T
515.374 47.52 509.468 47.52 509.468 115.816 T
515.374 116.537 515.374 47.52 509.468 115.816 T
521.28 47.52 515.374 47.52 515.374 116.537 T
521.28 117.335 521.28 47.52 515.374 116.537 T
0 0 0 C
521.28 117.335 LS
515.374 116.537 L
509.468 115.816 L
503.562 114.969 L
497.656 114.039 L
491.75 112.805 L
485.844 111.532 L
479.939 110.089 L
474.033 108.585 L
468.127 106.671 L
462.221 104.764 L
456.315 102.475 L
450.409 99.9936 L
444.503 97.0654 L
438.597 93.1643 L
432.691 89.0672 L
426.785 84.411 L
420.879 77.7059 L
414.973 68.1864 L
409.067 47.52 L
414.973 47.52 L
420.879 47.52 L
426.785 47.52 L
432.691 47.52 L
438.597 47.52 L
444.503 47.52 L
450.409 47.52 L
456.315 47.52 L
462.221 47.52 L
468.127 47.52 L
474.033 47.52 L
479.939 47.52 L
485.844 47.52 L
491.75 47.52 L
497.656 47.52 L
503.562 47.52 L
509.468 47.52 L
515.374 47.52 L
521.28 47.52 L
521.28 117.335 LE
3 W
1 LJ
409.067 59.7618 LS
414.973 77.068 L
420.879 84.9642 L
426.785 90.5754 L
432.691 95.1065 L
438.597 98.9099 L
444.503 102.145 L
450.409 104.911 L
456.315 107.282 L
462.221 109.318 L
468.127 111.066 L
474.033 112.569 L
479.939 113.862 L
485.844 114.974 L
491.75 115.932 L
497.656 116.755 L
503.562 117.464 L
509.468 118.073 L
515.374 118.596 L
521.28 119.046 LE
grestore
grestore
showpage
cleartomark
%%PageTrailer
%%Trailer
end
%%EOF
