%!PS-Adobe-3.0 EPSF-3.0
%%Title: gl2ps_renderer figure
%%Creator: GL2PS 1.4.2, (C) 1999-2020 C. Geuzaine
%%For: Octave
%%CreationDate: Wed Oct  7 04:42:22 2020
%%LanguageLevel: 3
%%DocumentData: Clean7Bit
%%Pages: 1
%%BoundingBox: 0 0 576 432
%%EndComments
%%BeginProlog
/gl2psdict 64 dict def gl2psdict begin
/tryPS3shading false def % set to false to force subdivision
/rThreshold 0.064 def % red component subdivision threshold
/gThreshold 0.034 def % green component subdivision threshold
/bThreshold 0.1 def % blue component subdivision threshold
/BD { bind def } bind def
/C  { setrgbcolor } BD
/G  { 0.082 mul exch 0.6094 mul add exch 0.3086 mul add neg 1.0 add setgray } BD
/W  { setlinewidth } BD
/LC  { setlinecap } BD
/LJ  { setlinejoin } BD
/FC { findfont exch /SH exch def SH scalefont setfont } BD
/SW { dup stringwidth pop } BD
/S  { FC moveto show } BD
/SBC{ FC moveto SW -2 div 0 rmoveto show } BD
/SBR{ FC moveto SW neg 0 rmoveto show } BD
/SCL{ FC moveto 0 SH -2 div rmoveto show } BD
/SCC{ FC moveto SW -2 div SH -2 div rmoveto show } BD
/SCR{ FC moveto SW neg SH -2 div rmoveto show } BD
/STL{ FC moveto 0 SH neg rmoveto show } BD
/STC{ FC moveto SW -2 div SH neg rmoveto show } BD
/STR{ FC moveto SW neg SH neg rmoveto show } BD
/FCT { FC translate 0 0 } BD
/SR  { gsave FCT moveto rotate show grestore } BD
/SRX  { gsave FCT moveto rotate xshow grestore } BD
/SBCR{ gsave FCT moveto rotate SW -2 div 0 rmoveto show grestore } BD
/SBRR{ gsave FCT moveto rotate SW neg 0 rmoveto show grestore } BD
/SCLR{ gsave FCT moveto rotate 0 SH -2 div rmoveto show grestore} BD
/SCCR{ gsave FCT moveto rotate SW -2 div SH -2 div rmoveto show grestore} BD
/SCRR{ gsave FCT moveto rotate SW neg SH -2 div rmoveto show grestore} BD
/STLR{ gsave FCT moveto rotate 0 SH neg rmoveto show grestore } BD
/STCR{ gsave FCT moveto rotate SW -2 div SH neg rmoveto show grestore } BD
/STRR{ gsave FCT moveto rotate SW neg SH neg rmoveto show grestore } BD
/P  { newpath 0.0 360.0 arc closepath fill } BD
/LS { newpath moveto } BD
/L  { lineto } BD
/LE { lineto stroke } BD
/T  { newpath moveto lineto lineto closepath fill } BD
/STshfill {
      /b1 exch def /g1 exch def /r1 exch def /y1 exch def /x1 exch def
      /b2 exch def /g2 exch def /r2 exch def /y2 exch def /x2 exch def
      /b3 exch def /g3 exch def /r3 exch def /y3 exch def /x3 exch def
      gsave << /ShadingType 4 /ColorSpace [/DeviceRGB]
      /DataSource [ 0 x1 y1 r1 g1 b1 0 x2 y2 r2 g2 b2 0 x3 y3 r3 g3 b3 ] >>
      shfill grestore } BD
/Tm { 3 -1 roll 8 -1 roll 13 -1 roll add add 3 div
      3 -1 roll 7 -1 roll 11 -1 roll add add 3 div
      3 -1 roll 6 -1 roll 9 -1 roll add add 3 div C T } BD
/STsplit {
      4 index 15 index add 0.5 mul
      4 index 15 index add 0.5 mul
      4 index 15 index add 0.5 mul
      4 index 15 index add 0.5 mul
      4 index 15 index add 0.5 mul
      5 copy 5 copy 25 15 roll
      9 index 30 index add 0.5 mul
      9 index 30 index add 0.5 mul
      9 index 30 index add 0.5 mul
      9 index 30 index add 0.5 mul
      9 index 30 index add 0.5 mul
      5 copy 5 copy 35 5 roll 25 5 roll 15 5 roll
      4 index 10 index add 0.5 mul
      4 index 10 index add 0.5 mul
      4 index 10 index add 0.5 mul
      4 index 10 index add 0.5 mul
      4 index 10 index add 0.5 mul
      5 copy 5 copy 40 5 roll 25 5 roll 15 5 roll 25 5 roll
      STnoshfill STnoshfill STnoshfill STnoshfill } BD
/STnoshfill {
      2 index 8 index sub abs rThreshold gt
      { STsplit }
      { 1 index 7 index sub abs gThreshold gt
        { STsplit }
        { dup 6 index sub abs bThreshold gt
          { STsplit }
          { 2 index 13 index sub abs rThreshold gt
            { STsplit }
            { 1 index 12 index sub abs gThreshold gt
              { STsplit }
              { dup 11 index sub abs bThreshold gt
                { STsplit }
                { 7 index 13 index sub abs rThreshold gt
                  { STsplit }
                  { 6 index 12 index sub abs gThreshold gt
                    { STsplit }
                    { 5 index 11 index sub abs bThreshold gt
                      { STsplit }
                      { Tm }
                      ifelse }
                    ifelse }
                  ifelse }
                ifelse }
              ifelse }
            ifelse }
          ifelse }
        ifelse }
      ifelse } BD
tryPS3shading
{ /shfill where
  { /ST { STshfill } BD }
  { /ST { STnoshfill } BD }
  ifelse }
{ /ST { STnoshfill } BD }
ifelse
end
%%EndProlog
%%BeginSetup
/DeviceRGB setcolorspace
gl2psdict begin
%%EndSetup
%%Page: 1 1
%%BeginPageSetup
%%EndPageSetup
mark
gsave
1.0 1.0 scale
1 1 1 C
newpath 0 0 moveto 576 0 lineto 576 432 lineto 0 432 lineto
closepath fill
gsave
1.0 1.0 scale
1 1 1 C
newpath 0 0 moveto 576 0 lineto 576 432 lineto 0 432 lineto
closepath fill
newpath 0 0 moveto 576 0 lineto 576 432 lineto 0 432 lineto
closepath clip
1 1 1 C
77.2594 385.841 187.093 312.427 77.2594 312.427 T
77.2594 385.841 187.093 385.841 187.093 312.427 T
0.5 W
0.15 0.15 0.15 C
99.2173 312.427 LS
99.2173 313.532 LE
99.2173 385.841 LS
99.2173 384.736 LE
121.186 312.427 LS
121.186 313.532 LE
121.186 385.841 LS
121.186 384.736 LE
143.155 312.427 LS
143.155 313.532 LE
143.155 385.841 LS
143.155 384.736 LE
165.124 312.427 LS
165.124 313.532 LE
165.124 385.841 LS
165.124 384.736 LE
187.093 312.427 LS
187.093 313.532 LE
187.093 385.841 LS
187.093 384.736 LE
gsave
0.14902 0.14902 0.14902 C
(2e+06) [6 5 6 6 10] 0 84.7173 296.885 10 /Helvetica SRX
grestore

gsave
0.14902 0.14902 0.14902 C
(4e+06) [6 5 6 6 10] 0 106.686 296.885 10 /Helvetica SRX
grestore

gsave
0.14902 0.14902 0.14902 C
(6e+06) [6 5 6 6 10] 0 128.655 296.885 10 /Helvetica SRX
grestore

gsave
0.14902 0.14902 0.14902 C
(8e+06) [6 5 6 6 10] 0 150.624 296.885 10 /Helvetica SRX
grestore

gsave
0.14902 0.14902 0.14902 C
(1e+07) [6 5 6 6 10] 0 172.593 296.885 10 /Helvetica SRX
grestore

77.2594 312.427 LS
78.3561 312.427 LE
187.093 312.427 LS
185.996 312.427 LE
77.2594 324.663 LS
78.3561 324.663 LE
187.093 324.663 LS
185.996 324.663 LE
77.2594 336.898 LS
78.3561 336.898 LE
187.093 336.898 LS
185.996 336.898 LE
77.2594 349.134 LS
78.3561 349.134 LE
187.093 349.134 LS
185.996 349.134 LE
77.2594 361.37 LS
78.3561 361.37 LE
187.093 361.37 LS
185.996 361.37 LE
77.2594 373.605 LS
78.3561 373.605 LE
187.093 373.605 LS
185.996 373.605 LE
77.2594 385.841 LS
78.3561 385.841 LE
187.093 385.841 LS
185.996 385.841 LE
gsave
0.14902 0.14902 0.14902 C
(0) [10] 0 66.267 308.427 10 /Helvetica SRX
grestore

gsave
0.14902 0.14902 0.14902 C
(0.005) [6 3 6 6 10] 0 45.267 320.663 10 /Helvetica SRX
grestore

gsave
0.14902 0.14902 0.14902 C
(0.01) [6 3 6 10] 0 51.267 332.898 10 /Helvetica SRX
grestore

gsave
0.14902 0.14902 0.14902 C
(0.015) [6 3 6 6 10] 0 45.267 345.134 10 /Helvetica SRX
grestore

gsave
0.14902 0.14902 0.14902 C
(0.02) [6 3 6 10] 0 51.267 357.37 10 /Helvetica SRX
grestore

gsave
0.14902 0.14902 0.14902 C
(0.025) [6 3 6 6 10] 0 45.267 369.605 10 /Helvetica SRX
grestore

gsave
0.14902 0.14902 0.14902 C
(0.03) [6 3 6 10] 0 51.267 381.841 10 /Helvetica SRX
grestore

2 LC
[16 0] 0 setdash
77.2594 312.427 LS
187.093 312.427 LE
77.2594 385.841 LS
187.093 385.841 LE
77.2594 312.427 LS
77.2594 385.841 LE
187.093 312.427 LS
187.093 385.841 LE
gsave
0 0 0 C
(SE_eps_C_news4 \(Interval\)) [7 7 6 6 7 6 6 8 6 7 6 9 6 6 3 4 3 7 4 6 4 6 6 3 10] 0 60.676 398.841 11 /Helvetica-Bold SRX
grestore

0 LC
1 LJ
[] 0 setdash
0 0 1 C
77.2594 323.514 LS
78.3577 367.374 L
79.4561 339.858 L
80.5544 374.345 L
81.6527 347.181 L
82.7511 346.586 L
83.8494 341.696 L
84.9477 345.281 L
86.0461 345.301 L
87.1444 340.445 L
88.2427 339.901 L
89.3411 340.326 L
90.4394 348.436 L
91.5377 352.055 L
92.636 351.751 L
93.7344 346.72 L
94.8327 343.769 L
95.9311 340.109 L
97.0294 338.782 L
98.1277 336.206 L
99.226 335.763 L
100.324 337.559 L
101.423 338.116 L
102.521 341.384 L
103.619 341.383 L
104.718 342.355 L
105.816 342.7 L
106.914 342.667 L
108.013 341.698 L
109.111 339.351 L
110.209 340.41 L
111.308 346.317 L
112.406 346.218 L
113.504 349.478 L
114.603 349.644 L
115.701 349.438 L
116.799 348.262 L
117.898 348.032 L
118.996 346.067 L
120.094 346.828 L
121.193 348.205 L
122.291 346.51 L
123.389 345.745 L
124.488 345.429 L
125.586 346.609 L
126.684 346.832 L
127.783 347.724 L
128.881 347.235 L
129.979 347.261 L
131.078 344.534 L
132.176 343.794 L
133.274 343.007 L
134.373 342.923 L
135.471 342.691 L
136.569 345.376 L
137.668 345.89 L
138.766 347.798 L
139.864 349.142 L
140.963 348.447 L
142.061 347.53 L
143.159 345.648 L
144.258 346.085 L
145.356 345.123 L
146.454 345.018 L
147.553 344.986 L
148.651 345.52 L
149.749 346.624 L
150.848 345.24 L
151.946 344.137 L
153.044 342.572 L
154.143 340.729 L
155.241 340.917 L
156.339 341.093 L
157.438 343.11 L
158.536 345.138 L
159.634 345.046 L
160.733 343.983 L
161.831 343.681 L
162.929 344.987 L
164.028 344.823 L
165.126 344.588 L
166.224 345.093 L
167.323 345.387 L
168.421 345.651 L
169.519 345.728 L
170.618 345.991 L
171.716 345.983 L
172.814 345.951 L
173.913 346.225 L
175.011 346.256 L
176.109 346.198 L
177.208 344.533 L
178.306 342.825 L
179.404 343.544 L
180.503 344.605 L
181.601 344.781 L
182.699 344.734 L
183.798 345.057 L
184.896 346.891 L
185.994 349.029 L
187.093 348.855 LE
1 0 0 C
77.2594 317.097 LS
78.3577 334.512 L
79.4561 332.68 L
80.5544 338.028 L
81.6527 341.023 L
82.7511 334.893 L
83.8494 341.648 L
84.9477 331.825 L
86.0461 339.187 L
87.1444 337.88 L
88.2427 336.586 L
89.3411 337.521 L
90.4394 340.654 L
91.5377 339.077 L
92.636 336.584 L
93.7344 340.774 L
94.8327 342 L
95.9311 340.256 L
97.0294 338.265 L
98.1277 335.674 L
99.226 335.326 L
100.324 336.769 L
101.423 337.584 L
102.521 341.489 L
103.619 341.381 L
104.718 342.389 L
105.816 342.504 L
106.914 342.63 L
108.013 341.636 L
109.111 339.276 L
110.209 339.64 L
111.308 344.783 L
112.406 343.632 L
113.504 347.058 L
114.603 346.817 L
115.701 347.621 L
116.799 347.969 L
117.898 348.259 L
118.996 346.077 L
120.094 346.894 L
121.193 348.011 L
122.291 345.871 L
123.389 345.465 L
124.488 345.131 L
125.586 346.042 L
126.684 345.538 L
127.783 345.404 L
128.881 344.45 L
129.979 346.759 L
131.078 344.441 L
132.176 343.687 L
133.274 342.986 L
134.373 342.79 L
135.471 342.115 L
136.569 344.411 L
137.668 344.639 L
138.766 346.44 L
139.864 347.099 L
140.963 346.813 L
142.061 345.362 L
143.159 343.329 L
144.258 343.416 L
145.356 343.192 L
146.454 343.171 L
147.553 343.104 L
148.651 343.089 L
149.749 344.139 L
150.848 343.801 L
151.946 344.031 L
153.044 343.178 L
154.143 340.878 L
155.241 340.961 L
156.339 340.985 L
157.438 342.621 L
158.536 344.039 L
159.634 343.691 L
160.733 342.964 L
161.831 342.347 L
162.929 342.836 L
164.028 342.527 L
165.126 342.717 L
166.224 343.034 L
167.323 342.405 L
168.421 342.169 L
169.519 342.879 L
170.618 343.133 L
171.716 343.382 L
172.814 343.906 L
173.913 344.405 L
175.011 345.02 L
176.109 345.057 L
177.208 344.094 L
178.306 342.697 L
179.404 343.638 L
180.503 344.698 L
181.601 344.609 L
182.699 344.393 L
183.798 344.797 L
184.896 346.885 L
185.994 348.654 L
187.093 348.34 LE
grestore
gsave
1.0 1.0 scale
newpath 0 0 moveto 576 0 lineto 576 432 lineto 0 432 lineto
closepath clip
1 1 1 C
244.353 385.841 354.186 312.427 244.353 312.427 T
244.353 385.841 354.186 385.841 354.186 312.427 T
0.5 W
0.15 0.15 0.15 C
266.311 312.427 LS
266.311 313.532 LE
266.311 385.841 LS
266.311 384.736 LE
288.28 312.427 LS
288.28 313.532 LE
288.28 385.841 LS
288.28 384.736 LE
310.249 312.427 LS
310.249 313.532 LE
310.249 385.841 LS
310.249 384.736 LE
332.217 312.427 LS
332.217 313.532 LE
332.217 385.841 LS
332.217 384.736 LE
354.186 312.427 LS
354.186 313.532 LE
354.186 385.841 LS
354.186 384.736 LE
gsave
0.14902 0.14902 0.14902 C
(2e+06) [6 5 6 6 10] 0 251.811 296.885 10 /Helvetica SRX
grestore

gsave
0.14902 0.14902 0.14902 C
(4e+06) [6 5 6 6 10] 0 273.78 296.885 10 /Helvetica SRX
grestore

gsave
0.14902 0.14902 0.14902 C
(6e+06) [6 5 6 6 10] 0 295.749 296.885 10 /Helvetica SRX
grestore

gsave
0.14902 0.14902 0.14902 C
(8e+06) [6 5 6 6 10] 0 317.717 296.885 10 /Helvetica SRX
grestore

gsave
0.14902 0.14902 0.14902 C
(1e+07) [6 5 6 6 10] 0 339.686 296.885 10 /Helvetica SRX
grestore

244.353 312.427 LS
245.45 312.427 LE
354.186 312.427 LS
353.09 312.427 LE
244.353 324.663 LS
245.45 324.663 LE
354.186 324.663 LS
353.09 324.663 LE
244.353 336.898 LS
245.45 336.898 LE
354.186 336.898 LS
353.09 336.898 LE
244.353 349.134 LS
245.45 349.134 LE
354.186 349.134 LS
353.09 349.134 LE
244.353 361.37 LS
245.45 361.37 LE
354.186 361.37 LS
353.09 361.37 LE
244.353 373.605 LS
245.45 373.605 LE
354.186 373.605 LS
353.09 373.605 LE
244.353 385.841 LS
245.45 385.841 LE
354.186 385.841 LS
353.09 385.841 LE
gsave
0.14902 0.14902 0.14902 C
(0) [10] 0 233.361 308.427 10 /Helvetica SRX
grestore

gsave
0.14902 0.14902 0.14902 C
(2e-05) [6 5 3 6 10] 0 213.361 320.663 10 /Helvetica SRX
grestore

gsave
0.14902 0.14902 0.14902 C
(4e-05) [6 5 3 6 10] 0 213.361 332.898 10 /Helvetica SRX
grestore

gsave
0.14902 0.14902 0.14902 C
(6e-05) [6 5 3 6 10] 0 213.361 345.134 10 /Helvetica SRX
grestore

gsave
0.14902 0.14902 0.14902 C
(8e-05) [6 5 3 6 10] 0 213.361 357.37 10 /Helvetica SRX
grestore

gsave
0.14902 0.14902 0.14902 C
(0.0001) [6 3 6 6 6 10] 0 206.361 369.605 10 /Helvetica SRX
grestore

gsave
0.14902 0.14902 0.14902 C
(0.00012) [6 3 6 6 6 6 10] 0 200.361 381.841 10 /Helvetica SRX
grestore

2 LC
[16 0] 0 setdash
244.353 312.427 LS
354.186 312.427 LE
244.353 385.841 LS
354.186 385.841 LE
244.353 312.427 LS
244.353 385.841 LE
354.186 312.427 LS
354.186 385.841 LE
gsave
0 0 0 C
(SE_eps_C_news4 \(m2\)) [7 7 6 6 7 6 6 8 6 7 6 9 6 6 3 4 10 6 10] 0 239.27 398.841 11 /Helvetica-Bold SRX
grestore

0 LC
1 LJ
[] 0 setdash
0 0 1 C
244.353 314.492 LS
245.451 359.216 L
246.55 324.059 L
247.648 378.221 L
248.746 330.967 L
249.845 329.025 L
250.943 325.161 L
252.041 328.625 L
253.14 328.079 L
254.238 324.964 L
255.336 324.458 L
256.435 324.746 L
257.533 331.4 L
258.631 336.087 L
259.73 336.246 L
260.828 329.588 L
261.926 326.949 L
263.025 323.981 L
264.123 323.239 L
265.221 321.254 L
266.32 320.892 L
267.418 322.27 L
268.516 322.606 L
269.615 325.172 L
270.713 325.322 L
271.811 325.964 L
272.91 326.17 L
274.008 326.036 L
275.106 325.214 L
276.205 323.613 L
277.303 324.343 L
278.401 329.817 L
279.5 329.712 L
280.598 332.895 L
281.696 333.444 L
282.795 333.353 L
283.893 332.787 L
284.991 332.611 L
286.09 331.116 L
287.188 331.498 L
288.286 332.805 L
289.385 330.756 L
290.483 329.065 L
291.581 328.649 L
292.68 329.79 L
293.778 329.869 L
294.876 330.817 L
295.975 330.228 L
297.073 330.045 L
298.171 327.484 L
299.27 326.908 L
300.368 326.326 L
301.466 326.306 L
302.565 326.257 L
303.663 328.653 L
304.761 329.292 L
305.86 331.649 L
306.958 332.717 L
308.056 332.251 L
309.155 331.486 L
310.253 330.017 L
311.351 330.109 L
312.45 329.338 L
313.548 329.153 L
314.646 329.107 L
315.745 329.45 L
316.843 330.512 L
317.941 329.613 L
319.04 329.048 L
320.138 328.042 L
321.236 325.327 L
322.335 325.219 L
323.433 325.023 L
324.531 326.944 L
325.63 329.015 L
326.728 328.864 L
327.826 328.356 L
328.925 328.151 L
330.023 328.932 L
331.121 328.773 L
332.22 328.689 L
333.318 328.985 L
334.416 328.999 L
335.515 329.111 L
336.613 329.345 L
337.711 329.581 L
338.81 329.583 L
339.908 329.628 L
341.006 329.886 L
342.105 330.096 L
343.203 330.161 L
344.301 329 L
345.4 326.983 L
346.498 327.743 L
347.596 328.593 L
348.695 328.623 L
349.793 328.603 L
350.891 328.971 L
351.99 330.836 L
353.088 332.562 L
354.186 332.36 LE
1 0 0 C
244.353 312.743 LS
245.451 319.755 L
246.55 319.159 L
247.648 322.655 L
248.746 325.48 L
249.845 319.815 L
250.943 324.741 L
252.041 318.131 L
253.14 322.852 L
254.238 322.673 L
255.336 321.243 L
256.435 321.779 L
257.533 324.458 L
258.631 323.845 L
259.73 321.835 L
260.828 324.339 L
261.926 324.968 L
263.025 323.98 L
264.123 322.695 L
265.221 321.057 L
266.32 320.732 L
267.418 321.752 L
268.516 322.143 L
269.615 325.147 L
270.713 325.3 L
271.811 325.929 L
272.91 325.921 L
274.008 325.822 L
275.106 324.986 L
276.205 323.522 L
277.303 323.886 L
278.401 328.181 L
279.5 327.208 L
280.598 331.29 L
281.696 331.431 L
282.795 331.969 L
283.893 332.212 L
284.991 332.446 L
286.09 331.11 L
287.188 331.472 L
288.286 332.604 L
289.385 329.817 L
290.483 328.891 L
291.581 328.46 L
292.68 329.189 L
293.778 328.468 L
294.876 328.53 L
295.975 327.37 L
297.073 329.154 L
298.171 327.344 L
299.27 326.76 L
300.368 326.27 L
301.466 326.178 L
302.565 325.793 L
303.663 327.518 L
304.761 327.976 L
305.86 329.866 L
306.958 330.499 L
308.056 330.149 L
309.155 329.073 L
310.253 326.911 L
311.351 327.105 L
312.45 326.932 L
313.548 326.794 L
314.646 326.788 L
315.745 327.027 L
316.843 328.024 L
317.941 328.168 L
319.04 328.393 L
320.138 327.8 L
321.236 325.299 L
322.335 325.191 L
323.433 324.751 L
324.531 326.075 L
325.63 327.637 L
326.728 327.368 L
327.826 326.84 L
328.925 326.428 L
330.023 326.828 L
331.121 326.561 L
332.22 326.583 L
333.318 326.781 L
334.416 326.049 L
335.515 325.824 L
336.613 327.021 L
337.711 327.16 L
338.81 327.611 L
339.908 328.181 L
341.006 328.679 L
342.105 329.149 L
343.203 329.293 L
344.301 328.49 L
345.4 326.807 L
346.498 327.727 L
347.596 328.552 L
348.695 328.453 L
349.793 328.351 L
350.891 328.747 L
351.99 330.787 L
353.088 332.553 L
354.186 332.323 LE
grestore
gsave
1.0 1.0 scale
newpath 0 0 moveto 576 0 lineto 576 432 lineto 0 432 lineto
closepath clip
1 1 1 C
411.447 385.841 521.28 312.427 411.447 312.427 T
411.447 385.841 521.28 385.841 521.28 312.427 T
0.5 W
0.15 0.15 0.15 C
433.405 312.427 LS
433.405 313.532 LE
433.405 385.841 LS
433.405 384.736 LE
455.374 312.427 LS
455.374 313.532 LE
455.374 385.841 LS
455.374 384.736 LE
477.342 312.427 LS
477.342 313.532 LE
477.342 385.841 LS
477.342 384.736 LE
499.311 312.427 LS
499.311 313.532 LE
499.311 385.841 LS
499.311 384.736 LE
521.28 312.427 LS
521.28 313.532 LE
521.28 385.841 LS
521.28 384.736 LE
gsave
0.14902 0.14902 0.14902 C
(2e+06) [6 5 6 6 10] 0 418.905 296.885 10 /Helvetica SRX
grestore

gsave
0.14902 0.14902 0.14902 C
(4e+06) [6 5 6 6 10] 0 440.874 296.885 10 /Helvetica SRX
grestore

gsave
0.14902 0.14902 0.14902 C
(6e+06) [6 5 6 6 10] 0 462.842 296.885 10 /Helvetica SRX
grestore

gsave
0.14902 0.14902 0.14902 C
(8e+06) [6 5 6 6 10] 0 484.811 296.885 10 /Helvetica SRX
grestore

gsave
0.14902 0.14902 0.14902 C
(1e+07) [6 5 6 6 10] 0 506.78 296.885 10 /Helvetica SRX
grestore

411.447 312.427 LS
412.544 312.427 LE
521.28 312.427 LS
520.183 312.427 LE
411.447 322.915 LS
412.544 322.915 LE
521.28 322.915 LS
520.183 322.915 LE
411.447 333.403 LS
412.544 333.403 LE
521.28 333.403 LS
520.183 333.403 LE
411.447 343.89 LS
412.544 343.89 LE
521.28 343.89 LS
520.183 343.89 LE
411.447 354.378 LS
412.544 354.378 LE
521.28 354.378 LS
520.183 354.378 LE
411.447 364.865 LS
412.544 364.865 LE
521.28 364.865 LS
520.183 364.865 LE
411.447 375.353 LS
412.544 375.353 LE
521.28 375.353 LS
520.183 375.353 LE
411.447 385.841 LS
412.544 385.841 LE
521.28 385.841 LS
520.183 385.841 LE
gsave
0.14902 0.14902 0.14902 C
(0) [10] 0 400.454 308.427 10 /Helvetica SRX
grestore

gsave
0.14902 0.14902 0.14902 C
(2e-07) [6 5 3 6 10] 0 380.454 318.915 10 /Helvetica SRX
grestore

gsave
0.14902 0.14902 0.14902 C
(4e-07) [6 5 3 6 10] 0 380.454 329.403 10 /Helvetica SRX
grestore

gsave
0.14902 0.14902 0.14902 C
(6e-07) [6 5 3 6 10] 0 380.454 339.89 10 /Helvetica SRX
grestore

gsave
0.14902 0.14902 0.14902 C
(8e-07) [6 5 3 6 10] 0 380.454 350.378 10 /Helvetica SRX
grestore

gsave
0.14902 0.14902 0.14902 C
(1e-06) [6 5 3 6 10] 0 380.454 360.865 10 /Helvetica SRX
grestore

gsave
0.14902 0.14902 0.14902 C
(1.2e-06) [6 3 6 5 3 6 10] 0 371.454 371.353 10 /Helvetica SRX
grestore

gsave
0.14902 0.14902 0.14902 C
(1.4e-06) [6 3 6 5 3 6 10] 0 371.454 381.841 10 /Helvetica SRX
grestore

2 LC
[16 0] 0 setdash
411.447 312.427 LS
521.28 312.427 LE
411.447 385.841 LS
521.28 385.841 LE
411.447 312.427 LS
411.447 385.841 LE
521.28 312.427 LS
521.28 385.841 LE
gsave
0 0 0 C
(SE_eps_C_news4 \(m3\)) [7 7 6 6 7 6 6 8 6 7 6 9 6 6 3 4 10 6 10] 0 406.363 398.841 11 /Helvetica-Bold SRX
grestore

0 LC
1 LJ
[] 0 setdash
0 0 1 C
411.447 312.819 LS
412.545 354.2 L
413.644 319.376 L
414.742 381.205 L
415.84 326.67 L
416.939 322.937 L
418.037 319.763 L
419.135 322.217 L
420.234 322.14 L
421.332 320.257 L
422.43 319.366 L
423.529 319.686 L
424.627 325.18 L
425.725 330.353 L
426.823 330.664 L
427.922 323.672 L
429.02 321.436 L
430.118 318.86 L
431.217 318.546 L
432.315 317.038 L
433.413 316.772 L
434.512 317.884 L
435.61 318.07 L
436.708 320.333 L
437.807 320.348 L
438.905 320.851 L
440.003 321.277 L
441.102 321.061 L
442.2 320.336 L
443.298 319.145 L
444.397 319.751 L
445.495 325.455 L
446.593 325.037 L
447.692 328.431 L
448.79 329.582 L
449.888 329.438 L
450.987 328.788 L
452.085 328.637 L
453.183 327.227 L
454.282 327.295 L
455.38 328.281 L
456.478 325.798 L
457.577 323.458 L
458.675 323.167 L
459.773 324.212 L
460.872 324.393 L
461.97 325.591 L
463.068 325.058 L
464.167 324.827 L
465.265 322.168 L
466.363 321.668 L
467.462 321.182 L
468.56 321.134 L
469.658 321.138 L
470.757 323.444 L
471.855 324.176 L
472.953 327.128 L
474.052 328.066 L
475.15 327.683 L
476.248 327.088 L
477.347 325.799 L
478.445 325.809 L
479.543 325.104 L
480.642 324.914 L
481.74 324.861 L
482.838 325.283 L
483.937 326.432 L
485.035 325.689 L
486.133 325.316 L
487.232 324.35 L
488.33 320.757 L
489.428 320.594 L
490.527 320.252 L
491.625 322.16 L
492.723 324.525 L
493.822 324.524 L
494.92 324.241 L
496.018 324.123 L
497.117 324.865 L
498.215 324.711 L
499.313 324.571 L
500.412 324.635 L
501.51 324.471 L
502.608 324.504 L
503.707 324.807 L
504.805 324.913 L
505.903 324.905 L
507.002 324.978 L
508.1 325.239 L
509.198 325.661 L
510.297 325.814 L
511.395 324.826 L
512.493 322.373 L
513.592 323.118 L
514.69 323.866 L
515.788 323.819 L
516.887 323.769 L
517.985 324.148 L
519.083 326.237 L
520.182 327.967 L
521.28 327.831 LE
1 0 0 C
411.447 312.46 LS
412.545 315.759 L
413.644 315.885 L
414.742 318.74 L
415.84 320.716 L
416.939 315.76 L
418.037 319.569 L
419.135 314.767 L
420.234 318.168 L
421.332 318.131 L
422.43 317.176 L
423.529 317.406 L
424.627 319.401 L
425.725 319.511 L
426.823 317.978 L
427.922 319.348 L
429.02 319.872 L
430.118 318.862 L
431.217 318.091 L
432.315 316.907 L
433.413 316.667 L
434.512 317.418 L
435.61 317.658 L
436.708 320.305 L
437.807 320.319 L
438.905 320.848 L
440.003 321.026 L
441.102 320.825 L
442.2 320.058 L
443.298 319.086 L
444.397 319.421 L
445.495 323.331 L
446.593 321.901 L
447.692 326.708 L
448.79 327.216 L
449.888 327.728 L
450.987 327.894 L
452.085 328.271 L
453.183 327.246 L
454.282 327.238 L
455.38 328.028 L
456.478 324.594 L
457.577 323.263 L
458.675 322.936 L
459.773 323.598 L
460.872 323.165 L
461.97 323.481 L
463.068 322.083 L
464.167 323.875 L
465.265 322.021 L
466.363 321.523 L
467.462 321.132 L
468.56 321.032 L
469.658 320.799 L
470.757 322.39 L
471.855 322.904 L
472.953 325.045 L
474.052 325.492 L
475.15 325.177 L
476.248 324.171 L
477.347 321.987 L
478.445 322.234 L
479.543 322.131 L
480.642 321.87 L
481.74 321.877 L
482.838 322.219 L
483.937 323.141 L
485.035 323.732 L
486.133 324.262 L
487.232 323.897 L
488.33 320.716 L
489.428 320.56 L
490.527 319.92 L
491.625 321.1 L
492.723 322.694 L
493.822 322.547 L
494.92 322.185 L
496.018 321.864 L
497.117 322.147 L
498.215 321.936 L
499.313 321.89 L
500.412 321.962 L
501.51 321.033 L
502.608 320.791 L
503.707 322.361 L
504.805 322.387 L
505.903 322.892 L
507.002 323.456 L
508.1 323.936 L
509.198 324.515 L
510.297 324.695 L
511.395 324.131 L
512.493 322.175 L
513.592 323.096 L
514.69 323.846 L
515.788 323.707 L
516.887 323.614 L
517.985 324.042 L
519.083 326.285 L
520.182 327.916 L
521.28 327.709 LE
grestore
gsave
1.0 1.0 scale
newpath 0 0 moveto 576 0 lineto 576 432 lineto 0 432 lineto
closepath clip
1 1 1 C
77.2594 253.387 187.093 179.974 77.2594 179.974 T
77.2594 253.387 187.093 253.387 187.093 179.974 T
0.5 W
0.15 0.15 0.15 C
99.2173 179.974 LS
99.2173 181.078 LE
99.2173 253.387 LS
99.2173 252.282 LE
121.186 179.974 LS
121.186 181.078 LE
121.186 253.387 LS
121.186 252.282 LE
143.155 179.974 LS
143.155 181.078 LE
143.155 253.387 LS
143.155 252.282 LE
165.124 179.974 LS
165.124 181.078 LE
165.124 253.387 LS
165.124 252.282 LE
187.093 179.974 LS
187.093 181.078 LE
187.093 253.387 LS
187.093 252.282 LE
gsave
0.14902 0.14902 0.14902 C
(2e+06) [6 5 6 6 10] 0 84.7173 164.431 10 /Helvetica SRX
grestore

gsave
0.14902 0.14902 0.14902 C
(4e+06) [6 5 6 6 10] 0 106.686 164.431 10 /Helvetica SRX
grestore

gsave
0.14902 0.14902 0.14902 C
(6e+06) [6 5 6 6 10] 0 128.655 164.431 10 /Helvetica SRX
grestore

gsave
0.14902 0.14902 0.14902 C
(8e+06) [6 5 6 6 10] 0 150.624 164.431 10 /Helvetica SRX
grestore

gsave
0.14902 0.14902 0.14902 C
(1e+07) [6 5 6 6 10] 0 172.593 164.431 10 /Helvetica SRX
grestore

77.2594 179.974 LS
78.3561 179.974 LE
187.093 179.974 LS
185.996 179.974 LE
77.2594 194.656 LS
78.3561 194.656 LE
187.093 194.656 LS
185.996 194.656 LE
77.2594 209.339 LS
78.3561 209.339 LE
187.093 209.339 LS
185.996 209.339 LE
77.2594 224.022 LS
78.3561 224.022 LE
187.093 224.022 LS
185.996 224.022 LE
77.2594 238.704 LS
78.3561 238.704 LE
187.093 238.704 LS
185.996 238.704 LE
77.2594 253.387 LS
78.3561 253.387 LE
187.093 253.387 LS
185.996 253.387 LE
gsave
0.14902 0.14902 0.14902 C
(0.03) [6 3 6 10] 0 51.267 175.974 10 /Helvetica SRX
grestore

gsave
0.14902 0.14902 0.14902 C
(0.04) [6 3 6 10] 0 51.267 190.656 10 /Helvetica SRX
grestore

gsave
0.14902 0.14902 0.14902 C
(0.05) [6 3 6 10] 0 51.267 205.339 10 /Helvetica SRX
grestore

gsave
0.14902 0.14902 0.14902 C
(0.06) [6 3 6 10] 0 51.267 220.022 10 /Helvetica SRX
grestore

gsave
0.14902 0.14902 0.14902 C
(0.07) [6 3 6 10] 0 51.267 234.704 10 /Helvetica SRX
grestore

gsave
0.14902 0.14902 0.14902 C
(0.08) [6 3 6 10] 0 51.267 249.387 10 /Helvetica SRX
grestore

2 LC
[16 0] 0 setdash
77.2594 179.974 LS
187.093 179.974 LE
77.2594 253.387 LS
187.093 253.387 LE
77.2594 179.974 LS
77.2594 253.387 LE
187.093 179.974 LS
187.093 253.387 LE
gsave
0 0 0 C
(b \(Interval\)) [7 3 4 3 7 4 6 4 6 6 3 10] 0 103.676 266.387 11 /Helvetica-Bold SRX
grestore

0 LC
1 LJ
[] 0 setdash
0 0 1 C
77.2594 191.377 LS
78.3577 220.685 L
79.4561 237.862 L
80.5544 212.575 L
81.6527 207.322 L
82.7511 212.338 L
83.8494 243.113 L
84.9477 248.712 L
86.0461 235.099 L
87.1444 238.39 L
88.2427 241.704 L
89.3411 244.952 L
90.4394 217.041 L
91.5377 221.144 L
92.636 216.422 L
93.7344 215.506 L
94.8327 222.59 L
95.9311 214.259 L
97.0294 219.682 L
98.1277 241.589 L
99.226 242.852 L
100.324 244.803 L
101.423 239.155 L
102.521 229.464 L
103.619 210.28 L
104.718 205.732 L
105.816 206.637 L
106.914 206.155 L
108.013 207.696 L
109.111 208.999 L
110.209 210.493 L
111.308 209.726 L
112.406 208.846 L
113.504 209.866 L
114.603 211.078 L
115.701 209.581 L
116.799 207.515 L
117.898 207.253 L
118.996 210.037 L
120.094 209.011 L
121.193 210.201 L
122.291 212.884 L
123.389 211.108 L
124.488 208.501 L
125.586 208.908 L
126.684 209.365 L
127.783 210.477 L
128.881 208.571 L
129.979 207.657 L
131.078 208.847 L
132.176 211.669 L
133.274 210.105 L
134.373 211.523 L
135.471 213.488 L
136.569 214.449 L
137.668 217.137 L
138.766 217.613 L
139.864 217.685 L
140.963 217.561 L
142.061 219.248 L
143.159 220.87 L
144.258 222.028 L
145.356 223.987 L
146.454 227.07 L
147.553 226.119 L
148.651 226.513 L
149.749 226.897 L
150.848 231.205 L
151.946 233.118 L
153.044 233.076 L
154.143 234.278 L
155.241 232.733 L
156.339 233.957 L
157.438 232.891 L
158.536 232.648 L
159.634 231.827 L
160.733 230.119 L
161.831 232.194 L
162.929 231.013 L
164.028 230.297 L
165.126 232.23 L
166.224 233.189 L
167.323 232.292 L
168.421 230.143 L
169.519 225.803 L
170.618 221.758 L
171.716 220.543 L
172.814 216.744 L
173.913 215.377 L
175.011 216.932 L
176.109 217.974 L
177.208 218.515 L
178.306 219.588 L
179.404 220.024 L
180.503 219.611 L
181.601 219.348 L
182.699 216.702 L
183.798 216.135 L
184.896 215.571 L
185.994 214.136 L
187.093 213.425 LE
1 0 0 C
77.2594 187.973 LS
78.3577 212.508 L
79.4561 218.527 L
80.5544 212.412 L
81.6527 207.188 L
82.7511 204.298 L
83.8494 206.794 L
84.9477 201.41 L
86.0461 194.958 L
87.1444 203.26 L
88.2427 213.155 L
89.3411 218.785 L
90.4394 202.779 L
91.5377 211.188 L
92.636 206.978 L
93.7344 208.501 L
94.8327 218.087 L
95.9311 215.19 L
97.0294 213.117 L
98.1277 221.321 L
99.226 213.028 L
100.324 217.613 L
101.423 224.466 L
102.521 222.854 L
103.619 208.081 L
104.718 204.421 L
105.816 206.842 L
106.914 205.555 L
108.013 206.046 L
109.111 206.325 L
110.209 209.04 L
111.308 208.856 L
112.406 207.846 L
113.504 207.464 L
114.603 208.513 L
115.701 208.413 L
116.799 206.993 L
117.898 205.837 L
118.996 207.585 L
120.094 206.301 L
121.193 207.013 L
122.291 207.826 L
123.389 206.942 L
124.488 205.888 L
125.586 206.683 L
126.684 207.824 L
127.783 208.269 L
128.881 206.603 L
129.979 204.958 L
131.078 206.012 L
132.176 209.439 L
133.274 208.834 L
134.373 210.958 L
135.471 212.591 L
136.569 212.979 L
137.668 215.45 L
138.766 215.759 L
139.864 217.205 L
140.963 217.215 L
142.061 218.933 L
143.159 220.855 L
144.258 221.938 L
145.356 223.986 L
146.454 226.697 L
147.553 225.814 L
148.651 226.125 L
149.749 225.398 L
150.848 227.533 L
151.946 227.845 L
153.044 228.872 L
154.143 230.673 L
155.241 230.314 L
156.339 231.906 L
157.438 230.596 L
158.536 230.56 L
159.634 231.023 L
160.733 229.881 L
161.831 232.737 L
162.929 231.639 L
164.028 229.584 L
165.126 230.959 L
166.224 232.026 L
167.323 230.379 L
168.421 226.757 L
169.519 221.032 L
170.618 217.157 L
171.716 215.787 L
172.814 211.806 L
173.913 210.481 L
175.011 212.644 L
176.109 212.248 L
177.208 212.931 L
178.306 213.891 L
179.404 214.395 L
180.503 214.846 L
181.601 215.018 L
182.699 213.367 L
183.798 213.218 L
184.896 212.851 L
185.994 212.046 L
187.093 211.213 LE
grestore
gsave
1.0 1.0 scale
newpath 0 0 moveto 576 0 lineto 576 432 lineto 0 432 lineto
closepath clip
1 1 1 C
244.353 253.387 354.186 179.974 244.353 179.974 T
244.353 253.387 354.186 253.387 354.186 179.974 T
0.5 W
0.15 0.15 0.15 C
266.311 179.974 LS
266.311 181.078 LE
266.311 253.387 LS
266.311 252.282 LE
288.28 179.974 LS
288.28 181.078 LE
288.28 253.387 LS
288.28 252.282 LE
310.249 179.974 LS
310.249 181.078 LE
310.249 253.387 LS
310.249 252.282 LE
332.217 179.974 LS
332.217 181.078 LE
332.217 253.387 LS
332.217 252.282 LE
354.186 179.974 LS
354.186 181.078 LE
354.186 253.387 LS
354.186 252.282 LE
gsave
0.14902 0.14902 0.14902 C
(2e+06) [6 5 6 6 10] 0 251.811 164.431 10 /Helvetica SRX
grestore

gsave
0.14902 0.14902 0.14902 C
(4e+06) [6 5 6 6 10] 0 273.78 164.431 10 /Helvetica SRX
grestore

gsave
0.14902 0.14902 0.14902 C
(6e+06) [6 5 6 6 10] 0 295.749 164.431 10 /Helvetica SRX
grestore

gsave
0.14902 0.14902 0.14902 C
(8e+06) [6 5 6 6 10] 0 317.717 164.431 10 /Helvetica SRX
grestore

gsave
0.14902 0.14902 0.14902 C
(1e+07) [6 5 6 6 10] 0 339.686 164.431 10 /Helvetica SRX
grestore

244.353 179.974 LS
245.45 179.974 LE
354.186 179.974 LS
353.09 179.974 LE
244.353 194.656 LS
245.45 194.656 LE
354.186 194.656 LS
353.09 194.656 LE
244.353 209.339 LS
245.45 209.339 LE
354.186 209.339 LS
353.09 209.339 LE
244.353 224.022 LS
245.45 224.022 LE
354.186 224.022 LS
353.09 224.022 LE
244.353 238.704 LS
245.45 238.704 LE
354.186 238.704 LS
353.09 238.704 LE
244.353 253.387 LS
245.45 253.387 LE
354.186 253.387 LS
353.09 253.387 LE
gsave
0.14902 0.14902 0.14902 C
(0) [10] 0 233.361 175.974 10 /Helvetica SRX
grestore

gsave
0.14902 0.14902 0.14902 C
(0.0002) [6 3 6 6 6 10] 0 206.361 190.656 10 /Helvetica SRX
grestore

gsave
0.14902 0.14902 0.14902 C
(0.0004) [6 3 6 6 6 10] 0 206.361 205.339 10 /Helvetica SRX
grestore

gsave
0.14902 0.14902 0.14902 C
(0.0006) [6 3 6 6 6 10] 0 206.361 220.022 10 /Helvetica SRX
grestore

gsave
0.14902 0.14902 0.14902 C
(0.0008) [6 3 6 6 6 10] 0 206.361 234.704 10 /Helvetica SRX
grestore

gsave
0.14902 0.14902 0.14902 C
(0.001) [6 3 6 6 10] 0 212.361 249.387 10 /Helvetica SRX
grestore

2 LC
[16 0] 0 setdash
244.353 179.974 LS
354.186 179.974 LE
244.353 253.387 LS
354.186 253.387 LE
244.353 179.974 LS
244.353 253.387 LE
354.186 179.974 LS
354.186 253.387 LE
gsave
0 0 0 C
(b \(m2\)) [7 3 4 10 6 10] 0 282.27 266.387 11 /Helvetica-Bold SRX
grestore

0 LC
1 LJ
[] 0 setdash
0 0 1 C
244.353 196.812 LS
245.451 215.22 L
246.55 231.447 L
247.648 210.4 L
248.746 205.155 L
249.845 209.419 L
250.943 237.364 L
252.041 243.583 L
253.14 231.278 L
254.238 233.436 L
255.336 235.566 L
256.435 236.327 L
257.533 212.654 L
258.631 216.249 L
259.73 214.762 L
260.828 213.548 L
261.926 218.966 L
263.025 211.361 L
264.123 215.915 L
265.221 235.044 L
266.32 235.964 L
267.418 237.75 L
268.516 233.107 L
269.615 225.377 L
270.713 208.06 L
271.811 205.481 L
272.91 206.358 L
274.008 205.903 L
275.106 206.552 L
276.205 207.21 L
277.303 208.243 L
278.401 207.795 L
279.5 207.297 L
280.598 208.558 L
281.696 209.484 L
282.795 208.752 L
283.893 207.442 L
284.991 207.429 L
286.09 208.776 L
287.188 208.11 L
288.286 208.723 L
289.385 209.969 L
290.483 208.196 L
291.581 206.564 L
292.68 206.748 L
293.778 207.015 L
294.876 207.925 L
295.975 206.795 L
297.073 206.302 L
298.171 206.991 L
299.27 208.99 L
300.368 208.35 L
301.466 209.176 L
302.565 210.425 L
303.663 211.141 L
304.761 213.152 L
305.86 213.409 L
306.958 213.424 L
308.056 213.305 L
309.155 214.51 L
310.253 215.609 L
311.351 216.448 L
312.45 218.064 L
313.548 220.643 L
314.646 220.018 L
315.745 220.23 L
316.843 220.642 L
317.941 224.628 L
319.04 226.277 L
320.138 226.084 L
321.236 227.104 L
322.335 225.583 L
323.433 226.718 L
324.531 225.725 L
325.63 225.642 L
326.728 225.023 L
327.826 223.653 L
328.925 225.344 L
330.023 224.344 L
331.121 223.664 L
332.22 225.234 L
333.318 226.183 L
334.416 225.302 L
335.515 223.463 L
336.613 219.327 L
337.711 216.004 L
338.81 215.095 L
339.908 212.007 L
341.006 211.368 L
342.105 212.408 L
343.203 213.06 L
344.301 213.53 L
345.4 214.634 L
346.498 215.057 L
347.596 214.791 L
348.695 214.589 L
349.793 212.61 L
350.891 212.237 L
351.99 211.889 L
353.088 210.877 L
354.186 210.322 LE
1 0 0 C
244.353 193.951 LS
245.451 208.457 L
246.55 213.178 L
247.648 209.77 L
248.746 205.137 L
249.845 203.016 L
250.943 205.675 L
252.041 201.55 L
253.14 199.129 L
254.238 205.391 L
255.336 210.43 L
256.435 216.365 L
257.533 203.308 L
258.631 208.7 L
259.73 206.352 L
260.828 208.606 L
261.926 215.388 L
263.025 211.327 L
264.123 210.33 L
265.221 216.64 L
266.32 209.875 L
267.418 213.124 L
268.516 219.347 L
269.615 218.786 L
270.713 206.444 L
271.811 204.415 L
272.91 206.358 L
274.008 205.662 L
275.106 205.937 L
276.205 206.152 L
277.303 207.542 L
278.401 207.432 L
279.5 206.867 L
280.598 206.894 L
281.696 207.553 L
282.795 207.641 L
283.893 206.746 L
284.991 205.622 L
286.09 206.218 L
287.188 205.419 L
288.286 205.762 L
289.385 206.212 L
290.483 205.333 L
291.581 204.576 L
292.68 205.019 L
293.778 205.771 L
294.876 206.216 L
295.975 205.247 L
297.073 204.17 L
298.171 204.947 L
299.27 207.853 L
300.368 208.047 L
301.466 209.121 L
302.565 210.035 L
303.663 210.415 L
304.761 212.395 L
305.86 212.448 L
306.958 213.253 L
308.056 213.239 L
309.155 214.328 L
310.253 215.601 L
311.351 216.41 L
312.45 218.028 L
313.548 220.285 L
314.646 219.698 L
315.745 219.859 L
316.843 219.345 L
317.941 221.106 L
319.04 221.513 L
320.138 222.267 L
321.236 223.802 L
322.335 223.227 L
323.433 224.646 L
324.531 223.531 L
325.63 223.459 L
326.728 223.907 L
327.826 223.055 L
328.925 225.292 L
330.023 224.303 L
331.121 222.97 L
332.22 224.158 L
333.318 225.174 L
334.416 223.691 L
335.515 221.177 L
336.613 216.285 L
337.711 212.585 L
338.81 211.726 L
339.908 208.562 L
341.006 207.507 L
342.105 209.346 L
343.203 209.103 L
344.301 209.601 L
345.4 210.452 L
346.498 210.898 L
347.596 211.205 L
348.695 211.212 L
349.793 210.03 L
350.891 210.012 L
351.99 209.798 L
353.088 209.414 L
354.186 208.821 LE
grestore
gsave
1.0 1.0 scale
newpath 0 0 moveto 576 0 lineto 576 432 lineto 0 432 lineto
closepath clip
1 1 1 C
411.447 253.387 521.28 179.974 411.447 179.974 T
411.447 253.387 521.28 253.387 521.28 179.974 T
0.5 W
0.15 0.15 0.15 C
433.405 179.974 LS
433.405 181.078 LE
433.405 253.387 LS
433.405 252.282 LE
455.374 179.974 LS
455.374 181.078 LE
455.374 253.387 LS
455.374 252.282 LE
477.342 179.974 LS
477.342 181.078 LE
477.342 253.387 LS
477.342 252.282 LE
499.311 179.974 LS
499.311 181.078 LE
499.311 253.387 LS
499.311 252.282 LE
521.28 179.974 LS
521.28 181.078 LE
521.28 253.387 LS
521.28 252.282 LE
gsave
0.14902 0.14902 0.14902 C
(2e+06) [6 5 6 6 10] 0 418.905 164.431 10 /Helvetica SRX
grestore

gsave
0.14902 0.14902 0.14902 C
(4e+06) [6 5 6 6 10] 0 440.874 164.431 10 /Helvetica SRX
grestore

gsave
0.14902 0.14902 0.14902 C
(6e+06) [6 5 6 6 10] 0 462.842 164.431 10 /Helvetica SRX
grestore

gsave
0.14902 0.14902 0.14902 C
(8e+06) [6 5 6 6 10] 0 484.811 164.431 10 /Helvetica SRX
grestore

gsave
0.14902 0.14902 0.14902 C
(1e+07) [6 5 6 6 10] 0 506.78 164.431 10 /Helvetica SRX
grestore

411.447 179.974 LS
412.544 179.974 LE
521.28 179.974 LS
520.183 179.974 LE
411.447 198.327 LS
412.544 198.327 LE
521.28 198.327 LS
520.183 198.327 LE
411.447 216.68 LS
412.544 216.68 LE
521.28 216.68 LS
520.183 216.68 LE
411.447 235.034 LS
412.544 235.034 LE
521.28 235.034 LS
520.183 235.034 LE
411.447 253.387 LS
412.544 253.387 LE
521.28 253.387 LS
520.183 253.387 LE
gsave
0.14902 0.14902 0.14902 C
(0) [10] 0 400.454 175.974 10 /Helvetica SRX
grestore

gsave
0.14902 0.14902 0.14902 C
(1e-05) [6 5 3 6 10] 0 380.454 194.327 10 /Helvetica SRX
grestore

gsave
0.14902 0.14902 0.14902 C
(2e-05) [6 5 3 6 10] 0 380.454 212.68 10 /Helvetica SRX
grestore

gsave
0.14902 0.14902 0.14902 C
(3e-05) [6 5 3 6 10] 0 380.454 231.034 10 /Helvetica SRX
grestore

gsave
0.14902 0.14902 0.14902 C
(4e-05) [6 5 3 6 10] 0 380.454 249.387 10 /Helvetica SRX
grestore

2 LC
[16 0] 0 setdash
411.447 179.974 LS
521.28 179.974 LE
411.447 253.387 LS
521.28 253.387 LE
411.447 179.974 LS
411.447 253.387 LE
521.28 179.974 LS
521.28 253.387 LE
gsave
0 0 0 C
(b \(m3\)) [7 3 4 10 6 10] 0 449.363 266.387 11 /Helvetica-Bold SRX
grestore

0 LC
1 LJ
[] 0 setdash
0 0 1 C
411.447 189.55 LS
412.545 207.515 L
413.644 229.869 L
414.742 204.268 L
415.84 198.466 L
416.939 202.569 L
418.037 236.205 L
419.135 244.591 L
420.234 229.084 L
421.332 234.542 L
422.43 234.374 L
423.529 240.756 L
424.627 206.232 L
425.725 211.178 L
426.823 211.637 L
427.922 209.972 L
429.02 217.375 L
430.118 205.455 L
431.217 211.018 L
432.315 238.547 L
433.413 237.856 L
434.512 239.621 L
435.61 234.549 L
436.708 226.05 L
437.807 201.767 L
438.905 199.502 L
440.003 200.57 L
441.102 199.997 L
442.2 200.346 L
443.298 200.736 L
444.397 201.718 L
445.495 201.317 L
446.593 200.886 L
447.692 202.85 L
448.79 203.774 L
449.888 203.186 L
450.987 201.973 L
452.085 202.294 L
453.183 203.207 L
454.282 202.518 L
455.38 203.15 L
456.478 203.881 L
457.577 201.483 L
458.675 199.831 L
459.773 200.054 L
460.872 200.16 L
461.97 201.155 L
463.068 200.123 L
464.167 199.606 L
465.265 200.207 L
466.363 202.3 L
467.462 202.105 L
468.56 202.854 L
469.658 204.108 L
470.757 204.918 L
471.855 207.042 L
472.953 207.281 L
474.052 207.192 L
475.15 207.071 L
476.248 208.287 L
477.347 209.491 L
478.445 210.363 L
479.543 212.546 L
480.642 216.001 L
481.74 215.32 L
482.838 215.573 L
483.937 215.858 L
485.035 221.39 L
486.133 223.248 L
487.232 222.88 L
488.33 223.868 L
489.428 222.341 L
490.527 223.521 L
491.625 222.738 L
492.723 222.731 L
493.822 221.992 L
494.92 220.392 L
496.018 222.174 L
497.117 221.175 L
498.215 220.246 L
499.313 222.11 L
500.412 223.236 L
501.51 222.507 L
502.608 220.094 L
503.707 214.459 L
504.805 210.412 L
505.903 209.381 L
507.002 205.484 L
508.1 205.005 L
509.198 206.21 L
510.297 206.754 L
511.395 207.201 L
512.493 208.63 L
513.592 209.153 L
514.69 208.858 L
515.788 208.613 L
516.887 206.365 L
517.985 205.981 L
519.083 205.642 L
520.182 204.504 L
521.28 203.892 LE
1 0 0 C
411.447 186.892 LS
412.545 201.497 L
413.644 207.746 L
414.742 203.611 L
415.84 198.417 L
416.939 195.527 L
418.037 199.077 L
419.135 194.555 L
420.234 193.101 L
421.332 200.572 L
422.43 205.171 L
423.529 211.44 L
424.627 196.847 L
425.725 201.991 L
426.823 200.099 L
427.922 203.649 L
429.02 211.518 L
430.118 205.589 L
431.217 204.341 L
432.315 212.827 L
433.413 203.832 L
434.512 207.399 L
435.61 215.497 L
436.708 215.563 L
437.807 199.827 L
438.905 198.21 L
440.003 200.576 L
441.102 199.896 L
442.2 199.976 L
443.298 200.001 L
444.397 201.319 L
445.495 201.191 L
446.593 200.681 L
447.692 200.947 L
448.79 201.525 L
449.888 201.635 L
450.987 200.909 L
452.085 199.701 L
453.183 199.725 L
454.282 198.95 L
455.38 199.163 L
456.478 199.227 L
457.577 198.265 L
458.675 197.543 L
459.773 198.044 L
460.872 198.638 L
461.97 199.134 L
463.068 198.316 L
464.167 197.204 L
465.265 197.975 L
466.363 201.352 L
467.462 202.01 L
468.56 202.9 L
469.658 204.034 L
470.757 204.572 L
471.855 206.691 L
472.953 206.92 L
474.052 207.266 L
475.15 207.113 L
476.248 208.241 L
477.347 209.506 L
478.445 210.29 L
479.543 212.435 L
480.642 215.289 L
481.74 214.678 L
482.838 214.821 L
483.937 213.885 L
485.035 216.041 L
486.133 216.269 L
487.232 217.244 L
488.33 218.928 L
489.428 218.442 L
490.527 219.985 L
491.625 219.015 L
492.723 219.047 L
493.822 219.749 L
494.92 218.921 L
496.018 221.858 L
497.117 221.337 L
498.215 220.227 L
499.313 221.869 L
500.412 223.092 L
501.51 222.046 L
502.608 218.846 L
503.707 211.673 L
504.805 206.494 L
505.903 205.682 L
507.002 201.876 L
508.1 200.615 L
509.198 202.893 L
510.297 202.666 L
511.395 203.056 L
512.493 204.053 L
513.592 204.504 L
514.69 204.729 L
515.788 204.707 L
516.887 203.413 L
517.985 203.426 L
519.083 203.233 L
520.182 202.834 L
521.28 202.241 LE
grestore
gsave
1.0 1.0 scale
newpath 0 0 moveto 576 0 lineto 576 432 lineto 0 432 lineto
closepath clip
1 1 1 C
77.2594 120.933 187.093 47.52 77.2594 47.52 T
77.2594 120.933 187.093 120.933 187.093 47.52 T
0.5 W
0.15 0.15 0.15 C
99.2173 47.52 LS
99.2173 48.6245 LE
99.2173 120.933 LS
99.2173 119.829 LE
121.186 47.52 LS
121.186 48.6245 LE
121.186 120.933 LS
121.186 119.829 LE
143.155 47.52 LS
143.155 48.6245 LE
143.155 120.933 LS
143.155 119.829 LE
165.124 47.52 LS
165.124 48.6245 LE
165.124 120.933 LS
165.124 119.829 LE
187.093 47.52 LS
187.093 48.6245 LE
187.093 120.933 LS
187.093 119.829 LE
gsave
0.14902 0.14902 0.14902 C
(2e+06) [6 5 6 6 10] 0 84.7173 31.9776 10 /Helvetica SRX
grestore

gsave
0.14902 0.14902 0.14902 C
(4e+06) [6 5 6 6 10] 0 106.686 31.9776 10 /Helvetica SRX
grestore

gsave
0.14902 0.14902 0.14902 C
(6e+06) [6 5 6 6 10] 0 128.655 31.9776 10 /Helvetica SRX
grestore

gsave
0.14902 0.14902 0.14902 C
(8e+06) [6 5 6 6 10] 0 150.624 31.9776 10 /Helvetica SRX
grestore

gsave
0.14902 0.14902 0.14902 C
(1e+07) [6 5 6 6 10] 0 172.593 31.9776 10 /Helvetica SRX
grestore

77.2594 47.52 LS
78.3561 47.52 LE
187.093 47.52 LS
185.996 47.52 LE
77.2594 65.8733 LS
78.3561 65.8733 LE
187.093 65.8733 LS
185.996 65.8733 LE
77.2594 84.2266 LS
78.3561 84.2266 LE
187.093 84.2266 LS
185.996 84.2266 LE
77.2594 102.58 LS
78.3561 102.58 LE
187.093 102.58 LS
185.996 102.58 LE
77.2594 120.933 LS
78.3561 120.933 LE
187.093 120.933 LS
185.996 120.933 LE
gsave
0.14902 0.14902 0.14902 C
(0.05) [6 3 6 10] 0 51.267 43.52 10 /Helvetica SRX
grestore

gsave
0.14902 0.14902 0.14902 C
(0.1) [6 3 10] 0 57.267 61.8733 10 /Helvetica SRX
grestore

gsave
0.14902 0.14902 0.14902 C
(0.15) [6 3 6 10] 0 51.267 80.2266 10 /Helvetica SRX
grestore

gsave
0.14902 0.14902 0.14902 C
(0.2) [6 3 10] 0 57.267 98.5799 10 /Helvetica SRX
grestore

gsave
0.14902 0.14902 0.14902 C
(0.25) [6 3 6 10] 0 51.267 116.933 10 /Helvetica SRX
grestore

2 LC
[16 0] 0 setdash
77.2594 47.52 LS
187.093 47.52 LE
77.2594 120.933 LS
187.093 120.933 LE
77.2594 47.52 LS
77.2594 120.933 LE
187.093 47.52 LS
187.093 120.933 LE
gsave
0 0 0 C
(rrho_r \(Interval\)) [4 4 7 7 6 4 3 4 3 7 4 6 4 6 6 3 10] 0 91.176 133.933 11 /Helvetica-Bold SRX
grestore

0 LC
1 LJ
[] 0 setdash
0 0 1 C
77.2594 59.9014 LS
78.3577 60.5678 L
79.4561 53.284 L
80.5544 66.1039 L
81.6527 69.6852 L
82.7511 69.8721 L
83.8494 69.5168 L
84.9477 63.9499 L
86.0461 65.4027 L
87.1444 70.4683 L
88.2427 102.106 L
89.3411 100.514 L
90.4394 87.3949 L
91.5377 84.1495 L
92.636 77.9117 L
93.7344 76.6918 L
94.8327 78.0099 L
95.9311 77.916 L
97.0294 81.38 L
98.1277 77.425 L
99.226 77.7585 L
100.324 77.7507 L
101.423 76.3694 L
102.521 77.9012 L
103.619 78.9279 L
104.718 79.4164 L
105.816 83.0862 L
106.914 83.8437 L
108.013 84.9799 L
109.111 86.9487 L
110.209 86.895 L
111.308 86.0995 L
112.406 78.3083 L
113.504 79.6167 L
114.603 82.8905 L
115.701 88.6163 L
116.799 94.5322 L
117.898 102.2 L
118.996 108.428 L
120.094 105.451 L
121.193 100.61 L
122.291 95.8024 L
123.389 96.7664 L
124.488 98.2807 L
125.586 97.1528 L
126.684 98.4063 L
127.783 94.123 L
128.881 92.0902 L
129.979 90.1927 L
131.078 93.1553 L
132.176 104.201 L
133.274 108.625 L
134.373 111.121 L
135.471 113.075 L
136.569 113.239 L
137.668 113.735 L
138.766 111.293 L
139.864 107.747 L
140.963 108.68 L
142.061 103.516 L
143.159 99.0446 L
144.258 99.6797 L
145.356 98.5856 L
146.454 95.5686 L
147.553 97.2398 L
148.651 103.235 L
149.749 109.352 L
150.848 111.303 L
151.946 118.609 L
153.044 119.355 L
154.143 119.046 L
155.241 118.369 L
156.339 117.675 L
157.438 115.96 L
158.536 114.725 L
159.634 113.391 L
160.733 111.291 L
161.831 111.788 L
162.929 112.04 L
164.028 110.22 L
165.126 109.52 L
166.224 107.918 L
167.323 104.568 L
168.421 102.153 L
169.519 100.633 L
170.618 98.2016 L
171.716 99.9816 L
172.814 101.598 L
173.913 102.011 L
175.011 103.768 L
176.109 105.163 L
177.208 107.583 L
178.306 108.304 L
179.404 107.448 L
180.503 107.628 L
181.601 108.119 L
182.699 106.52 L
183.798 105.666 L
184.896 105.107 L
185.994 104.116 L
187.093 99.5436 LE
1 0 0 C
77.2594 55.2644 LS
78.3577 60.1168 L
79.4561 52.6725 L
80.5544 63.7171 L
81.6527 68.8762 L
82.7511 65.0193 L
83.8494 68.3687 L
84.9477 62.3349 L
86.0461 65.4194 L
87.1444 72.9484 L
88.2427 88.023 L
89.3411 82.4735 L
90.4394 78.5485 L
91.5377 82.9457 L
92.636 78.6608 L
93.7344 78.3154 L
94.8327 76.5909 L
95.9311 75.0146 L
97.0294 79.657 L
98.1277 77.0361 L
99.226 77.3945 L
100.324 77.4667 L
101.423 75.866 L
102.521 76.8571 L
103.619 78.147 L
104.718 80.0073 L
105.816 82.695 L
106.914 83.5141 L
108.013 82.7095 L
109.111 81.769 L
110.209 85.0161 L
111.308 85.963 L
112.406 78.3252 L
113.504 79.141 L
114.603 82.9198 L
115.701 88.1336 L
116.799 93.0735 L
117.898 102.331 L
118.996 105.264 L
120.094 100.127 L
121.193 95.7388 L
122.291 90.0895 L
123.389 87.6801 L
124.488 90.2254 L
125.586 90.4054 L
126.684 92.2789 L
127.783 91.4297 L
128.881 90.6316 L
129.979 89.9025 L
131.078 92.3521 L
132.176 101.642 L
133.274 102.631 L
134.373 104.725 L
135.471 108.971 L
136.569 109.304 L
137.668 110.384 L
138.766 108.404 L
139.864 105.01 L
140.963 107.331 L
142.061 103.115 L
143.159 99.5703 L
144.258 100.34 L
145.356 98.0899 L
146.454 92.752 L
147.553 92.3595 L
148.651 94.0918 L
149.749 97.6044 L
150.848 97.8479 L
151.946 104.887 L
153.044 102.75 L
154.143 101.356 L
155.241 99.953 L
156.339 104.042 L
157.438 106.904 L
158.536 106.683 L
159.634 104.539 L
160.733 103.239 L
161.831 103.237 L
162.929 103.909 L
164.028 101.766 L
165.126 103.791 L
166.224 104.544 L
167.323 102.129 L
168.421 100.882 L
169.519 99.4424 L
170.618 97.0667 L
171.716 99.5126 L
172.814 101.102 L
173.913 101.395 L
175.011 102.753 L
176.109 103.585 L
177.208 105.916 L
178.306 106.071 L
179.404 105.321 L
180.503 105.727 L
181.601 106.558 L
182.699 105.36 L
183.798 104.654 L
184.896 104.341 L
185.994 103.533 L
187.093 98.7766 LE
grestore
gsave
1.0 1.0 scale
newpath 0 0 moveto 576 0 lineto 576 432 lineto 0 432 lineto
closepath clip
1 1 1 C
244.353 120.933 354.186 47.52 244.353 47.52 T
244.353 120.933 354.186 120.933 354.186 47.52 T
0.5 W
0.15 0.15 0.15 C
266.311 47.52 LS
266.311 48.6245 LE
266.311 120.933 LS
266.311 119.829 LE
288.28 47.52 LS
288.28 48.6245 LE
288.28 120.933 LS
288.28 119.829 LE
310.249 47.52 LS
310.249 48.6245 LE
310.249 120.933 LS
310.249 119.829 LE
332.217 47.52 LS
332.217 48.6245 LE
332.217 120.933 LS
332.217 119.829 LE
354.186 47.52 LS
354.186 48.6245 LE
354.186 120.933 LS
354.186 119.829 LE
gsave
0.14902 0.14902 0.14902 C
(2e+06) [6 5 6 6 10] 0 251.811 31.9776 10 /Helvetica SRX
grestore

gsave
0.14902 0.14902 0.14902 C
(4e+06) [6 5 6 6 10] 0 273.78 31.9776 10 /Helvetica SRX
grestore

gsave
0.14902 0.14902 0.14902 C
(6e+06) [6 5 6 6 10] 0 295.749 31.9776 10 /Helvetica SRX
grestore

gsave
0.14902 0.14902 0.14902 C
(8e+06) [6 5 6 6 10] 0 317.717 31.9776 10 /Helvetica SRX
grestore

gsave
0.14902 0.14902 0.14902 C
(1e+07) [6 5 6 6 10] 0 339.686 31.9776 10 /Helvetica SRX
grestore

244.353 47.52 LS
245.45 47.52 LE
354.186 47.52 LS
353.09 47.52 LE
244.353 62.2026 LS
245.45 62.2026 LE
354.186 62.2026 LS
353.09 62.2026 LE
244.353 76.8852 LS
245.45 76.8852 LE
354.186 76.8852 LS
353.09 76.8852 LE
244.353 91.5679 LS
245.45 91.5679 LE
354.186 91.5679 LS
353.09 91.5679 LE
244.353 106.25 LS
245.45 106.25 LE
354.186 106.25 LS
353.09 106.25 LE
244.353 120.933 LS
245.45 120.933 LE
354.186 120.933 LS
353.09 120.933 LE
gsave
0.14902 0.14902 0.14902 C
(0) [10] 0 233.361 43.52 10 /Helvetica SRX
grestore

gsave
0.14902 0.14902 0.14902 C
(0.002) [6 3 6 6 10] 0 212.361 58.2026 10 /Helvetica SRX
grestore

gsave
0.14902 0.14902 0.14902 C
(0.004) [6 3 6 6 10] 0 212.361 72.8853 10 /Helvetica SRX
grestore

gsave
0.14902 0.14902 0.14902 C
(0.006) [6 3 6 6 10] 0 212.361 87.5679 10 /Helvetica SRX
grestore

gsave
0.14902 0.14902 0.14902 C
(0.008) [6 3 6 6 10] 0 212.361 102.251 10 /Helvetica SRX
grestore

gsave
0.14902 0.14902 0.14902 C
(0.01) [6 3 6 10] 0 218.361 116.933 10 /Helvetica SRX
grestore

2 LC
[16 0] 0 setdash
244.353 47.52 LS
354.186 47.52 LE
244.353 120.933 LS
354.186 120.933 LE
244.353 47.52 LS
244.353 120.933 LE
354.186 47.52 LS
354.186 120.933 LE
gsave
0 0 0 C
(rrho_r \(m2\)) [4 4 7 7 6 4 3 4 10 6 10] 0 269.77 133.933 11 /Helvetica-Bold SRX
grestore

0 LC
1 LJ
[] 0 setdash
0 0 1 C
244.353 56.5829 LS
245.451 55.5922 L
246.55 52.3613 L
247.648 58.5036 L
248.746 60.6659 L
249.845 60.418 L
250.943 60.3654 L
252.041 57.2171 L
253.14 57.743 L
254.238 66.5864 L
255.336 87.8658 L
256.435 86.7969 L
257.533 73.6309 L
258.631 71.1022 L
259.73 66.5741 L
260.828 66.4887 L
261.926 68.3264 L
263.025 66.7822 L
264.123 68.6733 L
265.221 66.2208 L
266.32 65.9636 L
267.418 65.9218 L
268.516 64.8264 L
269.615 65.8432 L
270.713 66.2409 L
271.811 68.848 L
272.91 71.6938 L
274.008 72.0716 L
275.106 72.7931 L
276.205 73.9553 L
277.303 74.0095 L
278.401 73.6498 L
279.5 66.4311 L
280.598 67.7304 L
281.696 69.7465 L
282.795 74.5308 L
283.893 80.709 L
284.991 88.2146 L
286.09 95.2869 L
287.188 92.9928 L
288.286 88.0384 L
289.385 83.5054 L
290.483 84.1189 L
291.581 86.002 L
292.68 85.3067 L
293.778 85.8884 L
294.876 82.4189 L
295.975 78.4686 L
297.073 77.0803 L
298.171 80.5673 L
299.27 91.1544 L
300.368 94.2237 L
301.466 96.3221 L
302.565 99.0908 L
303.663 99.6036 L
304.761 99.6034 L
305.86 97.2403 L
306.958 94.8287 L
308.056 95.935 L
309.155 92.7327 L
310.253 89.4819 L
311.351 89.5828 L
312.45 85.0235 L
313.548 82.5453 L
314.646 84.0186 L
315.745 89.0768 L
316.843 96.3316 L
317.941 97.9732 L
319.04 107.725 L
320.138 108.474 L
321.236 107.795 L
322.335 106.448 L
323.433 105.878 L
324.531 103.914 L
325.63 102.169 L
326.728 100.479 L
327.826 98.5653 L
328.925 99.1798 L
330.023 99.1891 L
331.121 97.2941 L
332.22 97.321 L
333.318 95.5838 L
334.416 92.3002 L
335.515 89.6117 L
336.613 88.2486 L
337.711 84.6669 L
338.81 86.193 L
339.908 87.9391 L
341.006 88.4889 L
342.105 90.149 L
343.203 91.6478 L
344.301 94.6038 L
345.4 95.3706 L
346.498 94.562 L
347.596 94.6252 L
348.695 95.4515 L
349.793 93.2682 L
350.891 92.4127 L
351.99 91.9169 L
353.088 90.8521 L
354.186 87.3607 LE
1 0 0 C
244.353 53.4693 LS
245.451 55.4929 L
246.55 52.0297 L
247.648 57.2709 L
248.746 60.1176 L
249.845 57.4714 L
250.943 59.9473 L
252.041 56.3622 L
253.14 57.7416 L
254.238 65.6723 L
255.336 75.6327 L
256.435 69.7737 L
257.533 66.6592 L
258.631 70.6911 L
259.73 66.0717 L
260.828 66.2798 L
261.926 67.7985 L
263.025 64.8043 L
264.123 67.7997 L
265.221 65.57 L
266.32 65.5909 L
267.418 65.7611 L
268.516 64.6829 L
269.615 65.3334 L
270.713 66.2354 L
271.811 68.6268 L
272.91 70.469 L
274.008 71.2289 L
275.106 70.2169 L
276.205 69.7264 L
277.303 72.9851 L
278.401 73.6498 L
279.5 66.4064 L
280.598 67.3771 L
281.696 69.7071 L
282.795 74.2553 L
283.893 79.8947 L
284.991 88.2038 L
286.09 92.8839 L
287.188 86.9967 L
288.286 82.4178 L
289.385 77.292 L
290.483 75.0297 L
291.581 77.0465 L
292.68 76.9103 L
293.778 79.4437 L
294.876 79.2598 L
295.975 78.0701 L
297.073 77.0776 L
298.171 80.546 L
299.27 90.1295 L
300.368 92.2168 L
301.466 95.0063 L
302.565 98.3364 L
303.663 99.0189 L
304.761 98.7135 L
305.86 95.878 L
306.958 92.3283 L
308.056 94.3678 L
309.155 91.5291 L
310.253 88.5388 L
311.351 89.5312 L
312.45 84.0814 L
313.548 79.7807 L
314.646 79.622 L
315.745 81.4129 L
316.843 86.2138 L
317.941 86.7188 L
319.04 95.2141 L
320.138 93.5988 L
321.236 92.3856 L
322.335 90.4625 L
323.433 92.9747 L
324.531 95.769 L
325.63 95.5558 L
326.728 93.1201 L
327.826 91.7221 L
328.925 91.6215 L
330.023 92.2565 L
331.121 89.8671 L
332.22 91.1153 L
333.318 92.1297 L
334.416 89.6286 L
335.515 88.135 L
336.613 87.1301 L
337.711 84.1221 L
338.81 85.9891 L
339.908 87.7577 L
341.006 88.2204 L
342.105 89.5614 L
343.203 90.5877 L
344.301 93.1777 L
345.4 93.1107 L
346.498 92.4689 L
347.596 92.8764 L
348.695 94.0947 L
349.793 92.4571 L
350.891 91.9003 L
351.99 91.6584 L
353.088 90.7815 L
354.186 87.2832 LE
grestore
gsave
1.0 1.0 scale
newpath 0 0 moveto 576 0 lineto 576 432 lineto 0 432 lineto
closepath clip
1 1 1 C
411.447 120.933 521.28 47.52 411.447 47.52 T
411.447 120.933 521.28 120.933 521.28 47.52 T
0.5 W
0.15 0.15 0.15 C
433.405 47.52 LS
433.405 48.6245 LE
433.405 120.933 LS
433.405 119.829 LE
455.374 47.52 LS
455.374 48.6245 LE
455.374 120.933 LS
455.374 119.829 LE
477.342 47.52 LS
477.342 48.6245 LE
477.342 120.933 LS
477.342 119.829 LE
499.311 47.52 LS
499.311 48.6245 LE
499.311 120.933 LS
499.311 119.829 LE
521.28 47.52 LS
521.28 48.6245 LE
521.28 120.933 LS
521.28 119.829 LE
gsave
0.14902 0.14902 0.14902 C
(2e+06) [6 5 6 6 10] 0 418.905 31.9776 10 /Helvetica SRX
grestore

gsave
0.14902 0.14902 0.14902 C
(4e+06) [6 5 6 6 10] 0 440.874 31.9776 10 /Helvetica SRX
grestore

gsave
0.14902 0.14902 0.14902 C
(6e+06) [6 5 6 6 10] 0 462.842 31.9776 10 /Helvetica SRX
grestore

gsave
0.14902 0.14902 0.14902 C
(8e+06) [6 5 6 6 10] 0 484.811 31.9776 10 /Helvetica SRX
grestore

gsave
0.14902 0.14902 0.14902 C
(1e+07) [6 5 6 6 10] 0 506.78 31.9776 10 /Helvetica SRX
grestore

411.447 47.52 LS
412.544 47.52 LE
521.28 47.52 LS
520.183 47.52 LE
411.447 59.7555 LS
412.544 59.7555 LE
521.28 59.7555 LS
520.183 59.7555 LE
411.447 71.991 LS
412.544 71.991 LE
521.28 71.991 LS
520.183 71.991 LE
411.447 84.2266 LS
412.544 84.2266 LE
521.28 84.2266 LS
520.183 84.2266 LE
411.447 96.4621 LS
412.544 96.4621 LE
521.28 96.4621 LS
520.183 96.4621 LE
411.447 108.698 LS
412.544 108.698 LE
521.28 108.698 LS
520.183 108.698 LE
411.447 120.933 LS
412.544 120.933 LE
521.28 120.933 LS
520.183 120.933 LE
gsave
0.14902 0.14902 0.14902 C
(0) [10] 0 400.454 43.52 10 /Helvetica SRX
grestore

gsave
0.14902 0.14902 0.14902 C
(0.0002) [6 3 6 6 6 10] 0 373.454 55.7555 10 /Helvetica SRX
grestore

gsave
0.14902 0.14902 0.14902 C
(0.0004) [6 3 6 6 6 10] 0 373.454 67.991 10 /Helvetica SRX
grestore

gsave
0.14902 0.14902 0.14902 C
(0.0006) [6 3 6 6 6 10] 0 373.454 80.2266 10 /Helvetica SRX
grestore

gsave
0.14902 0.14902 0.14902 C
(0.0008) [6 3 6 6 6 10] 0 373.454 92.4621 10 /Helvetica SRX
grestore

gsave
0.14902 0.14902 0.14902 C
(0.001) [6 3 6 6 10] 0 379.454 104.698 10 /Helvetica SRX
grestore

gsave
0.14902 0.14902 0.14902 C
(0.0012) [6 3 6 6 6 10] 0 373.454 116.933 10 /Helvetica SRX
grestore

2 LC
[16 0] 0 setdash
411.447 47.52 LS
521.28 47.52 LE
411.447 120.933 LS
521.28 120.933 LE
411.447 47.52 LS
411.447 120.933 LE
521.28 47.52 LS
521.28 120.933 LE
gsave
0 0 0 C
(rrho_r \(m3\)) [4 4 7 7 6 4 3 4 10 6 10] 0 436.863 133.933 11 /Helvetica-Bold SRX
grestore

0 LC
1 LJ
[] 0 setdash
0 0 1 C
411.447 52.7108 LS
412.545 51.2514 L
413.644 49.2264 L
414.742 52.817 L
415.84 54.411 L
416.939 54.2189 L
418.037 54.3358 L
419.135 52.0977 L
420.234 52.3341 L
421.332 64.8685 L
422.43 82.4777 L
423.529 79.7054 L
424.627 66.5785 L
425.725 64.2776 L
426.823 60.6074 L
427.922 60.7634 L
429.02 62.7891 L
430.118 60.3116 L
431.217 61.66 L
432.315 59.7433 L
433.413 59.3112 L
434.512 59.1769 L
435.61 57.9737 L
436.708 58.7293 L
437.807 59.0289 L
438.905 63.0272 L
440.003 65.5365 L
441.102 66.113 L
442.2 67.286 L
443.298 68.5952 L
444.397 68.7034 L
445.495 68.091 L
446.593 59.69 L
447.692 60.9025 L
448.79 62.5327 L
449.888 67.5413 L
450.987 74.8591 L
452.085 85.7534 L
453.183 97.2398 L
454.282 93.006 L
455.38 86.2376 L
456.478 80.5757 L
457.577 81.3573 L
458.675 83.0868 L
459.773 82.5367 L
460.872 83.2195 L
461.97 79.1675 L
463.068 72.853 L
464.167 71.7757 L
465.265 76.7533 L
466.363 91.7497 L
467.462 95.8272 L
468.56 98.4378 L
469.658 101.501 L
470.757 102.192 L
471.855 102.072 L
472.953 99.7581 L
474.052 97.106 L
475.15 98.7247 L
476.248 94.5503 L
477.347 92.1181 L
478.445 91.6196 L
479.543 82.1942 L
480.642 79.4988 L
481.74 81.0444 L
482.838 87.2628 L
483.937 99.0867 L
485.035 99.4531 L
486.133 113.039 L
487.232 114.047 L
488.33 113.443 L
489.428 111.564 L
490.527 110.384 L
491.625 108.057 L
492.723 105.977 L
493.822 103.738 L
494.92 101.102 L
496.018 102.051 L
497.117 102.788 L
498.215 100.18 L
499.313 98.6377 L
500.412 96.3552 L
501.51 92.1156 L
502.608 88.8469 L
503.707 87.7157 L
504.805 81.929 L
505.903 83.523 L
507.002 85.3804 L
508.1 85.9755 L
509.198 88.0311 L
510.297 89.9726 L
511.395 93.8247 L
512.493 94.6708 L
513.592 93.6694 L
514.69 93.8141 L
515.788 94.9801 L
516.887 92.5415 L
517.985 91.5992 L
519.083 91.0186 L
520.182 90.1279 L
521.28 86.6919 LE
1 0 0 C
411.447 50.2728 LS
412.545 51.1208 L
413.644 49.0199 L
414.742 52.2797 L
415.84 54.0253 L
416.939 52.1396 L
418.037 54.0353 L
419.135 51.4781 L
420.234 52.3309 L
421.332 62.8347 L
422.43 68.7375 L
423.529 63.6175 L
424.627 59.9952 L
425.725 64.1361 L
426.823 59.6477 L
427.922 60.2114 L
429.02 62.7379 L
430.118 58.6855 L
431.217 60.8741 L
432.315 58.9172 L
433.413 58.8932 L
434.512 58.9997 L
435.61 57.8923 L
436.708 58.4426 L
437.807 59.0157 L
438.905 62.5276 L
440.003 63.7275 L
441.102 64.6858 L
442.2 63.8722 L
443.298 63.4464 L
444.397 66.9959 L
445.495 68.0966 L
446.593 59.7045 L
447.692 60.6581 L
448.79 62.5423 L
449.888 67.2851 L
450.987 74.2501 L
452.085 85.6236 L
453.183 92.2609 L
454.282 83.6454 L
455.38 78.5748 L
456.478 71.8273 L
457.577 68.9644 L
458.675 71.2573 L
459.773 71.1542 L
460.872 74.9858 L
461.97 75.0709 L
463.068 72.5501 L
464.167 71.7564 L
465.265 76.6978 L
466.363 89.4475 L
467.462 92.2816 L
468.56 96.1169 L
469.658 100.365 L
470.757 101.257 L
471.855 100.73 L
472.953 97.9822 L
474.052 94.2081 L
475.15 96.9095 L
476.248 92.3222 L
477.347 89.8894 L
478.445 91.2778 L
479.543 80.4889 L
480.642 75.3363 L
481.74 75.0394 L
482.838 76.7437 L
483.937 83.1871 L
485.035 82.9849 L
486.133 95.2211 L
487.232 93.411 L
488.33 92.2285 L
489.428 89.6293 L
490.527 92.0098 L
491.625 95.6567 L
492.723 95.2956 L
493.822 92.3402 L
494.92 90.7347 L
496.018 90.8227 L
497.117 91.7561 L
498.215 88.9039 L
499.313 89.6238 L
500.412 91.2868 L
501.51 88.385 L
502.608 86.5859 L
503.707 85.9738 L
504.805 81.2134 L
505.903 83.3355 L
507.002 85.1726 L
508.1 85.6614 L
509.198 87.3236 L
510.297 88.7955 L
511.395 92.8724 L
512.493 93.2131 L
513.592 92.3834 L
514.69 92.7461 L
515.788 94.1205 L
516.887 92.0669 L
517.985 91.2957 L
519.083 90.8391 L
520.182 90.0707 L
521.28 86.6275 LE
grestore
grestore
showpage
cleartomark
%%PageTrailer
%%Trailer
end
%%EOF
