%!PS-Adobe-3.0 EPSF-3.0
%%Title: gl2ps_renderer figure
%%Creator: GL2PS 1.4.2, (C) 1999-2020 C. Geuzaine
%%For: Octave
%%CreationDate: Wed Oct  7 07:02:20 2020
%%LanguageLevel: 3
%%DocumentData: Clean7Bit
%%Pages: 1
%%BoundingBox: 0 0 576 432
%%EndComments
%%BeginProlog
/gl2psdict 64 dict def gl2psdict begin
/tryPS3shading false def % set to false to force subdivision
/rThreshold 0.064 def % red component subdivision threshold
/gThreshold 0.034 def % green component subdivision threshold
/bThreshold 0.1 def % blue component subdivision threshold
/BD { bind def } bind def
/C  { setrgbcolor } BD
/G  { 0.082 mul exch 0.6094 mul add exch 0.3086 mul add neg 1.0 add setgray } BD
/W  { setlinewidth } BD
/LC  { setlinecap } BD
/LJ  { setlinejoin } BD
/FC { findfont exch /SH exch def SH scalefont setfont } BD
/SW { dup stringwidth pop } BD
/S  { FC moveto show } BD
/SBC{ FC moveto SW -2 div 0 rmoveto show } BD
/SBR{ FC moveto SW neg 0 rmoveto show } BD
/SCL{ FC moveto 0 SH -2 div rmoveto show } BD
/SCC{ FC moveto SW -2 div SH -2 div rmoveto show } BD
/SCR{ FC moveto SW neg SH -2 div rmoveto show } BD
/STL{ FC moveto 0 SH neg rmoveto show } BD
/STC{ FC moveto SW -2 div SH neg rmoveto show } BD
/STR{ FC moveto SW neg SH neg rmoveto show } BD
/FCT { FC translate 0 0 } BD
/SR  { gsave FCT moveto rotate show grestore } BD
/SRX  { gsave FCT moveto rotate xshow grestore } BD
/SBCR{ gsave FCT moveto rotate SW -2 div 0 rmoveto show grestore } BD
/SBRR{ gsave FCT moveto rotate SW neg 0 rmoveto show grestore } BD
/SCLR{ gsave FCT moveto rotate 0 SH -2 div rmoveto show grestore} BD
/SCCR{ gsave FCT moveto rotate SW -2 div SH -2 div rmoveto show grestore} BD
/SCRR{ gsave FCT moveto rotate SW neg SH -2 div rmoveto show grestore} BD
/STLR{ gsave FCT moveto rotate 0 SH neg rmoveto show grestore } BD
/STCR{ gsave FCT moveto rotate SW -2 div SH neg rmoveto show grestore } BD
/STRR{ gsave FCT moveto rotate SW neg SH neg rmoveto show grestore } BD
/P  { newpath 0.0 360.0 arc closepath fill } BD
/LS { newpath moveto } BD
/L  { lineto } BD
/LE { lineto stroke } BD
/T  { newpath moveto lineto lineto closepath fill } BD
/STshfill {
      /b1 exch def /g1 exch def /r1 exch def /y1 exch def /x1 exch def
      /b2 exch def /g2 exch def /r2 exch def /y2 exch def /x2 exch def
      /b3 exch def /g3 exch def /r3 exch def /y3 exch def /x3 exch def
      gsave << /ShadingType 4 /ColorSpace [/DeviceRGB]
      /DataSource [ 0 x1 y1 r1 g1 b1 0 x2 y2 r2 g2 b2 0 x3 y3 r3 g3 b3 ] >>
      shfill grestore } BD
/Tm { 3 -1 roll 8 -1 roll 13 -1 roll add add 3 div
      3 -1 roll 7 -1 roll 11 -1 roll add add 3 div
      3 -1 roll 6 -1 roll 9 -1 roll add add 3 div C T } BD
/STsplit {
      4 index 15 index add 0.5 mul
      4 index 15 index add 0.5 mul
      4 index 15 index add 0.5 mul
      4 index 15 index add 0.5 mul
      4 index 15 index add 0.5 mul
      5 copy 5 copy 25 15 roll
      9 index 30 index add 0.5 mul
      9 index 30 index add 0.5 mul
      9 index 30 index add 0.5 mul
      9 index 30 index add 0.5 mul
      9 index 30 index add 0.5 mul
      5 copy 5 copy 35 5 roll 25 5 roll 15 5 roll
      4 index 10 index add 0.5 mul
      4 index 10 index add 0.5 mul
      4 index 10 index add 0.5 mul
      4 index 10 index add 0.5 mul
      4 index 10 index add 0.5 mul
      5 copy 5 copy 40 5 roll 25 5 roll 15 5 roll 25 5 roll
      STnoshfill STnoshfill STnoshfill STnoshfill } BD
/STnoshfill {
      2 index 8 index sub abs rThreshold gt
      { STsplit }
      { 1 index 7 index sub abs gThreshold gt
        { STsplit }
        { dup 6 index sub abs bThreshold gt
          { STsplit }
          { 2 index 13 index sub abs rThreshold gt
            { STsplit }
            { 1 index 12 index sub abs gThreshold gt
              { STsplit }
              { dup 11 index sub abs bThreshold gt
                { STsplit }
                { 7 index 13 index sub abs rThreshold gt
                  { STsplit }
                  { 6 index 12 index sub abs gThreshold gt
                    { STsplit }
                    { 5 index 11 index sub abs bThreshold gt
                      { STsplit }
                      { Tm }
                      ifelse }
                    ifelse }
                  ifelse }
                ifelse }
              ifelse }
            ifelse }
          ifelse }
        ifelse }
      ifelse } BD
tryPS3shading
{ /shfill where
  { /ST { STshfill } BD }
  { /ST { STnoshfill } BD }
  ifelse }
{ /ST { STnoshfill } BD }
ifelse
end
%%EndProlog
%%BeginSetup
/DeviceRGB setcolorspace
gl2psdict begin
%%EndSetup
%%Page: 1 1
%%BeginPageSetup
%%EndPageSetup
mark
gsave
1.0 1.0 scale
1 1 1 C
newpath 0 0 moveto 576 0 lineto 576 432 lineto 0 432 lineto
closepath fill
gsave
1.0 1.0 scale
1 1 1 C
newpath 0 0 moveto 576 0 lineto 576 432 lineto 0 432 lineto
closepath fill
newpath 0 0 moveto 576 0 lineto 576 432 lineto 0 432 lineto
closepath clip
1 1 1 C
74.88 386.841 187.093 312.427 74.88 312.427 T
74.88 386.841 187.093 386.841 187.093 312.427 T
0.5 W
0.15 0.15 0.15 C
98.5037 312.427 LS
98.5037 313.556 LE
98.5037 386.841 LS
98.5037 385.712 LE
128.033 312.427 LS
128.033 313.556 LE
128.033 386.841 LS
128.033 385.712 LE
157.563 312.427 LS
157.563 313.556 LE
157.563 386.841 LS
157.563 385.712 LE
187.093 312.427 LS
187.093 313.556 LE
187.093 386.841 LS
187.093 385.712 LE
gsave
0.14902 0.14902 0.14902 C
(5) [10] 0 95.5037 296.886 10 /Helvetica SRX
grestore

gsave
0.14902 0.14902 0.14902 C
(10) [6 10] 0 122.033 296.886 10 /Helvetica SRX
grestore

gsave
0.14902 0.14902 0.14902 C
(15) [6 10] 0 151.563 296.886 10 /Helvetica SRX
grestore

gsave
0.14902 0.14902 0.14902 C
(20) [6 10] 0 181.093 296.886 10 /Helvetica SRX
grestore

74.88 327.129 LS
76.0043 327.129 LE
187.093 327.129 LS
185.968 327.129 LE
74.88 345.65 LS
76.0043 345.65 LE
187.093 345.65 LS
185.968 345.65 LE
74.88 364.172 LS
76.0043 364.172 LE
187.093 364.172 LS
185.968 364.172 LE
74.88 382.693 LS
76.0043 382.693 LE
187.093 382.693 LS
185.968 382.693 LE
gsave
0.14902 0.14902 0.14902 C
(-0.006) [3 6 3 6 6 10] 0 39.8705 323.129 10 /Helvetica SRX
grestore

gsave
0.14902 0.14902 0.14902 C
(-0.004) [3 6 3 6 6 10] 0 39.8705 341.65 10 /Helvetica SRX
grestore

gsave
0.14902 0.14902 0.14902 C
(-0.002) [3 6 3 6 6 10] 0 39.8705 360.172 10 /Helvetica SRX
grestore

gsave
0.14902 0.14902 0.14902 C
(0) [10] 0 63.8705 378.693 10 /Helvetica SRX
grestore

2 LC
[16 0] 0 setdash
74.88 312.427 LS
187.093 312.427 LE
74.88 386.841 LS
187.093 386.841 LE
74.88 312.427 LS
74.88 386.841 LE
187.093 312.427 LS
187.093 386.841 LE
gsave
0 0 0 C
(Y_T_hat) [7 6 7 6 7 6 10] 0 109.486 398.841 11 /Helvetica-Bold SRX
grestore

0.9 0.9 0.9 C
74.88 312.427 74.88 376.453 80.7859 312.427 T
80.7859 372.678 80.7859 312.427 74.88 376.453 T
86.6918 312.427 80.7859 312.427 80.7859 372.678 T
86.6918 356.454 86.6918 312.427 80.7859 372.678 T
92.5978 312.427 86.6918 312.427 86.6918 356.454 T
92.5978 348.308 92.5978 312.427 86.6918 356.454 T
98.5037 312.427 92.5978 312.427 92.5978 348.308 T
98.5037 346.134 98.5037 312.427 92.5978 348.308 T
104.41 312.427 98.5037 312.427 98.5037 346.134 T
104.41 347.035 104.41 312.427 98.5037 346.134 T
110.316 312.427 104.41 312.427 104.41 347.035 T
110.316 350.126 110.316 312.427 104.41 347.035 T
116.221 312.427 110.316 312.427 110.316 350.126 T
116.221 353.715 116.221 312.427 110.316 350.126 T
122.127 312.427 116.221 312.427 116.221 353.715 T
122.127 358.674 122.127 312.427 116.221 353.715 T
128.033 312.427 122.127 312.427 122.127 358.674 T
128.033 362.81 128.033 312.427 122.127 358.674 T
133.939 312.427 128.033 312.427 128.033 362.81 T
133.939 366.969 133.939 312.427 128.033 362.81 T
139.845 312.427 133.939 312.427 133.939 366.969 T
139.845 370.817 139.845 312.427 133.939 366.969 T
145.751 312.427 139.845 312.427 139.845 370.817 T
145.751 373.707 145.751 312.427 139.845 370.817 T
151.657 312.427 145.751 312.427 145.751 373.707 T
151.657 376.19 151.657 312.427 145.751 373.707 T
157.563 312.427 151.657 312.427 151.657 376.19 T
157.563 378.715 157.563 312.427 151.657 376.19 T
163.469 312.427 157.563 312.427 157.563 378.715 T
163.469 380.69 163.469 312.427 157.563 378.715 T
169.375 312.427 163.469 312.427 163.469 380.69 T
169.375 382.465 169.375 312.427 163.469 380.69 T
175.281 312.427 169.375 312.427 169.375 382.465 T
175.281 384.095 175.281 312.427 169.375 382.465 T
181.187 312.427 175.281 312.427 175.281 384.095 T
181.187 385.627 181.187 312.427 175.281 384.095 T
187.093 312.427 181.187 312.427 181.187 385.627 T
187.093 386.841 187.093 312.427 181.187 385.627 T
0 LC
[] 0 setdash
0 0 0 C
187.093 386.841 LS
181.187 385.627 L
175.281 384.095 L
169.375 382.465 L
163.469 380.69 L
157.563 378.715 L
151.657 376.19 L
145.751 373.707 L
139.845 370.817 L
133.939 366.969 L
128.033 362.81 L
122.127 358.674 L
116.221 353.715 L
110.316 350.126 L
104.41 347.035 L
98.5037 346.134 L
92.5978 348.308 L
86.6918 356.454 L
80.7859 372.678 L
74.88 376.453 L
74.88 312.427 L
80.7859 312.427 L
86.6918 312.427 L
92.5978 312.427 L
98.5037 312.427 L
104.41 312.427 L
110.316 312.427 L
116.221 312.427 L
122.127 312.427 L
128.033 312.427 L
133.939 312.427 L
139.845 312.427 L
145.751 312.427 L
151.657 312.427 L
157.563 312.427 L
163.469 312.427 L
169.375 312.427 L
175.281 312.427 L
181.187 312.427 L
187.093 312.427 L
187.093 386.841 LE
1 1 1 C
98.5037 312.427 104.41 313.907 104.41 312.427 T
110.316 312.427 104.41 312.427 104.41 313.907 T
110.316 319.525 110.316 312.427 104.41 313.907 T
116.221 312.427 110.316 312.427 110.316 319.525 T
116.221 326.519 116.221 312.427 110.316 319.525 T
122.127 312.427 116.221 312.427 116.221 326.519 T
122.127 335.426 122.127 312.427 116.221 326.519 T
128.033 312.427 122.127 312.427 122.127 335.426 T
128.033 343.421 128.033 312.427 122.127 335.426 T
133.939 312.427 128.033 312.427 128.033 343.421 T
133.939 351.219 133.939 312.427 128.033 343.421 T
139.845 312.427 133.939 312.427 133.939 351.219 T
139.845 358.246 139.845 312.427 133.939 351.219 T
145.751 312.427 139.845 312.427 139.845 358.246 T
145.751 363.804 145.751 312.427 139.845 358.246 T
151.657 312.427 145.751 312.427 145.751 363.804 T
151.657 368.381 151.657 312.427 145.751 363.804 T
157.563 312.427 151.657 312.427 151.657 368.381 T
157.563 372.453 157.563 312.427 151.657 368.381 T
163.469 312.427 157.563 312.427 157.563 372.453 T
163.469 375.615 163.469 312.427 157.563 372.453 T
169.375 312.427 163.469 312.427 163.469 375.615 T
169.375 378.056 169.375 312.427 163.469 375.615 T
175.281 312.427 169.375 312.427 169.375 378.056 T
175.281 379.836 175.281 312.427 169.375 378.056 T
181.187 312.427 175.281 312.427 175.281 379.836 T
181.187 381.336 181.187 312.427 175.281 379.836 T
187.093 312.427 181.187 312.427 181.187 381.336 T
187.093 382.381 187.093 312.427 181.187 381.336 T
74.88 312.427 74.88 370.937 80.7859 312.427 T
80.7859 362.727 80.7859 312.427 74.88 370.937 T
86.6918 312.427 80.7859 312.427 80.7859 362.727 T
86.6918 332.596 86.6918 312.427 80.7859 362.727 T
92.5978 312.427 86.6918 312.427 86.6918 332.596 T
92.5978 317.076 92.5978 312.427 86.6918 332.596 T
98.5037 312.427 92.5978 312.427 92.5978 317.076 T
0 0 0 C
98.5037 312.427 LS
92.5978 317.076 L
86.6918 332.596 L
80.7859 362.727 L
74.88 370.937 L
74.88 312.427 L
80.7859 312.427 L
86.6918 312.427 L
92.5978 312.427 L
98.5037 312.427 LE
187.093 382.381 LS
181.187 381.336 L
175.281 379.836 L
169.375 378.056 L
163.469 375.615 L
157.563 372.453 L
151.657 368.381 L
145.751 363.804 L
139.845 358.246 L
133.939 351.219 L
128.033 343.421 L
122.127 335.426 L
116.221 326.519 L
110.316 319.525 L
104.41 313.907 L
98.5037 312.427 L
104.41 312.427 L
110.316 312.427 L
116.221 312.427 L
122.127 312.427 L
128.033 312.427 L
133.939 312.427 L
139.845 312.427 L
145.751 312.427 L
151.657 312.427 L
157.563 312.427 L
163.469 312.427 L
169.375 312.427 L
175.281 312.427 L
181.187 312.427 L
187.093 312.427 L
187.093 382.381 LE
3 W
1 LJ
74.88 374.039 LS
80.7859 367.59 L
86.6918 344.961 L
92.5978 333.518 L
98.5037 329.981 L
104.41 331.44 L
110.316 335.745 L
116.221 341.429 L
122.127 347.55 L
128.033 353.54 L
133.939 359.087 L
139.845 364.044 L
145.751 368.368 L
151.657 372.077 L
157.563 375.22 L
163.469 377.861 L
169.375 380.069 L
175.281 381.91 L
181.187 383.441 L
187.093 384.716 LE
grestore
gsave
1.0 1.0 scale
newpath 0 0 moveto 576 0 lineto 576 432 lineto 0 432 lineto
closepath clip
1 1 1 C
241.974 386.841 354.186 312.427 241.974 312.427 T
241.974 386.841 354.186 386.841 354.186 312.427 T
0.5 W
0.15 0.15 0.15 C
265.597 312.427 LS
265.597 313.556 LE
265.597 386.841 LS
265.597 385.712 LE
295.127 312.427 LS
295.127 313.556 LE
295.127 386.841 LS
295.127 385.712 LE
324.657 312.427 LS
324.657 313.556 LE
324.657 386.841 LS
324.657 385.712 LE
354.186 312.427 LS
354.186 313.556 LE
354.186 386.841 LS
354.186 385.712 LE
gsave
0.14902 0.14902 0.14902 C
(5) [10] 0 262.597 296.886 10 /Helvetica SRX
grestore

gsave
0.14902 0.14902 0.14902 C
(10) [6 10] 0 289.127 296.886 10 /Helvetica SRX
grestore

gsave
0.14902 0.14902 0.14902 C
(15) [6 10] 0 318.657 296.886 10 /Helvetica SRX
grestore

gsave
0.14902 0.14902 0.14902 C
(20) [6 10] 0 348.186 296.886 10 /Helvetica SRX
grestore

241.974 315.736 LS
243.098 315.736 LE
354.186 315.736 LS
353.062 315.736 LE
241.974 328.155 LS
243.098 328.155 LE
354.186 328.155 LS
353.062 328.155 LE
241.974 340.574 LS
243.098 340.574 LE
354.186 340.574 LS
353.062 340.574 LE
241.974 352.992 LS
243.098 352.992 LE
354.186 352.992 LS
353.062 352.992 LE
241.974 365.411 LS
243.098 365.411 LE
354.186 365.411 LS
353.062 365.411 LE
241.974 377.83 LS
243.098 377.83 LE
354.186 377.83 LS
353.062 377.83 LE
gsave
0.14902 0.14902 0.14902 C
(0.0005) [6 3 6 6 6 10] 0 203.964 311.736 10 /Helvetica SRX
grestore

gsave
0.14902 0.14902 0.14902 C
(0.001) [6 3 6 6 10] 0 209.964 324.155 10 /Helvetica SRX
grestore

gsave
0.14902 0.14902 0.14902 C
(0.0015) [6 3 6 6 6 10] 0 203.964 336.574 10 /Helvetica SRX
grestore

gsave
0.14902 0.14902 0.14902 C
(0.002) [6 3 6 6 10] 0 209.964 348.992 10 /Helvetica SRX
grestore

gsave
0.14902 0.14902 0.14902 C
(0.0025) [6 3 6 6 6 10] 0 203.964 361.411 10 /Helvetica SRX
grestore

gsave
0.14902 0.14902 0.14902 C
(0.003) [6 3 6 6 10] 0 209.964 373.83 10 /Helvetica SRX
grestore

2 LC
[16 0] 0 setdash
241.974 312.427 LS
354.186 312.427 LE
241.974 386.841 LS
354.186 386.841 LE
241.974 312.427 LS
241.974 386.841 LE
354.186 312.427 LS
354.186 386.841 LE
gsave
0 0 0 C
(Y_N_hat) [7 6 8 6 7 6 10] 0 276.08 398.841 11 /Helvetica-Bold SRX
grestore

0.9 0.9 0.9 C
241.974 312.427 241.974 323.355 247.88 312.427 T
247.88 338.82 247.88 312.427 241.974 323.355 T
253.786 312.427 247.88 312.427 247.88 338.82 T
253.786 352.289 253.786 312.427 247.88 338.82 T
259.691 312.427 253.786 312.427 253.786 352.289 T
259.691 364.577 259.691 312.427 253.786 352.289 T
265.597 312.427 259.691 312.427 259.691 364.577 T
265.597 372.775 265.597 312.427 259.691 364.577 T
271.503 312.427 265.597 312.427 265.597 372.775 T
271.503 380.609 271.503 312.427 265.597 372.775 T
277.409 312.427 271.503 312.427 271.503 380.609 T
277.409 384.479 277.409 312.427 271.503 380.609 T
283.315 312.427 277.409 312.427 277.409 384.479 T
283.315 386.122 283.315 312.427 277.409 384.479 T
289.221 312.427 283.315 312.427 283.315 386.122 T
289.221 386.841 289.221 312.427 283.315 386.122 T
295.127 312.427 289.221 312.427 289.221 386.841 T
295.127 386.43 295.127 312.427 289.221 386.841 T
301.033 312.427 295.127 312.427 295.127 386.43 T
301.033 384.107 301.033 312.427 295.127 386.43 T
306.939 312.427 301.033 312.427 301.033 384.107 T
306.939 381.881 306.939 312.427 301.033 384.107 T
312.845 312.427 306.939 312.427 306.939 381.881 T
312.845 378.718 312.845 312.427 306.939 381.881 T
318.751 312.427 312.845 312.427 312.845 378.718 T
318.751 376.234 318.751 312.427 312.845 378.718 T
324.657 312.427 318.751 312.427 318.751 376.234 T
324.657 374.12 324.657 312.427 318.751 376.234 T
330.563 312.427 324.657 312.427 324.657 374.12 T
330.563 372.75 330.563 312.427 324.657 374.12 T
336.469 312.427 330.563 312.427 330.563 372.75 T
336.469 371.356 336.469 312.427 330.563 372.75 T
342.374 312.427 336.469 312.427 336.469 371.356 T
342.374 369.508 342.374 312.427 336.469 371.356 T
348.28 312.427 342.374 312.427 342.374 369.508 T
348.28 367.079 348.28 312.427 342.374 369.508 T
354.186 312.427 348.28 312.427 348.28 367.079 T
354.186 366.401 354.186 312.427 348.28 367.079 T
0 LC
[] 0 setdash
0 0 0 C
354.186 366.401 LS
348.28 367.079 L
342.374 369.508 L
336.469 371.356 L
330.563 372.75 L
324.657 374.12 L
318.751 376.234 L
312.845 378.718 L
306.939 381.881 L
301.033 384.107 L
295.127 386.43 L
289.221 386.841 L
283.315 386.122 L
277.409 384.479 L
271.503 380.609 L
265.597 372.775 L
259.691 364.577 L
253.786 352.289 L
247.88 338.82 L
241.974 323.355 L
241.974 312.427 L
247.88 312.427 L
253.786 312.427 L
259.691 312.427 L
265.597 312.427 L
271.503 312.427 L
277.409 312.427 L
283.315 312.427 L
289.221 312.427 L
295.127 312.427 L
301.033 312.427 L
306.939 312.427 L
312.845 312.427 L
318.751 312.427 L
324.657 312.427 L
330.563 312.427 L
336.469 312.427 L
342.374 312.427 L
348.28 312.427 L
354.186 312.427 L
354.186 366.401 LE
1 1 1 C
241.974 312.427 247.88 319.587 247.88 312.427 T
253.786 312.427 247.88 312.427 247.88 319.587 T
253.786 325.261 253.786 312.427 247.88 319.587 T
259.691 312.427 253.786 312.427 253.786 325.261 T
259.691 330.448 259.691 312.427 253.786 325.261 T
265.597 312.427 259.691 312.427 259.691 330.448 T
265.597 333.337 265.597 312.427 259.691 330.448 T
271.503 312.427 265.597 312.427 265.597 333.337 T
271.503 338.01 271.503 312.427 265.597 333.337 T
277.409 312.427 271.503 312.427 271.503 338.01 T
277.409 340.951 277.409 312.427 271.503 338.01 T
283.315 312.427 277.409 312.427 277.409 340.951 T
283.315 342.586 283.315 312.427 277.409 340.951 T
289.221 312.427 283.315 312.427 283.315 342.586 T
289.221 344.193 289.221 312.427 283.315 342.586 T
295.127 312.427 289.221 312.427 289.221 344.193 T
295.127 345.133 295.127 312.427 289.221 344.193 T
301.033 312.427 295.127 312.427 295.127 345.133 T
301.033 344.454 301.033 312.427 295.127 345.133 T
306.939 312.427 301.033 312.427 301.033 344.454 T
306.939 344.137 306.939 312.427 301.033 344.454 T
312.845 312.427 306.939 312.427 306.939 344.137 T
312.845 342.296 312.845 312.427 306.939 344.137 T
318.751 312.427 312.845 312.427 312.845 342.296 T
318.751 341.361 318.751 312.427 312.845 342.296 T
324.657 312.427 318.751 312.427 318.751 341.361 T
324.657 340.464 324.657 312.427 318.751 341.361 T
330.563 312.427 324.657 312.427 324.657 340.464 T
330.563 340.24 330.563 312.427 324.657 340.464 T
336.469 312.427 330.563 312.427 330.563 340.24 T
336.469 339.789 336.469 312.427 330.563 340.24 T
342.374 312.427 336.469 312.427 336.469 339.789 T
342.374 338.888 342.374 312.427 336.469 339.789 T
348.28 312.427 342.374 312.427 342.374 338.888 T
348.28 337.171 348.28 312.427 342.374 338.888 T
354.186 312.427 348.28 312.427 348.28 337.171 T
354.186 337.169 354.186 312.427 348.28 337.171 T
0 0 0 C
354.186 337.169 LS
348.28 337.171 L
342.374 338.888 L
336.469 339.789 L
330.563 340.24 L
324.657 340.464 L
318.751 341.361 L
312.845 342.296 L
306.939 344.137 L
301.033 344.454 L
295.127 345.133 L
289.221 344.193 L
283.315 342.586 L
277.409 340.951 L
271.503 338.01 L
265.597 333.337 L
259.691 330.448 L
253.786 325.261 L
247.88 319.587 L
241.974 312.427 L
247.88 312.427 L
253.786 312.427 L
259.691 312.427 L
265.597 312.427 L
271.503 312.427 L
277.409 312.427 L
283.315 312.427 L
289.221 312.427 L
295.127 312.427 L
301.033 312.427 L
306.939 312.427 L
312.845 312.427 L
318.751 312.427 L
324.657 312.427 L
330.563 312.427 L
336.469 312.427 L
342.374 312.427 L
348.28 312.427 L
354.186 312.427 L
354.186 337.169 LE
3 W
1 LJ
241.974 317.87 LS
247.88 329.62 L
253.786 339.314 L
259.691 347.786 L
265.597 354.812 L
271.503 360.1 L
277.409 363.598 L
283.315 365.482 L
289.221 366.052 L
295.127 365.648 L
301.033 364.583 L
306.939 363.12 L
312.845 361.46 L
318.751 359.747 L
324.657 358.079 L
330.563 356.512 L
336.469 355.078 L
342.374 353.788 L
348.28 352.639 L
354.186 351.623 LE
grestore
gsave
1.0 1.0 scale
newpath 0 0 moveto 576 0 lineto 576 432 lineto 0 432 lineto
closepath clip
1 1 1 C
409.067 386.841 521.28 312.427 409.067 312.427 T
409.067 386.841 521.28 386.841 521.28 312.427 T
0.5 W
0.15 0.15 0.15 C
432.691 312.427 LS
432.691 313.556 LE
432.691 386.841 LS
432.691 385.712 LE
462.221 312.427 LS
462.221 313.556 LE
462.221 386.841 LS
462.221 385.712 LE
491.75 312.427 LS
491.75 313.556 LE
491.75 386.841 LS
491.75 385.712 LE
521.28 312.427 LS
521.28 313.556 LE
521.28 386.841 LS
521.28 385.712 LE
gsave
0.14902 0.14902 0.14902 C
(5) [10] 0 429.691 296.886 10 /Helvetica SRX
grestore

gsave
0.14902 0.14902 0.14902 C
(10) [6 10] 0 456.221 296.886 10 /Helvetica SRX
grestore

gsave
0.14902 0.14902 0.14902 C
(15) [6 10] 0 485.75 296.886 10 /Helvetica SRX
grestore

gsave
0.14902 0.14902 0.14902 C
(20) [6 10] 0 515.28 296.886 10 /Helvetica SRX
grestore

409.067 319.848 LS
410.192 319.848 LE
521.28 319.848 LS
520.156 319.848 LE
409.067 332.853 LS
410.192 332.853 LE
521.28 332.853 LS
520.156 332.853 LE
409.067 345.857 LS
410.192 345.857 LE
521.28 345.857 LS
520.156 345.857 LE
409.067 358.862 LS
410.192 358.862 LE
521.28 358.862 LS
520.156 358.862 LE
409.067 371.867 LS
410.192 371.867 LE
521.28 371.867 LS
520.156 371.867 LE
409.067 384.871 LS
410.192 384.871 LE
521.28 384.871 LS
520.156 384.871 LE
gsave
0.14902 0.14902 0.14902 C
(0.005) [6 3 6 6 10] 0 377.058 315.848 10 /Helvetica SRX
grestore

gsave
0.14902 0.14902 0.14902 C
(0.01) [6 3 6 10] 0 383.058 328.853 10 /Helvetica SRX
grestore

gsave
0.14902 0.14902 0.14902 C
(0.015) [6 3 6 6 10] 0 377.058 341.857 10 /Helvetica SRX
grestore

gsave
0.14902 0.14902 0.14902 C
(0.02) [6 3 6 10] 0 383.058 354.862 10 /Helvetica SRX
grestore

gsave
0.14902 0.14902 0.14902 C
(0.025) [6 3 6 6 10] 0 377.058 367.867 10 /Helvetica SRX
grestore

gsave
0.14902 0.14902 0.14902 C
(0.03) [6 3 6 10] 0 383.058 380.871 10 /Helvetica SRX
grestore

2 LC
[16 0] 0 setdash
409.067 312.427 LS
521.28 312.427 LE
409.067 386.841 LS
521.28 386.841 LE
409.067 312.427 LS
409.067 386.841 LE
521.28 312.427 LS
521.28 386.841 LE
gsave
0 0 0 C
(Y_C_hat) [7 6 8 6 7 6 10] 0 443.174 398.841 11 /Helvetica-Bold SRX
grestore

0.9 0.9 0.9 C
409.067 312.427 409.067 318.607 414.973 312.427 T
414.973 334.683 414.973 312.427 409.067 318.607 T
420.879 312.427 414.973 312.427 414.973 334.683 T
420.879 355.039 420.879 312.427 414.973 334.683 T
426.785 312.427 420.879 312.427 420.879 355.039 T
426.785 370.579 426.785 312.427 420.879 355.039 T
432.691 312.427 426.785 312.427 426.785 370.579 T
432.691 380.871 432.691 312.427 426.785 370.579 T
438.597 312.427 432.691 312.427 432.691 380.871 T
438.597 386.841 438.597 312.427 432.691 380.871 T
444.503 312.427 438.597 312.427 438.597 386.841 T
444.503 385.836 444.503 312.427 438.597 386.841 T
450.409 312.427 444.503 312.427 444.503 385.836 T
450.409 383.574 450.409 312.427 444.503 385.836 T
456.315 312.427 450.409 312.427 450.409 383.574 T
456.315 377.69 456.315 312.427 450.409 383.574 T
462.221 312.427 456.315 312.427 456.315 377.69 T
462.221 371.089 462.221 312.427 456.315 377.69 T
468.127 312.427 462.221 312.427 462.221 371.089 T
468.127 364.856 468.127 312.427 462.221 371.089 T
474.033 312.427 468.127 312.427 468.127 364.856 T
474.033 359.639 474.033 312.427 468.127 364.856 T
479.939 312.427 474.033 312.427 474.033 359.639 T
479.939 353.567 479.939 312.427 474.033 359.639 T
485.844 312.427 479.939 312.427 479.939 353.567 T
485.844 348.835 485.844 312.427 479.939 353.567 T
491.75 312.427 485.844 312.427 485.844 348.835 T
491.75 345.027 491.75 312.427 485.844 348.835 T
497.656 312.427 491.75 312.427 491.75 345.027 T
497.656 341.553 497.656 312.427 491.75 345.027 T
503.562 312.427 497.656 312.427 497.656 341.553 T
503.562 338.377 503.562 312.427 497.656 341.553 T
509.468 312.427 503.562 312.427 503.562 338.377 T
509.468 335.747 509.468 312.427 503.562 338.377 T
515.374 312.427 509.468 312.427 509.468 335.747 T
515.374 333.403 515.374 312.427 509.468 335.747 T
521.28 312.427 515.374 312.427 515.374 333.403 T
521.28 331.433 521.28 312.427 515.374 333.403 T
0 LC
[] 0 setdash
0 0 0 C
521.28 331.433 LS
515.374 333.403 L
509.468 335.747 L
503.562 338.377 L
497.656 341.553 L
491.75 345.027 L
485.844 348.835 L
479.939 353.567 L
474.033 359.639 L
468.127 364.856 L
462.221 371.089 L
456.315 377.69 L
450.409 383.574 L
444.503 385.836 L
438.597 386.841 L
432.691 380.871 L
426.785 370.579 L
420.879 355.039 L
414.973 334.683 L
409.067 318.607 L
409.067 312.427 L
414.973 312.427 L
420.879 312.427 L
426.785 312.427 L
432.691 312.427 L
438.597 312.427 L
444.503 312.427 L
450.409 312.427 L
456.315 312.427 L
462.221 312.427 L
468.127 312.427 L
474.033 312.427 L
479.939 312.427 L
485.844 312.427 L
491.75 312.427 L
497.656 312.427 L
503.562 312.427 L
509.468 312.427 L
515.374 312.427 L
521.28 312.427 L
521.28 331.433 LE
1 1 1 C
409.067 312.427 414.973 319.793 414.973 312.427 T
420.879 312.427 414.973 312.427 414.973 319.793 T
420.879 327.38 420.879 312.427 414.973 319.793 T
426.785 312.427 420.879 312.427 420.879 327.38 T
426.785 332.484 426.785 312.427 420.879 327.38 T
432.691 312.427 426.785 312.427 426.785 332.484 T
432.691 337.122 432.691 312.427 426.785 332.484 T
438.597 312.427 432.691 312.427 432.691 337.122 T
438.597 342.203 438.597 312.427 432.691 337.122 T
444.503 312.427 438.597 312.427 438.597 342.203 T
444.503 342.567 444.503 312.427 438.597 342.203 T
450.409 312.427 444.503 312.427 444.503 342.567 T
450.409 343.461 450.409 312.427 444.503 342.567 T
456.315 312.427 450.409 312.427 450.409 343.461 T
456.315 341.526 456.315 312.427 450.409 343.461 T
462.221 312.427 456.315 312.427 456.315 341.526 T
462.221 339.204 462.221 312.427 456.315 341.526 T
468.127 312.427 462.221 312.427 462.221 339.204 T
468.127 336.565 468.127 312.427 462.221 339.204 T
474.033 312.427 468.127 312.427 468.127 336.565 T
474.033 334.906 474.033 312.427 468.127 336.565 T
479.939 312.427 474.033 312.427 474.033 334.906 T
479.939 331.703 479.939 312.427 474.033 334.906 T
485.844 312.427 479.939 312.427 479.939 331.703 T
485.844 329.229 485.844 312.427 479.939 331.703 T
491.75 312.427 485.844 312.427 485.844 329.229 T
491.75 327.394 491.75 312.427 485.844 329.229 T
497.656 312.427 491.75 312.427 491.75 327.394 T
497.656 325.762 497.656 312.427 491.75 327.394 T
503.562 312.427 497.656 312.427 497.656 325.762 T
503.562 324.021 503.562 312.427 497.656 325.762 T
509.468 312.427 503.562 312.427 503.562 324.021 T
509.468 322.655 509.468 312.427 503.562 324.021 T
515.374 312.427 509.468 312.427 509.468 322.655 T
515.374 321.384 515.374 312.427 509.468 322.655 T
521.28 312.427 515.374 312.427 515.374 321.384 T
521.28 320.303 521.28 312.427 515.374 321.384 T
0 0 0 C
521.28 320.303 LS
515.374 321.384 L
509.468 322.655 L
503.562 324.021 L
497.656 325.762 L
491.75 327.394 L
485.844 329.229 L
479.939 331.703 L
474.033 334.906 L
468.127 336.565 L
462.221 339.204 L
456.315 341.526 L
450.409 343.461 L
444.503 342.567 L
438.597 342.203 L
432.691 337.122 L
426.785 332.484 L
420.879 327.38 L
414.973 319.793 L
409.067 312.427 L
414.973 312.427 L
420.879 312.427 L
426.785 312.427 L
432.691 312.427 L
438.597 312.427 L
444.503 312.427 L
450.409 312.427 L
456.315 312.427 L
462.221 312.427 L
468.127 312.427 L
474.033 312.427 L
479.939 312.427 L
485.844 312.427 L
491.75 312.427 L
497.656 312.427 L
503.562 312.427 L
509.468 312.427 L
515.374 312.427 L
521.28 312.427 L
521.28 320.303 LE
3 W
1 LJ
409.067 315.487 LS
414.973 327.139 L
420.879 341.706 L
426.785 353.584 L
432.691 361.169 L
438.597 364.654 L
444.503 364.898 L
450.409 362.882 L
456.315 359.471 L
462.221 355.343 L
468.127 350.982 L
474.033 346.707 L
479.939 342.711 L
485.844 339.097 L
491.75 335.903 L
497.656 333.125 L
503.562 330.739 L
509.468 328.706 L
515.374 326.981 L
521.28 325.521 LE
grestore
gsave
1.0 1.0 scale
newpath 0 0 moveto 576 0 lineto 576 432 lineto 0 432 lineto
closepath clip
1 1 1 C
74.88 254.387 187.093 179.974 74.88 179.974 T
74.88 254.387 187.093 254.387 187.093 179.974 T
0.5 W
0.15 0.15 0.15 C
98.5037 179.974 LS
98.5037 181.102 LE
98.5037 254.387 LS
98.5037 253.258 LE
128.033 179.974 LS
128.033 181.102 LE
128.033 254.387 LS
128.033 253.258 LE
157.563 179.974 LS
157.563 181.102 LE
157.563 254.387 LS
157.563 253.258 LE
187.093 179.974 LS
187.093 181.102 LE
187.093 254.387 LS
187.093 253.258 LE
gsave
0.14902 0.14902 0.14902 C
(5) [10] 0 95.5037 164.432 10 /Helvetica SRX
grestore

gsave
0.14902 0.14902 0.14902 C
(10) [6 10] 0 122.033 164.432 10 /Helvetica SRX
grestore

gsave
0.14902 0.14902 0.14902 C
(15) [6 10] 0 151.563 164.432 10 /Helvetica SRX
grestore

gsave
0.14902 0.14902 0.14902 C
(20) [6 10] 0 181.093 164.432 10 /Helvetica SRX
grestore

74.88 191.336 LS
76.0043 191.336 LE
187.093 191.336 LS
185.968 191.336 LE
74.88 212.086 LS
76.0043 212.086 LE
187.093 212.086 LS
185.968 212.086 LE
74.88 232.837 LS
76.0043 232.837 LE
187.093 232.837 LS
185.968 232.837 LE
74.88 253.588 LS
76.0043 253.588 LE
187.093 253.588 LS
185.968 253.588 LE
gsave
0.14902 0.14902 0.14902 C
(-0.006) [3 6 3 6 6 10] 0 39.8705 187.336 10 /Helvetica SRX
grestore

gsave
0.14902 0.14902 0.14902 C
(-0.004) [3 6 3 6 6 10] 0 39.8705 208.086 10 /Helvetica SRX
grestore

gsave
0.14902 0.14902 0.14902 C
(-0.002) [3 6 3 6 6 10] 0 39.8705 228.837 10 /Helvetica SRX
grestore

gsave
0.14902 0.14902 0.14902 C
(0) [10] 0 63.8705 249.588 10 /Helvetica SRX
grestore

2 LC
[16 0] 0 setdash
74.88 179.974 LS
187.093 179.974 LE
74.88 254.387 LS
187.093 254.387 LE
74.88 179.974 LS
74.88 254.387 LE
187.093 179.974 LS
187.093 254.387 LE
gsave
0 0 0 C
(L_T_hat) [7 6 7 6 7 6 10] 0 109.486 266.387 11 /Helvetica-Bold SRX
grestore

0.9 0.9 0.9 C
74.88 179.974 74.88 242.518 80.7859 179.974 T
80.7859 236.888 80.7859 179.974 74.88 242.518 T
86.6918 179.974 80.7859 179.974 80.7859 236.888 T
86.6918 226.584 86.6918 179.974 80.7859 236.888 T
92.5978 179.974 86.6918 179.974 86.6918 226.584 T
92.5978 218.982 92.5978 179.974 86.6918 226.584 T
98.5037 179.974 92.5978 179.974 92.5978 218.982 T
98.5037 217.006 98.5037 179.974 92.5978 218.982 T
104.41 179.974 98.5037 179.974 98.5037 217.006 T
104.41 217.675 104.41 179.974 98.5037 217.006 T
110.316 179.974 104.41 179.974 104.41 217.675 T
110.316 219.638 110.316 179.974 104.41 217.675 T
116.221 179.974 110.316 179.974 110.316 219.638 T
116.221 221.65 116.221 179.974 110.316 219.638 T
122.127 179.974 116.221 179.974 116.221 221.65 T
122.127 225.198 122.127 179.974 116.221 221.65 T
128.033 179.974 122.127 179.974 122.127 225.198 T
128.033 229.529 128.033 179.974 122.127 225.198 T
133.939 179.974 128.033 179.974 128.033 229.529 T
133.939 233.548 133.939 179.974 128.033 229.529 T
139.845 179.974 133.939 179.974 133.939 233.548 T
139.845 236.904 139.845 179.974 133.939 233.548 T
145.751 179.974 139.845 179.974 139.845 236.904 T
145.751 240.845 145.751 179.974 139.845 236.904 T
151.657 179.974 145.751 179.974 145.751 240.845 T
151.657 243.398 151.657 179.974 145.751 240.845 T
157.563 179.974 151.657 179.974 151.657 243.398 T
157.563 246.174 157.563 179.974 151.657 243.398 T
163.469 179.974 157.563 179.974 157.563 246.174 T
163.469 248.035 163.469 179.974 157.563 246.174 T
169.375 179.974 163.469 179.974 163.469 248.035 T
169.375 249.752 169.375 179.974 163.469 248.035 T
175.281 179.974 169.375 179.974 169.375 249.752 T
175.281 251.473 175.281 179.974 169.375 249.752 T
181.187 179.974 175.281 179.974 175.281 251.473 T
181.187 253.018 181.187 179.974 175.281 251.473 T
187.093 179.974 181.187 179.974 181.187 253.018 T
187.093 254.387 187.093 179.974 181.187 253.018 T
0 LC
[] 0 setdash
0 0 0 C
187.093 254.387 LS
181.187 253.018 L
175.281 251.473 L
169.375 249.752 L
163.469 248.035 L
157.563 246.174 L
151.657 243.398 L
145.751 240.845 L
139.845 236.904 L
133.939 233.548 L
128.033 229.529 L
122.127 225.198 L
116.221 221.65 L
110.316 219.638 L
104.41 217.675 L
98.5037 217.006 L
92.5978 218.982 L
86.6918 226.584 L
80.7859 236.888 L
74.88 242.518 L
74.88 179.974 L
80.7859 179.974 L
86.6918 179.974 L
92.5978 179.974 L
98.5037 179.974 L
104.41 179.974 L
110.316 179.974 L
116.221 179.974 L
122.127 179.974 L
128.033 179.974 L
133.939 179.974 L
139.845 179.974 L
145.751 179.974 L
151.657 179.974 L
157.563 179.974 L
163.469 179.974 L
169.375 179.974 L
175.281 179.974 L
181.187 179.974 L
187.093 179.974 L
187.093 254.387 LE
1 1 1 C
98.5037 179.974 104.41 180.501 104.41 179.974 T
110.316 179.974 104.41 179.974 104.41 180.501 T
110.316 184.765 110.316 179.974 104.41 180.501 T
116.221 179.974 110.316 179.974 110.316 184.765 T
116.221 190.247 116.221 179.974 110.316 184.765 T
122.127 179.974 116.221 179.974 116.221 190.247 T
122.127 197.714 122.127 179.974 116.221 190.247 T
128.033 179.974 122.127 179.974 122.127 197.714 T
128.033 206.323 128.033 179.974 122.127 197.714 T
133.939 179.974 128.033 179.974 128.033 206.323 T
133.939 214.241 133.939 179.974 128.033 206.323 T
139.845 179.974 133.939 179.974 133.939 214.241 T
139.845 221.042 139.845 179.974 133.939 214.241 T
145.751 179.974 139.845 179.974 139.845 221.042 T
145.751 227.821 145.751 179.974 139.845 221.042 T
151.657 179.974 145.751 179.974 145.751 227.821 T
151.657 232.846 151.657 179.974 145.751 227.821 T
157.563 179.974 151.657 179.974 151.657 232.846 T
157.563 237.564 157.563 179.974 151.657 232.846 T
163.469 179.974 157.563 179.974 157.563 237.564 T
163.469 241.056 163.469 179.974 157.563 237.564 T
169.375 179.974 163.469 179.974 163.469 241.056 T
169.375 243.958 169.375 179.974 163.469 241.056 T
175.281 179.974 169.375 179.974 169.375 243.958 T
175.281 246.506 175.281 179.974 169.375 243.958 T
181.187 179.974 175.281 179.974 175.281 246.506 T
181.187 248.596 181.187 179.974 175.281 246.506 T
187.093 179.974 181.187 179.974 181.187 248.596 T
187.093 250.252 187.093 179.974 181.187 248.596 T
74.88 179.974 74.88 232.734 80.7859 179.974 T
80.7859 219.889 80.7859 179.974 74.88 232.734 T
86.6918 179.974 80.7859 179.974 80.7859 219.889 T
86.6918 199.858 86.6918 179.974 80.7859 219.889 T
92.5978 179.974 86.6918 179.974 86.6918 199.858 T
92.5978 185.2 92.5978 179.974 86.6918 199.858 T
98.5037 179.974 92.5978 179.974 92.5978 185.2 T
0 0 0 C
98.5037 179.974 LS
92.5978 185.2 L
86.6918 199.858 L
80.7859 219.889 L
74.88 232.734 L
74.88 179.974 L
80.7859 179.974 L
86.6918 179.974 L
92.5978 179.974 L
98.5037 179.974 LE
187.093 250.252 LS
181.187 248.596 L
175.281 246.506 L
169.375 243.958 L
163.469 241.056 L
157.563 237.564 L
151.657 232.846 L
145.751 227.821 L
139.845 221.042 L
133.939 214.241 L
128.033 206.323 L
122.127 197.714 L
116.221 190.247 L
110.316 184.765 L
104.41 180.501 L
98.5037 179.974 L
104.41 179.974 L
110.316 179.974 L
116.221 179.974 L
122.127 179.974 L
128.033 179.974 L
133.939 179.974 L
139.845 179.974 L
145.751 179.974 L
151.657 179.974 L
157.563 179.974 L
163.469 179.974 L
169.375 179.974 L
175.281 179.974 L
181.187 179.974 L
187.093 179.974 L
187.093 250.252 LE
3 W
1 LJ
74.88 238.236 LS
80.7859 227.709 L
86.6918 212.926 L
92.5978 203 L
98.5037 198.694 L
104.41 198.84 L
110.316 201.985 L
116.221 206.882 L
122.127 212.593 L
128.033 218.479 L
133.939 224.134 L
139.845 229.331 L
145.751 233.963 L
151.657 238 L
157.563 241.464 L
163.469 244.4 L
169.375 246.867 L
175.281 248.928 L
181.187 250.643 L
187.093 252.066 LE
grestore
gsave
1.0 1.0 scale
newpath 0 0 moveto 576 0 lineto 576 432 lineto 0 432 lineto
closepath clip
1 1 1 C
241.974 254.387 354.186 179.974 241.974 179.974 T
241.974 254.387 354.186 254.387 354.186 179.974 T
0.5 W
0.15 0.15 0.15 C
265.597 179.974 LS
265.597 181.102 LE
265.597 254.387 LS
265.597 253.258 LE
295.127 179.974 LS
295.127 181.102 LE
295.127 254.387 LS
295.127 253.258 LE
324.657 179.974 LS
324.657 181.102 LE
324.657 254.387 LS
324.657 253.258 LE
354.186 179.974 LS
354.186 181.102 LE
354.186 254.387 LS
354.186 253.258 LE
gsave
0.14902 0.14902 0.14902 C
(5) [10] 0 262.597 164.432 10 /Helvetica SRX
grestore

gsave
0.14902 0.14902 0.14902 C
(10) [6 10] 0 289.127 164.432 10 /Helvetica SRX
grestore

gsave
0.14902 0.14902 0.14902 C
(15) [6 10] 0 318.657 164.432 10 /Helvetica SRX
grestore

gsave
0.14902 0.14902 0.14902 C
(20) [6 10] 0 348.186 164.432 10 /Helvetica SRX
grestore

241.974 180.228 LS
243.098 180.228 LE
354.186 180.228 LS
353.062 180.228 LE
241.974 191.803 LS
243.098 191.803 LE
354.186 191.803 LS
353.062 191.803 LE
241.974 203.378 LS
243.098 203.378 LE
354.186 203.378 LS
353.062 203.378 LE
241.974 214.953 LS
243.098 214.953 LE
354.186 214.953 LS
353.062 214.953 LE
241.974 226.528 LS
243.098 226.528 LE
354.186 226.528 LS
353.062 226.528 LE
241.974 238.104 LS
243.098 238.104 LE
354.186 238.104 LS
353.062 238.104 LE
241.974 249.679 LS
243.098 249.679 LE
354.186 249.679 LS
353.062 249.679 LE
gsave
0.14902 0.14902 0.14902 C
(0.0005) [6 3 6 6 6 10] 0 203.964 176.228 10 /Helvetica SRX
grestore

gsave
0.14902 0.14902 0.14902 C
(0.001) [6 3 6 6 10] 0 209.964 187.803 10 /Helvetica SRX
grestore

gsave
0.14902 0.14902 0.14902 C
(0.0015) [6 3 6 6 6 10] 0 203.964 199.378 10 /Helvetica SRX
grestore

gsave
0.14902 0.14902 0.14902 C
(0.002) [6 3 6 6 10] 0 209.964 210.953 10 /Helvetica SRX
grestore

gsave
0.14902 0.14902 0.14902 C
(0.0025) [6 3 6 6 6 10] 0 203.964 222.528 10 /Helvetica SRX
grestore

gsave
0.14902 0.14902 0.14902 C
(0.003) [6 3 6 6 10] 0 209.964 234.104 10 /Helvetica SRX
grestore

gsave
0.14902 0.14902 0.14902 C
(0.0035) [6 3 6 6 6 10] 0 203.964 245.679 10 /Helvetica SRX
grestore

2 LC
[16 0] 0 setdash
241.974 179.974 LS
354.186 179.974 LE
241.974 254.387 LS
354.186 254.387 LE
241.974 179.974 LS
241.974 254.387 LE
354.186 179.974 LS
354.186 254.387 LE
gsave
0 0 0 C
(L_N_hat) [7 6 8 6 7 6 10] 0 276.08 266.387 11 /Helvetica-Bold SRX
grestore

0.9 0.9 0.9 C
241.974 179.974 241.974 193.554 247.88 179.974 T
247.88 209.698 247.88 179.974 241.974 193.554 T
253.786 179.974 247.88 179.974 247.88 209.698 T
253.786 223.231 253.786 179.974 247.88 209.698 T
259.691 179.974 253.786 179.974 253.786 223.231 T
259.691 235.501 259.691 179.974 253.786 223.231 T
265.597 179.974 259.691 179.974 259.691 235.501 T
265.597 245.169 265.597 179.974 259.691 235.501 T
271.503 179.974 265.597 179.974 265.597 245.169 T
271.503 249.611 271.503 179.974 265.597 245.169 T
277.409 179.974 271.503 179.974 271.503 249.611 T
277.409 254.387 277.409 179.974 271.503 249.611 T
283.315 179.974 277.409 179.974 277.409 254.387 T
283.315 253.612 283.315 179.974 277.409 254.387 T
289.221 179.974 283.315 179.974 283.315 253.612 T
289.221 252.308 289.221 179.974 283.315 253.612 T
295.127 179.974 289.221 179.974 289.221 252.308 T
295.127 247.426 295.127 179.974 289.221 252.308 T
301.033 179.974 295.127 179.974 295.127 247.426 T
301.033 244.161 301.033 179.974 295.127 247.426 T
306.939 179.974 301.033 179.974 301.033 244.161 T
306.939 239.774 306.939 179.974 301.033 244.161 T
312.845 179.974 306.939 179.974 306.939 239.774 T
312.845 236.379 312.845 179.974 306.939 239.774 T
318.751 179.974 312.845 179.974 312.845 236.379 T
318.751 233.401 318.751 179.974 312.845 236.379 T
324.657 179.974 318.751 179.974 318.751 233.401 T
324.657 230.7 324.657 179.974 318.751 233.401 T
330.563 179.974 324.657 179.974 324.657 230.7 T
330.563 227.099 330.563 179.974 324.657 230.7 T
336.469 179.974 330.563 179.974 330.563 227.099 T
336.469 224.235 336.469 179.974 330.563 227.099 T
342.374 179.974 336.469 179.974 336.469 224.235 T
342.374 221.762 342.374 179.974 336.469 224.235 T
348.28 179.974 342.374 179.974 342.374 221.762 T
348.28 219.687 348.28 179.974 342.374 221.762 T
354.186 179.974 348.28 179.974 348.28 219.687 T
354.186 217.785 354.186 179.974 348.28 219.687 T
0 LC
[] 0 setdash
0 0 0 C
354.186 217.785 LS
348.28 219.687 L
342.374 221.762 L
336.469 224.235 L
330.563 227.099 L
324.657 230.7 L
318.751 233.401 L
312.845 236.379 L
306.939 239.774 L
301.033 244.161 L
295.127 247.426 L
289.221 252.308 L
283.315 253.612 L
277.409 254.387 L
271.503 249.611 L
265.597 245.169 L
259.691 235.501 L
253.786 223.231 L
247.88 209.698 L
241.974 193.554 L
241.974 179.974 L
247.88 179.974 L
253.786 179.974 L
259.691 179.974 L
265.597 179.974 L
271.503 179.974 L
277.409 179.974 L
283.315 179.974 L
289.221 179.974 L
295.127 179.974 L
301.033 179.974 L
306.939 179.974 L
312.845 179.974 L
318.751 179.974 L
324.657 179.974 L
330.563 179.974 L
336.469 179.974 L
342.374 179.974 L
348.28 179.974 L
354.186 179.974 L
354.186 217.785 LE
1 1 1 C
241.974 179.974 247.88 187.348 247.88 179.974 T
253.786 179.974 247.88 179.974 247.88 187.348 T
253.786 192.575 253.786 179.974 247.88 187.348 T
259.691 179.974 253.786 179.974 253.786 192.575 T
259.691 197.161 259.691 179.974 253.786 192.575 T
265.597 179.974 259.691 179.974 259.691 197.161 T
265.597 201.63 265.597 179.974 259.691 197.161 T
271.503 179.974 265.597 179.974 265.597 201.63 T
271.503 203.311 271.503 179.974 265.597 201.63 T
277.409 179.974 271.503 179.974 271.503 203.311 T
277.409 207.704 277.409 179.974 271.503 203.311 T
283.315 179.974 277.409 179.974 277.409 207.704 T
283.315 208.69 283.315 179.974 277.409 207.704 T
289.221 179.974 283.315 179.974 283.315 208.69 T
289.221 209.102 289.221 179.974 283.315 208.69 T
295.127 179.974 289.221 179.974 289.221 209.102 T
295.127 206.793 295.127 179.974 289.221 209.102 T
301.033 179.974 295.127 179.974 295.127 206.793 T
301.033 206.309 301.033 179.974 295.127 206.793 T
306.939 179.974 301.033 179.974 301.033 206.309 T
306.939 204.607 306.939 179.974 301.033 206.309 T
312.845 179.974 306.939 179.974 306.939 204.607 T
312.845 203.625 312.845 179.974 306.939 204.607 T
318.751 179.974 312.845 179.974 312.845 203.625 T
318.751 202.736 318.751 179.974 312.845 203.625 T
324.657 179.974 318.751 179.974 318.751 202.736 T
324.657 201.85 324.657 179.974 318.751 202.736 T
330.563 179.974 324.657 179.974 324.657 201.85 T
330.563 199.905 330.563 179.974 324.657 201.85 T
336.469 179.974 330.563 179.974 330.563 199.905 T
336.469 198.484 336.469 179.974 330.563 199.905 T
342.374 179.974 336.469 179.974 336.469 198.484 T
342.374 197.152 342.374 179.974 336.469 198.484 T
348.28 179.974 342.374 179.974 342.374 197.152 T
348.28 196.122 348.28 179.974 342.374 197.152 T
354.186 179.974 348.28 179.974 348.28 196.122 T
354.186 195.138 354.186 179.974 348.28 196.122 T
0 0 0 C
354.186 195.138 LS
348.28 196.122 L
342.374 197.152 L
336.469 198.484 L
330.563 199.905 L
324.657 201.85 L
318.751 202.736 L
312.845 203.625 L
306.939 204.607 L
301.033 206.309 L
295.127 206.793 L
289.221 209.102 L
283.315 208.69 L
277.409 207.704 L
271.503 203.311 L
265.597 201.63 L
259.691 197.161 L
253.786 192.575 L
247.88 187.348 L
241.974 179.974 L
247.88 179.974 L
253.786 179.974 L
259.691 179.974 L
265.597 179.974 L
271.503 179.974 L
277.409 179.974 L
283.315 179.974 L
289.221 179.974 L
295.127 179.974 L
301.033 179.974 L
306.939 179.974 L
312.845 179.974 L
318.751 179.974 L
324.657 179.974 L
330.563 179.974 L
336.469 179.974 L
342.374 179.974 L
348.28 179.974 L
354.186 179.974 L
354.186 195.138 LE
3 W
1 LJ
241.974 186.737 LS
247.88 199.023 L
253.786 208.837 L
259.691 217.204 L
265.597 223.871 L
271.503 228.499 L
277.409 231.051 L
283.315 231.76 L
289.221 231.012 L
295.127 229.226 L
301.033 226.787 L
306.939 224.011 L
312.845 221.136 L
318.751 218.327 L
324.657 215.689 L
330.563 213.281 L
336.469 211.128 L
342.374 209.231 L
348.28 207.579 L
354.186 206.149 LE
grestore
gsave
1.0 1.0 scale
newpath 0 0 moveto 576 0 lineto 576 432 lineto 0 432 lineto
closepath clip
1 1 1 C
409.067 254.387 521.28 179.974 409.067 179.974 T
409.067 254.387 521.28 254.387 521.28 179.974 T
0.5 W
0.15 0.15 0.15 C
432.691 179.974 LS
432.691 181.102 LE
432.691 254.387 LS
432.691 253.258 LE
462.221 179.974 LS
462.221 181.102 LE
462.221 254.387 LS
462.221 253.258 LE
491.75 179.974 LS
491.75 181.102 LE
491.75 254.387 LS
491.75 253.258 LE
521.28 179.974 LS
521.28 181.102 LE
521.28 254.387 LS
521.28 253.258 LE
gsave
0.14902 0.14902 0.14902 C
(5) [10] 0 429.691 164.432 10 /Helvetica SRX
grestore

gsave
0.14902 0.14902 0.14902 C
(10) [6 10] 0 456.221 164.432 10 /Helvetica SRX
grestore

gsave
0.14902 0.14902 0.14902 C
(15) [6 10] 0 485.75 164.432 10 /Helvetica SRX
grestore

gsave
0.14902 0.14902 0.14902 C
(20) [6 10] 0 515.28 164.432 10 /Helvetica SRX
grestore

409.067 192.697 LS
410.192 192.697 LE
521.28 192.697 LS
520.156 192.697 LE
409.067 211.695 LS
410.192 211.695 LE
521.28 211.695 LS
520.156 211.695 LE
409.067 230.693 LS
410.192 230.693 LE
521.28 230.693 LS
520.156 230.693 LE
409.067 249.692 LS
410.192 249.692 LE
521.28 249.692 LS
520.156 249.692 LE
gsave
0.14902 0.14902 0.14902 C
(0.01) [6 3 6 10] 0 383.058 188.697 10 /Helvetica SRX
grestore

gsave
0.14902 0.14902 0.14902 C
(0.02) [6 3 6 10] 0 383.058 207.695 10 /Helvetica SRX
grestore

gsave
0.14902 0.14902 0.14902 C
(0.03) [6 3 6 10] 0 383.058 226.693 10 /Helvetica SRX
grestore

gsave
0.14902 0.14902 0.14902 C
(0.04) [6 3 6 10] 0 383.058 245.692 10 /Helvetica SRX
grestore

2 LC
[16 0] 0 setdash
409.067 179.974 LS
521.28 179.974 LE
409.067 254.387 LS
521.28 254.387 LE
409.067 179.974 LS
409.067 254.387 LE
521.28 179.974 LS
521.28 254.387 LE
gsave
0 0 0 C
(L_C_hat) [7 6 8 6 7 6 10] 0 443.174 266.387 11 /Helvetica-Bold SRX
grestore

0.9 0.9 0.9 C
409.067 179.974 409.067 186.918 414.973 179.974 T
414.973 202.821 414.973 179.974 409.067 186.918 T
420.879 179.974 414.973 179.974 414.973 202.821 T
420.879 222.982 420.879 179.974 414.973 202.821 T
426.785 179.974 420.879 179.974 420.879 222.982 T
426.785 239.879 426.785 179.974 420.879 222.982 T
432.691 179.974 426.785 179.974 426.785 239.879 T
432.691 249.373 432.691 179.974 426.785 239.879 T
438.597 179.974 432.691 179.974 432.691 249.373 T
438.597 254.387 438.597 179.974 432.691 249.373 T
444.503 179.974 438.597 179.974 438.597 254.387 T
444.503 252.452 444.503 179.974 438.597 254.387 T
450.409 179.974 444.503 179.974 444.503 252.452 T
450.409 248.519 450.409 179.974 444.503 252.452 T
456.315 179.974 450.409 179.974 450.409 248.519 T
456.315 241.977 456.315 179.974 450.409 248.519 T
462.221 179.974 456.315 179.974 456.315 241.977 T
462.221 234.063 462.221 179.974 456.315 241.977 T
468.127 179.974 462.221 179.974 462.221 234.063 T
468.127 226.583 468.127 179.974 462.221 234.063 T
474.033 179.974 468.127 179.974 468.127 226.583 T
474.033 220.373 474.033 179.974 468.127 226.583 T
479.939 179.974 474.033 179.974 474.033 220.373 T
479.939 213.766 479.939 179.974 474.033 220.373 T
485.844 179.974 479.939 179.974 479.939 213.766 T
485.844 208.736 485.844 179.974 479.939 213.766 T
491.75 179.974 485.844 179.974 485.844 208.736 T
491.75 204.433 491.75 179.974 485.844 208.736 T
497.656 179.974 491.75 179.974 491.75 204.433 T
497.656 200.167 497.656 179.974 491.75 204.433 T
503.562 179.974 497.656 179.974 497.656 200.167 T
503.562 196.74 503.562 179.974 497.656 200.167 T
509.468 179.974 503.562 179.974 503.562 196.74 T
509.468 193.909 509.468 179.974 503.562 196.74 T
515.374 179.974 509.468 179.974 509.468 193.909 T
515.374 191.516 515.374 179.974 509.468 193.909 T
521.28 179.974 515.374 179.974 515.374 191.516 T
521.28 189.499 521.28 179.974 515.374 191.516 T
0 LC
[] 0 setdash
0 0 0 C
521.28 189.499 LS
515.374 191.516 L
509.468 193.909 L
503.562 196.74 L
497.656 200.167 L
491.75 204.433 L
485.844 208.736 L
479.939 213.766 L
474.033 220.373 L
468.127 226.583 L
462.221 234.063 L
456.315 241.977 L
450.409 248.519 L
444.503 252.452 L
438.597 254.387 L
432.691 249.373 L
426.785 239.879 L
420.879 222.982 L
414.973 202.821 L
409.067 186.918 L
409.067 179.974 L
414.973 179.974 L
420.879 179.974 L
426.785 179.974 L
432.691 179.974 L
438.597 179.974 L
444.503 179.974 L
450.409 179.974 L
456.315 179.974 L
462.221 179.974 L
468.127 179.974 L
474.033 179.974 L
479.939 179.974 L
485.844 179.974 L
491.75 179.974 L
497.656 179.974 L
503.562 179.974 L
509.468 179.974 L
515.374 179.974 L
521.28 179.974 L
521.28 189.499 LE
1 1 1 C
409.067 179.974 414.973 187.045 414.973 179.974 T
420.879 179.974 414.973 179.974 414.973 187.045 T
420.879 193.542 420.879 179.974 414.973 187.045 T
426.785 179.974 420.879 179.974 420.879 193.542 T
426.785 199.441 426.785 179.974 420.879 193.542 T
432.691 179.974 426.785 179.974 426.785 199.441 T
432.691 203.424 432.691 179.974 426.785 199.441 T
438.597 179.974 432.691 179.974 432.691 203.424 T
438.597 207.743 438.597 179.974 432.691 203.424 T
444.503 179.974 438.597 179.974 438.597 207.743 T
444.503 208.351 444.503 179.974 438.597 207.743 T
450.409 179.974 444.503 179.974 444.503 208.351 T
450.409 208.266 450.409 179.974 444.503 208.351 T
456.315 179.974 450.409 179.974 450.409 208.266 T
456.315 206.545 456.315 179.974 450.409 208.266 T
462.221 179.974 456.315 179.974 456.315 206.545 T
462.221 203.653 462.221 179.974 456.315 206.545 T
468.127 179.974 462.221 179.974 462.221 203.653 T
468.127 200.573 468.127 179.974 462.221 203.653 T
474.033 179.974 468.127 179.974 468.127 200.573 T
474.033 198.268 474.033 179.974 468.127 200.573 T
479.939 179.974 474.033 179.974 474.033 198.268 T
479.939 194.958 479.939 179.974 474.033 198.268 T
485.844 179.974 479.939 179.974 479.939 194.958 T
485.844 192.339 485.844 179.974 479.939 194.958 T
491.75 179.974 485.844 179.974 485.844 192.339 T
491.75 190.398 491.75 179.974 485.844 192.339 T
497.656 179.974 491.75 179.974 491.75 190.398 T
497.656 188.015 497.656 179.974 491.75 190.398 T
503.562 179.974 497.656 179.974 497.656 188.015 T
503.562 186.001 503.562 179.974 497.656 188.015 T
509.468 179.974 503.562 179.974 503.562 186.001 T
509.468 184.34 509.468 179.974 503.562 186.001 T
515.374 179.974 509.468 179.974 509.468 184.34 T
515.374 183.03 515.374 179.974 509.468 184.34 T
521.28 179.974 515.374 179.974 515.374 183.03 T
521.28 181.994 521.28 179.974 515.374 183.03 T
0 0 0 C
521.28 181.994 LS
515.374 183.03 L
509.468 184.34 L
503.562 186.001 L
497.656 188.015 L
491.75 190.398 L
485.844 192.339 L
479.939 194.958 L
474.033 198.268 L
468.127 200.573 L
462.221 203.653 L
456.315 206.545 L
450.409 208.266 L
444.503 208.351 L
438.597 207.743 L
432.691 203.424 L
426.785 199.441 L
420.879 193.542 L
414.973 187.045 L
409.067 179.974 L
414.973 179.974 L
420.879 179.974 L
426.785 179.974 L
432.691 179.974 L
438.597 179.974 L
444.503 179.974 L
450.409 179.974 L
456.315 179.974 L
462.221 179.974 L
468.127 179.974 L
474.033 179.974 L
479.939 179.974 L
485.844 179.974 L
491.75 179.974 L
497.656 179.974 L
503.562 179.974 L
509.468 179.974 L
515.374 179.974 L
521.28 179.974 L
521.28 181.994 LE
3 W
1 LJ
409.067 183.412 LS
414.973 194.941 L
420.879 209.747 L
426.785 221.66 L
432.691 228.934 L
438.597 231.808 L
444.503 231.242 L
450.409 228.321 L
456.315 223.998 L
462.221 219.007 L
468.127 213.869 L
474.033 208.925 L
479.939 204.371 L
485.844 200.307 L
491.75 196.762 L
497.656 193.724 L
503.562 191.153 L
509.468 189 L
515.374 187.21 L
521.28 185.729 LE
grestore
gsave
1.0 1.0 scale
newpath 0 0 moveto 576 0 lineto 576 432 lineto 0 432 lineto
closepath clip
1 1 1 C
74.88 121.933 187.093 47.52 74.88 47.52 T
74.88 121.933 187.093 121.933 187.093 47.52 T
0.5 W
0.15 0.15 0.15 C
98.5037 47.52 LS
98.5037 48.6484 LE
98.5037 121.933 LS
98.5037 120.805 LE
128.033 47.52 LS
128.033 48.6484 LE
128.033 121.933 LS
128.033 120.805 LE
157.563 47.52 LS
157.563 48.6484 LE
157.563 121.933 LS
157.563 120.805 LE
187.093 47.52 LS
187.093 48.6484 LE
187.093 121.933 LS
187.093 120.805 LE
gsave
0.14902 0.14902 0.14902 C
(5) [10] 0 95.5037 31.9781 10 /Helvetica SRX
grestore

gsave
0.14902 0.14902 0.14902 C
(10) [6 10] 0 122.033 31.9781 10 /Helvetica SRX
grestore

gsave
0.14902 0.14902 0.14902 C
(15) [6 10] 0 151.563 31.9781 10 /Helvetica SRX
grestore

gsave
0.14902 0.14902 0.14902 C
(20) [6 10] 0 181.093 31.9781 10 /Helvetica SRX
grestore

74.88 66.6592 LS
76.0043 66.6592 LE
187.093 66.6592 LS
185.968 66.6592 LE
74.88 89.1859 LS
76.0043 89.1859 LE
187.093 89.1859 LS
185.968 89.1859 LE
74.88 111.713 LS
76.0043 111.713 LE
187.093 111.713 LS
185.968 111.713 LE
gsave
0.14902 0.14902 0.14902 C
(-0.005) [3 6 3 6 6 10] 0 39.8705 62.6592 10 /Helvetica SRX
grestore

gsave
0.14902 0.14902 0.14902 C
(0) [10] 0 63.8705 85.1859 10 /Helvetica SRX
grestore

gsave
0.14902 0.14902 0.14902 C
(0.005) [6 3 6 6 10] 0 42.8705 107.713 10 /Helvetica SRX
grestore

2 LC
[16 0] 0 setdash
74.88 47.52 LS
187.093 47.52 LE
74.88 121.933 LS
187.093 121.933 LE
74.88 47.52 LS
74.88 121.933 LE
187.093 47.52 LS
187.093 121.933 LE
gsave
0 0 0 C
(I_T_hat) [3 6 7 6 7 6 10] 0 111.486 133.933 11 /Helvetica-Bold SRX
grestore

0.9 0.9 0.9 C
74.88 47.52 74.88 77.0292 80.7859 47.52 T
80.7859 78.8332 80.7859 47.52 74.88 77.0292 T
86.6918 47.52 80.7859 47.52 80.7859 78.8332 T
86.6918 85.6586 86.6918 47.52 80.7859 78.8332 T
92.5978 47.52 86.6918 47.52 86.6918 85.6586 T
92.5978 90.7442 92.5978 47.52 86.6918 85.6586 T
98.5037 47.52 92.5978 47.52 92.5978 90.7442 T
98.5037 97.4904 98.5037 47.52 92.5978 90.7442 T
104.41 47.52 98.5037 47.52 98.5037 97.4904 T
104.41 102.114 104.41 47.52 98.5037 97.4904 T
110.316 47.52 104.41 47.52 104.41 102.114 T
110.316 108.006 110.316 47.52 104.41 102.114 T
116.221 47.52 110.316 47.52 110.316 108.006 T
116.221 113.732 116.221 47.52 110.316 108.006 T
122.127 47.52 116.221 47.52 116.221 113.732 T
122.127 116.647 122.127 47.52 116.221 113.732 T
128.033 47.52 122.127 47.52 122.127 116.647 T
128.033 119.998 128.033 47.52 122.127 116.647 T
133.939 47.52 128.033 47.52 128.033 119.998 T
133.939 121.138 133.939 47.52 128.033 119.998 T
139.845 47.52 133.939 47.52 133.939 121.138 T
139.845 121.881 139.845 47.52 133.939 121.138 T
145.751 47.52 139.845 47.52 139.845 121.881 T
145.751 121.933 145.751 47.52 139.845 121.881 T
151.657 47.52 145.751 47.52 145.751 121.933 T
151.657 121.277 151.657 47.52 145.751 121.933 T
157.563 47.52 151.657 47.52 151.657 121.277 T
157.563 120.176 157.563 47.52 151.657 121.277 T
163.469 47.52 157.563 47.52 157.563 120.176 T
163.469 119.313 163.469 47.52 157.563 120.176 T
169.375 47.52 163.469 47.52 163.469 119.313 T
169.375 117.793 169.375 47.52 163.469 119.313 T
175.281 47.52 169.375 47.52 169.375 117.793 T
175.281 116.31 175.281 47.52 169.375 117.793 T
181.187 47.52 175.281 47.52 175.281 116.31 T
181.187 114.916 181.187 47.52 175.281 116.31 T
187.093 47.52 181.187 47.52 181.187 114.916 T
187.093 113.397 187.093 47.52 181.187 114.916 T
0 LC
[] 0 setdash
0 0 0 C
187.093 113.397 LS
181.187 114.916 L
175.281 116.31 L
169.375 117.793 L
163.469 119.313 L
157.563 120.176 L
151.657 121.277 L
145.751 121.933 L
139.845 121.881 L
133.939 121.138 L
128.033 119.998 L
122.127 116.647 L
116.221 113.732 L
110.316 108.006 L
104.41 102.114 L
98.5037 97.4904 L
92.5978 90.7442 L
86.6918 85.6586 L
80.7859 78.8332 L
74.88 77.0292 L
74.88 47.52 L
80.7859 47.52 L
86.6918 47.52 L
92.5978 47.52 L
98.5037 47.52 L
104.41 47.52 L
110.316 47.52 L
116.221 47.52 L
122.127 47.52 L
128.033 47.52 L
133.939 47.52 L
139.845 47.52 L
145.751 47.52 L
151.657 47.52 L
157.563 47.52 L
163.469 47.52 L
169.375 47.52 L
175.281 47.52 L
181.187 47.52 L
187.093 47.52 L
187.093 113.397 LE
1 1 1 C
74.88 47.52 80.7859 48.9751 80.7859 47.52 T
86.6918 47.52 80.7859 47.52 80.7859 48.9751 T
86.6918 56.8411 86.6918 47.52 80.7859 48.9751 T
92.5978 47.52 86.6918 47.52 86.6918 56.8411 T
92.5978 67.2503 92.5978 47.52 86.6918 56.8411 T
98.5037 47.52 92.5978 47.52 92.5978 67.2503 T
98.5037 78.5699 98.5037 47.52 92.5978 67.2503 T
104.41 47.52 98.5037 47.52 98.5037 78.5699 T
104.41 86.8959 104.41 47.52 98.5037 78.5699 T
110.316 47.52 104.41 47.52 104.41 86.8959 T
110.316 93.1218 110.316 47.52 104.41 86.8959 T
116.221 47.52 110.316 47.52 110.316 93.1218 T
116.221 97.7477 116.221 47.52 110.316 93.1218 T
122.127 47.52 116.221 47.52 116.221 97.7477 T
122.127 99.161 122.127 47.52 116.221 97.7477 T
128.033 47.52 122.127 47.52 122.127 99.161 T
128.033 101.457 128.033 47.52 122.127 99.161 T
133.939 47.52 128.033 47.52 128.033 101.457 T
133.939 102.013 133.939 47.52 128.033 101.457 T
139.845 47.52 133.939 47.52 133.939 102.013 T
139.845 102.734 139.845 47.52 133.939 102.013 T
145.751 47.52 139.845 47.52 139.845 102.734 T
145.751 103.267 145.751 47.52 139.845 102.734 T
151.657 47.52 145.751 47.52 145.751 103.267 T
151.657 103.374 151.657 47.52 145.751 103.267 T
157.563 47.52 151.657 47.52 151.657 103.374 T
157.563 103.021 157.563 47.52 151.657 103.374 T
163.469 47.52 157.563 47.52 157.563 103.021 T
163.469 103.092 163.469 47.52 157.563 103.021 T
169.375 47.52 163.469 47.52 163.469 103.092 T
169.375 102.582 169.375 47.52 163.469 103.092 T
175.281 47.52 169.375 47.52 169.375 102.582 T
175.281 101.918 175.281 47.52 169.375 102.582 T
181.187 47.52 175.281 47.52 175.281 101.918 T
181.187 101.518 181.187 47.52 175.281 101.918 T
187.093 47.52 181.187 47.52 181.187 101.518 T
187.093 100.894 187.093 47.52 181.187 101.518 T
0 0 0 C
187.093 100.894 LS
181.187 101.518 L
175.281 101.918 L
169.375 102.582 L
163.469 103.092 L
157.563 103.021 L
151.657 103.374 L
145.751 103.267 L
139.845 102.734 L
133.939 102.013 L
128.033 101.457 L
122.127 99.161 L
116.221 97.7477 L
110.316 93.1218 L
104.41 86.8959 L
98.5037 78.5699 L
92.5978 67.2503 L
86.6918 56.8411 L
80.7859 48.9751 L
74.88 47.52 L
80.7859 47.52 L
86.6918 47.52 L
92.5978 47.52 L
98.5037 47.52 L
104.41 47.52 L
110.316 47.52 L
116.221 47.52 L
122.127 47.52 L
128.033 47.52 L
133.939 47.52 L
139.845 47.52 L
145.751 47.52 L
151.657 47.52 L
157.563 47.52 L
163.469 47.52 L
169.375 47.52 L
175.281 47.52 L
181.187 47.52 L
187.093 47.52 L
187.093 100.894 LE
3 W
1 LJ
74.88 63.2266 LS
80.7859 64.5911 L
86.6918 70.8569 L
92.5978 79.0962 L
98.5037 87.4237 L
104.41 94.8273 L
110.316 100.877 L
116.221 105.488 L
122.127 108.767 L
128.033 110.902 L
133.939 112.109 L
139.845 112.597 L
145.751 112.551 L
151.657 112.124 L
157.563 111.441 L
163.469 110.599 L
169.375 109.67 L
175.281 108.708 L
181.187 107.751 L
187.093 106.824 LE
grestore
gsave
1.0 1.0 scale
newpath 0 0 moveto 576 0 lineto 576 432 lineto 0 432 lineto
closepath clip
1 1 1 C
241.974 121.933 354.186 47.52 241.974 47.52 T
241.974 121.933 354.186 121.933 354.186 47.52 T
0.5 W
0.15 0.15 0.15 C
265.597 47.52 LS
265.597 48.6484 LE
265.597 121.933 LS
265.597 120.805 LE
295.127 47.52 LS
295.127 48.6484 LE
295.127 121.933 LS
295.127 120.805 LE
324.657 47.52 LS
324.657 48.6484 LE
324.657 121.933 LS
324.657 120.805 LE
354.186 47.52 LS
354.186 48.6484 LE
354.186 121.933 LS
354.186 120.805 LE
gsave
0.14902 0.14902 0.14902 C
(5) [10] 0 262.597 31.9781 10 /Helvetica SRX
grestore

gsave
0.14902 0.14902 0.14902 C
(10) [6 10] 0 289.127 31.9781 10 /Helvetica SRX
grestore

gsave
0.14902 0.14902 0.14902 C
(15) [6 10] 0 318.657 31.9781 10 /Helvetica SRX
grestore

gsave
0.14902 0.14902 0.14902 C
(20) [6 10] 0 348.186 31.9781 10 /Helvetica SRX
grestore

241.974 56.3114 LS
243.098 56.3114 LE
354.186 56.3114 LS
353.062 56.3114 LE
241.974 67.569 LS
243.098 67.569 LE
354.186 67.569 LS
353.062 67.569 LE
241.974 78.8267 LS
243.098 78.8267 LE
354.186 78.8267 LS
353.062 78.8267 LE
241.974 90.0844 LS
243.098 90.0844 LE
354.186 90.0844 LS
353.062 90.0844 LE
241.974 101.342 LS
243.098 101.342 LE
354.186 101.342 LS
353.062 101.342 LE
241.974 112.6 LS
243.098 112.6 LE
354.186 112.6 LS
353.062 112.6 LE
gsave
0.14902 0.14902 0.14902 C
(0.004) [6 3 6 6 10] 0 209.964 52.3114 10 /Helvetica SRX
grestore

gsave
0.14902 0.14902 0.14902 C
(0.006) [6 3 6 6 10] 0 209.964 63.5691 10 /Helvetica SRX
grestore

gsave
0.14902 0.14902 0.14902 C
(0.008) [6 3 6 6 10] 0 209.964 74.8267 10 /Helvetica SRX
grestore

gsave
0.14902 0.14902 0.14902 C
(0.01) [6 3 6 10] 0 215.964 86.0844 10 /Helvetica SRX
grestore

gsave
0.14902 0.14902 0.14902 C
(0.012) [6 3 6 6 10] 0 209.964 97.3421 10 /Helvetica SRX
grestore

gsave
0.14902 0.14902 0.14902 C
(0.014) [6 3 6 6 10] 0 209.964 108.6 10 /Helvetica SRX
grestore

2 LC
[16 0] 0 setdash
241.974 47.52 LS
354.186 47.52 LE
241.974 121.933 LS
354.186 121.933 LE
241.974 47.52 LS
241.974 121.933 LE
354.186 47.52 LS
354.186 121.933 LE
gsave
0 0 0 C
(I_N_hat) [3 6 8 6 7 6 10] 0 278.08 133.933 11 /Helvetica-Bold SRX
grestore

0.9 0.9 0.9 C
241.974 47.52 241.974 121.933 247.88 47.52 T
247.88 121.327 247.88 47.52 241.974 121.933 T
253.786 47.52 247.88 47.52 247.88 121.327 T
253.786 120.252 253.786 47.52 247.88 121.327 T
259.691 47.52 253.786 47.52 253.786 120.252 T
259.691 120.359 259.691 47.52 253.786 120.252 T
265.597 47.52 259.691 47.52 259.691 120.359 T
265.597 116.404 265.597 47.52 259.691 120.359 T
271.503 47.52 265.597 47.52 265.597 116.404 T
271.503 113.341 271.503 47.52 265.597 116.404 T
277.409 47.52 271.503 47.52 271.503 113.341 T
277.409 107.185 277.409 47.52 271.503 113.341 T
283.315 47.52 277.409 47.52 277.409 107.185 T
283.315 104.012 283.315 47.52 277.409 107.185 T
289.221 47.52 283.315 47.52 283.315 104.012 T
289.221 98.8132 289.221 47.52 283.315 104.012 T
295.127 47.52 289.221 47.52 289.221 98.8132 T
295.127 93.8766 295.127 47.52 289.221 98.8132 T
301.033 47.52 295.127 47.52 295.127 93.8766 T
301.033 88.99 301.033 47.52 295.127 93.8766 T
306.939 47.52 301.033 47.52 301.033 88.99 T
306.939 84.019 306.939 47.52 301.033 88.99 T
312.845 47.52 306.939 47.52 306.939 84.019 T
312.845 79.3372 312.845 47.52 306.939 84.019 T
318.751 47.52 312.845 47.52 312.845 79.3372 T
318.751 75.5426 318.751 47.52 312.845 79.3372 T
324.657 47.52 318.751 47.52 318.751 75.5426 T
324.657 72.3027 324.657 47.52 318.751 75.5426 T
330.563 47.52 324.657 47.52 324.657 72.3027 T
330.563 69.1052 330.563 47.52 324.657 72.3027 T
336.469 47.52 330.563 47.52 330.563 69.1052 T
336.469 66.3125 336.469 47.52 330.563 69.1052 T
342.374 47.52 336.469 47.52 336.469 66.3125 T
342.374 63.8601 342.374 47.52 336.469 66.3125 T
348.28 47.52 342.374 47.52 342.374 63.8601 T
348.28 61.6895 348.28 47.52 342.374 63.8601 T
354.186 47.52 348.28 47.52 348.28 61.6895 T
354.186 59.9639 354.186 47.52 348.28 61.6895 T
0 LC
[] 0 setdash
0 0 0 C
354.186 59.9639 LS
348.28 61.6895 L
342.374 63.8601 L
336.469 66.3125 L
330.563 69.1052 L
324.657 72.3027 L
318.751 75.5426 L
312.845 79.3372 L
306.939 84.019 L
301.033 88.99 L
295.127 93.8766 L
289.221 98.8132 L
283.315 104.012 L
277.409 107.185 L
271.503 113.341 L
265.597 116.404 L
259.691 120.359 L
253.786 120.252 L
247.88 121.327 L
241.974 121.933 L
241.974 47.52 L
247.88 47.52 L
253.786 47.52 L
259.691 47.52 L
265.597 47.52 L
271.503 47.52 L
277.409 47.52 L
283.315 47.52 L
289.221 47.52 L
295.127 47.52 L
301.033 47.52 L
306.939 47.52 L
312.845 47.52 L
318.751 47.52 L
324.657 47.52 L
330.563 47.52 L
336.469 47.52 L
342.374 47.52 L
348.28 47.52 L
354.186 47.52 L
354.186 59.9639 LE
1 1 1 C
241.974 47.52 241.974 76.6719 247.88 47.52 T
247.88 76.4805 247.88 47.52 241.974 76.6719 T
253.786 47.52 247.88 47.52 247.88 76.4805 T
253.786 76.0894 253.786 47.52 247.88 76.4805 T
259.691 47.52 253.786 47.52 253.786 76.0894 T
259.691 77.808 259.691 47.52 253.786 76.0894 T
265.597 47.52 259.691 47.52 259.691 77.808 T
265.597 75.9574 265.597 47.52 259.691 77.808 T
271.503 47.52 265.597 47.52 265.597 75.9574 T
271.503 75.2478 271.503 47.52 265.597 75.9574 T
277.409 47.52 271.503 47.52 271.503 75.2478 T
277.409 71.6724 277.409 47.52 271.503 75.2478 T
283.315 47.52 277.409 47.52 277.409 71.6724 T
283.315 71.0962 283.315 47.52 277.409 71.6724 T
289.221 47.52 283.315 47.52 283.315 71.0962 T
289.221 68.5696 289.221 47.52 283.315 71.0962 T
295.127 47.52 289.221 47.52 289.221 68.5696 T
295.127 65.5522 295.127 47.52 289.221 68.5696 T
301.033 47.52 295.127 47.52 295.127 65.5522 T
301.033 62.9622 301.033 47.52 295.127 65.5522 T
306.939 47.52 301.033 47.52 301.033 62.9622 T
306.939 60.1226 306.939 47.52 301.033 62.9622 T
312.845 47.52 306.939 47.52 306.939 60.1226 T
312.845 57.5621 312.845 47.52 306.939 60.1226 T
318.751 47.52 312.845 47.52 312.845 57.5621 T
318.751 55.5119 318.751 47.52 312.845 57.5621 T
324.657 47.52 318.751 47.52 318.751 55.5119 T
324.657 53.9148 324.657 47.52 318.751 55.5119 T
330.563 47.52 324.657 47.52 324.657 53.9148 T
330.563 52.1063 330.563 47.52 324.657 53.9148 T
336.469 47.52 330.563 47.52 330.563 52.1063 T
336.469 50.7043 336.469 47.52 330.563 52.1063 T
342.374 47.52 336.469 47.52 336.469 50.7043 T
342.374 49.3407 342.374 47.52 336.469 50.7043 T
348.28 47.52 342.374 47.52 342.374 49.3407 T
348.28 48.2361 348.28 47.52 342.374 49.3407 T
354.186 47.52 348.28 47.52 348.28 48.2361 T
0 0 0 C
354.186 47.52 LS
348.28 48.2361 L
342.374 49.3407 L
336.469 50.7043 L
330.563 52.1063 L
324.657 53.9148 L
318.751 55.5119 L
312.845 57.5621 L
306.939 60.1226 L
301.033 62.9622 L
295.127 65.5522 L
289.221 68.5696 L
283.315 71.0962 L
277.409 71.6724 L
271.503 75.2478 L
265.597 75.9574 L
259.691 77.808 L
253.786 76.0894 L
247.88 76.4805 L
241.974 76.6719 L
241.974 47.52 L
247.88 47.52 L
253.786 47.52 L
259.691 47.52 L
265.597 47.52 L
271.503 47.52 L
277.409 47.52 L
283.315 47.52 L
289.221 47.52 L
295.127 47.52 L
301.033 47.52 L
306.939 47.52 L
312.845 47.52 L
318.751 47.52 L
324.657 47.52 L
330.563 47.52 L
336.469 47.52 L
342.374 47.52 L
348.28 47.52 L
354.186 47.52 LE
3 W
1 LJ
241.974 101.407 LS
247.88 100.683 L
253.786 100.134 L
259.691 98.9676 L
265.597 96.9071 L
271.503 94.0151 L
277.409 90.5075 L
283.315 86.6356 L
289.221 82.6269 L
295.127 78.6615 L
301.033 74.8684 L
306.939 71.3307 L
312.845 68.0944 L
318.751 65.1778 L
324.657 62.5795 L
330.563 60.2852 L
336.469 58.273 L
342.374 56.5168 L
348.28 54.9893 L
354.186 53.6636 LE
grestore
gsave
1.0 1.0 scale
newpath 0 0 moveto 576 0 lineto 576 432 lineto 0 432 lineto
closepath clip
1 1 1 C
409.067 121.933 521.28 47.52 409.067 47.52 T
409.067 121.933 521.28 121.933 521.28 47.52 T
0.5 W
0.15 0.15 0.15 C
432.691 47.52 LS
432.691 48.6484 LE
432.691 121.933 LS
432.691 120.805 LE
462.221 47.52 LS
462.221 48.6484 LE
462.221 121.933 LS
462.221 120.805 LE
491.75 47.52 LS
491.75 48.6484 LE
491.75 121.933 LS
491.75 120.805 LE
521.28 47.52 LS
521.28 48.6484 LE
521.28 121.933 LS
521.28 120.805 LE
gsave
0.14902 0.14902 0.14902 C
(5) [10] 0 429.691 31.9781 10 /Helvetica SRX
grestore

gsave
0.14902 0.14902 0.14902 C
(10) [6 10] 0 456.221 31.9781 10 /Helvetica SRX
grestore

gsave
0.14902 0.14902 0.14902 C
(15) [6 10] 0 485.75 31.9781 10 /Helvetica SRX
grestore

gsave
0.14902 0.14902 0.14902 C
(20) [6 10] 0 515.28 31.9781 10 /Helvetica SRX
grestore

409.067 64.7809 LS
410.192 64.7809 LE
521.28 64.7809 LS
520.156 64.7809 LE
409.067 83.4204 LS
410.192 83.4204 LE
521.28 83.4204 LS
520.156 83.4204 LE
409.067 102.06 LS
410.192 102.06 LE
521.28 102.06 LS
520.156 102.06 LE
409.067 120.7 LS
410.192 120.7 LE
521.28 120.7 LS
520.156 120.7 LE
gsave
0.14902 0.14902 0.14902 C
(0.02) [6 3 6 10] 0 383.058 60.7809 10 /Helvetica SRX
grestore

gsave
0.14902 0.14902 0.14902 C
(0.04) [6 3 6 10] 0 383.058 79.4205 10 /Helvetica SRX
grestore

gsave
0.14902 0.14902 0.14902 C
(0.06) [6 3 6 10] 0 383.058 98.06 10 /Helvetica SRX
grestore

gsave
0.14902 0.14902 0.14902 C
(0.08) [6 3 6 10] 0 383.058 116.7 10 /Helvetica SRX
grestore

2 LC
[16 0] 0 setdash
409.067 47.52 LS
521.28 47.52 LE
409.067 121.933 LS
521.28 121.933 LE
409.067 47.52 LS
409.067 121.933 LE
521.28 47.52 LS
521.28 121.933 LE
gsave
0 0 0 C
(I_C_hat) [3 6 8 6 7 6 10] 0 445.174 133.933 11 /Helvetica-Bold SRX
grestore

0.9 0.9 0.9 C
409.067 47.52 409.067 121.416 414.973 47.52 T
414.973 121.933 414.973 47.52 409.067 121.416 T
420.879 47.52 414.973 47.52 414.973 121.933 T
420.879 118.276 420.879 47.52 414.973 121.933 T
426.785 47.52 420.879 47.52 420.879 118.276 T
426.785 110.154 426.785 47.52 420.879 118.276 T
432.691 47.52 426.785 47.52 426.785 110.154 T
432.691 102.01 432.691 47.52 426.785 110.154 T
438.597 47.52 432.691 47.52 432.691 102.01 T
438.597 93.744 438.597 47.52 432.691 102.01 T
444.503 47.52 438.597 47.52 438.597 93.744 T
444.503 86.3584 444.503 47.52 438.597 93.744 T
450.409 47.52 444.503 47.52 444.503 86.3584 T
450.409 79.0965 450.409 47.52 444.503 86.3584 T
456.315 47.52 450.409 47.52 450.409 79.0965 T
456.315 73.4475 456.315 47.52 450.409 79.0965 T
462.221 47.52 456.315 47.52 456.315 73.4475 T
462.221 68.6174 462.221 47.52 456.315 73.4475 T
468.127 47.52 462.221 47.52 462.221 68.6174 T
468.127 64.3649 468.127 47.52 462.221 68.6174 T
474.033 47.52 468.127 47.52 468.127 64.3649 T
474.033 60.9053 474.033 47.52 468.127 64.3649 T
479.939 47.52 474.033 47.52 474.033 60.9053 T
479.939 58.0322 479.939 47.52 474.033 60.9053 T
485.844 47.52 479.939 47.52 479.939 58.0322 T
485.844 55.6851 485.844 47.52 479.939 58.0322 T
491.75 47.52 485.844 47.52 485.844 55.6851 T
491.75 53.7932 491.75 47.52 485.844 55.6851 T
497.656 47.52 491.75 47.52 491.75 53.7932 T
497.656 52.3483 497.656 47.52 491.75 53.7932 T
503.562 47.52 497.656 47.52 497.656 52.3483 T
503.562 51.1861 503.562 47.52 497.656 52.3483 T
509.468 47.52 503.562 47.52 503.562 51.1861 T
509.468 50.2475 509.468 47.52 503.562 51.1861 T
515.374 47.52 509.468 47.52 509.468 50.2475 T
515.374 49.6408 515.374 47.52 509.468 50.2475 T
521.28 47.52 515.374 47.52 515.374 49.6408 T
521.28 49.0313 521.28 47.52 515.374 49.6408 T
0 LC
[] 0 setdash
0 0 0 C
521.28 49.0313 LS
515.374 49.6408 L
509.468 50.2475 L
503.562 51.1861 L
497.656 52.3483 L
491.75 53.7932 L
485.844 55.6851 L
479.939 58.0322 L
474.033 60.9053 L
468.127 64.3649 L
462.221 68.6174 L
456.315 73.4475 L
450.409 79.0965 L
444.503 86.3584 L
438.597 93.744 L
432.691 102.01 L
426.785 110.154 L
420.879 118.276 L
414.973 121.933 L
409.067 121.416 L
409.067 47.52 L
414.973 47.52 L
420.879 47.52 L
426.785 47.52 L
432.691 47.52 L
438.597 47.52 L
444.503 47.52 L
450.409 47.52 L
456.315 47.52 L
462.221 47.52 L
468.127 47.52 L
474.033 47.52 L
479.939 47.52 L
485.844 47.52 L
491.75 47.52 L
497.656 47.52 L
503.562 47.52 L
509.468 47.52 L
515.374 47.52 L
521.28 47.52 L
521.28 49.0313 LE
1 1 1 C
409.067 47.52 409.067 85.9864 414.973 47.52 T
414.973 85.7246 414.973 47.52 409.067 85.9864 T
420.879 47.52 414.973 47.52 414.973 85.7246 T
420.879 84.1548 420.879 47.52 414.973 85.7246 T
426.785 47.52 420.879 47.52 420.879 84.1548 T
426.785 79.595 426.785 47.52 420.879 84.1548 T
432.691 47.52 426.785 47.52 426.785 79.595 T
432.691 75.4867 432.691 47.52 426.785 79.595 T
438.597 47.52 432.691 47.52 432.691 75.4867 T
438.597 71.3281 438.597 47.52 432.691 75.4867 T
444.503 47.52 438.597 47.52 438.597 71.3281 T
444.503 67.6417 444.503 47.52 438.597 71.3281 T
450.409 47.52 444.503 47.52 444.503 67.6417 T
450.409 63.7184 450.409 47.52 444.503 67.6417 T
456.315 47.52 450.409 47.52 450.409 63.7184 T
456.315 60.8274 456.315 47.52 450.409 63.7184 T
462.221 47.52 456.315 47.52 456.315 60.8274 T
462.221 58.3294 462.221 47.52 456.315 60.8274 T
468.127 47.52 462.221 47.52 462.221 58.3294 T
468.127 56.0277 468.127 47.52 462.221 58.3294 T
474.033 47.52 468.127 47.52 468.127 56.0277 T
474.033 54.1454 474.033 47.52 468.127 56.0277 T
479.939 47.52 474.033 47.52 474.033 54.1454 T
479.939 52.4703 479.939 47.52 474.033 54.1454 T
485.844 47.52 479.939 47.52 479.939 52.4703 T
485.844 51.0751 485.844 47.52 479.939 52.4703 T
491.75 47.52 485.844 47.52 485.844 51.0751 T
491.75 50.0145 491.75 47.52 485.844 51.0751 T
497.656 47.52 491.75 47.52 491.75 50.0145 T
497.656 49.2544 497.656 47.52 491.75 50.0145 T
503.562 47.52 497.656 47.52 497.656 49.2544 T
503.562 48.6229 503.562 47.52 497.656 49.2544 T
509.468 47.52 503.562 47.52 503.562 48.6229 T
509.468 48.1066 509.468 47.52 503.562 48.6229 T
515.374 47.52 509.468 47.52 509.468 48.1066 T
515.374 47.8414 515.374 47.52 509.468 48.1066 T
521.28 47.52 515.374 47.52 515.374 47.8414 T
0 0 0 C
521.28 47.52 LS
515.374 47.8414 L
509.468 48.1066 L
503.562 48.6229 L
497.656 49.2544 L
491.75 50.0145 L
485.844 51.0751 L
479.939 52.4703 L
474.033 54.1454 L
468.127 56.0277 L
462.221 58.3294 L
456.315 60.8274 L
450.409 63.7184 L
444.503 67.6417 L
438.597 71.3281 L
432.691 75.4867 L
426.785 79.595 L
420.879 84.1548 L
414.973 85.7246 L
409.067 85.9864 L
409.067 47.52 L
414.973 47.52 L
420.879 47.52 L
426.785 47.52 L
432.691 47.52 L
438.597 47.52 L
444.503 47.52 L
450.409 47.52 L
456.315 47.52 L
462.221 47.52 L
468.127 47.52 L
474.033 47.52 L
479.939 47.52 L
485.844 47.52 L
491.75 47.52 L
497.656 47.52 L
503.562 47.52 L
509.468 47.52 L
515.374 47.52 L
521.28 47.52 LE
3 W
1 LJ
409.067 103.163 LS
414.973 104.542 L
420.879 101.328 L
426.785 95.8184 L
432.691 89.431 L
438.597 83.0054 L
444.503 77.0047 L
450.409 71.652 L
456.315 67.0237 L
462.221 63.1103 L
468.127 59.8568 L
474.033 57.1867 L
479.939 55.018 L
485.844 53.2711 L
491.75 51.8734 L
497.656 50.7614 L
503.562 49.881 L
509.468 49.1867 L
515.374 48.6414 L
521.28 48.2144 LE
grestore
grestore
showpage
cleartomark
%%PageTrailer
%%Trailer
end
%%EOF
