%!PS-Adobe-3.0 EPSF-3.0
%%Title: gl2ps_renderer figure
%%Creator: GL2PS 1.4.2, (C) 1999-2020 C. Geuzaine
%%For: Octave
%%CreationDate: Wed Oct  7 07:02:42 2020
%%LanguageLevel: 3
%%DocumentData: Clean7Bit
%%Pages: 1
%%BoundingBox: 0 0 576 432
%%EndComments
%%BeginProlog
/gl2psdict 64 dict def gl2psdict begin
/tryPS3shading false def % set to false to force subdivision
/rThreshold 0.064 def % red component subdivision threshold
/gThreshold 0.034 def % green component subdivision threshold
/bThreshold 0.1 def % blue component subdivision threshold
/BD { bind def } bind def
/C  { setrgbcolor } BD
/G  { 0.082 mul exch 0.6094 mul add exch 0.3086 mul add neg 1.0 add setgray } BD
/W  { setlinewidth } BD
/LC  { setlinecap } BD
/LJ  { setlinejoin } BD
/FC { findfont exch /SH exch def SH scalefont setfont } BD
/SW { dup stringwidth pop } BD
/S  { FC moveto show } BD
/SBC{ FC moveto SW -2 div 0 rmoveto show } BD
/SBR{ FC moveto SW neg 0 rmoveto show } BD
/SCL{ FC moveto 0 SH -2 div rmoveto show } BD
/SCC{ FC moveto SW -2 div SH -2 div rmoveto show } BD
/SCR{ FC moveto SW neg SH -2 div rmoveto show } BD
/STL{ FC moveto 0 SH neg rmoveto show } BD
/STC{ FC moveto SW -2 div SH neg rmoveto show } BD
/STR{ FC moveto SW neg SH neg rmoveto show } BD
/FCT { FC translate 0 0 } BD
/SR  { gsave FCT moveto rotate show grestore } BD
/SRX  { gsave FCT moveto rotate xshow grestore } BD
/SBCR{ gsave FCT moveto rotate SW -2 div 0 rmoveto show grestore } BD
/SBRR{ gsave FCT moveto rotate SW neg 0 rmoveto show grestore } BD
/SCLR{ gsave FCT moveto rotate 0 SH -2 div rmoveto show grestore} BD
/SCCR{ gsave FCT moveto rotate SW -2 div SH -2 div rmoveto show grestore} BD
/SCRR{ gsave FCT moveto rotate SW neg SH -2 div rmoveto show grestore} BD
/STLR{ gsave FCT moveto rotate 0 SH neg rmoveto show grestore } BD
/STCR{ gsave FCT moveto rotate SW -2 div SH neg rmoveto show grestore } BD
/STRR{ gsave FCT moveto rotate SW neg SH neg rmoveto show grestore } BD
/P  { newpath 0.0 360.0 arc closepath fill } BD
/LS { newpath moveto } BD
/L  { lineto } BD
/LE { lineto stroke } BD
/T  { newpath moveto lineto lineto closepath fill } BD
/STshfill {
      /b1 exch def /g1 exch def /r1 exch def /y1 exch def /x1 exch def
      /b2 exch def /g2 exch def /r2 exch def /y2 exch def /x2 exch def
      /b3 exch def /g3 exch def /r3 exch def /y3 exch def /x3 exch def
      gsave << /ShadingType 4 /ColorSpace [/DeviceRGB]
      /DataSource [ 0 x1 y1 r1 g1 b1 0 x2 y2 r2 g2 b2 0 x3 y3 r3 g3 b3 ] >>
      shfill grestore } BD
/Tm { 3 -1 roll 8 -1 roll 13 -1 roll add add 3 div
      3 -1 roll 7 -1 roll 11 -1 roll add add 3 div
      3 -1 roll 6 -1 roll 9 -1 roll add add 3 div C T } BD
/STsplit {
      4 index 15 index add 0.5 mul
      4 index 15 index add 0.5 mul
      4 index 15 index add 0.5 mul
      4 index 15 index add 0.5 mul
      4 index 15 index add 0.5 mul
      5 copy 5 copy 25 15 roll
      9 index 30 index add 0.5 mul
      9 index 30 index add 0.5 mul
      9 index 30 index add 0.5 mul
      9 index 30 index add 0.5 mul
      9 index 30 index add 0.5 mul
      5 copy 5 copy 35 5 roll 25 5 roll 15 5 roll
      4 index 10 index add 0.5 mul
      4 index 10 index add 0.5 mul
      4 index 10 index add 0.5 mul
      4 index 10 index add 0.5 mul
      4 index 10 index add 0.5 mul
      5 copy 5 copy 40 5 roll 25 5 roll 15 5 roll 25 5 roll
      STnoshfill STnoshfill STnoshfill STnoshfill } BD
/STnoshfill {
      2 index 8 index sub abs rThreshold gt
      { STsplit }
      { 1 index 7 index sub abs gThreshold gt
        { STsplit }
        { dup 6 index sub abs bThreshold gt
          { STsplit }
          { 2 index 13 index sub abs rThreshold gt
            { STsplit }
            { 1 index 12 index sub abs gThreshold gt
              { STsplit }
              { dup 11 index sub abs bThreshold gt
                { STsplit }
                { 7 index 13 index sub abs rThreshold gt
                  { STsplit }
                  { 6 index 12 index sub abs gThreshold gt
                    { STsplit }
                    { 5 index 11 index sub abs bThreshold gt
                      { STsplit }
                      { Tm }
                      ifelse }
                    ifelse }
                  ifelse }
                ifelse }
              ifelse }
            ifelse }
          ifelse }
        ifelse }
      ifelse } BD
tryPS3shading
{ /shfill where
  { /ST { STshfill } BD }
  { /ST { STnoshfill } BD }
  ifelse }
{ /ST { STnoshfill } BD }
ifelse
end
%%EndProlog
%%BeginSetup
/DeviceRGB setcolorspace
gl2psdict begin
%%EndSetup
%%Page: 1 1
%%BeginPageSetup
%%EndPageSetup
mark
gsave
1.0 1.0 scale
1 1 1 C
newpath 0 0 moveto 576 0 lineto 576 432 lineto 0 432 lineto
closepath fill
gsave
1.0 1.0 scale
1 1 1 C
newpath 0 0 moveto 576 0 lineto 576 432 lineto 0 432 lineto
closepath fill
newpath 0 0 moveto 576 0 lineto 576 432 lineto 0 432 lineto
closepath clip
1 1 1 C
74.88 386.841 187.093 312.427 74.88 312.427 T
74.88 386.841 187.093 386.841 187.093 312.427 T
0.5 W
0.15 0.15 0.15 C
98.5037 312.427 LS
98.5037 313.556 LE
98.5037 386.841 LS
98.5037 385.712 LE
128.033 312.427 LS
128.033 313.556 LE
128.033 386.841 LS
128.033 385.712 LE
157.563 312.427 LS
157.563 313.556 LE
157.563 386.841 LS
157.563 385.712 LE
187.093 312.427 LS
187.093 313.556 LE
187.093 386.841 LS
187.093 385.712 LE
gsave
0.14902 0.14902 0.14902 C
(5) [10] 0 95.5037 296.886 10 /Helvetica SRX
grestore

gsave
0.14902 0.14902 0.14902 C
(10) [6 10] 0 122.033 296.886 10 /Helvetica SRX
grestore

gsave
0.14902 0.14902 0.14902 C
(15) [6 10] 0 151.563 296.886 10 /Helvetica SRX
grestore

gsave
0.14902 0.14902 0.14902 C
(20) [6 10] 0 181.093 296.886 10 /Helvetica SRX
grestore

74.88 315.775 LS
76.0043 315.775 LE
187.093 315.775 LS
185.968 315.775 LE
74.88 328.225 LS
76.0043 328.225 LE
187.093 328.225 LS
185.968 328.225 LE
74.88 340.675 LS
76.0043 340.675 LE
187.093 340.675 LS
185.968 340.675 LE
74.88 353.125 LS
76.0043 353.125 LE
187.093 353.125 LS
185.968 353.125 LE
74.88 365.575 LS
76.0043 365.575 LE
187.093 365.575 LS
185.968 365.575 LE
74.88 378.025 LS
76.0043 378.025 LE
187.093 378.025 LS
185.968 378.025 LE
gsave
0.14902 0.14902 0.14902 C
(0) [10] 0 63.8705 311.775 10 /Helvetica SRX
grestore

gsave
0.14902 0.14902 0.14902 C
(0.002) [6 3 6 6 10] 0 42.8705 324.225 10 /Helvetica SRX
grestore

gsave
0.14902 0.14902 0.14902 C
(0.004) [6 3 6 6 10] 0 42.8705 336.675 10 /Helvetica SRX
grestore

gsave
0.14902 0.14902 0.14902 C
(0.006) [6 3 6 6 10] 0 42.8705 349.125 10 /Helvetica SRX
grestore

gsave
0.14902 0.14902 0.14902 C
(0.008) [6 3 6 6 10] 0 42.8705 361.575 10 /Helvetica SRX
grestore

gsave
0.14902 0.14902 0.14902 C
(0.01) [6 3 6 10] 0 48.8705 374.025 10 /Helvetica SRX
grestore

2 LC
[16 0] 0 setdash
74.88 312.427 LS
187.093 312.427 LE
74.88 386.841 LS
187.093 386.841 LE
74.88 312.427 LS
74.88 386.841 LE
187.093 312.427 LS
187.093 386.841 LE
gsave
0 0 0 C
(Y_T_hat) [7 6 7 6 7 6 10] 0 109.486 398.841 11 /Helvetica-Bold SRX
grestore

0.9 0.9 0.9 C
74.88 312.427 74.88 315.562 80.7859 312.427 T
80.7859 317.748 80.7859 312.427 74.88 315.562 T
86.6918 312.427 80.7859 312.427 80.7859 317.748 T
86.6918 323.521 86.6918 312.427 80.7859 317.748 T
92.5978 312.427 86.6918 312.427 86.6918 323.521 T
92.5978 338.578 92.5978 312.427 86.6918 323.521 T
98.5037 312.427 92.5978 312.427 92.5978 338.578 T
98.5037 385.196 98.5037 312.427 92.5978 338.578 T
104.41 312.427 98.5037 312.427 98.5037 385.196 T
104.41 386.841 104.41 312.427 98.5037 385.196 T
110.316 312.427 104.41 312.427 104.41 386.841 T
110.316 382.593 110.316 312.427 104.41 386.841 T
116.221 312.427 110.316 312.427 110.316 382.593 T
116.221 376.242 116.221 312.427 110.316 382.593 T
122.127 312.427 116.221 312.427 116.221 376.242 T
122.127 370.93 122.127 312.427 116.221 376.242 T
128.033 312.427 122.127 312.427 122.127 370.93 T
128.033 366.904 128.033 312.427 122.127 370.93 T
133.939 312.427 128.033 312.427 128.033 366.904 T
133.939 363.776 133.939 312.427 128.033 366.904 T
139.845 312.427 133.939 312.427 133.939 363.776 T
139.845 358.489 139.845 312.427 133.939 363.776 T
145.751 312.427 139.845 312.427 139.845 358.489 T
145.751 355.285 145.751 312.427 139.845 358.489 T
151.657 312.427 145.751 312.427 145.751 355.285 T
151.657 352.49 151.657 312.427 145.751 355.285 T
157.563 312.427 151.657 312.427 151.657 352.49 T
157.563 349.856 157.563 312.427 151.657 352.49 T
163.469 312.427 157.563 312.427 157.563 349.856 T
163.469 347.734 163.469 312.427 157.563 349.856 T
169.375 312.427 163.469 312.427 163.469 347.734 T
169.375 346.579 169.375 312.427 163.469 347.734 T
175.281 312.427 169.375 312.427 169.375 346.579 T
175.281 344.758 175.281 312.427 169.375 346.579 T
181.187 312.427 175.281 312.427 175.281 344.758 T
181.187 343.379 181.187 312.427 175.281 344.758 T
187.093 312.427 181.187 312.427 181.187 343.379 T
187.093 341.759 187.093 312.427 181.187 343.379 T
0 LC
[] 0 setdash
0 0 0 C
187.093 341.759 LS
181.187 343.379 L
175.281 344.758 L
169.375 346.579 L
163.469 347.734 L
157.563 349.856 L
151.657 352.49 L
145.751 355.285 L
139.845 358.489 L
133.939 363.776 L
128.033 366.904 L
122.127 370.93 L
116.221 376.242 L
110.316 382.593 L
104.41 386.841 L
98.5037 385.196 L
92.5978 338.578 L
86.6918 323.521 L
80.7859 317.748 L
74.88 315.562 L
74.88 312.427 L
80.7859 312.427 L
86.6918 312.427 L
92.5978 312.427 L
98.5037 312.427 L
104.41 312.427 L
110.316 312.427 L
116.221 312.427 L
122.127 312.427 L
128.033 312.427 L
133.939 312.427 L
139.845 312.427 L
145.751 312.427 L
151.657 312.427 L
157.563 312.427 L
163.469 312.427 L
169.375 312.427 L
175.281 312.427 L
181.187 312.427 L
187.093 312.427 L
187.093 341.759 LE
1 1 1 C
74.88 312.427 80.7859 313.202 80.7859 312.427 T
86.6918 312.427 80.7859 312.427 80.7859 313.202 T
86.6918 315.489 86.6918 312.427 80.7859 313.202 T
92.5978 312.427 86.6918 312.427 86.6918 315.489 T
92.5978 323.442 92.5978 312.427 86.6918 315.489 T
98.5037 312.427 92.5978 312.427 92.5978 323.442 T
98.5037 348.739 98.5037 312.427 92.5978 323.442 T
104.41 312.427 98.5037 312.427 98.5037 348.739 T
104.41 352.051 104.41 312.427 98.5037 348.739 T
110.316 312.427 104.41 312.427 104.41 352.051 T
110.316 350.137 110.316 312.427 104.41 352.051 T
116.221 312.427 110.316 312.427 110.316 350.137 T
116.221 346.124 116.221 312.427 110.316 350.137 T
122.127 312.427 116.221 312.427 116.221 346.124 T
122.127 342.148 122.127 312.427 116.221 346.124 T
128.033 312.427 122.127 312.427 122.127 342.148 T
128.033 339.641 128.033 312.427 122.127 342.148 T
133.939 312.427 128.033 312.427 128.033 339.641 T
133.939 337.711 133.939 312.427 128.033 339.641 T
139.845 312.427 133.939 312.427 133.939 337.711 T
139.845 333.66 139.845 312.427 133.939 337.711 T
145.751 312.427 139.845 312.427 139.845 333.66 T
145.751 331.82 145.751 312.427 139.845 333.66 T
151.657 312.427 145.751 312.427 145.751 331.82 T
151.657 330.262 151.657 312.427 145.751 331.82 T
157.563 312.427 151.657 312.427 151.657 330.262 T
157.563 328.649 157.563 312.427 151.657 330.262 T
163.469 312.427 157.563 312.427 157.563 328.649 T
163.469 327.662 163.469 312.427 157.563 328.649 T
169.375 312.427 163.469 312.427 163.469 327.662 T
169.375 327.549 169.375 312.427 163.469 327.662 T
175.281 312.427 169.375 312.427 169.375 327.549 T
175.281 326.69 175.281 312.427 169.375 327.549 T
181.187 312.427 175.281 312.427 175.281 326.69 T
181.187 326.174 181.187 312.427 175.281 326.69 T
187.093 312.427 181.187 312.427 181.187 326.174 T
187.093 325.422 187.093 312.427 181.187 326.174 T
0 0 0 C
187.093 325.422 LS
181.187 326.174 L
175.281 326.69 L
169.375 327.549 L
163.469 327.662 L
157.563 328.649 L
151.657 330.262 L
145.751 331.82 L
139.845 333.66 L
133.939 337.711 L
128.033 339.641 L
122.127 342.148 L
116.221 346.124 L
110.316 350.137 L
104.41 352.051 L
98.5037 348.739 L
92.5978 323.442 L
86.6918 315.489 L
80.7859 313.202 L
74.88 312.427 L
80.7859 312.427 L
86.6918 312.427 L
92.5978 312.427 L
98.5037 312.427 L
104.41 312.427 L
110.316 312.427 L
116.221 312.427 L
122.127 312.427 L
128.033 312.427 L
133.939 312.427 L
139.845 312.427 L
145.751 312.427 L
151.657 312.427 L
157.563 312.427 L
163.469 312.427 L
169.375 312.427 L
175.281 312.427 L
181.187 312.427 L
187.093 312.427 L
187.093 325.422 LE
3 W
1 LJ
74.88 314.034 LS
80.7859 315.505 L
86.6918 319.673 L
92.5978 331.548 L
98.5037 367.252 L
104.41 369.819 L
110.316 366.384 L
116.221 361.889 L
122.127 357.518 L
128.033 353.573 L
133.939 350.101 L
139.845 347.074 L
145.751 344.442 L
151.657 342.154 L
157.563 340.162 L
163.469 338.425 L
169.375 336.906 L
175.281 335.574 L
181.187 334.402 L
187.093 333.37 LE
grestore
gsave
1.0 1.0 scale
newpath 0 0 moveto 576 0 lineto 576 432 lineto 0 432 lineto
closepath clip
1 1 1 C
241.974 386.841 354.186 312.427 241.974 312.427 T
241.974 386.841 354.186 386.841 354.186 312.427 T
0.5 W
0.15 0.15 0.15 C
265.597 312.427 LS
265.597 313.556 LE
265.597 386.841 LS
265.597 385.712 LE
295.127 312.427 LS
295.127 313.556 LE
295.127 386.841 LS
295.127 385.712 LE
324.657 312.427 LS
324.657 313.556 LE
324.657 386.841 LS
324.657 385.712 LE
354.186 312.427 LS
354.186 313.556 LE
354.186 386.841 LS
354.186 385.712 LE
gsave
0.14902 0.14902 0.14902 C
(5) [10] 0 262.597 296.886 10 /Helvetica SRX
grestore

gsave
0.14902 0.14902 0.14902 C
(10) [6 10] 0 289.127 296.886 10 /Helvetica SRX
grestore

gsave
0.14902 0.14902 0.14902 C
(15) [6 10] 0 318.657 296.886 10 /Helvetica SRX
grestore

gsave
0.14902 0.14902 0.14902 C
(20) [6 10] 0 348.186 296.886 10 /Helvetica SRX
grestore

241.974 331.413 LS
243.098 331.413 LE
354.186 331.413 LS
353.062 331.413 LE
241.974 351.482 LS
243.098 351.482 LE
354.186 351.482 LS
353.062 351.482 LE
241.974 371.551 LS
243.098 371.551 LE
354.186 371.551 LS
353.062 371.551 LE
gsave
0.14902 0.14902 0.14902 C
(0.005) [6 3 6 6 10] 0 209.964 327.413 10 /Helvetica SRX
grestore

gsave
0.14902 0.14902 0.14902 C
(0.01) [6 3 6 10] 0 215.964 347.482 10 /Helvetica SRX
grestore

gsave
0.14902 0.14902 0.14902 C
(0.015) [6 3 6 6 10] 0 209.964 367.551 10 /Helvetica SRX
grestore

2 LC
[16 0] 0 setdash
241.974 312.427 LS
354.186 312.427 LE
241.974 386.841 LS
354.186 386.841 LE
241.974 312.427 LS
241.974 386.841 LE
354.186 312.427 LS
354.186 386.841 LE
gsave
0 0 0 C
(Y_N_hat) [7 6 8 6 7 6 10] 0 276.08 398.841 11 /Helvetica-Bold SRX
grestore

0.9 0.9 0.9 C
241.974 312.427 241.974 313.773 247.88 312.427 T
247.88 315.899 247.88 312.427 241.974 313.773 T
253.786 312.427 247.88 312.427 247.88 315.899 T
253.786 318.575 253.786 312.427 247.88 315.899 T
259.691 312.427 253.786 312.427 253.786 318.575 T
259.691 322.662 259.691 312.427 253.786 318.575 T
265.597 312.427 259.691 312.427 259.691 322.662 T
265.597 386.841 265.597 312.427 259.691 322.662 T
271.503 312.427 265.597 312.427 265.597 386.841 T
271.503 381.202 271.503 312.427 265.597 386.841 T
277.409 312.427 271.503 312.427 271.503 381.202 T
277.409 374.557 277.409 312.427 271.503 381.202 T
283.315 312.427 277.409 312.427 277.409 374.557 T
283.315 368.27 283.315 312.427 277.409 374.557 T
289.221 312.427 283.315 312.427 283.315 368.27 T
289.221 364.155 289.221 312.427 283.315 368.27 T
295.127 312.427 289.221 312.427 289.221 364.155 T
295.127 359.631 295.127 312.427 289.221 364.155 T
301.033 312.427 295.127 312.427 295.127 359.631 T
301.033 353.249 301.033 312.427 295.127 359.631 T
306.939 312.427 301.033 312.427 301.033 353.249 T
306.939 349.621 306.939 312.427 301.033 353.249 T
312.845 312.427 306.939 312.427 306.939 349.621 T
312.845 346.359 312.845 312.427 306.939 349.621 T
318.751 312.427 312.845 312.427 312.845 346.359 T
318.751 343.444 318.751 312.427 312.845 346.359 T
324.657 312.427 318.751 312.427 318.751 343.444 T
324.657 340.82 324.657 312.427 318.751 343.444 T
330.563 312.427 324.657 312.427 324.657 340.82 T
330.563 338.346 330.563 312.427 324.657 340.82 T
336.469 312.427 330.563 312.427 330.563 338.346 T
336.469 336.36 336.469 312.427 330.563 338.346 T
342.374 312.427 336.469 312.427 336.469 336.36 T
342.374 334.314 342.374 312.427 336.469 336.36 T
348.28 312.427 342.374 312.427 342.374 334.314 T
348.28 332.592 348.28 312.427 342.374 334.314 T
354.186 312.427 348.28 312.427 348.28 332.592 T
354.186 331.603 354.186 312.427 348.28 332.592 T
0 LC
[] 0 setdash
0 0 0 C
354.186 331.603 LS
348.28 332.592 L
342.374 334.314 L
336.469 336.36 L
330.563 338.346 L
324.657 340.82 L
318.751 343.444 L
312.845 346.359 L
306.939 349.621 L
301.033 353.249 L
295.127 359.631 L
289.221 364.155 L
283.315 368.27 L
277.409 374.557 L
271.503 381.202 L
265.597 386.841 L
259.691 322.662 L
253.786 318.575 L
247.88 315.899 L
241.974 313.773 L
241.974 312.427 L
247.88 312.427 L
253.786 312.427 L
259.691 312.427 L
265.597 312.427 L
271.503 312.427 L
277.409 312.427 L
283.315 312.427 L
289.221 312.427 L
295.127 312.427 L
301.033 312.427 L
306.939 312.427 L
312.845 312.427 L
318.751 312.427 L
324.657 312.427 L
330.563 312.427 L
336.469 312.427 L
342.374 312.427 L
348.28 312.427 L
354.186 312.427 L
354.186 331.603 LE
1 1 1 C
241.974 312.427 247.88 313.429 247.88 312.427 T
253.786 312.427 247.88 312.427 247.88 313.429 T
253.786 314.618 253.786 312.427 247.88 313.429 T
259.691 312.427 253.786 312.427 253.786 314.618 T
259.691 316.409 259.691 312.427 253.786 314.618 T
265.597 312.427 259.691 312.427 259.691 316.409 T
265.597 349.341 265.597 312.427 259.691 316.409 T
271.503 312.427 265.597 312.427 265.597 349.341 T
271.503 347.021 271.503 312.427 265.597 349.341 T
277.409 312.427 271.503 312.427 271.503 347.021 T
277.409 343.182 277.409 312.427 271.503 347.021 T
283.315 312.427 277.409 312.427 277.409 343.182 T
283.315 339.103 283.315 312.427 277.409 343.182 T
289.221 312.427 283.315 312.427 283.315 339.103 T
289.221 336.881 289.221 312.427 283.315 339.103 T
295.127 312.427 289.221 312.427 289.221 336.881 T
295.127 334.014 295.127 312.427 289.221 336.881 T
301.033 312.427 295.127 312.427 295.127 334.014 T
301.033 329.215 301.033 312.427 295.127 334.014 T
306.939 312.427 301.033 312.427 301.033 329.215 T
306.939 327.046 306.939 312.427 301.033 329.215 T
312.845 312.427 306.939 312.427 306.939 327.046 T
312.845 325.237 312.845 312.427 306.939 327.046 T
318.751 312.427 312.845 312.427 312.845 325.237 T
318.751 323.608 318.751 312.427 312.845 325.237 T
324.657 312.427 318.751 312.427 318.751 323.608 T
324.657 322.232 324.657 312.427 318.751 323.608 T
330.563 312.427 324.657 312.427 324.657 322.232 T
330.563 320.891 330.563 312.427 324.657 322.232 T
336.469 312.427 330.563 312.427 330.563 320.891 T
336.469 320.026 336.469 312.427 330.563 320.891 T
342.374 312.427 336.469 312.427 336.469 320.026 T
342.374 319.107 342.374 312.427 336.469 320.026 T
348.28 312.427 342.374 312.427 342.374 319.107 T
348.28 318.367 348.28 312.427 342.374 319.107 T
354.186 312.427 348.28 312.427 348.28 318.367 T
354.186 318.272 354.186 312.427 348.28 318.367 T
0 0 0 C
354.186 318.272 LS
348.28 318.367 L
342.374 319.107 L
336.469 320.026 L
330.563 320.891 L
324.657 322.232 L
318.751 323.608 L
312.845 325.237 L
306.939 327.046 L
301.033 329.215 L
295.127 334.014 L
289.221 336.881 L
283.315 339.103 L
277.409 343.182 L
271.503 347.021 L
265.597 349.341 L
259.691 316.409 L
253.786 314.618 L
247.88 313.429 L
241.974 312.427 L
247.88 312.427 L
253.786 312.427 L
259.691 312.427 L
265.597 312.427 L
271.503 312.427 L
277.409 312.427 L
283.315 312.427 L
289.221 312.427 L
295.127 312.427 L
301.033 312.427 L
306.939 312.427 L
312.845 312.427 L
318.751 312.427 L
324.657 312.427 L
330.563 312.427 L
336.469 312.427 L
342.374 312.427 L
348.28 312.427 L
354.186 312.427 L
354.186 318.272 LE
3 W
1 LJ
241.974 313.134 LS
247.88 314.667 L
253.786 316.686 L
259.691 319.791 L
265.597 368.967 L
271.503 364.032 L
277.409 359.204 L
283.315 354.504 L
289.221 350.101 L
295.127 346.088 L
301.033 342.493 L
306.939 339.306 L
312.845 336.498 L
318.751 334.034 L
324.657 331.876 L
330.563 329.989 L
336.469 328.34 L
342.374 326.9 L
348.28 325.641 L
354.186 324.541 LE
grestore
gsave
1.0 1.0 scale
newpath 0 0 moveto 576 0 lineto 576 432 lineto 0 432 lineto
closepath clip
1 1 1 C
409.067 386.841 521.28 312.427 409.067 312.427 T
409.067 386.841 521.28 386.841 521.28 312.427 T
0.5 W
0.15 0.15 0.15 C
432.691 312.427 LS
432.691 313.556 LE
432.691 386.841 LS
432.691 385.712 LE
462.221 312.427 LS
462.221 313.556 LE
462.221 386.841 LS
462.221 385.712 LE
491.75 312.427 LS
491.75 313.556 LE
491.75 386.841 LS
491.75 385.712 LE
521.28 312.427 LS
521.28 313.556 LE
521.28 386.841 LS
521.28 385.712 LE
gsave
0.14902 0.14902 0.14902 C
(5) [10] 0 429.691 296.886 10 /Helvetica SRX
grestore

gsave
0.14902 0.14902 0.14902 C
(10) [6 10] 0 456.221 296.886 10 /Helvetica SRX
grestore

gsave
0.14902 0.14902 0.14902 C
(15) [6 10] 0 485.75 296.886 10 /Helvetica SRX
grestore

gsave
0.14902 0.14902 0.14902 C
(20) [6 10] 0 515.28 296.886 10 /Helvetica SRX
grestore

409.067 330.223 LS
410.192 330.223 LE
521.28 330.223 LS
520.156 330.223 LE
409.067 350.254 LS
410.192 350.254 LE
521.28 350.254 LS
520.156 350.254 LE
409.067 370.284 LS
410.192 370.284 LE
521.28 370.284 LS
520.156 370.284 LE
gsave
0.14902 0.14902 0.14902 C
(0.002) [6 3 6 6 10] 0 377.058 326.223 10 /Helvetica SRX
grestore

gsave
0.14902 0.14902 0.14902 C
(0.004) [6 3 6 6 10] 0 377.058 346.254 10 /Helvetica SRX
grestore

gsave
0.14902 0.14902 0.14902 C
(0.006) [6 3 6 6 10] 0 377.058 366.284 10 /Helvetica SRX
grestore

2 LC
[16 0] 0 setdash
409.067 312.427 LS
521.28 312.427 LE
409.067 386.841 LS
521.28 386.841 LE
409.067 312.427 LS
409.067 386.841 LE
521.28 312.427 LS
521.28 386.841 LE
gsave
0 0 0 C
(Y_C_hat) [7 6 8 6 7 6 10] 0 443.174 398.841 11 /Helvetica-Bold SRX
grestore

0.9 0.9 0.9 C
409.067 312.427 409.067 316.263 414.973 312.427 T
414.973 324.15 414.973 312.427 409.067 316.263 T
420.879 312.427 414.973 312.427 414.973 324.15 T
420.879 334.869 420.879 312.427 414.973 324.15 T
426.785 312.427 420.879 312.427 420.879 334.869 T
426.785 351.19 426.785 312.427 420.879 334.869 T
432.691 312.427 426.785 312.427 426.785 351.19 T
432.691 375.137 432.691 312.427 426.785 351.19 T
438.597 312.427 432.691 312.427 432.691 375.137 T
438.597 383.703 438.597 312.427 432.691 375.137 T
444.503 312.427 438.597 312.427 438.597 383.703 T
444.503 386.841 444.503 312.427 438.597 383.703 T
450.409 312.427 444.503 312.427 444.503 386.841 T
450.409 385.287 450.409 312.427 444.503 386.841 T
456.315 312.427 450.409 312.427 450.409 385.287 T
456.315 383.741 456.315 312.427 450.409 385.287 T
462.221 312.427 456.315 312.427 456.315 383.741 T
462.221 380.602 462.221 312.427 456.315 383.741 T
468.127 312.427 462.221 312.427 462.221 380.602 T
468.127 375.958 468.127 312.427 462.221 380.602 T
474.033 312.427 468.127 312.427 468.127 375.958 T
474.033 371.939 474.033 312.427 468.127 375.958 T
479.939 312.427 474.033 312.427 474.033 371.939 T
479.939 365.776 479.939 312.427 474.033 371.939 T
485.844 312.427 479.939 312.427 479.939 365.776 T
485.844 361.647 485.844 312.427 479.939 365.776 T
491.75 312.427 485.844 312.427 485.844 361.647 T
491.75 357.814 491.75 312.427 485.844 361.647 T
497.656 312.427 491.75 312.427 491.75 357.814 T
497.656 355.022 497.656 312.427 491.75 357.814 T
503.562 312.427 497.656 312.427 497.656 355.022 T
503.562 352.712 503.562 312.427 497.656 355.022 T
509.468 312.427 503.562 312.427 503.562 352.712 T
509.468 349.679 509.468 312.427 503.562 352.712 T
515.374 312.427 509.468 312.427 509.468 349.679 T
515.374 347.598 515.374 312.427 509.468 349.679 T
521.28 312.427 515.374 312.427 515.374 347.598 T
521.28 344.951 521.28 312.427 515.374 347.598 T
0 LC
[] 0 setdash
0 0 0 C
521.28 344.951 LS
515.374 347.598 L
509.468 349.679 L
503.562 352.712 L
497.656 355.022 L
491.75 357.814 L
485.844 361.647 L
479.939 365.776 L
474.033 371.939 L
468.127 375.958 L
462.221 380.602 L
456.315 383.741 L
450.409 385.287 L
444.503 386.841 L
438.597 383.703 L
432.691 375.137 L
426.785 351.19 L
420.879 334.869 L
414.973 324.15 L
409.067 316.263 L
409.067 312.427 L
414.973 312.427 L
420.879 312.427 L
426.785 312.427 L
432.691 312.427 L
438.597 312.427 L
444.503 312.427 L
450.409 312.427 L
456.315 312.427 L
462.221 312.427 L
468.127 312.427 L
474.033 312.427 L
479.939 312.427 L
485.844 312.427 L
491.75 312.427 L
497.656 312.427 L
503.562 312.427 L
509.468 312.427 L
515.374 312.427 L
521.28 312.427 L
521.28 344.951 LE
1 1 1 C
409.067 312.427 414.973 316.607 414.973 312.427 T
420.879 312.427 414.973 312.427 414.973 316.607 T
420.879 322.187 420.879 312.427 414.973 316.607 T
426.785 312.427 420.879 312.427 420.879 322.187 T
426.785 329.292 426.785 312.427 420.879 322.187 T
432.691 312.427 426.785 312.427 426.785 329.292 T
432.691 335.303 432.691 312.427 426.785 329.292 T
438.597 312.427 432.691 312.427 432.691 335.303 T
438.597 338.789 438.597 312.427 432.691 335.303 T
444.503 312.427 438.597 312.427 438.597 338.789 T
444.503 341.293 444.503 312.427 438.597 338.789 T
450.409 312.427 444.503 312.427 444.503 341.293 T
450.409 341.479 450.409 312.427 444.503 341.293 T
456.315 312.427 450.409 312.427 450.409 341.479 T
456.315 342.42 456.315 312.427 450.409 341.479 T
462.221 312.427 456.315 312.427 456.315 342.42 T
462.221 341.568 462.221 312.427 456.315 342.42 T
468.127 312.427 462.221 312.427 462.221 341.568 T
468.127 339.855 468.127 312.427 462.221 341.568 T
474.033 312.427 468.127 312.427 468.127 339.855 T
474.033 337.442 474.033 312.427 468.127 339.855 T
479.939 312.427 474.033 312.427 474.033 337.442 T
479.939 333.317 479.939 312.427 474.033 337.442 T
485.844 312.427 479.939 312.427 479.939 333.317 T
485.844 330.661 485.844 312.427 479.939 333.317 T
491.75 312.427 485.844 312.427 485.844 330.661 T
491.75 328.516 491.75 312.427 485.844 330.661 T
497.656 312.427 491.75 312.427 491.75 328.516 T
497.656 327.023 497.656 312.427 491.75 328.516 T
503.562 312.427 497.656 312.427 497.656 327.023 T
503.562 326.439 503.562 312.427 497.656 327.023 T
509.468 312.427 503.562 312.427 503.562 326.439 T
509.468 324.867 509.468 312.427 503.562 326.439 T
515.374 312.427 509.468 312.427 509.468 324.867 T
515.374 324.179 515.374 312.427 509.468 324.867 T
521.28 312.427 515.374 312.427 515.374 324.179 T
521.28 322.789 521.28 312.427 515.374 324.179 T
0 0 0 C
521.28 322.789 LS
515.374 324.179 L
509.468 324.867 L
503.562 326.439 L
497.656 327.023 L
491.75 328.516 L
485.844 330.661 L
479.939 333.317 L
474.033 337.442 L
468.127 339.855 L
462.221 341.568 L
456.315 342.42 L
450.409 341.479 L
444.503 341.293 L
438.597 338.789 L
432.691 335.303 L
426.785 329.292 L
420.879 322.187 L
414.973 316.607 L
409.067 312.427 L
414.973 312.427 L
420.879 312.427 L
426.785 312.427 L
432.691 312.427 L
438.597 312.427 L
444.503 312.427 L
450.409 312.427 L
456.315 312.427 L
462.221 312.427 L
468.127 312.427 L
474.033 312.427 L
479.939 312.427 L
485.844 312.427 L
491.75 312.427 L
497.656 312.427 L
503.562 312.427 L
509.468 312.427 L
515.374 312.427 L
521.28 312.427 L
521.28 322.789 LE
3 W
1 LJ
409.067 314.305 LS
414.973 320.358 L
420.879 328.469 L
426.785 339.915 L
432.691 356.422 L
438.597 363.372 L
444.503 365.61 L
450.409 365.172 L
456.315 363.201 L
462.221 360.396 L
468.127 357.195 L
474.033 353.876 L
479.939 350.608 L
485.844 347.494 L
491.75 344.59 L
497.656 341.923 L
503.562 339.5 L
509.468 337.317 L
515.374 335.364 L
521.28 333.624 LE
grestore
gsave
1.0 1.0 scale
newpath 0 0 moveto 576 0 lineto 576 432 lineto 0 432 lineto
closepath clip
1 1 1 C
74.88 254.387 187.093 179.974 74.88 179.974 T
74.88 254.387 187.093 254.387 187.093 179.974 T
0.5 W
0.15 0.15 0.15 C
98.5037 179.974 LS
98.5037 181.102 LE
98.5037 254.387 LS
98.5037 253.258 LE
128.033 179.974 LS
128.033 181.102 LE
128.033 254.387 LS
128.033 253.258 LE
157.563 179.974 LS
157.563 181.102 LE
157.563 254.387 LS
157.563 253.258 LE
187.093 179.974 LS
187.093 181.102 LE
187.093 254.387 LS
187.093 253.258 LE
gsave
0.14902 0.14902 0.14902 C
(5) [10] 0 95.5037 164.432 10 /Helvetica SRX
grestore

gsave
0.14902 0.14902 0.14902 C
(10) [6 10] 0 122.033 164.432 10 /Helvetica SRX
grestore

gsave
0.14902 0.14902 0.14902 C
(15) [6 10] 0 151.563 164.432 10 /Helvetica SRX
grestore

gsave
0.14902 0.14902 0.14902 C
(20) [6 10] 0 181.093 164.432 10 /Helvetica SRX
grestore

74.88 183.684 LS
76.0043 183.684 LE
187.093 183.684 LS
185.968 183.684 LE
74.88 204.689 LS
76.0043 204.689 LE
187.093 204.689 LS
185.968 204.689 LE
74.88 225.693 LS
76.0043 225.693 LE
187.093 225.693 LS
185.968 225.693 LE
74.88 246.698 LS
76.0043 246.698 LE
187.093 246.698 LS
185.968 246.698 LE
gsave
0.14902 0.14902 0.14902 C
(0) [10] 0 63.8705 179.684 10 /Helvetica SRX
grestore

gsave
0.14902 0.14902 0.14902 C
(0.005) [6 3 6 6 10] 0 42.8705 200.689 10 /Helvetica SRX
grestore

gsave
0.14902 0.14902 0.14902 C
(0.01) [6 3 6 10] 0 48.8705 221.693 10 /Helvetica SRX
grestore

gsave
0.14902 0.14902 0.14902 C
(0.015) [6 3 6 6 10] 0 42.8705 242.698 10 /Helvetica SRX
grestore

2 LC
[16 0] 0 setdash
74.88 179.974 LS
187.093 179.974 LE
74.88 254.387 LS
187.093 254.387 LE
74.88 179.974 LS
74.88 254.387 LE
187.093 179.974 LS
187.093 254.387 LE
gsave
0 0 0 C
(L_T_hat) [7 6 7 6 7 6 10] 0 109.486 266.387 11 /Helvetica-Bold SRX
grestore

0.9 0.9 0.9 C
74.88 179.974 74.88 183.457 80.7859 179.974 T
80.7859 185.081 80.7859 179.974 74.88 183.457 T
86.6918 179.974 80.7859 179.974 80.7859 185.081 T
86.6918 190.452 86.6918 179.974 80.7859 185.081 T
92.5978 179.974 86.6918 179.974 86.6918 190.452 T
92.5978 205.431 92.5978 179.974 86.6918 190.452 T
98.5037 179.974 92.5978 179.974 92.5978 205.431 T
98.5037 253.487 98.5037 179.974 92.5978 205.431 T
104.41 179.974 98.5037 179.974 98.5037 253.487 T
104.41 254.387 104.41 179.974 98.5037 253.487 T
110.316 179.974 104.41 179.974 104.41 254.387 T
110.316 248.904 110.316 179.974 104.41 254.387 T
116.221 179.974 110.316 179.974 110.316 248.904 T
116.221 241.672 116.221 179.974 110.316 248.904 T
122.127 179.974 116.221 179.974 116.221 241.672 T
122.127 236.58 122.127 179.974 116.221 241.672 T
128.033 179.974 122.127 179.974 122.127 236.58 T
128.033 230.798 128.033 179.974 122.127 236.58 T
133.939 179.974 128.033 179.974 128.033 230.798 T
133.939 225.024 133.939 179.974 128.033 230.798 T
139.845 179.974 133.939 179.974 133.939 225.024 T
139.845 220.627 139.845 179.974 133.939 225.024 T
145.751 179.974 139.845 179.974 139.845 220.627 T
145.751 216.898 145.751 179.974 139.845 220.627 T
151.657 179.974 145.751 179.974 145.751 216.898 T
151.657 213.722 151.657 179.974 145.751 216.898 T
157.563 179.974 151.657 179.974 151.657 213.722 T
157.563 210.582 157.563 179.974 151.657 213.722 T
163.469 179.974 157.563 179.974 157.563 210.582 T
163.469 207.944 163.469 179.974 157.563 210.582 T
169.375 179.974 163.469 179.974 163.469 207.944 T
169.375 206.18 169.375 179.974 163.469 207.944 T
175.281 179.974 169.375 179.974 169.375 206.18 T
175.281 204.313 175.281 179.974 169.375 206.18 T
181.187 179.974 175.281 179.974 175.281 204.313 T
181.187 203.305 181.187 179.974 175.281 204.313 T
187.093 179.974 181.187 179.974 181.187 203.305 T
187.093 201.566 187.093 179.974 181.187 203.305 T
0 LC
[] 0 setdash
0 0 0 C
187.093 201.566 LS
181.187 203.305 L
175.281 204.313 L
169.375 206.18 L
163.469 207.944 L
157.563 210.582 L
151.657 213.722 L
145.751 216.898 L
139.845 220.627 L
133.939 225.024 L
128.033 230.798 L
122.127 236.58 L
116.221 241.672 L
110.316 248.904 L
104.41 254.387 L
98.5037 253.487 L
92.5978 205.431 L
86.6918 190.452 L
80.7859 185.081 L
74.88 183.457 L
74.88 179.974 L
80.7859 179.974 L
86.6918 179.974 L
92.5978 179.974 L
98.5037 179.974 L
104.41 179.974 L
110.316 179.974 L
116.221 179.974 L
122.127 179.974 L
128.033 179.974 L
133.939 179.974 L
139.845 179.974 L
145.751 179.974 L
151.657 179.974 L
157.563 179.974 L
163.469 179.974 L
169.375 179.974 L
175.281 179.974 L
181.187 179.974 L
187.093 179.974 L
187.093 201.566 LE
1 1 1 C
80.7859 179.974 86.6918 181.979 86.6918 179.974 T
92.5978 179.974 86.6918 179.974 86.6918 181.979 T
92.5978 190.148 92.5978 179.974 86.6918 181.979 T
98.5037 179.974 92.5978 179.974 92.5978 190.148 T
98.5037 216.29 98.5037 179.974 92.5978 190.148 T
104.41 179.974 98.5037 179.974 98.5037 216.29 T
104.41 219.858 104.41 179.974 98.5037 216.29 T
110.316 179.974 104.41 179.974 104.41 219.858 T
110.316 217.262 110.316 179.974 104.41 219.858 T
116.221 179.974 110.316 179.974 110.316 217.262 T
116.221 212.779 116.221 179.974 110.316 217.262 T
122.127 179.974 116.221 179.974 116.221 212.779 T
122.127 209.499 122.127 179.974 116.221 212.779 T
128.033 179.974 122.127 179.974 122.127 209.499 T
128.033 205.554 128.033 179.974 122.127 209.499 T
133.939 179.974 128.033 179.974 128.033 205.554 T
133.939 201.505 133.939 179.974 128.033 205.554 T
139.845 179.974 133.939 179.974 133.939 201.505 T
139.845 198.629 139.845 179.974 133.939 201.505 T
145.751 179.974 139.845 179.974 139.845 198.629 T
145.751 196.449 145.751 179.974 139.845 198.629 T
151.657 179.974 145.751 179.974 145.751 196.449 T
151.657 194.623 151.657 179.974 145.751 196.449 T
157.563 179.974 151.657 179.974 151.657 194.623 T
157.563 192.813 157.563 179.974 151.657 194.623 T
163.469 179.974 157.563 179.974 157.563 192.813 T
163.469 191.393 163.469 179.974 157.563 192.813 T
169.375 179.974 163.469 179.974 163.469 191.393 T
169.375 190.737 169.375 179.974 163.469 191.393 T
175.281 179.974 169.375 179.974 169.375 190.737 T
175.281 189.993 175.281 179.974 169.375 190.737 T
181.187 179.974 175.281 179.974 175.281 189.993 T
181.187 190.084 181.187 179.974 175.281 189.993 T
187.093 179.974 181.187 179.974 181.187 190.084 T
187.093 189.301 187.093 179.974 181.187 190.084 T
74.88 179.974 74.88 180.108 80.7859 179.974 T
0 0 0 C
80.7859 179.974 LS
74.88 180.108 L
74.88 179.974 L
80.7859 179.974 LE
187.093 189.301 LS
181.187 190.084 L
175.281 189.993 L
169.375 190.737 L
163.469 191.393 L
157.563 192.813 L
151.657 194.623 L
145.751 196.449 L
139.845 198.629 L
133.939 201.505 L
128.033 205.554 L
122.127 209.499 L
116.221 212.779 L
110.316 217.262 L
104.41 219.858 L
98.5037 216.29 L
92.5978 190.148 L
86.6918 181.979 L
80.7859 179.974 L
86.6918 179.974 L
92.5978 179.974 L
98.5037 179.974 L
104.41 179.974 L
110.316 179.974 L
116.221 179.974 L
122.127 179.974 L
128.033 179.974 L
133.939 179.974 L
139.845 179.974 L
145.751 179.974 L
151.657 179.974 L
157.563 179.974 L
163.469 179.974 L
169.375 179.974 L
175.281 179.974 L
181.187 179.974 L
187.093 179.974 L
187.093 189.301 LE
3 W
1 LJ
74.88 181.824 LS
80.7859 182.635 L
86.6918 186.31 L
92.5978 198.195 L
98.5037 235.536 L
104.41 237.545 L
110.316 233.232 L
116.221 227.872 L
122.127 222.728 L
128.033 218.112 L
133.939 214.067 L
139.845 210.555 L
145.751 207.517 L
151.657 204.891 L
157.563 202.621 L
163.469 200.657 L
169.375 198.956 L
175.281 197.482 L
181.187 196.202 L
187.093 195.089 LE
grestore
gsave
1.0 1.0 scale
newpath 0 0 moveto 576 0 lineto 576 432 lineto 0 432 lineto
closepath clip
1 1 1 C
241.974 254.387 354.186 179.974 241.974 179.974 T
241.974 254.387 354.186 254.387 354.186 179.974 T
0.5 W
0.15 0.15 0.15 C
265.597 179.974 LS
265.597 181.102 LE
265.597 254.387 LS
265.597 253.258 LE
295.127 179.974 LS
295.127 181.102 LE
295.127 254.387 LS
295.127 253.258 LE
324.657 179.974 LS
324.657 181.102 LE
324.657 254.387 LS
324.657 253.258 LE
354.186 179.974 LS
354.186 181.102 LE
354.186 254.387 LS
354.186 253.258 LE
gsave
0.14902 0.14902 0.14902 C
(5) [10] 0 262.597 164.432 10 /Helvetica SRX
grestore

gsave
0.14902 0.14902 0.14902 C
(10) [6 10] 0 289.127 164.432 10 /Helvetica SRX
grestore

gsave
0.14902 0.14902 0.14902 C
(15) [6 10] 0 318.657 164.432 10 /Helvetica SRX
grestore

gsave
0.14902 0.14902 0.14902 C
(20) [6 10] 0 348.186 164.432 10 /Helvetica SRX
grestore

241.974 190.753 LS
243.098 190.753 LE
354.186 190.753 LS
353.062 190.753 LE
241.974 207.597 LS
243.098 207.597 LE
354.186 207.597 LS
353.062 207.597 LE
241.974 224.442 LS
243.098 224.442 LE
354.186 224.442 LS
353.062 224.442 LE
241.974 241.286 LS
243.098 241.286 LE
354.186 241.286 LS
353.062 241.286 LE
gsave
0.14902 0.14902 0.14902 C
(0.001) [6 3 6 6 10] 0 209.964 186.753 10 /Helvetica SRX
grestore

gsave
0.14902 0.14902 0.14902 C
(0.002) [6 3 6 6 10] 0 209.964 203.597 10 /Helvetica SRX
grestore

gsave
0.14902 0.14902 0.14902 C
(0.003) [6 3 6 6 10] 0 209.964 220.442 10 /Helvetica SRX
grestore

gsave
0.14902 0.14902 0.14902 C
(0.004) [6 3 6 6 10] 0 209.964 237.286 10 /Helvetica SRX
grestore

2 LC
[16 0] 0 setdash
241.974 179.974 LS
354.186 179.974 LE
241.974 254.387 LS
354.186 254.387 LE
241.974 179.974 LS
241.974 254.387 LE
354.186 179.974 LS
354.186 254.387 LE
gsave
0 0 0 C
(L_N_hat) [7 6 8 6 7 6 10] 0 276.08 266.387 11 /Helvetica-Bold SRX
grestore

0.9 0.9 0.9 C
241.974 179.974 241.974 187.505 247.88 179.974 T
247.88 199.426 247.88 179.974 241.974 187.505 T
253.786 179.974 247.88 179.974 247.88 199.426 T
253.786 214.59 253.786 179.974 247.88 199.426 T
259.691 179.974 253.786 179.974 253.786 214.59 T
259.691 237.651 259.691 179.974 253.786 214.59 T
265.597 179.974 259.691 179.974 259.691 237.651 T
265.597 237.289 265.597 179.974 259.691 237.651 T
271.503 179.974 265.597 179.974 265.597 237.289 T
271.503 248.691 271.503 179.974 265.597 237.289 T
277.409 179.974 271.503 179.974 271.503 248.691 T
277.409 253.887 277.409 179.974 271.503 248.691 T
283.315 179.974 277.409 179.974 277.409 253.887 T
283.315 254.387 283.315 179.974 277.409 253.887 T
289.221 179.974 283.315 179.974 283.315 254.387 T
289.221 252.55 289.221 179.974 283.315 254.387 T
295.127 179.974 289.221 179.974 289.221 252.55 T
295.127 248.194 295.127 179.974 289.221 252.55 T
301.033 179.974 295.127 179.974 295.127 248.194 T
301.033 244.64 301.033 179.974 295.127 248.194 T
306.939 179.974 301.033 179.974 301.033 244.64 T
306.939 240.479 306.939 179.974 301.033 244.64 T
312.845 179.974 306.939 179.974 306.939 240.479 T
312.845 235.163 312.845 179.974 306.939 240.479 T
318.751 179.974 312.845 179.974 312.845 235.163 T
318.751 231.696 318.751 179.974 312.845 235.163 T
324.657 179.974 318.751 179.974 318.751 231.696 T
324.657 229.24 324.657 179.974 318.751 231.696 T
330.563 179.974 324.657 179.974 324.657 229.24 T
330.563 226.082 330.563 179.974 324.657 229.24 T
336.469 179.974 330.563 179.974 330.563 226.082 T
336.469 224.03 336.469 179.974 330.563 226.082 T
342.374 179.974 336.469 179.974 336.469 224.03 T
342.374 221.564 342.374 179.974 336.469 224.03 T
348.28 179.974 342.374 179.974 342.374 221.564 T
348.28 219.347 348.28 179.974 342.374 221.564 T
354.186 179.974 348.28 179.974 348.28 219.347 T
354.186 216.906 354.186 179.974 348.28 219.347 T
0 LC
[] 0 setdash
0 0 0 C
354.186 216.906 LS
348.28 219.347 L
342.374 221.564 L
336.469 224.03 L
330.563 226.082 L
324.657 229.24 L
318.751 231.696 L
312.845 235.163 L
306.939 240.479 L
301.033 244.64 L
295.127 248.194 L
289.221 252.55 L
283.315 254.387 L
277.409 253.887 L
271.503 248.691 L
265.597 237.289 L
259.691 237.651 L
253.786 214.59 L
247.88 199.426 L
241.974 187.505 L
241.974 179.974 L
247.88 179.974 L
253.786 179.974 L
259.691 179.974 L
265.597 179.974 L
271.503 179.974 L
277.409 179.974 L
283.315 179.974 L
289.221 179.974 L
295.127 179.974 L
301.033 179.974 L
306.939 179.974 L
312.845 179.974 L
318.751 179.974 L
324.657 179.974 L
330.563 179.974 L
336.469 179.974 L
342.374 179.974 L
348.28 179.974 L
354.186 179.974 L
354.186 216.906 LE
1 1 1 C
241.974 179.974 247.88 185.595 247.88 179.974 T
253.786 179.974 247.88 179.974 247.88 185.595 T
253.786 192.439 253.786 179.974 247.88 185.595 T
259.691 179.974 253.786 179.974 253.786 192.439 T
259.691 202.623 259.691 179.974 253.786 192.439 T
265.597 179.974 259.691 179.974 259.691 202.623 T
265.597 205.175 265.597 179.974 259.691 202.623 T
271.503 179.974 265.597 179.974 265.597 205.175 T
271.503 210.358 271.503 179.974 265.597 205.175 T
277.409 179.974 271.503 179.974 271.503 210.358 T
277.409 212.887 277.409 179.974 271.503 210.358 T
283.315 179.974 277.409 179.974 277.409 212.887 T
283.315 213.177 283.315 179.974 277.409 212.887 T
289.221 179.974 283.315 179.974 283.315 213.177 T
289.221 212.173 289.221 179.974 283.315 213.177 T
295.127 179.974 289.221 179.974 289.221 212.173 T
295.127 209.158 295.127 179.974 289.221 212.173 T
301.033 179.974 295.127 179.974 295.127 209.158 T
301.033 206.443 301.033 179.974 295.127 209.158 T
306.939 179.974 301.033 179.974 301.033 206.443 T
306.939 203.684 306.939 179.974 301.033 206.443 T
312.845 179.974 306.939 179.974 306.939 203.684 T
312.845 200.126 312.845 179.974 306.939 203.684 T
318.751 179.974 312.845 179.974 312.845 200.126 T
318.751 197.792 318.751 179.974 312.845 200.126 T
324.657 179.974 318.751 179.974 318.751 197.792 T
324.657 196.933 324.657 179.974 318.751 197.792 T
330.563 179.974 324.657 179.974 324.657 196.933 T
330.563 195.232 330.563 179.974 324.657 196.933 T
336.469 179.974 330.563 179.974 330.563 195.232 T
336.469 194.279 336.469 179.974 330.563 195.232 T
342.374 179.974 336.469 179.974 336.469 194.279 T
342.374 193.118 342.374 179.974 336.469 194.279 T
348.28 179.974 342.374 179.974 342.374 193.118 T
348.28 191.988 348.28 179.974 342.374 193.118 T
354.186 179.974 348.28 179.974 348.28 191.988 T
354.186 190.677 354.186 179.974 348.28 191.988 T
0 0 0 C
354.186 190.677 LS
348.28 191.988 L
342.374 193.118 L
336.469 194.279 L
330.563 195.232 L
324.657 196.933 L
318.751 197.792 L
312.845 200.126 L
306.939 203.684 L
301.033 206.443 L
295.127 209.158 L
289.221 212.173 L
283.315 213.177 L
277.409 212.887 L
271.503 210.358 L
265.597 205.175 L
259.691 202.623 L
253.786 192.439 L
247.88 185.595 L
241.974 179.974 L
247.88 179.974 L
253.786 179.974 L
259.691 179.974 L
265.597 179.974 L
271.503 179.974 L
277.409 179.974 L
283.315 179.974 L
289.221 179.974 L
295.127 179.974 L
301.033 179.974 L
306.939 179.974 L
312.845 179.974 L
318.751 179.974 L
324.657 179.974 L
330.563 179.974 L
336.469 179.974 L
342.374 179.974 L
348.28 179.974 L
354.186 179.974 L
354.186 190.677 LE
3 W
1 LJ
241.974 183.927 LS
247.88 192.555 L
253.786 203.958 L
259.691 221.505 L
265.597 221.216 L
271.503 229.416 L
277.409 233.16 L
283.315 233.326 L
289.221 231.487 L
295.127 228.693 L
301.033 225.549 L
306.939 222.378 L
312.845 219.345 L
318.751 216.526 L
324.657 213.949 L
330.563 211.615 L
336.469 209.515 L
342.374 207.631 L
348.28 205.945 L
354.186 204.438 LE
grestore
gsave
1.0 1.0 scale
newpath 0 0 moveto 576 0 lineto 576 432 lineto 0 432 lineto
closepath clip
1 1 1 C
409.067 254.387 521.28 179.974 409.067 179.974 T
409.067 254.387 521.28 254.387 521.28 179.974 T
0.5 W
0.15 0.15 0.15 C
432.691 179.974 LS
432.691 181.102 LE
432.691 254.387 LS
432.691 253.258 LE
462.221 179.974 LS
462.221 181.102 LE
462.221 254.387 LS
462.221 253.258 LE
491.75 179.974 LS
491.75 181.102 LE
491.75 254.387 LS
491.75 253.258 LE
521.28 179.974 LS
521.28 181.102 LE
521.28 254.387 LS
521.28 253.258 LE
gsave
0.14902 0.14902 0.14902 C
(5) [10] 0 429.691 164.432 10 /Helvetica SRX
grestore

gsave
0.14902 0.14902 0.14902 C
(10) [6 10] 0 456.221 164.432 10 /Helvetica SRX
grestore

gsave
0.14902 0.14902 0.14902 C
(15) [6 10] 0 485.75 164.432 10 /Helvetica SRX
grestore

gsave
0.14902 0.14902 0.14902 C
(20) [6 10] 0 515.28 164.432 10 /Helvetica SRX
grestore

409.067 191.45 LS
410.192 191.45 LE
521.28 191.45 LS
520.156 191.45 LE
409.067 205.305 LS
410.192 205.305 LE
521.28 205.305 LS
520.156 205.305 LE
409.067 219.161 LS
410.192 219.161 LE
521.28 219.161 LS
520.156 219.161 LE
409.067 233.016 LS
410.192 233.016 LE
521.28 233.016 LS
520.156 233.016 LE
409.067 246.871 LS
410.192 246.871 LE
521.28 246.871 LS
520.156 246.871 LE
gsave
0.14902 0.14902 0.14902 C
(0.002) [6 3 6 6 10] 0 377.058 187.45 10 /Helvetica SRX
grestore

gsave
0.14902 0.14902 0.14902 C
(0.004) [6 3 6 6 10] 0 377.058 201.305 10 /Helvetica SRX
grestore

gsave
0.14902 0.14902 0.14902 C
(0.006) [6 3 6 6 10] 0 377.058 215.161 10 /Helvetica SRX
grestore

gsave
0.14902 0.14902 0.14902 C
(0.008) [6 3 6 6 10] 0 377.058 229.016 10 /Helvetica SRX
grestore

gsave
0.14902 0.14902 0.14902 C
(0.01) [6 3 6 10] 0 383.058 242.871 10 /Helvetica SRX
grestore

2 LC
[16 0] 0 setdash
409.067 179.974 LS
521.28 179.974 LE
409.067 254.387 LS
521.28 254.387 LE
409.067 179.974 LS
409.067 254.387 LE
521.28 179.974 LS
521.28 254.387 LE
gsave
0 0 0 C
(L_C_hat) [7 6 8 6 7 6 10] 0 443.174 266.387 11 /Helvetica-Bold SRX
grestore

0.9 0.9 0.9 C
409.067 179.974 409.067 184.055 414.973 179.974 T
414.973 191.623 414.973 179.974 409.067 184.055 T
420.879 179.974 414.973 179.974 414.973 191.623 T
420.879 201.869 420.879 179.974 414.973 191.623 T
426.785 179.974 420.879 179.974 420.879 201.869 T
426.785 218.283 426.785 179.974 420.879 201.869 T
432.691 179.974 426.785 179.974 426.785 218.283 T
432.691 243.196 432.691 179.974 426.785 218.283 T
438.597 179.974 432.691 179.974 432.691 243.196 T
438.597 251.999 438.597 179.974 432.691 243.196 T
444.503 179.974 438.597 179.974 438.597 251.999 T
444.503 254.387 444.503 179.974 438.597 251.999 T
450.409 179.974 444.503 179.974 444.503 254.387 T
450.409 253.196 450.409 179.974 444.503 254.387 T
456.315 179.974 450.409 179.974 450.409 253.196 T
456.315 249.946 456.315 179.974 450.409 253.196 T
462.221 179.974 456.315 179.974 456.315 249.946 T
462.221 245.536 462.221 179.974 456.315 249.946 T
468.127 179.974 462.221 179.974 462.221 245.536 T
468.127 240.44 468.127 179.974 462.221 245.536 T
474.033 179.974 468.127 179.974 468.127 240.44 T
474.033 235.149 474.033 179.974 468.127 240.44 T
479.939 179.974 474.033 179.974 474.033 235.149 T
479.939 228.903 479.939 179.974 474.033 235.149 T
485.844 179.974 479.939 179.974 479.939 228.903 T
485.844 224.051 485.844 179.974 479.939 228.903 T
491.75 179.974 485.844 179.974 485.844 224.051 T
491.75 220.481 491.75 179.974 485.844 224.051 T
497.656 179.974 491.75 179.974 491.75 220.481 T
497.656 217.73 497.656 179.974 491.75 220.481 T
503.562 179.974 497.656 179.974 497.656 217.73 T
503.562 213.906 503.562 179.974 497.656 217.73 T
509.468 179.974 503.562 179.974 503.562 213.906 T
509.468 210.908 509.468 179.974 503.562 213.906 T
515.374 179.974 509.468 179.974 509.468 210.908 T
515.374 207.734 515.374 179.974 509.468 210.908 T
521.28 179.974 515.374 179.974 515.374 207.734 T
521.28 205.033 521.28 179.974 515.374 207.734 T
0 LC
[] 0 setdash
0 0 0 C
521.28 205.033 LS
515.374 207.734 L
509.468 210.908 L
503.562 213.906 L
497.656 217.73 L
491.75 220.481 L
485.844 224.051 L
479.939 228.903 L
474.033 235.149 L
468.127 240.44 L
462.221 245.536 L
456.315 249.946 L
450.409 253.196 L
444.503 254.387 L
438.597 251.999 L
432.691 243.196 L
426.785 218.283 L
420.879 201.869 L
414.973 191.623 L
409.067 184.055 L
409.067 179.974 L
414.973 179.974 L
420.879 179.974 L
426.785 179.974 L
432.691 179.974 L
438.597 179.974 L
444.503 179.974 L
450.409 179.974 L
456.315 179.974 L
462.221 179.974 L
468.127 179.974 L
474.033 179.974 L
479.939 179.974 L
485.844 179.974 L
491.75 179.974 L
497.656 179.974 L
503.562 179.974 L
509.468 179.974 L
515.374 179.974 L
521.28 179.974 L
521.28 205.033 LE
1 1 1 C
409.067 179.974 414.973 183.844 414.973 179.974 T
420.879 179.974 414.973 179.974 414.973 183.844 T
420.879 189.211 420.879 179.974 414.973 183.844 T
426.785 179.974 420.879 179.974 420.879 189.211 T
426.785 196.318 426.785 179.974 420.879 189.211 T
432.691 179.974 426.785 179.974 426.785 196.318 T
432.691 202.346 432.691 179.974 426.785 196.318 T
438.597 179.974 432.691 179.974 432.691 202.346 T
438.597 206.236 438.597 179.974 432.691 202.346 T
444.503 179.974 438.597 179.974 438.597 206.236 T
444.503 208.41 444.503 179.974 438.597 206.236 T
450.409 179.974 444.503 179.974 444.503 208.41 T
450.409 209.494 450.409 179.974 444.503 208.41 T
456.315 179.974 450.409 179.974 450.409 209.494 T
456.315 209.247 456.315 179.974 450.409 209.494 T
462.221 179.974 456.315 179.974 456.315 209.247 T
462.221 207.616 462.221 179.974 456.315 209.247 T
468.127 179.974 462.221 179.974 462.221 207.616 T
468.127 205.785 468.127 179.974 462.221 207.616 T
474.033 179.974 468.127 179.974 468.127 205.785 T
474.033 202.511 474.033 179.974 468.127 205.785 T
479.939 179.974 474.033 179.974 474.033 202.511 T
479.939 198.31 479.939 179.974 474.033 202.511 T
485.844 179.974 479.939 179.974 479.939 198.31 T
485.844 195.304 485.844 179.974 479.939 198.31 T
491.75 179.974 485.844 179.974 485.844 195.304 T
491.75 193.545 491.75 179.974 485.844 195.304 T
497.656 179.974 491.75 179.974 491.75 193.545 T
497.656 192.658 497.656 179.974 491.75 193.545 T
503.562 179.974 497.656 179.974 497.656 192.658 T
503.562 190.701 503.562 179.974 497.656 192.658 T
509.468 179.974 503.562 179.974 503.562 190.701 T
509.468 189.503 509.468 179.974 503.562 190.701 T
515.374 179.974 509.468 179.974 509.468 189.503 T
515.374 187.922 515.374 179.974 509.468 189.503 T
521.28 179.974 515.374 179.974 515.374 187.922 T
521.28 186.638 521.28 179.974 515.374 187.922 T
0 0 0 C
521.28 186.638 LS
515.374 187.922 L
509.468 189.503 L
503.562 190.701 L
497.656 192.658 L
491.75 193.545 L
485.844 195.304 L
479.939 198.31 L
474.033 202.511 L
468.127 205.785 L
462.221 207.616 L
456.315 209.247 L
450.409 209.494 L
444.503 208.41 L
438.597 206.236 L
432.691 202.346 L
426.785 196.318 L
420.879 189.211 L
414.973 183.844 L
409.067 179.974 L
414.973 179.974 L
420.879 179.974 L
426.785 179.974 L
432.691 179.974 L
438.597 179.974 L
444.503 179.974 L
450.409 179.974 L
456.315 179.974 L
462.221 179.974 L
468.127 179.974 L
474.033 179.974 L
479.939 179.974 L
485.844 179.974 L
491.75 179.974 L
497.656 179.974 L
503.562 179.974 L
509.468 179.974 L
515.374 179.974 L
521.28 179.974 L
521.28 186.638 LE
3 W
1 LJ
409.067 181.972 LS
414.973 187.81 L
420.879 195.841 L
426.785 207.425 L
432.691 224.405 L
438.597 231.239 L
444.503 233.08 L
450.409 232.107 L
456.315 229.542 L
462.221 226.131 L
468.127 222.341 L
474.033 218.466 L
479.939 214.685 L
485.844 211.104 L
491.75 207.781 L
497.656 204.74 L
503.562 201.988 L
509.468 199.517 L
515.374 197.313 L
521.28 195.357 LE
grestore
gsave
1.0 1.0 scale
newpath 0 0 moveto 576 0 lineto 576 432 lineto 0 432 lineto
closepath clip
1 1 1 C
74.88 121.933 187.093 47.52 74.88 47.52 T
74.88 121.933 187.093 121.933 187.093 47.52 T
0.5 W
0.15 0.15 0.15 C
98.5037 47.52 LS
98.5037 48.6484 LE
98.5037 121.933 LS
98.5037 120.805 LE
128.033 47.52 LS
128.033 48.6484 LE
128.033 121.933 LS
128.033 120.805 LE
157.563 47.52 LS
157.563 48.6484 LE
157.563 121.933 LS
157.563 120.805 LE
187.093 47.52 LS
187.093 48.6484 LE
187.093 121.933 LS
187.093 120.805 LE
gsave
0.14902 0.14902 0.14902 C
(5) [10] 0 95.5037 31.9781 10 /Helvetica SRX
grestore

gsave
0.14902 0.14902 0.14902 C
(10) [6 10] 0 122.033 31.9781 10 /Helvetica SRX
grestore

gsave
0.14902 0.14902 0.14902 C
(15) [6 10] 0 151.563 31.9781 10 /Helvetica SRX
grestore

gsave
0.14902 0.14902 0.14902 C
(20) [6 10] 0 181.093 31.9781 10 /Helvetica SRX
grestore

74.88 63.1848 LS
76.0043 63.1848 LE
187.093 63.1848 LS
185.968 63.1848 LE
74.88 84.4602 LS
76.0043 84.4602 LE
187.093 84.4602 LS
185.968 84.4602 LE
74.88 105.736 LS
76.0043 105.736 LE
187.093 105.736 LS
185.968 105.736 LE
gsave
0.14902 0.14902 0.14902 C
(0.005) [6 3 6 6 10] 0 42.8705 59.1848 10 /Helvetica SRX
grestore

gsave
0.14902 0.14902 0.14902 C
(0.01) [6 3 6 10] 0 48.8705 80.4602 10 /Helvetica SRX
grestore

gsave
0.14902 0.14902 0.14902 C
(0.015) [6 3 6 6 10] 0 42.8705 101.736 10 /Helvetica SRX
grestore

2 LC
[16 0] 0 setdash
74.88 47.52 LS
187.093 47.52 LE
74.88 121.933 LS
187.093 121.933 LE
74.88 47.52 LS
74.88 121.933 LE
187.093 47.52 LS
187.093 121.933 LE
gsave
0 0 0 C
(I_T_hat) [3 6 7 6 7 6 10] 0 111.486 133.933 11 /Helvetica-Bold SRX
grestore

0.9 0.9 0.9 C
74.88 47.52 74.88 112.275 80.7859 47.52 T
80.7859 116.209 80.7859 47.52 74.88 112.275 T
86.6918 47.52 80.7859 47.52 80.7859 116.209 T
86.6918 120.169 86.6918 47.52 80.7859 116.209 T
92.5978 47.52 86.6918 47.52 86.6918 120.169 T
92.5978 121.933 92.5978 47.52 86.6918 120.169 T
98.5037 47.52 92.5978 47.52 92.5978 121.933 T
98.5037 115.976 98.5037 47.52 92.5978 121.933 T
104.41 47.52 98.5037 47.52 98.5037 115.976 T
104.41 110.547 104.41 47.52 98.5037 115.976 T
110.316 47.52 104.41 47.52 104.41 110.547 T
110.316 104.11 110.316 47.52 104.41 110.547 T
116.221 47.52 110.316 47.52 110.316 104.11 T
116.221 99.1025 116.221 47.52 110.316 104.11 T
122.127 47.52 116.221 47.52 116.221 99.1025 T
122.127 92.7973 122.127 47.52 116.221 99.1025 T
128.033 47.52 122.127 47.52 122.127 92.7973 T
128.033 88.1722 128.033 47.52 122.127 92.7973 T
133.939 47.52 128.033 47.52 128.033 88.1722 T
133.939 83.4757 133.939 47.52 128.033 88.1722 T
139.845 47.52 133.939 47.52 133.939 83.4757 T
139.845 79.5554 139.845 47.52 133.939 83.4757 T
145.751 47.52 139.845 47.52 139.845 79.5554 T
145.751 75.9278 145.751 47.52 139.845 79.5554 T
151.657 47.52 145.751 47.52 145.751 75.9278 T
151.657 73.1979 151.657 47.52 145.751 75.9278 T
157.563 47.52 151.657 47.52 151.657 73.1979 T
157.563 70.4845 157.563 47.52 151.657 73.1979 T
163.469 47.52 157.563 47.52 157.563 70.4845 T
163.469 67.4569 163.469 47.52 157.563 70.4845 T
169.375 47.52 163.469 47.52 163.469 67.4569 T
169.375 65.0129 169.375 47.52 163.469 67.4569 T
175.281 47.52 169.375 47.52 169.375 65.0129 T
175.281 63.981 175.281 47.52 169.375 65.0129 T
181.187 47.52 175.281 47.52 175.281 63.981 T
181.187 61.6124 181.187 47.52 175.281 63.981 T
187.093 47.52 181.187 47.52 181.187 61.6124 T
187.093 60.0005 187.093 47.52 181.187 61.6124 T
0 LC
[] 0 setdash
0 0 0 C
187.093 60.0005 LS
181.187 61.6124 L
175.281 63.981 L
169.375 65.0129 L
163.469 67.4569 L
157.563 70.4845 L
151.657 73.1979 L
145.751 75.9278 L
139.845 79.5554 L
133.939 83.4757 L
128.033 88.1722 L
122.127 92.7973 L
116.221 99.1025 L
110.316 104.11 L
104.41 110.547 L
98.5037 115.976 L
92.5978 121.933 L
86.6918 120.169 L
80.7859 116.209 L
74.88 112.275 L
74.88 47.52 L
80.7859 47.52 L
86.6918 47.52 L
92.5978 47.52 L
98.5037 47.52 L
104.41 47.52 L
110.316 47.52 L
116.221 47.52 L
122.127 47.52 L
128.033 47.52 L
133.939 47.52 L
139.845 47.52 L
145.751 47.52 L
151.657 47.52 L
157.563 47.52 L
163.469 47.52 L
169.375 47.52 L
175.281 47.52 L
181.187 47.52 L
187.093 47.52 L
187.093 60.0005 LE
1 1 1 C
74.88 47.52 74.88 75.6427 80.7859 47.52 T
80.7859 77.9337 80.7859 47.52 74.88 75.6427 T
86.6918 47.52 80.7859 47.52 80.7859 77.9337 T
86.6918 80.3276 86.6918 47.52 80.7859 77.9337 T
92.5978 47.52 86.6918 47.52 86.6918 80.3276 T
92.5978 81.0917 92.5978 47.52 86.6918 80.3276 T
98.5037 47.52 92.5978 47.52 92.5978 81.0917 T
98.5037 78.2514 98.5037 47.52 92.5978 81.0917 T
104.41 47.52 98.5037 47.52 98.5037 78.2514 T
104.41 75.2044 104.41 47.52 98.5037 78.2514 T
110.316 47.52 104.41 47.52 104.41 75.2044 T
110.316 71.1289 110.316 47.52 104.41 75.2044 T
116.221 47.52 110.316 47.52 110.316 71.1289 T
116.221 68.3808 116.221 47.52 110.316 71.1289 T
122.127 47.52 116.221 47.52 116.221 68.3808 T
122.127 64.2216 122.127 47.52 116.221 68.3808 T
128.033 47.52 122.127 47.52 122.127 64.2216 T
128.033 61.6778 128.033 47.52 122.127 64.2216 T
133.939 47.52 128.033 47.52 128.033 61.6778 T
133.939 58.8026 133.939 47.52 128.033 61.6778 T
139.845 47.52 133.939 47.52 133.939 58.8026 T
139.845 56.5836 139.845 47.52 133.939 58.8026 T
145.751 47.52 139.845 47.52 139.845 56.5836 T
145.751 54.6365 145.751 47.52 139.845 56.5836 T
151.657 47.52 145.751 47.52 145.751 54.6365 T
151.657 53.4835 151.657 47.52 145.751 54.6365 T
157.563 47.52 151.657 47.52 151.657 53.4835 T
157.563 52.1525 157.563 47.52 151.657 53.4835 T
163.469 47.52 157.563 47.52 157.563 52.1525 T
163.469 50.4202 163.469 47.52 157.563 52.1525 T
169.375 47.52 163.469 47.52 163.469 50.4202 T
169.375 49.2415 169.375 47.52 163.469 50.4202 T
175.281 47.52 169.375 47.52 169.375 49.2415 T
175.281 49.4587 175.281 47.52 169.375 49.2415 T
181.187 47.52 175.281 47.52 175.281 49.4587 T
181.187 48.1423 181.187 47.52 175.281 49.4587 T
187.093 47.52 181.187 47.52 181.187 48.1423 T
0 0 0 C
187.093 47.52 LS
181.187 48.1423 L
175.281 49.4587 L
169.375 49.2415 L
163.469 50.4202 L
157.563 52.1525 L
151.657 53.4835 L
145.751 54.6365 L
139.845 56.5836 L
133.939 58.8026 L
128.033 61.6778 L
122.127 64.2216 L
116.221 68.3808 L
110.316 71.1289 L
104.41 75.2044 L
98.5037 78.2514 L
92.5978 81.0917 L
86.6918 80.3276 L
80.7859 77.9337 L
74.88 75.6427 L
74.88 47.52 L
80.7859 47.52 L
86.6918 47.52 L
92.5978 47.52 L
98.5037 47.52 L
104.41 47.52 L
110.316 47.52 L
116.221 47.52 L
122.127 47.52 L
128.033 47.52 L
133.939 47.52 L
139.845 47.52 L
145.751 47.52 L
151.657 47.52 L
157.563 47.52 L
163.469 47.52 L
169.375 47.52 L
175.281 47.52 L
181.187 47.52 L
187.093 47.52 LE
3 W
1 LJ
74.88 95.4896 LS
80.7859 98.2076 L
86.6918 101.267 L
92.5978 102.989 L
98.5037 97.651 L
104.41 92.6286 L
110.316 87.7335 L
116.221 83.1626 L
122.127 78.9865 L
128.033 75.2144 L
133.939 71.8301 L
139.845 68.8067 L
145.751 66.1141 L
151.657 63.722 L
157.563 61.601 L
163.469 59.724 L
169.375 58.0657 L
175.281 56.6031 L
181.187 55.3152 L
187.093 54.1828 LE
grestore
gsave
1.0 1.0 scale
newpath 0 0 moveto 576 0 lineto 576 432 lineto 0 432 lineto
closepath clip
1 1 1 C
241.974 121.933 354.186 47.52 241.974 47.52 T
241.974 121.933 354.186 121.933 354.186 47.52 T
0.5 W
0.15 0.15 0.15 C
265.597 47.52 LS
265.597 48.6484 LE
265.597 121.933 LS
265.597 120.805 LE
295.127 47.52 LS
295.127 48.6484 LE
295.127 121.933 LS
295.127 120.805 LE
324.657 47.52 LS
324.657 48.6484 LE
324.657 121.933 LS
324.657 120.805 LE
354.186 47.52 LS
354.186 48.6484 LE
354.186 121.933 LS
354.186 120.805 LE
gsave
0.14902 0.14902 0.14902 C
(5) [10] 0 262.597 31.9781 10 /Helvetica SRX
grestore

gsave
0.14902 0.14902 0.14902 C
(10) [6 10] 0 289.127 31.9781 10 /Helvetica SRX
grestore

gsave
0.14902 0.14902 0.14902 C
(15) [6 10] 0 318.657 31.9781 10 /Helvetica SRX
grestore

gsave
0.14902 0.14902 0.14902 C
(20) [6 10] 0 348.186 31.9781 10 /Helvetica SRX
grestore

241.974 57.9052 LS
243.098 57.9052 LE
354.186 57.9052 LS
353.062 57.9052 LE
241.974 73.1525 LS
243.098 73.1525 LE
354.186 73.1525 LS
353.062 73.1525 LE
241.974 88.3998 LS
243.098 88.3998 LE
354.186 88.3998 LS
353.062 88.3998 LE
241.974 103.647 LS
243.098 103.647 LE
354.186 103.647 LS
353.062 103.647 LE
241.974 118.894 LS
243.098 118.894 LE
354.186 118.894 LS
353.062 118.894 LE
gsave
0.14902 0.14902 0.14902 C
(-0.002) [3 6 3 6 6 10] 0 206.964 53.9052 10 /Helvetica SRX
grestore

gsave
0.14902 0.14902 0.14902 C
(0) [10] 0 230.964 69.1525 10 /Helvetica SRX
grestore

gsave
0.14902 0.14902 0.14902 C
(0.002) [6 3 6 6 10] 0 209.964 84.3998 10 /Helvetica SRX
grestore

gsave
0.14902 0.14902 0.14902 C
(0.004) [6 3 6 6 10] 0 209.964 99.6471 10 /Helvetica SRX
grestore

gsave
0.14902 0.14902 0.14902 C
(0.006) [6 3 6 6 10] 0 209.964 114.894 10 /Helvetica SRX
grestore

2 LC
[16 0] 0 setdash
241.974 47.52 LS
354.186 47.52 LE
241.974 121.933 LS
354.186 121.933 LE
241.974 47.52 LS
241.974 121.933 LE
354.186 47.52 LS
354.186 121.933 LE
gsave
0 0 0 C
(I_N_hat) [3 6 8 6 7 6 10] 0 278.08 133.933 11 /Helvetica-Bold SRX
grestore

0.9 0.9 0.9 C
241.974 47.52 241.974 73.9566 247.88 47.52 T
247.88 71.2061 247.88 47.52 241.974 73.9566 T
253.786 47.52 247.88 47.52 247.88 71.2061 T
253.786 67.7815 253.786 47.52 247.88 71.2061 T
259.691 47.52 253.786 47.52 253.786 67.7815 T
259.691 62.3486 259.691 47.52 253.786 67.7815 T
265.597 47.52 259.691 47.52 259.691 62.3486 T
265.597 76.1399 265.597 47.52 259.691 62.3486 T
271.503 47.52 265.597 47.52 265.597 76.1399 T
271.503 88.5128 271.503 47.52 265.597 76.1399 T
277.409 47.52 271.503 47.52 271.503 88.5128 T
277.409 98.3966 277.409 47.52 271.503 88.5128 T
283.315 47.52 277.409 47.52 277.409 98.3966 T
283.315 105.105 283.315 47.52 277.409 98.3966 T
289.221 47.52 283.315 47.52 283.315 105.105 T
289.221 110.891 289.221 47.52 283.315 105.105 T
295.127 47.52 289.221 47.52 289.221 110.891 T
295.127 113.815 295.127 47.52 289.221 110.891 T
301.033 47.52 295.127 47.52 295.127 113.815 T
301.033 117.33 301.033 47.52 295.127 113.815 T
306.939 47.52 301.033 47.52 301.033 117.33 T
306.939 119.011 306.939 47.52 301.033 117.33 T
312.845 47.52 306.939 47.52 306.939 119.011 T
312.845 120.383 312.845 47.52 306.939 119.011 T
318.751 47.52 312.845 47.52 312.845 120.383 T
318.751 121.538 318.751 47.52 312.845 120.383 T
324.657 47.52 318.751 47.52 318.751 121.538 T
324.657 121.669 324.657 47.52 318.751 121.538 T
330.563 47.52 324.657 47.52 324.657 121.669 T
330.563 121.781 330.563 47.52 324.657 121.669 T
336.469 47.52 330.563 47.52 330.563 121.781 T
336.469 121.933 336.469 47.52 330.563 121.781 T
342.374 47.52 336.469 47.52 336.469 121.933 T
342.374 121.584 342.374 47.52 336.469 121.933 T
348.28 47.52 342.374 47.52 342.374 121.584 T
348.28 121.632 348.28 47.52 342.374 121.584 T
354.186 47.52 348.28 47.52 348.28 121.632 T
354.186 119.82 354.186 47.52 348.28 121.632 T
0 LC
[] 0 setdash
0 0 0 C
354.186 119.82 LS
348.28 121.632 L
342.374 121.584 L
336.469 121.933 L
330.563 121.781 L
324.657 121.669 L
318.751 121.538 L
312.845 120.383 L
306.939 119.011 L
301.033 117.33 L
295.127 113.815 L
289.221 110.891 L
283.315 105.105 L
277.409 98.3966 L
271.503 88.5128 L
265.597 76.1399 L
259.691 62.3486 L
253.786 67.7815 L
247.88 71.2061 L
241.974 73.9566 L
241.974 47.52 L
247.88 47.52 L
253.786 47.52 L
259.691 47.52 L
265.597 47.52 L
271.503 47.52 L
277.409 47.52 L
283.315 47.52 L
289.221 47.52 L
295.127 47.52 L
301.033 47.52 L
306.939 47.52 L
312.845 47.52 L
318.751 47.52 L
324.657 47.52 L
330.563 47.52 L
336.469 47.52 L
342.374 47.52 L
348.28 47.52 L
354.186 47.52 L
354.186 119.82 LE
1 1 1 C
259.691 47.52 265.597 68.6334 265.597 47.52 T
271.503 47.52 265.597 47.52 265.597 68.6334 T
271.503 78.5707 271.503 47.52 265.597 68.6334 T
277.409 47.52 271.503 47.52 271.503 78.5707 T
277.409 83.945 277.409 47.52 271.503 78.5707 T
283.315 47.52 277.409 47.52 277.409 83.945 T
283.315 87.5131 283.315 47.52 277.409 83.945 T
289.221 47.52 283.315 47.52 283.315 87.5131 T
289.221 91.1012 289.221 47.52 283.315 87.5131 T
295.127 47.52 289.221 47.52 289.221 91.1012 T
295.127 92.6856 295.127 47.52 289.221 91.1012 T
301.033 47.52 295.127 47.52 295.127 92.6856 T
301.033 95.5706 301.033 47.52 295.127 92.6856 T
306.939 47.52 301.033 47.52 301.033 95.5706 T
306.939 96.3861 306.939 47.52 301.033 95.5706 T
312.845 47.52 306.939 47.52 306.939 96.3861 T
312.845 97.0652 312.845 47.52 306.939 96.3861 T
318.751 47.52 312.845 47.52 312.845 97.0652 T
318.751 97.5455 318.751 47.52 312.845 97.0652 T
324.657 47.52 318.751 47.52 318.751 97.5455 T
324.657 97.4606 324.657 47.52 318.751 97.5455 T
330.563 47.52 324.657 47.52 324.657 97.4606 T
330.563 97.247 330.563 47.52 324.657 97.4606 T
336.469 47.52 330.563 47.52 330.563 97.247 T
336.469 97.2183 336.469 47.52 330.563 97.247 T
342.374 47.52 336.469 47.52 336.469 97.2183 T
342.374 96.8058 342.374 47.52 336.469 97.2183 T
348.28 47.52 342.374 47.52 342.374 96.8058 T
348.28 96.8954 348.28 47.52 342.374 96.8058 T
354.186 47.52 348.28 47.52 348.28 96.8954 T
354.186 95.2988 354.186 47.52 348.28 96.8954 T
241.974 47.52 241.974 67.4555 247.88 47.52 T
247.88 63.8002 247.88 47.52 241.974 67.4555 T
253.786 47.52 247.88 47.52 247.88 63.8002 T
253.786 58.2275 253.786 47.52 247.88 63.8002 T
259.691 47.52 253.786 47.52 253.786 58.2275 T
0 0 0 C
259.691 47.52 LS
253.786 58.2275 L
247.88 63.8002 L
241.974 67.4555 L
241.974 47.52 L
247.88 47.52 L
253.786 47.52 L
259.691 47.52 LE
354.186 95.2988 LS
348.28 96.8954 L
342.374 96.8058 L
336.469 97.2183 L
330.563 97.247 L
324.657 97.4606 L
318.751 97.5455 L
312.845 97.0652 L
306.939 96.3861 L
301.033 95.5706 L
295.127 92.6856 L
289.221 91.1012 L
283.315 87.5131 L
277.409 83.945 L
271.503 78.5707 L
265.597 68.6334 L
259.691 47.52 L
265.597 47.52 L
271.503 47.52 L
277.409 47.52 L
283.315 47.52 L
289.221 47.52 L
295.127 47.52 L
301.033 47.52 L
306.939 47.52 L
312.845 47.52 L
318.751 47.52 L
324.657 47.52 L
330.563 47.52 L
336.469 47.52 L
342.374 47.52 L
348.28 47.52 L
354.186 47.52 L
354.186 95.2988 LE
3 W
1 LJ
241.974 70.5029 LS
247.88 67.3848 L
253.786 63.4957 L
259.691 55.1533 L
265.597 72.5754 L
271.503 83.4996 L
277.409 91.2486 L
283.315 96.9214 L
289.221 101.087 L
295.127 104.108 L
301.033 106.244 L
306.939 107.686 L
312.845 108.58 L
318.751 109.042 L
324.657 109.164 L
330.563 109.019 L
336.469 108.667 L
342.374 108.155 L
348.28 107.523 L
354.186 106.8 LE
grestore
gsave
1.0 1.0 scale
newpath 0 0 moveto 576 0 lineto 576 432 lineto 0 432 lineto
closepath clip
1 1 1 C
409.067 121.933 521.28 47.52 409.067 47.52 T
409.067 121.933 521.28 121.933 521.28 47.52 T
0.5 W
0.15 0.15 0.15 C
432.691 47.52 LS
432.691 48.6484 LE
432.691 121.933 LS
432.691 120.805 LE
462.221 47.52 LS
462.221 48.6484 LE
462.221 121.933 LS
462.221 120.805 LE
491.75 47.52 LS
491.75 48.6484 LE
491.75 121.933 LS
491.75 120.805 LE
521.28 47.52 LS
521.28 48.6484 LE
521.28 121.933 LS
521.28 120.805 LE
gsave
0.14902 0.14902 0.14902 C
(5) [10] 0 429.691 31.9781 10 /Helvetica SRX
grestore

gsave
0.14902 0.14902 0.14902 C
(10) [6 10] 0 456.221 31.9781 10 /Helvetica SRX
grestore

gsave
0.14902 0.14902 0.14902 C
(15) [6 10] 0 485.75 31.9781 10 /Helvetica SRX
grestore

gsave
0.14902 0.14902 0.14902 C
(20) [6 10] 0 515.28 31.9781 10 /Helvetica SRX
grestore

409.067 51.9574 LS
410.192 51.9574 LE
521.28 51.9574 LS
520.156 51.9574 LE
409.067 71.2752 LS
410.192 71.2752 LE
521.28 71.2752 LS
520.156 71.2752 LE
409.067 90.5929 LS
410.192 90.5929 LE
521.28 90.5929 LS
520.156 90.5929 LE
409.067 109.911 LS
410.192 109.911 LE
521.28 109.911 LS
520.156 109.911 LE
gsave
0.14902 0.14902 0.14902 C
(0.002) [6 3 6 6 10] 0 377.058 47.9574 10 /Helvetica SRX
grestore

gsave
0.14902 0.14902 0.14902 C
(0.004) [6 3 6 6 10] 0 377.058 67.2752 10 /Helvetica SRX
grestore

gsave
0.14902 0.14902 0.14902 C
(0.006) [6 3 6 6 10] 0 377.058 86.5929 10 /Helvetica SRX
grestore

gsave
0.14902 0.14902 0.14902 C
(0.008) [6 3 6 6 10] 0 377.058 105.911 10 /Helvetica SRX
grestore

2 LC
[16 0] 0 setdash
409.067 47.52 LS
521.28 47.52 LE
409.067 121.933 LS
521.28 121.933 LE
409.067 47.52 LS
409.067 121.933 LE
521.28 47.52 LS
521.28 121.933 LE
gsave
0 0 0 C
(I_C_hat) [3 6 8 6 7 6 10] 0 445.174 133.933 11 /Helvetica-Bold SRX
grestore

0.9 0.9 0.9 C
409.067 47.52 409.067 119.65 414.973 47.52 T
414.973 121.416 414.973 47.52 409.067 119.65 T
420.879 47.52 414.973 47.52 414.973 121.416 T
420.879 120.544 420.879 47.52 414.973 121.416 T
426.785 47.52 420.879 47.52 420.879 120.544 T
426.785 120.593 426.785 47.52 420.879 120.544 T
432.691 47.52 426.785 47.52 426.785 120.593 T
432.691 121.933 432.691 47.52 426.785 120.593 T
438.597 47.52 432.691 47.52 432.691 121.933 T
438.597 119.253 438.597 47.52 432.691 121.933 T
444.503 47.52 438.597 47.52 438.597 119.253 T
444.503 117.452 444.503 47.52 438.597 119.253 T
450.409 47.52 444.503 47.52 444.503 117.452 T
450.409 113.437 450.409 47.52 444.503 117.452 T
456.315 47.52 450.409 47.52 450.409 113.437 T
456.315 108.189 456.315 47.52 450.409 113.437 T
462.221 47.52 456.315 47.52 456.315 108.189 T
462.221 102.797 462.221 47.52 456.315 108.189 T
468.127 47.52 462.221 47.52 462.221 102.797 T
468.127 98.5951 468.127 47.52 462.221 102.797 T
474.033 47.52 468.127 47.52 468.127 98.5951 T
474.033 95.3393 474.033 47.52 468.127 98.5951 T
479.939 47.52 474.033 47.52 474.033 95.3393 T
479.939 91.7996 479.939 47.52 474.033 95.3393 T
485.844 47.52 479.939 47.52 479.939 91.7996 T
485.844 88.0552 485.844 47.52 479.939 91.7996 T
491.75 47.52 485.844 47.52 485.844 88.0552 T
491.75 84.1034 491.75 47.52 485.844 88.0552 T
497.656 47.52 491.75 47.52 491.75 84.1034 T
497.656 81.0745 497.656 47.52 491.75 84.1034 T
503.562 47.52 497.656 47.52 497.656 81.0745 T
503.562 78.0649 503.562 47.52 497.656 81.0745 T
509.468 47.52 503.562 47.52 503.562 78.0649 T
509.468 75.2958 509.468 47.52 503.562 78.0649 T
515.374 47.52 509.468 47.52 509.468 75.2958 T
515.374 72.975 515.374 47.52 509.468 75.2958 T
521.28 47.52 515.374 47.52 515.374 72.975 T
521.28 71.1834 521.28 47.52 515.374 72.975 T
0 LC
[] 0 setdash
0 0 0 C
521.28 71.1834 LS
515.374 72.975 L
509.468 75.2958 L
503.562 78.0649 L
497.656 81.0745 L
491.75 84.1034 L
485.844 88.0552 L
479.939 91.7996 L
474.033 95.3393 L
468.127 98.5951 L
462.221 102.797 L
456.315 108.189 L
450.409 113.437 L
444.503 117.452 L
438.597 119.253 L
432.691 121.933 L
426.785 120.593 L
420.879 120.544 L
414.973 121.416 L
409.067 119.65 L
409.067 47.52 L
414.973 47.52 L
420.879 47.52 L
426.785 47.52 L
432.691 47.52 L
438.597 47.52 L
444.503 47.52 L
450.409 47.52 L
456.315 47.52 L
462.221 47.52 L
468.127 47.52 L
474.033 47.52 L
479.939 47.52 L
485.844 47.52 L
491.75 47.52 L
497.656 47.52 L
503.562 47.52 L
509.468 47.52 L
515.374 47.52 L
521.28 47.52 L
521.28 71.1834 LE
1 1 1 C
409.067 47.52 409.067 72 414.973 47.52 T
414.973 72.5079 414.973 47.52 409.067 72 T
420.879 47.52 414.973 47.52 414.973 72.5079 T
420.879 70.8081 420.879 47.52 414.973 72.5079 T
426.785 47.52 420.879 47.52 420.879 70.8081 T
426.785 71.3463 426.785 47.52 420.879 70.8081 T
432.691 47.52 426.785 47.52 426.785 71.3463 T
432.691 74.3873 432.691 47.52 426.785 71.3463 T
438.597 47.52 432.691 47.52 432.691 74.3873 T
438.597 73.5134 438.597 47.52 432.691 74.3873 T
444.503 47.52 438.597 47.52 438.597 73.5134 T
444.503 73.2823 444.503 47.52 438.597 73.5134 T
450.409 47.52 444.503 47.52 444.503 73.2823 T
450.409 71.2136 450.409 47.52 444.503 73.2823 T
456.315 47.52 450.409 47.52 450.409 71.2136 T
456.315 67.9069 456.315 47.52 450.409 71.2136 T
462.221 47.52 456.315 47.52 456.315 67.9069 T
462.221 64.2581 462.221 47.52 456.315 67.9069 T
468.127 47.52 462.221 47.52 462.221 64.2581 T
468.127 61.7795 468.127 47.52 462.221 64.2581 T
474.033 47.52 468.127 47.52 468.127 61.7795 T
474.033 60.1164 474.033 47.52 468.127 61.7795 T
479.939 47.52 474.033 47.52 474.033 60.1164 T
479.939 58.3519 479.939 47.52 474.033 60.1164 T
485.844 47.52 479.939 47.52 479.939 58.3519 T
485.844 55.8627 485.844 47.52 479.939 58.3519 T
491.75 47.52 485.844 47.52 485.844 55.8627 T
491.75 53.3959 491.75 47.52 485.844 55.8627 T
497.656 47.52 491.75 47.52 491.75 53.3959 T
497.656 52.0016 497.656 47.52 491.75 53.3959 T
503.562 47.52 497.656 47.52 497.656 52.0016 T
503.562 50.4934 503.562 47.52 497.656 52.0016 T
509.468 47.52 503.562 47.52 503.562 50.4934 T
509.468 48.991 509.468 47.52 503.562 50.4934 T
515.374 47.52 509.468 47.52 509.468 48.991 T
515.374 47.9612 515.374 47.52 509.468 48.991 T
521.28 47.52 515.374 47.52 515.374 47.9612 T
0 0 0 C
521.28 47.52 LS
515.374 47.9612 L
509.468 48.991 L
503.562 50.4934 L
497.656 52.0016 L
491.75 53.3959 L
485.844 55.8627 L
479.939 58.3519 L
474.033 60.1164 L
468.127 61.7795 L
462.221 64.2581 L
456.315 67.9069 L
450.409 71.2136 L
444.503 73.2823 L
438.597 73.5134 L
432.691 74.3873 L
426.785 71.3463 L
420.879 70.8081 L
414.973 72.5079 L
409.067 72 L
409.067 47.52 L
414.973 47.52 L
420.879 47.52 L
426.785 47.52 L
432.691 47.52 L
438.597 47.52 L
444.503 47.52 L
450.409 47.52 L
456.315 47.52 L
462.221 47.52 L
468.127 47.52 L
474.033 47.52 L
479.939 47.52 L
485.844 47.52 L
491.75 47.52 L
497.656 47.52 L
503.562 47.52 L
509.468 47.52 L
515.374 47.52 L
521.28 47.52 LE
3 W
1 LJ
409.067 95.1169 LS
414.973 96.3761 L
420.879 97.4536 L
426.785 97.9693 L
432.691 97.1357 L
438.597 96.1674 L
444.503 94.1582 L
450.409 91.4411 L
456.315 88.3354 L
462.221 85.0712 L
468.127 81.8036 L
474.033 78.6321 L
479.939 75.6178 L
485.844 72.7951 L
491.75 70.1805 L
497.656 67.7782 L
503.562 65.5848 L
509.468 63.5917 L
515.374 61.7874 L
521.28 60.1585 LE
grestore
grestore
showpage
cleartomark
%%PageTrailer
%%Trailer
end
%%EOF
