%!PS-Adobe-3.0 EPSF-3.0
%%Title: gl2ps_renderer figure
%%Creator: GL2PS 1.4.2, (C) 1999-2020 C. Geuzaine
%%For: Octave
%%CreationDate: Wed Oct  7 07:02:45 2020
%%LanguageLevel: 3
%%DocumentData: Clean7Bit
%%Pages: 1
%%BoundingBox: 0 0 576 432
%%EndComments
%%BeginProlog
/gl2psdict 64 dict def gl2psdict begin
/tryPS3shading false def % set to false to force subdivision
/rThreshold 0.064 def % red component subdivision threshold
/gThreshold 0.034 def % green component subdivision threshold
/bThreshold 0.1 def % blue component subdivision threshold
/BD { bind def } bind def
/C  { setrgbcolor } BD
/G  { 0.082 mul exch 0.6094 mul add exch 0.3086 mul add neg 1.0 add setgray } BD
/W  { setlinewidth } BD
/LC  { setlinecap } BD
/LJ  { setlinejoin } BD
/FC { findfont exch /SH exch def SH scalefont setfont } BD
/SW { dup stringwidth pop } BD
/S  { FC moveto show } BD
/SBC{ FC moveto SW -2 div 0 rmoveto show } BD
/SBR{ FC moveto SW neg 0 rmoveto show } BD
/SCL{ FC moveto 0 SH -2 div rmoveto show } BD
/SCC{ FC moveto SW -2 div SH -2 div rmoveto show } BD
/SCR{ FC moveto SW neg SH -2 div rmoveto show } BD
/STL{ FC moveto 0 SH neg rmoveto show } BD
/STC{ FC moveto SW -2 div SH neg rmoveto show } BD
/STR{ FC moveto SW neg SH neg rmoveto show } BD
/FCT { FC translate 0 0 } BD
/SR  { gsave FCT moveto rotate show grestore } BD
/SRX  { gsave FCT moveto rotate xshow grestore } BD
/SBCR{ gsave FCT moveto rotate SW -2 div 0 rmoveto show grestore } BD
/SBRR{ gsave FCT moveto rotate SW neg 0 rmoveto show grestore } BD
/SCLR{ gsave FCT moveto rotate 0 SH -2 div rmoveto show grestore} BD
/SCCR{ gsave FCT moveto rotate SW -2 div SH -2 div rmoveto show grestore} BD
/SCRR{ gsave FCT moveto rotate SW neg SH -2 div rmoveto show grestore} BD
/STLR{ gsave FCT moveto rotate 0 SH neg rmoveto show grestore } BD
/STCR{ gsave FCT moveto rotate SW -2 div SH neg rmoveto show grestore } BD
/STRR{ gsave FCT moveto rotate SW neg SH neg rmoveto show grestore } BD
/P  { newpath 0.0 360.0 arc closepath fill } BD
/LS { newpath moveto } BD
/L  { lineto } BD
/LE { lineto stroke } BD
/T  { newpath moveto lineto lineto closepath fill } BD
/STshfill {
      /b1 exch def /g1 exch def /r1 exch def /y1 exch def /x1 exch def
      /b2 exch def /g2 exch def /r2 exch def /y2 exch def /x2 exch def
      /b3 exch def /g3 exch def /r3 exch def /y3 exch def /x3 exch def
      gsave << /ShadingType 4 /ColorSpace [/DeviceRGB]
      /DataSource [ 0 x1 y1 r1 g1 b1 0 x2 y2 r2 g2 b2 0 x3 y3 r3 g3 b3 ] >>
      shfill grestore } BD
/Tm { 3 -1 roll 8 -1 roll 13 -1 roll add add 3 div
      3 -1 roll 7 -1 roll 11 -1 roll add add 3 div
      3 -1 roll 6 -1 roll 9 -1 roll add add 3 div C T } BD
/STsplit {
      4 index 15 index add 0.5 mul
      4 index 15 index add 0.5 mul
      4 index 15 index add 0.5 mul
      4 index 15 index add 0.5 mul
      4 index 15 index add 0.5 mul
      5 copy 5 copy 25 15 roll
      9 index 30 index add 0.5 mul
      9 index 30 index add 0.5 mul
      9 index 30 index add 0.5 mul
      9 index 30 index add 0.5 mul
      9 index 30 index add 0.5 mul
      5 copy 5 copy 35 5 roll 25 5 roll 15 5 roll
      4 index 10 index add 0.5 mul
      4 index 10 index add 0.5 mul
      4 index 10 index add 0.5 mul
      4 index 10 index add 0.5 mul
      4 index 10 index add 0.5 mul
      5 copy 5 copy 40 5 roll 25 5 roll 15 5 roll 25 5 roll
      STnoshfill STnoshfill STnoshfill STnoshfill } BD
/STnoshfill {
      2 index 8 index sub abs rThreshold gt
      { STsplit }
      { 1 index 7 index sub abs gThreshold gt
        { STsplit }
        { dup 6 index sub abs bThreshold gt
          { STsplit }
          { 2 index 13 index sub abs rThreshold gt
            { STsplit }
            { 1 index 12 index sub abs gThreshold gt
              { STsplit }
              { dup 11 index sub abs bThreshold gt
                { STsplit }
                { 7 index 13 index sub abs rThreshold gt
                  { STsplit }
                  { 6 index 12 index sub abs gThreshold gt
                    { STsplit }
                    { 5 index 11 index sub abs bThreshold gt
                      { STsplit }
                      { Tm }
                      ifelse }
                    ifelse }
                  ifelse }
                ifelse }
              ifelse }
            ifelse }
          ifelse }
        ifelse }
      ifelse } BD
tryPS3shading
{ /shfill where
  { /ST { STshfill } BD }
  { /ST { STnoshfill } BD }
  ifelse }
{ /ST { STnoshfill } BD }
ifelse
end
%%EndProlog
%%BeginSetup
/DeviceRGB setcolorspace
gl2psdict begin
%%EndSetup
%%Page: 1 1
%%BeginPageSetup
%%EndPageSetup
mark
gsave
1.0 1.0 scale
1 1 1 C
newpath 0 0 moveto 576 0 lineto 576 432 lineto 0 432 lineto
closepath fill
gsave
1.0 1.0 scale
1 1 1 C
newpath 0 0 moveto 576 0 lineto 576 432 lineto 0 432 lineto
closepath fill
newpath 0 0 moveto 576 0 lineto 576 432 lineto 0 432 lineto
closepath clip
1 1 1 C
74.88 386.841 187.093 312.427 74.88 312.427 T
74.88 386.841 187.093 386.841 187.093 312.427 T
0.5 W
0.15 0.15 0.15 C
98.5037 312.427 LS
98.5037 313.556 LE
98.5037 386.841 LS
98.5037 385.712 LE
128.033 312.427 LS
128.033 313.556 LE
128.033 386.841 LS
128.033 385.712 LE
157.563 312.427 LS
157.563 313.556 LE
157.563 386.841 LS
157.563 385.712 LE
187.093 312.427 LS
187.093 313.556 LE
187.093 386.841 LS
187.093 385.712 LE
gsave
0.14902 0.14902 0.14902 C
(5) [10] 0 95.5037 296.886 10 /Helvetica SRX
grestore

gsave
0.14902 0.14902 0.14902 C
(10) [6 10] 0 122.033 296.886 10 /Helvetica SRX
grestore

gsave
0.14902 0.14902 0.14902 C
(15) [6 10] 0 151.563 296.886 10 /Helvetica SRX
grestore

gsave
0.14902 0.14902 0.14902 C
(20) [6 10] 0 181.093 296.886 10 /Helvetica SRX
grestore

74.88 314.473 LS
76.0043 314.473 LE
187.093 314.473 LS
185.968 314.473 LE
74.88 328.633 LS
76.0043 328.633 LE
187.093 328.633 LS
185.968 328.633 LE
74.88 342.793 LS
76.0043 342.793 LE
187.093 342.793 LS
185.968 342.793 LE
74.88 356.954 LS
76.0043 356.954 LE
187.093 356.954 LS
185.968 356.954 LE
74.88 371.114 LS
76.0043 371.114 LE
187.093 371.114 LS
185.968 371.114 LE
74.88 385.274 LS
76.0043 385.274 LE
187.093 385.274 LS
185.968 385.274 LE
gsave
0.14902 0.14902 0.14902 C
(-0.003) [3 6 3 6 6 10] 0 39.8705 310.473 10 /Helvetica SRX
grestore

gsave
0.14902 0.14902 0.14902 C
(-0.002) [3 6 3 6 6 10] 0 39.8705 324.633 10 /Helvetica SRX
grestore

gsave
0.14902 0.14902 0.14902 C
(-0.001) [3 6 3 6 6 10] 0 39.8705 338.793 10 /Helvetica SRX
grestore

gsave
0.14902 0.14902 0.14902 C
(0) [10] 0 63.8705 352.954 10 /Helvetica SRX
grestore

gsave
0.14902 0.14902 0.14902 C
(0.001) [6 3 6 6 10] 0 42.8705 367.114 10 /Helvetica SRX
grestore

gsave
0.14902 0.14902 0.14902 C
(0.002) [6 3 6 6 10] 0 42.8705 381.274 10 /Helvetica SRX
grestore

2 LC
[16 0] 0 setdash
74.88 312.427 LS
187.093 312.427 LE
74.88 386.841 LS
187.093 386.841 LE
74.88 312.427 LS
74.88 386.841 LE
187.093 312.427 LS
187.093 386.841 LE
gsave
0 0 0 C
(Y_T_hat) [7 6 7 6 7 6 10] 0 109.486 398.841 11 /Helvetica-Bold SRX
grestore

0.9 0.9 0.9 C
74.88 312.427 74.88 350.238 80.7859 312.427 T
80.7859 347.828 80.7859 312.427 74.88 350.238 T
86.6918 312.427 80.7859 312.427 80.7859 347.828 T
86.6918 349.454 86.6918 312.427 80.7859 347.828 T
92.5978 312.427 86.6918 312.427 86.6918 349.454 T
92.5978 352.081 92.5978 312.427 86.6918 349.454 T
98.5037 312.427 92.5978 312.427 92.5978 352.081 T
98.5037 354.379 98.5037 312.427 92.5978 352.081 T
104.41 312.427 98.5037 312.427 98.5037 354.379 T
104.41 356.487 104.41 312.427 98.5037 354.379 T
110.316 312.427 104.41 312.427 104.41 356.487 T
110.316 358.595 110.316 312.427 104.41 356.487 T
116.221 312.427 110.316 312.427 110.316 358.595 T
116.221 361.906 116.221 312.427 110.316 358.595 T
122.127 312.427 116.221 312.427 116.221 361.906 T
122.127 364.91 122.127 312.427 116.221 361.906 T
128.033 312.427 122.127 312.427 122.127 364.91 T
128.033 367.463 128.033 312.427 122.127 364.91 T
133.939 312.427 128.033 312.427 128.033 367.463 T
133.939 370.407 133.939 312.427 128.033 367.463 T
139.845 312.427 133.939 312.427 133.939 370.407 T
139.845 373.637 139.845 312.427 133.939 370.407 T
145.751 312.427 139.845 312.427 139.845 373.637 T
145.751 376.57 145.751 312.427 139.845 373.637 T
151.657 312.427 145.751 312.427 145.751 376.57 T
151.657 378.29 151.657 312.427 145.751 376.57 T
157.563 312.427 151.657 312.427 151.657 378.29 T
157.563 380.553 157.563 312.427 151.657 378.29 T
163.469 312.427 157.563 312.427 157.563 380.553 T
163.469 383.214 163.469 312.427 157.563 380.553 T
169.375 312.427 163.469 312.427 163.469 383.214 T
169.375 383.434 169.375 312.427 163.469 383.214 T
175.281 312.427 169.375 312.427 169.375 383.434 T
175.281 385.206 175.281 312.427 169.375 383.434 T
181.187 312.427 175.281 312.427 175.281 385.206 T
181.187 385.851 181.187 312.427 175.281 385.206 T
187.093 312.427 181.187 312.427 181.187 385.851 T
187.093 386.841 187.093 312.427 181.187 385.851 T
0 LC
[] 0 setdash
0 0 0 C
187.093 386.841 LS
181.187 385.851 L
175.281 385.206 L
169.375 383.434 L
163.469 383.214 L
157.563 380.553 L
151.657 378.29 L
145.751 376.57 L
139.845 373.637 L
133.939 370.407 L
128.033 367.463 L
122.127 364.91 L
116.221 361.906 L
110.316 358.595 L
104.41 356.487 L
98.5037 354.379 L
92.5978 352.081 L
86.6918 349.454 L
80.7859 347.828 L
74.88 350.238 L
74.88 312.427 L
80.7859 312.427 L
86.6918 312.427 L
92.5978 312.427 L
98.5037 312.427 L
104.41 312.427 L
110.316 312.427 L
116.221 312.427 L
122.127 312.427 L
128.033 312.427 L
133.939 312.427 L
139.845 312.427 L
145.751 312.427 L
151.657 312.427 L
157.563 312.427 L
163.469 312.427 L
169.375 312.427 L
175.281 312.427 L
181.187 312.427 L
187.093 312.427 L
187.093 386.841 LE
1 1 1 C
86.6918 312.427 92.5978 316.127 92.5978 312.427 T
98.5037 312.427 92.5978 312.427 92.5978 316.127 T
98.5037 320.592 98.5037 312.427 92.5978 316.127 T
104.41 312.427 98.5037 312.427 98.5037 320.592 T
104.41 326.256 104.41 312.427 98.5037 320.592 T
110.316 312.427 104.41 312.427 104.41 326.256 T
110.316 331.759 110.316 312.427 104.41 326.256 T
116.221 312.427 110.316 312.427 110.316 331.759 T
116.221 336.992 116.221 312.427 110.316 331.759 T
122.127 312.427 116.221 312.427 116.221 336.992 T
122.127 341.73 122.127 312.427 116.221 336.992 T
128.033 312.427 122.127 312.427 122.127 341.73 T
128.033 345.236 128.033 312.427 122.127 341.73 T
133.939 312.427 128.033 312.427 128.033 345.236 T
133.939 348.865 133.939 312.427 128.033 345.236 T
139.845 312.427 133.939 312.427 133.939 348.865 T
139.845 352.731 139.845 312.427 133.939 348.865 T
145.751 312.427 139.845 312.427 139.845 352.731 T
145.751 356.111 145.751 312.427 139.845 352.731 T
151.657 312.427 145.751 312.427 145.751 356.111 T
151.657 358.068 151.657 312.427 145.751 356.111 T
157.563 312.427 151.657 312.427 151.657 358.068 T
157.563 360.453 157.563 312.427 151.657 358.068 T
163.469 312.427 157.563 312.427 157.563 360.453 T
163.469 362.405 163.469 312.427 157.563 360.453 T
169.375 312.427 163.469 312.427 163.469 362.405 T
169.375 362.029 169.375 312.427 163.469 362.405 T
175.281 312.427 169.375 312.427 169.375 362.029 T
175.281 363.064 175.281 312.427 169.375 362.029 T
181.187 312.427 175.281 312.427 175.281 363.064 T
181.187 363.177 181.187 312.427 175.281 363.064 T
187.093 312.427 181.187 312.427 181.187 363.177 T
187.093 363.267 187.093 312.427 181.187 363.177 T
74.88 312.427 74.88 324.189 80.7859 312.427 T
80.7859 313.049 80.7859 312.427 74.88 324.189 T
86.6918 312.427 80.7859 312.427 80.7859 313.049 T
0 0 0 C
86.6918 312.427 LS
80.7859 313.049 L
74.88 324.189 L
74.88 312.427 L
80.7859 312.427 L
86.6918 312.427 LE
187.093 363.267 LS
181.187 363.177 L
175.281 363.064 L
169.375 362.029 L
163.469 362.405 L
157.563 360.453 L
151.657 358.068 L
145.751 356.111 L
139.845 352.731 L
133.939 348.865 L
128.033 345.236 L
122.127 341.73 L
116.221 336.992 L
110.316 331.759 L
104.41 326.256 L
98.5037 320.592 L
92.5978 316.127 L
86.6918 312.427 L
92.5978 312.427 L
98.5037 312.427 L
104.41 312.427 L
110.316 312.427 L
116.221 312.427 L
122.127 312.427 L
128.033 312.427 L
133.939 312.427 L
139.845 312.427 L
145.751 312.427 L
151.657 312.427 L
157.563 312.427 L
163.469 312.427 L
169.375 312.427 L
175.281 312.427 L
181.187 312.427 L
187.093 312.427 L
187.093 363.267 LE
3 W
1 LJ
74.88 336.513 LS
80.7859 330.328 L
86.6918 330.115 L
92.5978 332.685 L
98.5037 336.538 L
104.41 340.88 L
110.316 345.274 L
116.221 349.482 L
122.127 353.383 L
128.033 356.923 L
133.939 360.092 L
139.845 362.899 L
145.751 365.368 L
151.657 367.527 L
157.563 369.407 L
163.469 371.039 L
169.375 372.45 L
175.281 373.668 L
181.187 374.716 L
187.093 375.615 LE
grestore
gsave
1.0 1.0 scale
newpath 0 0 moveto 576 0 lineto 576 432 lineto 0 432 lineto
closepath clip
1 1 1 C
241.974 386.841 354.186 312.427 241.974 312.427 T
241.974 386.841 354.186 386.841 354.186 312.427 T
0.5 W
0.15 0.15 0.15 C
265.597 312.427 LS
265.597 313.556 LE
265.597 386.841 LS
265.597 385.712 LE
295.127 312.427 LS
295.127 313.556 LE
295.127 386.841 LS
295.127 385.712 LE
324.657 312.427 LS
324.657 313.556 LE
324.657 386.841 LS
324.657 385.712 LE
354.186 312.427 LS
354.186 313.556 LE
354.186 386.841 LS
354.186 385.712 LE
gsave
0.14902 0.14902 0.14902 C
(5) [10] 0 262.597 296.886 10 /Helvetica SRX
grestore

gsave
0.14902 0.14902 0.14902 C
(10) [6 10] 0 289.127 296.886 10 /Helvetica SRX
grestore

gsave
0.14902 0.14902 0.14902 C
(15) [6 10] 0 318.657 296.886 10 /Helvetica SRX
grestore

gsave
0.14902 0.14902 0.14902 C
(20) [6 10] 0 348.186 296.886 10 /Helvetica SRX
grestore

241.974 323.43 LS
243.098 323.43 LE
354.186 323.43 LS
353.062 323.43 LE
241.974 340.487 LS
243.098 340.487 LE
354.186 340.487 LS
353.062 340.487 LE
241.974 357.544 LS
243.098 357.544 LE
354.186 357.544 LS
353.062 357.544 LE
241.974 374.602 LS
243.098 374.602 LE
354.186 374.602 LS
353.062 374.602 LE
gsave
0.14902 0.14902 0.14902 C
(0.001) [6 3 6 6 10] 0 209.964 319.43 10 /Helvetica SRX
grestore

gsave
0.14902 0.14902 0.14902 C
(0.002) [6 3 6 6 10] 0 209.964 336.487 10 /Helvetica SRX
grestore

gsave
0.14902 0.14902 0.14902 C
(0.003) [6 3 6 6 10] 0 209.964 353.544 10 /Helvetica SRX
grestore

gsave
0.14902 0.14902 0.14902 C
(0.004) [6 3 6 6 10] 0 209.964 370.602 10 /Helvetica SRX
grestore

2 LC
[16 0] 0 setdash
241.974 312.427 LS
354.186 312.427 LE
241.974 386.841 LS
354.186 386.841 LE
241.974 312.427 LS
241.974 386.841 LE
354.186 312.427 LS
354.186 386.841 LE
gsave
0 0 0 C
(Y_N_hat) [7 6 8 6 7 6 10] 0 276.08 398.841 11 /Helvetica-Bold SRX
grestore

0.9 0.9 0.9 C
241.974 312.427 241.974 334.705 247.88 312.427 T
247.88 354.86 247.88 312.427 241.974 334.705 T
253.786 312.427 247.88 312.427 247.88 354.86 T
253.786 367.486 253.786 312.427 247.88 354.86 T
259.691 312.427 253.786 312.427 253.786 367.486 T
259.691 376.002 259.691 312.427 253.786 367.486 T
265.597 312.427 259.691 312.427 259.691 376.002 T
265.597 382.326 265.597 312.427 259.691 376.002 T
271.503 312.427 265.597 312.427 265.597 382.326 T
271.503 384.755 271.503 312.427 265.597 382.326 T
277.409 312.427 271.503 312.427 271.503 384.755 T
277.409 386.14 277.409 312.427 271.503 384.755 T
283.315 312.427 277.409 312.427 277.409 386.14 T
283.315 386.525 283.315 312.427 277.409 386.14 T
289.221 312.427 283.315 312.427 283.315 386.525 T
289.221 386.841 289.221 312.427 283.315 386.525 T
295.127 312.427 289.221 312.427 289.221 386.841 T
295.127 386.169 295.127 312.427 289.221 386.841 T
301.033 312.427 295.127 312.427 295.127 386.169 T
301.033 385.749 301.033 312.427 295.127 386.169 T
306.939 312.427 301.033 312.427 301.033 385.749 T
306.939 384.826 306.939 312.427 301.033 385.749 T
312.845 312.427 306.939 312.427 306.939 384.826 T
312.845 384 312.845 312.427 306.939 384.826 T
318.751 312.427 312.845 312.427 312.845 384 T
318.751 382.028 318.751 312.427 312.845 384 T
324.657 312.427 318.751 312.427 318.751 382.028 T
324.657 381.065 324.657 312.427 318.751 382.028 T
330.563 312.427 324.657 312.427 324.657 381.065 T
330.563 380.37 330.563 312.427 324.657 381.065 T
336.469 312.427 330.563 312.427 330.563 380.37 T
336.469 379.366 336.469 312.427 330.563 380.37 T
342.374 312.427 336.469 312.427 336.469 379.366 T
342.374 378.095 342.374 312.427 336.469 379.366 T
348.28 312.427 342.374 312.427 342.374 378.095 T
348.28 377.16 348.28 312.427 342.374 378.095 T
354.186 312.427 348.28 312.427 348.28 377.16 T
354.186 376.749 354.186 312.427 348.28 377.16 T
0 LC
[] 0 setdash
0 0 0 C
354.186 376.749 LS
348.28 377.16 L
342.374 378.095 L
336.469 379.366 L
330.563 380.37 L
324.657 381.065 L
318.751 382.028 L
312.845 384 L
306.939 384.826 L
301.033 385.749 L
295.127 386.169 L
289.221 386.841 L
283.315 386.525 L
277.409 386.14 L
271.503 384.755 L
265.597 382.326 L
259.691 376.002 L
253.786 367.486 L
247.88 354.86 L
241.974 334.705 L
241.974 312.427 L
247.88 312.427 L
253.786 312.427 L
259.691 312.427 L
265.597 312.427 L
271.503 312.427 L
277.409 312.427 L
283.315 312.427 L
289.221 312.427 L
295.127 312.427 L
301.033 312.427 L
306.939 312.427 L
312.845 312.427 L
318.751 312.427 L
324.657 312.427 L
330.563 312.427 L
336.469 312.427 L
342.374 312.427 L
348.28 312.427 L
354.186 312.427 L
354.186 376.749 LE
1 1 1 C
241.974 312.427 247.88 316.732 247.88 312.427 T
253.786 312.427 247.88 312.427 247.88 316.732 T
253.786 318.952 253.786 312.427 247.88 316.732 T
259.691 312.427 253.786 312.427 253.786 318.952 T
259.691 320.488 259.691 312.427 253.786 318.952 T
265.597 312.427 259.691 312.427 259.691 320.488 T
265.597 321.785 265.597 312.427 259.691 320.488 T
271.503 312.427 265.597 312.427 265.597 321.785 T
271.503 321.147 271.503 312.427 265.597 321.785 T
277.409 312.427 271.503 312.427 271.503 321.147 T
277.409 321.069 277.409 312.427 271.503 321.147 T
283.315 312.427 277.409 312.427 277.409 321.069 T
283.315 320.364 283.315 312.427 277.409 321.069 T
289.221 312.427 283.315 312.427 283.315 320.364 T
289.221 320.025 289.221 312.427 283.315 320.364 T
295.127 312.427 289.221 312.427 289.221 320.025 T
295.127 319.591 295.127 312.427 289.221 320.025 T
301.033 312.427 295.127 312.427 295.127 319.591 T
301.033 319.53 301.033 312.427 295.127 319.591 T
306.939 312.427 301.033 312.427 301.033 319.53 T
306.939 319.235 306.939 312.427 301.033 319.53 T
312.845 312.427 306.939 312.427 306.939 319.235 T
312.845 319.035 312.845 312.427 306.939 319.235 T
318.751 312.427 312.845 312.427 312.845 319.035 T
318.751 317.755 318.751 312.427 312.845 319.035 T
324.657 312.427 318.751 312.427 318.751 317.755 T
324.657 317.683 324.657 312.427 318.751 317.755 T
330.563 312.427 324.657 312.427 324.657 317.683 T
330.563 317.935 330.563 312.427 324.657 317.683 T
336.469 312.427 330.563 312.427 330.563 317.935 T
336.469 317.845 336.469 312.427 330.563 317.935 T
342.374 312.427 336.469 312.427 336.469 317.845 T
342.374 317.389 342.374 312.427 336.469 317.845 T
348.28 312.427 342.374 312.427 342.374 317.389 T
348.28 317.347 348.28 312.427 342.374 317.389 T
354.186 312.427 348.28 312.427 348.28 317.347 T
354.186 317.629 354.186 312.427 348.28 317.347 T
0 0 0 C
354.186 317.629 LS
348.28 317.347 L
342.374 317.389 L
336.469 317.845 L
330.563 317.935 L
324.657 317.683 L
318.751 317.755 L
312.845 319.035 L
306.939 319.235 L
301.033 319.53 L
295.127 319.591 L
289.221 320.025 L
283.315 320.364 L
277.409 321.069 L
271.503 321.147 L
265.597 321.785 L
259.691 320.488 L
253.786 318.952 L
247.88 316.732 L
241.974 312.427 L
247.88 312.427 L
253.786 312.427 L
259.691 312.427 L
265.597 312.427 L
271.503 312.427 L
277.409 312.427 L
283.315 312.427 L
289.221 312.427 L
295.127 312.427 L
301.033 312.427 L
306.939 312.427 L
312.845 312.427 L
318.751 312.427 L
324.657 312.427 L
330.563 312.427 L
336.469 312.427 L
342.374 312.427 L
348.28 312.427 L
354.186 312.427 L
354.186 317.629 LE
3 W
1 LJ
241.974 324.226 LS
247.88 337.178 L
253.786 345.268 L
259.691 350.059 L
265.597 352.653 L
271.503 353.825 L
277.409 354.106 L
283.315 353.856 L
289.221 353.308 L
295.127 352.612 L
301.033 351.861 L
306.939 351.107 L
312.845 350.383 L
318.751 349.703 L
324.657 349.072 L
330.563 348.49 L
336.469 347.954 L
342.374 347.461 L
348.28 347.003 L
354.186 346.578 LE
grestore
gsave
1.0 1.0 scale
newpath 0 0 moveto 576 0 lineto 576 432 lineto 0 432 lineto
closepath clip
1 1 1 C
409.067 386.841 521.28 312.427 409.067 312.427 T
409.067 386.841 521.28 386.841 521.28 312.427 T
0.5 W
0.15 0.15 0.15 C
432.691 312.427 LS
432.691 313.556 LE
432.691 386.841 LS
432.691 385.712 LE
462.221 312.427 LS
462.221 313.556 LE
462.221 386.841 LS
462.221 385.712 LE
491.75 312.427 LS
491.75 313.556 LE
491.75 386.841 LS
491.75 385.712 LE
521.28 312.427 LS
521.28 313.556 LE
521.28 386.841 LS
521.28 385.712 LE
gsave
0.14902 0.14902 0.14902 C
(5) [10] 0 429.691 296.886 10 /Helvetica SRX
grestore

gsave
0.14902 0.14902 0.14902 C
(10) [6 10] 0 456.221 296.886 10 /Helvetica SRX
grestore

gsave
0.14902 0.14902 0.14902 C
(15) [6 10] 0 485.75 296.886 10 /Helvetica SRX
grestore

gsave
0.14902 0.14902 0.14902 C
(20) [6 10] 0 515.28 296.886 10 /Helvetica SRX
grestore

409.067 325.752 LS
410.192 325.752 LE
521.28 325.752 LS
520.156 325.752 LE
409.067 339.398 LS
410.192 339.398 LE
521.28 339.398 LS
520.156 339.398 LE
409.067 353.044 LS
410.192 353.044 LE
521.28 353.044 LS
520.156 353.044 LE
409.067 366.691 LS
410.192 366.691 LE
521.28 366.691 LS
520.156 366.691 LE
409.067 380.337 LS
410.192 380.337 LE
521.28 380.337 LS
520.156 380.337 LE
gsave
0.14902 0.14902 0.14902 C
(0.02) [6 3 6 10] 0 383.058 321.752 10 /Helvetica SRX
grestore

gsave
0.14902 0.14902 0.14902 C
(0.04) [6 3 6 10] 0 383.058 335.398 10 /Helvetica SRX
grestore

gsave
0.14902 0.14902 0.14902 C
(0.06) [6 3 6 10] 0 383.058 349.044 10 /Helvetica SRX
grestore

gsave
0.14902 0.14902 0.14902 C
(0.08) [6 3 6 10] 0 383.058 362.691 10 /Helvetica SRX
grestore

gsave
0.14902 0.14902 0.14902 C
(0.1) [6 3 10] 0 389.058 376.337 10 /Helvetica SRX
grestore

2 LC
[16 0] 0 setdash
409.067 312.427 LS
521.28 312.427 LE
409.067 386.841 LS
521.28 386.841 LE
409.067 312.427 LS
409.067 386.841 LE
521.28 312.427 LS
521.28 386.841 LE
gsave
0 0 0 C
(Y_C_hat) [7 6 8 6 7 6 10] 0 443.174 398.841 11 /Helvetica-Bold SRX
grestore

0.9 0.9 0.9 C
409.067 312.427 409.067 386.841 414.973 312.427 T
414.973 379.396 414.973 312.427 409.067 386.841 T
420.879 312.427 414.973 312.427 414.973 379.396 T
420.879 370.844 420.879 312.427 414.973 379.396 T
426.785 312.427 420.879 312.427 420.879 370.844 T
426.785 365.316 426.785 312.427 420.879 370.844 T
432.691 312.427 426.785 312.427 426.785 365.316 T
432.691 359.317 432.691 312.427 426.785 365.316 T
438.597 312.427 432.691 312.427 432.691 359.317 T
438.597 355.494 438.597 312.427 432.691 359.317 T
444.503 312.427 438.597 312.427 438.597 355.494 T
444.503 349.347 444.503 312.427 438.597 355.494 T
450.409 312.427 444.503 312.427 444.503 349.347 T
450.409 345.151 450.409 312.427 444.503 349.347 T
456.315 312.427 450.409 312.427 450.409 345.151 T
456.315 341.515 456.315 312.427 450.409 345.151 T
462.221 312.427 456.315 312.427 456.315 341.515 T
462.221 338.316 462.221 312.427 456.315 341.515 T
468.127 312.427 462.221 312.427 462.221 338.316 T
468.127 335.153 468.127 312.427 462.221 338.316 T
474.033 312.427 468.127 312.427 468.127 335.153 T
474.033 332.75 474.033 312.427 468.127 335.153 T
479.939 312.427 474.033 312.427 474.033 332.75 T
479.939 330.425 479.939 312.427 474.033 332.75 T
485.844 312.427 479.939 312.427 479.939 330.425 T
485.844 328.434 485.844 312.427 479.939 330.425 T
491.75 312.427 485.844 312.427 485.844 328.434 T
491.75 326.741 491.75 312.427 485.844 328.434 T
497.656 312.427 491.75 312.427 491.75 326.741 T
497.656 325.346 497.656 312.427 491.75 326.741 T
503.562 312.427 497.656 312.427 497.656 325.346 T
503.562 324.197 503.562 312.427 497.656 325.346 T
509.468 312.427 503.562 312.427 503.562 324.197 T
509.468 323.192 509.468 312.427 503.562 324.197 T
515.374 312.427 509.468 312.427 509.468 323.192 T
515.374 322.297 515.374 312.427 509.468 323.192 T
521.28 312.427 515.374 312.427 515.374 322.297 T
521.28 321.515 521.28 312.427 515.374 322.297 T
0 LC
[] 0 setdash
0 0 0 C
521.28 321.515 LS
515.374 322.297 L
509.468 323.192 L
503.562 324.197 L
497.656 325.346 L
491.75 326.741 L
485.844 328.434 L
479.939 330.425 L
474.033 332.75 L
468.127 335.153 L
462.221 338.316 L
456.315 341.515 L
450.409 345.151 L
444.503 349.347 L
438.597 355.494 L
432.691 359.317 L
426.785 365.316 L
420.879 370.844 L
414.973 379.396 L
409.067 386.841 L
409.067 312.427 L
414.973 312.427 L
420.879 312.427 L
426.785 312.427 L
432.691 312.427 L
438.597 312.427 L
444.503 312.427 L
450.409 312.427 L
456.315 312.427 L
462.221 312.427 L
468.127 312.427 L
474.033 312.427 L
479.939 312.427 L
485.844 312.427 L
491.75 312.427 L
497.656 312.427 L
503.562 312.427 L
509.468 312.427 L
515.374 312.427 L
521.28 312.427 L
521.28 321.515 LE
1 1 1 C
503.562 312.427 509.468 312.465 509.468 312.427 T
515.374 312.427 509.468 312.427 509.468 312.465 T
515.374 312.451 515.374 312.427 509.468 312.465 T
521.28 312.427 515.374 312.427 515.374 312.451 T
521.28 312.487 521.28 312.427 515.374 312.451 T
409.067 312.427 409.067 336.243 414.973 312.427 T
414.973 332.16 414.973 312.427 409.067 336.243 T
420.879 312.427 414.973 312.427 414.973 332.16 T
420.879 324.798 420.879 312.427 414.973 332.16 T
426.785 312.427 420.879 312.427 420.879 324.798 T
426.785 321.357 426.785 312.427 420.879 324.798 T
432.691 312.427 426.785 312.427 426.785 321.357 T
432.691 317.578 432.691 312.427 426.785 321.357 T
438.597 312.427 432.691 312.427 432.691 317.578 T
438.597 317.085 438.597 312.427 432.691 317.578 T
444.503 312.427 438.597 312.427 438.597 317.085 T
444.503 314.637 444.503 312.427 438.597 317.085 T
450.409 312.427 444.503 312.427 444.503 314.637 T
450.409 314.015 450.409 312.427 444.503 314.637 T
456.315 312.427 450.409 312.427 450.409 314.015 T
456.315 313.603 456.315 312.427 450.409 314.015 T
462.221 312.427 456.315 312.427 456.315 313.603 T
462.221 313.393 462.221 312.427 456.315 313.603 T
468.127 312.427 462.221 312.427 462.221 313.393 T
468.127 312.99 468.127 312.427 462.221 313.393 T
474.033 312.427 468.127 312.427 468.127 312.99 T
474.033 312.861 474.033 312.427 468.127 312.99 T
479.939 312.427 474.033 312.427 474.033 312.861 T
479.939 312.669 479.939 312.427 474.033 312.861 T
485.844 312.427 479.939 312.427 479.939 312.669 T
485.844 312.554 485.844 312.427 479.939 312.669 T
491.75 312.427 485.844 312.427 485.844 312.554 T
491.75 312.521 491.75 312.427 485.844 312.554 T
497.656 312.427 491.75 312.427 491.75 312.521 T
497.656 312.446 497.656 312.427 491.75 312.521 T
503.562 312.427 497.656 312.427 497.656 312.446 T
0 0 0 C
503.562 312.427 LS
497.656 312.446 L
491.75 312.521 L
485.844 312.554 L
479.939 312.669 L
474.033 312.861 L
468.127 312.99 L
462.221 313.393 L
456.315 313.603 L
450.409 314.015 L
444.503 314.637 L
438.597 317.085 L
432.691 317.578 L
426.785 321.357 L
420.879 324.798 L
414.973 332.16 L
409.067 336.243 L
409.067 312.427 L
414.973 312.427 L
420.879 312.427 L
426.785 312.427 L
432.691 312.427 L
438.597 312.427 L
444.503 312.427 L
450.409 312.427 L
456.315 312.427 L
462.221 312.427 L
468.127 312.427 L
474.033 312.427 L
479.939 312.427 L
485.844 312.427 L
491.75 312.427 L
497.656 312.427 L
503.562 312.427 LE
521.28 312.487 LS
515.374 312.451 L
509.468 312.465 L
503.562 312.427 L
509.468 312.427 L
515.374 312.427 L
521.28 312.427 L
521.28 312.487 LE
3 W
1 LJ
409.067 363.185 LS
414.973 356.662 L
420.879 350.602 L
426.785 345.183 L
432.691 340.449 L
438.597 336.379 L
444.503 332.916 L
450.409 329.991 L
456.315 327.531 L
462.221 325.468 L
468.127 323.742 L
474.033 322.299 L
479.939 321.092 L
485.844 320.081 L
491.75 319.234 L
497.656 318.522 L
503.562 317.923 L
509.468 317.417 L
515.374 316.988 L
521.28 316.623 LE
grestore
gsave
1.0 1.0 scale
newpath 0 0 moveto 576 0 lineto 576 432 lineto 0 432 lineto
closepath clip
1 1 1 C
74.88 254.387 187.093 179.974 74.88 179.974 T
74.88 254.387 187.093 254.387 187.093 179.974 T
0.5 W
0.15 0.15 0.15 C
98.5037 179.974 LS
98.5037 181.102 LE
98.5037 254.387 LS
98.5037 253.258 LE
128.033 179.974 LS
128.033 181.102 LE
128.033 254.387 LS
128.033 253.258 LE
157.563 179.974 LS
157.563 181.102 LE
157.563 254.387 LS
157.563 253.258 LE
187.093 179.974 LS
187.093 181.102 LE
187.093 254.387 LS
187.093 253.258 LE
gsave
0.14902 0.14902 0.14902 C
(5) [10] 0 95.5037 164.432 10 /Helvetica SRX
grestore

gsave
0.14902 0.14902 0.14902 C
(10) [6 10] 0 122.033 164.432 10 /Helvetica SRX
grestore

gsave
0.14902 0.14902 0.14902 C
(15) [6 10] 0 151.563 164.432 10 /Helvetica SRX
grestore

gsave
0.14902 0.14902 0.14902 C
(20) [6 10] 0 181.093 164.432 10 /Helvetica SRX
grestore

74.88 183.967 LS
76.0043 183.967 LE
187.093 183.967 LS
185.968 183.967 LE
74.88 195.383 LS
76.0043 195.383 LE
187.093 195.383 LS
185.968 195.383 LE
74.88 206.799 LS
76.0043 206.799 LE
187.093 206.799 LS
185.968 206.799 LE
74.88 218.215 LS
76.0043 218.215 LE
187.093 218.215 LS
185.968 218.215 LE
74.88 229.63 LS
76.0043 229.63 LE
187.093 229.63 LS
185.968 229.63 LE
74.88 241.046 LS
76.0043 241.046 LE
187.093 241.046 LS
185.968 241.046 LE
74.88 252.462 LS
76.0043 252.462 LE
187.093 252.462 LS
185.968 252.462 LE
gsave
0.14902 0.14902 0.14902 C
(-0.005) [3 6 3 6 6 10] 0 39.8705 179.967 10 /Helvetica SRX
grestore

gsave
0.14902 0.14902 0.14902 C
(-0.004) [3 6 3 6 6 10] 0 39.8705 191.383 10 /Helvetica SRX
grestore

gsave
0.14902 0.14902 0.14902 C
(-0.003) [3 6 3 6 6 10] 0 39.8705 202.799 10 /Helvetica SRX
grestore

gsave
0.14902 0.14902 0.14902 C
(-0.002) [3 6 3 6 6 10] 0 39.8705 214.215 10 /Helvetica SRX
grestore

gsave
0.14902 0.14902 0.14902 C
(-0.001) [3 6 3 6 6 10] 0 39.8705 225.63 10 /Helvetica SRX
grestore

gsave
0.14902 0.14902 0.14902 C
(0) [10] 0 63.8705 237.046 10 /Helvetica SRX
grestore

gsave
0.14902 0.14902 0.14902 C
(0.001) [6 3 6 6 10] 0 42.8705 248.462 10 /Helvetica SRX
grestore

2 LC
[16 0] 0 setdash
74.88 179.974 LS
187.093 179.974 LE
74.88 254.387 LS
187.093 254.387 LE
74.88 179.974 LS
74.88 254.387 LE
187.093 179.974 LS
187.093 254.387 LE
gsave
0 0 0 C
(L_T_hat) [7 6 7 6 7 6 10] 0 109.486 266.387 11 /Helvetica-Bold SRX
grestore

0.9 0.9 0.9 C
74.88 179.974 74.88 232.475 80.7859 179.974 T
80.7859 228.703 80.7859 179.974 74.88 232.475 T
86.6918 179.974 80.7859 179.974 80.7859 228.703 T
86.6918 228.649 86.6918 179.974 80.7859 228.703 T
92.5978 179.974 86.6918 179.974 86.6918 228.649 T
92.5978 232.402 92.5978 179.974 86.6918 228.649 T
98.5037 179.974 92.5978 179.974 92.5978 232.402 T
98.5037 234.084 98.5037 179.974 92.5978 232.402 T
104.41 179.974 98.5037 179.974 98.5037 234.084 T
104.41 235.96 104.41 179.974 98.5037 234.084 T
110.316 179.974 104.41 179.974 104.41 235.96 T
110.316 238.819 110.316 179.974 104.41 235.96 T
116.221 179.974 110.316 179.974 110.316 238.819 T
116.221 240.116 116.221 179.974 110.316 238.819 T
122.127 179.974 116.221 179.974 116.221 240.116 T
122.127 241.251 122.127 179.974 116.221 240.116 T
128.033 179.974 122.127 179.974 122.127 241.251 T
128.033 242.314 128.033 179.974 122.127 241.251 T
133.939 179.974 128.033 179.974 128.033 242.314 T
133.939 244.016 133.939 179.974 128.033 242.314 T
139.845 179.974 133.939 179.974 133.939 244.016 T
139.845 244.998 139.845 179.974 133.939 244.016 T
145.751 179.974 139.845 179.974 139.845 244.998 T
145.751 246.938 145.751 179.974 139.845 244.998 T
151.657 179.974 145.751 179.974 145.751 246.938 T
151.657 248.672 151.657 179.974 145.751 246.938 T
157.563 179.974 151.657 179.974 151.657 248.672 T
157.563 249.222 157.563 179.974 151.657 248.672 T
163.469 179.974 157.563 179.974 157.563 249.222 T
163.469 250.344 163.469 179.974 157.563 249.222 T
169.375 179.974 163.469 179.974 163.469 250.344 T
169.375 251.652 169.375 179.974 163.469 250.344 T
175.281 179.974 169.375 179.974 169.375 251.652 T
175.281 253.412 175.281 179.974 169.375 251.652 T
181.187 179.974 175.281 179.974 175.281 253.412 T
181.187 254.086 181.187 179.974 175.281 253.412 T
187.093 179.974 181.187 179.974 181.187 254.086 T
187.093 254.387 187.093 179.974 181.187 254.086 T
0 LC
[] 0 setdash
0 0 0 C
187.093 254.387 LS
181.187 254.086 L
175.281 253.412 L
169.375 251.652 L
163.469 250.344 L
157.563 249.222 L
151.657 248.672 L
145.751 246.938 L
139.845 244.998 L
133.939 244.016 L
128.033 242.314 L
122.127 241.251 L
116.221 240.116 L
110.316 238.819 L
104.41 235.96 L
98.5037 234.084 L
92.5978 232.402 L
86.6918 228.649 L
80.7859 228.703 L
74.88 232.475 L
74.88 179.974 L
80.7859 179.974 L
86.6918 179.974 L
92.5978 179.974 L
98.5037 179.974 L
104.41 179.974 L
110.316 179.974 L
116.221 179.974 L
122.127 179.974 L
128.033 179.974 L
133.939 179.974 L
139.845 179.974 L
145.751 179.974 L
151.657 179.974 L
157.563 179.974 L
163.469 179.974 L
169.375 179.974 L
175.281 179.974 L
181.187 179.974 L
187.093 179.974 L
187.093 254.387 LE
1 1 1 C
86.6918 179.974 92.5978 183.823 92.5978 179.974 T
98.5037 179.974 92.5978 179.974 92.5978 183.823 T
98.5037 188.024 98.5037 179.974 92.5978 183.823 T
104.41 179.974 98.5037 179.974 98.5037 188.024 T
104.41 193.296 104.41 179.974 98.5037 188.024 T
110.316 179.974 104.41 179.974 104.41 193.296 T
110.316 200.537 110.316 179.974 104.41 193.296 T
116.221 179.974 110.316 179.974 110.316 200.537 T
116.221 205.729 116.221 179.974 110.316 200.537 T
122.127 179.974 116.221 179.974 116.221 205.729 T
122.127 211.031 122.127 179.974 116.221 205.729 T
128.033 179.974 122.127 179.974 122.127 211.031 T
128.033 215.696 128.033 179.974 122.127 211.031 T
133.939 179.974 128.033 179.974 128.033 215.696 T
133.939 220.577 133.939 179.974 128.033 215.696 T
139.845 179.974 133.939 179.974 133.939 220.577 T
139.845 223.738 139.845 179.974 133.939 220.577 T
145.751 179.974 139.845 179.974 139.845 223.738 T
145.751 227.829 145.751 179.974 139.845 223.738 T
151.657 179.974 145.751 179.974 145.751 227.829 T
151.657 231.194 151.657 179.974 145.751 227.829 T
157.563 179.974 151.657 179.974 151.657 231.194 T
157.563 233.283 157.563 179.974 151.657 231.194 T
163.469 179.974 157.563 179.974 157.563 233.283 T
163.469 235.812 163.469 179.974 157.563 233.283 T
169.375 179.974 163.469 179.974 163.469 235.812 T
169.375 237.858 169.375 179.974 163.469 235.812 T
175.281 179.974 169.375 179.974 169.375 237.858 T
175.281 240.177 175.281 179.974 169.375 237.858 T
181.187 179.974 175.281 179.974 175.281 240.177 T
181.187 241.541 181.187 179.974 175.281 240.177 T
187.093 179.974 181.187 179.974 181.187 241.541 T
187.093 242.402 187.093 179.974 181.187 241.541 T
74.88 179.974 74.88 199.223 80.7859 179.974 T
80.7859 183.436 80.7859 179.974 74.88 199.223 T
86.6918 179.974 80.7859 179.974 80.7859 183.436 T
0 0 0 C
86.6918 179.974 LS
80.7859 183.436 L
74.88 199.223 L
74.88 179.974 L
80.7859 179.974 L
86.6918 179.974 LE
187.093 242.402 LS
181.187 241.541 L
175.281 240.177 L
169.375 237.858 L
163.469 235.812 L
157.563 233.283 L
151.657 231.194 L
145.751 227.829 L
139.845 223.738 L
133.939 220.577 L
128.033 215.696 L
122.127 211.031 L
116.221 205.729 L
110.316 200.537 L
104.41 193.296 L
98.5037 188.024 L
92.5978 183.823 L
86.6918 179.974 L
92.5978 179.974 L
98.5037 179.974 L
104.41 179.974 L
110.316 179.974 L
116.221 179.974 L
122.127 179.974 L
128.033 179.974 L
133.939 179.974 L
139.845 179.974 L
145.751 179.974 L
151.657 179.974 L
157.563 179.974 L
163.469 179.974 L
169.375 179.974 L
175.281 179.974 L
181.187 179.974 L
187.093 179.974 L
187.093 242.402 LE
3 W
1 LJ
74.88 214.954 LS
80.7859 205.816 L
86.6918 204.184 L
92.5978 206.052 L
98.5037 209.558 L
104.41 213.729 L
110.316 218.033 L
116.221 222.181 L
122.127 226.03 L
128.033 229.516 L
133.939 232.623 L
139.845 235.362 L
145.751 237.76 L
151.657 239.847 L
157.563 241.656 L
163.469 243.22 L
169.375 244.57 L
175.281 245.732 L
181.187 246.733 L
187.093 247.592 LE
grestore
gsave
1.0 1.0 scale
newpath 0 0 moveto 576 0 lineto 576 432 lineto 0 432 lineto
closepath clip
1 1 1 C
241.974 254.387 354.186 179.974 241.974 179.974 T
241.974 254.387 354.186 254.387 354.186 179.974 T
0.5 W
0.15 0.15 0.15 C
265.597 179.974 LS
265.597 181.102 LE
265.597 254.387 LS
265.597 253.258 LE
295.127 179.974 LS
295.127 181.102 LE
295.127 254.387 LS
295.127 253.258 LE
324.657 179.974 LS
324.657 181.102 LE
324.657 254.387 LS
324.657 253.258 LE
354.186 179.974 LS
354.186 181.102 LE
354.186 254.387 LS
354.186 253.258 LE
gsave
0.14902 0.14902 0.14902 C
(5) [10] 0 262.597 164.432 10 /Helvetica SRX
grestore

gsave
0.14902 0.14902 0.14902 C
(10) [6 10] 0 289.127 164.432 10 /Helvetica SRX
grestore

gsave
0.14902 0.14902 0.14902 C
(15) [6 10] 0 318.657 164.432 10 /Helvetica SRX
grestore

gsave
0.14902 0.14902 0.14902 C
(20) [6 10] 0 348.186 164.432 10 /Helvetica SRX
grestore

241.974 189.287 LS
243.098 189.287 LE
354.186 189.287 LS
353.062 189.287 LE
241.974 204.888 LS
243.098 204.888 LE
354.186 204.888 LS
353.062 204.888 LE
241.974 220.489 LS
243.098 220.489 LE
354.186 220.489 LS
353.062 220.489 LE
241.974 236.091 LS
243.098 236.091 LE
354.186 236.091 LS
353.062 236.091 LE
241.974 251.692 LS
243.098 251.692 LE
354.186 251.692 LS
353.062 251.692 LE
gsave
0.14902 0.14902 0.14902 C
(0.001) [6 3 6 6 10] 0 209.964 185.287 10 /Helvetica SRX
grestore

gsave
0.14902 0.14902 0.14902 C
(0.002) [6 3 6 6 10] 0 209.964 200.888 10 /Helvetica SRX
grestore

gsave
0.14902 0.14902 0.14902 C
(0.003) [6 3 6 6 10] 0 209.964 216.489 10 /Helvetica SRX
grestore

gsave
0.14902 0.14902 0.14902 C
(0.004) [6 3 6 6 10] 0 209.964 232.091 10 /Helvetica SRX
grestore

gsave
0.14902 0.14902 0.14902 C
(0.005) [6 3 6 6 10] 0 209.964 247.692 10 /Helvetica SRX
grestore

2 LC
[16 0] 0 setdash
241.974 179.974 LS
354.186 179.974 LE
241.974 254.387 LS
354.186 254.387 LE
241.974 179.974 LS
241.974 254.387 LE
354.186 179.974 LS
354.186 254.387 LE
gsave
0 0 0 C
(L_N_hat) [7 6 8 6 7 6 10] 0 276.08 266.387 11 /Helvetica-Bold SRX
grestore

0.9 0.9 0.9 C
241.974 179.974 241.974 208.238 247.88 179.974 T
247.88 229.365 247.88 179.974 241.974 208.238 T
253.786 179.974 247.88 179.974 247.88 229.365 T
253.786 241.629 253.786 179.974 247.88 229.365 T
259.691 179.974 253.786 179.974 253.786 241.629 T
259.691 248.644 259.691 179.974 253.786 241.629 T
265.597 179.974 259.691 179.974 259.691 248.644 T
265.597 252.559 265.597 179.974 259.691 248.644 T
271.503 179.974 265.597 179.974 265.597 252.559 T
271.503 254.387 271.503 179.974 265.597 252.559 T
277.409 179.974 271.503 179.974 271.503 254.387 T
277.409 252.637 277.409 179.974 271.503 254.387 T
283.315 179.974 277.409 179.974 277.409 252.637 T
283.315 251.189 283.315 179.974 277.409 252.637 T
289.221 179.974 283.315 179.974 283.315 251.189 T
289.221 249.868 289.221 179.974 283.315 251.189 T
295.127 179.974 289.221 179.974 289.221 249.868 T
295.127 247.412 295.127 179.974 289.221 249.868 T
301.033 179.974 295.127 179.974 295.127 247.412 T
301.033 245.212 301.033 179.974 295.127 247.412 T
306.939 179.974 301.033 179.974 301.033 245.212 T
306.939 241.554 306.939 179.974 301.033 245.212 T
312.845 179.974 306.939 179.974 306.939 241.554 T
312.845 237.828 312.845 179.974 306.939 241.554 T
318.751 179.974 312.845 179.974 312.845 237.828 T
318.751 237.538 318.751 179.974 312.845 237.828 T
324.657 179.974 318.751 179.974 318.751 237.538 T
324.657 235.442 324.657 179.974 318.751 237.538 T
330.563 179.974 324.657 179.974 324.657 235.442 T
330.563 233.734 330.563 179.974 324.657 235.442 T
336.469 179.974 330.563 179.974 330.563 233.734 T
336.469 232.19 336.469 179.974 330.563 233.734 T
342.374 179.974 336.469 179.974 336.469 232.19 T
342.374 228.55 342.374 179.974 336.469 232.19 T
348.28 179.974 342.374 179.974 342.374 228.55 T
348.28 227.062 348.28 179.974 342.374 228.55 T
354.186 179.974 348.28 179.974 348.28 227.062 T
354.186 225.729 354.186 179.974 348.28 227.062 T
0 LC
[] 0 setdash
0 0 0 C
354.186 225.729 LS
348.28 227.062 L
342.374 228.55 L
336.469 232.19 L
330.563 233.734 L
324.657 235.442 L
318.751 237.538 L
312.845 237.828 L
306.939 241.554 L
301.033 245.212 L
295.127 247.412 L
289.221 249.868 L
283.315 251.189 L
277.409 252.637 L
271.503 254.387 L
265.597 252.559 L
259.691 248.644 L
253.786 241.629 L
247.88 229.365 L
241.974 208.238 L
241.974 179.974 L
247.88 179.974 L
253.786 179.974 L
259.691 179.974 L
265.597 179.974 L
271.503 179.974 L
277.409 179.974 L
283.315 179.974 L
289.221 179.974 L
295.127 179.974 L
301.033 179.974 L
306.939 179.974 L
312.845 179.974 L
318.751 179.974 L
324.657 179.974 L
330.563 179.974 L
336.469 179.974 L
342.374 179.974 L
348.28 179.974 L
354.186 179.974 L
354.186 225.729 LE
1 1 1 C
241.974 179.974 241.974 181.07 247.88 179.974 T
247.88 185.545 247.88 179.974 241.974 181.07 T
253.786 179.974 247.88 179.974 247.88 185.545 T
253.786 187.821 253.786 179.974 247.88 185.545 T
259.691 179.974 253.786 179.974 253.786 187.821 T
259.691 188.423 259.691 179.974 253.786 187.821 T
265.597 179.974 259.691 179.974 259.691 188.423 T
265.597 188.85 265.597 179.974 259.691 188.423 T
271.503 179.974 265.597 179.974 265.597 188.85 T
271.503 188.918 271.503 179.974 265.597 188.85 T
277.409 179.974 271.503 179.974 271.503 188.918 T
277.409 187.615 277.409 179.974 271.503 188.918 T
283.315 179.974 277.409 179.974 277.409 187.615 T
283.315 186.403 283.315 179.974 277.409 187.615 T
289.221 179.974 283.315 179.974 283.315 186.403 T
289.221 185.951 289.221 179.974 283.315 186.403 T
295.127 179.974 289.221 179.974 289.221 185.951 T
295.127 185.323 295.127 179.974 289.221 185.951 T
301.033 179.974 295.127 179.974 295.127 185.323 T
301.033 184.845 301.033 179.974 295.127 185.323 T
306.939 179.974 301.033 179.974 301.033 184.845 T
306.939 183.195 306.939 179.974 301.033 184.845 T
312.845 179.974 306.939 179.974 306.939 183.195 T
312.845 181.678 312.845 179.974 306.939 183.195 T
318.751 179.974 312.845 179.974 312.845 181.678 T
318.751 183.019 318.751 179.974 312.845 181.678 T
324.657 179.974 318.751 179.974 318.751 183.019 T
324.657 182.554 324.657 179.974 318.751 183.019 T
330.563 179.974 324.657 179.974 324.657 182.554 T
330.563 182.549 330.563 179.974 324.657 182.554 T
336.469 179.974 330.563 179.974 330.563 182.549 T
336.469 182.36 336.469 179.974 330.563 182.549 T
342.374 179.974 336.469 179.974 336.469 182.36 T
342.374 180.173 342.374 179.974 336.469 182.36 T
348.28 179.974 342.374 179.974 342.374 180.173 T
348.28 180.068 348.28 179.974 342.374 180.173 T
354.186 179.974 348.28 179.974 348.28 180.068 T
0 0 0 C
354.186 179.974 LS
348.28 180.068 L
342.374 180.173 L
336.469 182.36 L
330.563 182.549 L
324.657 182.554 L
318.751 183.019 L
312.845 181.678 L
306.939 183.195 L
301.033 184.845 L
295.127 185.323 L
289.221 185.951 L
283.315 186.403 L
277.409 187.615 L
271.503 188.918 L
265.597 188.85 L
259.691 188.423 L
253.786 187.821 L
247.88 185.545 L
241.974 181.07 L
241.974 179.974 L
247.88 179.974 L
253.786 179.974 L
259.691 179.974 L
265.597 179.974 L
271.503 179.974 L
277.409 179.974 L
283.315 179.974 L
289.221 179.974 L
295.127 179.974 L
301.033 179.974 L
306.939 179.974 L
312.845 179.974 L
318.751 179.974 L
324.657 179.974 L
330.563 179.974 L
336.469 179.974 L
342.374 179.974 L
348.28 179.974 L
354.186 179.974 LE
3 W
1 LJ
241.974 195.459 LS
247.88 209.063 L
253.786 216.858 L
259.691 220.781 L
265.597 222.192 L
271.503 222.042 L
277.409 220.977 L
283.315 219.425 L
289.221 217.66 L
295.127 215.852 L
301.033 214.102 L
306.939 212.462 L
312.845 210.959 L
318.751 209.6 L
324.657 208.381 L
330.563 207.292 L
336.469 206.323 L
342.374 205.46 L
348.28 204.69 L
354.186 204.001 LE
grestore
gsave
1.0 1.0 scale
newpath 0 0 moveto 576 0 lineto 576 432 lineto 0 432 lineto
closepath clip
1 1 1 C
409.067 254.387 521.28 179.974 409.067 179.974 T
409.067 254.387 521.28 254.387 521.28 179.974 T
0.5 W
0.15 0.15 0.15 C
432.691 179.974 LS
432.691 181.102 LE
432.691 254.387 LS
432.691 253.258 LE
462.221 179.974 LS
462.221 181.102 LE
462.221 254.387 LS
462.221 253.258 LE
491.75 179.974 LS
491.75 181.102 LE
491.75 254.387 LS
491.75 253.258 LE
521.28 179.974 LS
521.28 181.102 LE
521.28 254.387 LS
521.28 253.258 LE
gsave
0.14902 0.14902 0.14902 C
(5) [10] 0 429.691 164.432 10 /Helvetica SRX
grestore

gsave
0.14902 0.14902 0.14902 C
(10) [6 10] 0 456.221 164.432 10 /Helvetica SRX
grestore

gsave
0.14902 0.14902 0.14902 C
(15) [6 10] 0 485.75 164.432 10 /Helvetica SRX
grestore

gsave
0.14902 0.14902 0.14902 C
(20) [6 10] 0 515.28 164.432 10 /Helvetica SRX
grestore

409.067 198.736 LS
410.192 198.736 LE
521.28 198.736 LS
520.156 198.736 LE
409.067 218.07 LS
410.192 218.07 LE
521.28 218.07 LS
520.156 218.07 LE
409.067 237.405 LS
410.192 237.405 LE
521.28 237.405 LS
520.156 237.405 LE
gsave
0.14902 0.14902 0.14902 C
(0.01) [6 3 6 10] 0 383.058 194.736 10 /Helvetica SRX
grestore

gsave
0.14902 0.14902 0.14902 C
(0.02) [6 3 6 10] 0 383.058 214.07 10 /Helvetica SRX
grestore

gsave
0.14902 0.14902 0.14902 C
(0.03) [6 3 6 10] 0 383.058 233.405 10 /Helvetica SRX
grestore

2 LC
[16 0] 0 setdash
409.067 179.974 LS
521.28 179.974 LE
409.067 254.387 LS
521.28 254.387 LE
409.067 179.974 LS
409.067 254.387 LE
521.28 179.974 LS
521.28 254.387 LE
gsave
0 0 0 C
(L_C_hat) [7 6 8 6 7 6 10] 0 443.174 266.387 11 /Helvetica-Bold SRX
grestore

0.9 0.9 0.9 C
409.067 179.974 409.067 223.122 414.973 179.974 T
414.973 245.035 414.973 179.974 409.067 223.122 T
420.879 179.974 414.973 179.974 414.973 245.035 T
420.879 253.832 420.879 179.974 414.973 245.035 T
426.785 179.974 420.879 179.974 420.879 253.832 T
426.785 254.387 426.785 179.974 420.879 253.832 T
432.691 179.974 426.785 179.974 426.785 254.387 T
432.691 251.509 432.691 179.974 426.785 254.387 T
438.597 179.974 432.691 179.974 432.691 251.509 T
438.597 247.24 438.597 179.974 432.691 251.509 T
444.503 179.974 438.597 179.974 438.597 247.24 T
444.503 242.773 444.503 179.974 438.597 247.24 T
450.409 179.974 444.503 179.974 444.503 242.773 T
450.409 237.413 450.409 179.974 444.503 242.773 T
456.315 179.974 450.409 179.974 450.409 237.413 T
456.315 232.82 456.315 179.974 450.409 237.413 T
462.221 179.974 456.315 179.974 456.315 232.82 T
462.221 228.247 462.221 179.974 456.315 232.82 T
468.127 179.974 462.221 179.974 462.221 228.247 T
468.127 223.798 468.127 179.974 462.221 228.247 T
474.033 179.974 468.127 179.974 468.127 223.798 T
474.033 219.73 474.033 179.974 468.127 223.798 T
479.939 179.974 474.033 179.974 474.033 219.73 T
479.939 215.153 479.939 179.974 474.033 219.73 T
485.844 179.974 479.939 179.974 479.939 215.153 T
485.844 211.791 485.844 179.974 479.939 215.153 T
491.75 179.974 485.844 179.974 485.844 211.791 T
491.75 208.723 491.75 179.974 485.844 211.791 T
497.656 179.974 491.75 179.974 491.75 208.723 T
497.656 206.642 497.656 179.974 491.75 208.723 T
503.562 179.974 497.656 179.974 497.656 206.642 T
503.562 203.983 503.562 179.974 497.656 206.642 T
509.468 179.974 503.562 179.974 503.562 203.983 T
509.468 201.903 509.468 179.974 503.562 203.983 T
515.374 179.974 509.468 179.974 509.468 201.903 T
515.374 199.948 515.374 179.974 509.468 201.903 T
521.28 179.974 515.374 179.974 515.374 199.948 T
521.28 198.253 521.28 179.974 515.374 199.948 T
0 LC
[] 0 setdash
0 0 0 C
521.28 198.253 LS
515.374 199.948 L
509.468 201.903 L
503.562 203.983 L
497.656 206.642 L
491.75 208.723 L
485.844 211.791 L
479.939 215.153 L
474.033 219.73 L
468.127 223.798 L
462.221 228.247 L
456.315 232.82 L
450.409 237.413 L
444.503 242.773 L
438.597 247.24 L
432.691 251.509 L
426.785 254.387 L
420.879 253.832 L
414.973 245.035 L
409.067 223.122 L
409.067 179.974 L
414.973 179.974 L
420.879 179.974 L
426.785 179.974 L
432.691 179.974 L
438.597 179.974 L
444.503 179.974 L
450.409 179.974 L
456.315 179.974 L
462.221 179.974 L
468.127 179.974 L
474.033 179.974 L
479.939 179.974 L
485.844 179.974 L
491.75 179.974 L
497.656 179.974 L
503.562 179.974 L
509.468 179.974 L
515.374 179.974 L
521.28 179.974 L
521.28 198.253 LE
1 1 1 C
409.067 179.974 409.067 187.91 414.973 179.974 T
414.973 192.207 414.973 179.974 409.067 187.91 T
420.879 179.974 414.973 179.974 414.973 192.207 T
420.879 194.245 420.879 179.974 414.973 192.207 T
426.785 179.974 420.879 179.974 420.879 194.245 T
426.785 192.728 426.785 179.974 420.879 194.245 T
432.691 179.974 426.785 179.974 426.785 192.728 T
432.691 189.584 432.691 179.974 426.785 192.728 T
438.597 179.974 432.691 179.974 432.691 189.584 T
438.597 187.624 438.597 179.974 432.691 189.584 T
444.503 179.974 438.597 179.974 438.597 187.624 T
444.503 186.136 444.503 179.974 438.597 187.624 T
450.409 179.974 444.503 179.974 444.503 186.136 T
450.409 184.928 450.409 179.974 444.503 186.136 T
456.315 179.974 450.409 179.974 450.409 184.928 T
456.315 183.909 456.315 179.974 450.409 184.928 T
462.221 179.974 456.315 179.974 456.315 183.909 T
462.221 183.074 462.221 179.974 456.315 183.909 T
468.127 179.974 462.221 179.974 462.221 183.074 T
468.127 182.404 468.127 179.974 462.221 183.074 T
474.033 179.974 468.127 179.974 468.127 182.404 T
474.033 181.746 474.033 179.974 468.127 182.404 T
479.939 179.974 474.033 179.974 474.033 181.746 T
479.939 180.773 479.939 179.974 474.033 181.746 T
485.844 179.974 479.939 179.974 479.939 180.773 T
485.844 180.543 485.844 179.974 479.939 180.773 T
491.75 179.974 485.844 179.974 485.844 180.543 T
491.75 180.221 491.75 179.974 485.844 180.543 T
497.656 179.974 491.75 179.974 491.75 180.221 T
497.656 180.578 497.656 179.974 491.75 180.221 T
503.562 179.974 497.656 179.974 497.656 180.578 T
503.562 180.218 503.562 179.974 497.656 180.578 T
509.468 179.974 503.562 179.974 503.562 180.218 T
509.468 180.154 509.468 179.974 503.562 180.218 T
515.374 179.974 509.468 179.974 509.468 180.154 T
515.374 179.993 515.374 179.974 509.468 180.154 T
521.28 179.974 515.374 179.974 515.374 179.993 T
0 0 0 C
521.28 179.974 LS
515.374 179.993 L
509.468 180.154 L
503.562 180.218 L
497.656 180.578 L
491.75 180.221 L
485.844 180.543 L
479.939 180.773 L
474.033 181.746 L
468.127 182.404 L
462.221 183.074 L
456.315 183.909 L
450.409 184.928 L
444.503 186.136 L
438.597 187.624 L
432.691 189.584 L
426.785 192.728 L
420.879 194.245 L
414.973 192.207 L
409.067 187.91 L
409.067 179.974 L
414.973 179.974 L
420.879 179.974 L
426.785 179.974 L
432.691 179.974 L
438.597 179.974 L
444.503 179.974 L
450.409 179.974 L
456.315 179.974 L
462.221 179.974 L
468.127 179.974 L
474.033 179.974 L
479.939 179.974 L
485.844 179.974 L
491.75 179.974 L
497.656 179.974 L
503.562 179.974 L
509.468 179.974 L
515.374 179.974 L
521.28 179.974 LE
3 W
1 LJ
409.067 205.99 LS
414.973 219.095 L
420.879 224.227 L
426.785 224.774 L
432.691 222.812 L
438.597 219.601 L
444.503 215.892 L
450.409 212.121 L
456.315 208.527 L
462.221 205.229 L
468.127 202.276 L
474.033 199.674 L
479.939 197.407 L
485.844 195.447 L
491.75 193.762 L
497.656 192.316 L
503.562 191.079 L
509.468 190.021 L
515.374 189.116 L
521.28 188.341 LE
grestore
gsave
1.0 1.0 scale
newpath 0 0 moveto 576 0 lineto 576 432 lineto 0 432 lineto
closepath clip
1 1 1 C
74.88 121.933 187.093 47.52 74.88 47.52 T
74.88 121.933 187.093 121.933 187.093 47.52 T
0.5 W
0.15 0.15 0.15 C
98.5037 47.52 LS
98.5037 48.6484 LE
98.5037 121.933 LS
98.5037 120.805 LE
128.033 47.52 LS
128.033 48.6484 LE
128.033 121.933 LS
128.033 120.805 LE
157.563 47.52 LS
157.563 48.6484 LE
157.563 121.933 LS
157.563 120.805 LE
187.093 47.52 LS
187.093 48.6484 LE
187.093 121.933 LS
187.093 120.805 LE
gsave
0.14902 0.14902 0.14902 C
(5) [10] 0 95.5037 31.9781 10 /Helvetica SRX
grestore

gsave
0.14902 0.14902 0.14902 C
(10) [6 10] 0 122.033 31.9781 10 /Helvetica SRX
grestore

gsave
0.14902 0.14902 0.14902 C
(15) [6 10] 0 151.563 31.9781 10 /Helvetica SRX
grestore

gsave
0.14902 0.14902 0.14902 C
(20) [6 10] 0 181.093 31.9781 10 /Helvetica SRX
grestore

74.88 52.3346 LS
76.0043 52.3346 LE
187.093 52.3346 LS
185.968 52.3346 LE
74.88 63.1939 LS
76.0043 63.1939 LE
187.093 63.1939 LS
185.968 63.1939 LE
74.88 74.0533 LS
76.0043 74.0533 LE
187.093 74.0533 LS
185.968 74.0533 LE
74.88 84.9127 LS
76.0043 84.9127 LE
187.093 84.9127 LS
185.968 84.9127 LE
74.88 95.7721 LS
76.0043 95.7721 LE
187.093 95.7721 LS
185.968 95.7721 LE
74.88 106.632 LS
76.0043 106.632 LE
187.093 106.632 LS
185.968 106.632 LE
74.88 117.491 LS
76.0043 117.491 LE
187.093 117.491 LS
185.968 117.491 LE
gsave
0.14902 0.14902 0.14902 C
(0.002) [6 3 6 6 10] 0 42.8705 48.3346 10 /Helvetica SRX
grestore

gsave
0.14902 0.14902 0.14902 C
(0.004) [6 3 6 6 10] 0 42.8705 59.194 10 /Helvetica SRX
grestore

gsave
0.14902 0.14902 0.14902 C
(0.006) [6 3 6 6 10] 0 42.8705 70.0534 10 /Helvetica SRX
grestore

gsave
0.14902 0.14902 0.14902 C
(0.008) [6 3 6 6 10] 0 42.8705 80.9128 10 /Helvetica SRX
grestore

gsave
0.14902 0.14902 0.14902 C
(0.01) [6 3 6 10] 0 48.8705 91.7722 10 /Helvetica SRX
grestore

gsave
0.14902 0.14902 0.14902 C
(0.012) [6 3 6 6 10] 0 42.8705 102.632 10 /Helvetica SRX
grestore

gsave
0.14902 0.14902 0.14902 C
(0.014) [6 3 6 6 10] 0 42.8705 113.491 10 /Helvetica SRX
grestore

2 LC
[16 0] 0 setdash
74.88 47.52 LS
187.093 47.52 LE
74.88 121.933 LS
187.093 121.933 LE
74.88 47.52 LS
74.88 121.933 LE
187.093 47.52 LS
187.093 121.933 LE
gsave
0 0 0 C
(I_T_hat) [3 6 7 6 7 6 10] 0 111.486 133.933 11 /Helvetica-Bold SRX
grestore

0.9 0.9 0.9 C
74.88 47.52 74.88 109.568 80.7859 47.52 T
80.7859 118.611 80.7859 47.52 74.88 109.568 T
86.6918 47.52 80.7859 47.52 80.7859 118.611 T
86.6918 121.933 86.6918 47.52 80.7859 118.611 T
92.5978 47.52 86.6918 47.52 86.6918 121.933 T
92.5978 121.04 92.5978 47.52 86.6918 121.933 T
98.5037 47.52 92.5978 47.52 92.5978 121.04 T
98.5037 120.694 98.5037 47.52 92.5978 121.04 T
104.41 47.52 98.5037 47.52 98.5037 120.694 T
104.41 120.415 104.41 47.52 98.5037 120.694 T
110.316 47.52 104.41 47.52 104.41 120.415 T
110.316 115.067 110.316 47.52 104.41 120.415 T
116.221 47.52 110.316 47.52 110.316 115.067 T
116.221 113.143 116.221 47.52 110.316 115.067 T
122.127 47.52 116.221 47.52 116.221 113.143 T
122.127 109.981 122.127 47.52 116.221 113.143 T
128.033 47.52 122.127 47.52 122.127 109.981 T
128.033 107.417 128.033 47.52 122.127 109.981 T
133.939 47.52 128.033 47.52 128.033 107.417 T
133.939 101.571 133.939 47.52 128.033 107.417 T
139.845 47.52 133.939 47.52 133.939 101.571 T
139.845 98.5743 139.845 47.52 133.939 101.571 T
145.751 47.52 139.845 47.52 139.845 98.5743 T
145.751 95.562 145.751 47.52 139.845 98.5743 T
151.657 47.52 145.751 47.52 145.751 95.562 T
151.657 93.4075 151.657 47.52 145.751 95.562 T
157.563 47.52 151.657 47.52 151.657 93.4075 T
157.563 90.9824 157.563 47.52 151.657 93.4075 T
163.469 47.52 157.563 47.52 157.563 90.9824 T
163.469 87.694 163.469 47.52 157.563 90.9824 T
169.375 47.52 163.469 47.52 163.469 87.694 T
169.375 85.655 169.375 47.52 163.469 87.694 T
175.281 47.52 169.375 47.52 169.375 85.655 T
175.281 83.1314 175.281 47.52 169.375 85.655 T
181.187 47.52 175.281 47.52 175.281 83.1314 T
181.187 80.6609 181.187 47.52 175.281 83.1314 T
187.093 47.52 181.187 47.52 181.187 80.6609 T
187.093 79.1205 187.093 47.52 181.187 80.6609 T
0 LC
[] 0 setdash
0 0 0 C
187.093 79.1205 LS
181.187 80.6609 L
175.281 83.1314 L
169.375 85.655 L
163.469 87.694 L
157.563 90.9824 L
151.657 93.4075 L
145.751 95.562 L
139.845 98.5743 L
133.939 101.571 L
128.033 107.417 L
122.127 109.981 L
116.221 113.143 L
110.316 115.067 L
104.41 120.415 L
98.5037 120.694 L
92.5978 121.04 L
86.6918 121.933 L
80.7859 118.611 L
74.88 109.568 L
74.88 47.52 L
80.7859 47.52 L
86.6918 47.52 L
92.5978 47.52 L
98.5037 47.52 L
104.41 47.52 L
110.316 47.52 L
116.221 47.52 L
122.127 47.52 L
128.033 47.52 L
133.939 47.52 L
139.845 47.52 L
145.751 47.52 L
151.657 47.52 L
157.563 47.52 L
163.469 47.52 L
169.375 47.52 L
175.281 47.52 L
181.187 47.52 L
187.093 47.52 L
187.093 79.1205 LE
1 1 1 C
74.88 47.52 74.88 52.8566 80.7859 47.52 T
80.7859 57.0853 80.7859 47.52 74.88 52.8566 T
86.6918 47.52 80.7859 47.52 80.7859 57.0853 T
86.6918 58.2486 86.6918 47.52 80.7859 57.0853 T
92.5978 47.52 86.6918 47.52 86.6918 58.2486 T
92.5978 58.047 92.5978 47.52 86.6918 58.2486 T
98.5037 47.52 92.5978 47.52 92.5978 58.047 T
98.5037 58.4658 98.5037 47.52 92.5978 58.047 T
104.41 47.52 98.5037 47.52 98.5037 58.4658 T
104.41 60.2741 104.41 47.52 98.5037 58.4658 T
110.316 47.52 104.41 47.52 104.41 60.2741 T
110.316 57.0522 110.316 47.52 104.41 60.2741 T
116.221 47.52 110.316 47.52 110.316 57.0522 T
116.221 57.5779 116.221 47.52 110.316 57.0522 T
122.127 47.52 116.221 47.52 116.221 57.5779 T
122.127 56.6493 122.127 47.52 116.221 57.5779 T
128.033 47.52 122.127 47.52 122.127 56.6493 T
128.033 56.778 128.033 47.52 122.127 56.6493 T
133.939 47.52 128.033 47.52 128.033 56.778 T
133.939 53.7493 133.939 47.52 128.033 56.778 T
139.845 47.52 133.939 47.52 133.939 53.7493 T
139.845 53.5358 139.845 47.52 133.939 53.7493 T
145.751 47.52 139.845 47.52 139.845 53.5358 T
145.751 52.1716 145.751 47.52 139.845 53.5358 T
151.657 47.52 145.751 47.52 145.751 52.1716 T
151.657 51.8048 151.657 47.52 145.751 52.1716 T
157.563 47.52 151.657 47.52 151.657 51.8048 T
157.563 50.9821 157.563 47.52 151.657 51.8048 T
163.469 47.52 157.563 47.52 157.563 50.9821 T
163.469 49.7511 163.469 47.52 157.563 50.9821 T
169.375 47.52 163.469 47.52 163.469 49.7511 T
169.375 49.35 169.375 47.52 163.469 49.7511 T
175.281 47.52 169.375 47.52 169.375 49.35 T
175.281 48.5921 175.281 47.52 169.375 49.35 T
181.187 47.52 175.281 47.52 175.281 48.5921 T
181.187 47.7361 181.187 47.52 175.281 48.5921 T
187.093 47.52 181.187 47.52 181.187 47.7361 T
0 0 0 C
187.093 47.52 LS
181.187 47.7361 L
175.281 48.5921 L
169.375 49.35 L
163.469 49.7511 L
157.563 50.9821 L
151.657 51.8048 L
145.751 52.1716 L
139.845 53.5358 L
133.939 53.7493 L
128.033 56.778 L
122.127 56.6493 L
116.221 57.5779 L
110.316 57.0522 L
104.41 60.2741 L
98.5037 58.4658 L
92.5978 58.047 L
86.6918 58.2486 L
80.7859 57.0853 L
74.88 52.8566 L
74.88 47.52 L
80.7859 47.52 L
86.6918 47.52 L
92.5978 47.52 L
98.5037 47.52 L
104.41 47.52 L
110.316 47.52 L
116.221 47.52 L
122.127 47.52 L
128.033 47.52 L
133.939 47.52 L
139.845 47.52 L
145.751 47.52 L
151.657 47.52 L
157.563 47.52 L
163.469 47.52 L
169.375 47.52 L
175.281 47.52 L
181.187 47.52 L
187.093 47.52 LE
3 W
1 LJ
74.88 79.7192 LS
80.7859 84.9944 L
86.6918 88.3732 L
92.5978 89.9423 L
98.5037 90.1273 L
104.41 89.3248 L
110.316 87.8524 L
116.221 85.9532 L
122.127 83.8085 L
128.033 81.5506 L
133.939 79.2736 L
139.845 77.0432 L
145.751 74.9028 L
151.657 72.8801 L
157.563 70.9905 L
163.469 69.2412 L
169.375 67.6329 L
175.281 66.1625 L
181.187 64.824 L
187.093 63.6095 LE
grestore
gsave
1.0 1.0 scale
newpath 0 0 moveto 576 0 lineto 576 432 lineto 0 432 lineto
closepath clip
1 1 1 C
241.974 121.933 354.186 47.52 241.974 47.52 T
241.974 121.933 354.186 121.933 354.186 47.52 T
0.5 W
0.15 0.15 0.15 C
265.597 47.52 LS
265.597 48.6484 LE
265.597 121.933 LS
265.597 120.805 LE
295.127 47.52 LS
295.127 48.6484 LE
295.127 121.933 LS
295.127 120.805 LE
324.657 47.52 LS
324.657 48.6484 LE
324.657 121.933 LS
324.657 120.805 LE
354.186 47.52 LS
354.186 48.6484 LE
354.186 121.933 LS
354.186 120.805 LE
gsave
0.14902 0.14902 0.14902 C
(5) [10] 0 262.597 31.9781 10 /Helvetica SRX
grestore

gsave
0.14902 0.14902 0.14902 C
(10) [6 10] 0 289.127 31.9781 10 /Helvetica SRX
grestore

gsave
0.14902 0.14902 0.14902 C
(15) [6 10] 0 318.657 31.9781 10 /Helvetica SRX
grestore

gsave
0.14902 0.14902 0.14902 C
(20) [6 10] 0 348.186 31.9781 10 /Helvetica SRX
grestore

241.974 57.8853 LS
243.098 57.8853 LE
354.186 57.8853 LS
353.062 57.8853 LE
241.974 71.8624 LS
243.098 71.8624 LE
354.186 71.8624 LS
353.062 71.8624 LE
241.974 85.8394 LS
243.098 85.8394 LE
354.186 85.8394 LS
353.062 85.8394 LE
241.974 99.8165 LS
243.098 99.8165 LE
354.186 99.8165 LS
353.062 99.8165 LE
241.974 113.794 LS
243.098 113.794 LE
354.186 113.794 LS
353.062 113.794 LE
gsave
0.14902 0.14902 0.14902 C
(0.005) [6 3 6 6 10] 0 209.964 53.8854 10 /Helvetica SRX
grestore

gsave
0.14902 0.14902 0.14902 C
(0.01) [6 3 6 10] 0 215.964 67.8624 10 /Helvetica SRX
grestore

gsave
0.14902 0.14902 0.14902 C
(0.015) [6 3 6 6 10] 0 209.964 81.8394 10 /Helvetica SRX
grestore

gsave
0.14902 0.14902 0.14902 C
(0.02) [6 3 6 10] 0 215.964 95.8165 10 /Helvetica SRX
grestore

gsave
0.14902 0.14902 0.14902 C
(0.025) [6 3 6 6 10] 0 209.964 109.794 10 /Helvetica SRX
grestore

2 LC
[16 0] 0 setdash
241.974 47.52 LS
354.186 47.52 LE
241.974 121.933 LS
354.186 121.933 LE
241.974 47.52 LS
241.974 121.933 LE
354.186 47.52 LS
354.186 121.933 LE
gsave
0 0 0 C
(I_N_hat) [3 6 8 6 7 6 10] 0 278.08 133.933 11 /Helvetica-Bold SRX
grestore

0.9 0.9 0.9 C
241.974 47.52 241.974 121.933 247.88 47.52 T
247.88 120.136 247.88 47.52 241.974 121.933 T
253.786 47.52 247.88 47.52 247.88 120.136 T
253.786 115.96 253.786 47.52 247.88 120.136 T
259.691 47.52 253.786 47.52 253.786 115.96 T
259.691 112.493 259.691 47.52 253.786 115.96 T
265.597 47.52 259.691 47.52 259.691 112.493 T
265.597 108.36 265.597 47.52 259.691 112.493 T
271.503 47.52 265.597 47.52 265.597 108.36 T
271.503 103.891 271.503 47.52 265.597 108.36 T
277.409 47.52 271.503 47.52 271.503 103.891 T
277.409 99.7478 277.409 47.52 271.503 103.891 T
283.315 47.52 277.409 47.52 277.409 99.7478 T
283.315 94.9517 283.315 47.52 277.409 99.7478 T
289.221 47.52 283.315 47.52 283.315 94.9517 T
289.221 91.1086 289.221 47.52 283.315 94.9517 T
295.127 47.52 289.221 47.52 289.221 91.1086 T
295.127 87.6547 295.127 47.52 289.221 91.1086 T
301.033 47.52 295.127 47.52 295.127 87.6547 T
301.033 84.6827 301.033 47.52 295.127 87.6547 T
306.939 47.52 301.033 47.52 301.033 84.6827 T
306.939 82.705 306.939 47.52 301.033 84.6827 T
312.845 47.52 306.939 47.52 306.939 82.705 T
312.845 79.4191 312.845 47.52 306.939 82.705 T
318.751 47.52 312.845 47.52 312.845 79.4191 T
318.751 77.4374 318.751 47.52 312.845 79.4191 T
324.657 47.52 318.751 47.52 318.751 77.4374 T
324.657 75.0003 324.657 47.52 318.751 77.4374 T
330.563 47.52 324.657 47.52 324.657 75.0003 T
330.563 72.9964 330.563 47.52 324.657 75.0003 T
336.469 47.52 330.563 47.52 330.563 72.9964 T
336.469 70.762 336.469 47.52 330.563 72.9964 T
342.374 47.52 336.469 47.52 336.469 70.762 T
342.374 69.0676 342.374 47.52 336.469 70.762 T
348.28 47.52 342.374 47.52 342.374 69.0676 T
348.28 67.586 348.28 47.52 342.374 69.0676 T
354.186 47.52 348.28 47.52 348.28 67.586 T
354.186 66.282 354.186 47.52 348.28 67.586 T
0 LC
[] 0 setdash
0 0 0 C
354.186 66.282 LS
348.28 67.586 L
342.374 69.0676 L
336.469 70.762 L
330.563 72.9964 L
324.657 75.0003 L
318.751 77.4374 L
312.845 79.4191 L
306.939 82.705 L
301.033 84.6827 L
295.127 87.6547 L
289.221 91.1086 L
283.315 94.9517 L
277.409 99.7478 L
271.503 103.891 L
265.597 108.36 L
259.691 112.493 L
253.786 115.96 L
247.88 120.136 L
241.974 121.933 L
241.974 47.52 L
247.88 47.52 L
253.786 47.52 L
259.691 47.52 L
265.597 47.52 L
271.503 47.52 L
277.409 47.52 L
283.315 47.52 L
289.221 47.52 L
295.127 47.52 L
301.033 47.52 L
306.939 47.52 L
312.845 47.52 L
318.751 47.52 L
324.657 47.52 L
330.563 47.52 L
336.469 47.52 L
342.374 47.52 L
348.28 47.52 L
354.186 47.52 L
354.186 66.282 LE
1 1 1 C
241.974 47.52 241.974 60.6463 247.88 47.52 T
247.88 60.3955 247.88 47.52 241.974 60.6463 T
253.786 47.52 247.88 47.52 247.88 60.3955 T
253.786 58.2565 253.786 47.52 247.88 60.3955 T
259.691 47.52 253.786 47.52 253.786 58.2565 T
259.691 57.2994 259.691 47.52 253.786 58.2565 T
265.597 47.52 259.691 47.52 259.691 57.2994 T
265.597 56.2661 265.597 47.52 259.691 57.2994 T
271.503 47.52 265.597 47.52 265.597 56.2661 T
271.503 54.9298 271.503 47.52 265.597 56.2661 T
277.409 47.52 271.503 47.52 271.503 54.9298 T
277.409 53.9322 277.409 47.52 271.503 54.9298 T
283.315 47.52 277.409 47.52 277.409 53.9322 T
283.315 51.9538 283.315 47.52 277.409 53.9322 T
289.221 47.52 283.315 47.52 283.315 51.9538 T
289.221 51.2904 289.221 47.52 283.315 51.9538 T
295.127 47.52 289.221 47.52 289.221 51.2904 T
295.127 50.7022 295.127 47.52 289.221 51.2904 T
301.033 47.52 295.127 47.52 295.127 50.7022 T
301.033 50.2476 301.033 47.52 295.127 50.7022 T
306.939 47.52 301.033 47.52 301.033 50.2476 T
306.939 50.4503 306.939 47.52 301.033 50.2476 T
312.845 47.52 306.939 47.52 306.939 50.4503 T
312.845 49.4812 312.845 47.52 306.939 50.4503 T
318.751 47.52 312.845 47.52 312.845 49.4812 T
318.751 49.5349 318.751 47.52 312.845 49.4812 T
324.657 47.52 318.751 47.52 318.751 49.5349 T
324.657 49.0972 324.657 47.52 318.751 49.5349 T
330.563 47.52 324.657 47.52 324.657 49.0972 T
330.563 48.7658 330.563 47.52 324.657 49.0972 T
336.469 47.52 330.563 47.52 330.563 48.7658 T
336.469 48.1622 336.469 47.52 330.563 48.7658 T
342.374 47.52 336.469 47.52 336.469 48.1622 T
342.374 47.9262 342.374 47.52 336.469 48.1622 T
348.28 47.52 342.374 47.52 342.374 47.9262 T
348.28 47.6986 348.28 47.52 342.374 47.9262 T
354.186 47.52 348.28 47.52 348.28 47.6986 T
0 0 0 C
354.186 47.52 LS
348.28 47.6986 L
342.374 47.9262 L
336.469 48.1622 L
330.563 48.7658 L
324.657 49.0972 L
318.751 49.5349 L
312.845 49.4812 L
306.939 50.4503 L
301.033 50.2476 L
295.127 50.7022 L
289.221 51.2904 L
283.315 51.9538 L
277.409 53.9322 L
271.503 54.9298 L
265.597 56.2661 L
259.691 57.2994 L
253.786 58.2565 L
247.88 60.3955 L
241.974 60.6463 L
241.974 47.52 L
247.88 47.52 L
253.786 47.52 L
259.691 47.52 L
265.597 47.52 L
271.503 47.52 L
277.409 47.52 L
283.315 47.52 L
289.221 47.52 L
295.127 47.52 L
301.033 47.52 L
306.939 47.52 L
312.845 47.52 L
318.751 47.52 L
324.657 47.52 L
330.563 47.52 L
336.469 47.52 L
342.374 47.52 L
348.28 47.52 L
354.186 47.52 LE
3 W
1 LJ
241.974 91.003 LS
247.88 89.618 L
253.786 87.4853 L
259.691 84.8991 L
265.597 82.1165 L
271.503 79.3124 L
277.409 76.5967 L
283.315 74.0331 L
289.221 71.6553 L
295.127 69.4768 L
301.033 67.4987 L
306.939 65.7139 L
312.845 64.1112 L
318.751 62.6769 L
324.657 61.3961 L
330.563 60.2542 L
336.469 59.2372 L
342.374 58.3315 L
348.28 57.5249 L
354.186 56.8062 LE
grestore
gsave
1.0 1.0 scale
newpath 0 0 moveto 576 0 lineto 576 432 lineto 0 432 lineto
closepath clip
1 1 1 C
409.067 121.933 521.28 47.52 409.067 47.52 T
409.067 121.933 521.28 121.933 521.28 47.52 T
0.5 W
0.15 0.15 0.15 C
432.691 47.52 LS
432.691 48.6484 LE
432.691 121.933 LS
432.691 120.805 LE
462.221 47.52 LS
462.221 48.6484 LE
462.221 121.933 LS
462.221 120.805 LE
491.75 47.52 LS
491.75 48.6484 LE
491.75 121.933 LS
491.75 120.805 LE
521.28 47.52 LS
521.28 48.6484 LE
521.28 121.933 LS
521.28 120.805 LE
gsave
0.14902 0.14902 0.14902 C
(5) [10] 0 429.691 31.9781 10 /Helvetica SRX
grestore

gsave
0.14902 0.14902 0.14902 C
(10) [6 10] 0 456.221 31.9781 10 /Helvetica SRX
grestore

gsave
0.14902 0.14902 0.14902 C
(15) [6 10] 0 485.75 31.9781 10 /Helvetica SRX
grestore

gsave
0.14902 0.14902 0.14902 C
(20) [6 10] 0 515.28 31.9781 10 /Helvetica SRX
grestore

409.067 63.0167 LS
410.192 63.0167 LE
521.28 63.0167 LS
520.156 63.0167 LE
409.067 78.93 LS
410.192 78.93 LE
521.28 78.93 LS
520.156 78.93 LE
409.067 94.8433 LS
410.192 94.8433 LE
521.28 94.8433 LS
520.156 94.8433 LE
409.067 110.757 LS
410.192 110.757 LE
521.28 110.757 LS
520.156 110.757 LE
gsave
0.14902 0.14902 0.14902 C
(0.02) [6 3 6 10] 0 383.058 59.0168 10 /Helvetica SRX
grestore

gsave
0.14902 0.14902 0.14902 C
(0.04) [6 3 6 10] 0 383.058 74.93 10 /Helvetica SRX
grestore

gsave
0.14902 0.14902 0.14902 C
(0.06) [6 3 6 10] 0 383.058 90.8433 10 /Helvetica SRX
grestore

gsave
0.14902 0.14902 0.14902 C
(0.08) [6 3 6 10] 0 383.058 106.757 10 /Helvetica SRX
grestore

2 LC
[16 0] 0 setdash
409.067 47.52 LS
521.28 47.52 LE
409.067 121.933 LS
521.28 121.933 LE
409.067 47.52 LS
409.067 121.933 LE
521.28 47.52 LS
521.28 121.933 LE
gsave
0 0 0 C
(I_C_hat) [3 6 8 6 7 6 10] 0 445.174 133.933 11 /Helvetica-Bold SRX
grestore

0.9 0.9 0.9 C
409.067 47.52 409.067 121.933 414.973 47.52 T
414.973 113.303 414.973 47.52 409.067 121.933 T
420.879 47.52 414.973 47.52 414.973 113.303 T
420.879 105.529 420.879 47.52 414.973 113.303 T
426.785 47.52 420.879 47.52 420.879 105.529 T
426.785 97.8234 426.785 47.52 420.879 105.529 T
432.691 47.52 426.785 47.52 426.785 97.8234 T
432.691 91.3234 432.691 47.52 426.785 97.8234 T
438.597 47.52 432.691 47.52 432.691 91.3234 T
438.597 85.4016 438.597 47.52 432.691 91.3234 T
444.503 47.52 438.597 47.52 438.597 85.4016 T
444.503 80.3057 444.503 47.52 438.597 85.4016 T
450.409 47.52 444.503 47.52 444.503 80.3057 T
450.409 76.2378 450.409 47.52 444.503 80.3057 T
456.315 47.52 450.409 47.52 450.409 76.2378 T
456.315 72.3282 456.315 47.52 450.409 76.2378 T
462.221 47.52 456.315 47.52 456.315 72.3282 T
462.221 68.6876 462.221 47.52 456.315 72.3282 T
468.127 47.52 462.221 47.52 462.221 68.6876 T
468.127 66.1795 468.127 47.52 462.221 68.6876 T
474.033 47.52 468.127 47.52 468.127 66.1795 T
474.033 63.6368 474.033 47.52 468.127 66.1795 T
479.939 47.52 474.033 47.52 474.033 63.6368 T
479.939 61.5828 479.939 47.52 474.033 63.6368 T
485.844 47.52 479.939 47.52 479.939 61.5828 T
485.844 59.6771 485.844 47.52 479.939 61.5828 T
491.75 47.52 485.844 47.52 485.844 59.6771 T
491.75 58.0778 491.75 47.52 485.844 59.6771 T
497.656 47.52 491.75 47.52 491.75 58.0778 T
497.656 56.7984 497.656 47.52 491.75 58.0778 T
503.562 47.52 497.656 47.52 497.656 56.7984 T
503.562 55.6964 503.562 47.52 497.656 56.7984 T
509.468 47.52 503.562 47.52 503.562 55.6964 T
509.468 54.7117 509.468 47.52 503.562 55.6964 T
515.374 47.52 509.468 47.52 509.468 54.7117 T
515.374 53.8377 515.374 47.52 509.468 54.7117 T
521.28 47.52 515.374 47.52 515.374 53.8377 T
521.28 53.1065 521.28 47.52 515.374 53.8377 T
0 LC
[] 0 setdash
0 0 0 C
521.28 53.1065 LS
515.374 53.8377 L
509.468 54.7117 L
503.562 55.6964 L
497.656 56.7984 L
491.75 58.0778 L
485.844 59.6771 L
479.939 61.5828 L
474.033 63.6368 L
468.127 66.1795 L
462.221 68.6876 L
456.315 72.3282 L
450.409 76.2378 L
444.503 80.3057 L
438.597 85.4016 L
432.691 91.3234 L
426.785 97.8234 L
420.879 105.529 L
414.973 113.303 L
409.067 121.933 L
409.067 47.52 L
414.973 47.52 L
420.879 47.52 L
426.785 47.52 L
432.691 47.52 L
438.597 47.52 L
444.503 47.52 L
450.409 47.52 L
456.315 47.52 L
462.221 47.52 L
468.127 47.52 L
474.033 47.52 L
479.939 47.52 L
485.844 47.52 L
491.75 47.52 L
497.656 47.52 L
503.562 47.52 L
509.468 47.52 L
515.374 47.52 L
521.28 47.52 L
521.28 53.1065 LE
1 1 1 C
409.067 47.52 409.067 58.2322 414.973 47.52 T
414.973 55.4173 414.973 47.52 409.067 58.2322 T
420.879 47.52 414.973 47.52 414.973 55.4173 T
420.879 53.6528 420.879 47.52 414.973 55.4173 T
426.785 47.52 420.879 47.52 420.879 53.6528 T
426.785 51.9533 426.785 47.52 420.879 53.6528 T
432.691 47.52 426.785 47.52 426.785 51.9533 T
432.691 50.676 432.691 47.52 426.785 51.9533 T
438.597 47.52 432.691 47.52 432.691 50.676 T
438.597 49.5757 438.597 47.52 432.691 50.676 T
444.503 47.52 438.597 47.52 438.597 49.5757 T
444.503 48.9127 444.503 47.52 438.597 49.5757 T
450.409 47.52 444.503 47.52 444.503 48.9127 T
450.409 48.8411 450.409 47.52 444.503 48.9127 T
456.315 47.52 450.409 47.52 450.409 48.8411 T
456.315 48.4873 456.315 47.52 450.409 48.8411 T
462.221 47.52 456.315 47.52 456.315 48.4873 T
462.221 48.1168 462.221 47.52 456.315 48.4873 T
468.127 47.52 462.221 47.52 462.221 48.1168 T
468.127 48.152 468.127 47.52 462.221 48.1168 T
474.033 47.52 468.127 47.52 468.127 48.152 T
474.033 47.9041 474.033 47.52 468.127 48.152 T
479.939 47.52 474.033 47.52 474.033 47.9041 T
479.939 47.8638 479.939 47.52 474.033 47.9041 T
485.844 47.52 479.939 47.52 479.939 47.8638 T
485.844 47.7648 485.844 47.52 479.939 47.8638 T
491.75 47.52 485.844 47.52 485.844 47.7648 T
491.75 47.7131 491.75 47.52 485.844 47.7648 T
497.656 47.52 491.75 47.52 491.75 47.7131 T
497.656 47.7091 497.656 47.52 491.75 47.7131 T
503.562 47.52 497.656 47.52 497.656 47.7091 T
503.562 47.6742 503.562 47.52 497.656 47.7091 T
509.468 47.52 503.562 47.52 503.562 47.6742 T
509.468 47.6038 509.468 47.52 503.562 47.6742 T
515.374 47.52 509.468 47.52 509.468 47.6038 T
515.374 47.5408 515.374 47.52 509.468 47.6038 T
521.28 47.52 515.374 47.52 515.374 47.5408 T
0 0 0 C
521.28 47.52 LS
515.374 47.5408 L
509.468 47.6038 L
503.562 47.6742 L
497.656 47.7091 L
491.75 47.7131 L
485.844 47.7648 L
479.939 47.8638 L
474.033 47.9041 L
468.127 48.152 L
462.221 48.1168 L
456.315 48.4873 L
450.409 48.8411 L
444.503 48.9127 L
438.597 49.5757 L
432.691 50.676 L
426.785 51.9533 L
420.879 53.6528 L
414.973 55.4173 L
409.067 58.2322 L
409.067 47.52 L
414.973 47.52 L
420.879 47.52 L
426.785 47.52 L
432.691 47.52 L
438.597 47.52 L
444.503 47.52 L
450.409 47.52 L
456.315 47.52 L
462.221 47.52 L
468.127 47.52 L
474.033 47.52 L
479.939 47.52 L
485.844 47.52 L
491.75 47.52 L
497.656 47.52 L
503.562 47.52 L
509.468 47.52 L
515.374 47.52 L
521.28 47.52 LE
3 W
1 LJ
409.067 90.8557 LS
414.973 84.696 L
420.879 79.3249 L
426.785 74.6744 L
432.691 70.6778 L
438.597 67.2629 L
444.503 64.3571 L
450.409 61.8919 L
456.315 59.8046 L
462.221 58.0398 L
468.127 56.549 L
474.033 55.2901 L
479.939 54.2272 L
485.844 53.33 L
491.75 52.5722 L
497.656 51.9321 L
503.562 51.3912 L
509.468 50.9338 L
515.374 50.5469 L
521.28 50.2193 LE
grestore
grestore
showpage
cleartomark
%%PageTrailer
%%Trailer
end
%%EOF
