%!PS-Adobe-3.0 EPSF-3.0
%%Title: gl2ps_renderer figure
%%Creator: GL2PS 1.4.2, (C) 1999-2020 C. Geuzaine
%%For: Octave
%%CreationDate: Wed Oct  7 04:42:27 2020
%%LanguageLevel: 3
%%DocumentData: Clean7Bit
%%Pages: 1
%%BoundingBox: 0 0 576 432
%%EndComments
%%BeginProlog
/gl2psdict 64 dict def gl2psdict begin
/tryPS3shading false def % set to false to force subdivision
/rThreshold 0.064 def % red component subdivision threshold
/gThreshold 0.034 def % green component subdivision threshold
/bThreshold 0.1 def % blue component subdivision threshold
/BD { bind def } bind def
/C  { setrgbcolor } BD
/G  { 0.082 mul exch 0.6094 mul add exch 0.3086 mul add neg 1.0 add setgray } BD
/W  { setlinewidth } BD
/LC  { setlinecap } BD
/LJ  { setlinejoin } BD
/FC { findfont exch /SH exch def SH scalefont setfont } BD
/SW { dup stringwidth pop } BD
/S  { FC moveto show } BD
/SBC{ FC moveto SW -2 div 0 rmoveto show } BD
/SBR{ FC moveto SW neg 0 rmoveto show } BD
/SCL{ FC moveto 0 SH -2 div rmoveto show } BD
/SCC{ FC moveto SW -2 div SH -2 div rmoveto show } BD
/SCR{ FC moveto SW neg SH -2 div rmoveto show } BD
/STL{ FC moveto 0 SH neg rmoveto show } BD
/STC{ FC moveto SW -2 div SH neg rmoveto show } BD
/STR{ FC moveto SW neg SH neg rmoveto show } BD
/FCT { FC translate 0 0 } BD
/SR  { gsave FCT moveto rotate show grestore } BD
/SRX  { gsave FCT moveto rotate xshow grestore } BD
/SBCR{ gsave FCT moveto rotate SW -2 div 0 rmoveto show grestore } BD
/SBRR{ gsave FCT moveto rotate SW neg 0 rmoveto show grestore } BD
/SCLR{ gsave FCT moveto rotate 0 SH -2 div rmoveto show grestore} BD
/SCCR{ gsave FCT moveto rotate SW -2 div SH -2 div rmoveto show grestore} BD
/SCRR{ gsave FCT moveto rotate SW neg SH -2 div rmoveto show grestore} BD
/STLR{ gsave FCT moveto rotate 0 SH neg rmoveto show grestore } BD
/STCR{ gsave FCT moveto rotate SW -2 div SH neg rmoveto show grestore } BD
/STRR{ gsave FCT moveto rotate SW neg SH neg rmoveto show grestore } BD
/P  { newpath 0.0 360.0 arc closepath fill } BD
/LS { newpath moveto } BD
/L  { lineto } BD
/LE { lineto stroke } BD
/T  { newpath moveto lineto lineto closepath fill } BD
/STshfill {
      /b1 exch def /g1 exch def /r1 exch def /y1 exch def /x1 exch def
      /b2 exch def /g2 exch def /r2 exch def /y2 exch def /x2 exch def
      /b3 exch def /g3 exch def /r3 exch def /y3 exch def /x3 exch def
      gsave << /ShadingType 4 /ColorSpace [/DeviceRGB]
      /DataSource [ 0 x1 y1 r1 g1 b1 0 x2 y2 r2 g2 b2 0 x3 y3 r3 g3 b3 ] >>
      shfill grestore } BD
/Tm { 3 -1 roll 8 -1 roll 13 -1 roll add add 3 div
      3 -1 roll 7 -1 roll 11 -1 roll add add 3 div
      3 -1 roll 6 -1 roll 9 -1 roll add add 3 div C T } BD
/STsplit {
      4 index 15 index add 0.5 mul
      4 index 15 index add 0.5 mul
      4 index 15 index add 0.5 mul
      4 index 15 index add 0.5 mul
      4 index 15 index add 0.5 mul
      5 copy 5 copy 25 15 roll
      9 index 30 index add 0.5 mul
      9 index 30 index add 0.5 mul
      9 index 30 index add 0.5 mul
      9 index 30 index add 0.5 mul
      9 index 30 index add 0.5 mul
      5 copy 5 copy 35 5 roll 25 5 roll 15 5 roll
      4 index 10 index add 0.5 mul
      4 index 10 index add 0.5 mul
      4 index 10 index add 0.5 mul
      4 index 10 index add 0.5 mul
      4 index 10 index add 0.5 mul
      5 copy 5 copy 40 5 roll 25 5 roll 15 5 roll 25 5 roll
      STnoshfill STnoshfill STnoshfill STnoshfill } BD
/STnoshfill {
      2 index 8 index sub abs rThreshold gt
      { STsplit }
      { 1 index 7 index sub abs gThreshold gt
        { STsplit }
        { dup 6 index sub abs bThreshold gt
          { STsplit }
          { 2 index 13 index sub abs rThreshold gt
            { STsplit }
            { 1 index 12 index sub abs gThreshold gt
              { STsplit }
              { dup 11 index sub abs bThreshold gt
                { STsplit }
                { 7 index 13 index sub abs rThreshold gt
                  { STsplit }
                  { 6 index 12 index sub abs gThreshold gt
                    { STsplit }
                    { 5 index 11 index sub abs bThreshold gt
                      { STsplit }
                      { Tm }
                      ifelse }
                    ifelse }
                  ifelse }
                ifelse }
              ifelse }
            ifelse }
          ifelse }
        ifelse }
      ifelse } BD
tryPS3shading
{ /shfill where
  { /ST { STshfill } BD }
  { /ST { STnoshfill } BD }
  ifelse }
{ /ST { STnoshfill } BD }
ifelse
end
%%EndProlog
%%BeginSetup
/DeviceRGB setcolorspace
gl2psdict begin
%%EndSetup
%%Page: 1 1
%%BeginPageSetup
%%EndPageSetup
mark
gsave
1.0 1.0 scale
1 1 1 C
newpath 0 0 moveto 576 0 lineto 576 432 lineto 0 432 lineto
closepath fill
gsave
1.0 1.0 scale
1 1 1 C
newpath 0 0 moveto 576 0 lineto 576 432 lineto 0 432 lineto
closepath fill
newpath 0 0 moveto 576 0 lineto 576 432 lineto 0 432 lineto
closepath clip
1 1 1 C
74.88 385.841 187.093 312.427 74.88 312.427 T
74.88 385.841 187.093 385.841 187.093 312.427 T
0.5 W
0.15 0.15 0.15 C
97.3135 312.427 LS
97.3135 313.556 LE
97.3135 385.841 LS
97.3135 384.712 LE
119.758 312.427 LS
119.758 313.556 LE
119.758 385.841 LS
119.758 384.712 LE
142.203 312.427 LS
142.203 313.556 LE
142.203 385.841 LS
142.203 384.712 LE
164.648 312.427 LS
164.648 313.556 LE
164.648 385.841 LS
164.648 384.712 LE
187.093 312.427 LS
187.093 313.556 LE
187.093 385.841 LS
187.093 384.712 LE
gsave
0.14902 0.14902 0.14902 C
(2e+06) [6 5 6 6 10] 0 82.8135 296.885 10 /Helvetica SRX
grestore

gsave
0.14902 0.14902 0.14902 C
(4e+06) [6 5 6 6 10] 0 105.258 296.885 10 /Helvetica SRX
grestore

gsave
0.14902 0.14902 0.14902 C
(6e+06) [6 5 6 6 10] 0 127.703 296.885 10 /Helvetica SRX
grestore

gsave
0.14902 0.14902 0.14902 C
(8e+06) [6 5 6 6 10] 0 150.148 296.885 10 /Helvetica SRX
grestore

gsave
0.14902 0.14902 0.14902 C
(1e+07) [6 5 6 6 10] 0 172.593 296.885 10 /Helvetica SRX
grestore

74.88 312.427 LS
76.0042 312.427 LE
187.093 312.427 LS
185.968 312.427 LE
74.88 330.781 LS
76.0042 330.781 LE
187.093 330.781 LS
185.968 330.781 LE
74.88 349.134 LS
76.0042 349.134 LE
187.093 349.134 LS
185.968 349.134 LE
74.88 367.487 LS
76.0042 367.487 LE
187.093 367.487 LS
185.968 367.487 LE
74.88 385.841 LS
76.0042 385.841 LE
187.093 385.841 LS
185.968 385.841 LE
gsave
0.14902 0.14902 0.14902 C
(0) [10] 0 63.8705 308.427 10 /Helvetica SRX
grestore

gsave
0.14902 0.14902 0.14902 C
(0.5) [6 3 10] 0 54.8705 326.781 10 /Helvetica SRX
grestore

gsave
0.14902 0.14902 0.14902 C
(1) [10] 0 63.8705 345.134 10 /Helvetica SRX
grestore

gsave
0.14902 0.14902 0.14902 C
(1.5) [6 3 10] 0 54.8705 363.487 10 /Helvetica SRX
grestore

gsave
0.14902 0.14902 0.14902 C
(2) [10] 0 63.8705 381.841 10 /Helvetica SRX
grestore

2 LC
[16 0] 0 setdash
74.88 312.427 LS
187.093 312.427 LE
74.88 385.841 LS
187.093 385.841 LE
74.88 312.427 LS
74.88 385.841 LE
187.093 312.427 LS
187.093 385.841 LE
gsave
0 0 0 C
(eeta_N \(Interval\)) [6 6 4 6 6 8 3 4 3 7 4 6 4 6 6 3 10] 0 87.9863 398.841 11 /Helvetica-Bold SRX
grestore

0 LC
1 LJ
[] 0 setdash
0 0 1 C
74.88 322.92 LS
76.0021 348.447 L
77.1242 374.664 L
78.2464 366.727 L
79.3685 337.962 L
80.4906 356.392 L
81.6127 357.904 L
82.7349 350.259 L
83.857 334.891 L
84.9791 335.361 L
86.1013 377.493 L
87.2234 383.32 L
88.3455 379.112 L
89.4676 345.924 L
90.5898 341.682 L
91.7119 342.478 L
92.834 346.374 L
93.9561 345.599 L
95.0783 344.692 L
96.2004 337.571 L
97.3225 337.136 L
98.4446 339.087 L
99.5668 340.849 L
100.689 342.845 L
101.811 347.203 L
102.933 345.262 L
104.055 341.999 L
105.177 340.018 L
106.3 341.909 L
107.422 351.689 L
108.544 356.227 L
109.666 358.521 L
110.788 358.235 L
111.91 356.875 L
113.032 355.395 L
114.154 357.83 L
115.277 354.563 L
116.399 352.768 L
117.521 347.534 L
118.643 347.446 L
119.765 348.853 L
120.887 348.757 L
122.009 349.34 L
123.131 347.576 L
124.254 345.46 L
125.376 343.726 L
126.498 343.736 L
127.62 344.309 L
128.742 344.106 L
129.864 342.761 L
130.986 342.39 L
132.108 342.953 L
133.231 342.944 L
134.353 343.292 L
135.475 342.742 L
136.597 342.874 L
137.719 342.461 L
138.841 342.835 L
139.963 342.43 L
141.085 341.846 L
142.208 341.696 L
143.33 341.464 L
144.452 341.844 L
145.574 342.773 L
146.696 343.42 L
147.818 346.166 L
148.94 350.298 L
150.062 354.476 L
151.185 359.169 L
152.307 360.654 L
153.429 360.909 L
154.551 360.265 L
155.673 360.518 L
156.795 360.238 L
157.917 359.814 L
159.039 359.843 L
160.162 360.417 L
161.284 360.007 L
162.406 359.595 L
163.528 359.131 L
164.65 357.359 L
165.772 355.66 L
166.894 355.169 L
168.016 353.562 L
169.139 353.42 L
170.261 351.788 L
171.383 351.769 L
172.505 354.171 L
173.627 355.874 L
174.749 356.241 L
175.871 355.93 L
176.993 355.883 L
178.116 355.963 L
179.238 356.24 L
180.36 355.468 L
181.482 354.042 L
182.604 353.154 L
183.726 352.996 L
184.848 353.761 L
185.97 353.81 L
187.093 353.877 LE
1 0 0 C
74.88 322.354 LS
76.0021 346.103 L
77.1242 348.942 L
78.2464 332.509 L
79.3685 337.201 L
80.4906 334.844 L
81.6127 337.739 L
82.7349 342.675 L
83.857 334.237 L
84.9791 334.9 L
86.1013 354.479 L
87.2234 345.684 L
88.3455 348.829 L
89.4676 337.491 L
90.5898 337.763 L
91.7119 341.5 L
92.834 346.372 L
93.9561 345.471 L
95.0783 344.596 L
96.2004 337.633 L
97.3225 337.179 L
98.4446 338.862 L
99.5668 339.14 L
100.689 339.893 L
101.811 345.013 L
102.933 343.761 L
104.055 341.864 L
105.177 340.124 L
106.3 342.34 L
107.422 350.617 L
108.544 351.391 L
109.666 357.031 L
110.788 356.487 L
111.91 354.03 L
113.032 352.875 L
114.154 356.944 L
115.277 353.764 L
116.399 352.014 L
117.521 347.092 L
118.643 347.173 L
119.765 348.023 L
120.887 348.076 L
122.009 348.69 L
123.131 346.903 L
124.254 344.778 L
125.376 341.808 L
126.498 340.527 L
127.62 340.128 L
128.742 342.041 L
129.864 341.781 L
130.986 341.964 L
132.108 342.664 L
133.231 342.85 L
134.353 343.187 L
135.475 342.634 L
136.597 342.818 L
137.719 342.204 L
138.841 342.416 L
139.963 341.543 L
141.085 340.827 L
142.208 341.025 L
143.33 341.191 L
144.452 341.72 L
145.574 342.729 L
146.696 343.551 L
147.818 347.974 L
148.94 349.959 L
150.062 351.76 L
151.185 353.962 L
152.307 354.09 L
153.429 353.462 L
154.551 352.373 L
155.673 351.017 L
156.795 350.8 L
157.917 349.44 L
159.039 349.223 L
160.162 350.861 L
161.284 351.43 L
162.406 351.949 L
163.528 351.637 L
164.65 350.481 L
165.772 348.396 L
166.894 348.744 L
168.016 349.281 L
169.139 350.616 L
170.261 350.156 L
171.383 350.745 L
172.505 353.532 L
173.627 355.217 L
174.749 355.714 L
175.871 355.566 L
176.993 355.561 L
178.116 355.761 L
179.238 356.152 L
180.36 355.376 L
181.482 353.952 L
182.604 352.987 L
183.726 352.739 L
184.848 353.196 L
185.97 353.261 L
187.093 353.364 LE
grestore
gsave
1.0 1.0 scale
newpath 0 0 moveto 576 0 lineto 576 432 lineto 0 432 lineto
closepath clip
1 1 1 C
241.974 385.841 354.186 312.427 241.974 312.427 T
241.974 385.841 354.186 385.841 354.186 312.427 T
0.5 W
0.15 0.15 0.15 C
264.407 312.427 LS
264.407 313.556 LE
264.407 385.841 LS
264.407 384.712 LE
286.852 312.427 LS
286.852 313.556 LE
286.852 385.841 LS
286.852 384.712 LE
309.297 312.427 LS
309.297 313.556 LE
309.297 385.841 LS
309.297 384.712 LE
331.742 312.427 LS
331.742 313.556 LE
331.742 385.841 LS
331.742 384.712 LE
354.186 312.427 LS
354.186 313.556 LE
354.186 385.841 LS
354.186 384.712 LE
gsave
0.14902 0.14902 0.14902 C
(2e+06) [6 5 6 6 10] 0 249.907 296.885 10 /Helvetica SRX
grestore

gsave
0.14902 0.14902 0.14902 C
(4e+06) [6 5 6 6 10] 0 272.352 296.885 10 /Helvetica SRX
grestore

gsave
0.14902 0.14902 0.14902 C
(6e+06) [6 5 6 6 10] 0 294.797 296.885 10 /Helvetica SRX
grestore

gsave
0.14902 0.14902 0.14902 C
(8e+06) [6 5 6 6 10] 0 317.242 296.885 10 /Helvetica SRX
grestore

gsave
0.14902 0.14902 0.14902 C
(1e+07) [6 5 6 6 10] 0 339.686 296.885 10 /Helvetica SRX
grestore

241.974 312.427 LS
243.098 312.427 LE
354.186 312.427 LS
353.062 312.427 LE
241.974 322.915 LS
243.098 322.915 LE
354.186 322.915 LS
353.062 322.915 LE
241.974 333.403 LS
243.098 333.403 LE
354.186 333.403 LS
353.062 333.403 LE
241.974 343.89 LS
243.098 343.89 LE
354.186 343.89 LS
353.062 343.89 LE
241.974 354.378 LS
243.098 354.378 LE
354.186 354.378 LS
353.062 354.378 LE
241.974 364.865 LS
243.098 364.865 LE
354.186 364.865 LS
353.062 364.865 LE
241.974 375.353 LS
243.098 375.353 LE
354.186 375.353 LS
353.062 375.353 LE
241.974 385.841 LS
243.098 385.841 LE
354.186 385.841 LS
353.062 385.841 LE
gsave
0.14902 0.14902 0.14902 C
(0) [10] 0 230.964 308.427 10 /Helvetica SRX
grestore

gsave
0.14902 0.14902 0.14902 C
(0.1) [6 3 10] 0 221.964 318.915 10 /Helvetica SRX
grestore

gsave
0.14902 0.14902 0.14902 C
(0.2) [6 3 10] 0 221.964 329.403 10 /Helvetica SRX
grestore

gsave
0.14902 0.14902 0.14902 C
(0.3) [6 3 10] 0 221.964 339.89 10 /Helvetica SRX
grestore

gsave
0.14902 0.14902 0.14902 C
(0.4) [6 3 10] 0 221.964 350.378 10 /Helvetica SRX
grestore

gsave
0.14902 0.14902 0.14902 C
(0.5) [6 3 10] 0 221.964 360.865 10 /Helvetica SRX
grestore

gsave
0.14902 0.14902 0.14902 C
(0.6) [6 3 10] 0 221.964 371.353 10 /Helvetica SRX
grestore

gsave
0.14902 0.14902 0.14902 C
(0.7) [6 3 10] 0 221.964 381.841 10 /Helvetica SRX
grestore

2 LC
[16 0] 0 setdash
241.974 312.427 LS
354.186 312.427 LE
241.974 385.841 LS
354.186 385.841 LE
241.974 312.427 LS
241.974 385.841 LE
354.186 312.427 LS
354.186 385.841 LE
gsave
0 0 0 C
(eeta_N \(m2\)) [6 6 4 6 6 8 3 4 10 6 10] 0 266.58 398.841 11 /Helvetica-Bold SRX
grestore

0 LC
1 LJ
[] 0 setdash
0 0 1 C
241.974 313.682 LS
243.096 326.623 L
244.218 353.431 L
245.34 350.698 L
246.462 320.26 L
247.584 335.038 L
248.706 335.584 L
249.829 327.706 L
250.951 318.273 L
252.073 319.001 L
253.195 355.73 L
254.317 371.846 L
255.439 357.061 L
256.561 326.765 L
257.683 322.07 L
258.806 322.574 L
259.928 325.19 L
261.05 324.503 L
262.172 324.173 L
263.294 320.209 L
264.416 319.73 L
265.538 320.841 L
266.66 322.081 L
267.783 322.9 L
268.905 325.704 L
270.027 324.245 L
271.149 322.19 L
272.271 321.016 L
273.393 323.161 L
274.515 332.609 L
275.637 334.787 L
276.76 336.956 L
277.882 336.529 L
279.004 335.198 L
280.126 333.749 L
281.248 335.998 L
282.37 332.278 L
283.492 330.827 L
284.614 327.078 L
285.737 326.489 L
286.859 327.333 L
287.981 327.232 L
289.103 327.525 L
290.225 326.3 L
291.347 324.906 L
292.469 323.622 L
293.591 323.662 L
294.714 324.06 L
295.836 323.734 L
296.958 322.862 L
298.08 322.595 L
299.202 322.943 L
300.324 322.918 L
301.446 323.116 L
302.568 322.785 L
303.691 322.877 L
304.813 322.604 L
305.935 322.903 L
307.057 322.64 L
308.179 322.307 L
309.301 322.227 L
310.423 322.195 L
311.546 322.42 L
312.668 323.027 L
313.79 324.181 L
314.912 326.967 L
316.034 329.249 L
317.156 332.026 L
318.278 335.534 L
319.4 336.864 L
320.523 337.256 L
321.645 336.687 L
322.767 336.938 L
323.889 336.696 L
325.011 336.378 L
326.133 336.516 L
327.255 337.226 L
328.377 337.104 L
329.5 336.861 L
330.622 336.506 L
331.744 335.408 L
332.866 334.392 L
333.988 334.479 L
335.11 333.372 L
336.232 333.312 L
337.354 331.319 L
338.477 331.287 L
339.599 332.777 L
340.721 333.694 L
341.843 333.937 L
342.965 333.681 L
344.087 333.691 L
345.209 333.737 L
346.331 333.976 L
347.454 333.198 L
348.576 331.852 L
349.698 331.091 L
350.82 330.949 L
351.942 331.458 L
353.064 331.49 L
354.186 331.53 LE
1 0 0 C
241.974 313.576 LS
243.096 325.046 L
244.218 327.748 L
245.34 317.206 L
246.462 319.751 L
247.584 318.301 L
248.706 319.899 L
249.829 323.688 L
250.951 317.913 L
252.073 318.555 L
253.195 336.143 L
254.317 326.516 L
255.439 329.143 L
256.561 320.599 L
257.683 320.04 L
258.806 322.07 L
259.928 325.155 L
261.05 324.33 L
262.172 324.158 L
263.294 320.196 L
264.416 319.73 L
265.538 320.721 L
266.66 321.105 L
267.783 321.002 L
268.905 324.152 L
270.027 323.395 L
271.149 322.065 L
272.271 321.013 L
273.393 322.916 L
274.515 331.074 L
275.637 331.871 L
276.76 334.663 L
277.882 333.766 L
279.004 331.919 L
280.126 331.135 L
281.248 334.63 L
282.37 331.782 L
283.492 330.551 L
284.614 326.857 L
285.737 326.464 L
286.859 327.265 L
287.981 327.092 L
289.103 327.446 L
290.225 325.991 L
291.347 324.398 L
292.469 322.344 L
293.591 321.552 L
294.714 321.446 L
295.836 322.38 L
296.958 322.21 L
298.08 322.395 L
299.202 322.836 L
300.324 322.913 L
301.446 323.093 L
302.568 322.753 L
303.691 322.863 L
304.813 322.493 L
305.935 322.678 L
307.057 322.164 L
308.179 321.761 L
309.301 321.866 L
310.423 322.043 L
311.546 322.336 L
312.668 323.013 L
313.79 324.177 L
314.912 326.677 L
316.034 328.136 L
317.156 329.759 L
318.278 331.935 L
319.4 332.209 L
320.523 331.645 L
321.645 330.642 L
322.767 329.594 L
323.889 329.331 L
325.011 328.228 L
326.133 328.184 L
327.255 329.485 L
328.377 330.103 L
329.5 330.371 L
330.622 329.918 L
331.744 328.933 L
332.866 327.548 L
333.988 327.863 L
335.11 328.307 L
336.232 329.078 L
337.354 328.988 L
338.477 329.937 L
339.599 331.999 L
340.721 333.388 L
341.843 333.794 L
342.965 333.645 L
344.087 333.686 L
345.209 333.715 L
346.331 333.927 L
347.454 333.099 L
348.576 331.746 L
349.698 330.951 L
350.82 330.781 L
351.942 331.401 L
353.064 331.487 L
354.186 331.499 LE
grestore
gsave
1.0 1.0 scale
newpath 0 0 moveto 576 0 lineto 576 432 lineto 0 432 lineto
closepath clip
1 1 1 C
409.067 385.841 521.28 312.427 409.067 312.427 T
409.067 385.841 521.28 385.841 521.28 312.427 T
0.5 W
0.15 0.15 0.15 C
431.501 312.427 LS
431.501 313.556 LE
431.501 385.841 LS
431.501 384.712 LE
453.946 312.427 LS
453.946 313.556 LE
453.946 385.841 LS
453.946 384.712 LE
476.39 312.427 LS
476.39 313.556 LE
476.39 385.841 LS
476.39 384.712 LE
498.835 312.427 LS
498.835 313.556 LE
498.835 385.841 LS
498.835 384.712 LE
521.28 312.427 LS
521.28 313.556 LE
521.28 385.841 LS
521.28 384.712 LE
gsave
0.14902 0.14902 0.14902 C
(2e+06) [6 5 6 6 10] 0 417.001 296.885 10 /Helvetica SRX
grestore

gsave
0.14902 0.14902 0.14902 C
(4e+06) [6 5 6 6 10] 0 439.446 296.885 10 /Helvetica SRX
grestore

gsave
0.14902 0.14902 0.14902 C
(6e+06) [6 5 6 6 10] 0 461.89 296.885 10 /Helvetica SRX
grestore

gsave
0.14902 0.14902 0.14902 C
(8e+06) [6 5 6 6 10] 0 484.335 296.885 10 /Helvetica SRX
grestore

gsave
0.14902 0.14902 0.14902 C
(1e+07) [6 5 6 6 10] 0 506.78 296.885 10 /Helvetica SRX
grestore

409.067 312.427 LS
410.192 312.427 LE
521.28 312.427 LS
520.156 312.427 LE
409.067 322.915 LS
410.192 322.915 LE
521.28 322.915 LS
520.156 322.915 LE
409.067 333.403 LS
410.192 333.403 LE
521.28 333.403 LS
520.156 333.403 LE
409.067 343.89 LS
410.192 343.89 LE
521.28 343.89 LS
520.156 343.89 LE
409.067 354.378 LS
410.192 354.378 LE
521.28 354.378 LS
520.156 354.378 LE
409.067 364.865 LS
410.192 364.865 LE
521.28 364.865 LS
520.156 364.865 LE
409.067 375.353 LS
410.192 375.353 LE
521.28 375.353 LS
520.156 375.353 LE
409.067 385.841 LS
410.192 385.841 LE
521.28 385.841 LS
520.156 385.841 LE
gsave
0.14902 0.14902 0.14902 C
(0) [10] 0 398.058 308.427 10 /Helvetica SRX
grestore

gsave
0.14902 0.14902 0.14902 C
(0.1) [6 3 10] 0 389.058 318.915 10 /Helvetica SRX
grestore

gsave
0.14902 0.14902 0.14902 C
(0.2) [6 3 10] 0 389.058 329.403 10 /Helvetica SRX
grestore

gsave
0.14902 0.14902 0.14902 C
(0.3) [6 3 10] 0 389.058 339.89 10 /Helvetica SRX
grestore

gsave
0.14902 0.14902 0.14902 C
(0.4) [6 3 10] 0 389.058 350.378 10 /Helvetica SRX
grestore

gsave
0.14902 0.14902 0.14902 C
(0.5) [6 3 10] 0 389.058 360.865 10 /Helvetica SRX
grestore

gsave
0.14902 0.14902 0.14902 C
(0.6) [6 3 10] 0 389.058 371.353 10 /Helvetica SRX
grestore

gsave
0.14902 0.14902 0.14902 C
(0.7) [6 3 10] 0 389.058 381.841 10 /Helvetica SRX
grestore

2 LC
[16 0] 0 setdash
409.067 312.427 LS
521.28 312.427 LE
409.067 385.841 LS
521.28 385.841 LE
409.067 312.427 LS
409.067 385.841 LE
521.28 312.427 LS
521.28 385.841 LE
gsave
0 0 0 C
(eeta_N \(m3\)) [6 6 4 6 6 8 3 4 10 6 10] 0 433.674 398.841 11 /Helvetica-Bold SRX
grestore

0 LC
1 LJ
[] 0 setdash
0 0 1 C
409.067 312.651 LS
410.19 320.699 L
411.312 350.177 L
412.434 339.355 L
413.556 315.861 L
414.678 326.086 L
415.8 327.465 L
416.922 320.909 L
418.044 314.558 L
419.167 315.192 L
420.289 353.459 L
421.411 367.243 L
422.533 354.181 L
423.655 321.413 L
424.777 316.856 L
425.899 317.319 L
427.021 318.891 L
428.144 318.277 L
429.266 318.518 L
430.388 315.918 L
431.51 315.533 L
432.632 316.248 L
433.754 317.165 L
434.876 317.405 L
435.998 319.174 L
437.121 318.222 L
438.243 316.917 L
439.365 316.175 L
440.487 318.292 L
441.609 329.422 L
442.731 329.535 L
443.853 329.738 L
444.975 329.434 L
446.098 328.121 L
447.22 326.838 L
448.342 329.313 L
449.464 325.184 L
450.586 324.324 L
451.708 321.24 L
452.83 320.474 L
453.952 320.982 L
455.075 320.797 L
456.197 320.914 L
457.319 320.019 L
458.441 319.048 L
459.563 318.027 L
460.685 318.086 L
461.807 318.388 L
462.929 318.003 L
464.052 317.388 L
465.174 317.244 L
466.296 317.451 L
467.418 317.456 L
468.54 317.564 L
469.662 317.365 L
470.784 317.411 L
471.906 317.23 L
473.029 317.459 L
474.151 317.254 L
475.273 317.057 L
476.395 317.025 L
477.517 317.06 L
478.639 317.217 L
479.761 317.67 L
480.883 318.97 L
482.006 321.72 L
483.128 323.622 L
484.25 326.048 L
485.372 329.3 L
486.494 330.464 L
487.616 330.843 L
488.738 330.483 L
489.86 330.878 L
490.983 330.639 L
492.105 330.261 L
493.227 330.407 L
494.349 331.28 L
495.471 331.442 L
496.593 331.131 L
497.715 330.668 L
498.837 329.609 L
499.96 328.565 L
501.082 328.867 L
502.204 327.618 L
503.326 327.629 L
504.448 325.237 L
505.57 325.207 L
506.692 326.372 L
507.814 327.081 L
508.937 327.279 L
510.059 327.111 L
511.181 327.047 L
512.303 327.01 L
513.425 327.1 L
514.547 326.405 L
515.669 325.305 L
516.792 324.698 L
517.914 324.537 L
519.036 324.942 L
520.158 324.889 L
521.28 324.918 LE
1 0 0 C
409.067 312.614 LS
410.19 319.064 L
411.312 321.321 L
412.434 314.087 L
413.556 315.593 L
414.678 314.632 L
415.8 315.534 L
416.922 318.216 L
418.044 314.379 L
419.167 314.854 L
420.289 328.897 L
421.411 321.16 L
422.533 322.433 L
423.655 316.551 L
424.777 315.683 L
425.899 316.911 L
427.021 318.891 L
428.144 318.215 L
429.266 318.534 L
430.388 315.91 L
431.51 315.53 L
432.632 316.186 L
433.754 316.5 L
434.876 316.139 L
435.998 318.414 L
437.121 317.743 L
438.243 316.82 L
439.365 316.179 L
440.487 317.952 L
441.609 326.539 L
442.731 325.867 L
443.853 328.071 L
444.975 327.503 L
446.098 325.576 L
447.22 324.656 L
448.342 327.978 L
449.464 324.937 L
450.586 324.248 L
451.708 321.326 L
452.83 320.519 L
453.952 320.872 L
455.075 320.652 L
456.197 320.825 L
457.319 319.784 L
458.441 318.782 L
459.563 317.248 L
460.685 316.674 L
461.807 316.716 L
462.929 317.194 L
464.052 317.034 L
465.174 317.121 L
466.296 317.378 L
467.418 317.451 L
468.54 317.558 L
469.662 317.352 L
470.784 317.406 L
471.906 317.183 L
473.029 317.366 L
474.151 317.02 L
475.273 316.791 L
476.395 316.845 L
477.517 316.998 L
478.639 317.186 L
479.761 317.673 L
480.883 318.951 L
482.006 321.19 L
483.128 322.126 L
484.25 323.243 L
485.372 324.875 L
486.494 325.014 L
487.616 324.659 L
488.738 324.017 L
489.86 323.241 L
490.983 323.05 L
492.105 322.099 L
493.227 322.211 L
494.349 323.398 L
495.471 323.999 L
496.593 324.079 L
497.715 323.725 L
498.837 322.983 L
499.96 321.917 L
501.082 322.319 L
502.204 322.818 L
503.326 323.437 L
504.448 323.233 L
505.57 324.223 L
506.692 325.961 L
507.814 326.974 L
508.937 327.237 L
510.059 327.112 L
511.181 327.049 L
512.303 327.009 L
513.425 327.087 L
514.547 326.369 L
515.669 325.272 L
516.792 324.651 L
517.914 324.475 L
519.036 324.938 L
520.158 324.88 L
521.28 324.876 LE
grestore
gsave
1.0 1.0 scale
newpath 0 0 moveto 576 0 lineto 576 432 lineto 0 432 lineto
closepath clip
1 1 1 C
74.88 253.387 187.093 179.974 74.88 179.974 T
74.88 253.387 187.093 253.387 187.093 179.974 T
0.5 W
0.15 0.15 0.15 C
97.3135 179.974 LS
97.3135 181.102 LE
97.3135 253.387 LS
97.3135 252.258 LE
119.758 179.974 LS
119.758 181.102 LE
119.758 253.387 LS
119.758 252.258 LE
142.203 179.974 LS
142.203 181.102 LE
142.203 253.387 LS
142.203 252.258 LE
164.648 179.974 LS
164.648 181.102 LE
164.648 253.387 LS
164.648 252.258 LE
187.093 179.974 LS
187.093 181.102 LE
187.093 253.387 LS
187.093 252.258 LE
gsave
0.14902 0.14902 0.14902 C
(2e+06) [6 5 6 6 10] 0 82.8135 164.431 10 /Helvetica SRX
grestore

gsave
0.14902 0.14902 0.14902 C
(4e+06) [6 5 6 6 10] 0 105.258 164.431 10 /Helvetica SRX
grestore

gsave
0.14902 0.14902 0.14902 C
(6e+06) [6 5 6 6 10] 0 127.703 164.431 10 /Helvetica SRX
grestore

gsave
0.14902 0.14902 0.14902 C
(8e+06) [6 5 6 6 10] 0 150.148 164.431 10 /Helvetica SRX
grestore

gsave
0.14902 0.14902 0.14902 C
(1e+07) [6 5 6 6 10] 0 172.593 164.431 10 /Helvetica SRX
grestore

74.88 179.974 LS
76.0042 179.974 LE
187.093 179.974 LS
185.968 179.974 LE
74.88 198.327 LS
76.0042 198.327 LE
187.093 198.327 LS
185.968 198.327 LE
74.88 216.68 LS
76.0042 216.68 LE
187.093 216.68 LS
185.968 216.68 LE
74.88 235.034 LS
76.0042 235.034 LE
187.093 235.034 LS
185.968 235.034 LE
74.88 253.387 LS
76.0042 253.387 LE
187.093 253.387 LS
185.968 253.387 LE
gsave
0.14902 0.14902 0.14902 C
(0) [10] 0 63.8705 175.974 10 /Helvetica SRX
grestore

gsave
0.14902 0.14902 0.14902 C
(0.5) [6 3 10] 0 54.8705 194.327 10 /Helvetica SRX
grestore

gsave
0.14902 0.14902 0.14902 C
(1) [10] 0 63.8705 212.68 10 /Helvetica SRX
grestore

gsave
0.14902 0.14902 0.14902 C
(1.5) [6 3 10] 0 54.8705 231.034 10 /Helvetica SRX
grestore

gsave
0.14902 0.14902 0.14902 C
(2) [10] 0 63.8705 249.387 10 /Helvetica SRX
grestore

2 LC
[16 0] 0 setdash
74.88 179.974 LS
187.093 179.974 LE
74.88 253.387 LS
187.093 253.387 LE
74.88 179.974 LS
74.88 253.387 LE
187.093 179.974 LS
187.093 253.387 LE
gsave
0 0 0 C
(eeta_C \(Interval\)) [6 6 4 6 6 8 3 4 3 7 4 6 4 6 6 3 10] 0 87.9863 266.387 11 /Helvetica-Bold SRX
grestore

0 LC
1 LJ
[] 0 setdash
0 0 1 C
74.88 189.678 LS
76.0021 215.171 L
77.1242 200.204 L
78.2464 208.235 L
79.3685 215.36 L
80.4906 213.2 L
81.6127 227.068 L
82.7349 242.734 L
83.857 239.546 L
84.9791 220.115 L
86.1013 214.806 L
87.2234 225.937 L
88.3455 228.612 L
89.4676 223.108 L
90.5898 221.217 L
91.7119 223.643 L
92.834 225.644 L
93.9561 221.68 L
95.0783 214.416 L
96.2004 212.715 L
97.3225 216.363 L
98.4446 215.918 L
99.5668 212.294 L
100.689 212.535 L
101.811 213.369 L
102.933 212.375 L
104.055 211.46 L
105.177 212.333 L
106.3 212.207 L
107.422 211.538 L
108.544 214.004 L
109.666 217.703 L
110.788 228.919 L
111.91 233.701 L
113.032 236.048 L
114.154 238.866 L
115.277 239.72 L
116.399 239.25 L
117.521 238.546 L
118.643 236.163 L
119.765 231.882 L
120.887 231.005 L
122.009 233.336 L
123.131 234.775 L
124.254 237.02 L
125.376 233.592 L
126.498 231.584 L
127.62 229.949 L
128.742 229.485 L
129.864 229.213 L
130.986 228.813 L
132.108 228.853 L
133.231 226.535 L
134.353 228.769 L
135.475 226.921 L
136.597 226.811 L
137.719 230.126 L
138.841 229.577 L
139.963 228.224 L
141.085 230.057 L
142.208 229.389 L
143.33 229.513 L
144.452 225.963 L
145.574 222.881 L
146.696 220.818 L
147.818 222.108 L
148.94 224.207 L
150.062 226.982 L
151.185 230.179 L
152.307 229.844 L
153.429 230.623 L
154.551 230.591 L
155.673 230.21 L
156.795 229.765 L
157.917 228.264 L
159.039 226.866 L
160.162 224.151 L
161.284 222.575 L
162.406 220.988 L
163.528 217.849 L
164.65 217.904 L
165.772 217.695 L
166.894 217.74 L
168.016 217.916 L
169.139 218.717 L
170.261 219.4 L
171.383 219.978 L
172.505 221.719 L
173.627 224.029 L
174.749 226.45 L
175.871 226.982 L
176.993 227.241 L
178.116 227.847 L
179.238 229.994 L
180.36 231.788 L
181.482 233.149 L
182.604 234.436 L
183.726 234.277 L
184.848 233.64 L
185.97 233.59 L
187.093 232.052 LE
1 0 0 C
74.88 189.324 LS
76.0021 203.602 L
77.1242 200.088 L
78.2464 208.609 L
79.3685 208.742 L
80.4906 202.649 L
81.6127 203.243 L
82.7349 209.525 L
83.857 223.19 L
84.9791 213.68 L
86.1013 208.203 L
87.2234 210.279 L
88.3455 209.612 L
89.4676 212.801 L
90.5898 221.162 L
91.7119 217.876 L
92.834 213.523 L
93.9561 214.507 L
95.0783 212.887 L
96.2004 213.303 L
97.3225 214.888 L
98.4446 213.219 L
99.5668 211.092 L
100.689 211.959 L
101.811 212.043 L
102.933 211.461 L
104.055 210.291 L
105.177 211.966 L
106.3 212.221 L
107.422 211.157 L
108.544 210.736 L
109.666 210.724 L
110.788 219.926 L
111.91 218.994 L
113.032 217.324 L
114.154 214.955 L
115.277 209.913 L
116.399 210.132 L
117.521 211.577 L
118.643 214.769 L
119.765 217.599 L
120.887 223.175 L
122.009 228.897 L
123.131 231.901 L
124.254 231.279 L
125.376 227.106 L
126.498 223.957 L
127.62 220.289 L
128.742 219.632 L
129.864 217.995 L
130.986 218.767 L
132.108 220.449 L
133.231 222.655 L
134.353 227.457 L
135.475 226.392 L
136.597 226.225 L
137.719 229.847 L
138.841 229.346 L
139.963 228.17 L
141.085 229.995 L
142.208 229.111 L
143.33 229.117 L
144.452 225.512 L
145.574 222.429 L
146.696 220.032 L
147.818 221.239 L
148.94 222.927 L
150.062 225.27 L
151.185 228.325 L
152.307 228.767 L
153.429 230.282 L
154.551 230.262 L
155.673 229.926 L
156.795 229.496 L
157.917 228.14 L
159.039 226.704 L
160.162 223.801 L
161.284 222.414 L
162.406 220.96 L
163.528 217.834 L
164.65 217.969 L
165.772 217.757 L
166.894 217.804 L
168.016 217.839 L
169.139 218.412 L
170.261 218.883 L
171.383 219.409 L
172.505 221.813 L
173.627 223.717 L
174.749 225.902 L
175.871 225.674 L
176.993 225.109 L
178.116 225.455 L
179.238 228.459 L
180.36 230.987 L
181.482 232.444 L
182.604 233.746 L
183.726 233.694 L
184.848 233.066 L
185.97 232.989 L
187.093 231.224 LE
grestore
gsave
1.0 1.0 scale
newpath 0 0 moveto 576 0 lineto 576 432 lineto 0 432 lineto
closepath clip
1 1 1 C
241.974 253.387 354.186 179.974 241.974 179.974 T
241.974 253.387 354.186 253.387 354.186 179.974 T
0.5 W
0.15 0.15 0.15 C
264.407 179.974 LS
264.407 181.102 LE
264.407 253.387 LS
264.407 252.258 LE
286.852 179.974 LS
286.852 181.102 LE
286.852 253.387 LS
286.852 252.258 LE
309.297 179.974 LS
309.297 181.102 LE
309.297 253.387 LS
309.297 252.258 LE
331.742 179.974 LS
331.742 181.102 LE
331.742 253.387 LS
331.742 252.258 LE
354.186 179.974 LS
354.186 181.102 LE
354.186 253.387 LS
354.186 252.258 LE
gsave
0.14902 0.14902 0.14902 C
(2e+06) [6 5 6 6 10] 0 249.907 164.431 10 /Helvetica SRX
grestore

gsave
0.14902 0.14902 0.14902 C
(4e+06) [6 5 6 6 10] 0 272.352 164.431 10 /Helvetica SRX
grestore

gsave
0.14902 0.14902 0.14902 C
(6e+06) [6 5 6 6 10] 0 294.797 164.431 10 /Helvetica SRX
grestore

gsave
0.14902 0.14902 0.14902 C
(8e+06) [6 5 6 6 10] 0 317.242 164.431 10 /Helvetica SRX
grestore

gsave
0.14902 0.14902 0.14902 C
(1e+07) [6 5 6 6 10] 0 339.686 164.431 10 /Helvetica SRX
grestore

241.974 179.974 LS
243.098 179.974 LE
354.186 179.974 LS
353.062 179.974 LE
241.974 194.656 LS
243.098 194.656 LE
354.186 194.656 LS
353.062 194.656 LE
241.974 209.339 LS
243.098 209.339 LE
354.186 209.339 LS
353.062 209.339 LE
241.974 224.022 LS
243.098 224.022 LE
354.186 224.022 LS
353.062 224.022 LE
241.974 238.704 LS
243.098 238.704 LE
354.186 238.704 LS
353.062 238.704 LE
241.974 253.387 LS
243.098 253.387 LE
354.186 253.387 LS
353.062 253.387 LE
gsave
0.14902 0.14902 0.14902 C
(0) [10] 0 230.964 175.974 10 /Helvetica SRX
grestore

gsave
0.14902 0.14902 0.14902 C
(0.1) [6 3 10] 0 221.964 190.656 10 /Helvetica SRX
grestore

gsave
0.14902 0.14902 0.14902 C
(0.2) [6 3 10] 0 221.964 205.339 10 /Helvetica SRX
grestore

gsave
0.14902 0.14902 0.14902 C
(0.3) [6 3 10] 0 221.964 220.022 10 /Helvetica SRX
grestore

gsave
0.14902 0.14902 0.14902 C
(0.4) [6 3 10] 0 221.964 234.704 10 /Helvetica SRX
grestore

gsave
0.14902 0.14902 0.14902 C
(0.5) [6 3 10] 0 221.964 249.387 10 /Helvetica SRX
grestore

2 LC
[16 0] 0 setdash
241.974 179.974 LS
354.186 179.974 LE
241.974 253.387 LS
354.186 253.387 LE
241.974 179.974 LS
241.974 253.387 LE
354.186 179.974 LS
354.186 253.387 LE
gsave
0 0 0 C
(eeta_C \(m2\)) [6 6 4 6 6 8 3 4 10 6 10] 0 266.58 266.387 11 /Helvetica-Bold SRX
grestore

0 LC
1 LJ
[] 0 setdash
0 0 1 C
241.974 182.184 LS
243.096 197.698 L
244.218 186.587 L
245.34 193.29 L
246.462 199.217 L
247.584 197.155 L
248.706 216.295 L
249.829 244.576 L
250.951 234.059 L
252.073 205.458 L
253.195 198.869 L
254.317 212.02 L
255.439 216.911 L
256.561 208.643 L
257.683 205.877 L
258.806 209.544 L
259.928 211.432 L
261.05 206.473 L
262.172 199.427 L
263.294 197.957 L
264.416 200.259 L
265.538 200.236 L
266.66 196.219 L
267.783 197.371 L
268.905 197.847 L
270.027 196.846 L
271.149 196.113 L
272.271 196.791 L
273.393 196.613 L
274.515 195.543 L
275.637 198.069 L
276.76 202.85 L
277.882 221.67 L
279.004 226.861 L
280.126 230.551 L
281.248 236.274 L
282.37 239.771 L
283.492 238.284 L
284.614 236.442 L
285.737 230.888 L
286.859 221.015 L
287.981 219.066 L
289.103 223.499 L
290.225 227.045 L
291.347 228.826 L
292.469 224.131 L
293.591 221.267 L
294.714 218.561 L
295.836 218.006 L
296.958 217.541 L
298.08 217.074 L
299.202 216.829 L
300.324 214.275 L
301.446 217.115 L
302.568 214.624 L
303.691 214.752 L
304.813 218.513 L
305.935 217.966 L
307.057 216.22 L
308.179 218.762 L
309.301 217.786 L
310.423 217.923 L
311.546 212.857 L
312.668 208.58 L
313.79 205.993 L
314.912 207.624 L
316.034 211.4 L
317.156 215.522 L
318.278 220.291 L
319.4 219.371 L
320.523 220.264 L
321.645 220.299 L
322.767 219.414 L
323.889 218.693 L
325.011 216.456 L
326.133 214.462 L
327.255 210.173 L
328.377 208.342 L
329.5 207.055 L
330.622 203.093 L
331.744 203.08 L
332.866 202.797 L
333.988 202.822 L
335.11 202.93 L
336.232 203.818 L
337.354 204.898 L
338.477 206.255 L
339.599 209.676 L
340.721 211.997 L
341.843 215.692 L
342.965 216.084 L
344.087 216.293 L
345.209 216.838 L
346.331 219.374 L
347.454 222.415 L
348.576 224.355 L
349.698 226.47 L
350.82 226.197 L
351.942 225.08 L
353.064 224.991 L
354.186 222.785 LE
1 0 0 C
241.974 181.81 LS
243.096 189.351 L
244.218 186.485 L
245.34 193.252 L
246.462 193.617 L
247.584 188.225 L
248.706 189.042 L
249.829 193.668 L
250.951 210.847 L
252.073 197.878 L
253.195 193.025 L
254.317 194.948 L
255.439 194.248 L
256.561 197.749 L
257.683 205.868 L
258.806 203.018 L
259.928 197.536 L
261.05 198.447 L
262.172 197.166 L
263.294 197.733 L
264.416 199.771 L
265.538 198.215 L
266.66 195.693 L
267.783 197.354 L
268.905 197.301 L
270.027 195.824 L
271.149 195.216 L
272.271 196.468 L
273.393 196.604 L
274.515 195.154 L
275.637 194.9 L
276.76 195.956 L
277.882 207.691 L
279.004 207.291 L
280.126 204.547 L
281.248 201.257 L
282.37 195.47 L
283.492 195.422 L
284.614 196.912 L
285.737 200.651 L
286.859 203.489 L
287.981 209.914 L
289.103 220.181 L
290.225 227.041 L
291.347 226.829 L
292.469 218.407 L
293.591 212.091 L
294.714 207.66 L
295.836 206.57 L
296.958 204.137 L
298.08 205.126 L
299.202 207.669 L
300.324 209.08 L
301.446 215.357 L
302.568 214.416 L
303.691 214.679 L
304.813 218.442 L
305.935 217.936 L
307.057 216.183 L
308.179 218.505 L
309.301 217.354 L
310.423 217.561 L
311.546 212.343 L
312.668 207.953 L
313.79 205.213 L
314.912 206.579 L
316.034 209.125 L
317.156 212.13 L
318.278 217.222 L
319.4 217.728 L
320.523 219.375 L
321.645 219.576 L
322.767 218.722 L
323.889 217.992 L
325.011 215.972 L
326.133 214.086 L
327.255 209.806 L
328.377 208.144 L
329.5 206.96 L
330.622 203.022 L
331.744 202.99 L
332.866 202.78 L
333.988 202.816 L
335.11 202.878 L
336.232 203.513 L
337.354 204.369 L
338.477 205.515 L
339.599 208.835 L
340.721 210.513 L
341.843 213.736 L
342.965 213.723 L
344.087 213.113 L
345.209 213.818 L
346.331 217.489 L
347.454 221.328 L
348.576 223.518 L
349.698 225.877 L
350.82 225.745 L
351.942 224.695 L
353.064 224.253 L
354.186 221.712 LE
grestore
gsave
1.0 1.0 scale
newpath 0 0 moveto 576 0 lineto 576 432 lineto 0 432 lineto
closepath clip
1 1 1 C
409.067 253.387 521.28 179.974 409.067 179.974 T
409.067 253.387 521.28 253.387 521.28 179.974 T
0.5 W
0.15 0.15 0.15 C
431.501 179.974 LS
431.501 181.102 LE
431.501 253.387 LS
431.501 252.258 LE
453.946 179.974 LS
453.946 181.102 LE
453.946 253.387 LS
453.946 252.258 LE
476.39 179.974 LS
476.39 181.102 LE
476.39 253.387 LS
476.39 252.258 LE
498.835 179.974 LS
498.835 181.102 LE
498.835 253.387 LS
498.835 252.258 LE
521.28 179.974 LS
521.28 181.102 LE
521.28 253.387 LS
521.28 252.258 LE
gsave
0.14902 0.14902 0.14902 C
(2e+06) [6 5 6 6 10] 0 417.001 164.431 10 /Helvetica SRX
grestore

gsave
0.14902 0.14902 0.14902 C
(4e+06) [6 5 6 6 10] 0 439.446 164.431 10 /Helvetica SRX
grestore

gsave
0.14902 0.14902 0.14902 C
(6e+06) [6 5 6 6 10] 0 461.89 164.431 10 /Helvetica SRX
grestore

gsave
0.14902 0.14902 0.14902 C
(8e+06) [6 5 6 6 10] 0 484.335 164.431 10 /Helvetica SRX
grestore

gsave
0.14902 0.14902 0.14902 C
(1e+07) [6 5 6 6 10] 0 506.78 164.431 10 /Helvetica SRX
grestore

409.067 179.974 LS
410.192 179.974 LE
521.28 179.974 LS
520.156 179.974 LE
409.067 198.327 LS
410.192 198.327 LE
521.28 198.327 LS
520.156 198.327 LE
409.067 216.68 LS
410.192 216.68 LE
521.28 216.68 LS
520.156 216.68 LE
409.067 235.034 LS
410.192 235.034 LE
521.28 235.034 LS
520.156 235.034 LE
409.067 253.387 LS
410.192 253.387 LE
521.28 253.387 LS
520.156 253.387 LE
gsave
0.14902 0.14902 0.14902 C
(0) [10] 0 398.058 175.974 10 /Helvetica SRX
grestore

gsave
0.14902 0.14902 0.14902 C
(0.1) [6 3 10] 0 389.058 194.327 10 /Helvetica SRX
grestore

gsave
0.14902 0.14902 0.14902 C
(0.2) [6 3 10] 0 389.058 212.68 10 /Helvetica SRX
grestore

gsave
0.14902 0.14902 0.14902 C
(0.3) [6 3 10] 0 389.058 231.034 10 /Helvetica SRX
grestore

gsave
0.14902 0.14902 0.14902 C
(0.4) [6 3 10] 0 389.058 249.387 10 /Helvetica SRX
grestore

2 LC
[16 0] 0 setdash
409.067 179.974 LS
521.28 179.974 LE
409.067 253.387 LS
521.28 253.387 LE
409.067 179.974 LS
409.067 253.387 LE
521.28 179.974 LS
521.28 253.387 LE
gsave
0 0 0 C
(eeta_C \(m3\)) [6 6 4 6 6 8 3 4 10 6 10] 0 433.674 266.387 11 /Helvetica-Bold SRX
grestore

0 LC
1 LJ
[] 0 setdash
0 0 1 C
409.067 180.654 LS
410.19 191.746 L
411.312 182.731 L
412.434 188.322 L
413.556 192.916 L
414.678 190.72 L
415.8 209.288 L
416.922 246.799 L
418.044 236.921 L
419.167 199.655 L
420.289 192.947 L
421.411 206.15 L
422.533 211.335 L
423.655 202.745 L
424.777 200.475 L
425.899 203.91 L
427.021 206.063 L
428.144 201.214 L
429.266 194.125 L
430.388 192.808 L
431.51 194.066 L
432.632 193.926 L
433.754 190.052 L
434.876 191.903 L
435.998 191.884 L
437.121 190.767 L
438.243 190.101 L
439.365 190.659 L
440.487 190.558 L
441.609 189.395 L
442.731 191.86 L
443.853 197.888 L
444.975 228.91 L
446.098 232.926 L
447.22 235.463 L
448.342 240.425 L
449.464 242.71 L
450.586 241.124 L
451.708 238.943 L
452.83 232.518 L
453.952 216.817 L
455.075 215.271 L
456.197 222.666 L
457.319 230.493 L
458.441 233.07 L
459.563 226.148 L
460.685 221.538 L
461.807 218.026 L
462.929 217.412 L
464.052 216.784 L
465.174 216.788 L
466.296 216.912 L
467.418 212.947 L
468.54 217.323 L
469.662 212.981 L
470.784 213.248 L
471.906 217.959 L
473.029 217.045 L
474.151 214.521 L
475.273 217.24 L
476.395 215.587 L
477.517 215.302 L
478.639 208.831 L
479.761 203.666 L
480.883 200.812 L
482.006 202.758 L
483.128 207.99 L
484.25 213.139 L
485.372 219.35 L
486.494 217.747 L
487.616 218.415 L
488.738 218.406 L
489.86 217.554 L
490.983 216.535 L
492.105 213.793 L
493.227 211.627 L
494.349 205.791 L
495.471 203.856 L
496.593 202.824 L
497.715 197.694 L
498.837 197.58 L
499.96 197.2 L
501.082 197.236 L
502.204 197.327 L
503.326 198.223 L
504.448 199.694 L
505.57 201.97 L
506.692 207.516 L
507.814 210.105 L
508.937 215.657 L
510.059 215.95 L
511.181 216.045 L
512.303 216.546 L
513.425 219.557 L
514.547 223.736 L
515.669 226.316 L
516.792 229.231 L
517.914 228.723 L
519.036 227.364 L
520.158 226.946 L
521.28 223.685 LE
1 0 0 C
409.067 180.467 LS
410.19 184.388 L
411.312 182.654 L
412.434 188.314 L
413.556 188.121 L
414.678 183.749 L
415.8 184.513 L
416.922 188.204 L
418.044 209.406 L
419.167 192.006 L
420.289 187.608 L
421.411 189.294 L
422.533 188.757 L
423.655 192.577 L
424.777 200.507 L
425.899 197.089 L
427.021 191.297 L
428.144 191.973 L
429.266 191.461 L
430.388 192.368 L
431.51 193.362 L
432.632 192.07 L
433.754 189.746 L
434.876 191.942 L
435.998 191.469 L
437.121 190.223 L
438.243 189.535 L
439.365 190.464 L
440.487 190.556 L
441.609 189.049 L
442.731 189.123 L
443.853 190.821 L
444.975 206.759 L
446.098 205.246 L
447.22 201.537 L
448.342 197.721 L
449.464 190.763 L
450.586 190.445 L
451.708 191.954 L
452.83 196.072 L
453.952 199.67 L
455.075 206.714 L
456.197 220.179 L
457.319 230.554 L
458.441 229.921 L
459.563 219.203 L
460.685 210.597 L
461.807 204.549 L
462.929 202.856 L
464.052 199.46 L
465.174 200.802 L
466.296 203.957 L
467.418 205.7 L
468.54 215.791 L
469.662 213.164 L
470.784 213.298 L
471.906 217.766 L
473.029 216.925 L
474.151 214.434 L
475.273 216.743 L
476.395 214.905 L
477.517 214.91 L
478.639 208.521 L
479.761 203.127 L
480.883 199.941 L
482.006 201.598 L
483.128 204.724 L
484.25 208.154 L
485.372 214.948 L
486.494 215.387 L
487.616 217.143 L
488.738 217.181 L
489.86 216.377 L
490.983 215.4 L
492.105 213.03 L
493.227 211.022 L
494.349 205.28 L
495.471 203.584 L
496.593 202.699 L
497.715 197.622 L
498.837 197.458 L
499.96 197.176 L
501.082 197.22 L
502.204 197.315 L
503.326 198.059 L
504.448 199.214 L
505.57 201.072 L
506.692 205.919 L
507.814 207.52 L
508.937 211.986 L
510.059 211.835 L
511.181 210.652 L
512.303 211.665 L
513.425 216.743 L
514.547 222.383 L
515.669 225.366 L
516.792 228.591 L
517.914 228.194 L
519.036 226.931 L
520.158 226.297 L
521.28 222.858 LE
grestore
gsave
1.0 1.0 scale
newpath 0 0 moveto 576 0 lineto 576 432 lineto 0 432 lineto
closepath clip
1 1 1 C
74.88 120.933 187.093 47.52 74.88 47.52 T
74.88 120.933 187.093 120.933 187.093 47.52 T
0.5 W
0.15 0.15 0.15 C
97.3135 47.52 LS
97.3135 48.6485 LE
97.3135 120.933 LS
97.3135 119.805 LE
119.758 47.52 LS
119.758 48.6485 LE
119.758 120.933 LS
119.758 119.805 LE
142.203 47.52 LS
142.203 48.6485 LE
142.203 120.933 LS
142.203 119.805 LE
164.648 47.52 LS
164.648 48.6485 LE
164.648 120.933 LS
164.648 119.805 LE
187.093 47.52 LS
187.093 48.6485 LE
187.093 120.933 LS
187.093 119.805 LE
gsave
0.14902 0.14902 0.14902 C
(2e+06) [6 5 6 6 10] 0 82.8135 31.9776 10 /Helvetica SRX
grestore

gsave
0.14902 0.14902 0.14902 C
(4e+06) [6 5 6 6 10] 0 105.258 31.9776 10 /Helvetica SRX
grestore

gsave
0.14902 0.14902 0.14902 C
(6e+06) [6 5 6 6 10] 0 127.703 31.9776 10 /Helvetica SRX
grestore

gsave
0.14902 0.14902 0.14902 C
(8e+06) [6 5 6 6 10] 0 150.148 31.9776 10 /Helvetica SRX
grestore

gsave
0.14902 0.14902 0.14902 C
(1e+07) [6 5 6 6 10] 0 172.593 31.9776 10 /Helvetica SRX
grestore

74.88 47.52 LS
76.0042 47.52 LE
187.093 47.52 LS
185.968 47.52 LE
74.88 65.8733 LS
76.0042 65.8733 LE
187.093 65.8733 LS
185.968 65.8733 LE
74.88 84.2266 LS
76.0042 84.2266 LE
187.093 84.2266 LS
185.968 84.2266 LE
74.88 102.58 LS
76.0042 102.58 LE
187.093 102.58 LS
185.968 102.58 LE
74.88 120.933 LS
76.0042 120.933 LE
187.093 120.933 LS
185.968 120.933 LE
gsave
0.14902 0.14902 0.14902 C
(0) [10] 0 63.8705 43.52 10 /Helvetica SRX
grestore

gsave
0.14902 0.14902 0.14902 C
(2) [10] 0 63.8705 61.8733 10 /Helvetica SRX
grestore

gsave
0.14902 0.14902 0.14902 C
(4) [10] 0 63.8705 80.2266 10 /Helvetica SRX
grestore

gsave
0.14902 0.14902 0.14902 C
(6) [10] 0 63.8705 98.5799 10 /Helvetica SRX
grestore

gsave
0.14902 0.14902 0.14902 C
(8) [10] 0 63.8705 116.933 10 /Helvetica SRX
grestore

2 LC
[16 0] 0 setdash
74.88 47.52 LS
187.093 47.52 LE
74.88 120.933 LS
187.093 120.933 LE
74.88 47.52 LS
74.88 120.933 LE
187.093 47.52 LS
187.093 120.933 LE
gsave
0 0 0 C
(iiota_T \(Interval\)) [3 3 7 4 6 6 7 3 4 3 7 4 6 4 6 6 3 10] 0 87.9863 133.933 11 /Helvetica-Bold SRX
grestore

0 LC
1 LJ
[] 0 setdash
0 0 1 C
74.88 64.1994 LS
76.0021 71.9749 L
77.1242 120.669 L
78.2464 89.5453 L
79.3685 60.6189 L
80.4906 61.5573 L
81.6127 61.3182 L
82.7349 62.6553 L
83.857 60.5948 L
84.9791 66.3582 L
86.1013 79.2897 L
87.2234 80.7662 L
88.3455 78.9637 L
89.4676 81.2634 L
90.5898 76.7018 L
91.7119 75.2931 L
92.834 72.7167 L
93.9561 70.4579 L
95.0783 70.0527 L
96.2004 69.4474 L
97.3225 67.3888 L
98.4446 65.5804 L
99.5668 65.531 L
100.689 65.1259 L
101.811 65.147 L
102.933 63.8756 L
104.055 63.5861 L
105.177 62.9896 L
106.3 61.9078 L
107.422 62.4426 L
108.544 63.2546 L
109.666 66.9874 L
110.788 68.8145 L
111.91 72.0714 L
113.032 75.3992 L
114.154 75.768 L
115.277 76.3606 L
116.399 76.3848 L
117.521 75.6552 L
118.643 72.3567 L
119.765 70.9131 L
120.887 68.1675 L
122.009 65.1336 L
123.131 63.351 L
124.254 62.6728 L
125.376 62.3146 L
126.498 61.9123 L
127.62 61.8131 L
128.742 61.4829 L
129.864 60.8496 L
130.986 60.5784 L
132.108 60.8494 L
133.231 61.4097 L
134.353 62.1715 L
135.475 63.4515 L
136.597 63.042 L
137.719 62.725 L
138.841 62.3029 L
139.963 62.2444 L
141.085 62.2783 L
142.208 62.2578 L
143.33 62.8274 L
144.452 62.8873 L
145.574 62.8387 L
146.696 62.9379 L
147.818 64.5155 L
148.94 65.0577 L
150.062 63.9598 L
151.185 63.6596 L
152.307 63.5212 L
153.429 63.2912 L
154.551 63.2011 L
155.673 63.2353 L
156.795 63.7348 L
157.917 64.6598 L
159.039 65.2811 L
160.162 64.8755 L
161.284 64.6408 L
162.406 65.5179 L
163.528 66.6339 L
164.65 67.4844 L
165.772 67.1186 L
166.894 69.2881 L
168.016 70.5429 L
169.139 72.2278 L
170.261 72.0844 L
171.383 71.9619 L
172.505 71.8842 L
173.627 71.7473 L
174.749 72.4596 L
175.871 72.2156 L
176.993 71.9264 L
178.116 71.8232 L
179.238 72.3588 L
180.36 72.2361 L
181.482 72.3089 L
182.604 72.2818 L
183.726 72.1154 L
184.848 71.2541 L
185.97 70.716 L
187.093 69.4941 LE
1 0 0 C
74.88 54.4162 LS
76.0021 67.5823 L
77.1242 75.6816 L
78.2464 62.0482 L
79.3685 59.6177 L
80.4906 61.5695 L
81.6127 60.9839 L
82.7349 62.6003 L
83.857 60.492 L
84.9791 66.1783 L
86.1013 76.3092 L
87.2234 80.604 L
88.3455 78.2727 L
89.4676 70.0079 L
90.5898 68.3937 L
91.7119 67.7766 L
92.834 67.8939 L
93.9561 65.8981 L
95.0783 66.3652 L
96.2004 66.1126 L
97.3225 64.0093 L
98.4446 63.9464 L
99.5668 63.8651 L
100.689 64.6098 L
101.811 65.0808 L
102.933 63.8574 L
104.055 63.3204 L
105.177 62.3763 L
106.3 61.399 L
107.422 62.2492 L
108.544 62.9977 L
109.666 66.3968 L
110.788 68.0789 L
111.91 71.5307 L
113.032 72.146 L
114.154 71.5255 L
115.277 70.1462 L
116.399 69.7603 L
117.521 70.1551 L
118.643 68.0767 L
119.765 67.4563 L
120.887 65.7256 L
122.009 63.5347 L
123.131 62.2062 L
124.254 62.139 L
125.376 62.0755 L
126.498 61.8716 L
127.62 61.8012 L
128.742 61.4911 L
129.864 60.8527 L
130.986 60.5901 L
132.108 60.8458 L
133.231 61.422 L
134.353 62.1326 L
135.475 63.4001 L
136.597 63.0483 L
137.719 62.7668 L
138.841 62.3385 L
139.963 62.3312 L
141.085 62.3624 L
142.208 62.3428 L
143.33 62.811 L
144.452 62.8196 L
145.574 62.765 L
146.696 62.8645 L
147.818 64.5259 L
148.94 64.9558 L
150.062 64.0112 L
151.185 63.8198 L
152.307 63.544 L
153.429 63.3864 L
154.551 63.4131 L
155.673 63.5399 L
156.795 63.9119 L
157.917 64.7684 L
159.039 65.379 L
160.162 64.8911 L
161.284 64.5934 L
162.406 65.2617 L
163.528 66.1107 L
164.65 66.7179 L
165.772 66.1726 L
166.894 68.201 L
168.016 71.011 L
169.139 73.2932 L
170.261 73.1187 L
171.383 72.9773 L
172.505 72.8206 L
173.627 72.6288 L
174.749 73.2152 L
175.871 73.0322 L
176.993 72.7409 L
178.116 72.4502 L
179.238 72.5758 L
180.36 72.3593 L
181.482 72.4223 L
182.604 72.401 L
183.726 72.124 L
184.848 71.2507 L
185.97 70.605 L
187.093 69.7677 LE
grestore
gsave
1.0 1.0 scale
newpath 0 0 moveto 576 0 lineto 576 432 lineto 0 432 lineto
closepath clip
1 1 1 C
241.974 120.933 354.186 47.52 241.974 47.52 T
241.974 120.933 354.186 120.933 354.186 47.52 T
0.5 W
0.15 0.15 0.15 C
264.407 47.52 LS
264.407 48.6485 LE
264.407 120.933 LS
264.407 119.805 LE
286.852 47.52 LS
286.852 48.6485 LE
286.852 120.933 LS
286.852 119.805 LE
309.297 47.52 LS
309.297 48.6485 LE
309.297 120.933 LS
309.297 119.805 LE
331.742 47.52 LS
331.742 48.6485 LE
331.742 120.933 LS
331.742 119.805 LE
354.186 47.52 LS
354.186 48.6485 LE
354.186 120.933 LS
354.186 119.805 LE
gsave
0.14902 0.14902 0.14902 C
(2e+06) [6 5 6 6 10] 0 249.907 31.9776 10 /Helvetica SRX
grestore

gsave
0.14902 0.14902 0.14902 C
(4e+06) [6 5 6 6 10] 0 272.352 31.9776 10 /Helvetica SRX
grestore

gsave
0.14902 0.14902 0.14902 C
(6e+06) [6 5 6 6 10] 0 294.797 31.9776 10 /Helvetica SRX
grestore

gsave
0.14902 0.14902 0.14902 C
(8e+06) [6 5 6 6 10] 0 317.242 31.9776 10 /Helvetica SRX
grestore

gsave
0.14902 0.14902 0.14902 C
(1e+07) [6 5 6 6 10] 0 339.686 31.9776 10 /Helvetica SRX
grestore

241.974 47.52 LS
243.098 47.52 LE
354.186 47.52 LS
353.062 47.52 LE
241.974 62.2026 LS
243.098 62.2026 LE
354.186 62.2026 LS
353.062 62.2026 LE
241.974 76.8852 LS
243.098 76.8852 LE
354.186 76.8852 LS
353.062 76.8852 LE
241.974 91.5679 LS
243.098 91.5679 LE
354.186 91.5679 LS
353.062 91.5679 LE
241.974 106.25 LS
243.098 106.25 LE
354.186 106.25 LS
353.062 106.25 LE
241.974 120.933 LS
243.098 120.933 LE
354.186 120.933 LS
353.062 120.933 LE
gsave
0.14902 0.14902 0.14902 C
(0) [10] 0 230.964 43.52 10 /Helvetica SRX
grestore

gsave
0.14902 0.14902 0.14902 C
(2) [10] 0 230.964 58.2026 10 /Helvetica SRX
grestore

gsave
0.14902 0.14902 0.14902 C
(4) [10] 0 230.964 72.8853 10 /Helvetica SRX
grestore

gsave
0.14902 0.14902 0.14902 C
(6) [10] 0 230.964 87.5679 10 /Helvetica SRX
grestore

gsave
0.14902 0.14902 0.14902 C
(8) [10] 0 230.964 102.251 10 /Helvetica SRX
grestore

gsave
0.14902 0.14902 0.14902 C
(10) [6 10] 0 224.964 116.933 10 /Helvetica SRX
grestore

2 LC
[16 0] 0 setdash
241.974 47.52 LS
354.186 47.52 LE
241.974 120.933 LS
354.186 120.933 LE
241.974 47.52 LS
241.974 120.933 LE
354.186 47.52 LS
354.186 120.933 LE
gsave
0 0 0 C
(iiota_T \(m2\)) [3 3 7 4 6 6 7 3 4 10 6 10] 0 266.58 133.933 11 /Helvetica-Bold SRX
grestore

0 LC
1 LJ
[] 0 setdash
0 0 1 C
241.974 51.1185 LS
243.096 54.9785 L
244.218 120.333 L
245.34 73.9462 L
246.462 50.4185 L
247.584 50.1248 L
248.706 50.1792 L
249.829 50.557 L
250.951 49.8858 L
252.073 52.7141 L
253.195 60.2566 L
254.317 61.2361 L
255.439 59.9235 L
256.561 62.1242 L
257.683 59.0291 L
258.806 58.2053 L
259.928 56.3175 L
261.05 54.4374 L
262.172 54.1305 L
263.294 53.8864 L
264.416 52.7323 L
265.538 52.0039 L
266.66 51.9074 L
267.783 51.8422 L
268.905 51.8831 L
270.027 51.3736 L
271.149 51.325 L
272.271 51.0881 L
273.393 50.4765 L
274.515 50.6273 L
275.637 51.0257 L
276.76 55.4834 L
277.882 56.1106 L
279.004 58.8761 L
280.126 59.9362 L
281.248 60.0365 L
282.37 60.4557 L
283.492 60.5015 L
284.614 60.2899 L
285.737 57.3446 L
286.859 56.8115 L
287.981 54.4661 L
289.103 52.3137 L
290.225 51.1375 L
291.347 50.7944 L
292.469 50.5775 L
293.591 50.4498 L
294.714 50.4279 L
295.836 50.3395 L
296.958 50.1045 L
298.08 50.0231 L
299.202 50.1393 L
300.324 50.6397 L
301.446 50.9634 L
302.568 51.4745 L
303.691 51.3326 L
304.813 51.2484 L
305.935 51.1108 L
307.057 51.081 L
308.179 51.0882 L
309.301 51.0796 L
310.423 51.2671 L
311.546 51.2641 L
312.668 51.2393 L
313.79 51.1862 L
314.912 52.0567 L
316.034 52.1921 L
317.156 51.8172 L
318.278 51.7173 L
319.4 51.6785 L
320.523 51.622 L
321.645 51.5976 L
322.767 51.6001 L
323.889 51.7294 L
325.011 51.9884 L
326.133 52.1762 L
327.255 52.0303 L
328.377 51.961 L
329.5 52.2679 L
330.622 52.7274 L
331.744 53.3591 L
332.866 53.7536 L
333.988 58.479 L
335.11 58.8668 L
336.232 59.5255 L
337.354 59.388 L
338.477 59.2815 L
339.599 59.1373 L
340.721 58.9994 L
341.843 59.1838 L
342.965 59.0113 L
344.087 58.8186 L
345.209 58.7353 L
346.331 58.9231 L
347.454 58.8994 L
348.576 58.9408 L
349.698 58.9287 L
350.82 58.839 L
351.942 58.5392 L
353.064 58.3609 L
354.186 57.8345 LE
1 0 0 C
241.974 48.1546 LS
243.096 52.4572 L
244.218 57.2811 L
245.34 51.0816 L
246.462 49.9163 L
247.584 50.1177 L
248.706 50.0619 L
249.829 50.5281 L
250.951 49.8453 L
252.073 52.4604 L
253.195 59.5115 L
254.317 60.8592 L
255.439 59.4255 L
256.561 54.9851 L
257.683 54.6935 L
258.806 54.5221 L
259.928 53.9722 L
261.05 52.4292 L
262.172 52.3862 L
263.294 52.3321 L
264.416 51.367 L
265.538 51.3637 L
266.66 51.322 L
267.783 51.7028 L
268.905 51.8827 L
270.027 51.3558 L
271.149 51.1859 L
272.271 50.8923 L
273.393 50.3475 L
274.515 50.5814 L
275.637 50.9379 L
276.76 54.7424 L
277.882 55.1975 L
279.004 57.1363 L
280.126 57.0136 L
281.248 56.5516 L
282.37 55.7507 L
283.492 55.5387 L
284.614 56.0506 L
285.737 54.3153 L
286.859 54.1982 L
287.981 52.7871 L
289.103 51.6075 L
290.225 50.7528 L
291.347 50.6489 L
292.469 50.5167 L
293.591 50.4434 L
294.714 50.4268 L
295.836 50.3389 L
296.958 50.0845 L
298.08 50.0046 L
299.202 50.1299 L
300.324 50.6394 L
301.446 50.9564 L
302.568 51.4514 L
303.691 51.3033 L
304.813 51.2294 L
305.935 51.0878 L
307.057 51.0698 L
308.179 51.0832 L
309.301 51.0696 L
310.423 51.2226 L
311.546 51.2082 L
312.668 51.1749 L
313.79 51.1644 L
314.912 51.959 L
316.034 52.0731 L
317.156 51.699 L
318.278 51.6206 L
319.4 51.5423 L
320.523 51.4982 L
321.645 51.4997 L
322.767 51.5303 L
323.889 51.6872 L
325.011 51.9771 L
326.133 52.1762 L
327.255 52.0213 L
328.377 51.9415 L
329.5 52.2103 L
330.622 52.5852 L
331.744 53.1321 L
332.866 53.4975 L
333.988 58.4051 L
335.11 58.8359 L
336.232 59.5255 L
337.354 59.387 L
338.477 59.274 L
339.599 59.131 L
340.721 58.9915 L
341.843 59.1822 L
342.965 59.0009 L
344.087 58.7893 L
345.209 58.6366 L
346.331 58.6919 L
347.454 58.5894 L
348.576 58.6199 L
349.698 58.601 L
350.82 58.4628 L
351.942 58.0857 L
353.064 57.8321 L
354.186 57.1375 LE
grestore
gsave
1.0 1.0 scale
newpath 0 0 moveto 576 0 lineto 576 432 lineto 0 432 lineto
closepath clip
1 1 1 C
409.067 120.933 521.28 47.52 409.067 47.52 T
409.067 120.933 521.28 120.933 521.28 47.52 T
0.5 W
0.15 0.15 0.15 C
431.501 47.52 LS
431.501 48.6485 LE
431.501 120.933 LS
431.501 119.805 LE
453.946 47.52 LS
453.946 48.6485 LE
453.946 120.933 LS
453.946 119.805 LE
476.39 47.52 LS
476.39 48.6485 LE
476.39 120.933 LS
476.39 119.805 LE
498.835 47.52 LS
498.835 48.6485 LE
498.835 120.933 LS
498.835 119.805 LE
521.28 47.52 LS
521.28 48.6485 LE
521.28 120.933 LS
521.28 119.805 LE
gsave
0.14902 0.14902 0.14902 C
(2e+06) [6 5 6 6 10] 0 417.001 31.9776 10 /Helvetica SRX
grestore

gsave
0.14902 0.14902 0.14902 C
(4e+06) [6 5 6 6 10] 0 439.446 31.9776 10 /Helvetica SRX
grestore

gsave
0.14902 0.14902 0.14902 C
(6e+06) [6 5 6 6 10] 0 461.89 31.9776 10 /Helvetica SRX
grestore

gsave
0.14902 0.14902 0.14902 C
(8e+06) [6 5 6 6 10] 0 484.335 31.9776 10 /Helvetica SRX
grestore

gsave
0.14902 0.14902 0.14902 C
(1e+07) [6 5 6 6 10] 0 506.78 31.9776 10 /Helvetica SRX
grestore

409.067 47.52 LS
410.192 47.52 LE
521.28 47.52 LS
520.156 47.52 LE
409.067 65.8733 LS
410.192 65.8733 LE
521.28 65.8733 LS
520.156 65.8733 LE
409.067 84.2266 LS
410.192 84.2266 LE
521.28 84.2266 LS
520.156 84.2266 LE
409.067 102.58 LS
410.192 102.58 LE
521.28 102.58 LS
520.156 102.58 LE
409.067 120.933 LS
410.192 120.933 LE
521.28 120.933 LS
520.156 120.933 LE
gsave
0.14902 0.14902 0.14902 C
(0) [10] 0 398.058 43.52 10 /Helvetica SRX
grestore

gsave
0.14902 0.14902 0.14902 C
(10) [6 10] 0 392.058 61.8733 10 /Helvetica SRX
grestore

gsave
0.14902 0.14902 0.14902 C
(20) [6 10] 0 392.058 80.2266 10 /Helvetica SRX
grestore

gsave
0.14902 0.14902 0.14902 C
(30) [6 10] 0 392.058 98.5799 10 /Helvetica SRX
grestore

gsave
0.14902 0.14902 0.14902 C
(40) [6 10] 0 392.058 116.933 10 /Helvetica SRX
grestore

2 LC
[16 0] 0 setdash
409.067 47.52 LS
521.28 47.52 LE
409.067 120.933 LS
521.28 120.933 LE
409.067 47.52 LS
409.067 120.933 LE
521.28 47.52 LS
521.28 120.933 LE
gsave
0 0 0 C
(iiota_T \(m3\)) [3 3 7 4 6 6 7 3 4 10 6 10] 0 433.674 133.933 11 /Helvetica-Bold SRX
grestore

0 LC
1 LJ
[] 0 setdash
0 0 1 C
409.067 48.2902 LS
410.19 50.3948 L
411.312 114.939 L
412.434 61.8829 L
413.556 48.4979 L
414.678 48.1492 L
415.8 48.223 L
416.922 48.3321 L
418.044 48.1116 L
419.167 49.6254 L
420.289 53.7633 L
421.411 53.8891 L
422.533 53.3997 L
423.655 55.0168 L
424.777 53.806 L
425.899 53.3394 L
427.021 51.7842 L
428.144 50.2057 L
429.266 50.0125 L
430.388 49.9209 L
431.51 49.3447 L
432.632 49.0209 L
433.754 48.9506 L
434.876 48.9593 L
435.998 48.9943 L
437.121 48.79 L
438.243 48.7967 L
439.365 48.7093 L
440.487 48.381 L
441.609 48.4185 L
442.731 48.6043 L
443.853 53.221 L
444.975 53.2455 L
446.098 55.4853 L
447.22 55.6573 L
448.342 55.6601 L
449.464 55.8625 L
450.586 55.8749 L
451.708 56.0642 L
452.83 53.2129 L
453.952 53.0882 L
455.075 50.9715 L
456.197 49.4495 L
457.319 48.682 L
458.441 48.5049 L
459.563 48.3893 L
460.685 48.3457 L
461.807 48.3419 L
462.929 48.3204 L
464.052 48.2303 L
465.174 48.2074 L
466.296 48.2612 L
467.418 48.6118 L
468.54 48.7649 L
469.662 48.9788 L
470.784 48.9311 L
471.906 48.9143 L
473.029 48.8636 L
474.151 48.845 L
475.273 48.8486 L
476.395 48.8437 L
477.517 48.9104 L
478.639 48.9001 L
479.761 48.8864 L
480.883 48.8092 L
482.006 49.3202 L
483.128 49.3452 L
484.25 49.2041 L
485.372 49.1647 L
486.494 49.1554 L
487.616 49.1441 L
488.738 49.1382 L
489.86 49.1309 L
490.983 49.1682 L
492.105 49.2452 L
493.227 49.2967 L
494.349 49.245 L
495.471 49.2316 L
496.593 49.3376 L
497.715 49.5374 L
498.837 49.9948 L
499.96 50.6103 L
501.082 57.2695 L
502.204 57.2433 L
503.326 57.4397 L
504.448 57.2512 L
505.57 57.1386 L
506.692 56.9137 L
507.814 56.7607 L
508.937 56.6934 L
510.059 56.55 L
511.181 56.4149 L
512.303 56.3592 L
513.425 56.3796 L
514.547 56.4398 L
515.669 56.4709 L
516.792 56.4595 L
517.914 56.4416 L
519.036 56.3899 L
520.158 56.3776 L
521.28 56.1718 LE
1 0 0 C
409.067 47.5966 LS
410.19 49.0607 L
411.312 51.7317 L
412.434 48.8126 L
413.556 48.2488 L
414.678 48.1482 L
415.8 48.1853 L
416.922 48.3204 L
418.044 48.0966 L
419.167 49.3729 L
420.289 53.0695 L
421.411 53.855 L
422.533 53.0517 L
423.655 50.6797 L
424.777 50.7493 L
425.899 50.6842 L
427.021 50.2412 L
428.144 49.2099 L
429.266 49.1443 L
430.388 49.1371 L
431.51 48.6876 L
432.632 48.7504 L
433.754 48.722 L
434.876 48.9228 L
435.998 48.9946 L
437.121 48.7748 L
438.243 48.7265 L
439.365 48.6259 L
440.487 48.3303 L
441.609 48.411 L
442.731 48.567 L
443.853 52.3101 L
444.975 52.2116 L
446.098 53.4841 L
447.22 52.9078 L
448.342 52.5456 L
449.464 52.0256 L
450.586 51.8995 L
451.708 52.41 L
452.83 50.8993 L
453.952 50.9762 L
455.075 49.8073 L
456.197 49.0546 L
457.319 48.5175 L
458.441 48.4563 L
459.563 48.3728 L
460.685 48.3452 L
461.807 48.3423 L
462.929 48.3196 L
464.052 48.2167 L
465.174 48.1946 L
466.296 48.2558 L
467.418 48.611 L
468.54 48.7573 L
469.662 48.9573 L
470.784 48.9024 L
471.906 48.8921 L
473.029 48.8384 L
474.151 48.8286 L
475.273 48.8379 L
476.395 48.8282 L
477.517 48.8684 L
478.639 48.8519 L
479.761 48.8345 L
480.883 48.7936 L
482.006 49.2247 L
483.128 49.2343 L
484.25 49.0935 L
485.372 49.0689 L
486.494 49.0359 L
487.616 49.0303 L
488.738 49.0396 L
489.86 49.0512 L
490.983 49.1152 L
492.105 49.2262 L
493.227 49.2966 L
494.349 49.2525 L
495.471 49.2414 L
496.593 49.3384 L
497.715 49.5023 L
498.837 49.8826 L
499.96 50.5215 L
501.082 57.5343 L
502.204 57.4257 L
503.326 57.4356 L
504.448 57.2869 L
505.57 57.234 L
506.692 56.9987 L
507.814 56.854 L
508.937 56.6489 L
510.059 56.44 L
511.181 56.2298 L
512.303 56.0102 L
513.425 55.8314 L
514.547 55.7889 L
515.669 55.8081 L
516.792 55.7897 L
517.914 55.7206 L
519.036 55.5565 L
520.158 55.4495 L
521.28 54.975 LE
grestore
grestore
showpage
cleartomark
%%PageTrailer
%%Trailer
end
%%EOF
