%!PS-Adobe-3.0 EPSF-3.0
%%Title: gl2ps_renderer figure
%%Creator: GL2PS 1.4.2, (C) 1999-2020 C. Geuzaine
%%For: Octave
%%CreationDate: Wed Oct  7 07:02:28 2020
%%LanguageLevel: 3
%%DocumentData: Clean7Bit
%%Pages: 1
%%BoundingBox: 0 0 576 432
%%EndComments
%%BeginProlog
/gl2psdict 64 dict def gl2psdict begin
/tryPS3shading false def % set to false to force subdivision
/rThreshold 0.064 def % red component subdivision threshold
/gThreshold 0.034 def % green component subdivision threshold
/bThreshold 0.1 def % blue component subdivision threshold
/BD { bind def } bind def
/C  { setrgbcolor } BD
/G  { 0.082 mul exch 0.6094 mul add exch 0.3086 mul add neg 1.0 add setgray } BD
/W  { setlinewidth } BD
/LC  { setlinecap } BD
/LJ  { setlinejoin } BD
/FC { findfont exch /SH exch def SH scalefont setfont } BD
/SW { dup stringwidth pop } BD
/S  { FC moveto show } BD
/SBC{ FC moveto SW -2 div 0 rmoveto show } BD
/SBR{ FC moveto SW neg 0 rmoveto show } BD
/SCL{ FC moveto 0 SH -2 div rmoveto show } BD
/SCC{ FC moveto SW -2 div SH -2 div rmoveto show } BD
/SCR{ FC moveto SW neg SH -2 div rmoveto show } BD
/STL{ FC moveto 0 SH neg rmoveto show } BD
/STC{ FC moveto SW -2 div SH neg rmoveto show } BD
/STR{ FC moveto SW neg SH neg rmoveto show } BD
/FCT { FC translate 0 0 } BD
/SR  { gsave FCT moveto rotate show grestore } BD
/SRX  { gsave FCT moveto rotate xshow grestore } BD
/SBCR{ gsave FCT moveto rotate SW -2 div 0 rmoveto show grestore } BD
/SBRR{ gsave FCT moveto rotate SW neg 0 rmoveto show grestore } BD
/SCLR{ gsave FCT moveto rotate 0 SH -2 div rmoveto show grestore} BD
/SCCR{ gsave FCT moveto rotate SW -2 div SH -2 div rmoveto show grestore} BD
/SCRR{ gsave FCT moveto rotate SW neg SH -2 div rmoveto show grestore} BD
/STLR{ gsave FCT moveto rotate 0 SH neg rmoveto show grestore } BD
/STCR{ gsave FCT moveto rotate SW -2 div SH neg rmoveto show grestore } BD
/STRR{ gsave FCT moveto rotate SW neg SH neg rmoveto show grestore } BD
/P  { newpath 0.0 360.0 arc closepath fill } BD
/LS { newpath moveto } BD
/L  { lineto } BD
/LE { lineto stroke } BD
/T  { newpath moveto lineto lineto closepath fill } BD
/STshfill {
      /b1 exch def /g1 exch def /r1 exch def /y1 exch def /x1 exch def
      /b2 exch def /g2 exch def /r2 exch def /y2 exch def /x2 exch def
      /b3 exch def /g3 exch def /r3 exch def /y3 exch def /x3 exch def
      gsave << /ShadingType 4 /ColorSpace [/DeviceRGB]
      /DataSource [ 0 x1 y1 r1 g1 b1 0 x2 y2 r2 g2 b2 0 x3 y3 r3 g3 b3 ] >>
      shfill grestore } BD
/Tm { 3 -1 roll 8 -1 roll 13 -1 roll add add 3 div
      3 -1 roll 7 -1 roll 11 -1 roll add add 3 div
      3 -1 roll 6 -1 roll 9 -1 roll add add 3 div C T } BD
/STsplit {
      4 index 15 index add 0.5 mul
      4 index 15 index add 0.5 mul
      4 index 15 index add 0.5 mul
      4 index 15 index add 0.5 mul
      4 index 15 index add 0.5 mul
      5 copy 5 copy 25 15 roll
      9 index 30 index add 0.5 mul
      9 index 30 index add 0.5 mul
      9 index 30 index add 0.5 mul
      9 index 30 index add 0.5 mul
      9 index 30 index add 0.5 mul
      5 copy 5 copy 35 5 roll 25 5 roll 15 5 roll
      4 index 10 index add 0.5 mul
      4 index 10 index add 0.5 mul
      4 index 10 index add 0.5 mul
      4 index 10 index add 0.5 mul
      4 index 10 index add 0.5 mul
      5 copy 5 copy 40 5 roll 25 5 roll 15 5 roll 25 5 roll
      STnoshfill STnoshfill STnoshfill STnoshfill } BD
/STnoshfill {
      2 index 8 index sub abs rThreshold gt
      { STsplit }
      { 1 index 7 index sub abs gThreshold gt
        { STsplit }
        { dup 6 index sub abs bThreshold gt
          { STsplit }
          { 2 index 13 index sub abs rThreshold gt
            { STsplit }
            { 1 index 12 index sub abs gThreshold gt
              { STsplit }
              { dup 11 index sub abs bThreshold gt
                { STsplit }
                { 7 index 13 index sub abs rThreshold gt
                  { STsplit }
                  { 6 index 12 index sub abs gThreshold gt
                    { STsplit }
                    { 5 index 11 index sub abs bThreshold gt
                      { STsplit }
                      { Tm }
                      ifelse }
                    ifelse }
                  ifelse }
                ifelse }
              ifelse }
            ifelse }
          ifelse }
        ifelse }
      ifelse } BD
tryPS3shading
{ /shfill where
  { /ST { STshfill } BD }
  { /ST { STnoshfill } BD }
  ifelse }
{ /ST { STnoshfill } BD }
ifelse
end
%%EndProlog
%%BeginSetup
/DeviceRGB setcolorspace
gl2psdict begin
%%EndSetup
%%Page: 1 1
%%BeginPageSetup
%%EndPageSetup
mark
gsave
1.0 1.0 scale
1 1 1 C
newpath 0 0 moveto 576 0 lineto 576 432 lineto 0 432 lineto
closepath fill
gsave
1.0 1.0 scale
1 1 1 C
newpath 0 0 moveto 576 0 lineto 576 432 lineto 0 432 lineto
closepath fill
newpath 0 0 moveto 576 0 lineto 576 432 lineto 0 432 lineto
closepath clip
1 1 1 C
74.88 385.841 187.093 312.427 74.88 312.427 T
74.88 385.841 187.093 385.841 187.093 312.427 T
0.5 W
0.15 0.15 0.15 C
98.5037 312.427 LS
98.5037 313.556 LE
98.5037 385.841 LS
98.5037 384.712 LE
128.033 312.427 LS
128.033 313.556 LE
128.033 385.841 LS
128.033 384.712 LE
157.563 312.427 LS
157.563 313.556 LE
157.563 385.841 LS
157.563 384.712 LE
187.093 312.427 LS
187.093 313.556 LE
187.093 385.841 LS
187.093 384.712 LE
gsave
0.14902 0.14902 0.14902 C
(5) [10] 0 95.5037 296.885 10 /Helvetica SRX
grestore

gsave
0.14902 0.14902 0.14902 C
(10) [6 10] 0 122.033 296.885 10 /Helvetica SRX
grestore

gsave
0.14902 0.14902 0.14902 C
(15) [6 10] 0 151.563 296.885 10 /Helvetica SRX
grestore

gsave
0.14902 0.14902 0.14902 C
(20) [6 10] 0 181.093 296.885 10 /Helvetica SRX
grestore

74.88 322.38 LS
76.0043 322.38 LE
187.093 322.38 LS
185.968 322.38 LE
74.88 343.533 LS
76.0043 343.533 LE
187.093 343.533 LS
185.968 343.533 LE
74.88 364.687 LS
76.0043 364.687 LE
187.093 364.687 LS
185.968 364.687 LE
74.88 385.841 LS
76.0043 385.841 LE
187.093 385.841 LS
185.968 385.841 LE
gsave
0.14902 0.14902 0.14902 C
(-0.00015) [3 6 3 6 6 6 6 10] 0 27.8705 318.38 10 /Helvetica SRX
grestore

gsave
0.14902 0.14902 0.14902 C
(-0.0001) [3 6 3 6 6 6 10] 0 33.8705 339.533 10 /Helvetica SRX
grestore

gsave
0.14902 0.14902 0.14902 C
(-5e-05) [3 6 5 3 6 10] 0 40.8705 360.687 10 /Helvetica SRX
grestore

gsave
0.14902 0.14902 0.14902 C
(0) [10] 0 63.8705 381.841 10 /Helvetica SRX
grestore

2 LC
[16 0] 0 setdash
74.88 312.427 LS
187.093 312.427 LE
74.88 385.841 LS
187.093 385.841 LE
74.88 312.427 LS
74.88 385.841 LE
187.093 312.427 LS
187.093 385.841 LE
gsave
0 0 0 C
(r_hat) [4 6 7 6 10] 0 117.486 397.841 11 /Helvetica-Bold SRX
grestore

0.9 0.9 0.9 C
74.88 312.427 74.88 385.841 80.7859 312.427 T
80.7859 383.983 80.7859 312.427 74.88 385.841 T
86.6918 312.427 80.7859 312.427 80.7859 383.983 T
86.6918 381.923 86.6918 312.427 80.7859 383.983 T
92.5978 312.427 86.6918 312.427 86.6918 381.923 T
92.5978 379.154 92.5978 312.427 86.6918 381.923 T
98.5037 312.427 92.5978 312.427 92.5978 379.154 T
98.5037 376.78 98.5037 312.427 92.5978 379.154 T
104.41 312.427 98.5037 312.427 98.5037 376.78 T
104.41 373.828 104.41 312.427 98.5037 376.78 T
110.316 312.427 104.41 312.427 104.41 373.828 T
110.316 371.791 110.316 312.427 104.41 373.828 T
116.221 312.427 110.316 312.427 110.316 371.791 T
116.221 368.077 116.221 312.427 110.316 371.791 T
122.127 312.427 116.221 312.427 116.221 368.077 T
122.127 366.328 122.127 312.427 116.221 368.077 T
128.033 312.427 122.127 312.427 122.127 366.328 T
128.033 364.408 128.033 312.427 122.127 366.328 T
133.939 312.427 128.033 312.427 128.033 364.408 T
133.939 361.08 133.939 312.427 128.033 364.408 T
139.845 312.427 133.939 312.427 133.939 361.08 T
139.845 359.039 139.845 312.427 133.939 361.08 T
145.751 312.427 139.845 312.427 139.845 359.039 T
145.751 357.286 145.751 312.427 139.845 359.039 T
151.657 312.427 145.751 312.427 145.751 357.286 T
151.657 355.155 151.657 312.427 145.751 357.286 T
157.563 312.427 151.657 312.427 151.657 355.155 T
157.563 353.63 157.563 312.427 151.657 355.155 T
163.469 312.427 157.563 312.427 157.563 353.63 T
163.469 350.693 163.469 312.427 157.563 353.63 T
169.375 312.427 163.469 312.427 163.469 350.693 T
169.375 348.604 169.375 312.427 163.469 350.693 T
175.281 312.427 169.375 312.427 169.375 348.604 T
175.281 348.549 175.281 312.427 169.375 348.604 T
181.187 312.427 175.281 312.427 175.281 348.549 T
181.187 346.788 181.187 312.427 175.281 348.549 T
187.093 312.427 181.187 312.427 181.187 346.788 T
187.093 345.26 187.093 312.427 181.187 346.788 T
0 LC
[] 0 setdash
0 0 0 C
187.093 345.26 LS
181.187 346.788 L
175.281 348.549 L
169.375 348.604 L
163.469 350.693 L
157.563 353.63 L
151.657 355.155 L
145.751 357.286 L
139.845 359.039 L
133.939 361.08 L
128.033 364.408 L
122.127 366.328 L
116.221 368.077 L
110.316 371.791 L
104.41 373.828 L
98.5037 376.78 L
92.5978 379.154 L
86.6918 381.923 L
80.7859 383.983 L
74.88 385.841 L
74.88 312.427 L
80.7859 312.427 L
86.6918 312.427 L
92.5978 312.427 L
98.5037 312.427 L
104.41 312.427 L
110.316 312.427 L
116.221 312.427 L
122.127 312.427 L
128.033 312.427 L
133.939 312.427 L
139.845 312.427 L
145.751 312.427 L
151.657 312.427 L
157.563 312.427 L
163.469 312.427 L
169.375 312.427 L
175.281 312.427 L
181.187 312.427 L
187.093 312.427 L
187.093 345.26 LE
1 1 1 C
74.88 312.427 74.88 385.841 80.7859 312.427 T
80.7859 377.016 80.7859 312.427 74.88 385.841 T
86.6918 312.427 80.7859 312.427 80.7859 377.016 T
86.6918 369.196 86.6918 312.427 80.7859 377.016 T
92.5978 312.427 86.6918 312.427 86.6918 369.196 T
92.5978 361.71 92.5978 312.427 86.6918 369.196 T
98.5037 312.427 92.5978 312.427 92.5978 361.71 T
98.5037 355.751 98.5037 312.427 92.5978 361.71 T
104.41 312.427 98.5037 312.427 98.5037 355.751 T
104.41 350.149 104.41 312.427 98.5037 355.751 T
110.316 312.427 104.41 312.427 104.41 350.149 T
110.316 346.021 110.316 312.427 104.41 350.149 T
116.221 312.427 110.316 312.427 110.316 346.021 T
116.221 340.852 116.221 312.427 110.316 346.021 T
122.127 312.427 116.221 312.427 116.221 340.852 T
122.127 337.749 122.127 312.427 116.221 340.852 T
128.033 312.427 122.127 312.427 122.127 337.749 T
128.033 334.576 128.033 312.427 122.127 337.749 T
133.939 312.427 128.033 312.427 128.033 334.576 T
133.939 330.545 133.939 312.427 128.033 334.576 T
139.845 312.427 133.939 312.427 133.939 330.545 T
139.845 327.942 139.845 312.427 133.939 330.545 T
145.751 312.427 139.845 312.427 139.845 327.942 T
145.751 325.794 145.751 312.427 139.845 327.942 T
151.657 312.427 145.751 312.427 145.751 325.794 T
151.657 323.435 151.657 312.427 145.751 325.794 T
157.563 312.427 151.657 312.427 151.657 323.435 T
157.563 321.868 157.563 312.427 151.657 323.435 T
163.469 312.427 157.563 312.427 157.563 321.868 T
163.469 318.759 163.469 312.427 157.563 321.868 T
169.375 312.427 163.469 312.427 163.469 318.759 T
169.375 316.455 169.375 312.427 163.469 318.759 T
175.281 312.427 169.375 312.427 169.375 316.455 T
175.281 316.298 175.281 312.427 169.375 316.455 T
181.187 312.427 175.281 312.427 175.281 316.298 T
181.187 314.449 181.187 312.427 175.281 316.298 T
187.093 312.427 181.187 312.427 181.187 314.449 T
0 0 0 C
187.093 312.427 LS
181.187 314.449 L
175.281 316.298 L
169.375 316.455 L
163.469 318.759 L
157.563 321.868 L
151.657 323.435 L
145.751 325.794 L
139.845 327.942 L
133.939 330.545 L
128.033 334.576 L
122.127 337.749 L
116.221 340.852 L
110.316 346.021 L
104.41 350.149 L
98.5037 355.751 L
92.5978 361.71 L
86.6918 369.196 L
80.7859 377.016 L
74.88 385.841 L
74.88 312.427 L
80.7859 312.427 L
86.6918 312.427 L
92.5978 312.427 L
98.5037 312.427 L
104.41 312.427 L
110.316 312.427 L
116.221 312.427 L
122.127 312.427 L
128.033 312.427 L
133.939 312.427 L
139.845 312.427 L
145.751 312.427 L
151.657 312.427 L
157.563 312.427 L
163.469 312.427 L
169.375 312.427 L
175.281 312.427 L
181.187 312.427 L
187.093 312.427 LE
3 W
1 LJ
74.88 385.841 LS
80.7859 380.576 L
86.6918 375.348 L
92.5978 370.667 L
98.5037 366.431 L
104.41 362.507 L
110.316 358.818 L
116.221 355.331 L
122.127 352.037 L
128.033 348.938 L
133.939 346.041 L
139.845 343.349 L
145.751 340.866 L
151.657 338.591 L
157.563 336.521 L
163.469 334.651 L
169.375 332.974 L
175.281 331.481 L
181.187 330.163 L
187.093 329.01 LE
grestore
gsave
1.0 1.0 scale
newpath 0 0 moveto 576 0 lineto 576 432 lineto 0 432 lineto
closepath clip
1 1 1 C
241.974 385.841 354.186 312.427 241.974 312.427 T
241.974 385.841 354.186 385.841 354.186 312.427 T
0.5 W
0.15 0.15 0.15 C
265.597 312.427 LS
265.597 313.556 LE
265.597 385.841 LS
265.597 384.712 LE
295.127 312.427 LS
295.127 313.556 LE
295.127 385.841 LS
295.127 384.712 LE
324.657 312.427 LS
324.657 313.556 LE
324.657 385.841 LS
324.657 384.712 LE
354.186 312.427 LS
354.186 313.556 LE
354.186 385.841 LS
354.186 384.712 LE
gsave
0.14902 0.14902 0.14902 C
(5) [10] 0 262.597 296.885 10 /Helvetica SRX
grestore

gsave
0.14902 0.14902 0.14902 C
(10) [6 10] 0 289.127 296.885 10 /Helvetica SRX
grestore

gsave
0.14902 0.14902 0.14902 C
(15) [6 10] 0 318.657 296.885 10 /Helvetica SRX
grestore

gsave
0.14902 0.14902 0.14902 C
(20) [6 10] 0 348.186 296.885 10 /Helvetica SRX
grestore

241.974 326.42 LS
243.098 326.42 LE
354.186 326.42 LS
353.062 326.42 LE
241.974 345.398 LS
243.098 345.398 LE
354.186 345.398 LS
353.062 345.398 LE
241.974 364.376 LS
243.098 364.376 LE
354.186 364.376 LS
353.062 364.376 LE
241.974 383.355 LS
243.098 383.355 LE
354.186 383.355 LS
353.062 383.355 LE
gsave
0.14902 0.14902 0.14902 C
(0.01) [6 3 6 10] 0 215.964 322.42 10 /Helvetica SRX
grestore

gsave
0.14902 0.14902 0.14902 C
(0.02) [6 3 6 10] 0 215.964 341.398 10 /Helvetica SRX
grestore

gsave
0.14902 0.14902 0.14902 C
(0.03) [6 3 6 10] 0 215.964 360.376 10 /Helvetica SRX
grestore

gsave
0.14902 0.14902 0.14902 C
(0.04) [6 3 6 10] 0 215.964 379.355 10 /Helvetica SRX
grestore

2 LC
[16 0] 0 setdash
241.974 312.427 LS
354.186 312.427 LE
241.974 385.841 LS
354.186 385.841 LE
241.974 312.427 LS
241.974 385.841 LE
354.186 312.427 LS
354.186 385.841 LE
gsave
0 0 0 C
(A_T_hat) [8 6 7 6 7 6 10] 0 276.08 397.841 11 /Helvetica-Bold SRX
grestore

0.9 0.9 0.9 C
241.974 312.427 241.974 385.841 247.88 312.427 T
247.88 377.289 247.88 312.427 241.974 385.841 T
253.786 312.427 247.88 312.427 247.88 377.289 T
253.786 369.342 253.786 312.427 247.88 377.289 T
259.691 312.427 253.786 312.427 253.786 369.342 T
259.691 362.82 259.691 312.427 253.786 369.342 T
265.597 312.427 259.691 312.427 259.691 362.82 T
265.597 357.383 265.597 312.427 259.691 362.82 T
271.503 312.427 265.597 312.427 265.597 357.383 T
271.503 352.687 271.503 312.427 265.597 357.383 T
277.409 312.427 271.503 312.427 271.503 352.687 T
277.409 347.184 277.409 312.427 271.503 352.687 T
283.315 312.427 277.409 312.427 277.409 347.184 T
283.315 343.317 283.315 312.427 277.409 347.184 T
289.221 312.427 283.315 312.427 283.315 343.317 T
289.221 339.558 289.221 312.427 283.315 343.317 T
295.127 312.427 289.221 312.427 289.221 339.558 T
295.127 335.699 295.127 312.427 289.221 339.558 T
301.033 312.427 295.127 312.427 295.127 335.699 T
301.033 332.751 301.033 312.427 295.127 335.699 T
306.939 312.427 301.033 312.427 301.033 332.751 T
306.939 329.943 306.939 312.427 301.033 332.751 T
312.845 312.427 306.939 312.427 306.939 329.943 T
312.845 327.644 312.845 312.427 306.939 329.943 T
318.751 312.427 312.845 312.427 312.845 327.644 T
318.751 325.451 318.751 312.427 312.845 327.644 T
324.657 312.427 318.751 312.427 318.751 325.451 T
324.657 323.653 324.657 312.427 318.751 325.451 T
330.563 312.427 324.657 312.427 324.657 323.653 T
330.563 322.192 330.563 312.427 324.657 323.653 T
336.469 312.427 330.563 312.427 330.563 322.192 T
336.469 320.594 336.469 312.427 330.563 322.192 T
342.374 312.427 336.469 312.427 336.469 320.594 T
342.374 319.373 342.374 312.427 336.469 320.594 T
348.28 312.427 342.374 312.427 342.374 319.373 T
348.28 318.031 348.28 312.427 342.374 319.373 T
354.186 312.427 348.28 312.427 348.28 318.031 T
354.186 317.023 354.186 312.427 348.28 318.031 T
0 LC
[] 0 setdash
0 0 0 C
354.186 317.023 LS
348.28 318.031 L
342.374 319.373 L
336.469 320.594 L
330.563 322.192 L
324.657 323.653 L
318.751 325.451 L
312.845 327.644 L
306.939 329.943 L
301.033 332.751 L
295.127 335.699 L
289.221 339.558 L
283.315 343.317 L
277.409 347.184 L
271.503 352.687 L
265.597 357.383 L
259.691 362.82 L
253.786 369.342 L
247.88 377.289 L
241.974 385.841 L
241.974 312.427 L
247.88 312.427 L
253.786 312.427 L
259.691 312.427 L
265.597 312.427 L
271.503 312.427 L
277.409 312.427 L
283.315 312.427 L
289.221 312.427 L
295.127 312.427 L
301.033 312.427 L
306.939 312.427 L
312.845 312.427 L
318.751 312.427 L
324.657 312.427 L
330.563 312.427 L
336.469 312.427 L
342.374 312.427 L
348.28 312.427 L
354.186 312.427 L
354.186 317.023 LE
1 1 1 C
241.974 312.427 241.974 354.71 247.88 312.427 T
247.88 349.409 247.88 312.427 241.974 354.71 T
253.786 312.427 247.88 312.427 247.88 349.409 T
253.786 344.262 253.786 312.427 247.88 349.409 T
259.691 312.427 253.786 312.427 253.786 344.262 T
259.691 340.212 259.691 312.427 253.786 344.262 T
265.597 312.427 259.691 312.427 259.691 340.212 T
265.597 337.168 265.597 312.427 259.691 340.212 T
271.503 312.427 265.597 312.427 265.597 337.168 T
271.503 334.594 271.503 312.427 265.597 337.168 T
277.409 312.427 271.503 312.427 271.503 334.594 T
277.409 330.961 277.409 312.427 271.503 334.594 T
283.315 312.427 277.409 312.427 277.409 330.961 T
283.315 328.693 283.315 312.427 277.409 330.961 T
289.221 312.427 283.315 312.427 283.315 328.693 T
289.221 326.375 289.221 312.427 283.315 328.693 T
295.127 312.427 289.221 312.427 289.221 326.375 T
295.127 323.773 295.127 312.427 289.221 326.375 T
301.033 312.427 295.127 312.427 295.127 323.773 T
301.033 322.014 301.033 312.427 295.127 323.773 T
306.939 312.427 301.033 312.427 301.033 322.014 T
306.939 320.279 306.939 312.427 301.033 322.014 T
312.845 312.427 306.939 312.427 306.939 320.279 T
312.845 318.878 312.845 312.427 306.939 320.279 T
318.751 312.427 312.845 312.427 312.845 318.878 T
318.751 317.438 318.751 312.427 312.845 318.878 T
324.657 312.427 318.751 312.427 318.751 317.438 T
324.657 316.26 324.657 312.427 318.751 317.438 T
330.563 312.427 324.657 312.427 324.657 316.26 T
330.563 315.45 330.563 312.427 324.657 316.26 T
336.469 312.427 330.563 312.427 330.563 315.45 T
336.469 314.489 336.469 312.427 330.563 315.45 T
342.374 312.427 336.469 312.427 336.469 314.489 T
342.374 313.813 342.374 312.427 336.469 314.489 T
348.28 312.427 342.374 312.427 342.374 313.813 T
348.28 312.975 348.28 312.427 342.374 313.813 T
354.186 312.427 348.28 312.427 348.28 312.975 T
0 0 0 C
354.186 312.427 LS
348.28 312.975 L
342.374 313.813 L
336.469 314.489 L
330.563 315.45 L
324.657 316.26 L
318.751 317.438 L
312.845 318.878 L
306.939 320.279 L
301.033 322.014 L
295.127 323.773 L
289.221 326.375 L
283.315 328.693 L
277.409 330.961 L
271.503 334.594 L
265.597 337.168 L
259.691 340.212 L
253.786 344.262 L
247.88 349.409 L
241.974 354.71 L
241.974 312.427 L
247.88 312.427 L
253.786 312.427 L
259.691 312.427 L
265.597 312.427 L
271.503 312.427 L
277.409 312.427 L
283.315 312.427 L
289.221 312.427 L
295.127 312.427 L
301.033 312.427 L
306.939 312.427 L
312.845 312.427 L
318.751 312.427 L
324.657 312.427 L
330.563 312.427 L
336.469 312.427 L
342.374 312.427 L
348.28 312.427 L
354.186 312.427 LE
3 W
1 LJ
241.974 370.13 LS
247.88 363.334 L
253.786 357.277 L
259.691 351.879 L
265.597 347.068 L
271.503 342.779 L
277.409 338.957 L
283.315 335.549 L
289.221 332.511 L
295.127 329.803 L
301.033 327.388 L
306.939 325.234 L
312.845 323.314 L
318.751 321.602 L
324.657 320.075 L
330.563 318.714 L
336.469 317.499 L
342.374 316.416 L
348.28 315.45 L
354.186 314.588 LE
grestore
gsave
1.0 1.0 scale
newpath 0 0 moveto 576 0 lineto 576 432 lineto 0 432 lineto
closepath clip
1 1 1 C
409.067 385.841 521.28 312.427 409.067 312.427 T
409.067 385.841 521.28 385.841 521.28 312.427 T
0.5 W
0.15 0.15 0.15 C
432.691 312.427 LS
432.691 313.556 LE
432.691 385.841 LS
432.691 384.712 LE
462.221 312.427 LS
462.221 313.556 LE
462.221 385.841 LS
462.221 384.712 LE
491.75 312.427 LS
491.75 313.556 LE
491.75 385.841 LS
491.75 384.712 LE
521.28 312.427 LS
521.28 313.556 LE
521.28 385.841 LS
521.28 384.712 LE
gsave
0.14902 0.14902 0.14902 C
(5) [10] 0 429.691 296.885 10 /Helvetica SRX
grestore

gsave
0.14902 0.14902 0.14902 C
(10) [6 10] 0 456.221 296.885 10 /Helvetica SRX
grestore

gsave
0.14902 0.14902 0.14902 C
(15) [6 10] 0 485.75 296.885 10 /Helvetica SRX
grestore

gsave
0.14902 0.14902 0.14902 C
(20) [6 10] 0 515.28 296.885 10 /Helvetica SRX
grestore

409.067 315.997 LS
410.192 315.997 LE
521.28 315.997 LS
520.156 315.997 LE
409.067 329.285 LS
410.192 329.285 LE
521.28 329.285 LS
520.156 329.285 LE
409.067 342.574 LS
410.192 342.574 LE
521.28 342.574 LS
520.156 342.574 LE
409.067 355.862 LS
410.192 355.862 LE
521.28 355.862 LS
520.156 355.862 LE
409.067 369.151 LS
410.192 369.151 LE
521.28 369.151 LS
520.156 369.151 LE
409.067 382.439 LS
410.192 382.439 LE
521.28 382.439 LS
520.156 382.439 LE
gsave
0.14902 0.14902 0.14902 C
(0.01) [6 3 6 10] 0 383.058 311.997 10 /Helvetica SRX
grestore

gsave
0.14902 0.14902 0.14902 C
(0.015) [6 3 6 6 10] 0 377.058 325.285 10 /Helvetica SRX
grestore

gsave
0.14902 0.14902 0.14902 C
(0.02) [6 3 6 10] 0 383.058 338.574 10 /Helvetica SRX
grestore

gsave
0.14902 0.14902 0.14902 C
(0.025) [6 3 6 6 10] 0 377.058 351.862 10 /Helvetica SRX
grestore

gsave
0.14902 0.14902 0.14902 C
(0.03) [6 3 6 10] 0 383.058 365.151 10 /Helvetica SRX
grestore

gsave
0.14902 0.14902 0.14902 C
(0.035) [6 3 6 6 10] 0 377.058 378.439 10 /Helvetica SRX
grestore

2 LC
[16 0] 0 setdash
409.067 312.427 LS
521.28 312.427 LE
409.067 385.841 LS
521.28 385.841 LE
409.067 312.427 LS
409.067 385.841 LE
521.28 312.427 LS
521.28 385.841 LE
gsave
0 0 0 C
(Y_hat) [7 6 7 6 10] 0 450.174 397.841 11 /Helvetica-Bold SRX
grestore

0.9 0.9 0.9 C
409.067 312.427 409.067 380.48 414.973 312.427 T
414.973 385.841 414.973 312.427 409.067 380.48 T
420.879 312.427 414.973 312.427 414.973 385.841 T
420.879 382.928 420.879 312.427 414.973 385.841 T
426.785 312.427 420.879 312.427 420.879 382.928 T
426.785 378.58 426.785 312.427 420.879 382.928 T
432.691 312.427 426.785 312.427 426.785 378.58 T
432.691 374.49 432.691 312.427 426.785 378.58 T
438.597 312.427 432.691 312.427 432.691 374.49 T
438.597 369.124 438.597 312.427 432.691 374.49 T
444.503 312.427 438.597 312.427 438.597 369.124 T
444.503 364.887 444.503 312.427 438.597 369.124 T
450.409 312.427 444.503 312.427 444.503 364.887 T
450.409 359.846 450.409 312.427 444.503 364.887 T
456.315 312.427 450.409 312.427 450.409 359.846 T
456.315 356.067 456.315 312.427 450.409 359.846 T
462.221 312.427 456.315 312.427 456.315 356.067 T
462.221 352.553 462.221 312.427 456.315 356.067 T
468.127 312.427 462.221 312.427 462.221 352.553 T
468.127 348.295 468.127 312.427 462.221 352.553 T
474.033 312.427 468.127 312.427 468.127 348.295 T
474.033 345.215 474.033 312.427 468.127 348.295 T
479.939 312.427 474.033 312.427 474.033 345.215 T
479.939 343.572 479.939 312.427 474.033 345.215 T
485.844 312.427 479.939 312.427 479.939 343.572 T
485.844 340.547 485.844 312.427 479.939 343.572 T
491.75 312.427 485.844 312.427 485.844 340.547 T
491.75 338.464 491.75 312.427 485.844 340.547 T
497.656 312.427 491.75 312.427 491.75 338.464 T
497.656 335.875 497.656 312.427 491.75 338.464 T
503.562 312.427 497.656 312.427 497.656 335.875 T
503.562 334.547 503.562 312.427 497.656 335.875 T
509.468 312.427 503.562 312.427 503.562 334.547 T
509.468 332.779 509.468 312.427 503.562 334.547 T
515.374 312.427 509.468 312.427 509.468 332.779 T
515.374 331.196 515.374 312.427 509.468 332.779 T
521.28 312.427 515.374 312.427 515.374 331.196 T
521.28 329.798 521.28 312.427 515.374 331.196 T
0 LC
[] 0 setdash
0 0 0 C
521.28 329.798 LS
515.374 331.196 L
509.468 332.779 L
503.562 334.547 L
497.656 335.875 L
491.75 338.464 L
485.844 340.547 L
479.939 343.572 L
474.033 345.215 L
468.127 348.295 L
462.221 352.553 L
456.315 356.067 L
450.409 359.846 L
444.503 364.887 L
438.597 369.124 L
432.691 374.49 L
426.785 378.58 L
420.879 382.928 L
414.973 385.841 L
409.067 380.48 L
409.067 312.427 L
414.973 312.427 L
420.879 312.427 L
426.785 312.427 L
432.691 312.427 L
438.597 312.427 L
444.503 312.427 L
450.409 312.427 L
456.315 312.427 L
462.221 312.427 L
468.127 312.427 L
474.033 312.427 L
479.939 312.427 L
485.844 312.427 L
491.75 312.427 L
497.656 312.427 L
503.562 312.427 L
509.468 312.427 L
515.374 312.427 L
521.28 312.427 L
521.28 329.798 LE
1 1 1 C
409.067 312.427 409.067 351.858 414.973 312.427 T
414.973 352.426 414.973 312.427 409.067 351.858 T
420.879 312.427 414.973 312.427 414.973 352.426 T
420.879 348.31 420.879 312.427 414.973 352.426 T
426.785 312.427 420.879 312.427 420.879 348.31 T
426.785 343.878 426.785 312.427 420.879 348.31 T
432.691 312.427 426.785 312.427 426.785 343.878 T
432.691 340.778 432.691 312.427 426.785 343.878 T
438.597 312.427 432.691 312.427 432.691 340.778 T
438.597 337.035 438.597 312.427 432.691 340.778 T
444.503 312.427 438.597 312.427 438.597 337.035 T
444.503 334.567 444.503 312.427 438.597 337.035 T
450.409 312.427 444.503 312.427 444.503 334.567 T
450.409 330.983 450.409 312.427 444.503 334.567 T
456.315 312.427 450.409 312.427 450.409 330.983 T
456.315 328.618 456.315 312.427 450.409 330.983 T
462.221 312.427 456.315 312.427 456.315 328.618 T
462.221 326.396 462.221 312.427 456.315 328.618 T
468.127 312.427 462.221 312.427 462.221 326.396 T
468.127 323.433 468.127 312.427 462.221 326.396 T
474.033 312.427 468.127 312.427 468.127 323.433 T
474.033 321.544 474.033 312.427 468.127 323.433 T
479.939 312.427 474.033 312.427 474.033 321.544 T
479.939 320.84 479.939 312.427 474.033 321.544 T
485.844 312.427 479.939 312.427 479.939 320.84 T
485.844 318.773 485.844 312.427 479.939 320.84 T
491.75 312.427 485.844 312.427 485.844 318.773 T
491.75 317.618 491.75 312.427 485.844 318.773 T
497.656 312.427 491.75 312.427 491.75 317.618 T
497.656 315.831 497.656 312.427 491.75 317.618 T
503.562 312.427 497.656 312.427 497.656 315.831 T
503.562 315.269 503.562 312.427 497.656 315.831 T
509.468 312.427 503.562 312.427 503.562 315.269 T
509.468 314.233 509.468 312.427 503.562 315.269 T
515.374 312.427 509.468 312.427 509.468 314.233 T
515.374 313.271 515.374 312.427 509.468 314.233 T
521.28 312.427 515.374 312.427 515.374 313.271 T
0 0 0 C
521.28 312.427 LS
515.374 313.271 L
509.468 314.233 L
503.562 315.269 L
497.656 315.831 L
491.75 317.618 L
485.844 318.773 L
479.939 320.84 L
474.033 321.544 L
468.127 323.433 L
462.221 326.396 L
456.315 328.618 L
450.409 330.983 L
444.503 334.567 L
438.597 337.035 L
432.691 340.778 L
426.785 343.878 L
420.879 348.31 L
414.973 352.426 L
409.067 351.858 L
409.067 312.427 L
414.973 312.427 L
420.879 312.427 L
426.785 312.427 L
432.691 312.427 L
438.597 312.427 L
444.503 312.427 L
450.409 312.427 L
456.315 312.427 L
462.221 312.427 L
468.127 312.427 L
474.033 312.427 L
479.939 312.427 L
485.844 312.427 L
491.75 312.427 L
497.656 312.427 L
503.562 312.427 L
509.468 312.427 L
515.374 312.427 L
521.28 312.427 LE
3 W
1 LJ
409.067 366.125 LS
414.973 369.498 L
420.879 366.46 L
426.785 361.952 L
432.691 357.279 L
438.597 352.841 L
444.503 348.754 L
450.409 345.041 L
456.315 341.684 L
462.221 338.654 L
468.127 335.922 L
474.033 333.455 L
479.939 331.226 L
485.844 329.209 L
491.75 327.382 L
497.656 325.724 L
503.562 324.217 L
509.468 322.846 L
515.374 321.595 L
521.28 320.453 LE
grestore
gsave
1.0 1.0 scale
newpath 0 0 moveto 576 0 lineto 576 432 lineto 0 432 lineto
closepath clip
1 1 1 C
74.88 253.387 187.093 179.974 74.88 179.974 T
74.88 253.387 187.093 253.387 187.093 179.974 T
0.5 W
0.15 0.15 0.15 C
98.5037 179.974 LS
98.5037 181.102 LE
98.5037 253.387 LS
98.5037 252.258 LE
128.033 179.974 LS
128.033 181.102 LE
128.033 253.387 LS
128.033 252.258 LE
157.563 179.974 LS
157.563 181.102 LE
157.563 253.387 LS
157.563 252.258 LE
187.093 179.974 LS
187.093 181.102 LE
187.093 253.387 LS
187.093 252.258 LE
gsave
0.14902 0.14902 0.14902 C
(5) [10] 0 95.5037 164.431 10 /Helvetica SRX
grestore

gsave
0.14902 0.14902 0.14902 C
(10) [6 10] 0 122.033 164.431 10 /Helvetica SRX
grestore

gsave
0.14902 0.14902 0.14902 C
(15) [6 10] 0 151.563 164.431 10 /Helvetica SRX
grestore

gsave
0.14902 0.14902 0.14902 C
(20) [6 10] 0 181.093 164.431 10 /Helvetica SRX
grestore

74.88 196.528 LS
76.0043 196.528 LE
187.093 196.528 LS
185.968 196.528 LE
74.88 214.981 LS
76.0043 214.981 LE
187.093 214.981 LS
185.968 214.981 LE
74.88 233.434 LS
76.0043 233.434 LE
187.093 233.434 LS
185.968 233.434 LE
74.88 251.887 LS
76.0043 251.887 LE
187.093 251.887 LS
185.968 251.887 LE
gsave
0.14902 0.14902 0.14902 C
(0.008) [6 3 6 6 10] 0 42.8705 192.528 10 /Helvetica SRX
grestore

gsave
0.14902 0.14902 0.14902 C
(0.01) [6 3 6 10] 0 48.8705 210.981 10 /Helvetica SRX
grestore

gsave
0.14902 0.14902 0.14902 C
(0.012) [6 3 6 6 10] 0 42.8705 229.434 10 /Helvetica SRX
grestore

gsave
0.14902 0.14902 0.14902 C
(0.014) [6 3 6 6 10] 0 42.8705 247.887 10 /Helvetica SRX
grestore

2 LC
[16 0] 0 setdash
74.88 179.974 LS
187.093 179.974 LE
74.88 253.387 LS
187.093 253.387 LE
74.88 179.974 LS
74.88 253.387 LE
187.093 179.974 LS
187.093 253.387 LE
gsave
0 0 0 C
(C_hat) [8 6 7 6 10] 0 115.486 265.387 11 /Helvetica-Bold SRX
grestore

0.9 0.9 0.9 C
74.88 179.974 74.88 207.032 80.7859 179.974 T
80.7859 238.326 80.7859 179.974 74.88 207.032 T
86.6918 179.974 80.7859 179.974 80.7859 238.326 T
86.6918 248.351 86.6918 179.974 80.7859 238.326 T
92.5978 179.974 86.6918 179.974 86.6918 248.351 T
92.5978 252.957 92.5978 179.974 86.6918 248.351 T
98.5037 179.974 92.5978 179.974 92.5978 252.957 T
98.5037 253.387 98.5037 179.974 92.5978 252.957 T
104.41 179.974 98.5037 179.974 98.5037 253.387 T
104.41 251.718 104.41 179.974 98.5037 253.387 T
110.316 179.974 104.41 179.974 104.41 251.718 T
110.316 249.348 110.316 179.974 104.41 251.718 T
116.221 179.974 110.316 179.974 110.316 249.348 T
116.221 246.763 116.221 179.974 110.316 249.348 T
122.127 179.974 116.221 179.974 116.221 246.763 T
122.127 243.799 122.127 179.974 116.221 246.763 T
128.033 179.974 122.127 179.974 122.127 243.799 T
128.033 241.145 128.033 179.974 122.127 243.799 T
133.939 179.974 128.033 179.974 128.033 241.145 T
133.939 238.702 133.939 179.974 128.033 241.145 T
139.845 179.974 133.939 179.974 133.939 238.702 T
139.845 236.408 139.845 179.974 133.939 238.702 T
145.751 179.974 139.845 179.974 139.845 236.408 T
145.751 233.953 145.751 179.974 139.845 236.408 T
151.657 179.974 145.751 179.974 145.751 233.953 T
151.657 231.977 151.657 179.974 145.751 233.953 T
157.563 179.974 151.657 179.974 151.657 231.977 T
157.563 229.788 157.563 179.974 151.657 231.977 T
163.469 179.974 157.563 179.974 157.563 229.788 T
163.469 227.937 163.469 179.974 157.563 229.788 T
169.375 179.974 163.469 179.974 163.469 227.937 T
169.375 226.492 169.375 179.974 163.469 227.937 T
175.281 179.974 169.375 179.974 169.375 226.492 T
175.281 225.041 175.281 179.974 169.375 226.492 T
181.187 179.974 175.281 179.974 175.281 225.041 T
181.187 224.636 181.187 179.974 175.281 225.041 T
187.093 179.974 181.187 179.974 181.187 224.636 T
187.093 223.319 187.093 179.974 181.187 224.636 T
0 LC
[] 0 setdash
0 0 0 C
187.093 223.319 LS
181.187 224.636 L
175.281 225.041 L
169.375 226.492 L
163.469 227.937 L
157.563 229.788 L
151.657 231.977 L
145.751 233.953 L
139.845 236.408 L
133.939 238.702 L
128.033 241.145 L
122.127 243.799 L
116.221 246.763 L
110.316 249.348 L
104.41 251.718 L
98.5037 253.387 L
92.5978 252.957 L
86.6918 248.351 L
80.7859 238.326 L
74.88 207.032 L
74.88 179.974 L
80.7859 179.974 L
86.6918 179.974 L
92.5978 179.974 L
98.5037 179.974 L
104.41 179.974 L
110.316 179.974 L
116.221 179.974 L
122.127 179.974 L
128.033 179.974 L
133.939 179.974 L
139.845 179.974 L
145.751 179.974 L
151.657 179.974 L
157.563 179.974 L
163.469 179.974 L
169.375 179.974 L
175.281 179.974 L
181.187 179.974 L
187.093 179.974 L
187.093 223.319 LE
1 1 1 C
74.88 179.974 80.7859 197.633 80.7859 179.974 T
86.6918 179.974 80.7859 179.974 80.7859 197.633 T
86.6918 201.419 86.6918 179.974 80.7859 197.633 T
92.5978 179.974 86.6918 179.974 86.6918 201.419 T
92.5978 202.639 92.5978 179.974 86.6918 201.419 T
98.5037 179.974 92.5978 179.974 92.5978 202.639 T
98.5037 201.762 98.5037 179.974 92.5978 202.639 T
104.41 179.974 98.5037 179.974 98.5037 201.762 T
104.41 199.996 104.41 179.974 98.5037 201.762 T
110.316 179.974 104.41 179.974 104.41 199.996 T
110.316 198.123 110.316 179.974 104.41 199.996 T
116.221 179.974 110.316 179.974 110.316 198.123 T
116.221 196.25 116.221 179.974 110.316 198.123 T
122.127 179.974 116.221 179.974 116.221 196.25 T
122.127 194.306 122.127 179.974 116.221 196.25 T
128.033 179.974 122.127 179.974 122.127 194.306 T
128.033 192.521 128.033 179.974 122.127 194.306 T
133.939 179.974 128.033 179.974 128.033 192.521 T
133.939 190.954 133.939 179.974 128.033 192.521 T
139.845 179.974 133.939 179.974 133.939 190.954 T
139.845 189.435 139.845 179.974 133.939 190.954 T
145.751 179.974 139.845 179.974 139.845 189.435 T
145.751 187.661 145.751 179.974 139.845 189.435 T
151.657 179.974 145.751 179.974 145.751 187.661 T
151.657 186.339 151.657 179.974 145.751 187.661 T
157.563 179.974 151.657 179.974 151.657 186.339 T
157.563 184.88 157.563 179.974 151.657 186.339 T
163.469 179.974 157.563 179.974 157.563 184.88 T
163.469 183.591 163.469 179.974 157.563 184.88 T
169.375 179.974 163.469 179.974 163.469 183.591 T
169.375 182.709 169.375 179.974 163.469 183.591 T
175.281 179.974 169.375 179.974 169.375 182.709 T
175.281 181.794 175.281 179.974 169.375 182.709 T
181.187 179.974 175.281 179.974 175.281 181.794 T
181.187 181.908 181.187 179.974 175.281 181.794 T
187.093 179.974 181.187 179.974 181.187 181.908 T
187.093 181.182 187.093 179.974 181.187 181.908 T
0 0 0 C
187.093 181.182 LS
181.187 181.908 L
175.281 181.794 L
169.375 182.709 L
163.469 183.591 L
157.563 184.88 L
151.657 186.339 L
145.751 187.661 L
139.845 189.435 L
133.939 190.954 L
128.033 192.521 L
122.127 194.306 L
116.221 196.25 L
110.316 198.123 L
104.41 199.996 L
98.5037 201.762 L
92.5978 202.639 L
86.6918 201.419 L
80.7859 197.633 L
74.88 179.974 L
80.7859 179.974 L
86.6918 179.974 L
92.5978 179.974 L
98.5037 179.974 L
104.41 179.974 L
110.316 179.974 L
116.221 179.974 L
122.127 179.974 L
128.033 179.974 L
133.939 179.974 L
139.845 179.974 L
145.751 179.974 L
151.657 179.974 L
157.563 179.974 L
163.469 179.974 L
169.375 179.974 L
175.281 179.974 L
181.187 179.974 L
187.093 179.974 L
187.093 181.182 LE
3 W
1 LJ
74.88 194.31 LS
80.7859 218.507 L
86.6918 227.103 L
92.5978 229.104 L
98.5037 228.187 L
104.41 226.035 L
110.316 223.445 L
116.221 220.791 L
122.127 218.24 L
128.033 215.861 L
133.939 213.672 L
139.845 211.67 L
145.751 209.841 L
151.657 208.169 L
157.563 206.636 L
163.469 205.225 L
169.375 203.923 L
175.281 202.715 L
181.187 201.591 L
187.093 200.539 LE
grestore
gsave
1.0 1.0 scale
newpath 0 0 moveto 576 0 lineto 576 432 lineto 0 432 lineto
closepath clip
1 1 1 C
241.974 253.387 354.186 179.974 241.974 179.974 T
241.974 253.387 354.186 253.387 354.186 179.974 T
0.5 W
0.15 0.15 0.15 C
265.597 179.974 LS
265.597 181.102 LE
265.597 253.387 LS
265.597 252.258 LE
295.127 179.974 LS
295.127 181.102 LE
295.127 253.387 LS
295.127 252.258 LE
324.657 179.974 LS
324.657 181.102 LE
324.657 253.387 LS
324.657 252.258 LE
354.186 179.974 LS
354.186 181.102 LE
354.186 253.387 LS
354.186 252.258 LE
gsave
0.14902 0.14902 0.14902 C
(5) [10] 0 262.597 164.431 10 /Helvetica SRX
grestore

gsave
0.14902 0.14902 0.14902 C
(10) [6 10] 0 289.127 164.431 10 /Helvetica SRX
grestore

gsave
0.14902 0.14902 0.14902 C
(15) [6 10] 0 318.657 164.431 10 /Helvetica SRX
grestore

gsave
0.14902 0.14902 0.14902 C
(20) [6 10] 0 348.186 164.431 10 /Helvetica SRX
grestore

241.974 180.352 LS
243.098 180.352 LE
354.186 180.352 LS
353.062 180.352 LE
241.974 190.834 LS
243.098 190.834 LE
354.186 190.834 LS
353.062 190.834 LE
241.974 201.317 LS
243.098 201.317 LE
354.186 201.317 LS
353.062 201.317 LE
241.974 211.799 LS
243.098 211.799 LE
354.186 211.799 LS
353.062 211.799 LE
241.974 222.282 LS
243.098 222.282 LE
354.186 222.282 LS
353.062 222.282 LE
241.974 232.764 LS
243.098 232.764 LE
354.186 232.764 LS
353.062 232.764 LE
241.974 243.247 LS
243.098 243.247 LE
354.186 243.247 LS
353.062 243.247 LE
gsave
0.14902 0.14902 0.14902 C
(0.01) [6 3 6 10] 0 215.964 176.352 10 /Helvetica SRX
grestore

gsave
0.14902 0.14902 0.14902 C
(0.02) [6 3 6 10] 0 215.964 186.834 10 /Helvetica SRX
grestore

gsave
0.14902 0.14902 0.14902 C
(0.03) [6 3 6 10] 0 215.964 197.317 10 /Helvetica SRX
grestore

gsave
0.14902 0.14902 0.14902 C
(0.04) [6 3 6 10] 0 215.964 207.799 10 /Helvetica SRX
grestore

gsave
0.14902 0.14902 0.14902 C
(0.05) [6 3 6 10] 0 215.964 218.282 10 /Helvetica SRX
grestore

gsave
0.14902 0.14902 0.14902 C
(0.06) [6 3 6 10] 0 215.964 228.764 10 /Helvetica SRX
grestore

gsave
0.14902 0.14902 0.14902 C
(0.07) [6 3 6 10] 0 215.964 239.247 10 /Helvetica SRX
grestore

2 LC
[16 0] 0 setdash
241.974 179.974 LS
354.186 179.974 LE
241.974 253.387 LS
354.186 253.387 LE
241.974 179.974 LS
241.974 253.387 LE
354.186 179.974 LS
354.186 253.387 LE
gsave
0 0 0 C
(I_hat) [3 6 7 6 10] 0 285.08 265.387 11 /Helvetica-Bold SRX
grestore

0.9 0.9 0.9 C
241.974 179.974 241.974 253.387 247.88 179.974 T
247.88 246.057 247.88 179.974 241.974 253.387 T
253.786 179.974 247.88 179.974 247.88 246.057 T
253.786 238.785 253.786 179.974 247.88 246.057 T
259.691 179.974 253.786 179.974 253.786 238.785 T
259.691 232.371 259.691 179.974 253.786 238.785 T
265.597 179.974 259.691 179.974 259.691 232.371 T
265.597 226.804 265.597 179.974 259.691 232.371 T
271.503 179.974 265.597 179.974 265.597 226.804 T
271.503 221.711 271.503 179.974 265.597 226.804 T
277.409 179.974 271.503 179.974 271.503 221.711 T
277.409 217.19 277.409 179.974 271.503 221.711 T
283.315 179.974 277.409 179.974 277.409 217.19 T
283.315 213.127 283.315 179.974 277.409 217.19 T
289.221 179.974 283.315 179.974 283.315 213.127 T
289.221 209.746 289.221 179.974 283.315 213.127 T
295.127 179.974 289.221 179.974 289.221 209.746 T
295.127 206.553 295.127 179.974 289.221 209.746 T
301.033 179.974 295.127 179.974 295.127 206.553 T
301.033 203.776 301.033 179.974 295.127 206.553 T
306.939 179.974 301.033 179.974 301.033 203.776 T
306.939 201.316 306.939 179.974 301.033 203.776 T
312.845 179.974 306.939 179.974 306.939 201.316 T
312.845 198.877 312.845 179.974 306.939 201.316 T
318.751 179.974 312.845 179.974 312.845 198.877 T
318.751 196.913 318.751 179.974 312.845 198.877 T
324.657 179.974 318.751 179.974 318.751 196.913 T
324.657 195.187 324.657 179.974 318.751 196.913 T
330.563 179.974 324.657 179.974 324.657 195.187 T
330.563 193.553 330.563 179.974 324.657 195.187 T
336.469 179.974 330.563 179.974 330.563 193.553 T
336.469 192.149 336.469 179.974 330.563 193.553 T
342.374 179.974 336.469 179.974 336.469 192.149 T
342.374 190.929 342.374 179.974 336.469 192.149 T
348.28 179.974 342.374 179.974 342.374 190.929 T
348.28 189.778 348.28 179.974 342.374 190.929 T
354.186 179.974 348.28 179.974 348.28 189.778 T
354.186 188.57 354.186 179.974 348.28 189.778 T
0 LC
[] 0 setdash
0 0 0 C
354.186 188.57 LS
348.28 189.778 L
342.374 190.929 L
336.469 192.149 L
330.563 193.553 L
324.657 195.187 L
318.751 196.913 L
312.845 198.877 L
306.939 201.316 L
301.033 203.776 L
295.127 206.553 L
289.221 209.746 L
283.315 213.127 L
277.409 217.19 L
271.503 221.711 L
265.597 226.804 L
259.691 232.371 L
253.786 238.785 L
247.88 246.057 L
241.974 253.387 L
241.974 179.974 L
247.88 179.974 L
253.786 179.974 L
259.691 179.974 L
265.597 179.974 L
271.503 179.974 L
277.409 179.974 L
283.315 179.974 L
289.221 179.974 L
295.127 179.974 L
301.033 179.974 L
306.939 179.974 L
312.845 179.974 L
318.751 179.974 L
324.657 179.974 L
330.563 179.974 L
336.469 179.974 L
342.374 179.974 L
348.28 179.974 L
354.186 179.974 L
354.186 188.57 LE
1 1 1 C
241.974 179.974 241.974 220.356 247.88 179.974 T
247.88 215.39 247.88 179.974 241.974 220.356 T
253.786 179.974 247.88 179.974 247.88 215.39 T
253.786 210.628 253.786 179.974 247.88 215.39 T
259.691 179.974 253.786 179.974 253.786 210.628 T
259.691 206.544 259.691 179.974 253.786 210.628 T
265.597 179.974 259.691 179.974 259.691 206.544 T
265.597 203.066 265.597 179.974 259.691 206.544 T
271.503 179.974 265.597 179.974 265.597 203.066 T
271.503 199.963 271.503 179.974 265.597 203.066 T
277.409 179.974 271.503 179.974 271.503 199.963 T
277.409 197.188 277.409 179.974 271.503 199.963 T
283.315 179.974 277.409 179.974 277.409 197.188 T
283.315 194.733 283.315 179.974 277.409 197.188 T
289.221 179.974 283.315 179.974 283.315 194.733 T
289.221 192.75 289.221 179.974 283.315 194.733 T
295.127 179.974 289.221 179.974 289.221 192.75 T
295.127 190.825 295.127 179.974 289.221 192.75 T
301.033 179.974 295.127 179.974 295.127 190.825 T
301.033 189.159 301.033 179.974 295.127 190.825 T
306.939 179.974 301.033 179.974 301.033 189.159 T
306.939 187.684 306.939 179.974 301.033 189.159 T
312.845 179.974 306.939 179.974 306.939 187.684 T
312.845 186.143 312.845 179.974 306.939 187.684 T
318.751 179.974 312.845 179.974 312.845 186.143 T
318.751 184.978 318.751 179.974 312.845 186.143 T
324.657 179.974 318.751 179.974 318.751 184.978 T
324.657 183.973 324.657 179.974 318.751 184.978 T
330.563 179.974 324.657 179.974 324.657 183.973 T
330.563 182.994 330.563 179.974 324.657 183.973 T
336.469 179.974 330.563 179.974 330.563 182.994 T
336.469 182.175 336.469 179.974 330.563 182.994 T
342.374 179.974 336.469 179.974 336.469 182.175 T
342.374 181.45 342.374 179.974 336.469 182.175 T
348.28 179.974 342.374 179.974 342.374 181.45 T
348.28 180.749 348.28 179.974 342.374 181.45 T
354.186 179.974 348.28 179.974 348.28 180.749 T
0 0 0 C
354.186 179.974 LS
348.28 180.749 L
342.374 181.45 L
336.469 182.175 L
330.563 182.994 L
324.657 183.973 L
318.751 184.978 L
312.845 186.143 L
306.939 187.684 L
301.033 189.159 L
295.127 190.825 L
289.221 192.75 L
283.315 194.733 L
277.409 197.188 L
271.503 199.963 L
265.597 203.066 L
259.691 206.544 L
253.786 210.628 L
247.88 215.39 L
241.974 220.356 L
241.974 179.974 L
247.88 179.974 L
253.786 179.974 L
259.691 179.974 L
265.597 179.974 L
271.503 179.974 L
277.409 179.974 L
283.315 179.974 L
289.221 179.974 L
295.127 179.974 L
301.033 179.974 L
306.939 179.974 L
312.845 179.974 L
318.751 179.974 L
324.657 179.974 L
330.563 179.974 L
336.469 179.974 L
342.374 179.974 L
348.28 179.974 L
354.186 179.974 LE
3 W
1 LJ
241.974 237.047 LS
247.88 230.791 L
253.786 225.004 L
259.691 219.783 L
265.597 215.122 L
271.503 210.982 L
277.409 207.313 L
283.315 204.065 L
289.221 201.189 L
295.127 198.643 L
301.033 196.386 L
306.939 194.385 L
312.845 192.609 L
318.751 191.03 L
324.657 189.627 L
330.563 188.377 L
336.469 187.262 L
342.374 186.267 L
348.28 185.377 L
354.186 184.581 LE
grestore
gsave
1.0 1.0 scale
newpath 0 0 moveto 576 0 lineto 576 432 lineto 0 432 lineto
closepath clip
1 1 1 C
409.067 253.387 521.28 179.974 409.067 179.974 T
409.067 253.387 521.28 253.387 521.28 179.974 T
0.5 W
0.15 0.15 0.15 C
432.691 179.974 LS
432.691 181.102 LE
432.691 253.387 LS
432.691 252.258 LE
462.221 179.974 LS
462.221 181.102 LE
462.221 253.387 LS
462.221 252.258 LE
491.75 179.974 LS
491.75 181.102 LE
491.75 253.387 LS
491.75 252.258 LE
521.28 179.974 LS
521.28 181.102 LE
521.28 253.387 LS
521.28 252.258 LE
gsave
0.14902 0.14902 0.14902 C
(5) [10] 0 429.691 164.431 10 /Helvetica SRX
grestore

gsave
0.14902 0.14902 0.14902 C
(10) [6 10] 0 456.221 164.431 10 /Helvetica SRX
grestore

gsave
0.14902 0.14902 0.14902 C
(15) [6 10] 0 485.75 164.431 10 /Helvetica SRX
grestore

gsave
0.14902 0.14902 0.14902 C
(20) [6 10] 0 515.28 164.431 10 /Helvetica SRX
grestore

409.067 195.826 LS
410.192 195.826 LE
521.28 195.826 LS
520.156 195.826 LE
409.067 212.743 LS
410.192 212.743 LE
521.28 212.743 LS
520.156 212.743 LE
409.067 229.659 LS
410.192 229.659 LE
521.28 229.659 LS
520.156 229.659 LE
409.067 246.576 LS
410.192 246.576 LE
521.28 246.576 LS
520.156 246.576 LE
gsave
0.14902 0.14902 0.14902 C
(0.006) [6 3 6 6 10] 0 377.058 191.826 10 /Helvetica SRX
grestore

gsave
0.14902 0.14902 0.14902 C
(0.008) [6 3 6 6 10] 0 377.058 208.743 10 /Helvetica SRX
grestore

gsave
0.14902 0.14902 0.14902 C
(0.01) [6 3 6 10] 0 383.058 225.659 10 /Helvetica SRX
grestore

gsave
0.14902 0.14902 0.14902 C
(0.012) [6 3 6 6 10] 0 377.058 242.576 10 /Helvetica SRX
grestore

2 LC
[16 0] 0 setdash
409.067 179.974 LS
521.28 179.974 LE
409.067 253.387 LS
521.28 253.387 LE
409.067 179.974 LS
409.067 253.387 LE
521.28 179.974 LS
521.28 253.387 LE
gsave
0 0 0 C
(L_hat) [7 6 7 6 10] 0 450.174 265.387 11 /Helvetica-Bold SRX
grestore

0.9 0.9 0.9 C
409.067 179.974 409.067 224.007 414.973 179.974 T
414.973 246.762 414.973 179.974 409.067 224.007 T
420.879 179.974 414.973 179.974 414.973 246.762 T
420.879 253.387 420.879 179.974 414.973 246.762 T
426.785 179.974 420.879 179.974 420.879 253.387 T
426.785 252.591 426.785 179.974 420.879 253.387 T
432.691 179.974 426.785 179.974 426.785 252.591 T
432.691 249.652 432.691 179.974 426.785 252.591 T
438.597 179.974 432.691 179.974 432.691 249.652 T
438.597 246.911 438.597 179.974 432.691 249.652 T
444.503 179.974 438.597 179.974 438.597 246.911 T
444.503 242.457 444.503 179.974 438.597 246.911 T
450.409 179.974 444.503 179.974 444.503 242.457 T
450.409 238.096 450.409 179.974 444.503 242.457 T
456.315 179.974 450.409 179.974 450.409 238.096 T
456.315 234.003 456.315 179.974 450.409 238.096 T
462.221 179.974 456.315 179.974 456.315 234.003 T
462.221 230.052 462.221 179.974 456.315 234.003 T
468.127 179.974 462.221 179.974 462.221 230.052 T
468.127 226.568 468.127 179.974 462.221 230.052 T
474.033 179.974 468.127 179.974 468.127 226.568 T
474.033 222.608 474.033 179.974 468.127 226.568 T
479.939 179.974 474.033 179.974 474.033 222.608 T
479.939 219.777 479.939 179.974 474.033 222.608 T
485.844 179.974 479.939 179.974 479.939 219.777 T
485.844 217.98 485.844 179.974 479.939 219.777 T
491.75 179.974 485.844 179.974 485.844 217.98 T
491.75 216.01 491.75 179.974 485.844 217.98 T
497.656 179.974 491.75 179.974 491.75 216.01 T
497.656 214.068 497.656 179.974 491.75 216.01 T
503.562 179.974 497.656 179.974 497.656 214.068 T
503.562 212.376 503.562 179.974 497.656 214.068 T
509.468 179.974 503.562 179.974 503.562 212.376 T
509.468 210.698 509.468 179.974 503.562 212.376 T
515.374 179.974 509.468 179.974 509.468 210.698 T
515.374 208.376 515.374 179.974 509.468 210.698 T
521.28 179.974 515.374 179.974 515.374 208.376 T
521.28 206.969 521.28 179.974 515.374 208.376 T
0 LC
[] 0 setdash
0 0 0 C
521.28 206.969 LS
515.374 208.376 L
509.468 210.698 L
503.562 212.376 L
497.656 214.068 L
491.75 216.01 L
485.844 217.98 L
479.939 219.777 L
474.033 222.608 L
468.127 226.568 L
462.221 230.052 L
456.315 234.003 L
450.409 238.096 L
444.503 242.457 L
438.597 246.911 L
432.691 249.652 L
426.785 252.591 L
420.879 253.387 L
414.973 246.762 L
409.067 224.007 L
409.067 179.974 L
414.973 179.974 L
420.879 179.974 L
426.785 179.974 L
432.691 179.974 L
438.597 179.974 L
444.503 179.974 L
450.409 179.974 L
456.315 179.974 L
462.221 179.974 L
468.127 179.974 L
474.033 179.974 L
479.939 179.974 L
485.844 179.974 L
491.75 179.974 L
497.656 179.974 L
503.562 179.974 L
509.468 179.974 L
515.374 179.974 L
521.28 179.974 L
521.28 206.969 LE
1 1 1 C
409.067 179.974 409.067 198.038 414.973 179.974 T
414.973 212.025 414.973 179.974 409.067 198.038 T
420.879 179.974 414.973 179.974 414.973 212.025 T
420.879 213.422 420.879 179.974 414.973 212.025 T
426.785 179.974 420.879 179.974 420.879 213.422 T
426.785 211.299 426.785 179.974 420.879 213.422 T
432.691 179.974 426.785 179.974 426.785 211.299 T
432.691 208.283 432.691 179.974 426.785 211.299 T
438.597 179.974 432.691 179.974 432.691 208.283 T
438.597 206.299 438.597 179.974 432.691 208.283 T
444.503 179.974 438.597 179.974 438.597 206.299 T
444.503 203.116 444.503 179.974 438.597 206.299 T
450.409 179.974 444.503 179.974 444.503 203.116 T
450.409 200.178 450.409 179.974 444.503 203.116 T
456.315 179.974 450.409 179.974 450.409 200.178 T
456.315 197.601 456.315 179.974 450.409 200.178 T
462.221 179.974 456.315 179.974 456.315 197.601 T
462.221 194.924 462.221 179.974 456.315 197.601 T
468.127 179.974 462.221 179.974 462.221 194.924 T
468.127 192.685 468.127 179.974 462.221 194.924 T
474.033 179.974 468.127 179.974 468.127 192.685 T
474.033 189.747 474.033 179.974 468.127 192.685 T
479.939 179.974 474.033 179.974 474.033 189.747 T
479.939 187.882 479.939 179.974 474.033 189.747 T
485.844 179.974 479.939 179.974 479.939 187.882 T
485.844 187.016 485.844 179.974 479.939 187.882 T
491.75 179.974 485.844 179.974 485.844 187.016 T
491.75 185.897 491.75 179.974 485.844 187.016 T
497.656 179.974 491.75 179.974 491.75 185.897 T
497.656 184.745 497.656 179.974 491.75 185.897 T
503.562 179.974 497.656 179.974 497.656 184.745 T
503.562 183.74 503.562 179.974 497.656 184.745 T
509.468 179.974 503.562 179.974 503.562 183.74 T
509.468 182.61 509.468 179.974 503.562 183.74 T
515.374 179.974 509.468 179.974 509.468 182.61 T
515.374 180.826 515.374 179.974 509.468 182.61 T
521.28 179.974 515.374 179.974 515.374 180.826 T
0 0 0 C
521.28 179.974 LS
515.374 180.826 L
509.468 182.61 L
503.562 183.74 L
497.656 184.745 L
491.75 185.897 L
485.844 187.016 L
479.939 187.882 L
474.033 189.747 L
468.127 192.685 L
462.221 194.924 L
456.315 197.601 L
450.409 200.178 L
444.503 203.116 L
438.597 206.299 L
432.691 208.283 L
426.785 211.299 L
420.879 213.422 L
414.973 212.025 L
409.067 198.038 L
409.067 179.974 L
414.973 179.974 L
420.879 179.974 L
426.785 179.974 L
432.691 179.974 L
438.597 179.974 L
444.503 179.974 L
450.409 179.974 L
456.315 179.974 L
462.221 179.974 L
468.127 179.974 L
474.033 179.974 L
479.939 179.974 L
485.844 179.974 L
491.75 179.974 L
497.656 179.974 L
503.562 179.974 L
509.468 179.974 L
515.374 179.974 L
521.28 179.974 LE
3 W
1 LJ
409.067 210.782 LS
414.973 230.363 L
420.879 234.834 L
426.785 233.6 L
432.691 230.207 L
438.597 226.138 L
444.503 222.034 L
450.409 218.163 L
456.315 214.621 L
462.221 211.427 L
468.127 208.568 L
474.033 206.014 L
479.939 203.733 L
485.844 201.695 L
491.75 199.87 L
497.656 198.232 L
503.562 196.758 L
509.468 195.428 L
515.374 194.225 L
521.28 193.133 LE
grestore
gsave
1.0 1.0 scale
newpath 0 0 moveto 576 0 lineto 576 432 lineto 0 432 lineto
closepath clip
1 1 1 C
74.88 120.933 187.093 47.52 74.88 47.52 T
74.88 120.933 187.093 120.933 187.093 47.52 T
0.5 W
0.15 0.15 0.15 C
98.5037 47.52 LS
98.5037 48.6485 LE
98.5037 120.933 LS
98.5037 119.805 LE
128.033 47.52 LS
128.033 48.6485 LE
128.033 120.933 LS
128.033 119.805 LE
157.563 47.52 LS
157.563 48.6485 LE
157.563 120.933 LS
157.563 119.805 LE
187.093 47.52 LS
187.093 48.6485 LE
187.093 120.933 LS
187.093 119.805 LE
gsave
0.14902 0.14902 0.14902 C
(5) [10] 0 95.5037 31.9776 10 /Helvetica SRX
grestore

gsave
0.14902 0.14902 0.14902 C
(10) [6 10] 0 122.033 31.9776 10 /Helvetica SRX
grestore

gsave
0.14902 0.14902 0.14902 C
(15) [6 10] 0 151.563 31.9776 10 /Helvetica SRX
grestore

gsave
0.14902 0.14902 0.14902 C
(20) [6 10] 0 181.093 31.9776 10 /Helvetica SRX
grestore

74.88 60.6666 LS
76.0043 60.6666 LE
187.093 60.6666 LS
185.968 60.6666 LE
74.88 81.4675 LS
76.0043 81.4675 LE
187.093 81.4675 LS
185.968 81.4675 LE
74.88 102.268 LS
76.0043 102.268 LE
187.093 102.268 LS
185.968 102.268 LE
gsave
0.14902 0.14902 0.14902 C
(0) [10] 0 63.8705 56.6667 10 /Helvetica SRX
grestore

gsave
0.14902 0.14902 0.14902 C
(0.0005) [6 3 6 6 6 10] 0 36.8705 77.4675 10 /Helvetica SRX
grestore

gsave
0.14902 0.14902 0.14902 C
(0.001) [6 3 6 6 10] 0 42.8705 98.2684 10 /Helvetica SRX
grestore

2 LC
[16 0] 0 setdash
74.88 47.52 LS
187.093 47.52 LE
74.88 120.933 LS
187.093 120.933 LE
74.88 47.52 LS
74.88 120.933 LE
187.093 47.52 LS
187.093 120.933 LE
gsave
0 0 0 C
(tb_y_hat) [4 7 6 6 6 7 6 10] 0 107.986 133.933 11 /Helvetica-Bold SRX
grestore

0.9 0.9 0.9 C
74.88 47.52 74.88 120.933 80.7859 47.52 T
80.7859 106.905 80.7859 47.52 74.88 120.933 T
86.6918 47.52 80.7859 47.52 80.7859 106.905 T
86.6918 96.3651 86.6918 47.52 80.7859 106.905 T
92.5978 47.52 86.6918 47.52 86.6918 96.3651 T
92.5978 90.4705 92.5978 47.52 86.6918 96.3651 T
98.5037 47.52 92.5978 47.52 92.5978 90.4705 T
98.5037 86.6291 98.5037 47.52 92.5978 90.4705 T
104.41 47.52 98.5037 47.52 98.5037 86.6291 T
104.41 84.2727 104.41 47.52 98.5037 86.6291 T
110.316 47.52 104.41 47.52 104.41 84.2727 T
110.316 83.4678 110.316 47.52 104.41 84.2727 T
116.221 47.52 110.316 47.52 110.316 83.4678 T
116.221 81.4541 116.221 47.52 110.316 83.4678 T
122.127 47.52 116.221 47.52 116.221 81.4541 T
122.127 80.8864 122.127 47.52 116.221 81.4541 T
128.033 47.52 122.127 47.52 122.127 80.8864 T
128.033 79.4184 128.033 47.52 122.127 80.8864 T
133.939 47.52 128.033 47.52 128.033 79.4184 T
133.939 77.6753 133.939 47.52 128.033 79.4184 T
139.845 47.52 133.939 47.52 133.939 77.6753 T
139.845 75.7279 139.845 47.52 133.939 77.6753 T
145.751 47.52 139.845 47.52 139.845 75.7279 T
145.751 74.0163 145.751 47.52 139.845 75.7279 T
151.657 47.52 145.751 47.52 145.751 74.0163 T
151.657 71.7889 151.657 47.52 145.751 74.0163 T
157.563 47.52 151.657 47.52 151.657 71.7889 T
157.563 69.7892 157.563 47.52 151.657 71.7889 T
163.469 47.52 157.563 47.52 157.563 69.7892 T
163.469 67.8901 163.469 47.52 157.563 69.7892 T
169.375 47.52 163.469 47.52 163.469 67.8901 T
169.375 65.6647 169.375 47.52 163.469 67.8901 T
175.281 47.52 169.375 47.52 169.375 65.6647 T
175.281 63.9647 175.281 47.52 169.375 65.6647 T
181.187 47.52 175.281 47.52 175.281 63.9647 T
181.187 62.274 181.187 47.52 175.281 63.9647 T
187.093 47.52 181.187 47.52 181.187 62.274 T
187.093 60.3031 187.093 47.52 181.187 62.274 T
0 LC
[] 0 setdash
0 0 0 C
187.093 60.3031 LS
181.187 62.274 L
175.281 63.9647 L
169.375 65.6647 L
163.469 67.8901 L
157.563 69.7892 L
151.657 71.7889 L
145.751 74.0163 L
139.845 75.7279 L
133.939 77.6753 L
128.033 79.4184 L
122.127 80.8864 L
116.221 81.4541 L
110.316 83.4678 L
104.41 84.2727 L
98.5037 86.6291 L
92.5978 90.4705 L
86.6918 96.3651 L
80.7859 106.905 L
74.88 120.933 L
74.88 47.52 L
80.7859 47.52 L
86.6918 47.52 L
92.5978 47.52 L
98.5037 47.52 L
104.41 47.52 L
110.316 47.52 L
116.221 47.52 L
122.127 47.52 L
128.033 47.52 L
133.939 47.52 L
139.845 47.52 L
145.751 47.52 L
151.657 47.52 L
157.563 47.52 L
163.469 47.52 L
169.375 47.52 L
175.281 47.52 L
181.187 47.52 L
187.093 47.52 L
187.093 60.3031 LE
1 1 1 C
74.88 47.52 74.88 66.0583 80.7859 47.52 T
80.7859 64.3773 80.7859 47.52 74.88 66.0583 T
86.6918 47.52 80.7859 47.52 80.7859 64.3773 T
86.6918 62.0325 86.6918 47.52 80.7859 64.3773 T
92.5978 47.52 86.6918 47.52 86.6918 62.0325 T
92.5978 61.8801 92.5978 47.52 86.6918 62.0325 T
98.5037 47.52 92.5978 47.52 92.5978 61.8801 T
98.5037 62.0749 98.5037 47.52 92.5978 61.8801 T
104.41 47.52 98.5037 47.52 98.5037 62.0749 T
104.41 62.1048 104.41 47.52 98.5037 62.0749 T
110.316 47.52 104.41 47.52 104.41 62.1048 T
110.316 61.7364 110.316 47.52 104.41 62.1048 T
116.221 47.52 110.316 47.52 110.316 61.7364 T
116.221 59.2484 116.221 47.52 110.316 61.7364 T
122.127 47.52 116.221 47.52 116.221 59.2484 T
122.127 58.7084 122.127 47.52 116.221 59.2484 T
128.033 47.52 122.127 47.52 122.127 58.7084 T
128.033 57.4932 128.033 47.52 122.127 58.7084 T
133.939 47.52 128.033 47.52 128.033 57.4932 T
133.939 56.2907 133.939 47.52 128.033 57.4932 T
139.845 47.52 133.939 47.52 133.939 56.2907 T
139.845 54.8301 139.845 47.52 133.939 56.2907 T
145.751 47.52 139.845 47.52 139.845 54.8301 T
145.751 53.8374 145.751 47.52 139.845 54.8301 T
151.657 47.52 145.751 47.52 145.751 53.8374 T
151.657 52.6559 151.657 47.52 145.751 53.8374 T
157.563 47.52 151.657 47.52 151.657 52.6559 T
157.563 51.566 157.563 47.52 151.657 52.6559 T
163.469 47.52 157.563 47.52 157.563 51.566 T
163.469 50.7447 163.469 47.52 157.563 51.566 T
169.375 47.52 163.469 47.52 163.469 50.7447 T
169.375 49.6696 169.375 47.52 163.469 50.7447 T
175.281 47.52 169.375 47.52 169.375 49.6696 T
175.281 48.9413 175.281 47.52 169.375 49.6696 T
181.187 47.52 175.281 47.52 175.281 48.9413 T
181.187 48.451 181.187 47.52 175.281 48.9413 T
187.093 47.52 181.187 47.52 181.187 48.451 T
0 0 0 C
187.093 47.52 LS
181.187 48.451 L
175.281 48.9413 L
169.375 49.6696 L
163.469 50.7447 L
157.563 51.566 L
151.657 52.6559 L
145.751 53.8374 L
139.845 54.8301 L
133.939 56.2907 L
128.033 57.4932 L
122.127 58.7084 L
116.221 59.2484 L
110.316 61.7364 L
104.41 62.1048 L
98.5037 62.0749 L
92.5978 61.8801 L
86.6918 62.0325 L
80.7859 64.3773 L
74.88 66.0583 L
74.88 47.52 L
80.7859 47.52 L
86.6918 47.52 L
92.5978 47.52 L
98.5037 47.52 L
104.41 47.52 L
110.316 47.52 L
116.221 47.52 L
122.127 47.52 L
128.033 47.52 L
133.939 47.52 L
139.845 47.52 L
145.751 47.52 L
151.657 47.52 L
157.563 47.52 L
163.469 47.52 L
169.375 47.52 L
175.281 47.52 L
181.187 47.52 L
187.093 47.52 LE
3 W
1 LJ
74.88 92.9654 LS
80.7859 84.8804 L
86.6918 79.9245 L
92.5978 76.9093 L
98.5037 74.962 L
104.41 73.4769 L
110.316 72.1235 L
116.221 70.7516 L
122.127 69.3101 L
128.033 67.7972 L
133.939 66.2321 L
139.845 64.6413 L
145.751 63.051 L
151.657 61.4847 L
157.563 59.9616 L
163.469 58.4967 L
169.375 57.1012 L
175.281 55.7827 L
181.187 54.5463 L
187.093 53.3945 LE
grestore
gsave
1.0 1.0 scale
newpath 0 0 moveto 576 0 lineto 576 432 lineto 0 432 lineto
closepath clip
1 1 1 C
241.974 120.933 354.186 47.52 241.974 47.52 T
241.974 120.933 354.186 120.933 354.186 47.52 T
0.5 W
0.15 0.15 0.15 C
265.597 47.52 LS
265.597 48.6485 LE
265.597 120.933 LS
265.597 119.805 LE
295.127 47.52 LS
295.127 48.6485 LE
295.127 120.933 LS
295.127 119.805 LE
324.657 47.52 LS
324.657 48.6485 LE
324.657 120.933 LS
324.657 119.805 LE
354.186 47.52 LS
354.186 48.6485 LE
354.186 120.933 LS
354.186 119.805 LE
gsave
0.14902 0.14902 0.14902 C
(5) [10] 0 262.597 31.9776 10 /Helvetica SRX
grestore

gsave
0.14902 0.14902 0.14902 C
(10) [6 10] 0 289.127 31.9776 10 /Helvetica SRX
grestore

gsave
0.14902 0.14902 0.14902 C
(15) [6 10] 0 318.657 31.9776 10 /Helvetica SRX
grestore

gsave
0.14902 0.14902 0.14902 C
(20) [6 10] 0 348.186 31.9776 10 /Helvetica SRX
grestore

241.974 49.7061 LS
243.098 49.7061 LE
354.186 49.7061 LS
353.062 49.7061 LE
241.974 68.0818 LS
243.098 68.0818 LE
354.186 68.0818 LS
353.062 68.0818 LE
241.974 86.4575 LS
243.098 86.4575 LE
354.186 86.4575 LS
353.062 86.4575 LE
241.974 104.833 LS
243.098 104.833 LE
354.186 104.833 LS
353.062 104.833 LE
gsave
0.14902 0.14902 0.14902 C
(-0.04) [3 6 3 6 10] 0 212.964 45.7062 10 /Helvetica SRX
grestore

gsave
0.14902 0.14902 0.14902 C
(-0.03) [3 6 3 6 10] 0 212.964 64.0818 10 /Helvetica SRX
grestore

gsave
0.14902 0.14902 0.14902 C
(-0.02) [3 6 3 6 10] 0 212.964 82.4575 10 /Helvetica SRX
grestore

gsave
0.14902 0.14902 0.14902 C
(-0.01) [3 6 3 6 10] 0 212.964 100.833 10 /Helvetica SRX
grestore

2 LC
[16 0] 0 setdash
241.974 47.52 LS
354.186 47.52 LE
241.974 120.933 LS
354.186 120.933 LE
241.974 47.52 LS
241.974 120.933 LE
354.186 47.52 LS
354.186 120.933 LE
gsave
0 0 0 C
(D_hat) [8 6 7 6 10] 0 282.58 132.933 11 /Helvetica-Bold SRX
grestore

0.9 0.9 0.9 C
241.974 47.52 241.974 120.933 247.88 47.52 T
247.88 119.145 247.88 47.52 241.974 120.933 T
253.786 47.52 247.88 47.52 247.88 119.145 T
253.786 117.12 253.786 47.52 247.88 119.145 T
259.691 47.52 253.786 47.52 253.786 117.12 T
259.691 115.673 259.691 47.52 253.786 117.12 T
265.597 47.52 259.691 47.52 259.691 115.673 T
265.597 113.988 265.597 47.52 259.691 115.673 T
271.503 47.52 265.597 47.52 265.597 113.988 T
271.503 111.758 271.503 47.52 265.597 113.988 T
277.409 47.52 271.503 47.52 271.503 111.758 T
277.409 110.471 277.409 47.52 271.503 111.758 T
283.315 47.52 277.409 47.52 277.409 110.471 T
283.315 109.626 283.315 47.52 277.409 110.471 T
289.221 47.52 283.315 47.52 283.315 109.626 T
289.221 108.178 289.221 47.52 283.315 109.626 T
295.127 47.52 289.221 47.52 289.221 108.178 T
295.127 106.949 295.127 47.52 289.221 108.178 T
301.033 47.52 295.127 47.52 295.127 106.949 T
301.033 103.519 301.033 47.52 295.127 106.949 T
306.939 47.52 301.033 47.52 301.033 103.519 T
306.939 103.83 306.939 47.52 301.033 103.519 T
312.845 47.52 306.939 47.52 306.939 103.83 T
312.845 102.491 312.845 47.52 306.939 103.83 T
318.751 47.52 312.845 47.52 312.845 102.491 T
318.751 101.454 318.751 47.52 312.845 102.491 T
324.657 47.52 318.751 47.52 318.751 101.454 T
324.657 100.511 324.657 47.52 318.751 101.454 T
330.563 47.52 324.657 47.52 324.657 100.511 T
330.563 97.9372 330.563 47.52 324.657 100.511 T
336.469 47.52 330.563 47.52 330.563 97.9372 T
336.469 96.7435 336.469 47.52 330.563 97.9372 T
342.374 47.52 336.469 47.52 336.469 96.7435 T
342.374 96.1445 342.374 47.52 336.469 96.7435 T
348.28 47.52 342.374 47.52 342.374 96.1445 T
348.28 96.1435 348.28 47.52 342.374 96.1445 T
354.186 47.52 348.28 47.52 348.28 96.1435 T
354.186 95.4495 354.186 47.52 348.28 96.1435 T
0 LC
[] 0 setdash
0 0 0 C
354.186 95.4495 LS
348.28 96.1435 L
342.374 96.1445 L
336.469 96.7435 L
330.563 97.9372 L
324.657 100.511 L
318.751 101.454 L
312.845 102.491 L
306.939 103.83 L
301.033 103.519 L
295.127 106.949 L
289.221 108.178 L
283.315 109.626 L
277.409 110.471 L
271.503 111.758 L
265.597 113.988 L
259.691 115.673 L
253.786 117.12 L
247.88 119.145 L
241.974 120.933 L
241.974 47.52 L
247.88 47.52 L
253.786 47.52 L
259.691 47.52 L
265.597 47.52 L
271.503 47.52 L
277.409 47.52 L
283.315 47.52 L
289.221 47.52 L
295.127 47.52 L
301.033 47.52 L
306.939 47.52 L
312.845 47.52 L
318.751 47.52 L
324.657 47.52 L
330.563 47.52 L
336.469 47.52 L
342.374 47.52 L
348.28 47.52 L
354.186 47.52 L
354.186 95.4495 LE
1 1 1 C
241.974 47.52 241.974 114.353 247.88 47.52 T
247.88 107.503 247.88 47.52 241.974 114.353 T
253.786 47.52 247.88 47.52 247.88 107.503 T
253.786 101.111 253.786 47.52 247.88 107.503 T
259.691 47.52 253.786 47.52 253.786 101.111 T
259.691 96.1117 259.691 47.52 253.786 101.111 T
265.597 47.52 259.691 47.52 259.691 96.1117 T
265.597 91.2429 265.597 47.52 259.691 96.1117 T
271.503 47.52 265.597 47.52 265.597 91.2429 T
271.503 86.1228 271.503 47.52 265.597 91.2429 T
277.409 47.52 271.503 47.52 271.503 86.1228 T
277.409 82.3829 277.409 47.52 271.503 86.1228 T
283.315 47.52 277.409 47.52 277.409 82.3829 T
283.315 79.1299 283.315 47.52 277.409 82.3829 T
289.221 47.52 283.315 47.52 283.315 79.1299 T
289.221 75.6362 289.221 47.52 283.315 79.1299 T
295.127 47.52 289.221 47.52 289.221 75.6362 T
295.127 72.2772 295.127 47.52 289.221 75.6362 T
301.033 47.52 295.127 47.52 295.127 72.2772 T
301.033 67.2139 301.033 47.52 295.127 72.2772 T
306.939 47.52 301.033 47.52 301.033 67.2139 T
306.939 65.795 306.939 47.52 301.033 67.2139 T
312.845 47.52 306.939 47.52 306.939 65.795 T
312.845 63.7144 312.845 47.52 306.939 65.795 T
318.751 47.52 312.845 47.52 312.845 63.7144 T
318.751 61.3923 318.751 47.52 312.845 63.7144 T
324.657 47.52 318.751 47.52 318.751 61.3923 T
324.657 59.2078 324.657 47.52 318.751 61.3923 T
330.563 47.52 324.657 47.52 324.657 59.2078 T
330.563 55.3242 330.563 47.52 324.657 59.2078 T
336.469 47.52 330.563 47.52 330.563 55.3242 T
336.469 53.0518 336.469 47.52 330.563 55.3242 T
342.374 47.52 336.469 47.52 336.469 53.0518 T
342.374 51.0967 342.374 47.52 336.469 53.0518 T
348.28 47.52 342.374 47.52 342.374 51.0967 T
348.28 49.3665 348.28 47.52 342.374 51.0967 T
354.186 47.52 348.28 47.52 348.28 49.3665 T
0 0 0 C
354.186 47.52 LS
348.28 49.3665 L
342.374 51.0967 L
336.469 53.0518 L
330.563 55.3242 L
324.657 59.2078 L
318.751 61.3923 L
312.845 63.7144 L
306.939 65.795 L
301.033 67.2139 L
295.127 72.2772 L
289.221 75.6362 L
283.315 79.1299 L
277.409 82.3829 L
271.503 86.1228 L
265.597 91.2429 L
259.691 96.1117 L
253.786 101.111 L
247.88 107.503 L
241.974 114.353 L
241.974 47.52 L
247.88 47.52 L
253.786 47.52 L
259.691 47.52 L
265.597 47.52 L
271.503 47.52 L
277.409 47.52 L
283.315 47.52 L
289.221 47.52 L
295.127 47.52 L
301.033 47.52 L
306.939 47.52 L
312.845 47.52 L
318.751 47.52 L
324.657 47.52 L
330.563 47.52 L
336.469 47.52 L
342.374 47.52 L
348.28 47.52 L
354.186 47.52 LE
3 W
1 LJ
241.974 117.866 LS
247.88 113.344 L
253.786 109.363 L
259.691 105.728 L
265.597 102.326 L
271.503 99.1019 L
277.409 96.04 L
283.315 93.1396 L
289.221 90.4064 L
295.127 87.8469 L
301.033 85.4659 L
306.939 83.2657 L
312.845 81.2462 L
318.751 79.4046 L
324.657 77.7366 L
330.563 76.2361 L
336.469 74.8959 L
342.374 73.708 L
348.28 72.664 L
354.186 71.7551 LE
grestore
gsave
1.0 1.0 scale
newpath 0 0 moveto 576 0 lineto 576 432 lineto 0 432 lineto
closepath clip
1 1 1 C
409.067 120.933 521.28 47.52 409.067 47.52 T
409.067 120.933 521.28 120.933 521.28 47.52 T
0.5 W
0.15 0.15 0.15 C
432.691 47.52 LS
432.691 48.6485 LE
432.691 120.933 LS
432.691 119.805 LE
462.221 47.52 LS
462.221 48.6485 LE
462.221 120.933 LS
462.221 119.805 LE
491.75 47.52 LS
491.75 48.6485 LE
491.75 120.933 LS
491.75 119.805 LE
521.28 47.52 LS
521.28 48.6485 LE
521.28 120.933 LS
521.28 119.805 LE
gsave
0.14902 0.14902 0.14902 C
(5) [10] 0 429.691 31.9776 10 /Helvetica SRX
grestore

gsave
0.14902 0.14902 0.14902 C
(10) [6 10] 0 456.221 31.9776 10 /Helvetica SRX
grestore

gsave
0.14902 0.14902 0.14902 C
(15) [6 10] 0 485.75 31.9776 10 /Helvetica SRX
grestore

gsave
0.14902 0.14902 0.14902 C
(20) [6 10] 0 515.28 31.9776 10 /Helvetica SRX
grestore

409.067 58.4505 LS
410.192 58.4505 LE
521.28 58.4505 LS
520.156 58.4505 LE
409.067 69.8765 LS
410.192 69.8765 LE
521.28 69.8765 LS
520.156 69.8765 LE
409.067 81.3026 LS
410.192 81.3026 LE
521.28 81.3026 LS
520.156 81.3026 LE
409.067 92.7287 LS
410.192 92.7287 LE
521.28 92.7287 LS
520.156 92.7287 LE
409.067 104.155 LS
410.192 104.155 LE
521.28 104.155 LS
520.156 104.155 LE
409.067 115.581 LS
410.192 115.581 LE
521.28 115.581 LS
520.156 115.581 LE
gsave
0.14902 0.14902 0.14902 C
(0.004) [6 3 6 6 10] 0 377.058 54.4505 10 /Helvetica SRX
grestore

gsave
0.14902 0.14902 0.14902 C
(0.006) [6 3 6 6 10] 0 377.058 65.8766 10 /Helvetica SRX
grestore

gsave
0.14902 0.14902 0.14902 C
(0.008) [6 3 6 6 10] 0 377.058 77.3026 10 /Helvetica SRX
grestore

gsave
0.14902 0.14902 0.14902 C
(0.01) [6 3 6 10] 0 383.058 88.7287 10 /Helvetica SRX
grestore

gsave
0.14902 0.14902 0.14902 C
(0.012) [6 3 6 6 10] 0 377.058 100.155 10 /Helvetica SRX
grestore

gsave
0.14902 0.14902 0.14902 C
(0.014) [6 3 6 6 10] 0 377.058 111.581 10 /Helvetica SRX
grestore

2 LC
[16 0] 0 setdash
409.067 47.52 LS
521.28 47.52 LE
409.067 120.933 LS
521.28 120.933 LE
409.067 47.52 LS
409.067 120.933 LE
521.28 47.52 LS
521.28 120.933 LE
gsave
0 0 0 C
(reer_hat) [4 6 6 4 6 7 6 10] 0 443.674 132.933 11 /Helvetica-Bold SRX
grestore

0.9 0.9 0.9 C
409.067 47.52 409.067 114.282 414.973 47.52 T
414.973 120.933 414.973 47.52 409.067 114.282 T
420.879 47.52 414.973 47.52 414.973 120.933 T
420.879 115.34 420.879 47.52 414.973 120.933 T
426.785 47.52 420.879 47.52 420.879 115.34 T
426.785 108.23 426.785 47.52 420.879 115.34 T
432.691 47.52 426.785 47.52 426.785 108.23 T
432.691 103.393 432.691 47.52 426.785 108.23 T
438.597 47.52 432.691 47.52 432.691 103.393 T
438.597 97.3411 438.597 47.52 432.691 103.393 T
444.503 47.52 438.597 47.52 438.597 97.3411 T
444.503 92.4623 444.503 47.52 438.597 97.3411 T
450.409 47.52 444.503 47.52 444.503 92.4623 T
450.409 87.8013 450.409 47.52 444.503 92.4623 T
456.315 47.52 450.409 47.52 450.409 87.8013 T
456.315 83.3907 456.315 47.52 450.409 87.8013 T
462.221 47.52 456.315 47.52 456.315 83.3907 T
462.221 79.6324 462.221 47.52 456.315 83.3907 T
468.127 47.52 462.221 47.52 462.221 79.6324 T
468.127 76.1576 468.127 47.52 462.221 79.6324 T
474.033 47.52 468.127 47.52 468.127 76.1576 T
474.033 73.0472 474.033 47.52 468.127 76.1576 T
479.939 47.52 474.033 47.52 474.033 73.0472 T
479.939 70.3348 479.939 47.52 474.033 73.0472 T
485.844 47.52 479.939 47.52 479.939 70.3348 T
485.844 67.6783 485.844 47.52 479.939 70.3348 T
491.75 47.52 485.844 47.52 485.844 67.6783 T
491.75 65.5754 491.75 47.52 485.844 67.6783 T
497.656 47.52 491.75 47.52 491.75 65.5754 T
497.656 63.2933 497.656 47.52 491.75 65.5754 T
503.562 47.52 497.656 47.52 497.656 63.2933 T
503.562 61.4257 503.562 47.52 497.656 63.2933 T
509.468 47.52 503.562 47.52 503.562 61.4257 T
509.468 59.692 509.468 47.52 503.562 61.4257 T
515.374 47.52 509.468 47.52 509.468 59.692 T
515.374 58.1074 515.374 47.52 509.468 59.692 T
521.28 47.52 515.374 47.52 515.374 58.1074 T
521.28 56.9632 521.28 47.52 515.374 58.1074 T
0 LC
[] 0 setdash
0 0 0 C
521.28 56.9632 LS
515.374 58.1074 L
509.468 59.692 L
503.562 61.4257 L
497.656 63.2933 L
491.75 65.5754 L
485.844 67.6783 L
479.939 70.3348 L
474.033 73.0472 L
468.127 76.1576 L
462.221 79.6324 L
456.315 83.3907 L
450.409 87.8013 L
444.503 92.4623 L
438.597 97.3411 L
432.691 103.393 L
426.785 108.23 L
420.879 115.34 L
414.973 120.933 L
409.067 114.282 L
409.067 47.52 L
414.973 47.52 L
420.879 47.52 L
426.785 47.52 L
432.691 47.52 L
438.597 47.52 L
444.503 47.52 L
450.409 47.52 L
456.315 47.52 L
462.221 47.52 L
468.127 47.52 L
474.033 47.52 L
479.939 47.52 L
485.844 47.52 L
491.75 47.52 L
497.656 47.52 L
503.562 47.52 L
509.468 47.52 L
515.374 47.52 L
521.28 47.52 L
521.28 56.9632 LE
1 1 1 C
409.067 47.52 409.067 90.3055 414.973 47.52 T
414.973 93.5197 414.973 47.52 409.067 90.3055 T
420.879 47.52 414.973 47.52 414.973 93.5197 T
420.879 86.613 420.879 47.52 414.973 93.5197 T
426.785 47.52 420.879 47.52 420.879 86.613 T
426.785 80.2742 426.785 47.52 420.879 86.613 T
432.691 47.52 426.785 47.52 426.785 80.2742 T
432.691 76.6327 432.691 47.52 426.785 80.2742 T
438.597 47.52 432.691 47.52 432.691 76.6327 T
438.597 72.4898 438.597 47.52 432.691 76.6327 T
444.503 47.52 438.597 47.52 438.597 72.4898 T
444.503 69.3392 444.503 47.52 438.597 72.4898 T
450.409 47.52 444.503 47.52 444.503 69.3392 T
450.409 66.3196 450.409 47.52 444.503 69.3392 T
456.315 47.52 450.409 47.52 450.409 66.3196 T
456.315 63.498 456.315 47.52 450.409 66.3196 T
462.221 47.52 456.315 47.52 456.315 63.498 T
462.221 61.16 462.221 47.52 456.315 63.498 T
468.127 47.52 462.221 47.52 462.221 61.16 T
468.127 59.0016 468.127 47.52 462.221 61.16 T
474.033 47.52 468.127 47.52 468.127 59.0016 T
474.033 57.1756 474.033 47.52 468.127 59.0016 T
479.939 47.52 474.033 47.52 474.033 57.1756 T
479.939 55.4796 479.939 47.52 474.033 57.1756 T
485.844 47.52 479.939 47.52 479.939 55.4796 T
485.844 53.8487 485.844 47.52 479.939 55.4796 T
491.75 47.52 485.844 47.52 485.844 53.8487 T
491.75 52.6292 491.75 47.52 485.844 53.8487 T
497.656 47.52 491.75 47.52 491.75 52.6292 T
497.656 51.2443 497.656 47.52 491.75 52.6292 T
503.562 47.52 497.656 47.52 497.656 51.2443 T
503.562 50.1817 503.562 47.52 497.656 51.2443 T
509.468 47.52 503.562 47.52 503.562 50.1817 T
509.468 49.1191 509.468 47.52 503.562 50.1817 T
515.374 47.52 509.468 47.52 509.468 49.1191 T
515.374 48.1084 515.374 47.52 509.468 49.1191 T
521.28 47.52 515.374 47.52 515.374 48.1084 T
0 0 0 C
521.28 47.52 LS
515.374 48.1084 L
509.468 49.1191 L
503.562 50.1817 L
497.656 51.2443 L
491.75 52.6292 L
485.844 53.8487 L
479.939 55.4796 L
474.033 57.1756 L
468.127 59.0016 L
462.221 61.16 L
456.315 63.498 L
450.409 66.3196 L
444.503 69.3392 L
438.597 72.4898 L
432.691 76.6327 L
426.785 80.2742 L
420.879 86.613 L
414.973 93.5197 L
409.067 90.3055 L
409.067 47.52 L
414.973 47.52 L
420.879 47.52 L
426.785 47.52 L
432.691 47.52 L
438.597 47.52 L
444.503 47.52 L
450.409 47.52 L
456.315 47.52 L
462.221 47.52 L
468.127 47.52 L
474.033 47.52 L
479.939 47.52 L
485.844 47.52 L
491.75 47.52 L
497.656 47.52 L
503.562 47.52 L
509.468 47.52 L
515.374 47.52 L
521.28 47.52 LE
3 W
1 LJ
409.067 103.168 LS
414.973 106.573 L
420.879 101.463 L
426.785 95.4749 L
432.691 89.9539 L
438.597 85.0706 L
444.503 80.7667 L
450.409 76.9548 L
456.315 73.5584 L
462.221 70.5165 L
468.127 67.7807 L
474.033 65.312 L
479.939 63.0785 L
485.844 61.0533 L
491.75 59.2137 L
497.656 57.54 L
503.562 56.0151 L
509.468 54.6241 L
515.374 53.3537 L
521.28 52.1923 LE
grestore
grestore
showpage
cleartomark
%%PageTrailer
%%Trailer
end
%%EOF
