%!PS-Adobe-3.0 EPSF-3.0
%%Title: gl2ps_renderer figure
%%Creator: GL2PS 1.4.2, (C) 1999-2020 C. Geuzaine
%%For: Octave
%%CreationDate: Wed Oct  7 07:02:55 2020
%%LanguageLevel: 3
%%DocumentData: Clean7Bit
%%Pages: 1
%%BoundingBox: 0 0 576 432
%%EndComments
%%BeginProlog
/gl2psdict 64 dict def gl2psdict begin
/tryPS3shading false def % set to false to force subdivision
/rThreshold 0.064 def % red component subdivision threshold
/gThreshold 0.034 def % green component subdivision threshold
/bThreshold 0.1 def % blue component subdivision threshold
/BD { bind def } bind def
/C  { setrgbcolor } BD
/G  { 0.082 mul exch 0.6094 mul add exch 0.3086 mul add neg 1.0 add setgray } BD
/W  { setlinewidth } BD
/LC  { setlinecap } BD
/LJ  { setlinejoin } BD
/FC { findfont exch /SH exch def SH scalefont setfont } BD
/SW { dup stringwidth pop } BD
/S  { FC moveto show } BD
/SBC{ FC moveto SW -2 div 0 rmoveto show } BD
/SBR{ FC moveto SW neg 0 rmoveto show } BD
/SCL{ FC moveto 0 SH -2 div rmoveto show } BD
/SCC{ FC moveto SW -2 div SH -2 div rmoveto show } BD
/SCR{ FC moveto SW neg SH -2 div rmoveto show } BD
/STL{ FC moveto 0 SH neg rmoveto show } BD
/STC{ FC moveto SW -2 div SH neg rmoveto show } BD
/STR{ FC moveto SW neg SH neg rmoveto show } BD
/FCT { FC translate 0 0 } BD
/SR  { gsave FCT moveto rotate show grestore } BD
/SRX  { gsave FCT moveto rotate xshow grestore } BD
/SBCR{ gsave FCT moveto rotate SW -2 div 0 rmoveto show grestore } BD
/SBRR{ gsave FCT moveto rotate SW neg 0 rmoveto show grestore } BD
/SCLR{ gsave FCT moveto rotate 0 SH -2 div rmoveto show grestore} BD
/SCCR{ gsave FCT moveto rotate SW -2 div SH -2 div rmoveto show grestore} BD
/SCRR{ gsave FCT moveto rotate SW neg SH -2 div rmoveto show grestore} BD
/STLR{ gsave FCT moveto rotate 0 SH neg rmoveto show grestore } BD
/STCR{ gsave FCT moveto rotate SW -2 div SH neg rmoveto show grestore } BD
/STRR{ gsave FCT moveto rotate SW neg SH neg rmoveto show grestore } BD
/P  { newpath 0.0 360.0 arc closepath fill } BD
/LS { newpath moveto } BD
/L  { lineto } BD
/LE { lineto stroke } BD
/T  { newpath moveto lineto lineto closepath fill } BD
/STshfill {
      /b1 exch def /g1 exch def /r1 exch def /y1 exch def /x1 exch def
      /b2 exch def /g2 exch def /r2 exch def /y2 exch def /x2 exch def
      /b3 exch def /g3 exch def /r3 exch def /y3 exch def /x3 exch def
      gsave << /ShadingType 4 /ColorSpace [/DeviceRGB]
      /DataSource [ 0 x1 y1 r1 g1 b1 0 x2 y2 r2 g2 b2 0 x3 y3 r3 g3 b3 ] >>
      shfill grestore } BD
/Tm { 3 -1 roll 8 -1 roll 13 -1 roll add add 3 div
      3 -1 roll 7 -1 roll 11 -1 roll add add 3 div
      3 -1 roll 6 -1 roll 9 -1 roll add add 3 div C T } BD
/STsplit {
      4 index 15 index add 0.5 mul
      4 index 15 index add 0.5 mul
      4 index 15 index add 0.5 mul
      4 index 15 index add 0.5 mul
      4 index 15 index add 0.5 mul
      5 copy 5 copy 25 15 roll
      9 index 30 index add 0.5 mul
      9 index 30 index add 0.5 mul
      9 index 30 index add 0.5 mul
      9 index 30 index add 0.5 mul
      9 index 30 index add 0.5 mul
      5 copy 5 copy 35 5 roll 25 5 roll 15 5 roll
      4 index 10 index add 0.5 mul
      4 index 10 index add 0.5 mul
      4 index 10 index add 0.5 mul
      4 index 10 index add 0.5 mul
      4 index 10 index add 0.5 mul
      5 copy 5 copy 40 5 roll 25 5 roll 15 5 roll 25 5 roll
      STnoshfill STnoshfill STnoshfill STnoshfill } BD
/STnoshfill {
      2 index 8 index sub abs rThreshold gt
      { STsplit }
      { 1 index 7 index sub abs gThreshold gt
        { STsplit }
        { dup 6 index sub abs bThreshold gt
          { STsplit }
          { 2 index 13 index sub abs rThreshold gt
            { STsplit }
            { 1 index 12 index sub abs gThreshold gt
              { STsplit }
              { dup 11 index sub abs bThreshold gt
                { STsplit }
                { 7 index 13 index sub abs rThreshold gt
                  { STsplit }
                  { 6 index 12 index sub abs gThreshold gt
                    { STsplit }
                    { 5 index 11 index sub abs bThreshold gt
                      { STsplit }
                      { Tm }
                      ifelse }
                    ifelse }
                  ifelse }
                ifelse }
              ifelse }
            ifelse }
          ifelse }
        ifelse }
      ifelse } BD
tryPS3shading
{ /shfill where
  { /ST { STshfill } BD }
  { /ST { STnoshfill } BD }
  ifelse }
{ /ST { STnoshfill } BD }
ifelse
end
%%EndProlog
%%BeginSetup
/DeviceRGB setcolorspace
gl2psdict begin
%%EndSetup
%%Page: 1 1
%%BeginPageSetup
%%EndPageSetup
mark
gsave
1.0 1.0 scale
1 1 1 C
newpath 0 0 moveto 576 0 lineto 576 432 lineto 0 432 lineto
closepath fill
gsave
1.0 1.0 scale
1 1 1 C
newpath 0 0 moveto 576 0 lineto 576 432 lineto 0 432 lineto
closepath fill
newpath 0 0 moveto 576 0 lineto 576 432 lineto 0 432 lineto
closepath clip
1 1 1 C
74.88 386.841 187.093 312.427 74.88 312.427 T
74.88 386.841 187.093 386.841 187.093 312.427 T
0.5 W
0.15 0.15 0.15 C
98.5037 312.427 LS
98.5037 313.556 LE
98.5037 386.841 LS
98.5037 385.712 LE
128.033 312.427 LS
128.033 313.556 LE
128.033 386.841 LS
128.033 385.712 LE
157.563 312.427 LS
157.563 313.556 LE
157.563 386.841 LS
157.563 385.712 LE
187.093 312.427 LS
187.093 313.556 LE
187.093 386.841 LS
187.093 385.712 LE
gsave
0.14902 0.14902 0.14902 C
(5) [10] 0 95.5037 296.886 10 /Helvetica SRX
grestore

gsave
0.14902 0.14902 0.14902 C
(10) [6 10] 0 122.033 296.886 10 /Helvetica SRX
grestore

gsave
0.14902 0.14902 0.14902 C
(15) [6 10] 0 151.563 296.886 10 /Helvetica SRX
grestore

gsave
0.14902 0.14902 0.14902 C
(20) [6 10] 0 181.093 296.886 10 /Helvetica SRX
grestore

74.88 324.204 LS
76.0043 324.204 LE
187.093 324.204 LS
185.968 324.204 LE
74.88 340.987 LS
76.0043 340.987 LE
187.093 340.987 LS
185.968 340.987 LE
74.88 357.77 LS
76.0043 357.77 LE
187.093 357.77 LS
185.968 357.77 LE
74.88 374.552 LS
76.0043 374.552 LE
187.093 374.552 LS
185.968 374.552 LE
gsave
0.14902 0.14902 0.14902 C
(-0.008) [3 6 3 6 6 10] 0 39.8705 320.204 10 /Helvetica SRX
grestore

gsave
0.14902 0.14902 0.14902 C
(-0.006) [3 6 3 6 6 10] 0 39.8705 336.987 10 /Helvetica SRX
grestore

gsave
0.14902 0.14902 0.14902 C
(-0.004) [3 6 3 6 6 10] 0 39.8705 353.77 10 /Helvetica SRX
grestore

gsave
0.14902 0.14902 0.14902 C
(-0.002) [3 6 3 6 6 10] 0 39.8705 370.552 10 /Helvetica SRX
grestore

2 LC
[16 0] 0 setdash
74.88 312.427 LS
187.093 312.427 LE
74.88 386.841 LS
187.093 386.841 LE
74.88 312.427 LS
74.88 386.841 LE
187.093 312.427 LS
187.093 386.841 LE
gsave
0 0 0 C
(Y_T_hat) [7 6 7 6 7 6 10] 0 109.486 398.841 11 /Helvetica-Bold SRX
grestore

0.9 0.9 0.9 C
74.88 312.427 74.88 382.745 80.7859 312.427 T
80.7859 375.544 80.7859 312.427 74.88 382.745 T
86.6918 312.427 80.7859 312.427 80.7859 375.544 T
86.6918 377.964 86.6918 312.427 80.7859 375.544 T
92.5978 312.427 86.6918 312.427 86.6918 377.964 T
92.5978 379.96 92.5978 312.427 86.6918 377.964 T
98.5037 312.427 92.5978 312.427 92.5978 379.96 T
98.5037 381.188 98.5037 312.427 92.5978 379.96 T
104.41 312.427 98.5037 312.427 98.5037 381.188 T
104.41 382.162 104.41 312.427 98.5037 381.188 T
110.316 312.427 104.41 312.427 104.41 382.162 T
110.316 382.94 110.316 312.427 104.41 382.162 T
116.221 312.427 110.316 312.427 110.316 382.94 T
116.221 383.652 116.221 312.427 110.316 382.94 T
122.127 312.427 116.221 312.427 116.221 383.652 T
122.127 384.125 122.127 312.427 116.221 383.652 T
128.033 312.427 122.127 312.427 122.127 384.125 T
128.033 384.565 128.033 312.427 122.127 384.125 T
133.939 312.427 128.033 312.427 128.033 384.565 T
133.939 384.883 133.939 312.427 128.033 384.565 T
139.845 312.427 133.939 312.427 133.939 384.883 T
139.845 385.34 139.845 312.427 133.939 384.883 T
145.751 312.427 139.845 312.427 139.845 385.34 T
145.751 385.573 145.751 312.427 139.845 385.34 T
151.657 312.427 145.751 312.427 145.751 385.573 T
151.657 385.854 151.657 312.427 145.751 385.573 T
157.563 312.427 151.657 312.427 151.657 385.854 T
157.563 386.007 157.563 312.427 151.657 385.854 T
163.469 312.427 157.563 312.427 157.563 386.007 T
163.469 386.258 163.469 312.427 157.563 386.007 T
169.375 312.427 163.469 312.427 163.469 386.258 T
169.375 386.505 169.375 312.427 163.469 386.258 T
175.281 312.427 169.375 312.427 169.375 386.505 T
175.281 386.55 175.281 312.427 169.375 386.505 T
181.187 312.427 175.281 312.427 175.281 386.55 T
181.187 386.707 181.187 312.427 175.281 386.55 T
187.093 312.427 181.187 312.427 181.187 386.707 T
187.093 386.841 187.093 312.427 181.187 386.707 T
0 LC
[] 0 setdash
0 0 0 C
187.093 386.841 LS
181.187 386.707 L
175.281 386.55 L
169.375 386.505 L
163.469 386.258 L
157.563 386.007 L
151.657 385.854 L
145.751 385.573 L
139.845 385.34 L
133.939 384.883 L
128.033 384.565 L
122.127 384.125 L
116.221 383.652 L
110.316 382.94 L
104.41 382.162 L
98.5037 381.188 L
92.5978 379.96 L
86.6918 377.964 L
80.7859 375.544 L
74.88 382.745 L
74.88 312.427 L
80.7859 312.427 L
86.6918 312.427 L
92.5978 312.427 L
98.5037 312.427 L
104.41 312.427 L
110.316 312.427 L
116.221 312.427 L
122.127 312.427 L
128.033 312.427 L
133.939 312.427 L
139.845 312.427 L
145.751 312.427 L
151.657 312.427 L
157.563 312.427 L
163.469 312.427 L
169.375 312.427 L
175.281 312.427 L
181.187 312.427 L
187.093 312.427 L
187.093 386.841 LE
1 1 1 C
74.88 312.427 80.7859 342.489 80.7859 312.427 T
86.6918 312.427 80.7859 312.427 80.7859 342.489 T
86.6918 358.955 86.6918 312.427 80.7859 342.489 T
92.5978 312.427 86.6918 312.427 86.6918 358.955 T
92.5978 366.759 92.5978 312.427 86.6918 358.955 T
98.5037 312.427 92.5978 312.427 92.5978 366.759 T
98.5037 371.083 98.5037 312.427 92.5978 366.759 T
104.41 312.427 98.5037 312.427 98.5037 371.083 T
104.41 374.017 104.41 312.427 98.5037 371.083 T
110.316 312.427 104.41 312.427 104.41 374.017 T
110.316 376.035 110.316 312.427 104.41 374.017 T
116.221 312.427 110.316 312.427 110.316 376.035 T
116.221 377.606 116.221 312.427 110.316 376.035 T
122.127 312.427 116.221 312.427 116.221 377.606 T
122.127 378.687 122.127 312.427 116.221 377.606 T
128.033 312.427 122.127 312.427 122.127 378.687 T
128.033 379.713 128.033 312.427 122.127 378.687 T
133.939 312.427 128.033 312.427 128.033 379.713 T
133.939 380.491 133.939 312.427 128.033 379.713 T
139.845 312.427 133.939 312.427 133.939 380.491 T
139.845 381.351 139.845 312.427 133.939 380.491 T
145.751 312.427 139.845 312.427 139.845 381.351 T
145.751 381.952 145.751 312.427 139.845 381.351 T
151.657 312.427 145.751 312.427 145.751 381.952 T
151.657 382.52 151.657 312.427 145.751 381.952 T
157.563 312.427 151.657 312.427 151.657 382.52 T
157.563 382.899 157.563 312.427 151.657 382.52 T
163.469 312.427 157.563 312.427 157.563 382.899 T
163.469 383.374 163.469 312.427 157.563 382.899 T
169.375 312.427 163.469 312.427 163.469 383.374 T
169.375 383.8 169.375 312.427 163.469 383.374 T
175.281 312.427 169.375 312.427 169.375 383.8 T
175.281 384.025 175.281 312.427 169.375 383.8 T
181.187 312.427 175.281 312.427 175.281 384.025 T
181.187 384.334 181.187 312.427 175.281 384.025 T
187.093 312.427 181.187 312.427 181.187 384.334 T
187.093 384.591 187.093 312.427 181.187 384.334 T
0 0 0 C
187.093 384.591 LS
181.187 384.334 L
175.281 384.025 L
169.375 383.8 L
163.469 383.374 L
157.563 382.899 L
151.657 382.52 L
145.751 381.952 L
139.845 381.351 L
133.939 380.491 L
128.033 379.713 L
122.127 378.687 L
116.221 377.606 L
110.316 376.035 L
104.41 374.017 L
98.5037 371.083 L
92.5978 366.759 L
86.6918 358.955 L
80.7859 342.489 L
74.88 312.427 L
80.7859 312.427 L
86.6918 312.427 L
92.5978 312.427 L
98.5037 312.427 L
104.41 312.427 L
110.316 312.427 L
116.221 312.427 L
122.127 312.427 L
128.033 312.427 L
133.939 312.427 L
139.845 312.427 L
145.751 312.427 L
151.657 312.427 L
157.563 312.427 L
163.469 312.427 L
169.375 312.427 L
175.281 312.427 L
181.187 312.427 L
187.093 312.427 L
187.093 384.591 LE
3 W
1 LJ
74.88 346.079 LS
80.7859 359.155 L
86.6918 368.296 L
92.5978 373.335 L
98.5037 376.304 L
104.41 378.238 L
110.316 379.619 L
116.221 380.676 L
122.127 381.525 L
128.033 382.23 L
133.939 382.828 L
139.845 383.342 L
145.751 383.789 L
151.657 384.179 L
157.563 384.522 L
163.469 384.825 L
169.375 385.094 L
175.281 385.332 L
181.187 385.546 L
187.093 385.737 LE
grestore
gsave
1.0 1.0 scale
newpath 0 0 moveto 576 0 lineto 576 432 lineto 0 432 lineto
closepath clip
1 1 1 C
241.974 386.841 354.186 312.427 241.974 312.427 T
241.974 386.841 354.186 386.841 354.186 312.427 T
0.5 W
0.15 0.15 0.15 C
265.597 312.427 LS
265.597 313.556 LE
265.597 386.841 LS
265.597 385.712 LE
295.127 312.427 LS
295.127 313.556 LE
295.127 386.841 LS
295.127 385.712 LE
324.657 312.427 LS
324.657 313.556 LE
324.657 386.841 LS
324.657 385.712 LE
354.186 312.427 LS
354.186 313.556 LE
354.186 386.841 LS
354.186 385.712 LE
gsave
0.14902 0.14902 0.14902 C
(5) [10] 0 262.597 296.886 10 /Helvetica SRX
grestore

gsave
0.14902 0.14902 0.14902 C
(10) [6 10] 0 289.127 296.886 10 /Helvetica SRX
grestore

gsave
0.14902 0.14902 0.14902 C
(15) [6 10] 0 318.657 296.886 10 /Helvetica SRX
grestore

gsave
0.14902 0.14902 0.14902 C
(20) [6 10] 0 348.186 296.886 10 /Helvetica SRX
grestore

241.974 314.631 LS
243.098 314.631 LE
354.186 314.631 LS
353.062 314.631 LE
241.974 325.628 LS
243.098 325.628 LE
354.186 325.628 LS
353.062 325.628 LE
241.974 336.624 LS
243.098 336.624 LE
354.186 336.624 LS
353.062 336.624 LE
241.974 347.621 LS
243.098 347.621 LE
354.186 347.621 LS
353.062 347.621 LE
241.974 358.618 LS
243.098 358.618 LE
354.186 358.618 LS
353.062 358.618 LE
241.974 369.614 LS
243.098 369.614 LE
354.186 369.614 LS
353.062 369.614 LE
241.974 380.611 LS
243.098 380.611 LE
354.186 380.611 LS
353.062 380.611 LE
gsave
0.14902 0.14902 0.14902 C
(-0.007) [3 6 3 6 6 10] 0 206.964 310.631 10 /Helvetica SRX
grestore

gsave
0.14902 0.14902 0.14902 C
(-0.006) [3 6 3 6 6 10] 0 206.964 321.628 10 /Helvetica SRX
grestore

gsave
0.14902 0.14902 0.14902 C
(-0.005) [3 6 3 6 6 10] 0 206.964 332.624 10 /Helvetica SRX
grestore

gsave
0.14902 0.14902 0.14902 C
(-0.004) [3 6 3 6 6 10] 0 206.964 343.621 10 /Helvetica SRX
grestore

gsave
0.14902 0.14902 0.14902 C
(-0.003) [3 6 3 6 6 10] 0 206.964 354.618 10 /Helvetica SRX
grestore

gsave
0.14902 0.14902 0.14902 C
(-0.002) [3 6 3 6 6 10] 0 206.964 365.614 10 /Helvetica SRX
grestore

gsave
0.14902 0.14902 0.14902 C
(-0.001) [3 6 3 6 6 10] 0 206.964 376.611 10 /Helvetica SRX
grestore

2 LC
[16 0] 0 setdash
241.974 312.427 LS
354.186 312.427 LE
241.974 386.841 LS
354.186 386.841 LE
241.974 312.427 LS
241.974 386.841 LE
354.186 312.427 LS
354.186 386.841 LE
gsave
0 0 0 C
(Y_N_hat) [7 6 8 6 7 6 10] 0 276.08 398.841 11 /Helvetica-Bold SRX
grestore

0.9 0.9 0.9 C
241.974 312.427 241.974 373.278 247.88 312.427 T
247.88 373.72 247.88 312.427 241.974 373.278 T
253.786 312.427 247.88 312.427 247.88 373.72 T
253.786 378.406 253.786 312.427 247.88 373.72 T
259.691 312.427 253.786 312.427 253.786 378.406 T
259.691 381.705 259.691 312.427 253.786 378.406 T
265.597 312.427 259.691 312.427 259.691 381.705 T
265.597 384.042 265.597 312.427 259.691 381.705 T
271.503 312.427 265.597 312.427 265.597 384.042 T
271.503 384.854 271.503 312.427 265.597 384.042 T
277.409 312.427 271.503 312.427 271.503 384.854 T
277.409 385.55 277.409 312.427 271.503 384.854 T
283.315 312.427 277.409 312.427 277.409 385.55 T
283.315 386.016 283.315 312.427 277.409 385.55 T
289.221 312.427 283.315 312.427 283.315 386.016 T
289.221 386.361 289.221 312.427 283.315 386.016 T
295.127 312.427 289.221 312.427 289.221 386.361 T
295.127 386.46 295.127 312.427 289.221 386.361 T
301.033 312.427 295.127 312.427 295.127 386.46 T
301.033 386.514 301.033 312.427 295.127 386.46 T
306.939 312.427 301.033 312.427 301.033 386.514 T
306.939 386.625 306.939 312.427 301.033 386.514 T
312.845 312.427 306.939 312.427 306.939 386.625 T
312.845 386.589 312.845 312.427 306.939 386.625 T
318.751 312.427 312.845 312.427 312.845 386.589 T
318.751 386.621 318.751 312.427 312.845 386.589 T
324.657 312.427 318.751 312.427 318.751 386.621 T
324.657 386.682 324.657 312.427 318.751 386.621 T
330.563 312.427 324.657 312.427 324.657 386.682 T
330.563 386.713 330.563 312.427 324.657 386.682 T
336.469 312.427 330.563 312.427 330.563 386.713 T
336.469 386.756 336.469 312.427 330.563 386.713 T
342.374 312.427 336.469 312.427 336.469 386.756 T
342.374 386.781 342.374 312.427 336.469 386.756 T
348.28 312.427 342.374 312.427 342.374 386.781 T
348.28 386.808 348.28 312.427 342.374 386.781 T
354.186 312.427 348.28 312.427 348.28 386.808 T
354.186 386.841 354.186 312.427 348.28 386.808 T
0 LC
[] 0 setdash
0 0 0 C
354.186 386.841 LS
348.28 386.808 L
342.374 386.781 L
336.469 386.756 L
330.563 386.713 L
324.657 386.682 L
318.751 386.621 L
312.845 386.589 L
306.939 386.625 L
301.033 386.514 L
295.127 386.46 L
289.221 386.361 L
283.315 386.016 L
277.409 385.55 L
271.503 384.854 L
265.597 384.042 L
259.691 381.705 L
253.786 378.406 L
247.88 373.72 L
241.974 373.278 L
241.974 312.427 L
247.88 312.427 L
253.786 312.427 L
259.691 312.427 L
265.597 312.427 L
271.503 312.427 L
277.409 312.427 L
283.315 312.427 L
289.221 312.427 L
295.127 312.427 L
301.033 312.427 L
306.939 312.427 L
312.845 312.427 L
318.751 312.427 L
324.657 312.427 L
330.563 312.427 L
336.469 312.427 L
342.374 312.427 L
348.28 312.427 L
354.186 312.427 L
354.186 386.841 LE
1 1 1 C
241.974 312.427 247.88 335.029 247.88 312.427 T
253.786 312.427 247.88 312.427 247.88 335.029 T
253.786 356.561 253.786 312.427 247.88 335.029 T
259.691 312.427 253.786 312.427 253.786 356.561 T
259.691 368.954 259.691 312.427 253.786 356.561 T
265.597 312.427 259.691 312.427 259.691 368.954 T
265.597 375.643 265.597 312.427 259.691 368.954 T
271.503 312.427 265.597 312.427 265.597 375.643 T
271.503 379.109 271.503 312.427 265.597 375.643 T
277.409 312.427 271.503 312.427 271.503 379.109 T
277.409 381.291 277.409 312.427 271.503 379.109 T
283.315 312.427 277.409 312.427 277.409 381.291 T
283.315 382.488 283.315 312.427 277.409 381.291 T
289.221 312.427 283.315 312.427 283.315 382.488 T
289.221 383.331 289.221 312.427 283.315 382.488 T
295.127 312.427 289.221 312.427 289.221 383.331 T
295.127 383.744 295.127 312.427 289.221 383.331 T
301.033 312.427 295.127 312.427 295.127 383.744 T
301.033 384.002 301.033 312.427 295.127 383.744 T
306.939 312.427 301.033 312.427 301.033 384.002 T
306.939 384.259 306.939 312.427 301.033 384.002 T
312.845 312.427 306.939 312.427 306.939 384.259 T
312.845 384.351 312.845 312.427 306.939 384.259 T
318.751 312.427 312.845 312.427 312.845 384.351 T
318.751 384.479 318.751 312.427 312.845 384.351 T
324.657 312.427 318.751 312.427 318.751 384.479 T
324.657 384.625 324.657 312.427 318.751 384.479 T
330.563 312.427 324.657 312.427 324.657 384.625 T
330.563 384.711 330.563 312.427 324.657 384.625 T
336.469 312.427 330.563 312.427 330.563 384.711 T
336.469 384.788 336.469 312.427 330.563 384.711 T
342.374 312.427 336.469 312.427 336.469 384.788 T
342.374 384.85 342.374 312.427 336.469 384.788 T
348.28 312.427 342.374 312.427 342.374 384.85 T
348.28 384.914 348.28 312.427 342.374 384.85 T
354.186 312.427 348.28 312.427 348.28 384.914 T
354.186 384.969 354.186 312.427 348.28 384.914 T
0 0 0 C
354.186 384.969 LS
348.28 384.914 L
342.374 384.85 L
336.469 384.788 L
330.563 384.711 L
324.657 384.625 L
318.751 384.479 L
312.845 384.351 L
306.939 384.259 L
301.033 384.002 L
295.127 383.744 L
289.221 383.331 L
283.315 382.488 L
277.409 381.291 L
271.503 379.109 L
265.597 375.643 L
259.691 368.954 L
253.786 356.561 L
247.88 335.029 L
241.974 312.427 L
247.88 312.427 L
253.786 312.427 L
259.691 312.427 L
265.597 312.427 L
271.503 312.427 L
277.409 312.427 L
283.315 312.427 L
289.221 312.427 L
295.127 312.427 L
301.033 312.427 L
306.939 312.427 L
312.845 312.427 L
318.751 312.427 L
324.657 312.427 L
330.563 312.427 L
336.469 312.427 L
342.374 312.427 L
348.28 312.427 L
354.186 312.427 L
354.186 384.969 LE
3 W
1 LJ
241.974 343.687 LS
247.88 354.03 L
253.786 367.151 L
259.691 375.275 L
265.597 379.771 L
271.503 382.212 L
277.409 383.555 L
283.315 384.317 L
289.221 384.77 L
295.127 385.056 L
301.033 385.249 L
306.939 385.388 L
312.845 385.496 L
318.751 385.585 L
324.657 385.661 L
330.563 385.728 L
336.469 385.789 L
342.374 385.845 L
348.28 385.898 L
354.186 385.948 LE
grestore
gsave
1.0 1.0 scale
newpath 0 0 moveto 576 0 lineto 576 432 lineto 0 432 lineto
closepath clip
1 1 1 C
409.067 386.841 521.28 312.427 409.067 312.427 T
409.067 386.841 521.28 386.841 521.28 312.427 T
0.5 W
0.15 0.15 0.15 C
432.691 312.427 LS
432.691 313.556 LE
432.691 386.841 LS
432.691 385.712 LE
462.221 312.427 LS
462.221 313.556 LE
462.221 386.841 LS
462.221 385.712 LE
491.75 312.427 LS
491.75 313.556 LE
491.75 386.841 LS
491.75 385.712 LE
521.28 312.427 LS
521.28 313.556 LE
521.28 386.841 LS
521.28 385.712 LE
gsave
0.14902 0.14902 0.14902 C
(5) [10] 0 429.691 296.886 10 /Helvetica SRX
grestore

gsave
0.14902 0.14902 0.14902 C
(10) [6 10] 0 456.221 296.886 10 /Helvetica SRX
grestore

gsave
0.14902 0.14902 0.14902 C
(15) [6 10] 0 485.75 296.886 10 /Helvetica SRX
grestore

gsave
0.14902 0.14902 0.14902 C
(20) [6 10] 0 515.28 296.886 10 /Helvetica SRX
grestore

409.067 322.476 LS
410.192 322.476 LE
521.28 322.476 LS
520.156 322.476 LE
409.067 344.373 LS
410.192 344.373 LE
521.28 344.373 LS
520.156 344.373 LE
409.067 366.271 LS
410.192 366.271 LE
521.28 366.271 LS
520.156 366.271 LE
gsave
0.14902 0.14902 0.14902 C
(-0.0015) [3 6 3 6 6 6 10] 0 368.058 318.476 10 /Helvetica SRX
grestore

gsave
0.14902 0.14902 0.14902 C
(-0.001) [3 6 3 6 6 10] 0 374.058 340.373 10 /Helvetica SRX
grestore

gsave
0.14902 0.14902 0.14902 C
(-0.0005) [3 6 3 6 6 6 10] 0 368.058 362.271 10 /Helvetica SRX
grestore

2 LC
[16 0] 0 setdash
409.067 312.427 LS
521.28 312.427 LE
409.067 386.841 LS
521.28 386.841 LE
409.067 312.427 LS
409.067 386.841 LE
521.28 312.427 LS
521.28 386.841 LE
gsave
0 0 0 C
(Y_C_hat) [7 6 8 6 7 6 10] 0 443.174 398.841 11 /Helvetica-Bold SRX
grestore

0.9 0.9 0.9 C
409.067 312.427 409.067 386.841 414.973 312.427 T
414.973 364.387 414.973 312.427 409.067 386.841 T
420.879 312.427 414.973 312.427 414.973 364.387 T
420.879 361.258 420.879 312.427 414.973 364.387 T
426.785 312.427 420.879 312.427 420.879 361.258 T
426.785 362.428 426.785 312.427 420.879 361.258 T
432.691 312.427 426.785 312.427 426.785 362.428 T
432.691 362.966 432.691 312.427 426.785 362.428 T
438.597 312.427 432.691 312.427 432.691 362.966 T
438.597 364.273 438.597 312.427 432.691 362.966 T
444.503 312.427 438.597 312.427 438.597 364.273 T
444.503 366.231 444.503 312.427 438.597 364.273 T
450.409 312.427 444.503 312.427 444.503 366.231 T
450.409 366.956 450.409 312.427 444.503 366.231 T
456.315 312.427 450.409 312.427 450.409 366.956 T
456.315 368.76 456.315 312.427 450.409 366.956 T
462.221 312.427 456.315 312.427 456.315 368.76 T
462.221 369.819 462.221 312.427 456.315 368.76 T
468.127 312.427 462.221 312.427 462.221 369.819 T
468.127 370.547 468.127 312.427 462.221 369.819 T
474.033 312.427 468.127 312.427 468.127 370.547 T
474.033 371.103 474.033 312.427 468.127 370.547 T
479.939 312.427 474.033 312.427 474.033 371.103 T
479.939 371.791 479.939 312.427 474.033 371.103 T
485.844 312.427 479.939 312.427 479.939 371.791 T
485.844 372.217 485.844 312.427 479.939 371.791 T
491.75 312.427 485.844 312.427 485.844 372.217 T
491.75 372.578 491.75 312.427 485.844 372.217 T
497.656 312.427 491.75 312.427 491.75 372.578 T
497.656 372.65 497.656 312.427 491.75 372.578 T
503.562 312.427 497.656 312.427 497.656 372.65 T
503.562 373.177 503.562 312.427 497.656 372.65 T
509.468 312.427 503.562 312.427 503.562 373.177 T
509.468 373.394 509.468 312.427 503.562 373.177 T
515.374 312.427 509.468 312.427 509.468 373.394 T
515.374 373.493 515.374 312.427 509.468 373.394 T
521.28 312.427 515.374 312.427 515.374 373.493 T
521.28 373.8 521.28 312.427 515.374 373.493 T
0 LC
[] 0 setdash
0 0 0 C
521.28 373.8 LS
515.374 373.493 L
509.468 373.394 L
503.562 373.177 L
497.656 372.65 L
491.75 372.578 L
485.844 372.217 L
479.939 371.791 L
474.033 371.103 L
468.127 370.547 L
462.221 369.819 L
456.315 368.76 L
450.409 366.956 L
444.503 366.231 L
438.597 364.273 L
432.691 362.966 L
426.785 362.428 L
420.879 361.258 L
414.973 364.387 L
409.067 386.841 L
409.067 312.427 L
414.973 312.427 L
420.879 312.427 L
426.785 312.427 L
432.691 312.427 L
438.597 312.427 L
444.503 312.427 L
450.409 312.427 L
456.315 312.427 L
462.221 312.427 L
468.127 312.427 L
474.033 312.427 L
479.939 312.427 L
485.844 312.427 L
491.75 312.427 L
497.656 312.427 L
503.562 312.427 L
509.468 312.427 L
515.374 312.427 L
521.28 312.427 L
521.28 373.8 LE
1 1 1 C
414.973 312.427 420.879 321.357 420.879 312.427 T
426.785 312.427 420.879 312.427 420.879 321.357 T
426.785 331.527 426.785 312.427 420.879 321.357 T
432.691 312.427 426.785 312.427 426.785 331.527 T
432.691 338.26 432.691 312.427 426.785 331.527 T
438.597 312.427 432.691 312.427 432.691 338.26 T
438.597 343.062 438.597 312.427 432.691 338.26 T
444.503 312.427 438.597 312.427 438.597 343.062 T
444.503 348.073 444.503 312.427 438.597 343.062 T
450.409 312.427 444.503 312.427 444.503 348.073 T
450.409 351.012 450.409 312.427 444.503 348.073 T
456.315 312.427 450.409 312.427 450.409 351.012 T
456.315 354.617 456.315 312.427 450.409 351.012 T
462.221 312.427 456.315 312.427 456.315 354.617 T
462.221 356.99 462.221 312.427 456.315 354.617 T
468.127 312.427 462.221 312.427 462.221 356.99 T
468.127 358.725 468.127 312.427 462.221 356.99 T
474.033 312.427 468.127 312.427 468.127 358.725 T
474.033 360.234 474.033 312.427 468.127 358.725 T
479.939 312.427 474.033 312.427 474.033 360.234 T
479.939 361.769 479.939 312.427 474.033 360.234 T
485.844 312.427 479.939 312.427 479.939 361.769 T
485.844 362.942 485.844 312.427 479.939 361.769 T
491.75 312.427 485.844 312.427 485.844 362.942 T
491.75 363.928 491.75 312.427 485.844 362.942 T
497.656 312.427 491.75 312.427 491.75 363.928 T
497.656 364.477 497.656 312.427 491.75 363.928 T
503.562 312.427 497.656 312.427 497.656 364.477 T
503.562 365.499 503.562 312.427 497.656 364.477 T
509.468 312.427 503.562 312.427 503.562 365.499 T
509.468 366.096 509.468 312.427 503.562 365.499 T
515.374 312.427 509.468 312.427 509.468 366.096 T
515.374 366.528 515.374 312.427 509.468 366.096 T
521.28 312.427 515.374 312.427 515.374 366.528 T
521.28 367.078 521.28 312.427 515.374 366.528 T
409.067 312.427 409.067 324.639 414.973 312.427 T
0 0 0 C
414.973 312.427 LS
409.067 324.639 L
409.067 312.427 L
414.973 312.427 LE
521.28 367.078 LS
515.374 366.528 L
509.468 366.096 L
503.562 365.499 L
497.656 364.477 L
491.75 363.928 L
485.844 362.942 L
479.939 361.769 L
474.033 360.234 L
468.127 358.725 L
462.221 356.99 L
456.315 354.617 L
450.409 351.012 L
444.503 348.073 L
438.597 343.062 L
432.691 338.26 L
426.785 331.527 L
420.879 321.357 L
414.973 312.427 L
420.879 312.427 L
426.785 312.427 L
432.691 312.427 L
438.597 312.427 L
444.503 312.427 L
450.409 312.427 L
456.315 312.427 L
462.221 312.427 L
468.127 312.427 L
474.033 312.427 L
479.939 312.427 L
485.844 312.427 L
491.75 312.427 L
497.656 312.427 L
503.562 312.427 L
509.468 312.427 L
515.374 312.427 L
521.28 312.427 L
521.28 367.078 LE
3 W
1 LJ
409.067 353.892 LS
414.973 336.536 L
420.879 339.695 L
426.785 344.927 L
432.691 349.68 L
438.597 353.639 L
444.503 356.868 L
450.409 359.489 L
456.315 361.621 L
462.221 363.36 L
468.127 364.786 L
474.033 365.962 L
479.939 366.936 L
485.844 367.747 L
491.75 368.425 L
497.656 368.995 L
503.562 369.475 L
509.468 369.883 L
515.374 370.23 L
521.28 370.527 LE
grestore
gsave
1.0 1.0 scale
newpath 0 0 moveto 576 0 lineto 576 432 lineto 0 432 lineto
closepath clip
1 1 1 C
74.88 254.387 187.093 179.974 74.88 179.974 T
74.88 254.387 187.093 254.387 187.093 179.974 T
0.5 W
0.15 0.15 0.15 C
98.5037 179.974 LS
98.5037 181.102 LE
98.5037 254.387 LS
98.5037 253.258 LE
128.033 179.974 LS
128.033 181.102 LE
128.033 254.387 LS
128.033 253.258 LE
157.563 179.974 LS
157.563 181.102 LE
157.563 254.387 LS
157.563 253.258 LE
187.093 179.974 LS
187.093 181.102 LE
187.093 254.387 LS
187.093 253.258 LE
gsave
0.14902 0.14902 0.14902 C
(5) [10] 0 95.5037 164.432 10 /Helvetica SRX
grestore

gsave
0.14902 0.14902 0.14902 C
(10) [6 10] 0 122.033 164.432 10 /Helvetica SRX
grestore

gsave
0.14902 0.14902 0.14902 C
(15) [6 10] 0 151.563 164.432 10 /Helvetica SRX
grestore

gsave
0.14902 0.14902 0.14902 C
(20) [6 10] 0 181.093 164.432 10 /Helvetica SRX
grestore

74.88 185.787 LS
76.0043 185.787 LE
187.093 185.787 LS
185.968 185.787 LE
74.88 197.535 LS
76.0043 197.535 LE
187.093 197.535 LS
185.968 197.535 LE
74.88 209.283 LS
76.0043 209.283 LE
187.093 209.283 LS
185.968 209.283 LE
74.88 221.031 LS
76.0043 221.031 LE
187.093 221.031 LS
185.968 221.031 LE
74.88 232.779 LS
76.0043 232.779 LE
187.093 232.779 LS
185.968 232.779 LE
74.88 244.527 LS
76.0043 244.527 LE
187.093 244.527 LS
185.968 244.527 LE
gsave
0.14902 0.14902 0.14902 C
(-0.012) [3 6 3 6 6 10] 0 39.8705 181.787 10 /Helvetica SRX
grestore

gsave
0.14902 0.14902 0.14902 C
(-0.01) [3 6 3 6 10] 0 45.8705 193.535 10 /Helvetica SRX
grestore

gsave
0.14902 0.14902 0.14902 C
(-0.008) [3 6 3 6 6 10] 0 39.8705 205.283 10 /Helvetica SRX
grestore

gsave
0.14902 0.14902 0.14902 C
(-0.006) [3 6 3 6 6 10] 0 39.8705 217.031 10 /Helvetica SRX
grestore

gsave
0.14902 0.14902 0.14902 C
(-0.004) [3 6 3 6 6 10] 0 39.8705 228.779 10 /Helvetica SRX
grestore

gsave
0.14902 0.14902 0.14902 C
(-0.002) [3 6 3 6 6 10] 0 39.8705 240.527 10 /Helvetica SRX
grestore

2 LC
[16 0] 0 setdash
74.88 179.974 LS
187.093 179.974 LE
74.88 254.387 LS
187.093 254.387 LE
74.88 179.974 LS
74.88 254.387 LE
187.093 179.974 LS
187.093 254.387 LE
gsave
0 0 0 C
(L_T_hat) [7 6 7 6 7 6 10] 0 109.486 266.387 11 /Helvetica-Bold SRX
grestore

0.9 0.9 0.9 C
74.88 179.974 74.88 247.683 80.7859 179.974 T
80.7859 248.055 80.7859 179.974 74.88 247.683 T
86.6918 179.974 80.7859 179.974 80.7859 248.055 T
86.6918 248.614 86.6918 179.974 80.7859 248.055 T
92.5978 179.974 86.6918 179.974 86.6918 248.614 T
92.5978 250.54 92.5978 179.974 86.6918 248.614 T
98.5037 179.974 92.5978 179.974 92.5978 250.54 T
98.5037 251.573 98.5037 179.974 92.5978 250.54 T
104.41 179.974 98.5037 179.974 98.5037 251.573 T
104.41 252.214 104.41 179.974 98.5037 251.573 T
110.316 179.974 104.41 179.974 104.41 252.214 T
110.316 252.609 110.316 179.974 104.41 252.214 T
116.221 179.974 110.316 179.974 110.316 252.609 T
116.221 253.05 116.221 179.974 110.316 252.609 T
122.127 179.974 116.221 179.974 116.221 253.05 T
122.127 253.181 122.127 179.974 116.221 253.05 T
128.033 179.974 122.127 179.974 122.127 253.181 T
128.033 253.572 128.033 179.974 122.127 253.181 T
133.939 179.974 128.033 179.974 128.033 253.572 T
133.939 253.595 133.939 179.974 128.033 253.572 T
139.845 179.974 133.939 179.974 133.939 253.595 T
139.845 253.778 139.845 179.974 133.939 253.595 T
145.751 179.974 139.845 179.974 139.845 253.778 T
145.751 253.91 145.751 179.974 139.845 253.778 T
151.657 179.974 145.751 179.974 145.751 253.91 T
151.657 253.943 151.657 179.974 145.751 253.91 T
157.563 179.974 151.657 179.974 151.657 253.943 T
157.563 254.064 157.563 179.974 151.657 253.943 T
163.469 179.974 157.563 179.974 157.563 254.064 T
163.469 254.139 163.469 179.974 157.563 254.064 T
169.375 179.974 163.469 179.974 163.469 254.139 T
169.375 254.176 169.375 179.974 163.469 254.139 T
175.281 179.974 169.375 179.974 169.375 254.176 T
175.281 254.296 175.281 179.974 169.375 254.176 T
181.187 179.974 175.281 179.974 175.281 254.296 T
181.187 254.33 181.187 179.974 175.281 254.296 T
187.093 179.974 181.187 179.974 181.187 254.33 T
187.093 254.387 187.093 179.974 181.187 254.33 T
0 LC
[] 0 setdash
0 0 0 C
187.093 254.387 LS
181.187 254.33 L
175.281 254.296 L
169.375 254.176 L
163.469 254.139 L
157.563 254.064 L
151.657 253.943 L
145.751 253.91 L
139.845 253.778 L
133.939 253.595 L
128.033 253.572 L
122.127 253.181 L
116.221 253.05 L
110.316 252.609 L
104.41 252.214 L
98.5037 251.573 L
92.5978 250.54 L
86.6918 248.614 L
80.7859 248.055 L
74.88 247.683 L
74.88 179.974 L
80.7859 179.974 L
86.6918 179.974 L
92.5978 179.974 L
98.5037 179.974 L
104.41 179.974 L
110.316 179.974 L
116.221 179.974 L
122.127 179.974 L
128.033 179.974 L
133.939 179.974 L
139.845 179.974 L
145.751 179.974 L
151.657 179.974 L
157.563 179.974 L
163.469 179.974 L
169.375 179.974 L
175.281 179.974 L
181.187 179.974 L
187.093 179.974 L
187.093 254.387 LE
1 1 1 C
74.88 179.974 80.7859 216.182 80.7859 179.974 T
86.6918 179.974 80.7859 179.974 80.7859 216.182 T
86.6918 232.386 86.6918 179.974 80.7859 216.182 T
92.5978 179.974 86.6918 179.974 86.6918 232.386 T
92.5978 241.09 92.5978 179.974 86.6918 232.386 T
98.5037 179.974 92.5978 179.974 92.5978 241.09 T
98.5037 245.349 98.5037 179.974 92.5978 241.09 T
104.41 179.974 98.5037 179.974 98.5037 245.349 T
104.41 247.886 104.41 179.974 98.5037 245.349 T
110.316 179.974 104.41 179.974 104.41 247.886 T
110.316 249.111 110.316 179.974 104.41 247.886 T
116.221 179.974 110.316 179.974 110.316 249.111 T
116.221 250.106 116.221 179.974 110.316 249.111 T
122.127 179.974 116.221 179.974 116.221 250.106 T
122.127 250.64 122.127 179.974 116.221 250.106 T
128.033 179.974 122.127 179.974 122.127 250.64 T
128.033 251.324 128.033 179.974 122.127 250.64 T
133.939 179.974 128.033 179.974 128.033 251.324 T
133.939 251.568 133.939 179.974 128.033 251.324 T
139.845 179.974 133.939 179.974 133.939 251.568 T
139.845 251.981 139.845 179.974 133.939 251.568 T
145.751 179.974 139.845 179.974 139.845 251.981 T
145.751 252.268 145.751 179.974 139.845 251.981 T
151.657 179.974 145.751 179.974 145.751 252.268 T
151.657 252.445 151.657 179.974 145.751 252.268 T
157.563 179.974 151.657 179.974 151.657 252.445 T
157.563 252.685 157.563 179.974 151.657 252.445 T
163.469 179.974 157.563 179.974 157.563 252.685 T
163.469 252.854 163.469 179.974 157.563 252.685 T
169.375 179.974 163.469 179.974 163.469 252.854 T
169.375 252.973 169.375 179.974 163.469 252.854 T
175.281 179.974 169.375 179.974 169.375 252.973 T
175.281 253.17 175.281 179.974 169.375 252.973 T
181.187 179.974 175.281 179.974 175.281 253.17 T
181.187 253.271 181.187 179.974 175.281 253.17 T
187.093 179.974 181.187 179.974 181.187 253.271 T
187.093 253.395 187.093 179.974 181.187 253.271 T
0 0 0 C
187.093 253.395 LS
181.187 253.271 L
175.281 253.17 L
169.375 252.973 L
163.469 252.854 L
157.563 252.685 L
151.657 252.445 L
145.751 252.268 L
139.845 251.981 L
133.939 251.568 L
128.033 251.324 L
122.127 250.64 L
116.221 250.106 L
110.316 249.111 L
104.41 247.886 L
98.5037 245.349 L
92.5978 241.09 L
86.6918 232.386 L
80.7859 216.182 L
74.88 179.974 L
80.7859 179.974 L
86.6918 179.974 L
92.5978 179.974 L
98.5037 179.974 L
104.41 179.974 L
110.316 179.974 L
116.221 179.974 L
122.127 179.974 L
128.033 179.974 L
133.939 179.974 L
139.845 179.974 L
145.751 179.974 L
151.657 179.974 L
157.563 179.974 L
163.469 179.974 L
169.375 179.974 L
175.281 179.974 L
181.187 179.974 L
187.093 179.974 L
187.093 253.395 LE
3 W
1 LJ
74.88 215.051 LS
80.7859 231.709 L
86.6918 241.398 L
92.5978 246.165 L
98.5037 248.645 L
104.41 250.058 L
110.316 250.944 L
116.221 251.55 L
122.127 251.996 L
128.033 252.344 L
133.939 252.626 L
139.845 252.861 L
145.751 253.06 L
151.657 253.232 L
157.563 253.38 L
163.469 253.51 L
169.375 253.624 L
175.281 253.724 L
181.187 253.813 L
187.093 253.891 LE
grestore
gsave
1.0 1.0 scale
newpath 0 0 moveto 576 0 lineto 576 432 lineto 0 432 lineto
closepath clip
1 1 1 C
241.974 254.387 354.186 179.974 241.974 179.974 T
241.974 254.387 354.186 254.387 354.186 179.974 T
0.5 W
0.15 0.15 0.15 C
265.597 179.974 LS
265.597 181.102 LE
265.597 254.387 LS
265.597 253.258 LE
295.127 179.974 LS
295.127 181.102 LE
295.127 254.387 LS
295.127 253.258 LE
324.657 179.974 LS
324.657 181.102 LE
324.657 254.387 LS
324.657 253.258 LE
354.186 179.974 LS
354.186 181.102 LE
354.186 254.387 LS
354.186 253.258 LE
gsave
0.14902 0.14902 0.14902 C
(5) [10] 0 262.597 164.432 10 /Helvetica SRX
grestore

gsave
0.14902 0.14902 0.14902 C
(10) [6 10] 0 289.127 164.432 10 /Helvetica SRX
grestore

gsave
0.14902 0.14902 0.14902 C
(15) [6 10] 0 318.657 164.432 10 /Helvetica SRX
grestore

gsave
0.14902 0.14902 0.14902 C
(20) [6 10] 0 348.186 164.432 10 /Helvetica SRX
grestore

241.974 192.818 LS
243.098 192.818 LE
354.186 192.818 LS
353.062 192.818 LE
241.974 208.868 LS
243.098 208.868 LE
354.186 208.868 LS
353.062 208.868 LE
241.974 224.918 LS
243.098 224.918 LE
354.186 224.918 LS
353.062 224.918 LE
241.974 240.968 LS
243.098 240.968 LE
354.186 240.968 LS
353.062 240.968 LE
gsave
0.14902 0.14902 0.14902 C
(-0.008) [3 6 3 6 6 10] 0 206.964 188.818 10 /Helvetica SRX
grestore

gsave
0.14902 0.14902 0.14902 C
(-0.006) [3 6 3 6 6 10] 0 206.964 204.868 10 /Helvetica SRX
grestore

gsave
0.14902 0.14902 0.14902 C
(-0.004) [3 6 3 6 6 10] 0 206.964 220.918 10 /Helvetica SRX
grestore

gsave
0.14902 0.14902 0.14902 C
(-0.002) [3 6 3 6 6 10] 0 206.964 236.968 10 /Helvetica SRX
grestore

2 LC
[16 0] 0 setdash
241.974 179.974 LS
354.186 179.974 LE
241.974 254.387 LS
354.186 254.387 LE
241.974 179.974 LS
241.974 254.387 LE
354.186 179.974 LS
354.186 254.387 LE
gsave
0 0 0 C
(L_N_hat) [7 6 8 6 7 6 10] 0 276.08 266.387 11 /Helvetica-Bold SRX
grestore

0.9 0.9 0.9 C
241.974 179.974 241.974 239.183 247.88 179.974 T
247.88 242.663 247.88 179.974 241.974 239.183 T
253.786 179.974 247.88 179.974 247.88 242.663 T
253.786 247.052 253.786 179.974 247.88 242.663 T
259.691 179.974 253.786 179.974 253.786 247.052 T
259.691 250.299 259.691 179.974 253.786 247.052 T
265.597 179.974 259.691 179.974 259.691 250.299 T
265.597 252.465 265.597 179.974 259.691 250.299 T
271.503 179.974 265.597 179.974 265.597 252.465 T
271.503 253.476 271.503 179.974 265.597 252.465 T
277.409 179.974 271.503 179.974 271.503 253.476 T
277.409 253.779 277.409 179.974 271.503 253.476 T
283.315 179.974 277.409 179.974 277.409 253.779 T
283.315 254.098 283.315 179.974 277.409 253.779 T
289.221 179.974 283.315 179.974 283.315 254.098 T
289.221 254.253 289.221 179.974 283.315 254.098 T
295.127 179.974 289.221 179.974 289.221 254.253 T
295.127 254.297 295.127 179.974 289.221 254.253 T
301.033 179.974 295.127 179.974 295.127 254.297 T
301.033 254.339 301.033 179.974 295.127 254.297 T
306.939 179.974 301.033 179.974 301.033 254.339 T
306.939 254.274 306.939 179.974 301.033 254.339 T
312.845 179.974 306.939 179.974 306.939 254.274 T
312.845 254.387 312.845 179.974 306.939 254.274 T
318.751 179.974 312.845 179.974 312.845 254.387 T
318.751 254.317 318.751 179.974 312.845 254.387 T
324.657 179.974 318.751 179.974 318.751 254.317 T
324.657 254.318 324.657 179.974 318.751 254.317 T
330.563 179.974 324.657 179.974 324.657 254.318 T
330.563 254.301 330.563 179.974 324.657 254.318 T
336.469 179.974 330.563 179.974 330.563 254.301 T
336.469 254.324 336.469 179.974 330.563 254.301 T
342.374 179.974 336.469 179.974 336.469 254.324 T
342.374 254.339 342.374 179.974 336.469 254.324 T
348.28 179.974 342.374 179.974 342.374 254.339 T
348.28 254.354 348.28 179.974 342.374 254.339 T
354.186 179.974 348.28 179.974 348.28 254.354 T
354.186 254.363 354.186 179.974 348.28 254.354 T
0 LC
[] 0 setdash
0 0 0 C
354.186 254.363 LS
348.28 254.354 L
342.374 254.339 L
336.469 254.324 L
330.563 254.301 L
324.657 254.318 L
318.751 254.317 L
312.845 254.387 L
306.939 254.274 L
301.033 254.339 L
295.127 254.297 L
289.221 254.253 L
283.315 254.098 L
277.409 253.779 L
271.503 253.476 L
265.597 252.465 L
259.691 250.299 L
253.786 247.052 L
247.88 242.663 L
241.974 239.183 L
241.974 179.974 L
247.88 179.974 L
253.786 179.974 L
259.691 179.974 L
265.597 179.974 L
271.503 179.974 L
277.409 179.974 L
283.315 179.974 L
289.221 179.974 L
295.127 179.974 L
301.033 179.974 L
306.939 179.974 L
312.845 179.974 L
318.751 179.974 L
324.657 179.974 L
330.563 179.974 L
336.469 179.974 L
342.374 179.974 L
348.28 179.974 L
354.186 179.974 L
354.186 254.363 LE
1 1 1 C
241.974 179.974 247.88 205.77 247.88 179.974 T
253.786 179.974 247.88 179.974 247.88 205.77 T
253.786 227.25 253.786 179.974 247.88 205.77 T
259.691 179.974 253.786 179.974 253.786 227.25 T
259.691 239.609 259.691 179.974 253.786 227.25 T
265.597 179.974 259.691 179.974 259.691 239.609 T
265.597 246.126 265.597 179.974 259.691 239.609 T
271.503 179.974 265.597 179.974 265.597 246.126 T
271.503 249.517 271.503 179.974 265.597 246.126 T
277.409 179.974 271.503 179.974 271.503 249.517 T
277.409 251.132 277.409 179.974 271.503 249.517 T
283.315 179.974 277.409 179.974 277.409 251.132 T
283.315 252.109 283.315 179.974 277.409 251.132 T
289.221 179.974 283.315 179.974 283.315 252.109 T
289.221 252.637 289.221 179.974 283.315 252.109 T
295.127 179.974 289.221 179.974 289.221 252.637 T
295.127 252.905 295.127 179.974 289.221 252.637 T
301.033 179.974 295.127 179.974 295.127 252.905 T
301.033 253.079 301.033 179.974 295.127 252.905 T
306.939 179.974 301.033 179.974 301.033 253.079 T
306.939 253.097 306.939 179.974 301.033 253.079 T
312.845 179.974 306.939 179.974 306.939 253.097 T
312.845 253.281 312.845 179.974 306.939 253.097 T
318.751 179.974 312.845 179.974 312.845 253.281 T
318.751 253.263 318.751 179.974 312.845 253.281 T
324.657 179.974 318.751 179.974 318.751 253.263 T
324.657 253.284 324.657 179.974 318.751 253.263 T
330.563 179.974 324.657 179.974 324.657 253.284 T
330.563 253.282 330.563 179.974 324.657 253.284 T
336.469 179.974 330.563 179.974 330.563 253.282 T
336.469 253.323 336.469 179.974 330.563 253.282 T
342.374 179.974 336.469 179.974 336.469 253.323 T
342.374 253.337 342.374 179.974 336.469 253.323 T
348.28 179.974 342.374 179.974 342.374 253.337 T
348.28 253.356 348.28 179.974 342.374 253.337 T
354.186 179.974 348.28 179.974 348.28 253.356 T
354.186 253.366 354.186 179.974 348.28 253.356 T
0 0 0 C
354.186 253.366 LS
348.28 253.356 L
342.374 253.337 L
336.469 253.323 L
330.563 253.282 L
324.657 253.284 L
318.751 253.263 L
312.845 253.281 L
306.939 253.097 L
301.033 253.079 L
295.127 252.905 L
289.221 252.637 L
283.315 252.109 L
277.409 251.132 L
271.503 249.517 L
265.597 246.126 L
259.691 239.609 L
253.786 227.25 L
247.88 205.77 L
241.974 179.974 L
247.88 179.974 L
253.786 179.974 L
259.691 179.974 L
265.597 179.974 L
271.503 179.974 L
277.409 179.974 L
283.315 179.974 L
289.221 179.974 L
295.127 179.974 L
301.033 179.974 L
306.939 179.974 L
312.845 179.974 L
318.751 179.974 L
324.657 179.974 L
330.563 179.974 L
336.469 179.974 L
342.374 179.974 L
348.28 179.974 L
354.186 179.974 L
354.186 253.366 LE
3 W
1 LJ
241.974 210.39 LS
247.88 224.311 L
253.786 237.443 L
259.691 245.187 L
265.597 249.33 L
271.503 251.485 L
277.409 252.598 L
283.315 253.172 L
289.221 253.47 L
295.127 253.625 L
301.033 253.708 L
306.939 253.754 L
312.845 253.782 L
318.751 253.802 L
324.657 253.818 L
330.563 253.833 L
336.469 253.849 L
342.374 253.866 L
348.28 253.883 L
354.186 253.902 LE
grestore
gsave
1.0 1.0 scale
newpath 0 0 moveto 576 0 lineto 576 432 lineto 0 432 lineto
closepath clip
1 1 1 C
409.067 254.387 521.28 179.974 409.067 179.974 T
409.067 254.387 521.28 254.387 521.28 179.974 T
0.5 W
0.15 0.15 0.15 C
432.691 179.974 LS
432.691 181.102 LE
432.691 254.387 LS
432.691 253.258 LE
462.221 179.974 LS
462.221 181.102 LE
462.221 254.387 LS
462.221 253.258 LE
491.75 179.974 LS
491.75 181.102 LE
491.75 254.387 LS
491.75 253.258 LE
521.28 179.974 LS
521.28 181.102 LE
521.28 254.387 LS
521.28 253.258 LE
gsave
0.14902 0.14902 0.14902 C
(5) [10] 0 429.691 164.432 10 /Helvetica SRX
grestore

gsave
0.14902 0.14902 0.14902 C
(10) [6 10] 0 456.221 164.432 10 /Helvetica SRX
grestore

gsave
0.14902 0.14902 0.14902 C
(15) [6 10] 0 485.75 164.432 10 /Helvetica SRX
grestore

gsave
0.14902 0.14902 0.14902 C
(20) [6 10] 0 515.28 164.432 10 /Helvetica SRX
grestore

409.067 187.865 LS
410.192 187.865 LE
521.28 187.865 LS
520.156 187.865 LE
409.067 204.892 LS
410.192 204.892 LE
521.28 204.892 LS
520.156 204.892 LE
409.067 221.92 LS
410.192 221.92 LE
521.28 221.92 LS
520.156 221.92 LE
409.067 238.947 LS
410.192 238.947 LE
521.28 238.947 LS
520.156 238.947 LE
gsave
0.14902 0.14902 0.14902 C
(-0.002) [3 6 3 6 6 10] 0 374.058 183.865 10 /Helvetica SRX
grestore

gsave
0.14902 0.14902 0.14902 C
(-0.0015) [3 6 3 6 6 6 10] 0 368.058 200.892 10 /Helvetica SRX
grestore

gsave
0.14902 0.14902 0.14902 C
(-0.001) [3 6 3 6 6 10] 0 374.058 217.92 10 /Helvetica SRX
grestore

gsave
0.14902 0.14902 0.14902 C
(-0.0005) [3 6 3 6 6 6 10] 0 368.058 234.947 10 /Helvetica SRX
grestore

2 LC
[16 0] 0 setdash
409.067 179.974 LS
521.28 179.974 LE
409.067 254.387 LS
521.28 254.387 LE
409.067 179.974 LS
409.067 254.387 LE
521.28 179.974 LS
521.28 254.387 LE
gsave
0 0 0 C
(L_C_hat) [7 6 8 6 7 6 10] 0 443.174 266.387 11 /Helvetica-Bold SRX
grestore

0.9 0.9 0.9 C
409.067 179.974 409.067 254.387 414.973 179.974 T
414.973 249.982 414.973 179.974 409.067 254.387 T
420.879 179.974 414.973 179.974 414.973 249.982 T
420.879 245.544 420.879 179.974 414.973 249.982 T
426.785 179.974 420.879 179.974 420.879 245.544 T
426.785 244.06 426.785 179.974 420.879 245.544 T
432.691 179.974 426.785 179.974 426.785 244.06 T
432.691 244.154 432.691 179.974 426.785 244.06 T
438.597 179.974 432.691 179.974 432.691 244.154 T
438.597 244.467 438.597 179.974 432.691 244.154 T
444.503 179.974 438.597 179.974 438.597 244.467 T
444.503 245.254 444.503 179.974 438.597 244.467 T
450.409 179.974 444.503 179.974 444.503 245.254 T
450.409 246.394 450.409 179.974 444.503 245.254 T
456.315 179.974 450.409 179.974 450.409 246.394 T
456.315 247.02 456.315 179.974 450.409 246.394 T
462.221 179.974 456.315 179.974 456.315 247.02 T
462.221 247.649 462.221 179.974 456.315 247.02 T
468.127 179.974 462.221 179.974 462.221 247.649 T
468.127 248.107 468.127 179.974 462.221 247.649 T
474.033 179.974 468.127 179.974 468.127 248.107 T
474.033 248.581 474.033 179.974 468.127 248.107 T
479.939 179.974 474.033 179.974 474.033 248.581 T
479.939 248.827 479.939 179.974 474.033 248.581 T
485.844 179.974 479.939 179.974 479.939 248.827 T
485.844 249.284 485.844 179.974 479.939 248.827 T
491.75 179.974 485.844 179.974 485.844 249.284 T
491.75 249.502 491.75 179.974 485.844 249.284 T
497.656 179.974 491.75 179.974 491.75 249.502 T
497.656 249.671 497.656 179.974 491.75 249.502 T
503.562 179.974 497.656 179.974 497.656 249.671 T
503.562 249.739 503.562 179.974 497.656 249.671 T
509.468 179.974 503.562 179.974 503.562 249.739 T
509.468 249.62 509.468 179.974 503.562 249.739 T
515.374 179.974 509.468 179.974 509.468 249.62 T
515.374 249.57 515.374 179.974 509.468 249.62 T
521.28 179.974 515.374 179.974 515.374 249.57 T
521.28 249.667 521.28 179.974 515.374 249.57 T
0 LC
[] 0 setdash
0 0 0 C
521.28 249.667 LS
515.374 249.57 L
509.468 249.62 L
503.562 249.739 L
497.656 249.671 L
491.75 249.502 L
485.844 249.284 L
479.939 248.827 L
474.033 248.581 L
468.127 248.107 L
462.221 247.649 L
456.315 247.02 L
450.409 246.394 L
444.503 245.254 L
438.597 244.467 L
432.691 244.154 L
426.785 244.06 L
420.879 245.544 L
414.973 249.982 L
409.067 254.387 L
409.067 179.974 L
414.973 179.974 L
420.879 179.974 L
426.785 179.974 L
432.691 179.974 L
438.597 179.974 L
444.503 179.974 L
450.409 179.974 L
456.315 179.974 L
462.221 179.974 L
468.127 179.974 L
474.033 179.974 L
479.939 179.974 L
485.844 179.974 L
491.75 179.974 L
497.656 179.974 L
503.562 179.974 L
509.468 179.974 L
515.374 179.974 L
521.28 179.974 L
521.28 249.667 LE
1 1 1 C
409.067 179.974 414.973 189.453 414.973 179.974 T
420.879 179.974 414.973 179.974 414.973 189.453 T
420.879 204.283 420.879 179.974 414.973 189.453 T
426.785 179.974 420.879 179.974 420.879 204.283 T
426.785 215.423 426.785 179.974 420.879 204.283 T
432.691 179.974 426.785 179.974 426.785 215.423 T
432.691 223.352 432.691 179.974 426.785 215.423 T
438.597 179.974 432.691 179.974 432.691 223.352 T
438.597 229.003 438.597 179.974 432.691 223.352 T
444.503 179.974 438.597 179.974 438.597 229.003 T
444.503 233.226 444.503 179.974 438.597 229.003 T
450.409 179.974 444.503 179.974 444.503 233.226 T
450.409 236.533 450.409 179.974 444.503 233.226 T
456.315 179.974 450.409 179.974 450.409 236.533 T
456.315 238.656 456.315 179.974 450.409 236.533 T
462.221 179.974 456.315 179.974 456.315 238.656 T
462.221 240.327 462.221 179.974 456.315 238.656 T
468.127 179.974 462.221 179.974 462.221 240.327 T
468.127 241.672 468.127 179.974 462.221 240.327 T
474.033 179.974 468.127 179.974 468.127 241.672 T
474.033 242.697 474.033 179.974 468.127 241.672 T
479.939 179.974 474.033 179.974 474.033 242.697 T
479.939 243.494 479.939 179.974 474.033 242.697 T
485.844 179.974 479.939 179.974 479.939 243.494 T
485.844 244.454 485.844 179.974 479.939 243.494 T
491.75 179.974 485.844 179.974 485.844 244.454 T
491.75 245.061 491.75 179.974 485.844 244.454 T
497.656 179.974 491.75 179.974 491.75 245.061 T
497.656 245.578 497.656 179.974 491.75 245.061 T
503.562 179.974 497.656 179.974 497.656 245.578 T
503.562 245.919 503.562 179.974 497.656 245.578 T
509.468 179.974 503.562 179.974 503.562 245.919 T
509.468 246.088 509.468 179.974 503.562 245.919 T
515.374 179.974 509.468 179.974 509.468 246.088 T
515.374 246.281 515.374 179.974 509.468 246.088 T
521.28 179.974 515.374 179.974 515.374 246.281 T
521.28 246.57 521.28 179.974 515.374 246.281 T
0 0 0 C
521.28 246.57 LS
515.374 246.281 L
509.468 246.088 L
503.562 245.919 L
497.656 245.578 L
491.75 245.061 L
485.844 244.454 L
479.939 243.494 L
474.033 242.697 L
468.127 241.672 L
462.221 240.327 L
456.315 238.656 L
450.409 236.533 L
444.503 233.226 L
438.597 229.003 L
432.691 223.352 L
426.785 215.423 L
420.879 204.283 L
414.973 189.453 L
409.067 179.974 L
414.973 179.974 L
420.879 179.974 L
426.785 179.974 L
432.691 179.974 L
438.597 179.974 L
444.503 179.974 L
450.409 179.974 L
456.315 179.974 L
462.221 179.974 L
468.127 179.974 L
474.033 179.974 L
479.939 179.974 L
485.844 179.974 L
491.75 179.974 L
497.656 179.974 L
503.562 179.974 L
509.468 179.974 L
515.374 179.974 L
521.28 179.974 L
521.28 246.57 LE
3 W
1 LJ
409.067 214.97 LS
414.973 217.708 L
420.879 223.611 L
426.785 228.818 L
432.691 233.028 L
438.597 236.356 L
444.503 238.967 L
450.409 241.009 L
456.315 242.608 L
462.221 243.863 L
468.127 244.852 L
474.033 245.633 L
479.939 246.253 L
485.844 246.746 L
491.75 247.139 L
497.656 247.453 L
503.562 247.704 L
509.468 247.904 L
515.374 248.064 L
521.28 248.191 LE
grestore
gsave
1.0 1.0 scale
newpath 0 0 moveto 576 0 lineto 576 432 lineto 0 432 lineto
closepath clip
1 1 1 C
74.88 121.933 187.093 47.52 74.88 47.52 T
74.88 121.933 187.093 121.933 187.093 47.52 T
0.5 W
0.15 0.15 0.15 C
98.5037 47.52 LS
98.5037 48.6484 LE
98.5037 121.933 LS
98.5037 120.805 LE
128.033 47.52 LS
128.033 48.6484 LE
128.033 121.933 LS
128.033 120.805 LE
157.563 47.52 LS
157.563 48.6484 LE
157.563 121.933 LS
157.563 120.805 LE
187.093 47.52 LS
187.093 48.6484 LE
187.093 121.933 LS
187.093 120.805 LE
gsave
0.14902 0.14902 0.14902 C
(5) [10] 0 95.5037 31.9781 10 /Helvetica SRX
grestore

gsave
0.14902 0.14902 0.14902 C
(10) [6 10] 0 122.033 31.9781 10 /Helvetica SRX
grestore

gsave
0.14902 0.14902 0.14902 C
(15) [6 10] 0 151.563 31.9781 10 /Helvetica SRX
grestore

gsave
0.14902 0.14902 0.14902 C
(20) [6 10] 0 181.093 31.9781 10 /Helvetica SRX
grestore

74.88 53.0425 LS
76.0043 53.0425 LE
187.093 53.0425 LS
185.968 53.0425 LE
74.88 63.7787 LS
76.0043 63.7787 LE
187.093 63.7787 LS
185.968 63.7787 LE
74.88 74.5148 LS
76.0043 74.5148 LE
187.093 74.5148 LS
185.968 74.5148 LE
74.88 85.251 LS
76.0043 85.251 LE
187.093 85.251 LS
185.968 85.251 LE
74.88 95.9871 LS
76.0043 95.9871 LE
187.093 95.9871 LS
185.968 95.9871 LE
74.88 106.723 LS
76.0043 106.723 LE
187.093 106.723 LS
185.968 106.723 LE
74.88 117.459 LS
76.0043 117.459 LE
187.093 117.459 LS
185.968 117.459 LE
gsave
0.14902 0.14902 0.14902 C
(-0.12) [3 6 3 6 10] 0 45.8705 49.0425 10 /Helvetica SRX
grestore

gsave
0.14902 0.14902 0.14902 C
(-0.1) [3 6 3 10] 0 51.8705 59.7787 10 /Helvetica SRX
grestore

gsave
0.14902 0.14902 0.14902 C
(-0.08) [3 6 3 6 10] 0 45.8705 70.5149 10 /Helvetica SRX
grestore

gsave
0.14902 0.14902 0.14902 C
(-0.06) [3 6 3 6 10] 0 45.8705 81.251 10 /Helvetica SRX
grestore

gsave
0.14902 0.14902 0.14902 C
(-0.04) [3 6 3 6 10] 0 45.8705 91.9872 10 /Helvetica SRX
grestore

gsave
0.14902 0.14902 0.14902 C
(-0.02) [3 6 3 6 10] 0 45.8705 102.723 10 /Helvetica SRX
grestore

gsave
0.14902 0.14902 0.14902 C
(0) [10] 0 63.8705 113.459 10 /Helvetica SRX
grestore

2 LC
[16 0] 0 setdash
74.88 47.52 LS
187.093 47.52 LE
74.88 121.933 LS
187.093 121.933 LE
74.88 47.52 LS
74.88 121.933 LE
187.093 47.52 LS
187.093 121.933 LE
gsave
0 0 0 C
(I_T_hat) [3 6 7 6 7 6 10] 0 111.486 133.933 11 /Helvetica-Bold SRX
grestore

0.9 0.9 0.9 C
74.88 47.52 74.88 65.1481 80.7859 47.52 T
80.7859 119.796 80.7859 47.52 74.88 65.1481 T
86.6918 47.52 80.7859 47.52 80.7859 119.796 T
86.6918 121.306 86.6918 47.52 80.7859 119.796 T
92.5978 47.52 86.6918 47.52 86.6918 121.306 T
92.5978 121.725 92.5978 47.52 86.6918 121.306 T
98.5037 47.52 92.5978 47.52 92.5978 121.725 T
98.5037 121.933 98.5037 47.52 92.5978 121.725 T
104.41 47.52 98.5037 47.52 98.5037 121.933 T
104.41 121.35 104.41 47.52 98.5037 121.933 T
110.316 47.52 104.41 47.52 104.41 121.35 T
110.316 120.805 110.316 47.52 104.41 121.35 T
116.221 47.52 110.316 47.52 110.316 120.805 T
116.221 120.309 116.221 47.52 110.316 120.805 T
122.127 47.52 116.221 47.52 116.221 120.309 T
122.127 119.879 122.127 47.52 116.221 120.309 T
128.033 47.52 122.127 47.52 122.127 119.879 T
128.033 119.571 128.033 47.52 122.127 119.879 T
133.939 47.52 128.033 47.52 128.033 119.571 T
133.939 119.232 133.939 47.52 128.033 119.571 T
139.845 47.52 133.939 47.52 133.939 119.232 T
139.845 118.966 139.845 47.52 133.939 119.232 T
145.751 47.52 139.845 47.52 139.845 118.966 T
145.751 118.736 145.751 47.52 139.845 118.966 T
151.657 47.52 145.751 47.52 145.751 118.736 T
151.657 118.528 151.657 47.52 145.751 118.736 T
157.563 47.52 151.657 47.52 151.657 118.528 T
157.563 118.384 157.563 47.52 151.657 118.528 T
163.469 47.52 157.563 47.52 157.563 118.384 T
163.469 118.228 163.469 47.52 157.563 118.384 T
169.375 47.52 163.469 47.52 163.469 118.228 T
169.375 118.116 169.375 47.52 163.469 118.228 T
175.281 47.52 169.375 47.52 169.375 118.116 T
175.281 118.008 175.281 47.52 169.375 118.116 T
181.187 47.52 175.281 47.52 175.281 118.008 T
181.187 117.91 181.187 47.52 175.281 118.008 T
187.093 47.52 181.187 47.52 181.187 117.91 T
187.093 117.823 187.093 47.52 181.187 117.91 T
0 LC
[] 0 setdash
0 0 0 C
187.093 117.823 LS
181.187 117.91 L
175.281 118.008 L
169.375 118.116 L
163.469 118.228 L
157.563 118.384 L
151.657 118.528 L
145.751 118.736 L
139.845 118.966 L
133.939 119.232 L
128.033 119.571 L
122.127 119.879 L
116.221 120.309 L
110.316 120.805 L
104.41 121.35 L
98.5037 121.933 L
92.5978 121.725 L
86.6918 121.306 L
80.7859 119.796 L
74.88 65.1481 L
74.88 47.52 L
80.7859 47.52 L
86.6918 47.52 L
92.5978 47.52 L
98.5037 47.52 L
104.41 47.52 L
110.316 47.52 L
116.221 47.52 L
122.127 47.52 L
128.033 47.52 L
133.939 47.52 L
139.845 47.52 L
145.751 47.52 L
151.657 47.52 L
157.563 47.52 L
163.469 47.52 L
169.375 47.52 L
175.281 47.52 L
181.187 47.52 L
187.093 47.52 L
187.093 117.823 LE
1 1 1 C
74.88 47.52 80.7859 104.028 80.7859 47.52 T
86.6918 47.52 80.7859 47.52 80.7859 104.028 T
86.6918 117.866 86.6918 47.52 80.7859 104.028 T
92.5978 47.52 86.6918 47.52 86.6918 117.866 T
92.5978 119.674 92.5978 47.52 86.6918 117.866 T
98.5037 47.52 92.5978 47.52 92.5978 119.674 T
98.5037 119.416 98.5037 47.52 92.5978 119.674 T
104.41 47.52 98.5037 47.52 98.5037 119.416 T
104.41 119.028 104.41 47.52 98.5037 119.416 T
110.316 47.52 104.41 47.52 104.41 119.028 T
110.316 118.78 110.316 47.52 104.41 119.028 T
116.221 47.52 110.316 47.52 110.316 118.78 T
116.221 118.611 116.221 47.52 110.316 118.78 T
122.127 47.52 116.221 47.52 116.221 118.611 T
122.127 118.421 122.127 47.52 116.221 118.611 T
128.033 47.52 122.127 47.52 122.127 118.421 T
128.033 118.281 128.033 47.52 122.127 118.421 T
133.939 47.52 128.033 47.52 128.033 118.281 T
133.939 118.091 133.939 47.52 128.033 118.281 T
139.845 47.52 133.939 47.52 133.939 118.091 T
139.845 117.965 139.845 47.52 133.939 118.091 T
145.751 47.52 139.845 47.52 139.845 117.965 T
145.751 117.859 145.751 47.52 139.845 117.965 T
151.657 47.52 145.751 47.52 145.751 117.859 T
151.657 117.759 151.657 47.52 145.751 117.859 T
157.563 47.52 151.657 47.52 151.657 117.759 T
157.563 117.701 157.563 47.52 151.657 117.759 T
163.469 47.52 157.563 47.52 157.563 117.701 T
163.469 117.622 163.469 47.52 157.563 117.701 T
169.375 47.52 163.469 47.52 163.469 117.622 T
169.375 117.573 169.375 47.52 163.469 117.622 T
175.281 47.52 169.375 47.52 169.375 117.573 T
175.281 117.51 175.281 47.52 169.375 117.573 T
181.187 47.52 175.281 47.52 175.281 117.51 T
181.187 117.458 181.187 47.52 175.281 117.51 T
187.093 47.52 181.187 47.52 181.187 117.458 T
187.093 117.419 187.093 47.52 181.187 117.458 T
0 0 0 C
187.093 117.419 LS
181.187 117.458 L
175.281 117.51 L
169.375 117.573 L
163.469 117.622 L
157.563 117.701 L
151.657 117.759 L
145.751 117.859 L
139.845 117.965 L
133.939 118.091 L
128.033 118.281 L
122.127 118.421 L
116.221 118.611 L
110.316 118.78 L
104.41 119.028 L
98.5037 119.416 L
92.5978 119.674 L
86.6918 117.866 L
80.7859 104.028 L
74.88 47.52 L
80.7859 47.52 L
86.6918 47.52 L
92.5978 47.52 L
98.5037 47.52 L
104.41 47.52 L
110.316 47.52 L
116.221 47.52 L
122.127 47.52 L
128.033 47.52 L
133.939 47.52 L
139.845 47.52 L
145.751 47.52 L
151.657 47.52 L
157.563 47.52 L
163.469 47.52 L
169.375 47.52 L
175.281 47.52 L
181.187 47.52 L
187.093 47.52 L
187.093 117.419 LE
3 W
1 LJ
74.88 56.5111 LS
80.7859 111.35 L
86.6918 119.585 L
92.5978 120.742 L
98.5037 120.606 L
104.41 120.231 L
110.316 119.843 L
116.221 119.489 L
122.127 119.179 L
128.033 118.911 L
133.939 118.679 L
139.845 118.48 L
145.751 118.309 L
151.657 118.162 L
157.563 118.036 L
163.469 117.927 L
169.375 117.833 L
175.281 117.752 L
181.187 117.682 L
187.093 117.622 LE
grestore
gsave
1.0 1.0 scale
newpath 0 0 moveto 576 0 lineto 576 432 lineto 0 432 lineto
closepath clip
1 1 1 C
241.974 121.933 354.186 47.52 241.974 47.52 T
241.974 121.933 354.186 121.933 354.186 47.52 T
0.5 W
0.15 0.15 0.15 C
265.597 47.52 LS
265.597 48.6484 LE
265.597 121.933 LS
265.597 120.805 LE
295.127 47.52 LS
295.127 48.6484 LE
295.127 121.933 LS
295.127 120.805 LE
324.657 47.52 LS
324.657 48.6484 LE
324.657 121.933 LS
324.657 120.805 LE
354.186 47.52 LS
354.186 48.6484 LE
354.186 121.933 LS
354.186 120.805 LE
gsave
0.14902 0.14902 0.14902 C
(5) [10] 0 262.597 31.9781 10 /Helvetica SRX
grestore

gsave
0.14902 0.14902 0.14902 C
(10) [6 10] 0 289.127 31.9781 10 /Helvetica SRX
grestore

gsave
0.14902 0.14902 0.14902 C
(15) [6 10] 0 318.657 31.9781 10 /Helvetica SRX
grestore

gsave
0.14902 0.14902 0.14902 C
(20) [6 10] 0 348.186 31.9781 10 /Helvetica SRX
grestore

241.974 53.5101 LS
243.098 53.5101 LE
354.186 53.5101 LS
353.062 53.5101 LE
241.974 64.381 LS
243.098 64.381 LE
354.186 64.381 LS
353.062 64.381 LE
241.974 75.2518 LS
243.098 75.2518 LE
354.186 75.2518 LS
353.062 75.2518 LE
241.974 86.1226 LS
243.098 86.1226 LE
354.186 86.1226 LS
353.062 86.1226 LE
241.974 96.9935 LS
243.098 96.9935 LE
354.186 96.9935 LS
353.062 96.9935 LE
241.974 107.864 LS
243.098 107.864 LE
354.186 107.864 LS
353.062 107.864 LE
241.974 118.735 LS
243.098 118.735 LE
354.186 118.735 LS
353.062 118.735 LE
gsave
0.14902 0.14902 0.14902 C
(-0.06) [3 6 3 6 10] 0 212.964 49.5101 10 /Helvetica SRX
grestore

gsave
0.14902 0.14902 0.14902 C
(-0.05) [3 6 3 6 10] 0 212.964 60.381 10 /Helvetica SRX
grestore

gsave
0.14902 0.14902 0.14902 C
(-0.04) [3 6 3 6 10] 0 212.964 71.2518 10 /Helvetica SRX
grestore

gsave
0.14902 0.14902 0.14902 C
(-0.03) [3 6 3 6 10] 0 212.964 82.1226 10 /Helvetica SRX
grestore

gsave
0.14902 0.14902 0.14902 C
(-0.02) [3 6 3 6 10] 0 212.964 92.9935 10 /Helvetica SRX
grestore

gsave
0.14902 0.14902 0.14902 C
(-0.01) [3 6 3 6 10] 0 212.964 103.864 10 /Helvetica SRX
grestore

gsave
0.14902 0.14902 0.14902 C
(0) [10] 0 230.964 114.735 10 /Helvetica SRX
grestore

2 LC
[16 0] 0 setdash
241.974 47.52 LS
354.186 47.52 LE
241.974 121.933 LS
354.186 121.933 LE
241.974 47.52 LS
241.974 121.933 LE
354.186 47.52 LS
354.186 121.933 LE
gsave
0 0 0 C
(I_N_hat) [3 6 8 6 7 6 10] 0 278.08 133.933 11 /Helvetica-Bold SRX
grestore

0.9 0.9 0.9 C
241.974 47.52 241.974 65.5451 247.88 47.52 T
247.88 119.47 247.88 47.52 241.974 65.5451 T
253.786 47.52 247.88 47.52 247.88 119.47 T
253.786 121.422 253.786 47.52 247.88 119.47 T
259.691 47.52 253.786 47.52 253.786 121.422 T
259.691 121.866 259.691 47.52 253.786 121.422 T
265.597 47.52 259.691 47.52 259.691 121.866 T
265.597 121.933 265.597 47.52 259.691 121.866 T
271.503 47.52 265.597 47.52 265.597 121.933 T
271.503 121.559 271.503 47.52 265.597 121.933 T
277.409 47.52 271.503 47.52 271.503 121.559 T
277.409 121.025 277.409 47.52 271.503 121.559 T
283.315 47.52 277.409 47.52 277.409 121.025 T
283.315 120.459 283.315 47.52 277.409 121.025 T
289.221 47.52 283.315 47.52 283.315 120.459 T
289.221 120.121 289.221 47.52 283.315 120.459 T
295.127 47.52 289.221 47.52 289.221 120.121 T
295.127 119.777 295.127 47.52 289.221 120.121 T
301.033 47.52 295.127 47.52 295.127 119.777 T
301.033 119.501 301.033 47.52 295.127 119.777 T
306.939 47.52 301.033 47.52 301.033 119.501 T
306.939 119.303 306.939 47.52 301.033 119.501 T
312.845 47.52 306.939 47.52 306.939 119.303 T
312.845 119.094 312.845 47.52 306.939 119.303 T
318.751 47.52 312.845 47.52 312.845 119.094 T
318.751 118.927 318.751 47.52 312.845 119.094 T
324.657 47.52 318.751 47.52 318.751 118.927 T
324.657 118.798 324.657 47.52 318.751 118.927 T
330.563 47.52 324.657 47.52 324.657 118.798 T
330.563 118.665 330.563 47.52 324.657 118.798 T
336.469 47.52 330.563 47.52 330.563 118.665 T
336.469 118.598 336.469 47.52 330.563 118.665 T
342.374 47.52 336.469 47.52 336.469 118.598 T
342.374 118.518 342.374 47.52 336.469 118.598 T
348.28 47.52 342.374 47.52 342.374 118.518 T
348.28 118.455 348.28 47.52 342.374 118.518 T
354.186 47.52 348.28 47.52 348.28 118.455 T
354.186 118.421 354.186 47.52 348.28 118.455 T
0 LC
[] 0 setdash
0 0 0 C
354.186 118.421 LS
348.28 118.455 L
342.374 118.518 L
336.469 118.598 L
330.563 118.665 L
324.657 118.798 L
318.751 118.927 L
312.845 119.094 L
306.939 119.303 L
301.033 119.501 L
295.127 119.777 L
289.221 120.121 L
283.315 120.459 L
277.409 121.025 L
271.503 121.559 L
265.597 121.933 L
259.691 121.866 L
253.786 121.422 L
247.88 119.47 L
241.974 65.5451 L
241.974 47.52 L
247.88 47.52 L
253.786 47.52 L
259.691 47.52 L
265.597 47.52 L
271.503 47.52 L
277.409 47.52 L
283.315 47.52 L
289.221 47.52 L
295.127 47.52 L
301.033 47.52 L
306.939 47.52 L
312.845 47.52 L
318.751 47.52 L
324.657 47.52 L
330.563 47.52 L
336.469 47.52 L
342.374 47.52 L
348.28 47.52 L
354.186 47.52 L
354.186 118.421 LE
1 1 1 C
241.974 47.52 247.88 103.039 247.88 47.52 T
253.786 47.52 247.88 47.52 247.88 103.039 T
253.786 117.678 253.786 47.52 247.88 103.039 T
259.691 47.52 253.786 47.52 253.786 117.678 T
259.691 119.834 259.691 47.52 253.786 117.678 T
265.597 47.52 259.691 47.52 259.691 119.834 T
265.597 119.563 265.597 47.52 259.691 119.834 T
271.503 47.52 265.597 47.52 265.597 119.563 T
271.503 119.338 271.503 47.52 265.597 119.563 T
277.409 47.52 271.503 47.52 271.503 119.338 T
277.409 119.168 277.409 47.52 271.503 119.338 T
283.315 47.52 277.409 47.52 277.409 119.168 T
283.315 118.949 283.315 47.52 277.409 119.168 T
289.221 47.52 283.315 47.52 283.315 118.949 T
289.221 118.813 289.221 47.52 283.315 118.949 T
295.127 47.52 289.221 47.52 289.221 118.813 T
295.127 118.649 295.127 47.52 289.221 118.813 T
301.033 47.52 295.127 47.52 295.127 118.649 T
301.033 118.531 301.033 47.52 295.127 118.649 T
306.939 47.52 301.033 47.52 301.033 118.531 T
306.939 118.451 306.939 47.52 301.033 118.531 T
312.845 47.52 306.939 47.52 306.939 118.451 T
312.845 118.334 312.845 47.52 306.939 118.451 T
318.751 47.52 312.845 47.52 312.845 118.334 T
318.751 118.251 318.751 47.52 312.845 118.334 T
324.657 47.52 318.751 47.52 318.751 118.251 T
324.657 118.198 324.657 47.52 318.751 118.251 T
330.563 47.52 324.657 47.52 324.657 118.198 T
330.563 118.119 330.563 47.52 324.657 118.198 T
336.469 47.52 330.563 47.52 330.563 118.119 T
336.469 118.095 336.469 47.52 330.563 118.119 T
342.374 47.52 336.469 47.52 336.469 118.095 T
342.374 118.054 342.374 47.52 336.469 118.095 T
348.28 47.52 342.374 47.52 342.374 118.054 T
348.28 118.018 348.28 47.52 342.374 118.054 T
354.186 47.52 348.28 47.52 348.28 118.018 T
354.186 118.013 354.186 47.52 348.28 118.018 T
0 0 0 C
354.186 118.013 LS
348.28 118.018 L
342.374 118.054 L
336.469 118.095 L
330.563 118.119 L
324.657 118.198 L
318.751 118.251 L
312.845 118.334 L
306.939 118.451 L
301.033 118.531 L
295.127 118.649 L
289.221 118.813 L
283.315 118.949 L
277.409 119.168 L
271.503 119.338 L
265.597 119.563 L
259.691 119.834 L
253.786 117.678 L
247.88 103.039 L
241.974 47.52 L
247.88 47.52 L
253.786 47.52 L
259.691 47.52 L
265.597 47.52 L
271.503 47.52 L
277.409 47.52 L
283.315 47.52 L
289.221 47.52 L
295.127 47.52 L
301.033 47.52 L
306.939 47.52 L
312.845 47.52 L
318.751 47.52 L
324.657 47.52 L
330.563 47.52 L
336.469 47.52 L
342.374 47.52 L
348.28 47.52 L
354.186 47.52 L
354.186 118.013 LE
3 W
1 LJ
241.974 56.0395 LS
247.88 111.241 L
253.786 119.618 L
259.691 120.849 L
265.597 120.76 L
271.503 120.424 L
277.409 120.068 L
283.315 119.746 L
289.221 119.467 L
295.127 119.228 L
301.033 119.026 L
306.939 118.856 L
312.845 118.713 L
318.751 118.594 L
324.657 118.494 L
330.563 118.412 L
336.469 118.343 L
342.374 118.287 L
348.28 118.24 L
354.186 118.203 LE
grestore
gsave
1.0 1.0 scale
newpath 0 0 moveto 576 0 lineto 576 432 lineto 0 432 lineto
closepath clip
1 1 1 C
409.067 121.933 521.28 47.52 409.067 47.52 T
409.067 121.933 521.28 121.933 521.28 47.52 T
0.5 W
0.15 0.15 0.15 C
432.691 47.52 LS
432.691 48.6484 LE
432.691 121.933 LS
432.691 120.805 LE
462.221 47.52 LS
462.221 48.6484 LE
462.221 121.933 LS
462.221 120.805 LE
491.75 47.52 LS
491.75 48.6484 LE
491.75 121.933 LS
491.75 120.805 LE
521.28 47.52 LS
521.28 48.6484 LE
521.28 121.933 LS
521.28 120.805 LE
gsave
0.14902 0.14902 0.14902 C
(5) [10] 0 429.691 31.9781 10 /Helvetica SRX
grestore

gsave
0.14902 0.14902 0.14902 C
(10) [6 10] 0 456.221 31.9781 10 /Helvetica SRX
grestore

gsave
0.14902 0.14902 0.14902 C
(15) [6 10] 0 485.75 31.9781 10 /Helvetica SRX
grestore

gsave
0.14902 0.14902 0.14902 C
(20) [6 10] 0 515.28 31.9781 10 /Helvetica SRX
grestore

409.067 57.362 LS
410.192 57.362 LE
521.28 57.362 LS
520.156 57.362 LE
409.067 69.5902 LS
410.192 69.5902 LE
521.28 69.5902 LS
520.156 69.5902 LE
409.067 81.8183 LS
410.192 81.8183 LE
521.28 81.8183 LS
520.156 81.8183 LE
409.067 94.0464 LS
410.192 94.0464 LE
521.28 94.0464 LS
520.156 94.0464 LE
409.067 106.275 LS
410.192 106.275 LE
521.28 106.275 LS
520.156 106.275 LE
409.067 118.503 LS
410.192 118.503 LE
521.28 118.503 LS
520.156 118.503 LE
gsave
0.14902 0.14902 0.14902 C
(-0.05) [3 6 3 6 10] 0 380.058 53.362 10 /Helvetica SRX
grestore

gsave
0.14902 0.14902 0.14902 C
(-0.04) [3 6 3 6 10] 0 380.058 65.5902 10 /Helvetica SRX
grestore

gsave
0.14902 0.14902 0.14902 C
(-0.03) [3 6 3 6 10] 0 380.058 77.8183 10 /Helvetica SRX
grestore

gsave
0.14902 0.14902 0.14902 C
(-0.02) [3 6 3 6 10] 0 380.058 90.0464 10 /Helvetica SRX
grestore

gsave
0.14902 0.14902 0.14902 C
(-0.01) [3 6 3 6 10] 0 380.058 102.275 10 /Helvetica SRX
grestore

gsave
0.14902 0.14902 0.14902 C
(0) [10] 0 398.058 114.503 10 /Helvetica SRX
grestore

2 LC
[16 0] 0 setdash
409.067 47.52 LS
521.28 47.52 LE
409.067 121.933 LS
521.28 121.933 LE
409.067 47.52 LS
409.067 121.933 LE
521.28 47.52 LS
521.28 121.933 LE
gsave
0 0 0 C
(I_C_hat) [3 6 8 6 7 6 10] 0 445.174 133.933 11 /Helvetica-Bold SRX
grestore

0.9 0.9 0.9 C
409.067 47.52 409.067 65.0549 414.973 47.52 T
414.973 120.025 414.973 47.52 409.067 65.0549 T
420.879 47.52 414.973 47.52 414.973 120.025 T
420.879 121.552 420.879 47.52 414.973 120.025 T
426.785 47.52 420.879 47.52 420.879 121.552 T
426.785 121.825 426.785 47.52 420.879 121.552 T
432.691 47.52 426.785 47.52 426.785 121.825 T
432.691 121.933 432.691 47.52 426.785 121.825 T
438.597 47.52 432.691 47.52 432.691 121.933 T
438.597 121.572 438.597 47.52 432.691 121.933 T
444.503 47.52 438.597 47.52 438.597 121.572 T
444.503 120.911 444.503 47.52 438.597 121.572 T
450.409 47.52 444.503 47.52 444.503 120.911 T
450.409 120.463 450.409 47.52 444.503 120.911 T
456.315 47.52 450.409 47.52 450.409 120.463 T
456.315 120.076 456.315 47.52 450.409 120.463 T
462.221 47.52 456.315 47.52 456.315 120.076 T
462.221 119.746 462.221 47.52 456.315 120.076 T
468.127 47.52 462.221 47.52 462.221 119.746 T
468.127 119.5 468.127 47.52 462.221 119.746 T
474.033 47.52 468.127 47.52 468.127 119.5 T
474.033 119.305 474.033 47.52 468.127 119.5 T
479.939 47.52 474.033 47.52 474.033 119.305 T
479.939 119.103 479.939 47.52 474.033 119.305 T
485.844 47.52 479.939 47.52 479.939 119.103 T
485.844 118.95 485.844 47.52 479.939 119.103 T
491.75 47.52 485.844 47.52 485.844 118.95 T
491.75 118.815 491.75 47.52 485.844 118.95 T
497.656 47.52 491.75 47.52 491.75 118.815 T
497.656 118.667 497.656 47.52 491.75 118.815 T
503.562 47.52 497.656 47.52 497.656 118.667 T
503.562 118.545 503.562 47.52 497.656 118.667 T
509.468 47.52 503.562 47.52 503.562 118.545 T
509.468 118.503 509.468 47.52 503.562 118.545 T
515.374 47.52 509.468 47.52 509.468 118.503 T
515.374 118.431 515.374 47.52 509.468 118.503 T
521.28 47.52 515.374 47.52 515.374 118.431 T
521.28 118.362 521.28 47.52 515.374 118.431 T
0 LC
[] 0 setdash
0 0 0 C
521.28 118.362 LS
515.374 118.431 L
509.468 118.503 L
503.562 118.545 L
497.656 118.667 L
491.75 118.815 L
485.844 118.95 L
479.939 119.103 L
474.033 119.305 L
468.127 119.5 L
462.221 119.746 L
456.315 120.076 L
450.409 120.463 L
444.503 120.911 L
438.597 121.572 L
432.691 121.933 L
426.785 121.825 L
420.879 121.552 L
414.973 120.025 L
409.067 65.0549 L
409.067 47.52 L
414.973 47.52 L
420.879 47.52 L
426.785 47.52 L
432.691 47.52 L
438.597 47.52 L
444.503 47.52 L
450.409 47.52 L
456.315 47.52 L
462.221 47.52 L
468.127 47.52 L
474.033 47.52 L
479.939 47.52 L
485.844 47.52 L
491.75 47.52 L
497.656 47.52 L
503.562 47.52 L
509.468 47.52 L
515.374 47.52 L
521.28 47.52 L
521.28 118.362 LE
1 1 1 C
409.067 47.52 414.973 103.768 414.973 47.52 T
420.879 47.52 414.973 47.52 414.973 103.768 T
420.879 117.713 420.879 47.52 414.973 103.768 T
426.785 47.52 420.879 47.52 420.879 117.713 T
426.785 119.843 426.785 47.52 420.879 117.713 T
432.691 47.52 426.785 47.52 426.785 119.843 T
432.691 119.682 432.691 47.52 426.785 119.843 T
438.597 47.52 432.691 47.52 432.691 119.682 T
438.597 119.467 438.597 47.52 432.691 119.682 T
444.503 47.52 438.597 47.52 438.597 119.467 T
444.503 119.129 444.503 47.52 438.597 119.467 T
450.409 47.52 444.503 47.52 444.503 119.129 T
450.409 119.006 450.409 47.52 444.503 119.129 T
456.315 47.52 450.409 47.52 450.409 119.006 T
456.315 118.83 456.315 47.52 450.409 119.006 T
462.221 47.52 456.315 47.52 456.315 118.83 T
462.221 118.677 462.221 47.52 456.315 118.83 T
468.127 47.52 462.221 47.52 462.221 118.677 T
468.127 118.569 468.127 47.52 462.221 118.677 T
474.033 47.52 468.127 47.52 468.127 118.569 T
474.033 118.49 474.033 47.52 468.127 118.569 T
479.939 47.52 474.033 47.52 474.033 118.49 T
479.939 118.378 479.939 47.52 474.033 118.49 T
485.844 47.52 479.939 47.52 479.939 118.378 T
485.844 118.298 485.844 47.52 479.939 118.378 T
491.75 47.52 485.844 47.52 485.844 118.298 T
491.75 118.226 491.75 47.52 485.844 118.298 T
497.656 47.52 491.75 47.52 491.75 118.226 T
497.656 118.139 497.656 47.52 491.75 118.226 T
503.562 47.52 497.656 47.52 497.656 118.139 T
503.562 118.059 503.562 47.52 497.656 118.139 T
509.468 47.52 503.562 47.52 503.562 118.059 T
509.468 118.045 509.468 47.52 503.562 118.059 T
515.374 47.52 509.468 47.52 509.468 118.045 T
515.374 118.008 515.374 47.52 509.468 118.045 T
521.28 47.52 515.374 47.52 515.374 118.008 T
521.28 117.966 521.28 47.52 515.374 118.008 T
0 0 0 C
521.28 117.966 LS
515.374 118.008 L
509.468 118.045 L
503.562 118.059 L
497.656 118.139 L
491.75 118.226 L
485.844 118.298 L
479.939 118.378 L
474.033 118.49 L
468.127 118.569 L
462.221 118.677 L
456.315 118.83 L
450.409 119.006 L
444.503 119.129 L
438.597 119.467 L
432.691 119.682 L
426.785 119.843 L
420.879 117.713 L
414.973 103.768 L
409.067 47.52 L
414.973 47.52 L
420.879 47.52 L
426.785 47.52 L
432.691 47.52 L
438.597 47.52 L
444.503 47.52 L
450.409 47.52 L
456.315 47.52 L
462.221 47.52 L
468.127 47.52 L
474.033 47.52 L
479.939 47.52 L
485.844 47.52 L
491.75 47.52 L
497.656 47.52 L
503.562 47.52 L
509.468 47.52 L
515.374 47.52 L
521.28 47.52 L
521.28 117.966 LE
3 W
1 LJ
409.067 55.8124 LS
414.973 111.275 L
420.879 119.596 L
426.785 120.803 L
432.691 120.718 L
438.597 120.396 L
444.503 120.057 L
450.409 119.749 L
456.315 119.479 L
462.221 119.246 L
468.127 119.046 L
474.033 118.875 L
479.939 118.729 L
485.844 118.604 L
491.75 118.498 L
497.656 118.407 L
503.562 118.329 L
509.468 118.263 L
515.374 118.208 L
521.28 118.16 LE
grestore
grestore
showpage
cleartomark
%%PageTrailer
%%Trailer
end
%%EOF
