%!PS-Adobe-3.0 EPSF-3.0
%%Title: gl2ps_renderer figure
%%Creator: GL2PS 1.4.2, (C) 1999-2020 C. Geuzaine
%%For: Octave
%%CreationDate: Wed Oct  7 07:02:31 2020
%%LanguageLevel: 3
%%DocumentData: Clean7Bit
%%Pages: 1
%%BoundingBox: 0 0 576 432
%%EndComments
%%BeginProlog
/gl2psdict 64 dict def gl2psdict begin
/tryPS3shading false def % set to false to force subdivision
/rThreshold 0.064 def % red component subdivision threshold
/gThreshold 0.034 def % green component subdivision threshold
/bThreshold 0.1 def % blue component subdivision threshold
/BD { bind def } bind def
/C  { setrgbcolor } BD
/G  { 0.082 mul exch 0.6094 mul add exch 0.3086 mul add neg 1.0 add setgray } BD
/W  { setlinewidth } BD
/LC  { setlinecap } BD
/LJ  { setlinejoin } BD
/FC { findfont exch /SH exch def SH scalefont setfont } BD
/SW { dup stringwidth pop } BD
/S  { FC moveto show } BD
/SBC{ FC moveto SW -2 div 0 rmoveto show } BD
/SBR{ FC moveto SW neg 0 rmoveto show } BD
/SCL{ FC moveto 0 SH -2 div rmoveto show } BD
/SCC{ FC moveto SW -2 div SH -2 div rmoveto show } BD
/SCR{ FC moveto SW neg SH -2 div rmoveto show } BD
/STL{ FC moveto 0 SH neg rmoveto show } BD
/STC{ FC moveto SW -2 div SH neg rmoveto show } BD
/STR{ FC moveto SW neg SH neg rmoveto show } BD
/FCT { FC translate 0 0 } BD
/SR  { gsave FCT moveto rotate show grestore } BD
/SRX  { gsave FCT moveto rotate xshow grestore } BD
/SBCR{ gsave FCT moveto rotate SW -2 div 0 rmoveto show grestore } BD
/SBRR{ gsave FCT moveto rotate SW neg 0 rmoveto show grestore } BD
/SCLR{ gsave FCT moveto rotate 0 SH -2 div rmoveto show grestore} BD
/SCCR{ gsave FCT moveto rotate SW -2 div SH -2 div rmoveto show grestore} BD
/SCRR{ gsave FCT moveto rotate SW neg SH -2 div rmoveto show grestore} BD
/STLR{ gsave FCT moveto rotate 0 SH neg rmoveto show grestore } BD
/STCR{ gsave FCT moveto rotate SW -2 div SH neg rmoveto show grestore } BD
/STRR{ gsave FCT moveto rotate SW neg SH neg rmoveto show grestore } BD
/P  { newpath 0.0 360.0 arc closepath fill } BD
/LS { newpath moveto } BD
/L  { lineto } BD
/LE { lineto stroke } BD
/T  { newpath moveto lineto lineto closepath fill } BD
/STshfill {
      /b1 exch def /g1 exch def /r1 exch def /y1 exch def /x1 exch def
      /b2 exch def /g2 exch def /r2 exch def /y2 exch def /x2 exch def
      /b3 exch def /g3 exch def /r3 exch def /y3 exch def /x3 exch def
      gsave << /ShadingType 4 /ColorSpace [/DeviceRGB]
      /DataSource [ 0 x1 y1 r1 g1 b1 0 x2 y2 r2 g2 b2 0 x3 y3 r3 g3 b3 ] >>
      shfill grestore } BD
/Tm { 3 -1 roll 8 -1 roll 13 -1 roll add add 3 div
      3 -1 roll 7 -1 roll 11 -1 roll add add 3 div
      3 -1 roll 6 -1 roll 9 -1 roll add add 3 div C T } BD
/STsplit {
      4 index 15 index add 0.5 mul
      4 index 15 index add 0.5 mul
      4 index 15 index add 0.5 mul
      4 index 15 index add 0.5 mul
      4 index 15 index add 0.5 mul
      5 copy 5 copy 25 15 roll
      9 index 30 index add 0.5 mul
      9 index 30 index add 0.5 mul
      9 index 30 index add 0.5 mul
      9 index 30 index add 0.5 mul
      9 index 30 index add 0.5 mul
      5 copy 5 copy 35 5 roll 25 5 roll 15 5 roll
      4 index 10 index add 0.5 mul
      4 index 10 index add 0.5 mul
      4 index 10 index add 0.5 mul
      4 index 10 index add 0.5 mul
      4 index 10 index add 0.5 mul
      5 copy 5 copy 40 5 roll 25 5 roll 15 5 roll 25 5 roll
      STnoshfill STnoshfill STnoshfill STnoshfill } BD
/STnoshfill {
      2 index 8 index sub abs rThreshold gt
      { STsplit }
      { 1 index 7 index sub abs gThreshold gt
        { STsplit }
        { dup 6 index sub abs bThreshold gt
          { STsplit }
          { 2 index 13 index sub abs rThreshold gt
            { STsplit }
            { 1 index 12 index sub abs gThreshold gt
              { STsplit }
              { dup 11 index sub abs bThreshold gt
                { STsplit }
                { 7 index 13 index sub abs rThreshold gt
                  { STsplit }
                  { 6 index 12 index sub abs gThreshold gt
                    { STsplit }
                    { 5 index 11 index sub abs bThreshold gt
                      { STsplit }
                      { Tm }
                      ifelse }
                    ifelse }
                  ifelse }
                ifelse }
              ifelse }
            ifelse }
          ifelse }
        ifelse }
      ifelse } BD
tryPS3shading
{ /shfill where
  { /ST { STshfill } BD }
  { /ST { STnoshfill } BD }
  ifelse }
{ /ST { STnoshfill } BD }
ifelse
end
%%EndProlog
%%BeginSetup
/DeviceRGB setcolorspace
gl2psdict begin
%%EndSetup
%%Page: 1 1
%%BeginPageSetup
%%EndPageSetup
mark
gsave
1.0 1.0 scale
1 1 1 C
newpath 0 0 moveto 576 0 lineto 576 432 lineto 0 432 lineto
closepath fill
gsave
1.0 1.0 scale
1 1 1 C
newpath 0 0 moveto 576 0 lineto 576 432 lineto 0 432 lineto
closepath fill
newpath 0 0 moveto 576 0 lineto 576 432 lineto 0 432 lineto
closepath clip
1 1 1 C
74.88 385.841 187.093 312.427 74.88 312.427 T
74.88 385.841 187.093 385.841 187.093 312.427 T
0.5 W
0.15 0.15 0.15 C
98.5037 312.427 LS
98.5037 313.556 LE
98.5037 385.841 LS
98.5037 384.712 LE
128.033 312.427 LS
128.033 313.556 LE
128.033 385.841 LS
128.033 384.712 LE
157.563 312.427 LS
157.563 313.556 LE
157.563 385.841 LS
157.563 384.712 LE
187.093 312.427 LS
187.093 313.556 LE
187.093 385.841 LS
187.093 384.712 LE
gsave
0.14902 0.14902 0.14902 C
(5) [10] 0 95.5037 296.885 10 /Helvetica SRX
grestore

gsave
0.14902 0.14902 0.14902 C
(10) [6 10] 0 122.033 296.885 10 /Helvetica SRX
grestore

gsave
0.14902 0.14902 0.14902 C
(15) [6 10] 0 151.563 296.885 10 /Helvetica SRX
grestore

gsave
0.14902 0.14902 0.14902 C
(20) [6 10] 0 181.093 296.885 10 /Helvetica SRX
grestore

74.88 313.595 LS
76.0043 313.595 LE
187.093 313.595 LS
185.968 313.595 LE
74.88 328.544 LS
76.0043 328.544 LE
187.093 328.544 LS
185.968 328.544 LE
74.88 343.493 LS
76.0043 343.493 LE
187.093 343.493 LS
185.968 343.493 LE
74.88 358.442 LS
76.0043 358.442 LE
187.093 358.442 LS
185.968 358.442 LE
74.88 373.391 LS
76.0043 373.391 LE
187.093 373.391 LS
185.968 373.391 LE
gsave
0.14902 0.14902 0.14902 C
(-5e-05) [3 6 5 3 6 10] 0 40.8705 309.595 10 /Helvetica SRX
grestore

gsave
0.14902 0.14902 0.14902 C
(0) [10] 0 63.8705 324.544 10 /Helvetica SRX
grestore

gsave
0.14902 0.14902 0.14902 C
(5e-05) [6 5 3 6 10] 0 43.8705 339.493 10 /Helvetica SRX
grestore

gsave
0.14902 0.14902 0.14902 C
(0.0001) [6 3 6 6 6 10] 0 36.8705 354.442 10 /Helvetica SRX
grestore

gsave
0.14902 0.14902 0.14902 C
(0.00015) [6 3 6 6 6 6 10] 0 30.8705 369.39 10 /Helvetica SRX
grestore

2 LC
[16 0] 0 setdash
74.88 312.427 LS
187.093 312.427 LE
74.88 385.841 LS
187.093 385.841 LE
74.88 312.427 LS
74.88 385.841 LE
187.093 312.427 LS
187.093 385.841 LE
gsave
0 0 0 C
(r_hat) [4 6 7 6 10] 0 117.486 397.841 11 /Helvetica-Bold SRX
grestore

0.9 0.9 0.9 C
74.88 312.427 74.88 328.544 80.7859 312.427 T
80.7859 355.393 80.7859 312.427 74.88 328.544 T
86.6918 312.427 80.7859 312.427 80.7859 355.393 T
86.6918 385.841 86.6918 312.427 80.7859 355.393 T
92.5978 312.427 86.6918 312.427 86.6918 385.841 T
92.5978 380.531 92.5978 312.427 86.6918 385.841 T
98.5037 312.427 92.5978 312.427 92.5978 380.531 T
98.5037 371.445 98.5037 312.427 92.5978 380.531 T
104.41 312.427 98.5037 312.427 98.5037 371.445 T
104.41 363.899 104.41 312.427 98.5037 371.445 T
110.316 312.427 104.41 312.427 104.41 363.899 T
110.316 356.798 110.316 312.427 104.41 363.899 T
116.221 312.427 110.316 312.427 110.316 356.798 T
116.221 350.112 116.221 312.427 110.316 356.798 T
122.127 312.427 116.221 312.427 116.221 350.112 T
122.127 344.034 122.127 312.427 116.221 350.112 T
128.033 312.427 122.127 312.427 122.127 344.034 T
128.033 339.305 128.033 312.427 122.127 344.034 T
133.939 312.427 128.033 312.427 128.033 339.305 T
133.939 335.572 133.939 312.427 128.033 339.305 T
139.845 312.427 133.939 312.427 133.939 335.572 T
139.845 332.468 139.845 312.427 133.939 335.572 T
145.751 312.427 139.845 312.427 139.845 332.468 T
145.751 329.557 145.751 312.427 139.845 332.468 T
151.657 312.427 145.751 312.427 145.751 329.557 T
151.657 327.82 151.657 312.427 145.751 329.557 T
157.563 312.427 151.657 312.427 151.657 327.82 T
157.563 326.24 157.563 312.427 151.657 327.82 T
163.469 312.427 157.563 312.427 157.563 326.24 T
163.469 325.015 163.469 312.427 157.563 326.24 T
169.375 312.427 163.469 312.427 163.469 325.015 T
169.375 324.243 169.375 312.427 163.469 325.015 T
175.281 312.427 169.375 312.427 169.375 324.243 T
175.281 323.486 175.281 312.427 169.375 324.243 T
181.187 312.427 175.281 312.427 175.281 323.486 T
181.187 322.602 181.187 312.427 175.281 323.486 T
187.093 312.427 181.187 312.427 181.187 322.602 T
187.093 321.94 187.093 312.427 181.187 322.602 T
0 LC
[] 0 setdash
0 0 0 C
187.093 321.94 LS
181.187 322.602 L
175.281 323.486 L
169.375 324.243 L
163.469 325.015 L
157.563 326.24 L
151.657 327.82 L
145.751 329.557 L
139.845 332.468 L
133.939 335.572 L
128.033 339.305 L
122.127 344.034 L
116.221 350.112 L
110.316 356.798 L
104.41 363.899 L
98.5037 371.445 L
92.5978 380.531 L
86.6918 385.841 L
80.7859 355.393 L
74.88 328.544 L
74.88 312.427 L
80.7859 312.427 L
86.6918 312.427 L
92.5978 312.427 L
98.5037 312.427 L
104.41 312.427 L
110.316 312.427 L
116.221 312.427 L
122.127 312.427 L
128.033 312.427 L
133.939 312.427 L
139.845 312.427 L
145.751 312.427 L
151.657 312.427 L
157.563 312.427 L
163.469 312.427 L
169.375 312.427 L
175.281 312.427 L
181.187 312.427 L
187.093 312.427 L
187.093 321.94 LE
1 1 1 C
74.88 312.427 74.88 328.544 80.7859 312.427 T
80.7859 335.472 80.7859 312.427 74.88 328.544 T
86.6918 312.427 80.7859 312.427 80.7859 335.472 T
86.6918 343.252 86.6918 312.427 80.7859 335.472 T
92.5978 312.427 86.6918 312.427 86.6918 343.252 T
92.5978 342.321 92.5978 312.427 86.6918 343.252 T
98.5037 312.427 92.5978 312.427 92.5978 342.321 T
98.5037 340.207 98.5037 312.427 92.5978 342.321 T
104.41 312.427 98.5037 312.427 98.5037 340.207 T
104.41 339.03 104.41 312.427 98.5037 340.207 T
110.316 312.427 104.41 312.427 104.41 339.03 T
110.316 337.326 110.316 312.427 104.41 339.03 T
116.221 312.427 110.316 312.427 110.316 337.326 T
116.221 334.894 116.221 312.427 110.316 337.326 T
122.127 312.427 116.221 312.427 116.221 334.894 T
122.127 332.109 122.127 312.427 116.221 334.894 T
128.033 312.427 122.127 312.427 122.127 332.109 T
128.033 330.093 128.033 312.427 122.127 332.109 T
133.939 312.427 128.033 312.427 128.033 330.093 T
133.939 328.127 133.939 312.427 128.033 330.093 T
139.845 312.427 133.939 312.427 133.939 328.127 T
139.845 326.097 139.845 312.427 133.939 328.127 T
145.751 312.427 139.845 312.427 139.845 326.097 T
145.751 323.783 145.751 312.427 139.845 326.097 T
151.657 312.427 145.751 312.427 145.751 323.783 T
151.657 321.951 151.657 312.427 145.751 323.783 T
157.563 312.427 151.657 312.427 151.657 321.951 T
157.563 319.477 157.563 312.427 151.657 321.951 T
163.469 312.427 157.563 312.427 157.563 319.477 T
163.469 317.494 163.469 312.427 157.563 319.477 T
169.375 312.427 163.469 312.427 163.469 317.494 T
169.375 316.047 169.375 312.427 163.469 317.494 T
175.281 312.427 169.375 312.427 169.375 316.047 T
175.281 314.83 175.281 312.427 169.375 316.047 T
181.187 312.427 175.281 312.427 175.281 314.83 T
181.187 313.52 181.187 312.427 175.281 314.83 T
187.093 312.427 181.187 312.427 181.187 313.52 T
0 0 0 C
187.093 312.427 LS
181.187 313.52 L
175.281 314.83 L
169.375 316.047 L
163.469 317.494 L
157.563 319.477 L
151.657 321.951 L
145.751 323.783 L
139.845 326.097 L
133.939 328.127 L
128.033 330.093 L
122.127 332.109 L
116.221 334.894 L
110.316 337.326 L
104.41 339.03 L
98.5037 340.207 L
92.5978 342.321 L
86.6918 343.252 L
80.7859 335.472 L
74.88 328.544 L
74.88 312.427 L
80.7859 312.427 L
86.6918 312.427 L
92.5978 312.427 L
98.5037 312.427 L
104.41 312.427 L
110.316 312.427 L
116.221 312.427 L
122.127 312.427 L
128.033 312.427 L
133.939 312.427 L
139.845 312.427 L
145.751 312.427 L
151.657 312.427 L
157.563 312.427 L
163.469 312.427 L
169.375 312.427 L
175.281 312.427 L
181.187 312.427 L
187.093 312.427 LE
3 W
1 LJ
74.88 328.544 LS
80.7859 345.581 L
86.6918 365.253 L
92.5978 362.374 L
98.5037 356.71 L
104.41 351.195 L
110.316 346.266 L
116.221 341.928 L
122.127 338.117 L
128.033 334.766 L
133.939 331.815 L
139.845 329.217 L
145.751 326.928 L
151.657 324.913 L
157.563 323.14 L
163.469 321.582 L
169.375 320.214 L
175.281 319.017 L
181.187 317.97 L
187.093 317.057 LE
grestore
gsave
1.0 1.0 scale
newpath 0 0 moveto 576 0 lineto 576 432 lineto 0 432 lineto
closepath clip
1 1 1 C
241.974 385.841 354.186 312.427 241.974 312.427 T
241.974 385.841 354.186 385.841 354.186 312.427 T
0.5 W
0.15 0.15 0.15 C
265.597 312.427 LS
265.597 313.556 LE
265.597 385.841 LS
265.597 384.712 LE
295.127 312.427 LS
295.127 313.556 LE
295.127 385.841 LS
295.127 384.712 LE
324.657 312.427 LS
324.657 313.556 LE
324.657 385.841 LS
324.657 384.712 LE
354.186 312.427 LS
354.186 313.556 LE
354.186 385.841 LS
354.186 384.712 LE
gsave
0.14902 0.14902 0.14902 C
(5) [10] 0 262.597 296.885 10 /Helvetica SRX
grestore

gsave
0.14902 0.14902 0.14902 C
(10) [6 10] 0 289.127 296.885 10 /Helvetica SRX
grestore

gsave
0.14902 0.14902 0.14902 C
(15) [6 10] 0 318.657 296.885 10 /Helvetica SRX
grestore

gsave
0.14902 0.14902 0.14902 C
(20) [6 10] 0 348.186 296.885 10 /Helvetica SRX
grestore

241.974 312.427 LS
243.098 312.427 LE
354.186 312.427 LS
353.062 312.427 LE
241.974 334.137 LS
243.098 334.137 LE
354.186 334.137 LS
353.062 334.137 LE
241.974 355.846 LS
243.098 355.846 LE
354.186 355.846 LS
353.062 355.846 LE
241.974 377.555 LS
243.098 377.555 LE
354.186 377.555 LS
353.062 377.555 LE
gsave
0.14902 0.14902 0.14902 C
(0) [10] 0 230.964 308.427 10 /Helvetica SRX
grestore

gsave
0.14902 0.14902 0.14902 C
(0.005) [6 3 6 6 10] 0 209.964 330.137 10 /Helvetica SRX
grestore

gsave
0.14902 0.14902 0.14902 C
(0.01) [6 3 6 10] 0 215.964 351.846 10 /Helvetica SRX
grestore

gsave
0.14902 0.14902 0.14902 C
(0.015) [6 3 6 6 10] 0 209.964 373.555 10 /Helvetica SRX
grestore

2 LC
[16 0] 0 setdash
241.974 312.427 LS
354.186 312.427 LE
241.974 385.841 LS
354.186 385.841 LE
241.974 312.427 LS
241.974 385.841 LE
354.186 312.427 LS
354.186 385.841 LE
gsave
0 0 0 C
(A_T_hat) [8 6 7 6 7 6 10] 0 276.08 397.841 11 /Helvetica-Bold SRX
grestore

0.9 0.9 0.9 C
241.974 312.427 241.974 312.427 247.88 312.427 T
247.88 312.427 247.88 312.427 241.974 312.427 T
253.786 312.427 247.88 312.427 247.88 312.427 T
253.786 385.841 253.786 312.427 247.88 312.427 T
259.691 312.427 253.786 312.427 253.786 385.841 T
259.691 378.464 259.691 312.427 253.786 385.841 T
265.597 312.427 259.691 312.427 259.691 378.464 T
265.597 372.038 265.597 312.427 259.691 378.464 T
271.503 312.427 265.597 312.427 265.597 372.038 T
271.503 364.883 271.503 312.427 265.597 372.038 T
277.409 312.427 271.503 312.427 271.503 364.883 T
277.409 359.611 277.409 312.427 271.503 364.883 T
283.315 312.427 277.409 312.427 277.409 359.611 T
283.315 353.756 283.315 312.427 277.409 359.611 T
289.221 312.427 283.315 312.427 283.315 353.756 T
289.221 349.272 289.221 312.427 283.315 353.756 T
295.127 312.427 289.221 312.427 289.221 349.272 T
295.127 345.12 295.127 312.427 289.221 349.272 T
301.033 312.427 295.127 312.427 295.127 345.12 T
301.033 341.61 301.033 312.427 295.127 345.12 T
306.939 312.427 301.033 312.427 301.033 341.61 T
306.939 338.508 306.939 312.427 301.033 341.61 T
312.845 312.427 306.939 312.427 306.939 338.508 T
312.845 335.809 312.845 312.427 306.939 338.508 T
318.751 312.427 312.845 312.427 312.845 335.809 T
318.751 333.394 318.751 312.427 312.845 335.809 T
324.657 312.427 318.751 312.427 318.751 333.394 T
324.657 331.388 324.657 312.427 318.751 333.394 T
330.563 312.427 324.657 312.427 324.657 331.388 T
330.563 329.446 330.563 312.427 324.657 331.388 T
336.469 312.427 330.563 312.427 330.563 329.446 T
336.469 327.68 336.469 312.427 330.563 329.446 T
342.374 312.427 336.469 312.427 336.469 327.68 T
342.374 326.083 342.374 312.427 336.469 327.68 T
348.28 312.427 342.374 312.427 342.374 326.083 T
348.28 324.502 348.28 312.427 342.374 326.083 T
354.186 312.427 348.28 312.427 348.28 324.502 T
354.186 323.067 354.186 312.427 348.28 324.502 T
0 LC
[] 0 setdash
0 0 0 C
354.186 323.067 LS
348.28 324.502 L
342.374 326.083 L
336.469 327.68 L
330.563 329.446 L
324.657 331.388 L
318.751 333.394 L
312.845 335.809 L
306.939 338.508 L
301.033 341.61 L
295.127 345.12 L
289.221 349.272 L
283.315 353.756 L
277.409 359.611 L
271.503 364.883 L
265.597 372.038 L
259.691 378.464 L
253.786 385.841 L
247.88 312.427 L
241.974 312.427 L
241.974 312.427 L
247.88 312.427 L
253.786 312.427 L
259.691 312.427 L
265.597 312.427 L
271.503 312.427 L
277.409 312.427 L
283.315 312.427 L
289.221 312.427 L
295.127 312.427 L
301.033 312.427 L
306.939 312.427 L
312.845 312.427 L
318.751 312.427 L
324.657 312.427 L
330.563 312.427 L
336.469 312.427 L
342.374 312.427 L
348.28 312.427 L
354.186 312.427 L
354.186 323.067 LE
1 1 1 C
247.88 312.427 253.786 347.658 253.786 312.427 T
259.691 312.427 253.786 312.427 253.786 347.658 T
259.691 344.408 259.691 312.427 253.786 347.658 T
265.597 312.427 259.691 312.427 259.691 344.408 T
265.597 341.704 265.597 312.427 259.691 344.408 T
271.503 312.427 265.597 312.427 265.597 341.704 T
271.503 337.877 271.503 312.427 265.597 341.704 T
277.409 312.427 271.503 312.427 271.503 337.877 T
277.409 335.343 277.409 312.427 271.503 337.877 T
283.315 312.427 277.409 312.427 277.409 335.343 T
283.315 332.353 283.315 312.427 277.409 335.343 T
289.221 312.427 283.315 312.427 283.315 332.353 T
289.221 330.078 289.221 312.427 283.315 332.353 T
295.127 312.427 289.221 312.427 289.221 330.078 T
295.127 327.876 295.127 312.427 289.221 330.078 T
301.033 312.427 295.127 312.427 295.127 327.876 T
301.033 326.14 301.033 312.427 295.127 327.876 T
306.939 312.427 301.033 312.427 301.033 326.14 T
306.939 324.735 306.939 312.427 301.033 326.14 T
312.845 312.427 306.939 312.427 306.939 324.735 T
312.845 323.405 312.845 312.427 306.939 324.735 T
318.751 312.427 312.845 312.427 312.845 323.405 T
318.751 322.276 318.751 312.427 312.845 323.405 T
324.657 312.427 318.751 312.427 318.751 322.276 T
324.657 321.389 324.657 312.427 318.751 322.276 T
330.563 312.427 324.657 312.427 324.657 321.389 T
330.563 320.499 330.563 312.427 324.657 321.389 T
336.469 312.427 330.563 312.427 330.563 320.499 T
336.469 319.614 336.469 312.427 330.563 320.499 T
342.374 312.427 336.469 312.427 336.469 319.614 T
342.374 318.801 342.374 312.427 336.469 319.614 T
348.28 312.427 342.374 312.427 342.374 318.801 T
348.28 317.93 348.28 312.427 342.374 318.801 T
354.186 312.427 348.28 312.427 348.28 317.93 T
354.186 317.121 354.186 312.427 348.28 317.93 T
241.974 312.427 241.974 312.427 247.88 312.427 T
0 0 0 C
247.88 312.427 LS
241.974 312.427 L
241.974 312.427 L
247.88 312.427 LE
354.186 317.121 LS
348.28 317.93 L
342.374 318.801 L
336.469 319.614 L
330.563 320.499 L
324.657 321.389 L
318.751 322.276 L
312.845 323.405 L
306.939 324.735 L
301.033 326.14 L
295.127 327.876 L
289.221 330.078 L
283.315 332.353 L
277.409 335.343 L
271.503 337.877 L
265.597 341.704 L
259.691 344.408 L
253.786 347.658 L
247.88 312.427 L
253.786 312.427 L
259.691 312.427 L
265.597 312.427 L
271.503 312.427 L
277.409 312.427 L
283.315 312.427 L
289.221 312.427 L
295.127 312.427 L
301.033 312.427 L
306.939 312.427 L
312.845 312.427 L
318.751 312.427 L
324.657 312.427 L
330.563 312.427 L
336.469 312.427 L
342.374 312.427 L
348.28 312.427 L
354.186 312.427 L
354.186 317.121 LE
3 W
1 LJ
241.974 312.427 LS
247.88 312.427 L
253.786 368.386 L
259.691 362.315 L
265.597 356.905 L
271.503 352.084 L
277.409 347.788 L
283.315 343.958 L
289.221 340.545 L
295.127 337.503 L
301.033 334.791 L
306.939 332.373 L
312.845 330.218 L
318.751 328.296 L
324.657 326.583 L
330.563 325.055 L
336.469 323.693 L
342.374 322.478 L
348.28 321.394 L
354.186 320.428 LE
grestore
gsave
1.0 1.0 scale
newpath 0 0 moveto 576 0 lineto 576 432 lineto 0 432 lineto
closepath clip
1 1 1 C
409.067 385.841 521.28 312.427 409.067 312.427 T
409.067 385.841 521.28 385.841 521.28 312.427 T
0.5 W
0.15 0.15 0.15 C
432.691 312.427 LS
432.691 313.556 LE
432.691 385.841 LS
432.691 384.712 LE
462.221 312.427 LS
462.221 313.556 LE
462.221 385.841 LS
462.221 384.712 LE
491.75 312.427 LS
491.75 313.556 LE
491.75 385.841 LS
491.75 384.712 LE
521.28 312.427 LS
521.28 313.556 LE
521.28 385.841 LS
521.28 384.712 LE
gsave
0.14902 0.14902 0.14902 C
(5) [10] 0 429.691 296.885 10 /Helvetica SRX
grestore

gsave
0.14902 0.14902 0.14902 C
(10) [6 10] 0 456.221 296.885 10 /Helvetica SRX
grestore

gsave
0.14902 0.14902 0.14902 C
(15) [6 10] 0 485.75 296.885 10 /Helvetica SRX
grestore

gsave
0.14902 0.14902 0.14902 C
(20) [6 10] 0 515.28 296.885 10 /Helvetica SRX
grestore

409.067 318.688 LS
410.192 318.688 LE
521.28 318.688 LS
520.156 318.688 LE
409.067 328.405 LS
410.192 328.405 LE
521.28 328.405 LS
520.156 328.405 LE
409.067 338.121 LS
410.192 338.121 LE
521.28 338.121 LS
520.156 338.121 LE
409.067 347.838 LS
410.192 347.838 LE
521.28 347.838 LS
520.156 347.838 LE
409.067 357.554 LS
410.192 357.554 LE
521.28 357.554 LS
520.156 357.554 LE
409.067 367.271 LS
410.192 367.271 LE
521.28 367.271 LS
520.156 367.271 LE
409.067 376.987 LS
410.192 376.987 LE
521.28 376.987 LS
520.156 376.987 LE
gsave
0.14902 0.14902 0.14902 C
(0.002) [6 3 6 6 10] 0 377.058 314.688 10 /Helvetica SRX
grestore

gsave
0.14902 0.14902 0.14902 C
(0.004) [6 3 6 6 10] 0 377.058 324.405 10 /Helvetica SRX
grestore

gsave
0.14902 0.14902 0.14902 C
(0.006) [6 3 6 6 10] 0 377.058 334.121 10 /Helvetica SRX
grestore

gsave
0.14902 0.14902 0.14902 C
(0.008) [6 3 6 6 10] 0 377.058 343.838 10 /Helvetica SRX
grestore

gsave
0.14902 0.14902 0.14902 C
(0.01) [6 3 6 10] 0 383.058 353.554 10 /Helvetica SRX
grestore

gsave
0.14902 0.14902 0.14902 C
(0.012) [6 3 6 6 10] 0 377.058 363.271 10 /Helvetica SRX
grestore

gsave
0.14902 0.14902 0.14902 C
(0.014) [6 3 6 6 10] 0 377.058 372.987 10 /Helvetica SRX
grestore

2 LC
[16 0] 0 setdash
409.067 312.427 LS
521.28 312.427 LE
409.067 385.841 LS
521.28 385.841 LE
409.067 312.427 LS
409.067 385.841 LE
521.28 312.427 LS
521.28 385.841 LE
gsave
0 0 0 C
(Y_hat) [7 6 7 6 10] 0 450.174 397.841 11 /Helvetica-Bold SRX
grestore

0.9 0.9 0.9 C
409.067 312.427 409.067 319.243 414.973 312.427 T
414.973 325.792 414.973 312.427 409.067 319.243 T
420.879 312.427 414.973 312.427 414.973 325.792 T
420.879 384.415 420.879 312.427 414.973 325.792 T
426.785 312.427 420.879 312.427 420.879 384.415 T
426.785 385.841 426.785 312.427 420.879 384.415 T
432.691 312.427 426.785 312.427 426.785 385.841 T
432.691 382.608 432.691 312.427 426.785 385.841 T
438.597 312.427 432.691 312.427 432.691 382.608 T
438.597 377.964 438.597 312.427 432.691 382.608 T
444.503 312.427 438.597 312.427 438.597 377.964 T
444.503 373.451 444.503 312.427 438.597 377.964 T
450.409 312.427 444.503 312.427 444.503 373.451 T
450.409 368.845 450.409 312.427 444.503 373.451 T
456.315 312.427 450.409 312.427 450.409 368.845 T
456.315 364.591 456.315 312.427 450.409 368.845 T
462.221 312.427 456.315 312.427 456.315 364.591 T
462.221 360.921 462.221 312.427 456.315 364.591 T
468.127 312.427 462.221 312.427 462.221 360.921 T
468.127 357.862 468.127 312.427 462.221 360.921 T
474.033 312.427 468.127 312.427 468.127 357.862 T
474.033 354.529 474.033 312.427 468.127 357.862 T
479.939 312.427 474.033 312.427 474.033 354.529 T
479.939 351.878 479.939 312.427 474.033 354.529 T
485.844 312.427 479.939 312.427 479.939 351.878 T
485.844 349.587 485.844 312.427 479.939 351.878 T
491.75 312.427 485.844 312.427 485.844 349.587 T
491.75 347.66 491.75 312.427 485.844 349.587 T
497.656 312.427 491.75 312.427 491.75 347.66 T
497.656 346.431 497.656 312.427 491.75 347.66 T
503.562 312.427 497.656 312.427 497.656 346.431 T
503.562 344.701 503.562 312.427 497.656 346.431 T
509.468 312.427 503.562 312.427 503.562 344.701 T
509.468 343.201 509.468 312.427 503.562 344.701 T
515.374 312.427 509.468 312.427 509.468 343.201 T
515.374 341.682 515.374 312.427 509.468 343.201 T
521.28 312.427 515.374 312.427 515.374 341.682 T
521.28 340.311 521.28 312.427 515.374 341.682 T
0 LC
[] 0 setdash
0 0 0 C
521.28 340.311 LS
515.374 341.682 L
509.468 343.201 L
503.562 344.701 L
497.656 346.431 L
491.75 347.66 L
485.844 349.587 L
479.939 351.878 L
474.033 354.529 L
468.127 357.862 L
462.221 360.921 L
456.315 364.591 L
450.409 368.845 L
444.503 373.451 L
438.597 377.964 L
432.691 382.608 L
426.785 385.841 L
420.879 384.415 L
414.973 325.792 L
409.067 319.243 L
409.067 312.427 L
414.973 312.427 L
420.879 312.427 L
426.785 312.427 L
432.691 312.427 L
438.597 312.427 L
444.503 312.427 L
450.409 312.427 L
456.315 312.427 L
462.221 312.427 L
468.127 312.427 L
474.033 312.427 L
479.939 312.427 L
485.844 312.427 L
491.75 312.427 L
497.656 312.427 L
503.562 312.427 L
509.468 312.427 L
515.374 312.427 L
521.28 312.427 L
521.28 340.311 LE
1 1 1 C
409.067 312.427 414.973 314.773 414.973 312.427 T
420.879 312.427 414.973 312.427 414.973 314.773 T
420.879 345.964 420.879 312.427 414.973 314.773 T
426.785 312.427 420.879 312.427 420.879 345.964 T
426.785 346.156 426.785 312.427 420.879 345.964 T
432.691 312.427 426.785 312.427 426.785 346.156 T
432.691 344.827 432.691 312.427 426.785 346.156 T
438.597 312.427 432.691 312.427 432.691 344.827 T
438.597 342.657 438.597 312.427 432.691 344.827 T
444.503 312.427 438.597 312.427 438.597 342.657 T
444.503 340.336 444.503 312.427 438.597 342.657 T
450.409 312.427 444.503 312.427 444.503 340.336 T
450.409 337.831 450.409 312.427 444.503 340.336 T
456.315 312.427 450.409 312.427 450.409 337.831 T
456.315 335.646 456.315 312.427 450.409 337.831 T
462.221 312.427 456.315 312.427 456.315 335.646 T
462.221 333.731 462.221 312.427 456.315 335.646 T
468.127 312.427 462.221 312.427 462.221 333.731 T
468.127 332.25 468.127 312.427 462.221 333.731 T
474.033 312.427 468.127 312.427 468.127 332.25 T
474.033 330.414 474.033 312.427 468.127 332.25 T
479.939 312.427 474.033 312.427 474.033 330.414 T
479.939 329.018 479.939 312.427 474.033 330.414 T
485.844 312.427 479.939 312.427 479.939 329.018 T
485.844 327.877 485.844 312.427 479.939 329.018 T
491.75 312.427 485.844 312.427 485.844 327.877 T
491.75 327.098 491.75 312.427 485.844 327.877 T
497.656 312.427 491.75 312.427 491.75 327.098 T
497.656 326.83 497.656 312.427 491.75 327.098 T
503.562 312.427 497.656 312.427 497.656 326.83 T
503.562 326.006 503.562 312.427 497.656 326.83 T
509.468 312.427 503.562 312.427 503.562 326.006 T
509.468 325.331 509.468 312.427 503.562 326.006 T
515.374 312.427 509.468 312.427 509.468 325.331 T
515.374 324.566 515.374 312.427 509.468 325.331 T
521.28 312.427 515.374 312.427 515.374 324.566 T
521.28 323.88 521.28 312.427 515.374 324.566 T
0 0 0 C
521.28 323.88 LS
515.374 324.566 L
509.468 325.331 L
503.562 326.006 L
497.656 326.83 L
491.75 327.098 L
485.844 327.877 L
479.939 329.018 L
474.033 330.414 L
468.127 332.25 L
462.221 333.731 L
456.315 335.646 L
450.409 337.831 L
444.503 340.336 L
438.597 342.657 L
432.691 344.827 L
426.785 346.156 L
420.879 345.964 L
414.973 314.773 L
409.067 312.427 L
414.973 312.427 L
420.879 312.427 L
426.785 312.427 L
432.691 312.427 L
438.597 312.427 L
444.503 312.427 L
450.409 312.427 L
456.315 312.427 L
462.221 312.427 L
468.127 312.427 L
474.033 312.427 L
479.939 312.427 L
485.844 312.427 L
491.75 312.427 L
497.656 312.427 L
503.562 312.427 L
509.468 312.427 L
515.374 312.427 L
521.28 312.427 L
521.28 323.88 LE
3 W
1 LJ
409.067 315.857 LS
414.973 320.558 L
420.879 366.181 L
426.785 367.555 L
432.691 364.899 L
438.597 361.371 L
444.503 357.827 L
450.409 354.511 L
456.315 351.482 L
462.221 348.74 L
468.127 346.269 L
474.033 344.042 L
479.939 342.036 L
485.844 340.228 L
491.75 338.596 L
497.656 337.121 L
503.562 335.786 L
509.468 334.576 L
515.374 333.478 L
521.28 332.479 LE
grestore
gsave
1.0 1.0 scale
newpath 0 0 moveto 576 0 lineto 576 432 lineto 0 432 lineto
closepath clip
1 1 1 C
74.88 253.387 187.093 179.974 74.88 179.974 T
74.88 253.387 187.093 253.387 187.093 179.974 T
0.5 W
0.15 0.15 0.15 C
98.5037 179.974 LS
98.5037 181.102 LE
98.5037 253.387 LS
98.5037 252.258 LE
128.033 179.974 LS
128.033 181.102 LE
128.033 253.387 LS
128.033 252.258 LE
157.563 179.974 LS
157.563 181.102 LE
157.563 253.387 LS
157.563 252.258 LE
187.093 179.974 LS
187.093 181.102 LE
187.093 253.387 LS
187.093 252.258 LE
gsave
0.14902 0.14902 0.14902 C
(5) [10] 0 95.5037 164.431 10 /Helvetica SRX
grestore

gsave
0.14902 0.14902 0.14902 C
(10) [6 10] 0 122.033 164.431 10 /Helvetica SRX
grestore

gsave
0.14902 0.14902 0.14902 C
(15) [6 10] 0 151.563 164.431 10 /Helvetica SRX
grestore

gsave
0.14902 0.14902 0.14902 C
(20) [6 10] 0 181.093 164.431 10 /Helvetica SRX
grestore

74.88 183.795 LS
76.0043 183.795 LE
187.093 183.795 LS
185.968 183.795 LE
74.88 197.598 LS
76.0043 197.598 LE
187.093 197.598 LS
185.968 197.598 LE
74.88 211.401 LS
76.0043 211.401 LE
187.093 211.401 LS
185.968 211.401 LE
74.88 225.205 LS
76.0043 225.205 LE
187.093 225.205 LS
185.968 225.205 LE
74.88 239.008 LS
76.0043 239.008 LE
187.093 239.008 LS
185.968 239.008 LE
74.88 252.811 LS
76.0043 252.811 LE
187.093 252.811 LS
185.968 252.811 LE
gsave
0.14902 0.14902 0.14902 C
(0.001) [6 3 6 6 10] 0 42.8705 179.795 10 /Helvetica SRX
grestore

gsave
0.14902 0.14902 0.14902 C
(0.002) [6 3 6 6 10] 0 42.8705 193.598 10 /Helvetica SRX
grestore

gsave
0.14902 0.14902 0.14902 C
(0.003) [6 3 6 6 10] 0 42.8705 207.401 10 /Helvetica SRX
grestore

gsave
0.14902 0.14902 0.14902 C
(0.004) [6 3 6 6 10] 0 42.8705 221.205 10 /Helvetica SRX
grestore

gsave
0.14902 0.14902 0.14902 C
(0.005) [6 3 6 6 10] 0 42.8705 235.008 10 /Helvetica SRX
grestore

gsave
0.14902 0.14902 0.14902 C
(0.006) [6 3 6 6 10] 0 42.8705 248.811 10 /Helvetica SRX
grestore

2 LC
[16 0] 0 setdash
74.88 179.974 LS
187.093 179.974 LE
74.88 253.387 LS
187.093 253.387 LE
74.88 179.974 LS
74.88 253.387 LE
187.093 179.974 LS
187.093 253.387 LE
gsave
0 0 0 C
(C_hat) [8 6 7 6 10] 0 115.486 265.387 11 /Helvetica-Bold SRX
grestore

0.9 0.9 0.9 C
74.88 179.974 74.88 192.608 80.7859 179.974 T
80.7859 207.101 80.7859 179.974 74.88 192.608 T
86.6918 179.974 80.7859 179.974 80.7859 207.101 T
86.6918 237.308 86.6918 179.974 80.7859 207.101 T
92.5978 179.974 86.6918 179.974 86.6918 237.308 T
92.5978 248.205 92.5978 179.974 86.6918 237.308 T
98.5037 179.974 92.5978 179.974 92.5978 248.205 T
98.5037 253.387 98.5037 179.974 92.5978 248.205 T
104.41 179.974 98.5037 179.974 98.5037 253.387 T
104.41 252.54 104.41 179.974 98.5037 253.387 T
110.316 179.974 104.41 179.974 104.41 252.54 T
110.316 251.285 110.316 179.974 104.41 252.54 T
116.221 179.974 110.316 179.974 110.316 251.285 T
116.221 248.823 116.221 179.974 110.316 251.285 T
122.127 179.974 116.221 179.974 116.221 248.823 T
122.127 245.902 122.127 179.974 116.221 248.823 T
128.033 179.974 122.127 179.974 122.127 245.902 T
128.033 244.077 128.033 179.974 122.127 245.902 T
133.939 179.974 128.033 179.974 128.033 244.077 T
133.939 241.525 133.939 179.974 128.033 244.077 T
139.845 179.974 133.939 179.974 133.939 241.525 T
139.845 240.763 139.845 179.974 133.939 241.525 T
145.751 179.974 139.845 179.974 139.845 240.763 T
145.751 238.886 145.751 179.974 139.845 240.763 T
151.657 179.974 145.751 179.974 145.751 238.886 T
151.657 237.293 151.657 179.974 145.751 238.886 T
157.563 179.974 151.657 179.974 151.657 237.293 T
157.563 235.823 157.563 179.974 151.657 237.293 T
163.469 179.974 157.563 179.974 157.563 235.823 T
163.469 234.274 163.469 179.974 157.563 235.823 T
169.375 179.974 163.469 179.974 163.469 234.274 T
169.375 233.154 169.375 179.974 163.469 234.274 T
175.281 179.974 169.375 179.974 169.375 233.154 T
175.281 232.079 175.281 179.974 169.375 233.154 T
181.187 179.974 175.281 179.974 175.281 232.079 T
181.187 231.036 181.187 179.974 175.281 232.079 T
187.093 179.974 181.187 179.974 181.187 231.036 T
187.093 230.127 187.093 179.974 181.187 231.036 T
0 LC
[] 0 setdash
0 0 0 C
187.093 230.127 LS
181.187 231.036 L
175.281 232.079 L
169.375 233.154 L
163.469 234.274 L
157.563 235.823 L
151.657 237.293 L
145.751 238.886 L
139.845 240.763 L
133.939 241.525 L
128.033 244.077 L
122.127 245.902 L
116.221 248.823 L
110.316 251.285 L
104.41 252.54 L
98.5037 253.387 L
92.5978 248.205 L
86.6918 237.308 L
80.7859 207.101 L
74.88 192.608 L
74.88 179.974 L
80.7859 179.974 L
86.6918 179.974 L
92.5978 179.974 L
98.5037 179.974 L
104.41 179.974 L
110.316 179.974 L
116.221 179.974 L
122.127 179.974 L
128.033 179.974 L
133.939 179.974 L
139.845 179.974 L
145.751 179.974 L
151.657 179.974 L
157.563 179.974 L
163.469 179.974 L
169.375 179.974 L
175.281 179.974 L
181.187 179.974 L
187.093 179.974 L
187.093 230.127 LE
1 1 1 C
74.88 179.974 80.7859 186.918 80.7859 179.974 T
86.6918 179.974 80.7859 179.974 80.7859 186.918 T
86.6918 203.494 86.6918 179.974 80.7859 186.918 T
92.5978 179.974 86.6918 179.974 86.6918 203.494 T
92.5978 208.161 92.5978 179.974 86.6918 203.494 T
98.5037 179.974 92.5978 179.974 92.5978 208.161 T
98.5037 211.325 98.5037 179.974 92.5978 208.161 T
104.41 179.974 98.5037 179.974 98.5037 211.325 T
104.41 210.743 104.41 179.974 98.5037 211.325 T
110.316 179.974 104.41 179.974 104.41 210.743 T
110.316 210.046 110.316 179.974 104.41 210.743 T
116.221 179.974 110.316 179.974 110.316 210.046 T
116.221 208.384 116.221 179.974 110.316 210.046 T
122.127 179.974 116.221 179.974 116.221 208.384 T
122.127 206.496 122.127 179.974 116.221 208.384 T
128.033 179.974 122.127 179.974 122.127 206.496 T
128.033 205.752 128.033 179.974 122.127 206.496 T
133.939 179.974 128.033 179.974 128.033 205.752 T
133.939 204.039 133.939 179.974 128.033 205.752 T
139.845 179.974 133.939 179.974 133.939 204.039 T
139.845 204.28 139.845 179.974 133.939 204.039 T
145.751 179.974 139.845 179.974 139.845 204.28 T
145.751 203.316 145.751 179.974 139.845 204.28 T
151.657 179.974 145.751 179.974 145.751 203.316 T
151.657 202.545 151.657 179.974 145.751 203.316 T
157.563 179.974 151.657 179.974 151.657 202.545 T
157.563 201.678 157.563 179.974 151.657 202.545 T
163.469 179.974 157.563 179.974 157.563 201.678 T
163.469 200.891 163.469 179.974 157.563 201.678 T
169.375 179.974 163.469 179.974 163.469 200.891 T
169.375 200.325 169.375 179.974 163.469 200.891 T
175.281 179.974 169.375 179.974 169.375 200.325 T
175.281 199.74 175.281 179.974 169.375 200.325 T
181.187 179.974 175.281 179.974 175.281 199.74 T
181.187 199.22 181.187 179.974 175.281 199.74 T
187.093 179.974 181.187 179.974 181.187 199.22 T
187.093 198.744 187.093 179.974 181.187 199.22 T
0 0 0 C
187.093 198.744 LS
181.187 199.22 L
175.281 199.74 L
169.375 200.325 L
163.469 200.891 L
157.563 201.678 L
151.657 202.545 L
145.751 203.316 L
139.845 204.28 L
133.939 204.039 L
128.033 205.752 L
122.127 206.496 L
116.221 208.384 L
110.316 210.046 L
104.41 210.743 L
98.5037 211.325 L
92.5978 208.161 L
86.6918 203.494 L
80.7859 186.918 L
74.88 179.974 L
80.7859 179.974 L
86.6918 179.974 L
92.5978 179.974 L
98.5037 179.974 L
104.41 179.974 L
110.316 179.974 L
116.221 179.974 L
122.127 179.974 L
128.033 179.974 L
133.939 179.974 L
139.845 179.974 L
145.751 179.974 L
151.657 179.974 L
157.563 179.974 L
163.469 179.974 L
169.375 179.974 L
175.281 179.974 L
181.187 179.974 L
187.093 179.974 L
187.093 198.744 LE
3 W
1 LJ
74.88 186.544 LS
80.7859 197.039 L
86.6918 220.58 L
92.5978 229.665 L
98.5037 232.322 L
104.41 232.287 L
110.316 231.127 L
116.221 229.543 L
122.127 227.855 L
128.033 226.207 L
133.939 224.661 L
139.845 223.236 L
145.751 221.934 L
151.657 220.747 L
157.563 219.666 L
163.469 218.68 L
169.375 217.776 L
175.281 216.947 L
181.187 216.182 L
187.093 215.473 LE
grestore
gsave
1.0 1.0 scale
newpath 0 0 moveto 576 0 lineto 576 432 lineto 0 432 lineto
closepath clip
1 1 1 C
241.974 253.387 354.186 179.974 241.974 179.974 T
241.974 253.387 354.186 253.387 354.186 179.974 T
0.5 W
0.15 0.15 0.15 C
265.597 179.974 LS
265.597 181.102 LE
265.597 253.387 LS
265.597 252.258 LE
295.127 179.974 LS
295.127 181.102 LE
295.127 253.387 LS
295.127 252.258 LE
324.657 179.974 LS
324.657 181.102 LE
324.657 253.387 LS
324.657 252.258 LE
354.186 179.974 LS
354.186 181.102 LE
354.186 253.387 LS
354.186 252.258 LE
gsave
0.14902 0.14902 0.14902 C
(5) [10] 0 262.597 164.431 10 /Helvetica SRX
grestore

gsave
0.14902 0.14902 0.14902 C
(10) [6 10] 0 289.127 164.431 10 /Helvetica SRX
grestore

gsave
0.14902 0.14902 0.14902 C
(15) [6 10] 0 318.657 164.431 10 /Helvetica SRX
grestore

gsave
0.14902 0.14902 0.14902 C
(20) [6 10] 0 348.186 164.431 10 /Helvetica SRX
grestore

241.974 183.798 LS
243.098 183.798 LE
354.186 183.798 LS
353.062 183.798 LE
241.974 197.951 LS
243.098 197.951 LE
354.186 197.951 LS
353.062 197.951 LE
241.974 212.105 LS
243.098 212.105 LE
354.186 212.105 LS
353.062 212.105 LE
241.974 226.258 LS
243.098 226.258 LE
354.186 226.258 LS
353.062 226.258 LE
241.974 240.411 LS
243.098 240.411 LE
354.186 240.411 LS
353.062 240.411 LE
gsave
0.14902 0.14902 0.14902 C
(0.005) [6 3 6 6 10] 0 209.964 179.798 10 /Helvetica SRX
grestore

gsave
0.14902 0.14902 0.14902 C
(0.01) [6 3 6 10] 0 215.964 193.951 10 /Helvetica SRX
grestore

gsave
0.14902 0.14902 0.14902 C
(0.015) [6 3 6 6 10] 0 209.964 208.105 10 /Helvetica SRX
grestore

gsave
0.14902 0.14902 0.14902 C
(0.02) [6 3 6 10] 0 215.964 222.258 10 /Helvetica SRX
grestore

gsave
0.14902 0.14902 0.14902 C
(0.025) [6 3 6 6 10] 0 209.964 236.411 10 /Helvetica SRX
grestore

2 LC
[16 0] 0 setdash
241.974 179.974 LS
354.186 179.974 LE
241.974 253.387 LS
354.186 253.387 LE
241.974 179.974 LS
241.974 253.387 LE
354.186 179.974 LS
354.186 253.387 LE
gsave
0 0 0 C
(I_hat) [3 6 7 6 10] 0 285.08 265.387 11 /Helvetica-Bold SRX
grestore

0.9 0.9 0.9 C
241.974 179.974 241.974 251.095 247.88 179.974 T
247.88 253.387 247.88 179.974 241.974 251.095 T
253.786 179.974 247.88 179.974 247.88 253.387 T
253.786 244.662 253.786 179.974 247.88 253.387 T
259.691 179.974 253.786 179.974 253.786 244.662 T
259.691 237.878 259.691 179.974 253.786 244.662 T
265.597 179.974 259.691 179.974 259.691 237.878 T
265.597 232.366 265.597 179.974 259.691 237.878 T
271.503 179.974 265.597 179.974 265.597 232.366 T
271.503 227.164 271.503 179.974 265.597 232.366 T
277.409 179.974 271.503 179.974 271.503 227.164 T
277.409 220.695 277.409 179.974 271.503 227.164 T
283.315 179.974 277.409 179.974 277.409 220.695 T
283.315 217.6 283.315 179.974 277.409 220.695 T
289.221 179.974 283.315 179.974 283.315 217.6 T
289.221 213.759 289.221 179.974 283.315 217.6 T
295.127 179.974 289.221 179.974 289.221 213.759 T
295.127 210.286 295.127 179.974 289.221 213.759 T
301.033 179.974 295.127 179.974 295.127 210.286 T
301.033 207.171 301.033 179.974 295.127 210.286 T
306.939 179.974 301.033 179.974 301.033 207.171 T
306.939 204.712 306.939 179.974 301.033 207.171 T
312.845 179.974 306.939 179.974 306.939 204.712 T
312.845 202.386 312.845 179.974 306.939 204.712 T
318.751 179.974 312.845 179.974 312.845 202.386 T
318.751 200.288 318.751 179.974 312.845 202.386 T
324.657 179.974 318.751 179.974 318.751 200.288 T
324.657 198.611 324.657 179.974 318.751 200.288 T
330.563 179.974 324.657 179.974 324.657 198.611 T
330.563 196.824 330.563 179.974 324.657 198.611 T
336.469 179.974 330.563 179.974 330.563 196.824 T
336.469 195.047 336.469 179.974 330.563 196.824 T
342.374 179.974 336.469 179.974 336.469 195.047 T
342.374 193.636 342.374 179.974 336.469 195.047 T
348.28 179.974 342.374 179.974 342.374 193.636 T
348.28 192.588 348.28 179.974 342.374 193.636 T
354.186 179.974 348.28 179.974 348.28 192.588 T
354.186 191.384 354.186 179.974 348.28 192.588 T
0 LC
[] 0 setdash
0 0 0 C
354.186 191.384 LS
348.28 192.588 L
342.374 193.636 L
336.469 195.047 L
330.563 196.824 L
324.657 198.611 L
318.751 200.288 L
312.845 202.386 L
306.939 204.712 L
301.033 207.171 L
295.127 210.286 L
289.221 213.759 L
283.315 217.6 L
277.409 220.695 L
271.503 227.164 L
265.597 232.366 L
259.691 237.878 L
253.786 244.662 L
247.88 253.387 L
241.974 251.095 L
241.974 179.974 L
247.88 179.974 L
253.786 179.974 L
259.691 179.974 L
265.597 179.974 L
271.503 179.974 L
277.409 179.974 L
283.315 179.974 L
289.221 179.974 L
295.127 179.974 L
301.033 179.974 L
306.939 179.974 L
312.845 179.974 L
318.751 179.974 L
324.657 179.974 L
330.563 179.974 L
336.469 179.974 L
342.374 179.974 L
348.28 179.974 L
354.186 179.974 L
354.186 191.384 LE
1 1 1 C
241.974 179.974 241.974 210.27 247.88 179.974 T
247.88 211.624 247.88 179.974 241.974 210.27 T
253.786 179.974 247.88 179.974 247.88 211.624 T
253.786 206.921 253.786 179.974 247.88 211.624 T
259.691 179.974 253.786 179.974 253.786 206.921 T
259.691 203.666 259.691 179.974 253.786 206.921 T
265.597 179.974 259.691 179.974 259.691 203.666 T
265.597 201.037 265.597 179.974 259.691 203.666 T
271.503 179.974 265.597 179.974 265.597 201.037 T
271.503 198.38 271.503 179.974 265.597 201.037 T
277.409 179.974 271.503 179.974 271.503 198.38 T
277.409 194.349 277.409 179.974 271.503 198.38 T
283.315 179.974 277.409 179.974 277.409 194.349 T
283.315 193.335 283.315 179.974 277.409 194.349 T
289.221 179.974 283.315 179.974 283.315 193.335 T
289.221 191.275 289.221 179.974 283.315 193.335 T
295.127 179.974 289.221 179.974 289.221 191.275 T
295.127 189.424 295.127 179.974 289.221 191.275 T
301.033 179.974 295.127 179.974 295.127 189.424 T
301.033 187.802 301.033 179.974 295.127 189.424 T
306.939 179.974 301.033 179.974 301.033 187.802 T
306.939 186.643 306.939 179.974 301.033 187.802 T
312.845 179.974 306.939 179.974 306.939 186.643 T
312.845 185.507 312.845 179.974 306.939 186.643 T
318.751 179.974 312.845 179.974 312.845 185.507 T
318.751 184.459 318.751 179.974 312.845 185.507 T
324.657 179.974 318.751 179.974 318.751 184.459 T
324.657 183.669 324.657 179.974 318.751 184.459 T
330.563 179.974 324.657 179.974 324.657 183.669 T
330.563 182.721 330.563 179.974 324.657 183.669 T
336.469 179.974 330.563 179.974 330.563 182.721 T
336.469 181.713 336.469 179.974 330.563 182.721 T
342.374 179.974 336.469 179.974 336.469 181.713 T
342.374 181.006 342.374 179.974 336.469 181.713 T
348.28 179.974 342.374 179.974 342.374 181.006 T
348.28 180.584 348.28 179.974 342.374 181.006 T
354.186 179.974 348.28 179.974 348.28 180.584 T
0 0 0 C
354.186 179.974 LS
348.28 180.584 L
342.374 181.006 L
336.469 181.713 L
330.563 182.721 L
324.657 183.669 L
318.751 184.459 L
312.845 185.507 L
306.939 186.643 L
301.033 187.802 L
295.127 189.424 L
289.221 191.275 L
283.315 193.335 L
277.409 194.349 L
271.503 198.38 L
265.597 201.037 L
259.691 203.666 L
253.786 206.921 L
247.88 211.624 L
241.974 210.27 L
241.974 179.974 L
247.88 179.974 L
253.786 179.974 L
259.691 179.974 L
265.597 179.974 L
271.503 179.974 L
277.409 179.974 L
283.315 179.974 L
289.221 179.974 L
295.127 179.974 L
301.033 179.974 L
306.939 179.974 L
312.845 179.974 L
318.751 179.974 L
324.657 179.974 L
330.563 179.974 L
336.469 179.974 L
342.374 179.974 L
348.28 179.974 L
354.186 179.974 LE
3 W
1 LJ
241.974 229.109 LS
247.88 230.676 L
253.786 224.64 L
259.691 219.904 L
265.597 215.648 L
271.503 211.787 L
277.409 208.302 L
283.315 205.168 L
289.221 202.358 L
295.127 199.84 L
301.033 197.585 L
306.939 195.567 L
312.845 193.76 L
318.751 192.141 L
324.657 190.69 L
330.563 189.388 L
336.469 188.219 L
342.374 187.17 L
348.28 186.226 L
354.186 185.376 LE
grestore
gsave
1.0 1.0 scale
newpath 0 0 moveto 576 0 lineto 576 432 lineto 0 432 lineto
closepath clip
1 1 1 C
409.067 253.387 521.28 179.974 409.067 179.974 T
409.067 253.387 521.28 253.387 521.28 179.974 T
0.5 W
0.15 0.15 0.15 C
432.691 179.974 LS
432.691 181.102 LE
432.691 253.387 LS
432.691 252.258 LE
462.221 179.974 LS
462.221 181.102 LE
462.221 253.387 LS
462.221 252.258 LE
491.75 179.974 LS
491.75 181.102 LE
491.75 253.387 LS
491.75 252.258 LE
521.28 179.974 LS
521.28 181.102 LE
521.28 253.387 LS
521.28 252.258 LE
gsave
0.14902 0.14902 0.14902 C
(5) [10] 0 429.691 164.431 10 /Helvetica SRX
grestore

gsave
0.14902 0.14902 0.14902 C
(10) [6 10] 0 456.221 164.431 10 /Helvetica SRX
grestore

gsave
0.14902 0.14902 0.14902 C
(15) [6 10] 0 485.75 164.431 10 /Helvetica SRX
grestore

gsave
0.14902 0.14902 0.14902 C
(20) [6 10] 0 515.28 164.431 10 /Helvetica SRX
grestore

409.067 181.284 LS
410.192 181.284 LE
521.28 181.284 LS
520.156 181.284 LE
409.067 193.612 LS
410.192 193.612 LE
521.28 193.612 LS
520.156 193.612 LE
409.067 205.94 LS
410.192 205.94 LE
521.28 205.94 LS
520.156 205.94 LE
409.067 218.268 LS
410.192 218.268 LE
521.28 218.268 LS
520.156 218.268 LE
409.067 230.596 LS
410.192 230.596 LE
521.28 230.596 LS
520.156 230.596 LE
409.067 242.924 LS
410.192 242.924 LE
521.28 242.924 LS
520.156 242.924 LE
gsave
0.14902 0.14902 0.14902 C
(0) [10] 0 398.058 177.284 10 /Helvetica SRX
grestore

gsave
0.14902 0.14902 0.14902 C
(0.001) [6 3 6 6 10] 0 377.058 189.612 10 /Helvetica SRX
grestore

gsave
0.14902 0.14902 0.14902 C
(0.002) [6 3 6 6 10] 0 377.058 201.94 10 /Helvetica SRX
grestore

gsave
0.14902 0.14902 0.14902 C
(0.003) [6 3 6 6 10] 0 377.058 214.268 10 /Helvetica SRX
grestore

gsave
0.14902 0.14902 0.14902 C
(0.004) [6 3 6 6 10] 0 377.058 226.596 10 /Helvetica SRX
grestore

gsave
0.14902 0.14902 0.14902 C
(0.005) [6 3 6 6 10] 0 377.058 238.924 10 /Helvetica SRX
grestore

2 LC
[16 0] 0 setdash
409.067 179.974 LS
521.28 179.974 LE
409.067 253.387 LS
521.28 253.387 LE
409.067 179.974 LS
409.067 253.387 LE
521.28 179.974 LS
521.28 253.387 LE
gsave
0 0 0 C
(L_hat) [7 6 7 6 10] 0 450.174 265.387 11 /Helvetica-Bold SRX
grestore

0.9 0.9 0.9 C
409.067 179.974 409.067 188.002 414.973 179.974 T
414.973 201.194 414.973 179.974 409.067 188.002 T
420.879 179.974 414.973 179.974 414.973 201.194 T
420.879 241.148 420.879 179.974 414.973 201.194 T
426.785 179.974 420.879 179.974 420.879 241.148 T
426.785 252.574 426.785 179.974 420.879 241.148 T
432.691 179.974 426.785 179.974 426.785 252.574 T
432.691 253.387 432.691 179.974 426.785 252.574 T
438.597 179.974 432.691 179.974 432.691 253.387 T
438.597 250.493 438.597 179.974 432.691 253.387 T
444.503 179.974 438.597 179.974 438.597 250.493 T
444.503 246.811 444.503 179.974 438.597 250.493 T
450.409 179.974 444.503 179.974 444.503 246.811 T
450.409 242.611 450.409 179.974 444.503 246.811 T
456.315 179.974 450.409 179.974 450.409 242.611 T
456.315 239.999 456.315 179.974 450.409 242.611 T
462.221 179.974 456.315 179.974 456.315 239.999 T
462.221 236.174 462.221 179.974 456.315 239.999 T
468.127 179.974 462.221 179.974 462.221 236.174 T
468.127 233.366 468.127 179.974 462.221 236.174 T
474.033 179.974 468.127 179.974 468.127 233.366 T
474.033 230.458 474.033 179.974 468.127 233.366 T
479.939 179.974 474.033 179.974 474.033 230.458 T
479.939 227.961 479.939 179.974 474.033 230.458 T
485.844 179.974 479.939 179.974 479.939 227.961 T
485.844 225.93 485.844 179.974 479.939 227.961 T
491.75 179.974 485.844 179.974 485.844 225.93 T
491.75 224.184 491.75 179.974 485.844 225.93 T
497.656 179.974 491.75 179.974 491.75 224.184 T
497.656 222.565 497.656 179.974 491.75 224.184 T
503.562 179.974 497.656 179.974 497.656 222.565 T
503.562 222.011 503.562 179.974 497.656 222.565 T
509.468 179.974 503.562 179.974 503.562 222.011 T
509.468 220.663 509.468 179.974 503.562 222.011 T
515.374 179.974 509.468 179.974 509.468 220.663 T
515.374 219.952 515.374 179.974 509.468 220.663 T
521.28 179.974 515.374 179.974 515.374 219.952 T
521.28 218.884 521.28 179.974 515.374 219.952 T
0 LC
[] 0 setdash
0 0 0 C
521.28 218.884 LS
515.374 219.952 L
509.468 220.663 L
503.562 222.011 L
497.656 222.565 L
491.75 224.184 L
485.844 225.93 L
479.939 227.961 L
474.033 230.458 L
468.127 233.366 L
462.221 236.174 L
456.315 239.999 L
450.409 242.611 L
444.503 246.811 L
438.597 250.493 L
432.691 253.387 L
426.785 252.574 L
420.879 241.148 L
414.973 201.194 L
409.067 188.002 L
409.067 179.974 L
414.973 179.974 L
420.879 179.974 L
426.785 179.974 L
432.691 179.974 L
438.597 179.974 L
444.503 179.974 L
450.409 179.974 L
456.315 179.974 L
462.221 179.974 L
468.127 179.974 L
474.033 179.974 L
479.939 179.974 L
485.844 179.974 L
491.75 179.974 L
497.656 179.974 L
503.562 179.974 L
509.468 179.974 L
515.374 179.974 L
521.28 179.974 L
521.28 218.884 LE
1 1 1 C
409.067 179.974 414.973 186.951 414.973 179.974 T
420.879 179.974 414.973 179.974 414.973 186.951 T
420.879 210.128 420.879 179.974 414.973 186.951 T
426.785 179.974 420.879 179.974 420.879 210.128 T
426.785 216.39 426.785 179.974 420.879 210.128 T
432.691 179.974 426.785 179.974 426.785 216.39 T
432.691 217.243 432.691 179.974 426.785 216.39 T
438.597 179.974 432.691 179.974 432.691 217.243 T
438.597 215.266 438.597 179.974 432.691 217.243 T
444.503 179.974 438.597 179.974 438.597 215.266 T
444.503 213.51 444.503 179.974 438.597 215.266 T
450.409 179.974 444.503 179.974 444.503 213.51 T
450.409 211.038 450.409 179.974 444.503 213.51 T
456.315 179.974 450.409 179.974 450.409 211.038 T
456.315 210.004 456.315 179.974 450.409 211.038 T
462.221 179.974 456.315 179.974 456.315 210.004 T
462.221 207.686 462.221 179.974 456.315 210.004 T
468.127 179.974 462.221 179.974 462.221 207.686 T
468.127 206.331 468.127 179.974 462.221 207.686 T
474.033 179.974 468.127 179.974 468.127 206.331 T
474.033 204.727 474.033 179.974 468.127 206.331 T
479.939 179.974 474.033 179.974 474.033 204.727 T
479.939 203.301 479.939 179.974 474.033 204.727 T
485.844 179.974 479.939 179.974 479.939 203.301 T
485.844 202.288 485.844 179.974 479.939 203.301 T
491.75 179.974 485.844 179.974 485.844 202.288 T
491.75 201.431 491.75 179.974 485.844 202.288 T
497.656 179.974 491.75 179.974 491.75 201.431 T
497.656 200.511 497.656 179.974 491.75 201.431 T
503.562 179.974 497.656 179.974 497.656 200.511 T
503.562 200.661 503.562 179.974 497.656 200.511 T
509.468 179.974 503.562 179.974 503.562 200.661 T
509.468 200.031 509.468 179.974 503.562 200.661 T
515.374 179.974 509.468 179.974 509.468 200.031 T
515.374 199.847 515.374 179.974 509.468 200.031 T
521.28 179.974 515.374 179.974 515.374 199.847 T
521.28 199.344 521.28 179.974 515.374 199.847 T
0 0 0 C
521.28 199.344 LS
515.374 199.847 L
509.468 200.031 L
503.562 200.661 L
497.656 200.511 L
491.75 201.431 L
485.844 202.288 L
479.939 203.301 L
474.033 204.727 L
468.127 206.331 L
462.221 207.686 L
456.315 210.004 L
450.409 211.038 L
444.503 213.51 L
438.597 215.266 L
432.691 217.243 L
426.785 216.39 L
420.879 210.128 L
414.973 186.951 L
409.067 179.974 L
414.973 179.974 L
420.879 179.974 L
426.785 179.974 L
432.691 179.974 L
438.597 179.974 L
444.503 179.974 L
450.409 179.974 L
456.315 179.974 L
462.221 179.974 L
468.127 179.974 L
474.033 179.974 L
479.939 179.974 L
485.844 179.974 L
491.75 179.974 L
497.656 179.974 L
503.562 179.974 L
509.468 179.974 L
515.374 179.974 L
521.28 179.974 L
521.28 199.344 LE
3 W
1 LJ
409.067 184.2 LS
414.973 194.744 L
420.879 226.84 L
426.785 234.515 L
432.691 235.078 L
438.597 233.267 L
444.503 230.694 L
450.409 227.983 L
456.315 225.385 L
462.221 222.992 L
468.127 220.831 L
474.033 218.896 L
479.939 217.171 L
485.844 215.634 L
491.75 214.265 L
497.656 213.043 L
503.562 211.951 L
509.468 210.973 L
515.374 210.095 L
521.28 209.306 LE
grestore
gsave
1.0 1.0 scale
newpath 0 0 moveto 576 0 lineto 576 432 lineto 0 432 lineto
closepath clip
1 1 1 C
74.88 120.933 187.093 47.52 74.88 47.52 T
74.88 120.933 187.093 120.933 187.093 47.52 T
0.5 W
0.15 0.15 0.15 C
98.5037 47.52 LS
98.5037 48.6485 LE
98.5037 120.933 LS
98.5037 119.805 LE
128.033 47.52 LS
128.033 48.6485 LE
128.033 120.933 LS
128.033 119.805 LE
157.563 47.52 LS
157.563 48.6485 LE
157.563 120.933 LS
157.563 119.805 LE
187.093 47.52 LS
187.093 48.6485 LE
187.093 120.933 LS
187.093 119.805 LE
gsave
0.14902 0.14902 0.14902 C
(5) [10] 0 95.5037 31.9776 10 /Helvetica SRX
grestore

gsave
0.14902 0.14902 0.14902 C
(10) [6 10] 0 122.033 31.9776 10 /Helvetica SRX
grestore

gsave
0.14902 0.14902 0.14902 C
(15) [6 10] 0 151.563 31.9776 10 /Helvetica SRX
grestore

gsave
0.14902 0.14902 0.14902 C
(20) [6 10] 0 181.093 31.9776 10 /Helvetica SRX
grestore

74.88 49.2336 LS
76.0043 49.2336 LE
187.093 49.2336 LS
185.968 49.2336 LE
74.88 66.4039 LS
76.0043 66.4039 LE
187.093 66.4039 LS
185.968 66.4039 LE
74.88 83.5742 LS
76.0043 83.5742 LE
187.093 83.5742 LS
185.968 83.5742 LE
74.88 100.745 LS
76.0043 100.745 LE
187.093 100.745 LS
185.968 100.745 LE
74.88 117.915 LS
76.0043 117.915 LE
187.093 117.915 LS
185.968 117.915 LE
gsave
0.14902 0.14902 0.14902 C
(-0.006) [3 6 3 6 6 10] 0 39.8705 45.2336 10 /Helvetica SRX
grestore

gsave
0.14902 0.14902 0.14902 C
(-0.004) [3 6 3 6 6 10] 0 39.8705 62.4039 10 /Helvetica SRX
grestore

gsave
0.14902 0.14902 0.14902 C
(-0.002) [3 6 3 6 6 10] 0 39.8705 79.5742 10 /Helvetica SRX
grestore

gsave
0.14902 0.14902 0.14902 C
(0) [10] 0 63.8705 96.7445 10 /Helvetica SRX
grestore

gsave
0.14902 0.14902 0.14902 C
(0.002) [6 3 6 6 10] 0 42.8705 113.915 10 /Helvetica SRX
grestore

2 LC
[16 0] 0 setdash
74.88 47.52 LS
187.093 47.52 LE
74.88 120.933 LS
187.093 120.933 LE
74.88 47.52 LS
74.88 120.933 LE
187.093 47.52 LS
187.093 120.933 LE
gsave
0 0 0 C
(tb_y_hat) [4 7 6 6 6 7 6 10] 0 107.986 133.933 11 /Helvetica-Bold SRX
grestore

0.9 0.9 0.9 C
74.88 47.52 74.88 75.1104 80.7859 47.52 T
80.7859 75.5496 80.7859 47.52 74.88 75.1104 T
86.6918 47.52 80.7859 47.52 80.7859 75.5496 T
86.6918 120.933 86.6918 47.52 80.7859 75.5496 T
92.5978 47.52 86.6918 47.52 86.6918 120.933 T
92.5978 118.328 92.5978 47.52 86.6918 120.933 T
98.5037 47.52 92.5978 47.52 92.5978 118.328 T
98.5037 115.708 98.5037 47.52 92.5978 118.328 T
104.41 47.52 98.5037 47.52 98.5037 115.708 T
104.41 113.855 104.41 47.52 98.5037 115.708 T
110.316 47.52 104.41 47.52 104.41 113.855 T
110.316 112.249 110.316 47.52 104.41 113.855 T
116.221 47.52 110.316 47.52 110.316 112.249 T
116.221 110.744 116.221 47.52 110.316 112.249 T
122.127 47.52 116.221 47.52 116.221 110.744 T
122.127 109.48 122.127 47.52 116.221 110.744 T
128.033 47.52 122.127 47.52 122.127 109.48 T
128.033 108.437 128.033 47.52 122.127 109.48 T
133.939 47.52 128.033 47.52 128.033 108.437 T
133.939 107.606 133.939 47.52 128.033 108.437 T
139.845 47.52 133.939 47.52 133.939 107.606 T
139.845 106.78 139.845 47.52 133.939 107.606 T
145.751 47.52 139.845 47.52 139.845 106.78 T
145.751 106.128 145.751 47.52 139.845 106.78 T
151.657 47.52 145.751 47.52 145.751 106.128 T
151.657 105.509 151.657 47.52 145.751 106.128 T
157.563 47.52 151.657 47.52 151.657 105.509 T
157.563 104.814 157.563 47.52 151.657 105.509 T
163.469 47.52 157.563 47.52 157.563 104.814 T
163.469 104.234 163.469 47.52 157.563 104.814 T
169.375 47.52 163.469 47.52 163.469 104.234 T
169.375 103.633 169.375 47.52 163.469 104.234 T
175.281 47.52 169.375 47.52 169.375 103.633 T
175.281 103.227 175.281 47.52 169.375 103.633 T
181.187 47.52 175.281 47.52 175.281 103.227 T
181.187 102.865 181.187 47.52 175.281 103.227 T
187.093 47.52 181.187 47.52 181.187 102.865 T
187.093 102.451 187.093 47.52 181.187 102.865 T
0 LC
[] 0 setdash
0 0 0 C
187.093 102.451 LS
181.187 102.865 L
175.281 103.227 L
169.375 103.633 L
163.469 104.234 L
157.563 104.814 L
151.657 105.509 L
145.751 106.128 L
139.845 106.78 L
133.939 107.606 L
128.033 108.437 L
122.127 109.48 L
116.221 110.744 L
110.316 112.249 L
104.41 113.855 L
98.5037 115.708 L
92.5978 118.328 L
86.6918 120.933 L
80.7859 75.5496 L
74.88 75.1104 L
74.88 47.52 L
80.7859 47.52 L
86.6918 47.52 L
92.5978 47.52 L
98.5037 47.52 L
104.41 47.52 L
110.316 47.52 L
116.221 47.52 L
122.127 47.52 L
128.033 47.52 L
133.939 47.52 L
139.845 47.52 L
145.751 47.52 L
151.657 47.52 L
157.563 47.52 L
163.469 47.52 L
169.375 47.52 L
175.281 47.52 L
181.187 47.52 L
187.093 47.52 L
187.093 102.451 LE
1 1 1 C
74.88 47.52 80.7859 48.5977 80.7859 47.52 T
86.6918 47.52 80.7859 47.52 80.7859 48.5977 T
86.6918 110.064 86.6918 47.52 80.7859 48.5977 T
92.5978 47.52 86.6918 47.52 86.6918 110.064 T
92.5978 109.203 92.5978 47.52 86.6918 110.064 T
98.5037 47.52 92.5978 47.52 92.5978 109.203 T
98.5037 107.906 98.5037 47.52 92.5978 109.203 T
104.41 47.52 98.5037 47.52 98.5037 107.906 T
104.41 107.131 104.41 47.52 98.5037 107.906 T
110.316 47.52 104.41 47.52 104.41 107.131 T
110.316 106.386 110.316 47.52 104.41 107.131 T
116.221 47.52 110.316 47.52 110.316 106.386 T
116.221 105.603 116.221 47.52 110.316 106.386 T
122.127 47.52 116.221 47.52 116.221 105.603 T
122.127 104.822 122.127 47.52 116.221 105.603 T
128.033 47.52 122.127 47.52 122.127 104.822 T
128.033 104.142 128.033 47.52 122.127 104.822 T
133.939 47.52 128.033 47.52 128.033 104.142 T
133.939 103.532 133.939 47.52 128.033 104.142 T
139.845 47.52 133.939 47.52 133.939 103.532 T
139.845 102.96 139.845 47.52 133.939 103.532 T
145.751 47.52 139.845 47.52 139.845 102.96 T
145.751 102.555 145.751 47.52 139.845 102.96 T
151.657 47.52 145.751 47.52 145.751 102.555 T
151.657 102.189 151.657 47.52 145.751 102.555 T
157.563 47.52 151.657 47.52 151.657 102.189 T
157.563 101.757 157.563 47.52 151.657 102.189 T
163.469 47.52 157.563 47.52 157.563 101.757 T
163.469 101.398 163.469 47.52 157.563 101.757 T
169.375 47.52 163.469 47.52 163.469 101.398 T
169.375 101.032 169.375 47.52 163.469 101.398 T
175.281 47.52 169.375 47.52 169.375 101.032 T
175.281 100.822 175.281 47.52 169.375 101.032 T
181.187 47.52 175.281 47.52 175.281 100.822 T
181.187 100.679 181.187 47.52 175.281 100.822 T
187.093 47.52 181.187 47.52 181.187 100.679 T
187.093 100.465 187.093 47.52 181.187 100.679 T
0 0 0 C
187.093 100.465 LS
181.187 100.679 L
175.281 100.822 L
169.375 101.032 L
163.469 101.398 L
157.563 101.757 L
151.657 102.189 L
145.751 102.555 L
139.845 102.96 L
133.939 103.532 L
128.033 104.142 L
122.127 104.822 L
116.221 105.603 L
110.316 106.386 L
104.41 107.131 L
98.5037 107.906 L
92.5978 109.203 L
86.6918 110.064 L
80.7859 48.5977 L
74.88 47.52 L
80.7859 47.52 L
86.6918 47.52 L
92.5978 47.52 L
98.5037 47.52 L
104.41 47.52 L
110.316 47.52 L
116.221 47.52 L
122.127 47.52 L
128.033 47.52 L
133.939 47.52 L
139.845 47.52 L
145.751 47.52 L
151.657 47.52 L
157.563 47.52 L
163.469 47.52 L
169.375 47.52 L
175.281 47.52 L
181.187 47.52 L
187.093 47.52 L
187.093 100.465 LE
3 W
1 LJ
74.88 60.2977 LS
80.7859 61.0608 L
86.6918 115.314 L
92.5978 113.764 L
98.5037 112.014 L
104.41 110.488 L
110.316 109.186 L
116.221 108.065 L
122.127 107.088 L
128.033 106.228 L
133.939 105.467 L
139.845 104.791 L
145.751 104.188 L
151.657 103.651 L
157.563 103.171 L
163.469 102.743 L
169.375 102.36 L
175.281 102.019 L
181.187 101.714 L
187.093 101.442 LE
grestore
gsave
1.0 1.0 scale
newpath 0 0 moveto 576 0 lineto 576 432 lineto 0 432 lineto
closepath clip
1 1 1 C
241.974 120.933 354.186 47.52 241.974 47.52 T
241.974 120.933 354.186 120.933 354.186 47.52 T
0.5 W
0.15 0.15 0.15 C
265.597 47.52 LS
265.597 48.6485 LE
265.597 120.933 LS
265.597 119.805 LE
295.127 47.52 LS
295.127 48.6485 LE
295.127 120.933 LS
295.127 119.805 LE
324.657 47.52 LS
324.657 48.6485 LE
324.657 120.933 LS
324.657 119.805 LE
354.186 47.52 LS
354.186 48.6485 LE
354.186 120.933 LS
354.186 119.805 LE
gsave
0.14902 0.14902 0.14902 C
(5) [10] 0 262.597 31.9776 10 /Helvetica SRX
grestore

gsave
0.14902 0.14902 0.14902 C
(10) [6 10] 0 289.127 31.9776 10 /Helvetica SRX
grestore

gsave
0.14902 0.14902 0.14902 C
(15) [6 10] 0 318.657 31.9776 10 /Helvetica SRX
grestore

gsave
0.14902 0.14902 0.14902 C
(20) [6 10] 0 348.186 31.9776 10 /Helvetica SRX
grestore

241.974 51.5397 LS
243.098 51.5397 LE
354.186 51.5397 LS
353.062 51.5397 LE
241.974 66.9665 LS
243.098 66.9665 LE
354.186 66.9665 LS
353.062 66.9665 LE
241.974 82.3933 LS
243.098 82.3933 LE
354.186 82.3933 LS
353.062 82.3933 LE
241.974 97.8201 LS
243.098 97.8201 LE
354.186 97.8201 LS
353.062 97.8201 LE
241.974 113.247 LS
243.098 113.247 LE
354.186 113.247 LS
353.062 113.247 LE
gsave
0.14902 0.14902 0.14902 C
(-0.01) [3 6 3 6 10] 0 212.964 47.5397 10 /Helvetica SRX
grestore

gsave
0.14902 0.14902 0.14902 C
(0) [10] 0 230.964 62.9665 10 /Helvetica SRX
grestore

gsave
0.14902 0.14902 0.14902 C
(0.01) [6 3 6 10] 0 215.964 78.3933 10 /Helvetica SRX
grestore

gsave
0.14902 0.14902 0.14902 C
(0.02) [6 3 6 10] 0 215.964 93.8201 10 /Helvetica SRX
grestore

gsave
0.14902 0.14902 0.14902 C
(0.03) [6 3 6 10] 0 215.964 109.247 10 /Helvetica SRX
grestore

2 LC
[16 0] 0 setdash
241.974 47.52 LS
354.186 47.52 LE
241.974 120.933 LS
354.186 120.933 LE
241.974 47.52 LS
241.974 120.933 LE
354.186 47.52 LS
354.186 120.933 LE
gsave
0 0 0 C
(D_hat) [8 6 7 6 10] 0 282.58 132.933 11 /Helvetica-Bold SRX
grestore

0.9 0.9 0.9 C
241.974 47.52 241.974 93.9636 247.88 47.52 T
247.88 120.933 247.88 47.52 241.974 93.9636 T
253.786 47.52 247.88 47.52 247.88 120.933 T
253.786 111.102 253.786 47.52 247.88 120.933 T
259.691 47.52 253.786 47.52 253.786 111.102 T
259.691 103.623 259.691 47.52 253.786 111.102 T
265.597 47.52 259.691 47.52 259.691 103.623 T
265.597 96.5722 265.597 47.52 259.691 103.623 T
271.503 47.52 265.597 47.52 265.597 96.5722 T
271.503 91.161 271.503 47.52 265.597 96.5722 T
277.409 47.52 271.503 47.52 271.503 91.161 T
277.409 85.8499 277.409 47.52 271.503 91.161 T
283.315 47.52 277.409 47.52 277.409 85.8499 T
283.315 81.2714 283.315 47.52 277.409 85.8499 T
289.221 47.52 283.315 47.52 283.315 81.2714 T
289.221 77.0442 289.221 47.52 283.315 81.2714 T
295.127 47.52 289.221 47.52 289.221 77.0442 T
295.127 73.5036 295.127 47.52 289.221 77.0442 T
301.033 47.52 295.127 47.52 295.127 73.5036 T
301.033 70.5416 301.033 47.52 295.127 73.5036 T
306.939 47.52 301.033 47.52 301.033 70.5416 T
306.939 67.7396 306.939 47.52 301.033 70.5416 T
312.845 47.52 306.939 47.52 306.939 67.7396 T
312.845 65.6891 312.845 47.52 306.939 67.7396 T
318.751 47.52 312.845 47.52 312.845 65.6891 T
318.751 64.2698 318.751 47.52 312.845 65.6891 T
324.657 47.52 318.751 47.52 318.751 64.2698 T
324.657 63.2902 324.657 47.52 318.751 64.2698 T
330.563 47.52 324.657 47.52 324.657 63.2902 T
330.563 62.4235 330.563 47.52 324.657 63.2902 T
336.469 47.52 330.563 47.52 330.563 62.4235 T
336.469 61.8468 336.469 47.52 330.563 62.4235 T
342.374 47.52 336.469 47.52 336.469 61.8468 T
342.374 61.2518 342.374 47.52 336.469 61.8468 T
348.28 47.52 342.374 47.52 342.374 61.2518 T
348.28 60.5999 348.28 47.52 342.374 61.2518 T
354.186 47.52 348.28 47.52 348.28 60.5999 T
354.186 60.0432 354.186 47.52 348.28 60.5999 T
0 LC
[] 0 setdash
0 0 0 C
354.186 60.0432 LS
348.28 60.5999 L
342.374 61.2518 L
336.469 61.8468 L
330.563 62.4235 L
324.657 63.2902 L
318.751 64.2698 L
312.845 65.6891 L
306.939 67.7396 L
301.033 70.5416 L
295.127 73.5036 L
289.221 77.0442 L
283.315 81.2714 L
277.409 85.8499 L
271.503 91.161 L
265.597 96.5722 L
259.691 103.623 L
253.786 111.102 L
247.88 120.933 L
241.974 93.9636 L
241.974 47.52 L
247.88 47.52 L
253.786 47.52 L
259.691 47.52 L
265.597 47.52 L
271.503 47.52 L
277.409 47.52 L
283.315 47.52 L
289.221 47.52 L
295.127 47.52 L
301.033 47.52 L
306.939 47.52 L
312.845 47.52 L
318.751 47.52 L
324.657 47.52 L
330.563 47.52 L
336.469 47.52 L
342.374 47.52 L
348.28 47.52 L
354.186 47.52 L
354.186 60.0432 LE
1 1 1 C
241.974 47.52 241.974 79.86 247.88 47.52 T
247.88 92.7697 247.88 47.52 241.974 79.86 T
253.786 47.52 247.88 47.52 247.88 92.7697 T
253.786 87.1169 253.786 47.52 247.88 92.7697 T
259.691 47.52 253.786 47.52 253.786 87.1169 T
259.691 83.4135 259.691 47.52 253.786 87.1169 T
265.597 47.52 259.691 47.52 259.691 83.4135 T
265.597 79.3915 265.597 47.52 259.691 83.4135 T
271.503 47.52 265.597 47.52 265.597 79.3915 T
271.503 76.2204 271.503 47.52 265.597 79.3915 T
277.409 47.52 271.503 47.52 271.503 76.2204 T
277.409 73.3178 277.409 47.52 271.503 76.2204 T
283.315 47.52 277.409 47.52 277.409 73.3178 T
283.315 70.6595 283.315 47.52 277.409 73.3178 T
289.221 47.52 283.315 47.52 283.315 70.6595 T
289.221 68.2065 289.221 47.52 283.315 70.6595 T
295.127 47.52 289.221 47.52 289.221 68.2065 T
295.127 65.9439 295.127 47.52 289.221 68.2065 T
301.033 47.52 295.127 47.52 295.127 65.9439 T
301.033 64.1372 301.033 47.52 295.127 65.9439 T
306.939 47.52 301.033 47.52 301.033 64.1372 T
306.939 62.0055 306.939 47.52 301.033 64.1372 T
312.845 47.52 306.939 47.52 306.939 62.0055 T
312.845 59.6335 312.845 47.52 306.939 62.0055 T
318.751 47.52 312.845 47.52 312.845 59.6335 T
318.751 57.4202 318.751 47.52 312.845 59.6335 T
324.657 47.52 318.751 47.52 318.751 57.4202 T
324.657 55.5389 324.657 47.52 318.751 57.4202 T
330.563 47.52 324.657 47.52 324.657 55.5389 T
330.563 53.7177 330.563 47.52 324.657 55.5389 T
336.469 47.52 330.563 47.52 330.563 53.7177 T
336.469 51.9924 336.469 47.52 330.563 53.7177 T
342.374 47.52 336.469 47.52 336.469 51.9924 T
342.374 50.4288 342.374 47.52 336.469 51.9924 T
348.28 47.52 342.374 47.52 342.374 50.4288 T
348.28 48.8605 348.28 47.52 342.374 50.4288 T
354.186 47.52 348.28 47.52 348.28 48.8605 T
0 0 0 C
354.186 47.52 LS
348.28 48.8605 L
342.374 50.4288 L
336.469 51.9924 L
330.563 53.7177 L
324.657 55.5389 L
318.751 57.4202 L
312.845 59.6335 L
306.939 62.0055 L
301.033 64.1372 L
295.127 65.9439 L
289.221 68.2065 L
283.315 70.6595 L
277.409 73.3178 L
271.503 76.2204 L
265.597 79.3915 L
259.691 83.4135 L
253.786 87.1169 L
247.88 92.7697 L
241.974 79.86 L
241.974 47.52 L
247.88 47.52 L
253.786 47.52 L
259.691 47.52 L
265.597 47.52 L
271.503 47.52 L
277.409 47.52 L
283.315 47.52 L
289.221 47.52 L
295.127 47.52 L
301.033 47.52 L
306.939 47.52 L
312.845 47.52 L
318.751 47.52 L
324.657 47.52 L
330.563 47.52 L
336.469 47.52 L
342.374 47.52 L
348.28 47.52 L
354.186 47.52 LE
3 W
1 LJ
241.974 86.8697 LS
247.88 106.654 L
253.786 99.7275 L
259.691 93.6328 L
265.597 88.3039 L
271.503 83.6239 L
277.409 79.4944 L
283.315 75.8382 L
289.221 72.5947 L
295.127 69.7145 L
301.033 67.1566 L
306.939 64.8855 L
312.845 62.8707 L
318.751 61.085 L
324.657 59.5046 L
330.563 58.1081 L
336.469 56.8765 L
342.374 55.7928 L
348.28 54.8417 L
354.186 54.0095 LE
grestore
gsave
1.0 1.0 scale
newpath 0 0 moveto 576 0 lineto 576 432 lineto 0 432 lineto
closepath clip
1 1 1 C
409.067 120.933 521.28 47.52 409.067 47.52 T
409.067 120.933 521.28 120.933 521.28 47.52 T
0.5 W
0.15 0.15 0.15 C
432.691 47.52 LS
432.691 48.6485 LE
432.691 120.933 LS
432.691 119.805 LE
462.221 47.52 LS
462.221 48.6485 LE
462.221 120.933 LS
462.221 119.805 LE
491.75 47.52 LS
491.75 48.6485 LE
491.75 120.933 LS
491.75 119.805 LE
521.28 47.52 LS
521.28 48.6485 LE
521.28 120.933 LS
521.28 119.805 LE
gsave
0.14902 0.14902 0.14902 C
(5) [10] 0 429.691 31.9776 10 /Helvetica SRX
grestore

gsave
0.14902 0.14902 0.14902 C
(10) [6 10] 0 456.221 31.9776 10 /Helvetica SRX
grestore

gsave
0.14902 0.14902 0.14902 C
(15) [6 10] 0 485.75 31.9776 10 /Helvetica SRX
grestore

gsave
0.14902 0.14902 0.14902 C
(20) [6 10] 0 515.28 31.9776 10 /Helvetica SRX
grestore

409.067 50.3301 LS
410.192 50.3301 LE
521.28 50.3301 LS
520.156 50.3301 LE
409.067 64.6123 LS
410.192 64.6123 LE
521.28 64.6123 LS
520.156 64.6123 LE
409.067 78.8945 LS
410.192 78.8945 LE
521.28 78.8945 LS
520.156 78.8945 LE
409.067 93.1768 LS
410.192 93.1768 LE
521.28 93.1768 LS
520.156 93.1768 LE
409.067 107.459 LS
410.192 107.459 LE
521.28 107.459 LS
520.156 107.459 LE
gsave
0.14902 0.14902 0.14902 C
(0.001) [6 3 6 6 10] 0 377.058 46.3301 10 /Helvetica SRX
grestore

gsave
0.14902 0.14902 0.14902 C
(0.002) [6 3 6 6 10] 0 377.058 60.6123 10 /Helvetica SRX
grestore

gsave
0.14902 0.14902 0.14902 C
(0.003) [6 3 6 6 10] 0 377.058 74.8945 10 /Helvetica SRX
grestore

gsave
0.14902 0.14902 0.14902 C
(0.004) [6 3 6 6 10] 0 377.058 89.1768 10 /Helvetica SRX
grestore

gsave
0.14902 0.14902 0.14902 C
(0.005) [6 3 6 6 10] 0 377.058 103.459 10 /Helvetica SRX
grestore

2 LC
[16 0] 0 setdash
409.067 47.52 LS
521.28 47.52 LE
409.067 120.933 LS
521.28 120.933 LE
409.067 47.52 LS
409.067 120.933 LE
521.28 47.52 LS
521.28 120.933 LE
gsave
0 0 0 C
(reer_hat) [4 6 6 4 6 7 6 10] 0 443.674 132.933 11 /Helvetica-Bold SRX
grestore

0.9 0.9 0.9 C
409.067 47.52 409.067 66.6019 414.973 47.52 T
414.973 72.055 414.973 47.52 409.067 66.6019 T
420.879 47.52 414.973 47.52 414.973 72.055 T
420.879 115.805 420.879 47.52 414.973 72.055 T
426.785 47.52 420.879 47.52 420.879 115.805 T
426.785 120.933 426.785 47.52 420.879 115.805 T
432.691 47.52 426.785 47.52 426.785 120.933 T
432.691 116.921 432.691 47.52 426.785 120.933 T
438.597 47.52 432.691 47.52 432.691 116.921 T
438.597 109.946 438.597 47.52 432.691 116.921 T
444.503 47.52 438.597 47.52 438.597 109.946 T
444.503 103.378 444.503 47.52 438.597 109.946 T
450.409 47.52 444.503 47.52 444.503 103.378 T
450.409 97.0754 450.409 47.52 444.503 103.378 T
456.315 47.52 450.409 47.52 450.409 97.0754 T
456.315 91.9562 456.315 47.52 450.409 97.0754 T
462.221 47.52 456.315 47.52 456.315 91.9562 T
462.221 87.9659 462.221 47.52 456.315 91.9562 T
468.127 47.52 462.221 47.52 462.221 87.9659 T
468.127 83.7186 468.127 47.52 462.221 87.9659 T
474.033 47.52 468.127 47.52 468.127 83.7186 T
474.033 79.8663 474.033 47.52 468.127 83.7186 T
479.939 47.52 474.033 47.52 474.033 79.8663 T
479.939 76.6778 479.939 47.52 474.033 79.8663 T
485.844 47.52 479.939 47.52 479.939 76.6778 T
485.844 73.3554 485.844 47.52 479.939 76.6778 T
491.75 47.52 485.844 47.52 485.844 73.3554 T
491.75 70.5635 491.75 47.52 485.844 73.3554 T
497.656 47.52 491.75 47.52 491.75 70.5635 T
497.656 68.182 497.656 47.52 491.75 70.5635 T
503.562 47.52 497.656 47.52 497.656 68.182 T
503.562 65.838 503.562 47.52 497.656 68.182 T
509.468 47.52 503.562 47.52 503.562 65.838 T
509.468 63.6179 509.468 47.52 503.562 65.838 T
515.374 47.52 509.468 47.52 509.468 63.6179 T
515.374 61.8193 515.374 47.52 509.468 63.6179 T
521.28 47.52 515.374 47.52 515.374 61.8193 T
521.28 60.3763 521.28 47.52 515.374 61.8193 T
0 LC
[] 0 setdash
0 0 0 C
521.28 60.3763 LS
515.374 61.8193 L
509.468 63.6179 L
503.562 65.838 L
497.656 68.182 L
491.75 70.5635 L
485.844 73.3554 L
479.939 76.6778 L
474.033 79.8663 L
468.127 83.7186 L
462.221 87.9659 L
456.315 91.9562 L
450.409 97.0754 L
444.503 103.378 L
438.597 109.946 L
432.691 116.921 L
426.785 120.933 L
420.879 115.805 L
414.973 72.055 L
409.067 66.6019 L
409.067 47.52 L
414.973 47.52 L
420.879 47.52 L
426.785 47.52 L
432.691 47.52 L
438.597 47.52 L
444.503 47.52 L
450.409 47.52 L
456.315 47.52 L
462.221 47.52 L
468.127 47.52 L
474.033 47.52 L
479.939 47.52 L
485.844 47.52 L
491.75 47.52 L
497.656 47.52 L
503.562 47.52 L
509.468 47.52 L
515.374 47.52 L
521.28 47.52 L
521.28 60.3763 LE
1 1 1 C
409.067 47.52 409.067 48.6875 414.973 47.52 T
414.973 48.4691 414.973 47.52 409.067 48.6875 T
420.879 47.52 414.973 47.52 414.973 48.4691 T
420.879 75.1162 420.879 47.52 414.973 48.4691 T
426.785 47.52 420.879 47.52 420.879 75.1162 T
426.785 77.7104 426.785 47.52 420.879 75.1162 T
432.691 47.52 426.785 47.52 426.785 77.7104 T
432.691 75.8724 432.691 47.52 426.785 77.7104 T
438.597 47.52 432.691 47.52 432.691 75.8724 T
438.597 72.3972 438.597 47.52 432.691 75.8724 T
444.503 47.52 438.597 47.52 438.597 72.3972 T
444.503 69.0542 444.503 47.52 438.597 72.3972 T
450.409 47.52 444.503 47.52 444.503 69.0542 T
450.409 65.6483 450.409 47.52 444.503 69.0542 T
456.315 47.52 450.409 47.52 450.409 65.6483 T
456.315 62.9158 456.315 47.52 450.409 65.6483 T
462.221 47.52 456.315 47.52 456.315 62.9158 T
462.221 61.1974 462.221 47.52 456.315 62.9158 T
468.127 47.52 462.221 47.52 462.221 61.1974 T
468.127 59.0773 468.127 47.52 462.221 61.1974 T
474.033 47.52 468.127 47.52 468.127 59.0773 T
474.033 57.0905 474.033 47.52 468.127 59.0773 T
479.939 47.52 474.033 47.52 474.033 57.0905 T
479.939 55.4561 479.939 47.52 474.033 57.0905 T
485.844 47.52 479.939 47.52 479.939 55.4561 T
485.844 53.6857 485.844 47.52 479.939 55.4561 T
491.75 47.52 485.844 47.52 485.844 53.6857 T
491.75 52.3249 491.75 47.52 485.844 53.6857 T
497.656 47.52 491.75 47.52 491.75 52.3249 T
497.656 51.1974 497.656 47.52 491.75 52.3249 T
503.562 47.52 497.656 47.52 497.656 51.1974 T
503.562 50.0504 503.562 47.52 497.656 51.1974 T
509.468 47.52 503.562 47.52 503.562 50.0504 T
509.468 48.9221 509.468 47.52 503.562 50.0504 T
515.374 47.52 509.468 47.52 509.468 48.9221 T
515.374 48.0706 515.374 47.52 509.468 48.9221 T
521.28 47.52 515.374 47.52 515.374 48.0706 T
0 0 0 C
521.28 47.52 LS
515.374 48.0706 L
509.468 48.9221 L
503.562 50.0504 L
497.656 51.1974 L
491.75 52.3249 L
485.844 53.6857 L
479.939 55.4561 L
474.033 57.0905 L
468.127 59.0773 L
462.221 61.1974 L
456.315 62.9158 L
450.409 65.6483 L
444.503 69.0542 L
438.597 72.3972 L
432.691 75.8724 L
426.785 77.7104 L
420.879 75.1162 L
414.973 48.4691 L
409.067 48.6875 L
409.067 47.52 L
414.973 47.52 L
420.879 47.52 L
426.785 47.52 L
432.691 47.52 L
438.597 47.52 L
444.503 47.52 L
450.409 47.52 L
456.315 47.52 L
462.221 47.52 L
468.127 47.52 L
474.033 47.52 L
479.939 47.52 L
485.844 47.52 L
491.75 47.52 L
497.656 47.52 L
503.562 47.52 L
509.468 47.52 L
515.374 47.52 L
521.28 47.52 LE
3 W
1 LJ
409.067 57.1493 LS
414.973 59.9179 L
420.879 95.8451 L
426.785 100.297 L
432.691 96.5989 L
438.597 91.5782 L
444.503 86.7561 L
450.409 82.4047 L
456.315 78.5201 L
462.221 75.0473 L
468.127 71.9304 L
474.033 69.1223 L
479.939 66.5843 L
485.844 64.2844 L
491.75 62.1959 L
497.656 60.2962 L
503.562 58.5655 L
509.468 56.9869 L
515.374 55.5452 L
521.28 54.2274 LE
grestore
grestore
showpage
cleartomark
%%PageTrailer
%%Trailer
end
%%EOF
