%!PS-Adobe-3.0 EPSF-3.0
%%Title: gl2ps_renderer figure
%%Creator: GL2PS 1.4.2, (C) 1999-2020 C. Geuzaine
%%For: Octave
%%CreationDate: Wed Oct  7 04:42:25 2020
%%LanguageLevel: 3
%%DocumentData: Clean7Bit
%%Pages: 1
%%BoundingBox: 0 0 576 432
%%EndComments
%%BeginProlog
/gl2psdict 64 dict def gl2psdict begin
/tryPS3shading false def % set to false to force subdivision
/rThreshold 0.064 def % red component subdivision threshold
/gThreshold 0.034 def % green component subdivision threshold
/bThreshold 0.1 def % blue component subdivision threshold
/BD { bind def } bind def
/C  { setrgbcolor } BD
/G  { 0.082 mul exch 0.6094 mul add exch 0.3086 mul add neg 1.0 add setgray } BD
/W  { setlinewidth } BD
/LC  { setlinecap } BD
/LJ  { setlinejoin } BD
/FC { findfont exch /SH exch def SH scalefont setfont } BD
/SW { dup stringwidth pop } BD
/S  { FC moveto show } BD
/SBC{ FC moveto SW -2 div 0 rmoveto show } BD
/SBR{ FC moveto SW neg 0 rmoveto show } BD
/SCL{ FC moveto 0 SH -2 div rmoveto show } BD
/SCC{ FC moveto SW -2 div SH -2 div rmoveto show } BD
/SCR{ FC moveto SW neg SH -2 div rmoveto show } BD
/STL{ FC moveto 0 SH neg rmoveto show } BD
/STC{ FC moveto SW -2 div SH neg rmoveto show } BD
/STR{ FC moveto SW neg SH neg rmoveto show } BD
/FCT { FC translate 0 0 } BD
/SR  { gsave FCT moveto rotate show grestore } BD
/SRX  { gsave FCT moveto rotate xshow grestore } BD
/SBCR{ gsave FCT moveto rotate SW -2 div 0 rmoveto show grestore } BD
/SBRR{ gsave FCT moveto rotate SW neg 0 rmoveto show grestore } BD
/SCLR{ gsave FCT moveto rotate 0 SH -2 div rmoveto show grestore} BD
/SCCR{ gsave FCT moveto rotate SW -2 div SH -2 div rmoveto show grestore} BD
/SCRR{ gsave FCT moveto rotate SW neg SH -2 div rmoveto show grestore} BD
/STLR{ gsave FCT moveto rotate 0 SH neg rmoveto show grestore } BD
/STCR{ gsave FCT moveto rotate SW -2 div SH neg rmoveto show grestore } BD
/STRR{ gsave FCT moveto rotate SW neg SH neg rmoveto show grestore } BD
/P  { newpath 0.0 360.0 arc closepath fill } BD
/LS { newpath moveto } BD
/L  { lineto } BD
/LE { lineto stroke } BD
/T  { newpath moveto lineto lineto closepath fill } BD
/STshfill {
      /b1 exch def /g1 exch def /r1 exch def /y1 exch def /x1 exch def
      /b2 exch def /g2 exch def /r2 exch def /y2 exch def /x2 exch def
      /b3 exch def /g3 exch def /r3 exch def /y3 exch def /x3 exch def
      gsave << /ShadingType 4 /ColorSpace [/DeviceRGB]
      /DataSource [ 0 x1 y1 r1 g1 b1 0 x2 y2 r2 g2 b2 0 x3 y3 r3 g3 b3 ] >>
      shfill grestore } BD
/Tm { 3 -1 roll 8 -1 roll 13 -1 roll add add 3 div
      3 -1 roll 7 -1 roll 11 -1 roll add add 3 div
      3 -1 roll 6 -1 roll 9 -1 roll add add 3 div C T } BD
/STsplit {
      4 index 15 index add 0.5 mul
      4 index 15 index add 0.5 mul
      4 index 15 index add 0.5 mul
      4 index 15 index add 0.5 mul
      4 index 15 index add 0.5 mul
      5 copy 5 copy 25 15 roll
      9 index 30 index add 0.5 mul
      9 index 30 index add 0.5 mul
      9 index 30 index add 0.5 mul
      9 index 30 index add 0.5 mul
      9 index 30 index add 0.5 mul
      5 copy 5 copy 35 5 roll 25 5 roll 15 5 roll
      4 index 10 index add 0.5 mul
      4 index 10 index add 0.5 mul
      4 index 10 index add 0.5 mul
      4 index 10 index add 0.5 mul
      4 index 10 index add 0.5 mul
      5 copy 5 copy 40 5 roll 25 5 roll 15 5 roll 25 5 roll
      STnoshfill STnoshfill STnoshfill STnoshfill } BD
/STnoshfill {
      2 index 8 index sub abs rThreshold gt
      { STsplit }
      { 1 index 7 index sub abs gThreshold gt
        { STsplit }
        { dup 6 index sub abs bThreshold gt
          { STsplit }
          { 2 index 13 index sub abs rThreshold gt
            { STsplit }
            { 1 index 12 index sub abs gThreshold gt
              { STsplit }
              { dup 11 index sub abs bThreshold gt
                { STsplit }
                { 7 index 13 index sub abs rThreshold gt
                  { STsplit }
                  { 6 index 12 index sub abs gThreshold gt
                    { STsplit }
                    { 5 index 11 index sub abs bThreshold gt
                      { STsplit }
                      { Tm }
                      ifelse }
                    ifelse }
                  ifelse }
                ifelse }
              ifelse }
            ifelse }
          ifelse }
        ifelse }
      ifelse } BD
tryPS3shading
{ /shfill where
  { /ST { STshfill } BD }
  { /ST { STnoshfill } BD }
  ifelse }
{ /ST { STnoshfill } BD }
ifelse
end
%%EndProlog
%%BeginSetup
/DeviceRGB setcolorspace
gl2psdict begin
%%EndSetup
%%Page: 1 1
%%BeginPageSetup
%%EndPageSetup
mark
gsave
1.0 1.0 scale
1 1 1 C
newpath 0 0 moveto 576 0 lineto 576 432 lineto 0 432 lineto
closepath fill
gsave
1.0 1.0 scale
1 1 1 C
newpath 0 0 moveto 576 0 lineto 576 432 lineto 0 432 lineto
closepath fill
newpath 0 0 moveto 576 0 lineto 576 432 lineto 0 432 lineto
closepath clip
1 1 1 C
74.88 385.841 187.093 312.427 74.88 312.427 T
74.88 385.841 187.093 385.841 187.093 312.427 T
0.5 W
0.15 0.15 0.15 C
97.3135 312.427 LS
97.3135 313.556 LE
97.3135 385.841 LS
97.3135 384.712 LE
119.758 312.427 LS
119.758 313.556 LE
119.758 385.841 LS
119.758 384.712 LE
142.203 312.427 LS
142.203 313.556 LE
142.203 385.841 LS
142.203 384.712 LE
164.648 312.427 LS
164.648 313.556 LE
164.648 385.841 LS
164.648 384.712 LE
187.093 312.427 LS
187.093 313.556 LE
187.093 385.841 LS
187.093 384.712 LE
gsave
0.14902 0.14902 0.14902 C
(2e+06) [6 5 6 6 10] 0 82.8135 296.885 10 /Helvetica SRX
grestore

gsave
0.14902 0.14902 0.14902 C
(4e+06) [6 5 6 6 10] 0 105.258 296.885 10 /Helvetica SRX
grestore

gsave
0.14902 0.14902 0.14902 C
(6e+06) [6 5 6 6 10] 0 127.703 296.885 10 /Helvetica SRX
grestore

gsave
0.14902 0.14902 0.14902 C
(8e+06) [6 5 6 6 10] 0 150.148 296.885 10 /Helvetica SRX
grestore

gsave
0.14902 0.14902 0.14902 C
(1e+07) [6 5 6 6 10] 0 172.593 296.885 10 /Helvetica SRX
grestore

74.88 312.427 LS
76.0042 312.427 LE
187.093 312.427 LS
185.968 312.427 LE
74.88 322.915 LS
76.0042 322.915 LE
187.093 322.915 LS
185.968 322.915 LE
74.88 333.403 LS
76.0042 333.403 LE
187.093 333.403 LS
185.968 333.403 LE
74.88 343.89 LS
76.0042 343.89 LE
187.093 343.89 LS
185.968 343.89 LE
74.88 354.378 LS
76.0042 354.378 LE
187.093 354.378 LS
185.968 354.378 LE
74.88 364.865 LS
76.0042 364.865 LE
187.093 364.865 LS
185.968 364.865 LE
74.88 375.353 LS
76.0042 375.353 LE
187.093 375.353 LS
185.968 375.353 LE
74.88 385.841 LS
76.0042 385.841 LE
187.093 385.841 LS
185.968 385.841 LE
gsave
0.14902 0.14902 0.14902 C
(0.0035) [6 3 6 6 6 10] 0 36.8705 308.427 10 /Helvetica SRX
grestore

gsave
0.14902 0.14902 0.14902 C
(0.004) [6 3 6 6 10] 0 42.8705 318.915 10 /Helvetica SRX
grestore

gsave
0.14902 0.14902 0.14902 C
(0.0045) [6 3 6 6 6 10] 0 36.8705 329.403 10 /Helvetica SRX
grestore

gsave
0.14902 0.14902 0.14902 C
(0.005) [6 3 6 6 10] 0 42.8705 339.89 10 /Helvetica SRX
grestore

gsave
0.14902 0.14902 0.14902 C
(0.0055) [6 3 6 6 6 10] 0 36.8705 350.378 10 /Helvetica SRX
grestore

gsave
0.14902 0.14902 0.14902 C
(0.006) [6 3 6 6 10] 0 42.8705 360.865 10 /Helvetica SRX
grestore

gsave
0.14902 0.14902 0.14902 C
(0.0065) [6 3 6 6 6 10] 0 36.8705 371.353 10 /Helvetica SRX
grestore

gsave
0.14902 0.14902 0.14902 C
(0.007) [6 3 6 6 10] 0 42.8705 381.841 10 /Helvetica SRX
grestore

2 LC
[16 0] 0 setdash
74.88 312.427 LS
187.093 312.427 LE
74.88 385.841 LS
187.093 385.841 LE
74.88 312.427 LS
74.88 385.841 LE
187.093 312.427 LS
187.093 385.841 LE
gsave
0 0 0 C
(v_D \(Interval\)) [6 6 8 3 4 3 7 4 6 4 6 6 3 10] 0 95.9863 398.841 11 /Helvetica-Bold SRX
grestore

0 LC
1 LJ
[] 0 setdash
0 0 1 C
74.88 354.279 LS
76.0021 382.92 L
77.1242 380.284 L
78.2464 340.946 L
79.3685 333.959 L
80.4906 326.858 L
81.6127 326.844 L
82.7349 331.695 L
83.857 328.539 L
84.9791 327.599 L
86.1013 323.742 L
87.2234 321.383 L
88.3455 319.494 L
89.4676 321.18 L
90.5898 321.596 L
91.7119 321.74 L
92.834 324.337 L
93.9561 324.737 L
95.0783 325.602 L
96.2004 329.063 L
97.3225 331.393 L
98.4446 330.792 L
99.5668 330.73 L
100.689 329.218 L
101.811 325.742 L
102.933 323.065 L
104.055 321.426 L
105.177 322.037 L
106.3 324.242 L
107.422 326.377 L
108.544 327.707 L
109.666 329.158 L
110.788 330.518 L
111.91 332.223 L
113.032 333.598 L
114.154 332.187 L
115.277 331.539 L
116.399 331.556 L
117.521 331.547 L
118.643 330.135 L
119.765 327.67 L
120.887 325.108 L
122.009 322.515 L
123.131 322.537 L
124.254 322.727 L
125.376 322.7 L
126.498 322.1 L
127.62 320.472 L
128.742 319.622 L
129.864 319.058 L
130.986 321.654 L
132.108 322.455 L
133.231 323.346 L
134.353 323.654 L
135.475 324.452 L
136.597 324.137 L
137.719 324.382 L
138.841 324.331 L
139.963 324.481 L
141.085 324.76 L
142.208 324.735 L
143.33 324.617 L
144.452 324.12 L
145.574 323.812 L
146.696 323.828 L
147.818 324.217 L
148.94 324.528 L
150.062 323.503 L
151.185 323.347 L
152.307 323.389 L
153.429 323.553 L
154.551 323.338 L
155.673 323.24 L
156.795 323.46 L
157.917 323.361 L
159.039 322.987 L
160.162 322.733 L
161.284 322.655 L
162.406 321.965 L
163.528 320.949 L
164.65 320.443 L
165.772 320.085 L
166.894 319.833 L
168.016 319.741 L
169.139 320.576 L
170.261 321.492 L
171.383 322.926 L
172.505 323.346 L
173.627 323.32 L
174.749 323.266 L
175.871 323.114 L
176.993 322.626 L
178.116 322.691 L
179.238 322.616 L
180.36 322.719 L
181.482 323.239 L
182.604 323.148 L
183.726 323.349 L
184.848 323.341 L
185.97 323.617 L
187.093 323.477 LE
1 0 0 C
74.88 346.535 LS
76.0021 382.117 L
77.1242 365.323 L
78.2464 339.041 L
79.3685 334.023 L
80.4906 325.287 L
81.6127 326.088 L
82.7349 330.263 L
83.857 328.453 L
84.9791 327.182 L
86.1013 322.614 L
87.2234 319.646 L
88.3455 318.531 L
89.4676 319.986 L
90.5898 321.559 L
91.7119 321.639 L
92.834 323.387 L
93.9561 324.056 L
95.0783 325.446 L
96.2004 328.708 L
97.3225 328.645 L
98.4446 327.949 L
99.5668 329.779 L
100.689 329.042 L
101.811 325.712 L
102.933 322.742 L
104.055 321.191 L
105.177 321.596 L
106.3 323.424 L
107.422 324.787 L
108.544 326.815 L
109.666 328.725 L
110.788 329.594 L
111.91 330.842 L
113.032 331.432 L
114.154 330.696 L
115.277 330.181 L
116.399 328.789 L
117.521 326.884 L
118.643 324.671 L
119.765 322.88 L
120.887 319.895 L
122.009 317.334 L
123.131 317.951 L
124.254 318.967 L
125.376 320.011 L
126.498 320.233 L
127.62 319.531 L
128.742 319.197 L
129.864 318.806 L
130.986 321.081 L
132.108 322.068 L
133.231 323.014 L
134.353 323.332 L
135.475 324.045 L
136.597 323.663 L
137.719 323.733 L
138.841 323.69 L
139.963 324.164 L
141.085 324.442 L
142.208 324.384 L
143.33 324.5 L
144.452 324.122 L
145.574 323.774 L
146.696 323.634 L
147.818 323.655 L
148.94 323.523 L
150.062 321.982 L
151.185 321.663 L
152.307 321.743 L
153.429 321.95 L
154.551 321.853 L
155.673 322.192 L
156.795 322.77 L
157.917 322.821 L
159.039 322.464 L
160.162 322.238 L
161.284 322.3 L
162.406 321.688 L
163.528 320.798 L
164.65 320.351 L
165.772 320.103 L
166.894 319.82 L
168.016 319.573 L
169.139 320.224 L
170.261 321.051 L
171.383 322.334 L
172.505 322.697 L
173.627 322.657 L
174.749 322.725 L
175.871 322.609 L
176.993 322.155 L
178.116 322.304 L
179.238 322.198 L
180.36 322.34 L
181.482 322.912 L
182.604 322.892 L
183.726 323.105 L
184.848 323.091 L
185.97 323.411 L
187.093 323.302 LE
grestore
gsave
1.0 1.0 scale
newpath 0 0 moveto 576 0 lineto 576 432 lineto 0 432 lineto
closepath clip
1 1 1 C
241.974 385.841 354.186 312.427 241.974 312.427 T
241.974 385.841 354.186 385.841 354.186 312.427 T
0.5 W
0.15 0.15 0.15 C
264.407 312.427 LS
264.407 313.556 LE
264.407 385.841 LS
264.407 384.712 LE
286.852 312.427 LS
286.852 313.556 LE
286.852 385.841 LS
286.852 384.712 LE
309.297 312.427 LS
309.297 313.556 LE
309.297 385.841 LS
309.297 384.712 LE
331.742 312.427 LS
331.742 313.556 LE
331.742 385.841 LS
331.742 384.712 LE
354.186 312.427 LS
354.186 313.556 LE
354.186 385.841 LS
354.186 384.712 LE
gsave
0.14902 0.14902 0.14902 C
(2e+06) [6 5 6 6 10] 0 249.907 296.885 10 /Helvetica SRX
grestore

gsave
0.14902 0.14902 0.14902 C
(4e+06) [6 5 6 6 10] 0 272.352 296.885 10 /Helvetica SRX
grestore

gsave
0.14902 0.14902 0.14902 C
(6e+06) [6 5 6 6 10] 0 294.797 296.885 10 /Helvetica SRX
grestore

gsave
0.14902 0.14902 0.14902 C
(8e+06) [6 5 6 6 10] 0 317.242 296.885 10 /Helvetica SRX
grestore

gsave
0.14902 0.14902 0.14902 C
(1e+07) [6 5 6 6 10] 0 339.686 296.885 10 /Helvetica SRX
grestore

241.974 312.427 LS
243.098 312.427 LE
354.186 312.427 LS
353.062 312.427 LE
241.974 324.663 LS
243.098 324.663 LE
354.186 324.663 LS
353.062 324.663 LE
241.974 336.898 LS
243.098 336.898 LE
354.186 336.898 LS
353.062 336.898 LE
241.974 349.134 LS
243.098 349.134 LE
354.186 349.134 LS
353.062 349.134 LE
241.974 361.37 LS
243.098 361.37 LE
354.186 361.37 LS
353.062 361.37 LE
241.974 373.605 LS
243.098 373.605 LE
354.186 373.605 LS
353.062 373.605 LE
241.974 385.841 LS
243.098 385.841 LE
354.186 385.841 LS
353.062 385.841 LE
gsave
0.14902 0.14902 0.14902 C
(2e-06) [6 5 3 6 10] 0 210.964 308.427 10 /Helvetica SRX
grestore

gsave
0.14902 0.14902 0.14902 C
(3e-06) [6 5 3 6 10] 0 210.964 320.663 10 /Helvetica SRX
grestore

gsave
0.14902 0.14902 0.14902 C
(4e-06) [6 5 3 6 10] 0 210.964 332.898 10 /Helvetica SRX
grestore

gsave
0.14902 0.14902 0.14902 C
(5e-06) [6 5 3 6 10] 0 210.964 345.134 10 /Helvetica SRX
grestore

gsave
0.14902 0.14902 0.14902 C
(6e-06) [6 5 3 6 10] 0 210.964 357.37 10 /Helvetica SRX
grestore

gsave
0.14902 0.14902 0.14902 C
(7e-06) [6 5 3 6 10] 0 210.964 369.605 10 /Helvetica SRX
grestore

gsave
0.14902 0.14902 0.14902 C
(8e-06) [6 5 3 6 10] 0 210.964 381.841 10 /Helvetica SRX
grestore

2 LC
[16 0] 0 setdash
241.974 312.427 LS
354.186 312.427 LE
241.974 385.841 LS
354.186 385.841 LE
241.974 312.427 LS
241.974 385.841 LE
354.186 312.427 LS
354.186 385.841 LE
gsave
0 0 0 C
(v_D \(m2\)) [6 6 8 3 4 10 6 10] 0 274.58 398.841 11 /Helvetica-Bold SRX
grestore

0 LC
1 LJ
[] 0 setdash
0 0 1 C
241.974 342.447 LS
243.096 376.276 L
244.218 374.402 L
245.34 333.062 L
246.462 327.091 L
247.584 321.351 L
248.706 322.557 L
249.829 325.644 L
250.951 322.859 L
252.073 322.204 L
253.195 319.539 L
254.317 317.829 L
255.439 316.591 L
256.561 317.645 L
257.683 318.011 L
258.806 318.041 L
259.928 320.115 L
261.05 320.308 L
262.172 320.965 L
263.294 323.994 L
264.416 325.963 L
265.538 325.589 L
266.66 325.511 L
267.783 324.404 L
268.905 321.652 L
270.027 319.135 L
271.149 317.951 L
272.271 318.181 L
273.393 320.266 L
274.515 321.89 L
275.637 323.026 L
276.76 324.215 L
277.882 325.207 L
279.004 326.467 L
280.126 327.436 L
281.248 326.433 L
282.37 326.096 L
283.492 325.967 L
284.614 325.881 L
285.737 324.72 L
286.859 322.871 L
287.981 320.985 L
289.103 318.863 L
290.225 318.748 L
291.347 318.875 L
292.469 318.819 L
293.591 318.46 L
294.714 317.406 L
295.836 316.869 L
296.958 316.482 L
298.08 318.442 L
299.202 319.1 L
300.324 319.688 L
301.446 319.944 L
302.568 320.449 L
303.691 320.263 L
304.813 320.441 L
305.935 320.37 L
307.057 320.416 L
308.179 320.592 L
309.301 320.544 L
310.423 320.473 L
311.546 320.105 L
312.668 319.989 L
313.79 319.947 L
314.912 320.212 L
316.034 320.376 L
317.156 319.547 L
318.278 319.473 L
319.4 319.533 L
320.523 319.605 L
321.645 319.414 L
322.767 319.368 L
323.889 319.532 L
325.011 319.466 L
326.133 319.141 L
327.255 318.982 L
328.377 318.964 L
329.5 318.291 L
330.622 317.487 L
331.744 317.17 L
332.866 316.991 L
333.988 316.783 L
335.11 316.729 L
336.232 317.476 L
337.354 318.097 L
338.477 319.213 L
339.599 319.537 L
340.721 319.53 L
341.843 319.483 L
342.965 319.386 L
344.087 319.028 L
345.209 319.058 L
346.331 319.038 L
347.454 319.111 L
348.576 319.435 L
349.698 319.351 L
350.82 319.501 L
351.942 319.493 L
353.064 319.661 L
354.186 319.554 LE
1 0 0 C
241.974 334.934 LS
243.096 375.635 L
244.218 357.835 L
245.34 331.544 L
246.462 327.026 L
247.584 320.383 L
248.706 321.673 L
249.829 324.414 L
250.951 322.845 L
252.073 321.834 L
253.195 318.646 L
254.317 316.598 L
255.439 315.822 L
256.561 316.966 L
257.683 318.009 L
258.806 317.988 L
259.928 319.534 L
261.05 319.745 L
262.172 320.9 L
263.294 323.782 L
264.416 323.818 L
265.538 323.301 L
266.66 324.643 L
267.783 324.085 L
268.905 321.449 L
270.027 318.974 L
271.149 317.821 L
272.271 317.911 L
273.393 319.452 L
274.515 320.52 L
275.637 322.408 L
276.76 323.787 L
277.882 324.466 L
279.004 325.467 L
280.126 325.804 L
281.248 325.229 L
282.37 324.989 L
283.492 323.682 L
284.614 322.284 L
285.737 320.683 L
286.859 319.436 L
287.981 317.341 L
289.103 315.332 L
290.225 315.622 L
291.347 316.341 L
292.469 316.978 L
293.591 317.146 L
294.714 316.74 L
295.836 316.523 L
296.958 316.206 L
298.08 317.982 L
299.202 318.676 L
300.324 319.339 L
301.446 319.597 L
302.568 320.078 L
303.691 319.826 L
304.813 319.89 L
305.935 319.849 L
307.057 320.108 L
308.179 320.315 L
309.301 320.313 L
310.423 320.345 L
311.546 320.103 L
312.668 319.905 L
313.79 319.745 L
314.912 319.765 L
316.034 319.649 L
317.156 318.402 L
318.278 318.199 L
319.4 318.303 L
320.523 318.403 L
321.645 318.311 L
322.767 318.54 L
323.889 319.007 L
325.011 319.075 L
326.133 318.791 L
327.255 318.667 L
328.377 318.739 L
329.5 318.157 L
330.622 317.425 L
331.744 317.146 L
332.866 316.989 L
333.988 316.737 L
335.11 316.586 L
336.232 317.168 L
337.354 317.703 L
338.477 318.701 L
339.599 318.972 L
340.721 318.945 L
341.843 319 L
342.965 318.917 L
344.087 318.63 L
345.209 318.698 L
346.331 318.668 L
347.454 318.772 L
348.576 319.153 L
349.698 319.105 L
350.82 319.298 L
351.942 319.302 L
353.064 319.502 L
354.186 319.424 LE
grestore
gsave
1.0 1.0 scale
newpath 0 0 moveto 576 0 lineto 576 432 lineto 0 432 lineto
closepath clip
1 1 1 C
409.067 385.841 521.28 312.427 409.067 312.427 T
409.067 385.841 521.28 385.841 521.28 312.427 T
0.5 W
0.15 0.15 0.15 C
431.501 312.427 LS
431.501 313.556 LE
431.501 385.841 LS
431.501 384.712 LE
453.946 312.427 LS
453.946 313.556 LE
453.946 385.841 LS
453.946 384.712 LE
476.39 312.427 LS
476.39 313.556 LE
476.39 385.841 LS
476.39 384.712 LE
498.835 312.427 LS
498.835 313.556 LE
498.835 385.841 LS
498.835 384.712 LE
521.28 312.427 LS
521.28 313.556 LE
521.28 385.841 LS
521.28 384.712 LE
gsave
0.14902 0.14902 0.14902 C
(2e+06) [6 5 6 6 10] 0 417.001 296.885 10 /Helvetica SRX
grestore

gsave
0.14902 0.14902 0.14902 C
(4e+06) [6 5 6 6 10] 0 439.446 296.885 10 /Helvetica SRX
grestore

gsave
0.14902 0.14902 0.14902 C
(6e+06) [6 5 6 6 10] 0 461.89 296.885 10 /Helvetica SRX
grestore

gsave
0.14902 0.14902 0.14902 C
(8e+06) [6 5 6 6 10] 0 484.335 296.885 10 /Helvetica SRX
grestore

gsave
0.14902 0.14902 0.14902 C
(1e+07) [6 5 6 6 10] 0 506.78 296.885 10 /Helvetica SRX
grestore

409.067 312.427 LS
410.192 312.427 LE
521.28 312.427 LS
520.156 312.427 LE
409.067 324.663 LS
410.192 324.663 LE
521.28 324.663 LS
520.156 324.663 LE
409.067 336.898 LS
410.192 336.898 LE
521.28 336.898 LS
520.156 336.898 LE
409.067 349.134 LS
410.192 349.134 LE
521.28 349.134 LS
520.156 349.134 LE
409.067 361.37 LS
410.192 361.37 LE
521.28 361.37 LS
520.156 361.37 LE
409.067 373.605 LS
410.192 373.605 LE
521.28 373.605 LS
520.156 373.605 LE
409.067 385.841 LS
410.192 385.841 LE
521.28 385.841 LS
520.156 385.841 LE
gsave
0.14902 0.14902 0.14902 C
(5e-09) [6 5 3 6 10] 0 378.058 308.427 10 /Helvetica SRX
grestore

gsave
0.14902 0.14902 0.14902 C
(1e-08) [6 5 3 6 10] 0 378.058 320.663 10 /Helvetica SRX
grestore

gsave
0.14902 0.14902 0.14902 C
(1.5e-08) [6 3 6 5 3 6 10] 0 369.058 332.898 10 /Helvetica SRX
grestore

gsave
0.14902 0.14902 0.14902 C
(2e-08) [6 5 3 6 10] 0 378.058 345.134 10 /Helvetica SRX
grestore

gsave
0.14902 0.14902 0.14902 C
(2.5e-08) [6 3 6 5 3 6 10] 0 369.058 357.37 10 /Helvetica SRX
grestore

gsave
0.14902 0.14902 0.14902 C
(3e-08) [6 5 3 6 10] 0 378.058 369.605 10 /Helvetica SRX
grestore

gsave
0.14902 0.14902 0.14902 C
(3.5e-08) [6 3 6 5 3 6 10] 0 369.058 381.841 10 /Helvetica SRX
grestore

2 LC
[16 0] 0 setdash
409.067 312.427 LS
521.28 312.427 LE
409.067 385.841 LS
521.28 385.841 LE
409.067 312.427 LS
409.067 385.841 LE
521.28 312.427 LS
521.28 385.841 LE
gsave
0 0 0 C
(v_D \(m3\)) [6 6 8 3 4 10 6 10] 0 441.674 398.841 11 /Helvetica-Bold SRX
grestore

0 LC
1 LJ
[] 0 setdash
0 0 1 C
409.067 334.331 LS
410.19 378.636 L
411.312 377.132 L
412.434 329.251 L
413.556 323.917 L
414.678 318.85 L
415.8 320.93 L
416.922 322.752 L
418.044 320.155 L
419.167 319.486 L
420.289 317.632 L
421.411 316.18 L
422.533 315.265 L
423.655 316.06 L
424.777 316.43 L
425.899 316.405 L
427.021 318.176 L
428.144 318.201 L
429.266 318.74 L
430.388 321.646 L
431.51 323.533 L
432.632 323.267 L
433.754 323.243 L
434.876 322.224 L
435.998 319.694 L
437.121 317.337 L
438.243 316.419 L
439.365 316.47 L
440.487 318.448 L
441.609 319.819 L
442.731 320.872 L
443.853 321.84 L
444.975 322.67 L
446.098 323.787 L
447.22 324.573 L
448.342 323.728 L
449.464 323.506 L
450.586 323.341 L
451.708 323.276 L
452.83 322.225 L
453.952 320.684 L
455.075 319.098 L
456.197 317.226 L
457.319 317.03 L
458.441 317.116 L
459.563 317.065 L
460.685 316.809 L
461.807 316.033 L
462.929 315.655 L
464.052 315.329 L
465.174 317.032 L
466.296 317.568 L
467.418 318.012 L
468.54 318.257 L
469.662 318.661 L
470.784 318.522 L
471.906 318.658 L
473.029 318.563 L
474.151 318.54 L
475.273 318.631 L
476.395 318.558 L
477.517 318.491 L
478.639 318.19 L
479.761 318.167 L
480.883 318.1 L
482.006 318.299 L
483.128 318.393 L
484.25 317.689 L
485.372 317.652 L
486.494 317.702 L
487.616 317.716 L
488.738 317.566 L
489.86 317.566 L
490.983 317.705 L
492.105 317.654 L
493.227 317.376 L
494.349 317.281 L
495.471 317.29 L
496.593 316.624 L
497.715 315.926 L
498.837 315.708 L
499.96 315.607 L
501.082 315.445 L
502.204 315.437 L
503.326 316.158 L
504.448 316.614 L
505.57 317.568 L
506.692 317.849 L
507.814 317.854 L
508.937 317.819 L
510.059 317.738 L
511.181 317.465 L
512.303 317.477 L
513.425 317.472 L
514.547 317.521 L
515.669 317.742 L
516.792 317.666 L
517.914 317.796 L
519.036 317.803 L
520.158 317.911 L
521.28 317.799 LE
1 0 0 C
409.067 326.889 LS
410.19 378.183 L
411.312 356.344 L
412.434 327.875 L
413.556 323.858 L
414.678 318.001 L
415.8 320.047 L
416.922 321.557 L
418.044 320.132 L
419.167 319.18 L
420.289 316.86 L
421.411 315.235 L
422.533 314.648 L
423.655 315.552 L
424.777 316.432 L
425.899 316.382 L
427.021 317.701 L
428.144 317.725 L
429.266 318.673 L
430.388 321.459 L
431.51 321.579 L
432.632 321.184 L
433.754 322.359 L
434.876 321.827 L
435.998 319.461 L
437.121 317.201 L
438.243 316.319 L
439.365 316.253 L
440.487 317.735 L
441.609 318.644 L
442.731 320.401 L
443.853 321.474 L
444.975 322.007 L
446.098 322.874 L
447.22 323.117 L
448.342 322.659 L
449.464 322.537 L
450.586 321.339 L
451.708 320.186 L
452.83 318.89 L
453.952 317.934 L
455.075 316.214 L
456.197 314.48 L
457.319 314.613 L
458.441 315.176 L
459.563 315.631 L
460.685 315.76 L
461.807 315.472 L
462.929 315.339 L
464.052 315.078 L
465.174 316.585 L
466.296 317.137 L
467.418 317.646 L
468.54 317.891 L
469.662 318.261 L
470.784 318.059 L
471.906 318.111 L
473.029 318.048 L
474.151 318.216 L
475.273 318.347 L
476.395 318.321 L
477.517 318.345 L
478.639 318.184 L
479.761 318.101 L
480.883 317.94 L
482.006 317.938 L
483.128 317.82 L
484.25 316.74 L
485.372 316.604 L
486.494 316.706 L
487.616 316.754 L
488.738 316.672 L
489.86 316.874 L
490.983 317.266 L
492.105 317.322 L
493.227 317.079 L
494.349 317.012 L
495.471 317.094 L
496.593 316.52 L
497.715 315.887 L
498.837 315.696 L
499.96 315.603 L
501.082 315.395 L
502.204 315.305 L
503.326 315.873 L
504.448 316.262 L
505.57 317.096 L
506.692 317.324 L
507.814 317.309 L
508.937 317.357 L
510.059 317.286 L
511.181 317.079 L
512.303 317.126 L
513.425 317.117 L
514.547 317.193 L
515.669 317.472 L
516.792 317.426 L
517.914 317.601 L
519.036 317.621 L
520.158 317.761 L
521.28 317.676 LE
grestore
gsave
1.0 1.0 scale
newpath 0 0 moveto 576 0 lineto 576 432 lineto 0 432 lineto
closepath clip
1 1 1 C
74.88 253.387 187.093 179.974 74.88 179.974 T
74.88 253.387 187.093 253.387 187.093 179.974 T
0.5 W
0.15 0.15 0.15 C
97.3135 179.974 LS
97.3135 181.102 LE
97.3135 253.387 LS
97.3135 252.258 LE
119.758 179.974 LS
119.758 181.102 LE
119.758 253.387 LS
119.758 252.258 LE
142.203 179.974 LS
142.203 181.102 LE
142.203 253.387 LS
142.203 252.258 LE
164.648 179.974 LS
164.648 181.102 LE
164.648 253.387 LS
164.648 252.258 LE
187.093 179.974 LS
187.093 181.102 LE
187.093 253.387 LS
187.093 252.258 LE
gsave
0.14902 0.14902 0.14902 C
(2e+06) [6 5 6 6 10] 0 82.8135 164.431 10 /Helvetica SRX
grestore

gsave
0.14902 0.14902 0.14902 C
(4e+06) [6 5 6 6 10] 0 105.258 164.431 10 /Helvetica SRX
grestore

gsave
0.14902 0.14902 0.14902 C
(6e+06) [6 5 6 6 10] 0 127.703 164.431 10 /Helvetica SRX
grestore

gsave
0.14902 0.14902 0.14902 C
(8e+06) [6 5 6 6 10] 0 150.148 164.431 10 /Helvetica SRX
grestore

gsave
0.14902 0.14902 0.14902 C
(1e+07) [6 5 6 6 10] 0 172.593 164.431 10 /Helvetica SRX
grestore

74.88 179.974 LS
76.0042 179.974 LE
187.093 179.974 LS
185.968 179.974 LE
74.88 194.656 LS
76.0042 194.656 LE
187.093 194.656 LS
185.968 194.656 LE
74.88 209.339 LS
76.0042 209.339 LE
187.093 209.339 LS
185.968 209.339 LE
74.88 224.022 LS
76.0042 224.022 LE
187.093 224.022 LS
185.968 224.022 LE
74.88 238.704 LS
76.0042 238.704 LE
187.093 238.704 LS
185.968 238.704 LE
74.88 253.387 LS
76.0042 253.387 LE
187.093 253.387 LS
185.968 253.387 LE
gsave
0.14902 0.14902 0.14902 C
(0.0035) [6 3 6 6 6 10] 0 36.8705 175.974 10 /Helvetica SRX
grestore

gsave
0.14902 0.14902 0.14902 C
(0.004) [6 3 6 6 10] 0 42.8705 190.656 10 /Helvetica SRX
grestore

gsave
0.14902 0.14902 0.14902 C
(0.0045) [6 3 6 6 6 10] 0 36.8705 205.339 10 /Helvetica SRX
grestore

gsave
0.14902 0.14902 0.14902 C
(0.005) [6 3 6 6 10] 0 42.8705 220.022 10 /Helvetica SRX
grestore

gsave
0.14902 0.14902 0.14902 C
(0.0055) [6 3 6 6 6 10] 0 36.8705 234.704 10 /Helvetica SRX
grestore

gsave
0.14902 0.14902 0.14902 C
(0.006) [6 3 6 6 10] 0 42.8705 249.387 10 /Helvetica SRX
grestore

2 LC
[16 0] 0 setdash
74.88 179.974 LS
187.093 179.974 LE
74.88 253.387 LS
187.093 253.387 LE
74.88 179.974 LS
74.88 253.387 LE
187.093 179.974 LS
187.093 253.387 LE
gsave
0 0 0 C
(v_C \(Interval\)) [6 6 8 3 4 3 7 4 6 4 6 6 3 10] 0 95.9863 266.387 11 /Helvetica-Bold SRX
grestore

0 LC
1 LJ
[] 0 setdash
0 0 1 C
74.88 240.242 LS
76.0021 203.218 L
77.1242 212.514 L
78.2464 202.358 L
79.3685 211.955 L
80.4906 212.205 L
81.6127 206.017 L
82.7349 220.034 L
83.857 217.692 L
84.9791 220.013 L
86.1013 206.677 L
87.2234 201.066 L
88.3455 200.031 L
89.4676 199.911 L
90.5898 202.078 L
91.7119 201.435 L
92.834 206.798 L
93.9561 206.352 L
95.0783 204.766 L
96.2004 204.554 L
97.3225 207.771 L
98.4446 208.006 L
99.5668 210.542 L
100.689 210.562 L
101.811 212.151 L
102.933 207.678 L
104.055 204.047 L
105.177 203.903 L
106.3 205.402 L
107.422 206.518 L
108.544 206.525 L
109.666 207.055 L
110.788 209.591 L
111.91 209.236 L
113.032 207.101 L
114.154 203.221 L
115.277 200.715 L
116.399 195.365 L
117.521 194.14 L
118.643 193.958 L
119.765 191.718 L
120.887 190.2 L
122.009 189.929 L
123.131 193.153 L
124.254 194.991 L
125.376 194.704 L
126.498 195.583 L
127.62 195.539 L
128.742 193.655 L
129.864 193.462 L
130.986 195.767 L
132.108 198.077 L
133.231 199.166 L
134.353 198.492 L
135.475 197.739 L
136.597 196.245 L
137.719 196.842 L
138.841 197.011 L
139.963 197.564 L
141.085 199.783 L
142.208 202.312 L
143.33 203.386 L
144.452 201.95 L
145.574 201.45 L
146.696 200.39 L
147.818 199.813 L
148.94 197.819 L
150.062 196.183 L
151.185 195.524 L
152.307 195.264 L
153.429 195.812 L
154.551 196.172 L
155.673 195.316 L
156.795 194.433 L
157.917 194.154 L
159.039 193.347 L
160.162 192.375 L
161.284 192.061 L
162.406 192.829 L
163.528 191.56 L
164.65 190.185 L
165.772 189.532 L
166.894 190.076 L
168.016 190.132 L
169.139 190.636 L
170.261 191.773 L
171.383 193.633 L
172.505 194.243 L
173.627 193.002 L
174.749 192.226 L
175.871 191.765 L
176.993 190.82 L
178.116 190.467 L
179.238 190.345 L
180.36 191.241 L
181.482 192.677 L
182.604 194.045 L
183.726 194.135 L
184.848 194.64 L
185.97 195.058 L
187.093 197.105 LE
1 0 0 C
74.88 183.542 LS
76.0021 203.739 L
77.1242 211.118 L
78.2464 201.732 L
79.3685 211.832 L
80.4906 210.549 L
81.6127 205.882 L
82.7349 219.05 L
83.857 217.66 L
84.9791 219.924 L
86.1013 206.09 L
87.2234 201.57 L
88.3455 200.438 L
89.4676 200.059 L
90.5898 202.088 L
91.7119 201.163 L
92.834 206.803 L
93.9561 206.277 L
95.0783 204.504 L
96.2004 204.101 L
97.3225 207.186 L
98.4446 207.526 L
99.5668 210.408 L
100.689 210.584 L
101.811 212.074 L
102.933 207.759 L
104.055 204.014 L
105.177 203.849 L
106.3 205.393 L
107.422 206.238 L
108.544 206.487 L
109.666 207.085 L
110.788 209.537 L
111.91 209.217 L
113.032 207.1 L
114.154 203.084 L
115.277 200.377 L
116.399 195.228 L
117.521 194.12 L
118.643 194.053 L
119.765 191.717 L
120.887 190.226 L
122.009 190.085 L
123.131 193.324 L
124.254 195.222 L
125.376 194.848 L
126.498 195.689 L
127.62 195.558 L
128.742 193.643 L
129.864 193.443 L
130.986 195.612 L
132.108 198.138 L
133.231 199.125 L
134.353 198.514 L
135.475 197.623 L
136.597 196.054 L
137.719 196.589 L
138.841 196.75 L
139.963 197.561 L
141.085 199.603 L
142.208 202.136 L
143.33 203.351 L
144.452 201.888 L
145.574 201.473 L
146.696 200.439 L
147.818 199.775 L
148.94 197.85 L
150.062 196.138 L
151.185 195.391 L
152.307 194.984 L
153.429 195.593 L
154.551 195.958 L
155.673 195.223 L
156.795 194.317 L
157.917 194.052 L
159.039 193.251 L
160.162 192.442 L
161.284 192.151 L
162.406 192.866 L
163.528 191.589 L
164.65 190.158 L
165.772 189.451 L
166.894 190.068 L
168.016 190.166 L
169.139 190.672 L
170.261 191.753 L
171.383 193.584 L
172.505 194.227 L
173.627 192.989 L
174.749 192.197 L
175.871 191.753 L
176.993 190.829 L
178.116 190.5 L
179.238 190.351 L
180.36 191.27 L
181.482 192.644 L
182.604 193.949 L
183.726 194.067 L
184.848 194.626 L
185.97 195.065 L
187.093 197.098 LE
grestore
gsave
1.0 1.0 scale
newpath 0 0 moveto 576 0 lineto 576 432 lineto 0 432 lineto
closepath clip
1 1 1 C
241.974 253.387 354.186 179.974 241.974 179.974 T
241.974 253.387 354.186 253.387 354.186 179.974 T
0.5 W
0.15 0.15 0.15 C
264.407 179.974 LS
264.407 181.102 LE
264.407 253.387 LS
264.407 252.258 LE
286.852 179.974 LS
286.852 181.102 LE
286.852 253.387 LS
286.852 252.258 LE
309.297 179.974 LS
309.297 181.102 LE
309.297 253.387 LS
309.297 252.258 LE
331.742 179.974 LS
331.742 181.102 LE
331.742 253.387 LS
331.742 252.258 LE
354.186 179.974 LS
354.186 181.102 LE
354.186 253.387 LS
354.186 252.258 LE
gsave
0.14902 0.14902 0.14902 C
(2e+06) [6 5 6 6 10] 0 249.907 164.431 10 /Helvetica SRX
grestore

gsave
0.14902 0.14902 0.14902 C
(4e+06) [6 5 6 6 10] 0 272.352 164.431 10 /Helvetica SRX
grestore

gsave
0.14902 0.14902 0.14902 C
(6e+06) [6 5 6 6 10] 0 294.797 164.431 10 /Helvetica SRX
grestore

gsave
0.14902 0.14902 0.14902 C
(8e+06) [6 5 6 6 10] 0 317.242 164.431 10 /Helvetica SRX
grestore

gsave
0.14902 0.14902 0.14902 C
(1e+07) [6 5 6 6 10] 0 339.686 164.431 10 /Helvetica SRX
grestore

241.974 179.974 LS
243.098 179.974 LE
354.186 179.974 LS
353.062 179.974 LE
241.974 194.656 LS
243.098 194.656 LE
354.186 194.656 LS
353.062 194.656 LE
241.974 209.339 LS
243.098 209.339 LE
354.186 209.339 LS
353.062 209.339 LE
241.974 224.022 LS
243.098 224.022 LE
354.186 224.022 LS
353.062 224.022 LE
241.974 238.704 LS
243.098 238.704 LE
354.186 238.704 LS
353.062 238.704 LE
241.974 253.387 LS
243.098 253.387 LE
354.186 253.387 LS
353.062 253.387 LE
gsave
0.14902 0.14902 0.14902 C
(2e-06) [6 5 3 6 10] 0 210.964 175.974 10 /Helvetica SRX
grestore

gsave
0.14902 0.14902 0.14902 C
(2.5e-06) [6 3 6 5 3 6 10] 0 201.964 190.656 10 /Helvetica SRX
grestore

gsave
0.14902 0.14902 0.14902 C
(3e-06) [6 5 3 6 10] 0 210.964 205.339 10 /Helvetica SRX
grestore

gsave
0.14902 0.14902 0.14902 C
(3.5e-06) [6 3 6 5 3 6 10] 0 201.964 220.022 10 /Helvetica SRX
grestore

gsave
0.14902 0.14902 0.14902 C
(4e-06) [6 5 3 6 10] 0 210.964 234.704 10 /Helvetica SRX
grestore

gsave
0.14902 0.14902 0.14902 C
(4.5e-06) [6 3 6 5 3 6 10] 0 201.964 249.387 10 /Helvetica SRX
grestore

2 LC
[16 0] 0 setdash
241.974 179.974 LS
354.186 179.974 LE
241.974 253.387 LS
354.186 253.387 LE
241.974 179.974 LS
241.974 253.387 LE
354.186 179.974 LS
354.186 253.387 LE
gsave
0 0 0 C
(v_C \(m2\)) [6 6 8 3 4 10 6 10] 0 274.58 266.387 11 /Helvetica-Bold SRX
grestore

0 LC
1 LJ
[] 0 setdash
0 0 1 C
241.974 226.014 LS
243.096 222.103 L
244.218 238.634 L
245.34 214.561 L
246.462 237.416 L
247.584 226.366 L
248.706 215.805 L
249.829 240.449 L
250.951 236.876 L
252.073 243.547 L
253.195 223.471 L
254.317 218.575 L
255.439 216.804 L
256.561 215.859 L
257.683 216.741 L
258.806 215.829 L
259.928 223.833 L
261.05 221.72 L
262.172 218.841 L
263.294 218.716 L
264.416 224.77 L
265.538 225.253 L
266.66 228.967 L
267.783 231.06 L
268.905 232.956 L
270.027 223.809 L
271.149 218.699 L
272.271 217.739 L
273.393 218.568 L
274.515 220.458 L
275.637 221.511 L
276.76 224.462 L
277.882 228.453 L
279.004 229.41 L
280.126 227.822 L
281.248 222.466 L
282.37 218.647 L
283.492 209.303 L
284.614 207.509 L
285.737 206.725 L
286.859 202.94 L
287.981 199.32 L
289.103 198.64 L
290.225 203.188 L
291.347 205.611 L
292.469 205.577 L
293.591 206.601 L
294.714 206.382 L
295.836 203.352 L
296.958 203.584 L
298.08 208.347 L
299.202 212.992 L
300.324 214.756 L
301.446 213.839 L
302.568 213.709 L
303.691 211.463 L
304.813 212.35 L
305.935 212.714 L
307.057 213.665 L
308.179 216.57 L
309.301 219.724 L
310.423 221.093 L
311.546 217.564 L
312.668 216.757 L
313.79 214.907 L
314.912 214.315 L
316.034 212.032 L
317.156 209.294 L
318.278 208.402 L
319.4 208.22 L
320.523 208.616 L
321.645 209.054 L
322.767 207.566 L
323.889 206.886 L
325.011 205.817 L
326.133 204.444 L
327.255 202.692 L
328.377 202.367 L
329.5 203.322 L
330.622 200.924 L
331.744 199.181 L
332.866 198.263 L
333.988 198.929 L
335.11 199.192 L
336.232 200.218 L
337.354 201.791 L
338.477 204.828 L
339.599 205.575 L
340.721 204.142 L
341.843 203.268 L
342.965 202.921 L
344.087 201.394 L
345.209 201.17 L
346.331 201.096 L
347.454 202.912 L
348.576 205.638 L
349.698 207.582 L
350.82 207.869 L
351.942 208.954 L
353.064 209.314 L
354.186 212.138 LE
1 0 0 C
241.974 192.87 LS
243.096 221.03 L
244.218 237.498 L
245.34 214.241 L
246.462 237.365 L
247.584 225.758 L
248.706 215.805 L
249.829 239.568 L
250.951 236.876 L
252.073 243.546 L
253.195 223.179 L
254.317 217.253 L
255.439 216.303 L
256.561 215.839 L
257.683 216.62 L
258.806 215.752 L
259.928 223.82 L
261.05 221.707 L
262.172 218.755 L
263.294 218.418 L
264.416 223.399 L
265.538 224.472 L
266.66 228.482 L
267.783 230.837 L
268.905 232.824 L
270.027 223.76 L
271.149 218.633 L
272.271 217.739 L
273.393 218.47 L
274.515 220.13 L
275.637 221.398 L
276.76 224.459 L
277.882 228.433 L
279.004 229.41 L
280.126 227.822 L
281.248 222.401 L
282.37 218.276 L
283.492 209.117 L
284.614 207.473 L
285.737 206.72 L
286.859 202.94 L
287.981 199.303 L
289.103 198.535 L
290.225 203.104 L
291.347 205.446 L
292.469 205.368 L
293.591 206.426 L
294.714 206.325 L
295.836 203.318 L
296.958 203.472 L
298.08 208.006 L
299.202 212.352 L
300.324 214.173 L
301.446 213.256 L
302.568 213.009 L
303.691 210.769 L
304.813 211.559 L
305.935 211.787 L
307.057 212.851 L
308.179 215.841 L
309.301 219.097 L
310.423 220.823 L
311.546 217.515 L
312.668 216.756 L
313.79 214.886 L
314.912 214.24 L
316.034 211.875 L
317.156 209.031 L
318.278 208.03 L
319.4 207.759 L
320.523 208.107 L
321.645 208.506 L
322.767 207.091 L
323.889 206.625 L
325.011 205.65 L
326.133 204.292 L
327.255 202.617 L
328.377 202.272 L
329.5 203.248 L
330.622 200.85 L
331.744 199.125 L
332.866 198.244 L
333.988 198.918 L
335.11 199.188 L
336.232 200.218 L
337.354 201.785 L
338.477 204.803 L
339.599 205.557 L
340.721 204.113 L
341.843 203.252 L
342.965 202.915 L
344.087 201.394 L
345.209 201.153 L
346.331 201.077 L
347.454 202.905 L
348.576 205.627 L
349.698 207.569 L
350.82 207.849 L
351.942 208.935 L
353.064 209.304 L
354.186 212.123 LE
grestore
gsave
1.0 1.0 scale
newpath 0 0 moveto 576 0 lineto 576 432 lineto 0 432 lineto
closepath clip
1 1 1 C
409.067 253.387 521.28 179.974 409.067 179.974 T
409.067 253.387 521.28 253.387 521.28 179.974 T
0.5 W
0.15 0.15 0.15 C
431.501 179.974 LS
431.501 181.102 LE
431.501 253.387 LS
431.501 252.258 LE
453.946 179.974 LS
453.946 181.102 LE
453.946 253.387 LS
453.946 252.258 LE
476.39 179.974 LS
476.39 181.102 LE
476.39 253.387 LS
476.39 252.258 LE
498.835 179.974 LS
498.835 181.102 LE
498.835 253.387 LS
498.835 252.258 LE
521.28 179.974 LS
521.28 181.102 LE
521.28 253.387 LS
521.28 252.258 LE
gsave
0.14902 0.14902 0.14902 C
(2e+06) [6 5 6 6 10] 0 417.001 164.431 10 /Helvetica SRX
grestore

gsave
0.14902 0.14902 0.14902 C
(4e+06) [6 5 6 6 10] 0 439.446 164.431 10 /Helvetica SRX
grestore

gsave
0.14902 0.14902 0.14902 C
(6e+06) [6 5 6 6 10] 0 461.89 164.431 10 /Helvetica SRX
grestore

gsave
0.14902 0.14902 0.14902 C
(8e+06) [6 5 6 6 10] 0 484.335 164.431 10 /Helvetica SRX
grestore

gsave
0.14902 0.14902 0.14902 C
(1e+07) [6 5 6 6 10] 0 506.78 164.431 10 /Helvetica SRX
grestore

409.067 179.974 LS
410.192 179.974 LE
521.28 179.974 LS
520.156 179.974 LE
409.067 190.461 LS
410.192 190.461 LE
521.28 190.461 LS
520.156 190.461 LE
409.067 200.949 LS
410.192 200.949 LE
521.28 200.949 LS
520.156 200.949 LE
409.067 211.436 LS
410.192 211.436 LE
521.28 211.436 LS
520.156 211.436 LE
409.067 221.924 LS
410.192 221.924 LE
521.28 221.924 LS
520.156 221.924 LE
409.067 232.412 LS
410.192 232.412 LE
521.28 232.412 LS
520.156 232.412 LE
409.067 242.899 LS
410.192 242.899 LE
521.28 242.899 LS
520.156 242.899 LE
409.067 253.387 LS
410.192 253.387 LE
521.28 253.387 LS
520.156 253.387 LE
gsave
0.14902 0.14902 0.14902 C
(6e-09) [6 5 3 6 10] 0 378.058 175.974 10 /Helvetica SRX
grestore

gsave
0.14902 0.14902 0.14902 C
(8e-09) [6 5 3 6 10] 0 378.058 186.461 10 /Helvetica SRX
grestore

gsave
0.14902 0.14902 0.14902 C
(1e-08) [6 5 3 6 10] 0 378.058 196.949 10 /Helvetica SRX
grestore

gsave
0.14902 0.14902 0.14902 C
(1.2e-08) [6 3 6 5 3 6 10] 0 369.058 207.436 10 /Helvetica SRX
grestore

gsave
0.14902 0.14902 0.14902 C
(1.4e-08) [6 3 6 5 3 6 10] 0 369.058 217.924 10 /Helvetica SRX
grestore

gsave
0.14902 0.14902 0.14902 C
(1.6e-08) [6 3 6 5 3 6 10] 0 369.058 228.412 10 /Helvetica SRX
grestore

gsave
0.14902 0.14902 0.14902 C
(1.8e-08) [6 3 6 5 3 6 10] 0 369.058 238.899 10 /Helvetica SRX
grestore

gsave
0.14902 0.14902 0.14902 C
(2e-08) [6 5 3 6 10] 0 378.058 249.387 10 /Helvetica SRX
grestore

2 LC
[16 0] 0 setdash
409.067 179.974 LS
521.28 179.974 LE
409.067 253.387 LS
521.28 253.387 LE
409.067 179.974 LS
409.067 253.387 LE
521.28 179.974 LS
521.28 253.387 LE
gsave
0 0 0 C
(v_C \(m3\)) [6 6 8 3 4 10 6 10] 0 441.674 266.387 11 /Helvetica-Bold SRX
grestore

0 LC
1 LJ
[] 0 setdash
0 0 1 C
409.067 218.267 LS
410.19 215.843 L
411.312 236.285 L
412.434 206.423 L
413.556 235.078 L
414.678 215.506 L
415.8 205.786 L
416.922 231.281 L
418.044 227.615 L
419.167 238.048 L
420.289 218.675 L
421.411 215.67 L
422.533 214.047 L
423.655 213.1 L
424.777 211.673 L
425.899 211.14 L
427.021 218.359 L
428.144 214.446 L
429.266 211.611 L
430.388 211.488 L
431.51 218.192 L
432.632 219.525 L
433.754 222.674 L
434.876 226.117 L
435.998 227.323 L
437.121 216.715 L
438.243 211.612 L
439.365 209.532 L
440.487 209.585 L
441.609 212.041 L
442.731 213.938 L
443.853 218.077 L
444.975 222.092 L
446.098 224.737 L
447.22 224.308 L
448.342 219.886 L
449.464 216.141 L
450.586 206.139 L
451.708 204.383 L
452.83 203.235 L
453.952 199.378 L
455.075 194.592 L
456.197 193.812 L
457.319 197.755 L
458.441 199.857 L
459.563 200.078 L
460.685 200.805 L
461.807 200.553 L
462.929 197.454 L
464.052 198.055 L
465.174 203.494 L
466.296 208.977 L
467.418 210.616 L
468.54 209.536 L
469.662 210.35 L
470.784 208.232 L
471.906 209.317 L
473.029 209.801 L
474.151 210.724 L
475.273 213.331 L
476.395 215.928 L
477.517 217.129 L
478.639 212.762 L
479.761 211.589 L
480.883 209.646 L
482.006 209.611 L
483.128 207.976 L
484.25 205.031 L
485.372 204.277 L
486.494 204.224 L
487.616 203.961 L
488.738 204.241 L
489.86 202.61 L
490.983 202.697 L
492.105 201.199 L
493.227 199.772 L
494.349 197.75 L
495.471 197.584 L
496.593 198.386 L
497.715 195.849 L
498.837 194.556 L
499.96 193.476 L
501.082 194.058 L
502.204 194.356 L
503.326 195.55 L
504.448 196.821 L
505.57 199.885 L
506.692 200.592 L
507.814 199.608 L
508.937 199.077 L
510.059 198.904 L
511.181 197.341 L
512.303 197.216 L
513.425 197.284 L
514.547 199.347 L
515.669 202.559 L
516.792 204.351 L
517.914 204.621 L
519.036 205.804 L
520.158 205.965 L
521.28 208.524 LE
1 0 0 C
409.067 187.253 LS
410.19 214.842 L
411.312 234.071 L
412.434 206.248 L
413.556 235.029 L
414.678 214.978 L
415.8 205.78 L
416.922 230.087 L
418.044 227.63 L
419.167 238.081 L
420.289 218.695 L
421.411 213.561 L
422.533 213.04 L
423.655 213.004 L
424.777 211.555 L
425.899 211.116 L
427.021 218.308 L
428.144 214.455 L
429.266 211.562 L
430.388 211.197 L
431.51 216.209 L
432.632 218.475 L
433.754 221.979 L
434.876 225.725 L
435.998 227.087 L
437.121 216.653 L
438.243 211.506 L
439.365 209.533 L
440.487 209.468 L
441.609 211.732 L
442.731 213.839 L
443.853 218.08 L
444.975 222.076 L
446.098 224.737 L
447.22 224.31 L
448.342 219.787 L
449.464 215.691 L
450.586 205.935 L
451.708 204.358 L
452.83 203.214 L
453.952 199.378 L
455.075 194.541 L
456.197 193.616 L
457.319 197.601 L
458.441 199.596 L
459.563 199.776 L
460.685 200.547 L
461.807 200.461 L
462.929 197.42 L
464.052 197.937 L
465.174 203.055 L
466.296 208.065 L
467.418 209.766 L
468.54 208.676 L
469.662 209.317 L
470.784 207.242 L
471.906 208.194 L
473.029 208.488 L
474.151 209.502 L
475.273 212.305 L
476.395 215.032 L
477.517 216.725 L
478.639 212.68 L
479.761 211.588 L
480.883 209.61 L
482.006 209.507 L
483.128 207.788 L
484.25 204.716 L
485.372 203.844 L
486.494 203.731 L
487.616 203.38 L
488.738 203.588 L
489.86 201.973 L
490.983 202.355 L
492.105 200.988 L
493.227 199.572 L
494.349 197.663 L
495.471 197.47 L
496.593 198.29 L
497.715 195.763 L
498.837 194.491 L
499.96 193.455 L
501.082 194.041 L
502.204 194.346 L
503.326 195.549 L
504.448 196.82 L
505.57 199.864 L
506.692 200.582 L
507.814 199.582 L
508.937 199.061 L
510.059 198.896 L
511.181 197.341 L
512.303 197.197 L
513.425 197.269 L
514.547 199.349 L
515.669 202.566 L
516.792 204.355 L
517.914 204.622 L
519.036 205.804 L
520.158 205.969 L
521.28 208.525 LE
grestore
gsave
1.0 1.0 scale
newpath 0 0 moveto 576 0 lineto 576 432 lineto 0 432 lineto
closepath clip
1 1 1 C
74.88 120.933 187.093 47.52 74.88 47.52 T
74.88 120.933 187.093 120.933 187.093 47.52 T
0.5 W
0.15 0.15 0.15 C
97.3135 47.52 LS
97.3135 48.6485 LE
97.3135 120.933 LS
97.3135 119.805 LE
119.758 47.52 LS
119.758 48.6485 LE
119.758 120.933 LS
119.758 119.805 LE
142.203 47.52 LS
142.203 48.6485 LE
142.203 120.933 LS
142.203 119.805 LE
164.648 47.52 LS
164.648 48.6485 LE
164.648 120.933 LS
164.648 119.805 LE
187.093 47.52 LS
187.093 48.6485 LE
187.093 120.933 LS
187.093 119.805 LE
gsave
0.14902 0.14902 0.14902 C
(2e+06) [6 5 6 6 10] 0 82.8135 31.9776 10 /Helvetica SRX
grestore

gsave
0.14902 0.14902 0.14902 C
(4e+06) [6 5 6 6 10] 0 105.258 31.9776 10 /Helvetica SRX
grestore

gsave
0.14902 0.14902 0.14902 C
(6e+06) [6 5 6 6 10] 0 127.703 31.9776 10 /Helvetica SRX
grestore

gsave
0.14902 0.14902 0.14902 C
(8e+06) [6 5 6 6 10] 0 150.148 31.9776 10 /Helvetica SRX
grestore

gsave
0.14902 0.14902 0.14902 C
(1e+07) [6 5 6 6 10] 0 172.593 31.9776 10 /Helvetica SRX
grestore

74.88 47.52 LS
76.0042 47.52 LE
187.093 47.52 LS
185.968 47.52 LE
74.88 62.2026 LS
76.0042 62.2026 LE
187.093 62.2026 LS
185.968 62.2026 LE
74.88 76.8852 LS
76.0042 76.8852 LE
187.093 76.8852 LS
185.968 76.8852 LE
74.88 91.5679 LS
76.0042 91.5679 LE
187.093 91.5679 LS
185.968 91.5679 LE
74.88 106.25 LS
76.0042 106.25 LE
187.093 106.25 LS
185.968 106.25 LE
74.88 120.933 LS
76.0042 120.933 LE
187.093 120.933 LS
185.968 120.933 LE
gsave
0.14902 0.14902 0.14902 C
(0) [10] 0 63.8705 43.52 10 /Helvetica SRX
grestore

gsave
0.14902 0.14902 0.14902 C
(0.5) [6 3 10] 0 54.8705 58.2026 10 /Helvetica SRX
grestore

gsave
0.14902 0.14902 0.14902 C
(1) [10] 0 63.8705 72.8853 10 /Helvetica SRX
grestore

gsave
0.14902 0.14902 0.14902 C
(1.5) [6 3 10] 0 54.8705 87.5679 10 /Helvetica SRX
grestore

gsave
0.14902 0.14902 0.14902 C
(2) [10] 0 63.8705 102.251 10 /Helvetica SRX
grestore

gsave
0.14902 0.14902 0.14902 C
(2.5) [6 3 10] 0 54.8705 116.933 10 /Helvetica SRX
grestore

2 LC
[16 0] 0 setdash
74.88 47.52 LS
187.093 47.52 LE
74.88 120.933 LS
187.093 120.933 LE
74.88 47.52 LS
74.88 120.933 LE
187.093 47.52 LS
187.093 120.933 LE
gsave
0 0 0 C
(eeta_T \(Interval\)) [6 6 4 6 6 7 3 4 3 7 4 6 4 6 6 3 10] 0 88.4863 133.933 11 /Helvetica-Bold SRX
grestore

0 LC
1 LJ
[] 0 setdash
0 0 1 C
74.88 57.2269 LS
76.0021 75.0662 L
77.1242 68.9428 L
78.2464 71.3802 L
79.3685 75.3811 L
80.4906 68.3379 L
81.6127 70.1074 L
82.7349 81.6431 L
83.857 78.0262 L
84.9791 67.3597 L
86.1013 69.5908 L
87.2234 72.252 L
88.3455 72.394 L
89.4676 81.2462 L
90.5898 92.1348 L
91.7119 101.372 L
92.834 101.114 L
93.9561 99.8951 L
95.0783 93.914 L
96.2004 84.782 L
97.3225 83.9116 L
98.4446 81.0349 L
99.5668 81.9703 L
100.689 81.4401 L
101.811 82.0535 L
102.933 80.74 L
104.055 80.068 L
105.177 80.7976 L
106.3 78.2266 L
107.422 85.2692 L
108.544 87.2213 L
109.666 91.8514 L
110.788 91.0813 L
111.91 89.457 L
113.032 91.7234 L
114.154 96.5121 L
115.277 104.709 L
116.399 112.67 L
117.521 113.351 L
118.643 112.358 L
119.765 112.252 L
120.887 110.738 L
122.009 105.767 L
123.131 102.2 L
124.254 93.2193 L
125.376 86.1582 L
126.498 80.4464 L
127.62 79.2919 L
128.742 78.8271 L
129.864 77.798 L
130.986 77.1074 L
132.108 78.5558 L
133.231 78.5061 L
134.353 77.7294 L
135.475 77.5786 L
136.597 77.2674 L
137.719 74.9361 L
138.841 75.2901 L
139.963 76.1109 L
141.085 76.6261 L
142.208 76.3904 L
143.33 77.6912 L
144.452 78.4255 L
145.574 78.3838 L
146.696 76.793 L
147.818 80.6861 L
148.94 84.5451 L
150.062 84.763 L
151.185 86.6507 L
152.307 87.9867 L
153.429 87.5807 L
154.551 87.5638 L
155.673 87.6737 L
156.795 87.6463 L
157.917 87.0227 L
159.039 86.5846 L
160.162 86.2708 L
161.284 86.2391 L
162.406 86.9292 L
163.528 88.5354 L
164.65 90.2852 L
165.772 91.025 L
166.894 91.9651 L
168.016 94.3235 L
169.139 97.8419 L
170.261 97.874 L
171.383 96.5353 L
172.505 98.3196 L
173.627 99.7249 L
174.749 99.0952 L
175.871 99.8502 L
176.993 100.464 L
178.116 100.49 L
179.238 100.676 L
180.36 101.264 L
181.482 101.493 L
182.604 100.982 L
183.726 101.327 L
184.848 101.262 L
185.97 100.441 L
187.093 101.647 LE
1 0 0 C
74.88 58.7098 LS
76.0021 71.3215 L
77.1242 67.8332 L
78.2464 69.5297 L
79.3685 68.9229 L
80.4906 68.383 L
81.6127 69.8179 L
82.7349 70.2035 L
83.857 70.7348 L
84.9791 67.3471 L
86.1013 69.4503 L
87.2234 72.0142 L
88.3455 72.0983 L
89.4676 75.58 L
90.5898 78.232 L
91.7119 74.9341 L
92.834 70.7099 L
93.9561 73.1036 L
95.0783 82.894 L
96.2004 78.2596 L
97.3225 78.5536 L
98.4446 77.7854 L
99.5668 76.8213 L
100.689 78.942 L
101.811 82.0372 L
102.933 80.8459 L
104.055 79.6311 L
105.177 77.1346 L
106.3 75.6897 L
107.422 84.604 L
108.544 85.9761 L
109.666 89.8449 L
110.788 89.1778 L
111.91 89.1502 L
113.032 87.1503 L
114.154 87.3623 L
115.277 85.9783 L
116.399 86.2353 L
117.521 86.6319 L
118.643 86.772 L
119.765 90.1875 L
120.887 90.7323 L
122.009 91.0701 L
123.131 91.0775 L
124.254 91.7302 L
125.376 88.2303 L
126.498 80.4607 L
127.62 79.1018 L
128.742 78.703 L
129.864 77.9643 L
130.986 77.4772 L
132.108 78.436 L
133.231 78.5086 L
134.353 77.81 L
135.475 77.6677 L
136.597 77.4336 L
137.719 75.812 L
138.841 76.0038 L
139.963 76.4072 L
141.085 76.7127 L
142.208 76.4247 L
143.33 78.0749 L
144.452 78.4248 L
145.574 78.4086 L
146.696 76.7793 L
147.818 80.581 L
148.94 84.2137 L
150.062 84.3437 L
151.185 85.2207 L
152.307 85.163 L
153.429 84.4625 L
154.551 83.9878 L
155.673 83.1977 L
156.795 83.9101 L
157.917 82.4968 L
159.039 81.9057 L
160.162 81.5878 L
161.284 81.4373 L
162.406 82.0906 L
163.528 83.4096 L
164.65 84.2534 L
165.772 84.5318 L
166.894 84.9981 L
168.016 86.3677 L
169.139 88.169 L
170.261 89.282 L
171.383 89.028 L
172.505 90.4766 L
173.627 91.3989 L
174.749 89.0803 L
175.871 88.9574 L
176.993 88.1292 L
178.116 87.4043 L
179.238 86.6558 L
180.36 87.6505 L
181.482 90.1645 L
182.604 91.2495 L
183.726 92.7217 L
184.848 93.0983 L
185.97 92.5656 L
187.093 93.9665 LE
grestore
gsave
1.0 1.0 scale
newpath 0 0 moveto 576 0 lineto 576 432 lineto 0 432 lineto
closepath clip
1 1 1 C
241.974 120.933 354.186 47.52 241.974 47.52 T
241.974 120.933 354.186 120.933 354.186 47.52 T
0.5 W
0.15 0.15 0.15 C
264.407 47.52 LS
264.407 48.6485 LE
264.407 120.933 LS
264.407 119.805 LE
286.852 47.52 LS
286.852 48.6485 LE
286.852 120.933 LS
286.852 119.805 LE
309.297 47.52 LS
309.297 48.6485 LE
309.297 120.933 LS
309.297 119.805 LE
331.742 47.52 LS
331.742 48.6485 LE
331.742 120.933 LS
331.742 119.805 LE
354.186 47.52 LS
354.186 48.6485 LE
354.186 120.933 LS
354.186 119.805 LE
gsave
0.14902 0.14902 0.14902 C
(2e+06) [6 5 6 6 10] 0 249.907 31.9776 10 /Helvetica SRX
grestore

gsave
0.14902 0.14902 0.14902 C
(4e+06) [6 5 6 6 10] 0 272.352 31.9776 10 /Helvetica SRX
grestore

gsave
0.14902 0.14902 0.14902 C
(6e+06) [6 5 6 6 10] 0 294.797 31.9776 10 /Helvetica SRX
grestore

gsave
0.14902 0.14902 0.14902 C
(8e+06) [6 5 6 6 10] 0 317.242 31.9776 10 /Helvetica SRX
grestore

gsave
0.14902 0.14902 0.14902 C
(1e+07) [6 5 6 6 10] 0 339.686 31.9776 10 /Helvetica SRX
grestore

241.974 47.52 LS
243.098 47.52 LE
354.186 47.52 LS
353.062 47.52 LE
241.974 65.8733 LS
243.098 65.8733 LE
354.186 65.8733 LS
353.062 65.8733 LE
241.974 84.2266 LS
243.098 84.2266 LE
354.186 84.2266 LS
353.062 84.2266 LE
241.974 102.58 LS
243.098 102.58 LE
354.186 102.58 LS
353.062 102.58 LE
241.974 120.933 LS
243.098 120.933 LE
354.186 120.933 LS
353.062 120.933 LE
gsave
0.14902 0.14902 0.14902 C
(0) [10] 0 230.964 43.52 10 /Helvetica SRX
grestore

gsave
0.14902 0.14902 0.14902 C
(0.2) [6 3 10] 0 221.964 61.8733 10 /Helvetica SRX
grestore

gsave
0.14902 0.14902 0.14902 C
(0.4) [6 3 10] 0 221.964 80.2266 10 /Helvetica SRX
grestore

gsave
0.14902 0.14902 0.14902 C
(0.6) [6 3 10] 0 221.964 98.5799 10 /Helvetica SRX
grestore

gsave
0.14902 0.14902 0.14902 C
(0.8) [6 3 10] 0 221.964 116.933 10 /Helvetica SRX
grestore

2 LC
[16 0] 0 setdash
241.974 47.52 LS
354.186 47.52 LE
241.974 120.933 LS
354.186 120.933 LE
241.974 47.52 LS
241.974 120.933 LE
354.186 47.52 LS
354.186 120.933 LE
gsave
0 0 0 C
(eeta_T \(m2\)) [6 6 4 6 6 7 3 4 10 6 10] 0 267.08 133.933 11 /Helvetica-Bold SRX
grestore

0 LC
1 LJ
[] 0 setdash
0 0 1 C
241.974 49.5306 LS
243.096 59.0408 L
244.218 55.3255 L
245.34 56.6117 L
246.462 59.6632 L
247.584 54.7041 L
248.706 55.6992 L
249.829 65.2861 L
250.951 61.4835 L
252.073 53.995 L
253.195 55.7227 L
254.317 57.0863 L
255.439 57.1017 L
256.561 65.2266 L
257.683 77.4109 L
258.806 93.3113 L
259.928 94.3655 L
261.05 90.2127 L
262.172 80.0299 L
263.294 68.0771 L
264.416 67.5346 L
265.538 64.7147 L
266.66 65.3949 L
267.783 64.7628 L
268.905 66.3693 L
270.027 64.5051 L
271.149 63.6324 L
272.271 64.2029 L
273.393 61.8393 L
274.515 69.5502 L
275.637 70.5302 L
276.76 76.778 L
277.882 75.8337 L
279.004 77.6149 L
280.126 80.6704 L
281.248 86.4404 L
282.37 96.4935 L
283.492 108.787 L
284.614 112.494 L
285.737 110.945 L
286.859 110.761 L
287.981 107.233 L
289.103 94.6896 L
290.225 88.6765 L
291.347 81.5359 L
292.469 75.1075 L
293.591 64.1775 L
294.714 63.1696 L
295.836 62.9775 L
296.958 62.3069 L
298.08 61.8651 L
299.202 63.2713 L
300.324 63.5076 L
301.446 63.11 L
302.568 63.0975 L
303.691 63.0791 L
304.813 60.7864 L
305.935 60.9997 L
307.057 61.4674 L
308.179 61.9301 L
309.301 61.6905 L
310.423 62.5276 L
311.546 62.8967 L
312.668 62.9203 L
313.79 61.0341 L
314.912 65.4066 L
316.034 69.5252 L
317.156 69.9421 L
318.278 71.3658 L
319.4 72.5909 L
320.523 72.1301 L
321.645 72.108 L
322.767 72.2207 L
323.889 72.2814 L
325.011 71.4058 L
326.133 70.7793 L
327.255 70.3871 L
328.377 70.2666 L
329.5 70.9797 L
330.622 73.1688 L
331.744 75.2817 L
332.866 75.6657 L
333.988 77.6557 L
335.11 79.7982 L
336.232 87.3379 L
337.354 86.7127 L
338.477 84.9213 L
339.599 87.1074 L
340.721 88.7033 L
341.843 88.016 L
342.965 89.6968 L
344.087 90.6936 L
345.209 90.9594 L
346.331 90.9603 L
347.454 91.6662 L
348.576 92.1807 L
349.698 91.6616 L
350.82 91.9242 L
351.942 91.6508 L
353.064 90.5343 L
354.186 91.3272 LE
1 0 0 C
241.974 49.4779 LS
243.096 55.9911 L
244.218 54.196 L
245.34 55.4238 L
246.462 55.3869 L
247.584 54.6596 L
248.706 55.62 L
249.829 55.7157 L
250.951 55.8673 L
252.073 53.9763 L
253.195 55.2252 L
254.317 56.8841 L
255.439 56.8657 L
256.561 60.7907 L
257.683 62.4523 L
258.806 59.5964 L
259.928 56.4046 L
261.05 58.4289 L
262.172 68.1676 L
263.294 63.8074 L
264.416 64.261 L
265.538 62.5677 L
266.66 61.2943 L
267.783 62.7658 L
268.905 66.2856 L
270.027 64.4906 L
271.149 63.2968 L
272.271 61.7921 L
273.393 59.7319 L
274.515 69.1397 L
275.637 70.2696 L
276.76 75.0553 L
277.882 73.7906 L
279.004 74.2118 L
280.126 74.3516 L
281.248 72.9191 L
282.37 70.8652 L
283.492 71.2707 L
284.614 71.702 L
285.737 72.0157 L
286.859 78.5711 L
287.981 80.0482 L
289.103 77.9998 L
290.225 77.1328 L
291.347 76.5518 L
292.469 74.0702 L
293.591 64.1646 L
294.714 63.0748 L
295.836 62.7024 L
296.958 61.9713 L
298.08 61.5246 L
299.202 63.0967 L
300.324 63.507 L
301.446 63.1059 L
302.568 63.0839 L
303.691 63.079 L
304.813 60.7788 L
305.935 60.9995 L
307.057 61.3522 L
308.179 61.7045 L
309.301 61.4717 L
310.423 62.5056 L
311.546 62.8699 L
312.668 62.8614 L
313.79 61.0329 L
314.912 65.3956 L
316.034 69.2929 L
317.156 69.4339 L
318.278 70.0774 L
319.4 69.9514 L
320.523 68.8294 L
321.645 68.4627 L
322.767 68.2882 L
323.889 68.2295 L
325.011 66.7444 L
326.133 66.0279 L
327.255 65.6983 L
328.377 65.5654 L
329.5 66.0663 L
330.622 67.2207 L
331.744 68.0337 L
332.866 68.3094 L
333.988 69.3727 L
335.11 70.943 L
336.232 75.4234 L
337.354 76.462 L
338.477 76.2917 L
339.599 78.1281 L
340.721 79.1236 L
341.843 77.2923 L
342.965 75.8812 L
344.087 74.2924 L
345.209 72.8519 L
346.331 71.7939 L
347.454 74.6251 L
348.576 78.0231 L
349.698 78.9744 L
350.82 80.7076 L
351.942 82.0566 L
353.064 81.7355 L
354.186 82.54 LE
grestore
gsave
1.0 1.0 scale
newpath 0 0 moveto 576 0 lineto 576 432 lineto 0 432 lineto
closepath clip
1 1 1 C
409.067 120.933 521.28 47.52 409.067 47.52 T
409.067 120.933 521.28 120.933 521.28 47.52 T
0.5 W
0.15 0.15 0.15 C
431.501 47.52 LS
431.501 48.6485 LE
431.501 120.933 LS
431.501 119.805 LE
453.946 47.52 LS
453.946 48.6485 LE
453.946 120.933 LS
453.946 119.805 LE
476.39 47.52 LS
476.39 48.6485 LE
476.39 120.933 LS
476.39 119.805 LE
498.835 47.52 LS
498.835 48.6485 LE
498.835 120.933 LS
498.835 119.805 LE
521.28 47.52 LS
521.28 48.6485 LE
521.28 120.933 LS
521.28 119.805 LE
gsave
0.14902 0.14902 0.14902 C
(2e+06) [6 5 6 6 10] 0 417.001 31.9776 10 /Helvetica SRX
grestore

gsave
0.14902 0.14902 0.14902 C
(4e+06) [6 5 6 6 10] 0 439.446 31.9776 10 /Helvetica SRX
grestore

gsave
0.14902 0.14902 0.14902 C
(6e+06) [6 5 6 6 10] 0 461.89 31.9776 10 /Helvetica SRX
grestore

gsave
0.14902 0.14902 0.14902 C
(8e+06) [6 5 6 6 10] 0 484.335 31.9776 10 /Helvetica SRX
grestore

gsave
0.14902 0.14902 0.14902 C
(1e+07) [6 5 6 6 10] 0 506.78 31.9776 10 /Helvetica SRX
grestore

409.067 47.52 LS
410.192 47.52 LE
521.28 47.52 LS
520.156 47.52 LE
409.067 62.2026 LS
410.192 62.2026 LE
521.28 62.2026 LS
520.156 62.2026 LE
409.067 76.8852 LS
410.192 76.8852 LE
521.28 76.8852 LS
520.156 76.8852 LE
409.067 91.5679 LS
410.192 91.5679 LE
521.28 91.5679 LS
520.156 91.5679 LE
409.067 106.25 LS
410.192 106.25 LE
521.28 106.25 LS
520.156 106.25 LE
409.067 120.933 LS
410.192 120.933 LE
521.28 120.933 LS
520.156 120.933 LE
gsave
0.14902 0.14902 0.14902 C
(0) [10] 0 398.058 43.52 10 /Helvetica SRX
grestore

gsave
0.14902 0.14902 0.14902 C
(0.2) [6 3 10] 0 389.058 58.2026 10 /Helvetica SRX
grestore

gsave
0.14902 0.14902 0.14902 C
(0.4) [6 3 10] 0 389.058 72.8853 10 /Helvetica SRX
grestore

gsave
0.14902 0.14902 0.14902 C
(0.6) [6 3 10] 0 389.058 87.5679 10 /Helvetica SRX
grestore

gsave
0.14902 0.14902 0.14902 C
(0.8) [6 3 10] 0 389.058 102.251 10 /Helvetica SRX
grestore

gsave
0.14902 0.14902 0.14902 C
(1) [10] 0 398.058 116.933 10 /Helvetica SRX
grestore

2 LC
[16 0] 0 setdash
409.067 47.52 LS
521.28 47.52 LE
409.067 120.933 LS
521.28 120.933 LE
409.067 47.52 LS
409.067 120.933 LE
521.28 47.52 LS
521.28 120.933 LE
gsave
0 0 0 C
(eeta_T \(m3\)) [6 6 4 6 6 7 3 4 10 6 10] 0 434.174 133.933 11 /Helvetica-Bold SRX
grestore

0 LC
1 LJ
[] 0 setdash
0 0 1 C
409.067 47.9715 LS
410.19 52.2172 L
411.312 50.5302 L
412.434 50.9953 L
413.556 52.9932 L
414.678 50.044 L
415.8 50.6503 L
416.922 55.9881 L
418.044 53.9164 L
419.167 49.7249 L
420.289 50.7329 L
421.411 51.3643 L
422.533 51.3018 L
423.655 57.5984 L
424.777 66.9352 L
425.899 79.9053 L
427.021 80.4982 L
428.144 77.1238 L
429.266 69.8829 L
430.388 59.1856 L
431.51 58.6325 L
432.632 56.6949 L
433.754 56.8082 L
434.876 56.2524 L
435.998 57.5128 L
437.121 56.0607 L
438.243 55.7325 L
439.365 56.1298 L
440.487 54.2366 L
441.609 61.4164 L
442.731 61.4716 L
443.853 68.1043 L
444.975 67.0085 L
446.098 70.6482 L
447.22 75.0318 L
448.342 79.9588 L
449.464 90.4113 L
450.586 104.077 L
451.708 107.646 L
452.83 106.416 L
453.952 106.865 L
455.075 104.792 L
456.197 87.8272 L
457.319 82.8654 L
458.441 76.1301 L
459.563 69.5438 L
460.685 56.161 L
461.807 55.4055 L
462.929 55.2683 L
464.052 54.9113 L
465.174 54.6871 L
466.296 55.9546 L
467.418 56.2471 L
468.54 56.171 L
469.662 56.2737 L
470.784 56.3915 L
471.906 54.5694 L
473.029 54.6859 L
474.151 54.9129 L
475.273 55.1564 L
476.395 55.0028 L
477.517 55.4258 L
478.639 55.569 L
479.761 55.5894 L
480.883 53.9643 L
482.006 57.9259 L
483.128 61.6353 L
484.25 61.7558 L
485.372 62.5808 L
486.494 63.2621 L
487.616 62.7653 L
488.738 62.7887 L
489.86 63.0624 L
490.983 62.8864 L
492.105 62.0757 L
493.227 61.4986 L
494.349 61.171 L
495.471 61.0835 L
496.593 61.5882 L
497.715 63.762 L
498.837 65.8906 L
499.96 66.3149 L
501.082 69.2578 L
502.204 71.2544 L
503.326 82.5673 L
504.448 81.8075 L
505.57 79.9791 L
506.692 81.1582 L
507.814 81.9111 L
508.937 80.8928 L
510.059 83.0808 L
511.181 83.5205 L
512.303 83.3712 L
513.425 83.2212 L
514.547 84.0818 L
515.669 84.5526 L
516.792 84.0605 L
517.914 84.4197 L
519.036 84.3713 L
520.158 83.4636 L
521.28 84.9873 LE
1 0 0 C
409.067 47.9307 LS
410.19 50.487 L
411.312 49.8622 L
412.434 50.4655 L
413.556 50.4493 L
414.678 50.0233 L
415.8 50.6553 L
416.922 50.7703 L
418.044 50.5534 L
419.167 49.7134 L
420.289 50.371 L
421.411 51.2182 L
422.533 51.1569 L
423.655 53.9493 L
424.777 54.9669 L
425.899 53.1792 L
427.021 51.1526 L
428.144 52.4828 L
429.266 59.9837 L
430.388 56.0596 L
431.51 56.487 L
432.632 55.1859 L
433.754 54.3666 L
434.876 55.0536 L
435.998 57.471 L
437.121 56.0629 L
438.243 55.5507 L
439.365 54.9413 L
440.487 52.9532 L
441.609 61.5807 L
442.731 61.4777 L
443.853 65.7219 L
444.975 64.1538 L
446.098 65.8376 L
447.22 67.204 L
448.342 64.3436 L
449.464 62.0486 L
450.586 61.7457 L
451.708 62.2278 L
452.83 62.8364 L
453.952 70.3298 L
455.075 71.543 L
456.197 67.9035 L
457.319 67.8298 L
458.441 68.7015 L
459.563 67.4245 L
460.685 56.1538 L
461.807 55.3196 L
462.929 55.0234 L
464.052 54.5604 L
465.174 54.3423 L
466.296 55.8546 L
467.418 56.2423 L
468.54 56.1834 L
469.662 56.294 L
470.784 56.3934 L
471.906 54.5117 L
473.029 54.6795 L
474.151 55.0419 L
475.273 55.2978 L
476.395 55.1334 L
477.517 55.4932 L
478.639 55.4764 L
479.761 55.4498 L
480.883 53.9554 L
482.006 57.8725 L
483.128 61.1491 L
484.25 61.0033 L
485.372 61.1251 L
486.494 60.7847 L
487.616 59.9494 L
488.738 59.7191 L
489.86 59.8169 L
490.983 59.7233 L
492.105 58.5475 L
493.227 58 L
494.349 57.7727 L
495.471 57.6796 L
496.593 58.0507 L
497.715 59.0479 L
498.837 59.8117 L
499.96 59.91 L
501.082 61.2674 L
502.204 62.5128 L
503.326 68.8088 L
504.448 69.4944 L
505.57 69.3149 L
506.692 70.3927 L
507.814 70.9057 L
508.937 68.9845 L
510.059 66.8128 L
511.181 65.0477 L
512.303 63.6739 L
513.425 62.7366 L
514.547 66.6671 L
515.669 71.0167 L
516.792 71.9367 L
517.914 73.8822 L
519.036 74.6607 L
520.158 74.2287 L
521.28 74.6313 LE
grestore
grestore
showpage
cleartomark
%%PageTrailer
%%Trailer
end
%%EOF
