%!PS-Adobe-3.0 EPSF-3.0
%%Title: gl2ps_renderer figure
%%Creator: GL2PS 1.4.2, (C) 1999-2020 C. Geuzaine
%%For: Octave
%%CreationDate: Wed Oct  7 04:42:19 2020
%%LanguageLevel: 3
%%DocumentData: Clean7Bit
%%Pages: 1
%%BoundingBox: 0 0 576 432
%%EndComments
%%BeginProlog
/gl2psdict 64 dict def gl2psdict begin
/tryPS3shading false def % set to false to force subdivision
/rThreshold 0.064 def % red component subdivision threshold
/gThreshold 0.034 def % green component subdivision threshold
/bThreshold 0.1 def % blue component subdivision threshold
/BD { bind def } bind def
/C  { setrgbcolor } BD
/G  { 0.082 mul exch 0.6094 mul add exch 0.3086 mul add neg 1.0 add setgray } BD
/W  { setlinewidth } BD
/LC  { setlinecap } BD
/LJ  { setlinejoin } BD
/FC { findfont exch /SH exch def SH scalefont setfont } BD
/SW { dup stringwidth pop } BD
/S  { FC moveto show } BD
/SBC{ FC moveto SW -2 div 0 rmoveto show } BD
/SBR{ FC moveto SW neg 0 rmoveto show } BD
/SCL{ FC moveto 0 SH -2 div rmoveto show } BD
/SCC{ FC moveto SW -2 div SH -2 div rmoveto show } BD
/SCR{ FC moveto SW neg SH -2 div rmoveto show } BD
/STL{ FC moveto 0 SH neg rmoveto show } BD
/STC{ FC moveto SW -2 div SH neg rmoveto show } BD
/STR{ FC moveto SW neg SH neg rmoveto show } BD
/FCT { FC translate 0 0 } BD
/SR  { gsave FCT moveto rotate show grestore } BD
/SRX  { gsave FCT moveto rotate xshow grestore } BD
/SBCR{ gsave FCT moveto rotate SW -2 div 0 rmoveto show grestore } BD
/SBRR{ gsave FCT moveto rotate SW neg 0 rmoveto show grestore } BD
/SCLR{ gsave FCT moveto rotate 0 SH -2 div rmoveto show grestore} BD
/SCCR{ gsave FCT moveto rotate SW -2 div SH -2 div rmoveto show grestore} BD
/SCRR{ gsave FCT moveto rotate SW neg SH -2 div rmoveto show grestore} BD
/STLR{ gsave FCT moveto rotate 0 SH neg rmoveto show grestore } BD
/STCR{ gsave FCT moveto rotate SW -2 div SH neg rmoveto show grestore } BD
/STRR{ gsave FCT moveto rotate SW neg SH neg rmoveto show grestore } BD
/P  { newpath 0.0 360.0 arc closepath fill } BD
/LS { newpath moveto } BD
/L  { lineto } BD
/LE { lineto stroke } BD
/T  { newpath moveto lineto lineto closepath fill } BD
/STshfill {
      /b1 exch def /g1 exch def /r1 exch def /y1 exch def /x1 exch def
      /b2 exch def /g2 exch def /r2 exch def /y2 exch def /x2 exch def
      /b3 exch def /g3 exch def /r3 exch def /y3 exch def /x3 exch def
      gsave << /ShadingType 4 /ColorSpace [/DeviceRGB]
      /DataSource [ 0 x1 y1 r1 g1 b1 0 x2 y2 r2 g2 b2 0 x3 y3 r3 g3 b3 ] >>
      shfill grestore } BD
/Tm { 3 -1 roll 8 -1 roll 13 -1 roll add add 3 div
      3 -1 roll 7 -1 roll 11 -1 roll add add 3 div
      3 -1 roll 6 -1 roll 9 -1 roll add add 3 div C T } BD
/STsplit {
      4 index 15 index add 0.5 mul
      4 index 15 index add 0.5 mul
      4 index 15 index add 0.5 mul
      4 index 15 index add 0.5 mul
      4 index 15 index add 0.5 mul
      5 copy 5 copy 25 15 roll
      9 index 30 index add 0.5 mul
      9 index 30 index add 0.5 mul
      9 index 30 index add 0.5 mul
      9 index 30 index add 0.5 mul
      9 index 30 index add 0.5 mul
      5 copy 5 copy 35 5 roll 25 5 roll 15 5 roll
      4 index 10 index add 0.5 mul
      4 index 10 index add 0.5 mul
      4 index 10 index add 0.5 mul
      4 index 10 index add 0.5 mul
      4 index 10 index add 0.5 mul
      5 copy 5 copy 40 5 roll 25 5 roll 15 5 roll 25 5 roll
      STnoshfill STnoshfill STnoshfill STnoshfill } BD
/STnoshfill {
      2 index 8 index sub abs rThreshold gt
      { STsplit }
      { 1 index 7 index sub abs gThreshold gt
        { STsplit }
        { dup 6 index sub abs bThreshold gt
          { STsplit }
          { 2 index 13 index sub abs rThreshold gt
            { STsplit }
            { 1 index 12 index sub abs gThreshold gt
              { STsplit }
              { dup 11 index sub abs bThreshold gt
                { STsplit }
                { 7 index 13 index sub abs rThreshold gt
                  { STsplit }
                  { 6 index 12 index sub abs gThreshold gt
                    { STsplit }
                    { 5 index 11 index sub abs bThreshold gt
                      { STsplit }
                      { Tm }
                      ifelse }
                    ifelse }
                  ifelse }
                ifelse }
              ifelse }
            ifelse }
          ifelse }
        ifelse }
      ifelse } BD
tryPS3shading
{ /shfill where
  { /ST { STshfill } BD }
  { /ST { STnoshfill } BD }
  ifelse }
{ /ST { STnoshfill } BD }
ifelse
end
%%EndProlog
%%BeginSetup
/DeviceRGB setcolorspace
gl2psdict begin
%%EndSetup
%%Page: 1 1
%%BeginPageSetup
%%EndPageSetup
mark
gsave
1.0 1.0 scale
1 1 1 C
newpath 0 0 moveto 576 0 lineto 576 432 lineto 0 432 lineto
closepath fill
gsave
1.0 1.0 scale
1 1 1 C
newpath 0 0 moveto 576 0 lineto 576 432 lineto 0 432 lineto
closepath fill
newpath 0 0 moveto 576 0 lineto 576 432 lineto 0 432 lineto
closepath clip
1 1 1 C
77.2594 385.841 187.093 312.427 77.2594 312.427 T
77.2594 385.841 187.093 385.841 187.093 312.427 T
0.5 W
0.15 0.15 0.15 C
99.2173 312.427 LS
99.2173 313.532 LE
99.2173 385.841 LS
99.2173 384.736 LE
121.186 312.427 LS
121.186 313.532 LE
121.186 385.841 LS
121.186 384.736 LE
143.155 312.427 LS
143.155 313.532 LE
143.155 385.841 LS
143.155 384.736 LE
165.124 312.427 LS
165.124 313.532 LE
165.124 385.841 LS
165.124 384.736 LE
187.093 312.427 LS
187.093 313.532 LE
187.093 385.841 LS
187.093 384.736 LE
gsave
0.14902 0.14902 0.14902 C
(2e+06) [6 5 6 6 10] 0 84.7173 296.885 10 /Helvetica SRX
grestore

gsave
0.14902 0.14902 0.14902 C
(4e+06) [6 5 6 6 10] 0 106.686 296.885 10 /Helvetica SRX
grestore

gsave
0.14902 0.14902 0.14902 C
(6e+06) [6 5 6 6 10] 0 128.655 296.885 10 /Helvetica SRX
grestore

gsave
0.14902 0.14902 0.14902 C
(8e+06) [6 5 6 6 10] 0 150.624 296.885 10 /Helvetica SRX
grestore

gsave
0.14902 0.14902 0.14902 C
(1e+07) [6 5 6 6 10] 0 172.593 296.885 10 /Helvetica SRX
grestore

77.2594 312.427 LS
78.3561 312.427 LE
187.093 312.427 LS
185.996 312.427 LE
77.2594 322.915 LS
78.3561 322.915 LE
187.093 322.915 LS
185.996 322.915 LE
77.2594 333.403 LS
78.3561 333.403 LE
187.093 333.403 LS
185.996 333.403 LE
77.2594 343.89 LS
78.3561 343.89 LE
187.093 343.89 LS
185.996 343.89 LE
77.2594 354.378 LS
78.3561 354.378 LE
187.093 354.378 LS
185.996 354.378 LE
77.2594 364.865 LS
78.3561 364.865 LE
187.093 364.865 LS
185.996 364.865 LE
77.2594 375.353 LS
78.3561 375.353 LE
187.093 375.353 LS
185.996 375.353 LE
77.2594 385.841 LS
78.3561 385.841 LE
187.093 385.841 LS
185.996 385.841 LE
gsave
0.14902 0.14902 0.14902 C
(0.001) [6 3 6 6 10] 0 45.267 308.427 10 /Helvetica SRX
grestore

gsave
0.14902 0.14902 0.14902 C
(0.002) [6 3 6 6 10] 0 45.267 318.915 10 /Helvetica SRX
grestore

gsave
0.14902 0.14902 0.14902 C
(0.003) [6 3 6 6 10] 0 45.267 329.403 10 /Helvetica SRX
grestore

gsave
0.14902 0.14902 0.14902 C
(0.004) [6 3 6 6 10] 0 45.267 339.89 10 /Helvetica SRX
grestore

gsave
0.14902 0.14902 0.14902 C
(0.005) [6 3 6 6 10] 0 45.267 350.378 10 /Helvetica SRX
grestore

gsave
0.14902 0.14902 0.14902 C
(0.006) [6 3 6 6 10] 0 45.267 360.865 10 /Helvetica SRX
grestore

gsave
0.14902 0.14902 0.14902 C
(0.007) [6 3 6 6 10] 0 45.267 371.353 10 /Helvetica SRX
grestore

gsave
0.14902 0.14902 0.14902 C
(0.008) [6 3 6 6 10] 0 45.267 381.841 10 /Helvetica SRX
grestore

2 LC
[16 0] 0 setdash
77.2594 312.427 LS
187.093 312.427 LE
77.2594 385.841 LS
187.093 385.841 LE
77.2594 312.427 LS
77.2594 385.841 LE
187.093 312.427 LS
187.093 385.841 LE
gsave
0 0 0 C
(SE_eps_AN_news4 \(Interval\)) [7 7 6 6 7 6 6 8 8 6 7 6 9 6 6 3 4 3 7 4 6 4 6 6 3 10] 0 56.676 398.841 11 /Helvetica-Bold SRX
grestore

0 LC
1 LJ
[] 0 setdash
0 0 1 C
77.2594 344.226 LS
78.3577 373.546 L
79.4561 359.349 L
80.5544 358.942 L
81.6527 361.378 L
82.7511 357.7 L
83.8494 354.132 L
84.9477 360.801 L
86.0461 356.676 L
87.1444 357.115 L
88.2427 372.656 L
89.3411 376.524 L
90.4394 373.707 L
91.5377 362 L
92.636 363.82 L
93.7344 363.847 L
94.8327 362.04 L
95.9311 366.019 L
97.0294 365.486 L
98.1277 366.241 L
99.226 364.641 L
100.324 366.915 L
101.423 364.384 L
102.521 366.93 L
103.619 368.888 L
104.718 369.304 L
105.816 367.404 L
106.914 365.493 L
108.013 365.883 L
109.111 366.173 L
110.209 365.645 L
111.308 368.704 L
112.406 366.581 L
113.504 365.594 L
114.603 367.799 L
115.701 368.033 L
116.799 370.072 L
117.898 372.857 L
118.996 370.339 L
120.094 369.178 L
121.193 368.341 L
122.291 369.624 L
123.389 369.246 L
124.488 373.274 L
125.586 373.099 L
126.684 372.691 L
127.783 368.956 L
128.881 370.618 L
129.979 370.204 L
131.078 370.809 L
132.176 373.266 L
133.274 372.642 L
134.373 371.808 L
135.471 369.107 L
136.569 366.205 L
137.668 367.567 L
138.766 367.001 L
139.864 369.005 L
140.963 369.974 L
142.061 370.001 L
143.159 370.184 L
144.258 369.722 L
145.356 369.955 L
146.454 369.61 L
147.553 369.443 L
148.651 373.028 L
149.749 375.787 L
150.848 376.986 L
151.946 377.732 L
153.044 378.082 L
154.143 377.973 L
155.241 376.2 L
156.339 376.199 L
157.438 374.539 L
158.536 373.367 L
159.634 373.838 L
160.733 373.163 L
161.831 371.887 L
162.929 372.869 L
164.028 374.054 L
165.126 375.154 L
166.224 374.258 L
167.323 373.215 L
168.421 372.191 L
169.519 371.98 L
170.618 371.084 L
171.716 370.566 L
172.814 370.15 L
173.913 369.327 L
175.011 369.027 L
176.109 369.034 L
177.208 369.765 L
178.306 369.929 L
179.404 369.476 L
180.503 370.866 L
181.601 370.892 L
182.699 370.993 L
183.798 370.725 L
184.896 370.014 L
185.994 368.632 L
187.093 367.861 LE
1 0 0 C
77.2594 320.5 LS
78.3577 357.641 L
79.4561 347.643 L
80.5544 353.556 L
81.6527 360.524 L
82.7511 353.204 L
83.8494 349.441 L
84.9477 352.842 L
86.0461 352.493 L
87.1444 355.122 L
88.2427 361.33 L
89.3411 362.334 L
90.4394 364.996 L
91.5377 359.747 L
92.636 361.826 L
93.7344 363.413 L
94.8327 362.02 L
95.9311 366.099 L
97.0294 364.577 L
98.1277 361.25 L
99.226 361.904 L
100.324 365.648 L
101.423 364.092 L
102.521 366.697 L
103.619 369.051 L
104.718 369.383 L
105.816 367.412 L
106.914 365.423 L
108.013 365.694 L
109.111 365.59 L
110.209 365.275 L
111.308 368.753 L
112.406 367.202 L
113.504 366.251 L
114.603 366.876 L
115.701 367.186 L
116.799 368.582 L
117.898 370.774 L
118.996 368.326 L
120.094 366.522 L
121.193 366.785 L
122.291 368.493 L
123.389 368.841 L
124.488 373.252 L
125.586 372.183 L
126.684 370.534 L
127.783 366.575 L
128.881 367.341 L
129.979 367.867 L
131.078 369.264 L
132.176 372.345 L
133.274 372.324 L
134.373 371.582 L
135.471 369.047 L
136.569 366.192 L
137.668 367.513 L
138.766 366.939 L
139.864 368.906 L
140.963 369.908 L
142.061 369.899 L
143.159 370.051 L
144.258 369.705 L
145.356 370.112 L
146.454 369.583 L
147.553 369.186 L
148.651 372.122 L
149.749 374.231 L
150.848 374.375 L
151.946 375.252 L
153.044 375.746 L
154.143 376.875 L
155.241 375.087 L
156.339 375.072 L
157.438 374.364 L
158.536 373.245 L
159.634 373.788 L
160.733 372.992 L
161.831 371.902 L
162.929 372.926 L
164.028 373.756 L
165.126 374.531 L
166.224 374.168 L
167.323 373.145 L
168.421 372.205 L
169.519 372.048 L
170.618 370.998 L
171.716 370.153 L
172.814 369.795 L
173.913 369.072 L
175.011 368.854 L
176.109 368.935 L
177.208 369.563 L
178.306 369.799 L
179.404 369.363 L
180.503 370.895 L
181.601 370.914 L
182.699 370.989 L
183.798 370.701 L
184.896 370.002 L
185.994 368.536 L
187.093 367.705 LE
grestore
gsave
1.0 1.0 scale
newpath 0 0 moveto 576 0 lineto 576 432 lineto 0 432 lineto
closepath clip
1 1 1 C
244.353 385.841 354.186 312.427 244.353 312.427 T
244.353 385.841 354.186 385.841 354.186 312.427 T
0.5 W
0.15 0.15 0.15 C
266.311 312.427 LS
266.311 313.532 LE
266.311 385.841 LS
266.311 384.736 LE
288.28 312.427 LS
288.28 313.532 LE
288.28 385.841 LS
288.28 384.736 LE
310.249 312.427 LS
310.249 313.532 LE
310.249 385.841 LS
310.249 384.736 LE
332.217 312.427 LS
332.217 313.532 LE
332.217 385.841 LS
332.217 384.736 LE
354.186 312.427 LS
354.186 313.532 LE
354.186 385.841 LS
354.186 384.736 LE
gsave
0.14902 0.14902 0.14902 C
(2e+06) [6 5 6 6 10] 0 251.811 296.885 10 /Helvetica SRX
grestore

gsave
0.14902 0.14902 0.14902 C
(4e+06) [6 5 6 6 10] 0 273.78 296.885 10 /Helvetica SRX
grestore

gsave
0.14902 0.14902 0.14902 C
(6e+06) [6 5 6 6 10] 0 295.749 296.885 10 /Helvetica SRX
grestore

gsave
0.14902 0.14902 0.14902 C
(8e+06) [6 5 6 6 10] 0 317.717 296.885 10 /Helvetica SRX
grestore

gsave
0.14902 0.14902 0.14902 C
(1e+07) [6 5 6 6 10] 0 339.686 296.885 10 /Helvetica SRX
grestore

244.353 312.427 LS
245.45 312.427 LE
354.186 312.427 LS
353.09 312.427 LE
244.353 330.781 LS
245.45 330.781 LE
354.186 330.781 LS
353.09 330.781 LE
244.353 349.134 LS
245.45 349.134 LE
354.186 349.134 LS
353.09 349.134 LE
244.353 367.487 LS
245.45 367.487 LE
354.186 367.487 LS
353.09 367.487 LE
244.353 385.841 LS
245.45 385.841 LE
354.186 385.841 LS
353.09 385.841 LE
gsave
0.14902 0.14902 0.14902 C
(0) [10] 0 233.361 308.427 10 /Helvetica SRX
grestore

gsave
0.14902 0.14902 0.14902 C
(2e-06) [6 5 3 6 10] 0 213.361 326.781 10 /Helvetica SRX
grestore

gsave
0.14902 0.14902 0.14902 C
(4e-06) [6 5 3 6 10] 0 213.361 345.134 10 /Helvetica SRX
grestore

gsave
0.14902 0.14902 0.14902 C
(6e-06) [6 5 3 6 10] 0 213.361 363.487 10 /Helvetica SRX
grestore

gsave
0.14902 0.14902 0.14902 C
(8e-06) [6 5 3 6 10] 0 213.361 381.841 10 /Helvetica SRX
grestore

2 LC
[16 0] 0 setdash
244.353 312.427 LS
354.186 312.427 LE
244.353 385.841 LS
354.186 385.841 LE
244.353 312.427 LS
244.353 385.841 LE
354.186 312.427 LS
354.186 385.841 LE
gsave
0 0 0 C
(SE_eps_AN_news4 \(m2\)) [7 7 6 6 7 6 6 8 8 6 7 6 9 6 6 3 4 10 6 10] 0 235.27 398.841 11 /Helvetica-Bold SRX
grestore

0 LC
1 LJ
[] 0 setdash
0 0 1 C
244.353 331.27 LS
245.451 375.809 L
246.55 353.002 L
247.648 352.449 L
248.746 355.128 L
249.845 351.389 L
250.943 345.854 L
252.041 356.046 L
253.14 351.126 L
254.238 350.275 L
255.336 374.405 L
256.435 381.684 L
257.533 377.773 L
258.631 359.041 L
259.73 362.492 L
260.828 361.302 L
261.926 358.829 L
263.025 365.607 L
264.123 364.384 L
265.221 365.117 L
266.32 362.551 L
267.418 365.381 L
268.516 362.104 L
269.615 366.362 L
270.713 369.381 L
271.811 370.532 L
272.91 366.757 L
274.008 363.974 L
275.106 363.682 L
276.205 363.875 L
277.303 363.228 L
278.401 369.223 L
279.5 367.371 L
280.598 365.673 L
281.696 367.936 L
282.795 368.482 L
283.893 373.054 L
284.991 378.242 L
286.09 373.962 L
287.188 372.65 L
288.286 370.902 L
289.385 372.601 L
290.483 372.332 L
291.581 379.049 L
292.68 378.44 L
293.778 378.819 L
294.876 371.825 L
295.975 374.46 L
297.073 373.519 L
298.171 374.522 L
299.27 377.027 L
300.368 376.234 L
301.466 374.956 L
302.565 370.57 L
303.663 365.735 L
304.761 367.216 L
305.86 367.85 L
306.958 370.476 L
308.056 371.382 L
309.155 371.369 L
310.253 371.699 L
311.351 370.853 L
312.45 371.773 L
313.548 371.189 L
314.646 370.953 L
315.745 377.157 L
316.843 381.955 L
317.941 383.394 L
319.04 384.485 L
320.138 384.847 L
321.236 383.531 L
322.335 381.025 L
323.433 381.024 L
324.531 378.575 L
325.63 376.572 L
326.728 377.325 L
327.826 376.206 L
328.925 374.313 L
330.023 376.068 L
331.121 377.923 L
332.22 379.646 L
333.318 378.144 L
334.416 376.173 L
335.515 374.615 L
336.613 374.524 L
337.711 373.087 L
338.81 372.418 L
339.908 371.934 L
341.006 370.902 L
342.105 370.403 L
343.203 370.402 L
344.301 371.677 L
345.4 371.924 L
346.498 371.151 L
347.596 373.379 L
348.695 373.489 L
349.793 373.651 L
350.891 373.211 L
351.99 372.058 L
353.088 369.981 L
354.186 368.51 LE
1 0 0 C
244.353 317.351 LS
245.451 350.738 L
246.55 338.53 L
247.648 345.535 L
248.746 354.304 L
249.845 345.893 L
250.943 339.943 L
252.041 345.629 L
253.14 345.232 L
254.238 347.37 L
255.336 360.065 L
256.435 360.953 L
257.533 363.456 L
258.631 355.838 L
259.73 358.7 L
260.828 360.947 L
261.926 358.687 L
263.025 365.416 L
264.123 362.971 L
265.221 358.66 L
266.32 359.338 L
267.418 363.745 L
268.516 361.194 L
269.615 365.285 L
270.713 369.352 L
271.811 370.498 L
272.91 366.742 L
274.008 363.763 L
275.106 363.492 L
276.205 363.209 L
277.303 362.911 L
278.401 368.864 L
279.5 367.288 L
280.598 365.667 L
281.696 367.094 L
282.795 367.759 L
283.893 371.363 L
284.991 375.166 L
286.09 369.727 L
287.188 367.187 L
288.286 367.922 L
289.385 370.334 L
290.483 370.644 L
291.581 379.039 L
292.68 377.367 L
293.778 375.504 L
294.876 366.674 L
295.975 368.865 L
297.073 369.175 L
298.171 371.263 L
299.27 375.771 L
300.368 375.787 L
301.466 374.581 L
302.565 370.526 L
303.663 365.566 L
304.761 367.123 L
305.86 367.797 L
306.958 370.347 L
308.056 371.294 L
309.155 371.283 L
310.253 371.662 L
311.351 370.852 L
312.45 371.611 L
313.548 370.843 L
314.646 370.243 L
315.745 374.919 L
316.843 378.2 L
317.941 377.975 L
319.04 379.151 L
320.138 379.711 L
321.236 380.908 L
322.335 378.246 L
323.433 378.37 L
324.531 377.202 L
325.63 375.185 L
326.728 376.016 L
327.826 374.898 L
328.925 373.414 L
330.023 375.549 L
331.121 376.838 L
332.22 378.347 L
333.318 377.885 L
334.416 375.935 L
335.515 374.584 L
336.613 374.521 L
337.711 372.986 L
338.81 371.857 L
339.908 371.455 L
341.006 370.555 L
342.105 370.167 L
343.203 370.263 L
344.301 371.415 L
345.4 371.771 L
346.498 371.057 L
347.596 373.379 L
348.695 373.477 L
349.793 373.648 L
350.891 373.21 L
351.99 372.052 L
353.088 369.858 L
354.186 368.273 LE
grestore
gsave
1.0 1.0 scale
newpath 0 0 moveto 576 0 lineto 576 432 lineto 0 432 lineto
closepath clip
1 1 1 C
411.447 385.841 521.28 312.427 411.447 312.427 T
411.447 385.841 521.28 385.841 521.28 312.427 T
0.5 W
0.15 0.15 0.15 C
433.405 312.427 LS
433.405 313.532 LE
433.405 385.841 LS
433.405 384.736 LE
455.374 312.427 LS
455.374 313.532 LE
455.374 385.841 LS
455.374 384.736 LE
477.342 312.427 LS
477.342 313.532 LE
477.342 385.841 LS
477.342 384.736 LE
499.311 312.427 LS
499.311 313.532 LE
499.311 385.841 LS
499.311 384.736 LE
521.28 312.427 LS
521.28 313.532 LE
521.28 385.841 LS
521.28 384.736 LE
gsave
0.14902 0.14902 0.14902 C
(2e+06) [6 5 6 6 10] 0 418.905 296.885 10 /Helvetica SRX
grestore

gsave
0.14902 0.14902 0.14902 C
(4e+06) [6 5 6 6 10] 0 440.874 296.885 10 /Helvetica SRX
grestore

gsave
0.14902 0.14902 0.14902 C
(6e+06) [6 5 6 6 10] 0 462.842 296.885 10 /Helvetica SRX
grestore

gsave
0.14902 0.14902 0.14902 C
(8e+06) [6 5 6 6 10] 0 484.811 296.885 10 /Helvetica SRX
grestore

gsave
0.14902 0.14902 0.14902 C
(1e+07) [6 5 6 6 10] 0 506.78 296.885 10 /Helvetica SRX
grestore

411.447 312.427 LS
412.544 312.427 LE
521.28 312.427 LS
520.183 312.427 LE
411.447 330.781 LS
412.544 330.781 LE
521.28 330.781 LS
520.183 330.781 LE
411.447 349.134 LS
412.544 349.134 LE
521.28 349.134 LS
520.183 349.134 LE
411.447 367.487 LS
412.544 367.487 LE
521.28 367.487 LS
520.183 367.487 LE
411.447 385.841 LS
412.544 385.841 LE
521.28 385.841 LS
520.183 385.841 LE
gsave
0.14902 0.14902 0.14902 C
(0) [10] 0 400.454 308.427 10 /Helvetica SRX
grestore

gsave
0.14902 0.14902 0.14902 C
(1e-08) [6 5 3 6 10] 0 380.454 326.781 10 /Helvetica SRX
grestore

gsave
0.14902 0.14902 0.14902 C
(2e-08) [6 5 3 6 10] 0 380.454 345.134 10 /Helvetica SRX
grestore

gsave
0.14902 0.14902 0.14902 C
(3e-08) [6 5 3 6 10] 0 380.454 363.487 10 /Helvetica SRX
grestore

gsave
0.14902 0.14902 0.14902 C
(4e-08) [6 5 3 6 10] 0 380.454 381.841 10 /Helvetica SRX
grestore

2 LC
[16 0] 0 setdash
411.447 312.427 LS
521.28 312.427 LE
411.447 385.841 LS
521.28 385.841 LE
411.447 312.427 LS
411.447 385.841 LE
521.28 312.427 LS
521.28 385.841 LE
gsave
0 0 0 C
(SE_eps_AN_news4 \(m3\)) [7 7 6 6 7 6 6 8 8 6 7 6 9 6 6 3 4 10 6 10] 0 402.363 398.841 11 /Helvetica-Bold SRX
grestore

0 LC
1 LJ
[] 0 setdash
0 0 1 C
411.447 319.416 LS
412.545 359.918 L
413.644 338.398 L
414.742 337.561 L
415.84 341.322 L
416.939 337.423 L
418.037 332.007 L
419.135 342.336 L
420.234 337.801 L
421.332 336.202 L
422.43 362.251 L
423.529 372.888 L
424.627 368.94 L
425.725 347.389 L
426.823 351.31 L
427.922 348.859 L
429.02 346.306 L
430.118 354.884 L
431.217 353.148 L
432.315 354.057 L
433.413 351.271 L
434.512 354.013 L
435.61 350.663 L
436.708 355.593 L
437.807 358.361 L
438.905 359.526 L
440.003 354.563 L
441.102 351.128 L
442.2 350.526 L
443.298 350.47 L
444.397 350.111 L
445.495 358.278 L
446.593 357.191 L
447.692 355.475 L
448.79 356.95 L
449.888 357.673 L
450.987 364.464 L
452.085 371.422 L
453.183 365.691 L
454.282 364.673 L
455.38 362.463 L
456.478 364.297 L
457.577 364.318 L
458.675 372.889 L
459.773 371.848 L
460.872 372.769 L
461.97 363.167 L
463.068 366.451 L
464.167 365.083 L
465.265 365.931 L
466.363 367.854 L
467.462 366.738 L
468.56 365.463 L
469.658 360.077 L
470.757 354.336 L
471.855 355.562 L
472.953 357.989 L
474.052 360.772 L
475.15 361.098 L
476.248 361.214 L
477.347 361.524 L
478.445 360.538 L
479.543 361.866 L
480.642 361.22 L
481.74 360.907 L
482.838 368.503 L
483.937 374.489 L
485.035 375.469 L
486.133 376.794 L
487.232 377.313 L
488.33 374.83 L
489.428 372.206 L
490.527 372.354 L
491.625 369.496 L
492.723 366.879 L
493.822 367.735 L
494.92 366.316 L
496.018 364.159 L
497.117 366.308 L
498.215 368.133 L
499.313 370.151 L
500.412 368.28 L
501.51 365.641 L
502.608 363.896 L
503.707 363.974 L
504.805 362.429 L
505.903 361.604 L
507.002 361.157 L
508.1 360.066 L
509.198 359.574 L
510.297 359.491 L
511.395 361.147 L
512.493 361.54 L
513.592 360.723 L
514.69 363.253 L
515.788 363.479 L
516.887 363.777 L
517.985 363.357 L
519.083 361.908 L
520.182 359.599 L
521.28 357.737 LE
1 0 0 C
411.447 313.468 LS
412.545 337.343 L
413.644 326.274 L
414.742 331.985 L
415.84 340.726 L
416.939 332.699 L
418.037 327.129 L
419.135 332.732 L
420.234 332.429 L
421.332 333.801 L
422.43 348.974 L
423.529 350.044 L
424.627 351.488 L
425.725 343.352 L
426.823 346.408 L
427.922 348.393 L
429.02 346.095 L
430.118 354.718 L
431.217 352.073 L
432.315 347.736 L
433.413 348.137 L
434.512 352.16 L
435.61 349.209 L
436.708 353.756 L
437.807 358.212 L
438.905 359.647 L
440.003 354.475 L
441.102 350.771 L
442.2 350.446 L
443.298 350.139 L
444.397 349.949 L
445.495 357.489 L
446.593 356.858 L
447.692 355.55 L
448.79 356.712 L
449.888 357.368 L
450.987 362.829 L
452.085 367.78 L
453.183 359.927 L
454.282 357.223 L
455.38 358.401 L
456.478 361.093 L
457.577 361.657 L
458.675 372.899 L
459.773 370.691 L
460.872 369.251 L
461.97 356.221 L
463.068 359.34 L
464.167 359.132 L
465.265 361.214 L
466.363 365.995 L
467.462 365.881 L
468.56 364.698 L
469.658 359.94 L
470.757 354.251 L
471.855 355.546 L
472.953 358.048 L
474.052 360.826 L
475.15 361.16 L
476.248 361.305 L
477.347 361.582 L
478.445 360.525 L
479.543 361.445 L
480.642 360.565 L
481.74 359.761 L
482.838 365.135 L
483.937 369.149 L
485.035 368.444 L
486.133 369.586 L
487.232 370.22 L
488.33 370.902 L
489.428 367.989 L
490.527 368.291 L
491.625 367.104 L
492.723 364.462 L
493.822 365.361 L
494.92 363.974 L
496.018 362.466 L
497.117 365.216 L
498.215 366.221 L
499.313 368.004 L
500.412 367.79 L
501.51 365.224 L
502.608 363.802 L
503.707 363.948 L
504.805 362.401 L
505.903 361.164 L
507.002 360.783 L
508.1 359.811 L
509.198 359.382 L
510.297 359.393 L
511.395 360.9 L
512.493 361.401 L
513.592 360.638 L
514.69 363.254 L
515.788 363.481 L
516.887 363.78 L
517.985 363.355 L
519.083 361.912 L
520.182 359.496 L
521.28 357.536 LE
grestore
gsave
1.0 1.0 scale
newpath 0 0 moveto 576 0 lineto 576 432 lineto 0 432 lineto
closepath clip
1 1 1 C
77.2594 253.387 187.093 179.974 77.2594 179.974 T
77.2594 253.387 187.093 253.387 187.093 179.974 T
0.5 W
0.15 0.15 0.15 C
99.2173 179.974 LS
99.2173 181.078 LE
99.2173 253.387 LS
99.2173 252.282 LE
121.186 179.974 LS
121.186 181.078 LE
121.186 253.387 LS
121.186 252.282 LE
143.155 179.974 LS
143.155 181.078 LE
143.155 253.387 LS
143.155 252.282 LE
165.124 179.974 LS
165.124 181.078 LE
165.124 253.387 LS
165.124 252.282 LE
187.093 179.974 LS
187.093 181.078 LE
187.093 253.387 LS
187.093 252.282 LE
gsave
0.14902 0.14902 0.14902 C
(2e+06) [6 5 6 6 10] 0 84.7173 164.431 10 /Helvetica SRX
grestore

gsave
0.14902 0.14902 0.14902 C
(4e+06) [6 5 6 6 10] 0 106.686 164.431 10 /Helvetica SRX
grestore

gsave
0.14902 0.14902 0.14902 C
(6e+06) [6 5 6 6 10] 0 128.655 164.431 10 /Helvetica SRX
grestore

gsave
0.14902 0.14902 0.14902 C
(8e+06) [6 5 6 6 10] 0 150.624 164.431 10 /Helvetica SRX
grestore

gsave
0.14902 0.14902 0.14902 C
(1e+07) [6 5 6 6 10] 0 172.593 164.431 10 /Helvetica SRX
grestore

77.2594 179.974 LS
78.3561 179.974 LE
187.093 179.974 LS
185.996 179.974 LE
77.2594 198.327 LS
78.3561 198.327 LE
187.093 198.327 LS
185.996 198.327 LE
77.2594 216.68 LS
78.3561 216.68 LE
187.093 216.68 LS
185.996 216.68 LE
77.2594 235.034 LS
78.3561 235.034 LE
187.093 235.034 LS
185.996 235.034 LE
77.2594 253.387 LS
78.3561 253.387 LE
187.093 253.387 LS
185.996 253.387 LE
gsave
0.14902 0.14902 0.14902 C
(0.02) [6 3 6 10] 0 51.267 175.974 10 /Helvetica SRX
grestore

gsave
0.14902 0.14902 0.14902 C
(0.03) [6 3 6 10] 0 51.267 194.327 10 /Helvetica SRX
grestore

gsave
0.14902 0.14902 0.14902 C
(0.04) [6 3 6 10] 0 51.267 212.68 10 /Helvetica SRX
grestore

gsave
0.14902 0.14902 0.14902 C
(0.05) [6 3 6 10] 0 51.267 231.034 10 /Helvetica SRX
grestore

gsave
0.14902 0.14902 0.14902 C
(0.06) [6 3 6 10] 0 51.267 249.387 10 /Helvetica SRX
grestore

2 LC
[16 0] 0 setdash
77.2594 179.974 LS
187.093 179.974 LE
77.2594 253.387 LS
187.093 253.387 LE
77.2594 179.974 LS
77.2594 253.387 LE
187.093 179.974 LS
187.093 253.387 LE
gsave
0 0 0 C
(SE_eps_AC_news0 \(Interval\)) [7 7 6 6 7 6 6 8 8 6 7 6 9 6 6 3 4 3 7 4 6 4 6 6 3 10] 0 56.676 266.387 11 /Helvetica-Bold SRX
grestore

0 LC
1 LJ
[] 0 setdash
0 0 1 C
77.2594 205.007 LS
78.3577 251.898 L
79.4561 243.958 L
80.5544 244.028 L
81.6527 239.953 L
82.7511 236.501 L
83.8494 221.144 L
84.9477 223.135 L
86.0461 235.406 L
87.1444 237.784 L
88.2427 238.076 L
89.3411 234.424 L
90.4394 230.027 L
91.5377 231.148 L
92.636 233.202 L
93.7344 233.53 L
94.8327 233.356 L
95.9311 235.174 L
97.0294 235.218 L
98.1277 236.952 L
99.226 236.65 L
100.324 235.451 L
101.423 234.848 L
102.521 233.297 L
103.619 234.28 L
104.718 234.008 L
105.816 232.878 L
106.914 233.861 L
108.013 233.896 L
109.111 234.99 L
110.209 234.323 L
111.308 236.214 L
112.406 237.932 L
113.504 239.037 L
114.603 239.161 L
115.701 239.619 L
116.799 239.696 L
117.898 238.839 L
118.996 238.697 L
120.094 237.889 L
121.193 237.144 L
122.291 237.206 L
123.389 237.582 L
124.488 238.118 L
125.586 238.656 L
126.684 239.374 L
127.783 240.687 L
128.881 240.89 L
129.979 241.446 L
131.078 241.438 L
132.176 241.814 L
133.274 241.244 L
134.373 240.398 L
135.471 240.686 L
136.569 240.594 L
137.668 240.834 L
138.766 240.986 L
139.864 240.448 L
140.963 240.096 L
142.061 239.796 L
143.159 239.569 L
144.258 241.164 L
145.356 240.216 L
146.454 240.152 L
147.553 240.281 L
148.651 240.741 L
149.749 240.236 L
150.848 239.818 L
151.946 239.478 L
153.044 239.014 L
154.143 238.074 L
155.241 237.988 L
156.339 238.254 L
157.438 238.485 L
158.536 238.972 L
159.634 239.368 L
160.733 237.651 L
161.831 237.806 L
162.929 237.638 L
164.028 237.39 L
165.126 237.208 L
166.224 237.454 L
167.323 238.404 L
168.421 238.522 L
169.519 239.106 L
170.618 239.504 L
171.716 240.208 L
172.814 240.534 L
173.913 240.914 L
175.011 241.196 L
176.109 240.731 L
177.208 240.667 L
178.306 240.839 L
179.404 240.711 L
180.503 240.815 L
181.601 241.495 L
182.699 241.578 L
183.798 242.363 L
184.896 243.347 L
185.994 244.123 L
187.093 244.706 LE
1 0 0 C
77.2594 184.917 LS
78.3577 251.458 L
79.4561 244.157 L
80.5544 236.168 L
81.6527 239.629 L
82.7511 236.394 L
83.8494 220.905 L
84.9477 217.489 L
86.0461 222.258 L
87.1444 216.884 L
88.2427 215.557 L
89.3411 218.51 L
90.4394 216.864 L
91.5377 217.434 L
92.636 218.211 L
93.7344 218.847 L
94.8327 223.322 L
95.9311 231.424 L
97.0294 234.769 L
98.1277 236.89 L
99.226 236.619 L
100.324 235.425 L
101.423 234.772 L
102.521 233.297 L
103.619 234.269 L
104.718 233.986 L
105.816 232.694 L
106.914 233.734 L
108.013 233.781 L
109.111 234.93 L
110.209 234.401 L
111.308 236.208 L
112.406 237.93 L
113.504 239.037 L
114.603 239.161 L
115.701 239.622 L
116.799 239.674 L
117.898 238.816 L
118.996 238.675 L
120.094 237.791 L
121.193 237.061 L
122.291 237.101 L
123.389 236.93 L
124.488 237.451 L
125.586 238.059 L
126.684 238.638 L
127.783 239.768 L
128.881 240.214 L
129.979 240.819 L
131.078 241.042 L
132.176 241.522 L
133.274 241.081 L
134.373 240.367 L
135.471 240.699 L
136.569 240.621 L
137.668 240.826 L
138.766 240.947 L
139.864 240.419 L
140.963 240.061 L
142.061 239.834 L
143.159 239.563 L
144.258 241.223 L
145.356 240.292 L
146.454 240.178 L
147.553 240.253 L
148.651 240.751 L
149.749 240.218 L
150.848 239.806 L
151.946 239.353 L
153.044 238.744 L
154.143 237.785 L
155.241 237.568 L
156.339 237.792 L
157.438 237.898 L
158.536 238.176 L
159.634 238.408 L
160.733 236.887 L
161.831 236.886 L
162.929 236.701 L
164.028 236.643 L
165.126 236.652 L
166.224 236.698 L
167.323 237.659 L
168.421 237.683 L
169.519 238.363 L
170.618 238.731 L
171.716 239.301 L
172.814 239.552 L
173.913 239.937 L
175.011 240.425 L
176.109 240.013 L
177.208 240.279 L
178.306 240.675 L
179.404 240.701 L
180.503 240.884 L
181.601 241.522 L
182.699 241.591 L
183.798 242.309 L
184.896 243.245 L
185.994 243.949 L
187.093 244.259 LE
grestore
gsave
1.0 1.0 scale
newpath 0 0 moveto 576 0 lineto 576 432 lineto 0 432 lineto
closepath clip
1 1 1 C
244.353 253.387 354.186 179.974 244.353 179.974 T
244.353 253.387 354.186 253.387 354.186 179.974 T
0.5 W
0.15 0.15 0.15 C
266.311 179.974 LS
266.311 181.078 LE
266.311 253.387 LS
266.311 252.282 LE
288.28 179.974 LS
288.28 181.078 LE
288.28 253.387 LS
288.28 252.282 LE
310.249 179.974 LS
310.249 181.078 LE
310.249 253.387 LS
310.249 252.282 LE
332.217 179.974 LS
332.217 181.078 LE
332.217 253.387 LS
332.217 252.282 LE
354.186 179.974 LS
354.186 181.078 LE
354.186 253.387 LS
354.186 252.282 LE
gsave
0.14902 0.14902 0.14902 C
(2e+06) [6 5 6 6 10] 0 251.811 164.431 10 /Helvetica SRX
grestore

gsave
0.14902 0.14902 0.14902 C
(4e+06) [6 5 6 6 10] 0 273.78 164.431 10 /Helvetica SRX
grestore

gsave
0.14902 0.14902 0.14902 C
(6e+06) [6 5 6 6 10] 0 295.749 164.431 10 /Helvetica SRX
grestore

gsave
0.14902 0.14902 0.14902 C
(8e+06) [6 5 6 6 10] 0 317.717 164.431 10 /Helvetica SRX
grestore

gsave
0.14902 0.14902 0.14902 C
(1e+07) [6 5 6 6 10] 0 339.686 164.431 10 /Helvetica SRX
grestore

244.353 179.974 LS
245.45 179.974 LE
354.186 179.974 LS
353.09 179.974 LE
244.353 192.209 LS
245.45 192.209 LE
354.186 192.209 LS
353.09 192.209 LE
244.353 204.445 LS
245.45 204.445 LE
354.186 204.445 LS
353.09 204.445 LE
244.353 216.68 LS
245.45 216.68 LE
354.186 216.68 LS
353.09 216.68 LE
244.353 228.916 LS
245.45 228.916 LE
354.186 228.916 LS
353.09 228.916 LE
244.353 241.151 LS
245.45 241.151 LE
354.186 241.151 LS
353.09 241.151 LE
244.353 253.387 LS
245.45 253.387 LE
354.186 253.387 LS
353.09 253.387 LE
gsave
0.14902 0.14902 0.14902 C
(0) [10] 0 233.361 175.974 10 /Helvetica SRX
grestore

gsave
0.14902 0.14902 0.14902 C
(0.0001) [6 3 6 6 6 10] 0 206.361 188.209 10 /Helvetica SRX
grestore

gsave
0.14902 0.14902 0.14902 C
(0.0002) [6 3 6 6 6 10] 0 206.361 200.445 10 /Helvetica SRX
grestore

gsave
0.14902 0.14902 0.14902 C
(0.0003) [6 3 6 6 6 10] 0 206.361 212.68 10 /Helvetica SRX
grestore

gsave
0.14902 0.14902 0.14902 C
(0.0004) [6 3 6 6 6 10] 0 206.361 224.916 10 /Helvetica SRX
grestore

gsave
0.14902 0.14902 0.14902 C
(0.0005) [6 3 6 6 6 10] 0 206.361 237.151 10 /Helvetica SRX
grestore

gsave
0.14902 0.14902 0.14902 C
(0.0006) [6 3 6 6 6 10] 0 206.361 249.387 10 /Helvetica SRX
grestore

2 LC
[16 0] 0 setdash
244.353 179.974 LS
354.186 179.974 LE
244.353 253.387 LS
354.186 253.387 LE
244.353 179.974 LS
244.353 253.387 LE
354.186 179.974 LS
354.186 253.387 LE
gsave
0 0 0 C
(SE_eps_AC_news0 \(m2\)) [7 7 6 6 7 6 6 8 8 6 7 6 9 6 6 3 4 10 6 10] 0 235.27 266.387 11 /Helvetica-Bold SRX
grestore

0 LC
1 LJ
[] 0 setdash
0 0 1 C
244.353 195.716 LS
245.451 248.95 L
246.55 240.183 L
247.648 236.107 L
248.746 229.383 L
249.845 226.842 L
250.943 215.528 L
252.041 215.985 L
253.14 225.467 L
254.238 229.143 L
255.336 230.169 L
256.435 226.563 L
257.533 222.102 L
258.631 222.148 L
259.73 223.725 L
260.828 223.677 L
261.926 224.642 L
263.025 226.492 L
264.123 226.576 L
265.221 227.619 L
266.32 227.335 L
267.418 226.395 L
268.516 225.638 L
269.615 224.193 L
270.713 225.488 L
271.811 224.971 L
272.91 223.749 L
274.008 224.599 L
275.106 224.615 L
276.205 225.455 L
277.303 225.121 L
278.401 227.773 L
279.5 229.446 L
280.598 230.761 L
281.696 230.924 L
282.795 231.149 L
283.893 231.193 L
284.991 230.42 L
286.09 230.104 L
287.188 228.58 L
288.286 227.906 L
289.385 228.017 L
290.483 228.283 L
291.581 228.75 L
292.68 229.36 L
293.778 230.601 L
294.876 231.599 L
295.975 231.671 L
297.073 232.177 L
298.171 232.046 L
299.27 232.267 L
300.368 231.784 L
301.466 231.002 L
302.565 231.452 L
303.663 231.117 L
304.761 231.192 L
305.86 230.94 L
306.958 230.404 L
308.056 230.109 L
309.155 229.688 L
310.253 229.38 L
311.351 231.045 L
312.45 230.213 L
313.548 230.023 L
314.646 230.158 L
315.745 230.867 L
316.843 230.383 L
317.941 230.006 L
319.04 229.673 L
320.138 229.547 L
321.236 228.711 L
322.335 228.522 L
323.433 228.757 L
324.531 229.005 L
325.63 229.341 L
326.728 229.825 L
327.826 228.274 L
328.925 228.626 L
330.023 228.493 L
331.121 228.442 L
332.22 228.334 L
333.318 228.405 L
334.416 229.614 L
335.515 229.726 L
336.613 230.261 L
337.711 230.663 L
338.81 231.351 L
339.908 231.529 L
341.006 231.89 L
342.105 232.312 L
343.203 231.972 L
344.301 231.948 L
345.4 232.085 L
346.498 232.05 L
347.596 232.017 L
348.695 232.733 L
349.793 232.515 L
350.891 233.383 L
351.99 234.491 L
353.088 235.36 L
354.186 235.979 LE
1 0 0 C
244.353 189.973 LS
245.451 248.346 L
246.55 240.028 L
247.648 228.807 L
248.746 228.935 L
249.845 226.842 L
250.943 215.38 L
252.041 211.504 L
253.14 214.699 L
254.238 211.896 L
255.336 211.977 L
256.435 213.762 L
257.533 211.729 L
258.631 211.86 L
259.73 212.21 L
260.828 212.188 L
261.926 217.452 L
263.025 223.824 L
264.123 226.372 L
265.221 227.584 L
266.32 227.335 L
267.418 226.287 L
268.516 225.565 L
269.615 224.192 L
270.713 225.445 L
271.811 224.968 L
272.91 223.563 L
274.008 224.387 L
275.106 224.546 L
276.205 225.453 L
277.303 225.102 L
278.401 227.772 L
279.5 229.423 L
280.598 230.705 L
281.696 230.815 L
282.795 231.061 L
283.893 231.138 L
284.991 230.368 L
286.09 230.066 L
287.188 228.546 L
288.286 227.886 L
289.385 227.794 L
290.483 227.519 L
291.581 228.018 L
292.68 228.657 L
293.778 229.756 L
294.876 230.734 L
295.975 231.047 L
297.073 231.575 L
298.171 231.695 L
299.27 231.989 L
300.368 231.649 L
301.466 230.971 L
302.565 231.447 L
303.663 231.117 L
304.761 231.185 L
305.86 230.915 L
306.958 230.38 L
308.056 230.104 L
309.155 229.687 L
310.253 229.358 L
311.351 230.952 L
312.45 230.088 L
313.548 229.949 L
314.646 229.981 L
315.745 230.712 L
316.843 230.257 L
317.941 229.888 L
319.04 229.48 L
320.138 229.215 L
321.236 228.324 L
322.335 228.03 L
323.433 228.244 L
324.531 228.376 L
325.63 228.56 L
326.728 228.843 L
327.826 227.434 L
328.925 227.672 L
330.023 227.477 L
331.121 227.567 L
332.22 227.647 L
333.318 227.574 L
334.416 228.702 L
335.515 228.731 L
336.613 229.319 L
337.711 229.684 L
338.81 230.233 L
339.908 230.344 L
341.006 230.761 L
342.105 231.339 L
343.203 231.073 L
344.301 231.332 L
345.4 231.711 L
346.498 231.917 L
347.596 231.982 L
348.695 232.721 L
349.793 232.514 L
350.891 233.347 L
351.99 234.406 L
353.088 235.163 L
354.186 235.526 LE
grestore
gsave
1.0 1.0 scale
newpath 0 0 moveto 576 0 lineto 576 432 lineto 0 432 lineto
closepath clip
1 1 1 C
411.447 253.387 521.28 179.974 411.447 179.974 T
411.447 253.387 521.28 253.387 521.28 179.974 T
0.5 W
0.15 0.15 0.15 C
433.405 179.974 LS
433.405 181.078 LE
433.405 253.387 LS
433.405 252.282 LE
455.374 179.974 LS
455.374 181.078 LE
455.374 253.387 LS
455.374 252.282 LE
477.342 179.974 LS
477.342 181.078 LE
477.342 253.387 LS
477.342 252.282 LE
499.311 179.974 LS
499.311 181.078 LE
499.311 253.387 LS
499.311 252.282 LE
521.28 179.974 LS
521.28 181.078 LE
521.28 253.387 LS
521.28 252.282 LE
gsave
0.14902 0.14902 0.14902 C
(2e+06) [6 5 6 6 10] 0 418.905 164.431 10 /Helvetica SRX
grestore

gsave
0.14902 0.14902 0.14902 C
(4e+06) [6 5 6 6 10] 0 440.874 164.431 10 /Helvetica SRX
grestore

gsave
0.14902 0.14902 0.14902 C
(6e+06) [6 5 6 6 10] 0 462.842 164.431 10 /Helvetica SRX
grestore

gsave
0.14902 0.14902 0.14902 C
(8e+06) [6 5 6 6 10] 0 484.811 164.431 10 /Helvetica SRX
grestore

gsave
0.14902 0.14902 0.14902 C
(1e+07) [6 5 6 6 10] 0 506.78 164.431 10 /Helvetica SRX
grestore

411.447 179.974 LS
412.544 179.974 LE
521.28 179.974 LS
520.183 179.974 LE
411.447 194.656 LS
412.544 194.656 LE
521.28 194.656 LS
520.183 194.656 LE
411.447 209.339 LS
412.544 209.339 LE
521.28 209.339 LS
520.183 209.339 LE
411.447 224.022 LS
412.544 224.022 LE
521.28 224.022 LS
520.183 224.022 LE
411.447 238.704 LS
412.544 238.704 LE
521.28 238.704 LS
520.183 238.704 LE
411.447 253.387 LS
412.544 253.387 LE
521.28 253.387 LS
520.183 253.387 LE
gsave
0.14902 0.14902 0.14902 C
(0) [10] 0 400.454 175.974 10 /Helvetica SRX
grestore

gsave
0.14902 0.14902 0.14902 C
(5e-06) [6 5 3 6 10] 0 380.454 190.656 10 /Helvetica SRX
grestore

gsave
0.14902 0.14902 0.14902 C
(1e-05) [6 5 3 6 10] 0 380.454 205.339 10 /Helvetica SRX
grestore

gsave
0.14902 0.14902 0.14902 C
(1.5e-05) [6 3 6 5 3 6 10] 0 371.454 220.022 10 /Helvetica SRX
grestore

gsave
0.14902 0.14902 0.14902 C
(2e-05) [6 5 3 6 10] 0 380.454 234.704 10 /Helvetica SRX
grestore

gsave
0.14902 0.14902 0.14902 C
(2.5e-05) [6 3 6 5 3 6 10] 0 371.454 249.387 10 /Helvetica SRX
grestore

2 LC
[16 0] 0 setdash
411.447 179.974 LS
521.28 179.974 LE
411.447 253.387 LS
521.28 253.387 LE
411.447 179.974 LS
411.447 253.387 LE
521.28 179.974 LS
521.28 253.387 LE
gsave
0 0 0 C
(SE_eps_AC_news0 \(m3\)) [7 7 6 6 7 6 6 8 8 6 7 6 9 6 6 3 4 10 6 10] 0 402.363 266.387 11 /Helvetica-Bold SRX
grestore

0 LC
1 LJ
[] 0 setdash
0 0 1 C
411.447 186.472 LS
412.545 247.898 L
413.644 236.868 L
414.742 225.542 L
415.84 215.753 L
416.939 214.532 L
418.037 205.505 L
419.135 204.678 L
420.234 212.751 L
421.332 218.065 L
422.43 220.545 L
423.529 216.969 L
424.627 211.676 L
425.725 210.273 L
426.823 211.378 L
427.922 210.484 L
429.02 212.768 L
430.118 215.03 L
431.217 215.02 L
432.315 215.834 L
433.413 215.319 L
434.512 214.149 L
435.61 213.393 L
436.708 211.801 L
437.807 213.266 L
438.905 212.603 L
440.003 211.525 L
441.102 212.317 L
442.2 212.345 L
443.298 213.178 L
444.397 213.04 L
445.495 217.018 L
446.593 218.729 L
447.692 220.239 L
448.79 220.321 L
449.888 220.512 L
450.987 220.504 L
452.085 219.739 L
453.183 219.162 L
454.282 216.704 L
455.38 215.863 L
456.478 216.081 L
457.577 216.351 L
458.675 216.837 L
459.773 217.464 L
460.872 219.291 L
461.97 220.112 L
463.068 220.195 L
464.167 220.707 L
465.265 220.452 L
466.363 220.615 L
467.462 220.047 L
468.56 219.183 L
469.658 219.743 L
470.757 219.26 L
471.855 219.279 L
472.953 218.62 L
474.052 218.089 L
475.15 217.851 L
476.248 217.212 L
477.347 216.836 L
478.445 218.704 L
479.543 217.872 L
480.642 217.665 L
481.74 217.786 L
482.838 218.877 L
483.937 218.409 L
485.035 218.001 L
486.133 217.676 L
487.232 217.868 L
488.33 216.984 L
489.428 216.78 L
490.527 217.056 L
491.625 217.317 L
492.723 217.613 L
493.822 218.198 L
494.92 216.514 L
496.018 217.201 L
497.117 217.051 L
498.215 217.062 L
499.313 217.005 L
500.412 216.853 L
501.51 218.529 L
502.608 218.636 L
503.707 219.245 L
504.805 219.686 L
505.903 220.459 L
507.002 220.482 L
508.1 220.884 L
509.198 221.449 L
510.297 221.183 L
511.395 221.219 L
512.493 221.289 L
513.592 221.339 L
514.69 221.234 L
515.788 222.108 L
516.887 221.561 L
517.985 222.563 L
519.083 223.91 L
520.182 224.866 L
521.28 225.558 LE
1 0 0 C
411.447 183.412 LS
412.545 248.599 L
413.644 236.024 L
414.742 218.854 L
415.84 215.492 L
416.939 214.53 L
418.037 205.522 L
419.135 200.406 L
420.234 202.679 L
421.332 201.233 L
422.43 202.117 L
423.529 203.631 L
424.627 201.419 L
425.725 200.819 L
426.823 200.844 L
427.922 200.506 L
429.02 207.235 L
430.118 213.434 L
431.217 215.03 L
432.315 215.786 L
433.413 215.317 L
434.512 214.086 L
435.61 213.359 L
436.708 211.801 L
437.807 213.204 L
438.905 212.599 L
440.003 211.369 L
441.102 212.149 L
442.2 212.303 L
443.298 213.179 L
444.397 213.002 L
445.495 217.028 L
446.593 218.668 L
447.692 220.124 L
448.79 220.132 L
449.888 220.353 L
450.987 220.381 L
452.085 219.614 L
453.183 219.068 L
454.282 216.641 L
455.38 215.814 L
456.478 215.719 L
457.577 215.336 L
458.675 215.842 L
459.773 216.579 L
460.872 218.317 L
461.97 219.173 L
463.068 219.505 L
464.167 220.079 L
465.265 220.061 L
466.363 220.32 L
467.462 219.906 L
468.56 219.149 L
469.658 219.736 L
470.757 219.26 L
471.855 219.28 L
472.953 218.603 L
474.052 218.076 L
475.15 217.85 L
476.248 217.211 L
477.347 216.808 L
478.445 218.593 L
479.543 217.722 L
480.642 217.58 L
481.74 217.59 L
482.838 218.711 L
483.937 218.271 L
485.035 217.866 L
486.133 217.462 L
487.232 217.494 L
488.33 216.533 L
489.428 216.215 L
490.527 216.48 L
491.625 216.628 L
492.723 216.758 L
493.822 217.11 L
494.92 215.601 L
496.018 216.15 L
497.117 215.907 L
498.215 216.037 L
499.313 216.187 L
500.412 215.871 L
501.51 217.401 L
502.608 217.414 L
503.707 218.055 L
504.805 218.458 L
505.903 219.062 L
507.002 219.015 L
508.1 219.462 L
509.198 220.177 L
510.297 219.979 L
511.395 220.339 L
512.493 220.691 L
513.592 221.073 L
514.69 221.132 L
515.788 222.065 L
516.887 221.569 L
517.985 222.558 L
519.083 223.86 L
520.182 224.697 L
521.28 225.132 LE
grestore
gsave
1.0 1.0 scale
newpath 0 0 moveto 576 0 lineto 576 432 lineto 0 432 lineto
closepath clip
1 1 1 C
77.2594 120.933 187.093 47.52 77.2594 47.52 T
77.2594 120.933 187.093 120.933 187.093 47.52 T
0.5 W
0.15 0.15 0.15 C
99.2173 47.52 LS
99.2173 48.6245 LE
99.2173 120.933 LS
99.2173 119.829 LE
121.186 47.52 LS
121.186 48.6245 LE
121.186 120.933 LS
121.186 119.829 LE
143.155 47.52 LS
143.155 48.6245 LE
143.155 120.933 LS
143.155 119.829 LE
165.124 47.52 LS
165.124 48.6245 LE
165.124 120.933 LS
165.124 119.829 LE
187.093 47.52 LS
187.093 48.6245 LE
187.093 120.933 LS
187.093 119.829 LE
gsave
0.14902 0.14902 0.14902 C
(2e+06) [6 5 6 6 10] 0 84.7173 31.9776 10 /Helvetica SRX
grestore

gsave
0.14902 0.14902 0.14902 C
(4e+06) [6 5 6 6 10] 0 106.686 31.9776 10 /Helvetica SRX
grestore

gsave
0.14902 0.14902 0.14902 C
(6e+06) [6 5 6 6 10] 0 128.655 31.9776 10 /Helvetica SRX
grestore

gsave
0.14902 0.14902 0.14902 C
(8e+06) [6 5 6 6 10] 0 150.624 31.9776 10 /Helvetica SRX
grestore

gsave
0.14902 0.14902 0.14902 C
(1e+07) [6 5 6 6 10] 0 172.593 31.9776 10 /Helvetica SRX
grestore

77.2594 47.52 LS
78.3561 47.52 LE
187.093 47.52 LS
185.996 47.52 LE
77.2594 62.2026 LS
78.3561 62.2026 LE
187.093 62.2026 LS
185.996 62.2026 LE
77.2594 76.8853 LS
78.3561 76.8853 LE
187.093 76.8853 LS
185.996 76.8853 LE
77.2594 91.5679 LS
78.3561 91.5679 LE
187.093 91.5679 LS
185.996 91.5679 LE
77.2594 106.25 LS
78.3561 106.25 LE
187.093 106.25 LS
185.996 106.25 LE
77.2594 120.933 LS
78.3561 120.933 LE
187.093 120.933 LS
185.996 120.933 LE
gsave
0.14902 0.14902 0.14902 C
(0.005) [6 3 6 6 10] 0 45.267 43.52 10 /Helvetica SRX
grestore

gsave
0.14902 0.14902 0.14902 C
(0.01) [6 3 6 10] 0 51.267 58.2026 10 /Helvetica SRX
grestore

gsave
0.14902 0.14902 0.14902 C
(0.015) [6 3 6 6 10] 0 45.267 72.8853 10 /Helvetica SRX
grestore

gsave
0.14902 0.14902 0.14902 C
(0.02) [6 3 6 10] 0 51.267 87.5679 10 /Helvetica SRX
grestore

gsave
0.14902 0.14902 0.14902 C
(0.025) [6 3 6 6 10] 0 45.267 102.251 10 /Helvetica SRX
grestore

gsave
0.14902 0.14902 0.14902 C
(0.03) [6 3 6 10] 0 51.267 116.933 10 /Helvetica SRX
grestore

2 LC
[16 0] 0 setdash
77.2594 47.52 LS
187.093 47.52 LE
77.2594 120.933 LS
187.093 120.933 LE
77.2594 47.52 LS
77.2594 120.933 LE
187.093 47.52 LS
187.093 120.933 LE
gsave
0 0 0 C
(SE_eps_AC_news2 \(Interval\)) [7 7 6 6 7 6 6 8 8 6 7 6 9 6 6 3 4 3 7 4 6 4 6 6 3 10] 0 56.676 133.933 11 /Helvetica-Bold SRX
grestore

0 LC
1 LJ
[] 0 setdash
0 0 1 C
77.2594 53.5319 LS
78.3577 59.4833 L
79.4561 73.0618 L
80.5544 75.773 L
81.6527 85.2697 L
82.7511 96.6824 L
83.8494 117.341 L
84.9477 106.887 L
86.0461 111.026 L
87.1444 87.9212 L
88.2427 78.8309 L
89.3411 73.3969 L
90.4394 74.0203 L
91.5377 84.7791 L
92.636 93.5052 L
93.7344 94.288 L
94.8327 86.1742 L
95.9311 83.799 L
97.0294 79.0173 L
98.1277 77.839 L
99.226 77.7089 L
100.324 73.4947 L
101.423 70.25 L
102.521 72.8766 L
103.619 73.2058 L
104.718 70.1369 L
105.816 70.2501 L
106.914 71.1572 L
108.013 72.8721 L
109.111 70.3949 L
110.209 68.8719 L
111.308 68.4407 L
112.406 65.0956 L
113.504 66.0508 L
114.603 67.1013 L
115.701 68.3077 L
116.799 71.5871 L
117.898 78.5209 L
118.996 85.9977 L
120.094 89.6144 L
121.193 93.4835 L
122.291 90.5309 L
123.389 88.6408 L
124.488 91.0688 L
125.586 90.3675 L
126.684 91.609 L
127.783 90.1289 L
128.881 86.8637 L
129.979 85.158 L
131.078 83.7488 L
132.176 81.8875 L
133.274 83.6342 L
134.373 85.324 L
135.471 87.1021 L
136.569 85.0869 L
137.668 83.6736 L
138.766 81.7308 L
139.864 80.6269 L
140.963 83.2523 L
142.061 79.8835 L
143.159 78.2591 L
144.258 77.3177 L
145.356 77.1535 L
146.454 78.5949 L
147.553 78.0292 L
148.651 77.3428 L
149.749 74.923 L
150.848 72.7336 L
151.946 72.0903 L
153.044 71.685 L
154.143 70.7672 L
155.241 71.0628 L
156.339 70.9911 L
157.438 71.0762 L
158.536 71.5478 L
159.634 71.2505 L
160.733 70.7896 L
161.831 71.4199 L
162.929 72.3868 L
164.028 71.3851 L
165.126 70.5208 L
166.224 71.3409 L
167.323 71.7578 L
168.421 71.6043 L
169.519 71.5116 L
170.618 71.1045 L
171.716 70.6814 L
172.814 70.9372 L
173.913 71.1147 L
175.011 72.581 L
176.109 72.9648 L
177.208 72.6242 L
178.306 73.0177 L
179.404 74.7596 L
180.503 76.638 L
181.601 78.9873 L
182.699 81.2723 L
183.798 82.2605 L
184.896 82.7263 L
185.994 83.0124 L
187.093 83.5265 LE
1 0 0 C
77.2594 48.0492 LS
78.3577 58.9115 L
79.4561 66.808 L
80.5544 67.2908 L
81.6527 68.9913 L
82.7511 62.0344 L
83.8494 71.2117 L
84.9477 64.2562 L
86.0461 75.5445 L
87.1444 83.2922 L
88.2427 78.8206 L
89.3411 73.2139 L
90.4394 71.3963 L
91.5377 76.6068 L
92.636 80.1106 L
93.7344 73.166 L
94.8327 70.6799 L
95.9311 69.1215 L
97.0294 68.421 L
98.1277 69.5232 L
99.226 68.7905 L
100.324 68.8956 L
101.423 65.9762 L
102.521 68.5954 L
103.619 68.1569 L
104.718 65.874 L
105.816 66.7605 L
106.914 67.4247 L
108.013 71.2737 L
109.111 69.1403 L
110.209 68.6264 L
111.308 68.2567 L
112.406 65.0978 L
113.504 66.2202 L
114.603 67.3535 L
115.701 67.7777 L
116.799 70.611 L
117.898 74.2745 L
118.996 77.9939 L
120.094 78.5614 L
121.193 80.3748 L
122.291 78.5105 L
123.389 77.2478 L
124.488 78.1486 L
125.586 78.217 L
126.684 83.3737 L
127.783 85.9303 L
128.881 86.1034 L
129.979 85.2911 L
131.078 83.116 L
132.176 80.2357 L
133.274 81.809 L
134.373 83.0885 L
135.471 83.5614 L
136.569 79.665 L
137.668 77.2757 L
138.766 76.7083 L
139.864 77.1819 L
140.963 80.3514 L
142.061 77.4959 L
143.159 75.8558 L
144.258 74.8461 L
145.356 74.8127 L
146.454 75.8854 L
147.553 76.1865 L
148.651 76.1219 L
149.749 74.8949 L
150.848 72.7855 L
151.946 72.0757 L
153.044 71.649 L
154.143 70.6495 L
155.241 70.9431 L
156.339 70.917 L
157.438 71.0713 L
158.536 71.5337 L
159.634 71.2275 L
160.733 70.8223 L
161.831 71.3603 L
162.929 72.1341 L
164.028 71.0346 L
165.126 70.1949 L
166.224 70.7244 L
167.323 70.6327 L
168.421 70.0762 L
169.519 70.1175 L
170.618 69.4898 L
171.716 69.027 L
172.814 69.4274 L
173.913 69.4872 L
175.011 70.96 L
176.109 71.6295 L
177.208 71.1773 L
178.306 71.4948 L
179.404 73.0278 L
180.503 74.4498 L
181.601 75.8377 L
182.699 77.3148 L
183.798 77.4187 L
184.896 77.656 L
185.994 77.8034 L
187.093 77.956 LE
grestore
gsave
1.0 1.0 scale
newpath 0 0 moveto 576 0 lineto 576 432 lineto 0 432 lineto
closepath clip
1 1 1 C
244.353 120.933 354.186 47.52 244.353 47.52 T
244.353 120.933 354.186 120.933 354.186 47.52 T
0.5 W
0.15 0.15 0.15 C
266.311 47.52 LS
266.311 48.6245 LE
266.311 120.933 LS
266.311 119.829 LE
288.28 47.52 LS
288.28 48.6245 LE
288.28 120.933 LS
288.28 119.829 LE
310.249 47.52 LS
310.249 48.6245 LE
310.249 120.933 LS
310.249 119.829 LE
332.217 47.52 LS
332.217 48.6245 LE
332.217 120.933 LS
332.217 119.829 LE
354.186 47.52 LS
354.186 48.6245 LE
354.186 120.933 LS
354.186 119.829 LE
gsave
0.14902 0.14902 0.14902 C
(2e+06) [6 5 6 6 10] 0 251.811 31.9776 10 /Helvetica SRX
grestore

gsave
0.14902 0.14902 0.14902 C
(4e+06) [6 5 6 6 10] 0 273.78 31.9776 10 /Helvetica SRX
grestore

gsave
0.14902 0.14902 0.14902 C
(6e+06) [6 5 6 6 10] 0 295.749 31.9776 10 /Helvetica SRX
grestore

gsave
0.14902 0.14902 0.14902 C
(8e+06) [6 5 6 6 10] 0 317.717 31.9776 10 /Helvetica SRX
grestore

gsave
0.14902 0.14902 0.14902 C
(1e+07) [6 5 6 6 10] 0 339.686 31.9776 10 /Helvetica SRX
grestore

244.353 47.52 LS
245.45 47.52 LE
354.186 47.52 LS
353.09 47.52 LE
244.353 58.0076 LS
245.45 58.0076 LE
354.186 58.0076 LS
353.09 58.0076 LE
244.353 68.4952 LS
245.45 68.4952 LE
354.186 68.4952 LS
353.09 68.4952 LE
244.353 78.9828 LS
245.45 78.9828 LE
354.186 78.9828 LS
353.09 78.9828 LE
244.353 89.4703 LS
245.45 89.4703 LE
354.186 89.4703 LS
353.09 89.4703 LE
244.353 99.9579 LS
245.45 99.9579 LE
354.186 99.9579 LS
353.09 99.9579 LE
244.353 110.446 LS
245.45 110.446 LE
354.186 110.446 LS
353.09 110.446 LE
244.353 120.933 LS
245.45 120.933 LE
354.186 120.933 LS
353.09 120.933 LE
gsave
0.14902 0.14902 0.14902 C
(0) [10] 0 233.361 43.52 10 /Helvetica SRX
grestore

gsave
0.14902 0.14902 0.14902 C
(2e-05) [6 5 3 6 10] 0 213.361 54.0076 10 /Helvetica SRX
grestore

gsave
0.14902 0.14902 0.14902 C
(4e-05) [6 5 3 6 10] 0 213.361 64.4952 10 /Helvetica SRX
grestore

gsave
0.14902 0.14902 0.14902 C
(6e-05) [6 5 3 6 10] 0 213.361 74.9828 10 /Helvetica SRX
grestore

gsave
0.14902 0.14902 0.14902 C
(8e-05) [6 5 3 6 10] 0 213.361 85.4704 10 /Helvetica SRX
grestore

gsave
0.14902 0.14902 0.14902 C
(0.0001) [6 3 6 6 6 10] 0 206.361 95.958 10 /Helvetica SRX
grestore

gsave
0.14902 0.14902 0.14902 C
(0.00012) [6 3 6 6 6 6 10] 0 200.361 106.446 10 /Helvetica SRX
grestore

gsave
0.14902 0.14902 0.14902 C
(0.00014) [6 3 6 6 6 6 10] 0 200.361 116.933 10 /Helvetica SRX
grestore

2 LC
[16 0] 0 setdash
244.353 47.52 LS
354.186 47.52 LE
244.353 120.933 LS
354.186 120.933 LE
244.353 47.52 LS
244.353 120.933 LE
354.186 47.52 LS
354.186 120.933 LE
gsave
0 0 0 C
(SE_eps_AC_news2 \(m2\)) [7 7 6 6 7 6 6 8 8 6 7 6 9 6 6 3 4 10 6 10] 0 235.27 133.933 11 /Helvetica-Bold SRX
grestore

0 LC
1 LJ
[] 0 setdash
0 0 1 C
244.353 51.4246 LS
245.451 53.8151 L
246.55 62.0929 L
247.648 63.85 L
248.746 71.9905 L
249.845 85.295 L
250.943 111.76 L
252.041 101.319 L
253.14 103.346 L
254.238 77.3248 L
255.336 65.7987 L
256.435 62.2528 L
257.533 62.9403 L
258.631 70.9319 L
259.73 78.2013 L
260.828 79.8941 L
261.926 72.094 L
263.025 70.6095 L
264.123 66.4223 L
265.221 65.4743 L
266.32 65.1442 L
267.418 62.3287 L
268.516 60.0618 L
269.615 62.0763 L
270.713 62.1644 L
271.811 60.1661 L
272.91 60.191 L
274.008 60.6726 L
275.106 61.7246 L
276.205 60.0555 L
277.303 59.1717 L
278.401 59.0846 L
279.5 57.5073 L
280.598 58.147 L
281.696 58.8933 L
282.795 59.639 L
283.893 61.4586 L
284.991 66.1072 L
286.09 72.8085 L
287.188 75.9922 L
288.286 79.476 L
289.385 76.6894 L
290.483 75.1561 L
291.581 77.0439 L
292.68 76.5765 L
293.778 77.8766 L
294.876 76.3089 L
295.975 73.2022 L
297.073 71.3767 L
298.171 70.3666 L
299.27 68.6841 L
300.368 70.1496 L
301.466 71.5878 L
302.565 73.0833 L
303.663 71.6409 L
304.761 70.5194 L
305.86 69.2908 L
306.958 68.2814 L
308.056 70.2391 L
309.155 67.9821 L
310.253 66.161 L
311.351 65.2754 L
312.45 65.2041 L
313.548 66.1539 L
314.646 65.8068 L
315.745 65.3688 L
316.843 63.8298 L
317.941 62.1891 L
319.04 61.5496 L
320.138 61.3013 L
321.236 60.6984 L
322.335 60.8872 L
323.433 60.9036 L
324.531 60.9418 L
325.63 61.2269 L
326.728 60.9153 L
327.826 60.6734 L
328.925 61.0145 L
330.023 61.7231 L
331.121 61.1559 L
332.22 60.6907 L
333.318 61.0623 L
334.416 61.3563 L
335.515 61.2424 L
336.613 61.2119 L
337.711 60.9518 L
338.81 60.5418 L
339.908 60.7703 L
341.006 60.8273 L
342.105 62.4463 L
343.203 62.7965 L
344.301 62.536 L
345.4 62.9175 L
346.498 64.0752 L
347.596 65.3487 L
348.695 66.8195 L
349.793 68.6533 L
350.891 69.0458 L
351.99 69.2901 L
353.088 69.5018 L
354.186 69.9247 LE
1 0 0 C
244.353 49.9951 LS
245.451 53.8071 L
246.55 58.0243 L
247.648 58.5463 L
248.746 59.0683 L
249.845 55.1054 L
250.943 61.5327 L
252.041 56.2474 L
253.14 65.8829 L
254.238 68.9179 L
255.336 65.6234 L
256.435 62.2311 L
257.533 61.9443 L
258.631 66.7876 L
259.73 66.7575 L
260.828 62.1241 L
261.926 60.9135 L
263.025 60.1038 L
264.123 60.184 L
265.221 60.5818 L
266.32 59.4688 L
267.418 59.6006 L
268.516 57.6672 L
269.615 59.4402 L
270.713 59.1752 L
271.811 57.7975 L
272.91 58.0511 L
274.008 58.3274 L
275.106 60.8097 L
276.205 59.3708 L
277.303 59.1012 L
278.401 59.0153 L
279.5 57.3664 L
280.598 58.0841 L
281.696 58.7149 L
282.795 58.916 L
283.893 60.5481 L
284.991 63.0492 L
286.09 66.2042 L
287.188 66.5768 L
288.286 67.9937 L
289.385 66.3132 L
290.483 65.315 L
291.581 65.8637 L
292.68 65.7616 L
293.778 70.7163 L
294.876 72.9807 L
295.975 72.4624 L
297.073 71.3766 L
298.171 70.025 L
299.27 68.08 L
300.368 69.4326 L
301.466 70.2512 L
302.565 70.3458 L
303.663 67.2281 L
304.761 65.0691 L
305.86 64.7631 L
306.958 65.1049 L
308.056 67.3236 L
309.155 65.603 L
310.253 64.1597 L
311.351 63.3364 L
312.45 63.4083 L
313.548 64.1697 L
314.646 64.3789 L
315.745 64.3317 L
316.843 63.4833 L
317.941 61.9943 L
319.04 61.4792 L
320.138 61.2328 L
321.236 60.617 L
322.335 60.7901 L
323.433 60.8088 L
324.531 60.8927 L
325.63 61.1728 L
326.728 60.8788 L
327.826 60.6614 L
328.925 60.9006 L
330.023 61.4231 L
331.121 60.8457 L
332.22 60.3979 L
333.318 60.6437 L
334.416 60.6522 L
335.515 60.3663 L
336.613 60.392 L
337.711 59.9966 L
338.81 59.5583 L
339.908 59.8293 L
341.006 59.7815 L
342.105 61.188 L
343.203 61.7651 L
344.301 61.4806 L
345.4 61.6173 L
346.498 62.4531 L
347.596 63.2726 L
348.695 64.114 L
349.793 65.3292 L
350.891 65.4445 L
351.99 65.6146 L
353.088 65.6551 L
354.186 65.7158 LE
grestore
gsave
1.0 1.0 scale
newpath 0 0 moveto 576 0 lineto 576 432 lineto 0 432 lineto
closepath clip
1 1 1 C
411.447 120.933 521.28 47.52 411.447 47.52 T
411.447 120.933 521.28 120.933 521.28 47.52 T
0.5 W
0.15 0.15 0.15 C
433.405 47.52 LS
433.405 48.6245 LE
433.405 120.933 LS
433.405 119.829 LE
455.374 47.52 LS
455.374 48.6245 LE
455.374 120.933 LS
455.374 119.829 LE
477.342 47.52 LS
477.342 48.6245 LE
477.342 120.933 LS
477.342 119.829 LE
499.311 47.52 LS
499.311 48.6245 LE
499.311 120.933 LS
499.311 119.829 LE
521.28 47.52 LS
521.28 48.6245 LE
521.28 120.933 LS
521.28 119.829 LE
gsave
0.14902 0.14902 0.14902 C
(2e+06) [6 5 6 6 10] 0 418.905 31.9776 10 /Helvetica SRX
grestore

gsave
0.14902 0.14902 0.14902 C
(4e+06) [6 5 6 6 10] 0 440.874 31.9776 10 /Helvetica SRX
grestore

gsave
0.14902 0.14902 0.14902 C
(6e+06) [6 5 6 6 10] 0 462.842 31.9776 10 /Helvetica SRX
grestore

gsave
0.14902 0.14902 0.14902 C
(8e+06) [6 5 6 6 10] 0 484.811 31.9776 10 /Helvetica SRX
grestore

gsave
0.14902 0.14902 0.14902 C
(1e+07) [6 5 6 6 10] 0 506.78 31.9776 10 /Helvetica SRX
grestore

411.447 47.52 LS
412.544 47.52 LE
521.28 47.52 LS
520.183 47.52 LE
411.447 65.8733 LS
412.544 65.8733 LE
521.28 65.8733 LS
520.183 65.8733 LE
411.447 84.2266 LS
412.544 84.2266 LE
521.28 84.2266 LS
520.183 84.2266 LE
411.447 102.58 LS
412.544 102.58 LE
521.28 102.58 LS
520.183 102.58 LE
411.447 120.933 LS
412.544 120.933 LE
521.28 120.933 LS
520.183 120.933 LE
gsave
0.14902 0.14902 0.14902 C
(0) [10] 0 400.454 43.52 10 /Helvetica SRX
grestore

gsave
0.14902 0.14902 0.14902 C
(5e-07) [6 5 3 6 10] 0 380.454 61.8733 10 /Helvetica SRX
grestore

gsave
0.14902 0.14902 0.14902 C
(1e-06) [6 5 3 6 10] 0 380.454 80.2266 10 /Helvetica SRX
grestore

gsave
0.14902 0.14902 0.14902 C
(1.5e-06) [6 3 6 5 3 6 10] 0 371.454 98.5799 10 /Helvetica SRX
grestore

gsave
0.14902 0.14902 0.14902 C
(2e-06) [6 5 3 6 10] 0 380.454 116.933 10 /Helvetica SRX
grestore

2 LC
[16 0] 0 setdash
411.447 47.52 LS
521.28 47.52 LE
411.447 120.933 LS
521.28 120.933 LE
411.447 47.52 LS
411.447 120.933 LE
521.28 47.52 LS
521.28 120.933 LE
gsave
0 0 0 C
(SE_eps_AC_news2 \(m3\)) [7 7 6 6 7 6 6 8 8 6 7 6 9 6 6 3 4 10 6 10] 0 402.363 133.933 11 /Helvetica-Bold SRX
grestore

0 LC
1 LJ
[] 0 setdash
0 0 1 C
411.447 48.8632 LS
412.545 49.841 L
413.644 56.0798 L
414.742 57.1492 L
415.84 65.0041 L
416.939 75.8418 L
418.037 110.331 L
419.135 94.4676 L
420.234 99.8353 L
421.332 73.6899 L
422.43 58.9257 L
423.529 55.6268 L
424.627 56.7111 L
425.725 64.3481 L
426.823 72.7279 L
427.922 73.4119 L
429.02 65.3117 L
430.118 63.4173 L
431.217 59.2514 L
432.315 58.5499 L
433.413 58.1881 L
434.512 56.2856 L
435.61 54.3925 L
436.708 56.0057 L
437.807 55.9314 L
438.905 54.2647 L
440.003 54.2457 L
441.102 54.6447 L
442.2 55.5158 L
443.298 54.1443 L
444.397 53.4378 L
445.495 53.5657 L
446.593 52.5636 L
447.692 53.0859 L
448.79 53.7635 L
449.888 54.3593 L
450.987 55.6832 L
452.085 59.7727 L
453.183 66.907 L
454.282 69.5948 L
455.38 73.0022 L
456.478 70.4502 L
457.577 68.7986 L
458.675 70.5503 L
459.773 69.959 L
460.872 71.0253 L
461.97 69.956 L
463.068 66.6054 L
464.167 64.5223 L
465.265 63.841 L
466.363 62.1522 L
467.462 63.5904 L
468.56 65.0901 L
469.658 66.504 L
470.757 65.2064 L
471.855 64.28 L
472.953 63.1965 L
474.052 61.9954 L
475.15 63.9689 L
476.248 61.8357 L
477.347 59.5981 L
478.445 58.6507 L
479.543 58.5844 L
480.642 59.3975 L
481.74 59.1478 L
482.838 58.8469 L
483.937 57.5303 L
485.035 56.0617 L
486.133 55.4011 L
487.232 55.267 L
488.33 54.8147 L
489.428 54.9501 L
490.527 54.9472 L
491.625 54.993 L
492.723 55.2052 L
493.822 54.8916 L
494.92 54.7737 L
496.018 55.0364 L
497.117 55.6394 L
498.215 55.2077 L
499.313 54.9069 L
500.412 55.1339 L
501.51 55.4018 L
502.608 55.3152 L
503.707 55.3039 L
504.805 55.1217 L
505.903 54.6763 L
507.002 54.878 L
508.1 54.8806 L
509.198 56.6772 L
510.297 57.0821 L
511.395 56.8261 L
512.493 57.2432 L
513.592 58.2152 L
514.69 59.3171 L
515.788 60.6421 L
516.887 62.6375 L
517.985 62.7775 L
519.083 62.8218 L
520.182 62.8498 L
521.28 63.0851 LE
1 0 0 C
411.447 48.2105 LS
412.545 49.831 L
413.644 52.794 L
414.742 53.2912 L
415.84 53.4246 L
416.939 50.6176 L
418.037 55.247 L
419.135 51.549 L
420.234 60.475 L
421.332 62.433 L
422.43 58.4322 L
423.529 55.5899 L
424.627 55.7935 L
425.725 60.4679 L
426.823 59.7696 L
427.922 56.0235 L
429.02 55.3342 L
430.118 54.7732 L
431.217 55.0397 L
432.315 55.224 L
433.413 53.8392 L
434.512 53.9049 L
435.61 52.4153 L
436.708 53.8437 L
437.807 53.6148 L
438.905 52.6465 L
440.003 52.7709 L
441.102 52.9279 L
442.2 55.0228 L
443.298 53.7323 L
444.397 53.4006 L
445.495 53.5081 L
446.593 52.4084 L
447.692 52.9926 L
448.79 53.5089 L
449.888 53.5867 L
450.987 54.6883 L
452.085 56.5639 L
453.183 59.6075 L
454.282 60.1189 L
455.38 61.732 L
456.478 59.7917 L
457.577 58.7619 L
458.675 59.1361 L
459.773 59.0654 L
460.872 63.7844 L
461.97 65.9567 L
463.068 65.4864 L
464.167 64.5195 L
465.265 63.7346 L
466.363 61.5028 L
467.462 62.6879 L
468.56 63.4772 L
469.658 63.4969 L
470.757 60.5913 L
471.855 58.4886 L
472.953 58.346 L
474.052 58.6003 L
475.15 60.3855 L
476.248 59.0132 L
477.347 57.4745 L
478.445 56.7642 L
479.543 56.7918 L
480.642 57.3714 L
481.74 57.5974 L
482.838 57.6023 L
483.937 56.9947 L
485.035 55.7582 L
486.133 55.2868 L
487.232 55.1546 L
488.33 54.7104 L
489.428 54.8385 L
490.527 54.8458 L
491.625 54.9347 L
492.723 55.1419 L
493.822 54.8502 L
494.92 54.7516 L
496.018 54.9203 L
497.117 55.3419 L
498.215 54.9273 L
499.313 54.6172 L
500.412 54.7401 L
501.51 54.7856 L
502.608 54.5995 L
503.707 54.6441 L
504.805 54.3574 L
505.903 53.9315 L
507.002 54.132 L
508.1 54.0569 L
509.198 55.4668 L
510.297 56.0092 L
511.395 55.7401 L
512.493 55.8221 L
513.592 56.4224 L
514.69 57.0215 L
515.788 57.6395 L
516.887 58.769 L
517.985 58.754 L
519.083 58.8026 L
520.182 58.7948 L
521.28 58.8228 LE
grestore
grestore
showpage
cleartomark
%%PageTrailer
%%Trailer
end
%%EOF
