%!PS-Adobe-3.0 EPSF-3.0
%%Title: gl2ps_renderer figure
%%Creator: GL2PS 1.4.2, (C) 1999-2020 C. Geuzaine
%%For: Octave
%%CreationDate: Wed Oct  7 07:02:44 2020
%%LanguageLevel: 3
%%DocumentData: Clean7Bit
%%Pages: 1
%%BoundingBox: 0 0 576 432
%%EndComments
%%BeginProlog
/gl2psdict 64 dict def gl2psdict begin
/tryPS3shading false def % set to false to force subdivision
/rThreshold 0.064 def % red component subdivision threshold
/gThreshold 0.034 def % green component subdivision threshold
/bThreshold 0.1 def % blue component subdivision threshold
/BD { bind def } bind def
/C  { setrgbcolor } BD
/G  { 0.082 mul exch 0.6094 mul add exch 0.3086 mul add neg 1.0 add setgray } BD
/W  { setlinewidth } BD
/LC  { setlinecap } BD
/LJ  { setlinejoin } BD
/FC { findfont exch /SH exch def SH scalefont setfont } BD
/SW { dup stringwidth pop } BD
/S  { FC moveto show } BD
/SBC{ FC moveto SW -2 div 0 rmoveto show } BD
/SBR{ FC moveto SW neg 0 rmoveto show } BD
/SCL{ FC moveto 0 SH -2 div rmoveto show } BD
/SCC{ FC moveto SW -2 div SH -2 div rmoveto show } BD
/SCR{ FC moveto SW neg SH -2 div rmoveto show } BD
/STL{ FC moveto 0 SH neg rmoveto show } BD
/STC{ FC moveto SW -2 div SH neg rmoveto show } BD
/STR{ FC moveto SW neg SH neg rmoveto show } BD
/FCT { FC translate 0 0 } BD
/SR  { gsave FCT moveto rotate show grestore } BD
/SRX  { gsave FCT moveto rotate xshow grestore } BD
/SBCR{ gsave FCT moveto rotate SW -2 div 0 rmoveto show grestore } BD
/SBRR{ gsave FCT moveto rotate SW neg 0 rmoveto show grestore } BD
/SCLR{ gsave FCT moveto rotate 0 SH -2 div rmoveto show grestore} BD
/SCCR{ gsave FCT moveto rotate SW -2 div SH -2 div rmoveto show grestore} BD
/SCRR{ gsave FCT moveto rotate SW neg SH -2 div rmoveto show grestore} BD
/STLR{ gsave FCT moveto rotate 0 SH neg rmoveto show grestore } BD
/STCR{ gsave FCT moveto rotate SW -2 div SH neg rmoveto show grestore } BD
/STRR{ gsave FCT moveto rotate SW neg SH neg rmoveto show grestore } BD
/P  { newpath 0.0 360.0 arc closepath fill } BD
/LS { newpath moveto } BD
/L  { lineto } BD
/LE { lineto stroke } BD
/T  { newpath moveto lineto lineto closepath fill } BD
/STshfill {
      /b1 exch def /g1 exch def /r1 exch def /y1 exch def /x1 exch def
      /b2 exch def /g2 exch def /r2 exch def /y2 exch def /x2 exch def
      /b3 exch def /g3 exch def /r3 exch def /y3 exch def /x3 exch def
      gsave << /ShadingType 4 /ColorSpace [/DeviceRGB]
      /DataSource [ 0 x1 y1 r1 g1 b1 0 x2 y2 r2 g2 b2 0 x3 y3 r3 g3 b3 ] >>
      shfill grestore } BD
/Tm { 3 -1 roll 8 -1 roll 13 -1 roll add add 3 div
      3 -1 roll 7 -1 roll 11 -1 roll add add 3 div
      3 -1 roll 6 -1 roll 9 -1 roll add add 3 div C T } BD
/STsplit {
      4 index 15 index add 0.5 mul
      4 index 15 index add 0.5 mul
      4 index 15 index add 0.5 mul
      4 index 15 index add 0.5 mul
      4 index 15 index add 0.5 mul
      5 copy 5 copy 25 15 roll
      9 index 30 index add 0.5 mul
      9 index 30 index add 0.5 mul
      9 index 30 index add 0.5 mul
      9 index 30 index add 0.5 mul
      9 index 30 index add 0.5 mul
      5 copy 5 copy 35 5 roll 25 5 roll 15 5 roll
      4 index 10 index add 0.5 mul
      4 index 10 index add 0.5 mul
      4 index 10 index add 0.5 mul
      4 index 10 index add 0.5 mul
      4 index 10 index add 0.5 mul
      5 copy 5 copy 40 5 roll 25 5 roll 15 5 roll 25 5 roll
      STnoshfill STnoshfill STnoshfill STnoshfill } BD
/STnoshfill {
      2 index 8 index sub abs rThreshold gt
      { STsplit }
      { 1 index 7 index sub abs gThreshold gt
        { STsplit }
        { dup 6 index sub abs bThreshold gt
          { STsplit }
          { 2 index 13 index sub abs rThreshold gt
            { STsplit }
            { 1 index 12 index sub abs gThreshold gt
              { STsplit }
              { dup 11 index sub abs bThreshold gt
                { STsplit }
                { 7 index 13 index sub abs rThreshold gt
                  { STsplit }
                  { 6 index 12 index sub abs gThreshold gt
                    { STsplit }
                    { 5 index 11 index sub abs bThreshold gt
                      { STsplit }
                      { Tm }
                      ifelse }
                    ifelse }
                  ifelse }
                ifelse }
              ifelse }
            ifelse }
          ifelse }
        ifelse }
      ifelse } BD
tryPS3shading
{ /shfill where
  { /ST { STshfill } BD }
  { /ST { STnoshfill } BD }
  ifelse }
{ /ST { STnoshfill } BD }
ifelse
end
%%EndProlog
%%BeginSetup
/DeviceRGB setcolorspace
gl2psdict begin
%%EndSetup
%%Page: 1 1
%%BeginPageSetup
%%EndPageSetup
mark
gsave
1.0 1.0 scale
1 1 1 C
newpath 0 0 moveto 576 0 lineto 576 432 lineto 0 432 lineto
closepath fill
gsave
1.0 1.0 scale
1 1 1 C
newpath 0 0 moveto 576 0 lineto 576 432 lineto 0 432 lineto
closepath fill
newpath 0 0 moveto 576 0 lineto 576 432 lineto 0 432 lineto
closepath clip
1 1 1 C
74.88 385.841 187.093 312.427 74.88 312.427 T
74.88 385.841 187.093 385.841 187.093 312.427 T
0.5 W
0.15 0.15 0.15 C
98.5037 312.427 LS
98.5037 313.556 LE
98.5037 385.841 LS
98.5037 384.712 LE
128.033 312.427 LS
128.033 313.556 LE
128.033 385.841 LS
128.033 384.712 LE
157.563 312.427 LS
157.563 313.556 LE
157.563 385.841 LS
157.563 384.712 LE
187.093 312.427 LS
187.093 313.556 LE
187.093 385.841 LS
187.093 384.712 LE
gsave
0.14902 0.14902 0.14902 C
(5) [10] 0 95.5037 296.885 10 /Helvetica SRX
grestore

gsave
0.14902 0.14902 0.14902 C
(10) [6 10] 0 122.033 296.885 10 /Helvetica SRX
grestore

gsave
0.14902 0.14902 0.14902 C
(15) [6 10] 0 151.563 296.885 10 /Helvetica SRX
grestore

gsave
0.14902 0.14902 0.14902 C
(20) [6 10] 0 181.093 296.885 10 /Helvetica SRX
grestore

74.88 312.69 LS
76.0043 312.69 LE
187.093 312.69 LS
185.968 312.69 LE
74.88 332.414 LS
76.0043 332.414 LE
187.093 332.414 LS
185.968 332.414 LE
74.88 352.139 LS
76.0043 352.139 LE
187.093 352.139 LS
185.968 352.139 LE
74.88 371.864 LS
76.0043 371.864 LE
187.093 371.864 LS
185.968 371.864 LE
gsave
0.14902 0.14902 0.14902 C
(-5e-05) [3 6 5 3 6 10] 0 40.8705 308.69 10 /Helvetica SRX
grestore

gsave
0.14902 0.14902 0.14902 C
(0) [10] 0 63.8705 328.414 10 /Helvetica SRX
grestore

gsave
0.14902 0.14902 0.14902 C
(5e-05) [6 5 3 6 10] 0 43.8705 348.139 10 /Helvetica SRX
grestore

gsave
0.14902 0.14902 0.14902 C
(0.0001) [6 3 6 6 6 10] 0 36.8705 367.864 10 /Helvetica SRX
grestore

2 LC
[16 0] 0 setdash
74.88 312.427 LS
187.093 312.427 LE
74.88 385.841 LS
187.093 385.841 LE
74.88 312.427 LS
74.88 385.841 LE
187.093 312.427 LS
187.093 385.841 LE
gsave
0 0 0 C
(r_hat) [4 6 7 6 10] 0 117.486 397.841 11 /Helvetica-Bold SRX
grestore

0.9 0.9 0.9 C
74.88 312.427 74.88 332.414 80.7859 312.427 T
80.7859 344.35 80.7859 312.427 74.88 332.414 T
86.6918 312.427 80.7859 312.427 80.7859 344.35 T
86.6918 359.055 86.6918 312.427 80.7859 344.35 T
92.5978 312.427 86.6918 312.427 86.6918 359.055 T
92.5978 373.911 92.5978 312.427 86.6918 359.055 T
98.5037 312.427 92.5978 312.427 92.5978 373.911 T
98.5037 385.841 98.5037 312.427 92.5978 373.911 T
104.41 312.427 98.5037 312.427 98.5037 385.841 T
104.41 373.884 104.41 312.427 98.5037 385.841 T
110.316 312.427 104.41 312.427 104.41 373.884 T
110.316 361.786 110.316 312.427 104.41 373.884 T
116.221 312.427 110.316 312.427 110.316 361.786 T
116.221 352.902 116.221 312.427 110.316 361.786 T
122.127 312.427 116.221 312.427 116.221 352.902 T
122.127 346.062 122.127 312.427 116.221 352.902 T
128.033 312.427 122.127 312.427 122.127 346.062 T
128.033 339.522 128.033 312.427 122.127 346.062 T
133.939 312.427 128.033 312.427 128.033 339.522 T
133.939 335.458 133.939 312.427 128.033 339.522 T
139.845 312.427 133.939 312.427 133.939 335.458 T
139.845 332.434 139.845 312.427 133.939 335.458 T
145.751 312.427 139.845 312.427 139.845 332.434 T
145.751 329.786 145.751 312.427 139.845 332.434 T
151.657 312.427 145.751 312.427 145.751 329.786 T
151.657 328.068 151.657 312.427 145.751 329.786 T
157.563 312.427 151.657 312.427 151.657 328.068 T
157.563 326.786 157.563 312.427 151.657 328.068 T
163.469 312.427 157.563 312.427 157.563 326.786 T
163.469 325.642 163.469 312.427 157.563 326.786 T
169.375 312.427 163.469 312.427 163.469 325.642 T
169.375 324.57 169.375 312.427 163.469 325.642 T
175.281 312.427 169.375 312.427 169.375 324.57 T
175.281 324.201 175.281 312.427 169.375 324.57 T
181.187 312.427 175.281 312.427 175.281 324.201 T
181.187 323.721 181.187 312.427 175.281 324.201 T
187.093 312.427 181.187 312.427 181.187 323.721 T
187.093 323.363 187.093 312.427 181.187 323.721 T
0 LC
[] 0 setdash
0 0 0 C
187.093 323.363 LS
181.187 323.721 L
175.281 324.201 L
169.375 324.57 L
163.469 325.642 L
157.563 326.786 L
151.657 328.068 L
145.751 329.786 L
139.845 332.434 L
133.939 335.458 L
128.033 339.522 L
122.127 346.062 L
116.221 352.902 L
110.316 361.786 L
104.41 373.884 L
98.5037 385.841 L
92.5978 373.911 L
86.6918 359.055 L
80.7859 344.35 L
74.88 332.414 L
74.88 312.427 L
80.7859 312.427 L
86.6918 312.427 L
92.5978 312.427 L
98.5037 312.427 L
104.41 312.427 L
110.316 312.427 L
116.221 312.427 L
122.127 312.427 L
128.033 312.427 L
133.939 312.427 L
139.845 312.427 L
145.751 312.427 L
151.657 312.427 L
157.563 312.427 L
163.469 312.427 L
169.375 312.427 L
175.281 312.427 L
181.187 312.427 L
187.093 312.427 L
187.093 323.363 LE
1 1 1 C
74.88 312.427 74.88 332.414 80.7859 312.427 T
80.7859 335.521 80.7859 312.427 74.88 332.414 T
86.6918 312.427 80.7859 312.427 80.7859 335.521 T
86.6918 340.371 86.6918 312.427 80.7859 335.521 T
92.5978 312.427 86.6918 312.427 86.6918 340.371 T
92.5978 345.067 92.5978 312.427 86.6918 340.371 T
98.5037 312.427 92.5978 312.427 92.5978 345.067 T
98.5037 347.317 98.5037 312.427 92.5978 345.067 T
104.41 312.427 98.5037 312.427 98.5037 347.317 T
104.41 344.645 104.41 312.427 98.5037 347.317 T
110.316 312.427 104.41 312.427 104.41 344.645 T
110.316 339.855 110.316 312.427 104.41 344.645 T
116.221 312.427 110.316 312.427 110.316 339.855 T
116.221 335.502 116.221 312.427 110.316 339.855 T
122.127 312.427 116.221 312.427 116.221 335.502 T
122.127 331.37 122.127 312.427 116.221 335.502 T
128.033 312.427 122.127 312.427 122.127 331.37 T
128.033 326.856 128.033 312.427 122.127 331.37 T
133.939 312.427 128.033 312.427 128.033 326.856 T
133.939 323.967 133.939 312.427 128.033 326.856 T
139.845 312.427 133.939 312.427 133.939 323.967 T
139.845 321.106 139.845 312.427 133.939 323.967 T
145.751 312.427 139.845 312.427 139.845 321.106 T
145.751 318.344 145.751 312.427 139.845 321.106 T
151.657 312.427 145.751 312.427 145.751 318.344 T
151.657 316.41 151.657 312.427 145.751 318.344 T
157.563 312.427 151.657 312.427 151.657 316.41 T
157.563 314.816 157.563 312.427 151.657 316.41 T
163.469 312.427 157.563 312.427 157.563 314.816 T
163.469 313.965 163.469 312.427 157.563 314.816 T
169.375 312.427 163.469 312.427 163.469 313.965 T
169.375 313.003 169.375 312.427 163.469 313.965 T
175.281 312.427 169.375 312.427 169.375 313.003 T
175.281 312.933 175.281 312.427 169.375 313.003 T
181.187 312.427 175.281 312.427 175.281 312.933 T
181.187 312.704 181.187 312.427 175.281 312.933 T
187.093 312.427 181.187 312.427 181.187 312.704 T
0 0 0 C
187.093 312.427 LS
181.187 312.704 L
175.281 312.933 L
169.375 313.003 L
163.469 313.965 L
157.563 314.816 L
151.657 316.41 L
145.751 318.344 L
139.845 321.106 L
133.939 323.967 L
128.033 326.856 L
122.127 331.37 L
116.221 335.502 L
110.316 339.855 L
104.41 344.645 L
98.5037 347.317 L
92.5978 345.067 L
86.6918 340.371 L
80.7859 335.521 L
74.88 332.414 L
74.88 312.427 L
80.7859 312.427 L
86.6918 312.427 L
92.5978 312.427 L
98.5037 312.427 L
104.41 312.427 L
110.316 312.427 L
116.221 312.427 L
122.127 312.427 L
128.033 312.427 L
133.939 312.427 L
139.845 312.427 L
145.751 312.427 L
151.657 312.427 L
157.563 312.427 L
163.469 312.427 L
169.375 312.427 L
175.281 312.427 L
181.187 312.427 L
187.093 312.427 LE
3 W
1 LJ
74.88 332.414 LS
80.7859 340.375 L
86.6918 349.686 L
92.5978 359.001 L
98.5037 367.588 L
104.41 359.357 L
110.316 350.892 L
116.221 343.724 L
122.127 337.9 L
128.033 333.231 L
133.939 329.511 L
139.845 326.562 L
145.751 324.237 L
151.657 322.416 L
157.563 321.004 L
163.469 319.921 L
169.375 319.106 L
175.281 318.505 L
181.187 318.077 L
187.093 317.787 LE
grestore
gsave
1.0 1.0 scale
newpath 0 0 moveto 576 0 lineto 576 432 lineto 0 432 lineto
closepath clip
1 1 1 C
241.974 385.841 354.186 312.427 241.974 312.427 T
241.974 385.841 354.186 385.841 354.186 312.427 T
0.5 W
0.15 0.15 0.15 C
265.597 312.427 LS
265.597 313.556 LE
265.597 385.841 LS
265.597 384.712 LE
295.127 312.427 LS
295.127 313.556 LE
295.127 385.841 LS
295.127 384.712 LE
324.657 312.427 LS
324.657 313.556 LE
324.657 385.841 LS
324.657 384.712 LE
354.186 312.427 LS
354.186 313.556 LE
354.186 385.841 LS
354.186 384.712 LE
gsave
0.14902 0.14902 0.14902 C
(5) [10] 0 262.597 296.885 10 /Helvetica SRX
grestore

gsave
0.14902 0.14902 0.14902 C
(10) [6 10] 0 289.127 296.885 10 /Helvetica SRX
grestore

gsave
0.14902 0.14902 0.14902 C
(15) [6 10] 0 318.657 296.885 10 /Helvetica SRX
grestore

gsave
0.14902 0.14902 0.14902 C
(20) [6 10] 0 348.186 296.885 10 /Helvetica SRX
grestore

241.974 312.427 LS
243.098 312.427 LE
354.186 312.427 LS
353.062 312.427 LE
241.974 335.054 LS
243.098 335.054 LE
354.186 335.054 LS
353.062 335.054 LE
241.974 357.68 LS
243.098 357.68 LE
354.186 357.68 LS
353.062 357.68 LE
241.974 380.307 LS
243.098 380.307 LE
354.186 380.307 LS
353.062 380.307 LE
gsave
0.14902 0.14902 0.14902 C
(0) [10] 0 230.964 308.427 10 /Helvetica SRX
grestore

gsave
0.14902 0.14902 0.14902 C
(0.005) [6 3 6 6 10] 0 209.964 331.054 10 /Helvetica SRX
grestore

gsave
0.14902 0.14902 0.14902 C
(0.01) [6 3 6 10] 0 215.964 353.68 10 /Helvetica SRX
grestore

gsave
0.14902 0.14902 0.14902 C
(0.015) [6 3 6 6 10] 0 209.964 376.307 10 /Helvetica SRX
grestore

2 LC
[16 0] 0 setdash
241.974 312.427 LS
354.186 312.427 LE
241.974 385.841 LS
354.186 385.841 LE
241.974 312.427 LS
241.974 385.841 LE
354.186 312.427 LS
354.186 385.841 LE
gsave
0 0 0 C
(A_N_hat) [8 6 8 6 7 6 10] 0 275.58 397.841 11 /Helvetica-Bold SRX
grestore

0.9 0.9 0.9 C
241.974 312.427 241.974 312.427 247.88 312.427 T
247.88 312.427 247.88 312.427 241.974 312.427 T
253.786 312.427 247.88 312.427 247.88 312.427 T
253.786 312.427 253.786 312.427 247.88 312.427 T
259.691 312.427 253.786 312.427 253.786 312.427 T
259.691 312.427 259.691 312.427 253.786 312.427 T
265.597 312.427 259.691 312.427 259.691 312.427 T
265.597 385.841 265.597 312.427 259.691 312.427 T
271.503 312.427 265.597 312.427 265.597 385.841 T
271.503 376.085 271.503 312.427 265.597 385.841 T
277.409 312.427 271.503 312.427 271.503 376.085 T
277.409 368.08 277.409 312.427 271.503 376.085 T
283.315 312.427 277.409 312.427 277.409 368.08 T
283.315 361.31 283.315 312.427 277.409 368.08 T
289.221 312.427 283.315 312.427 283.315 361.31 T
289.221 356.213 289.221 312.427 283.315 361.31 T
295.127 312.427 289.221 312.427 289.221 356.213 T
295.127 351.123 295.127 312.427 289.221 356.213 T
301.033 312.427 295.127 312.427 295.127 351.123 T
301.033 345.754 301.033 312.427 295.127 351.123 T
306.939 312.427 301.033 312.427 301.033 345.754 T
306.939 342.258 306.939 312.427 301.033 345.754 T
312.845 312.427 306.939 312.427 306.939 342.258 T
312.845 339.079 312.845 312.427 306.939 342.258 T
318.751 312.427 312.845 312.427 312.845 339.079 T
318.751 336.169 318.751 312.427 312.845 339.079 T
324.657 312.427 318.751 312.427 318.751 336.169 T
324.657 333.386 324.657 312.427 318.751 336.169 T
330.563 312.427 324.657 312.427 324.657 333.386 T
330.563 331.21 330.563 312.427 324.657 333.386 T
336.469 312.427 330.563 312.427 330.563 331.21 T
336.469 329.613 336.469 312.427 330.563 331.21 T
342.374 312.427 336.469 312.427 336.469 329.613 T
342.374 327.698 342.374 312.427 336.469 329.613 T
348.28 312.427 342.374 312.427 342.374 327.698 T
348.28 326.029 348.28 312.427 342.374 327.698 T
354.186 312.427 348.28 312.427 348.28 326.029 T
354.186 324.661 354.186 312.427 348.28 326.029 T
0 LC
[] 0 setdash
0 0 0 C
354.186 324.661 LS
348.28 326.029 L
342.374 327.698 L
336.469 329.613 L
330.563 331.21 L
324.657 333.386 L
318.751 336.169 L
312.845 339.079 L
306.939 342.258 L
301.033 345.754 L
295.127 351.123 L
289.221 356.213 L
283.315 361.31 L
277.409 368.08 L
271.503 376.085 L
265.597 385.841 L
259.691 312.427 L
253.786 312.427 L
247.88 312.427 L
241.974 312.427 L
241.974 312.427 L
247.88 312.427 L
253.786 312.427 L
259.691 312.427 L
265.597 312.427 L
271.503 312.427 L
277.409 312.427 L
283.315 312.427 L
289.221 312.427 L
295.127 312.427 L
301.033 312.427 L
306.939 312.427 L
312.845 312.427 L
318.751 312.427 L
324.657 312.427 L
330.563 312.427 L
336.469 312.427 L
342.374 312.427 L
348.28 312.427 L
354.186 312.427 L
354.186 324.661 LE
1 1 1 C
259.691 312.427 265.597 349.299 265.597 312.427 T
271.503 312.427 265.597 312.427 265.597 349.299 T
271.503 344.765 271.503 312.427 265.597 349.299 T
277.409 312.427 271.503 312.427 271.503 344.765 T
277.409 340.526 277.409 312.427 271.503 344.765 T
283.315 312.427 277.409 312.427 277.409 340.526 T
283.315 336.527 283.315 312.427 277.409 340.526 T
289.221 312.427 283.315 312.427 283.315 336.527 T
289.221 333.668 289.221 312.427 283.315 336.527 T
295.127 312.427 289.221 312.427 289.221 333.668 T
295.127 330.196 295.127 312.427 289.221 333.668 T
301.033 312.427 295.127 312.427 295.127 330.196 T
301.033 326.31 301.033 312.427 295.127 330.196 T
306.939 312.427 301.033 312.427 301.033 326.31 T
306.939 324.172 306.939 312.427 301.033 326.31 T
312.845 312.427 306.939 312.427 306.939 324.172 T
312.845 322.311 312.845 312.427 306.939 324.172 T
318.751 312.427 312.845 312.427 312.845 322.311 T
318.751 320.713 318.751 312.427 312.845 322.311 T
324.657 312.427 318.751 312.427 318.751 320.713 T
324.657 319.168 324.657 312.427 318.751 320.713 T
330.563 312.427 324.657 312.427 324.657 319.168 T
330.563 318.069 330.563 312.427 324.657 319.168 T
336.469 312.427 330.563 312.427 330.563 318.069 T
336.469 317.625 336.469 312.427 330.563 318.069 T
342.374 312.427 336.469 312.427 336.469 317.625 T
342.374 316.75 342.374 312.427 336.469 317.625 T
348.28 312.427 342.374 312.427 342.374 316.75 T
348.28 316.063 348.28 312.427 342.374 316.75 T
354.186 312.427 348.28 312.427 348.28 316.063 T
354.186 315.577 354.186 312.427 348.28 316.063 T
241.974 312.427 241.974 312.427 247.88 312.427 T
247.88 312.427 247.88 312.427 241.974 312.427 T
253.786 312.427 247.88 312.427 247.88 312.427 T
253.786 312.427 253.786 312.427 247.88 312.427 T
259.691 312.427 253.786 312.427 253.786 312.427 T
0 0 0 C
259.691 312.427 LS
253.786 312.427 L
247.88 312.427 L
241.974 312.427 L
241.974 312.427 L
247.88 312.427 L
253.786 312.427 L
259.691 312.427 LE
354.186 315.577 LS
348.28 316.063 L
342.374 316.75 L
336.469 317.625 L
330.563 318.069 L
324.657 319.168 L
318.751 320.713 L
312.845 322.311 L
306.939 324.172 L
301.033 326.31 L
295.127 330.196 L
289.221 333.668 L
283.315 336.527 L
277.409 340.526 L
271.503 344.765 L
265.597 349.299 L
259.691 312.427 L
265.597 312.427 L
271.503 312.427 L
277.409 312.427 L
283.315 312.427 L
289.221 312.427 L
295.127 312.427 L
301.033 312.427 L
306.939 312.427 L
312.845 312.427 L
318.751 312.427 L
324.657 312.427 L
330.563 312.427 L
336.469 312.427 L
342.374 312.427 L
348.28 312.427 L
354.186 312.427 L
354.186 315.577 LE
3 W
1 LJ
241.974 312.427 LS
247.88 312.427 L
253.786 312.427 L
259.691 312.427 L
265.597 367.993 L
271.503 360.776 L
277.409 354.536 L
283.315 349.135 L
289.221 344.453 L
295.127 340.39 L
301.033 336.859 L
306.939 333.789 L
312.845 331.116 L
318.751 328.788 L
324.657 326.757 L
330.563 324.985 L
336.469 323.438 L
342.374 322.086 L
348.28 320.904 L
354.186 319.87 LE
grestore
gsave
1.0 1.0 scale
newpath 0 0 moveto 576 0 lineto 576 432 lineto 0 432 lineto
closepath clip
1 1 1 C
409.067 385.841 521.28 312.427 409.067 312.427 T
409.067 385.841 521.28 385.841 521.28 312.427 T
0.5 W
0.15 0.15 0.15 C
432.691 312.427 LS
432.691 313.556 LE
432.691 385.841 LS
432.691 384.712 LE
462.221 312.427 LS
462.221 313.556 LE
462.221 385.841 LS
462.221 384.712 LE
491.75 312.427 LS
491.75 313.556 LE
491.75 385.841 LS
491.75 384.712 LE
521.28 312.427 LS
521.28 313.556 LE
521.28 385.841 LS
521.28 384.712 LE
gsave
0.14902 0.14902 0.14902 C
(5) [10] 0 429.691 296.885 10 /Helvetica SRX
grestore

gsave
0.14902 0.14902 0.14902 C
(10) [6 10] 0 456.221 296.885 10 /Helvetica SRX
grestore

gsave
0.14902 0.14902 0.14902 C
(15) [6 10] 0 485.75 296.885 10 /Helvetica SRX
grestore

gsave
0.14902 0.14902 0.14902 C
(20) [6 10] 0 515.28 296.885 10 /Helvetica SRX
grestore

409.067 324.23 LS
410.192 324.23 LE
521.28 324.23 LS
520.156 324.23 LE
409.067 338.292 LS
410.192 338.292 LE
521.28 338.292 LS
520.156 338.292 LE
409.067 352.353 LS
410.192 352.353 LE
521.28 352.353 LS
520.156 352.353 LE
409.067 366.414 LS
410.192 366.414 LE
521.28 366.414 LS
520.156 366.414 LE
409.067 380.476 LS
410.192 380.476 LE
521.28 380.476 LS
520.156 380.476 LE
gsave
0.14902 0.14902 0.14902 C
(-0.002) [3 6 3 6 6 10] 0 374.058 320.23 10 /Helvetica SRX
grestore

gsave
0.14902 0.14902 0.14902 C
(0) [10] 0 398.058 334.292 10 /Helvetica SRX
grestore

gsave
0.14902 0.14902 0.14902 C
(0.002) [6 3 6 6 10] 0 377.058 348.353 10 /Helvetica SRX
grestore

gsave
0.14902 0.14902 0.14902 C
(0.004) [6 3 6 6 10] 0 377.058 362.414 10 /Helvetica SRX
grestore

gsave
0.14902 0.14902 0.14902 C
(0.006) [6 3 6 6 10] 0 377.058 376.476 10 /Helvetica SRX
grestore

2 LC
[16 0] 0 setdash
409.067 312.427 LS
521.28 312.427 LE
409.067 385.841 LS
521.28 385.841 LE
409.067 312.427 LS
409.067 385.841 LE
521.28 312.427 LS
521.28 385.841 LE
gsave
0 0 0 C
(Y_hat) [7 6 7 6 10] 0 450.174 397.841 11 /Helvetica-Bold SRX
grestore

0.9 0.9 0.9 C
409.067 312.427 409.067 346.606 414.973 312.427 T
414.973 350.697 414.973 312.427 409.067 346.606 T
420.879 312.427 414.973 312.427 414.973 350.697 T
420.879 359.231 420.879 312.427 414.973 350.697 T
426.785 312.427 420.879 312.427 420.879 359.231 T
426.785 385.841 426.785 312.427 420.879 359.231 T
432.691 312.427 426.785 312.427 426.785 385.841 T
432.691 337.063 432.691 312.427 426.785 385.841 T
438.597 312.427 432.691 312.427 432.691 337.063 T
438.597 354.053 438.597 312.427 432.691 337.063 T
444.503 312.427 438.597 312.427 438.597 354.053 T
444.503 358.138 444.503 312.427 438.597 354.053 T
450.409 312.427 444.503 312.427 444.503 358.138 T
450.409 360.467 450.409 312.427 444.503 358.138 T
456.315 312.427 450.409 312.427 450.409 360.467 T
456.315 362.159 456.315 312.427 450.409 360.467 T
462.221 312.427 456.315 312.427 456.315 362.159 T
462.221 362.682 462.221 312.427 456.315 362.159 T
468.127 312.427 462.221 312.427 462.221 362.682 T
468.127 362.479 468.127 312.427 462.221 362.682 T
474.033 312.427 468.127 312.427 468.127 362.479 T
474.033 362.316 474.033 312.427 468.127 362.479 T
479.939 312.427 474.033 312.427 474.033 362.316 T
479.939 362.111 479.939 312.427 474.033 362.316 T
485.844 312.427 479.939 312.427 479.939 362.111 T
485.844 361.608 485.844 312.427 479.939 362.111 T
491.75 312.427 485.844 312.427 485.844 361.608 T
491.75 361.204 491.75 312.427 485.844 361.608 T
497.656 312.427 491.75 312.427 491.75 361.204 T
497.656 360.665 497.656 312.427 491.75 361.204 T
503.562 312.427 497.656 312.427 497.656 360.665 T
503.562 360.144 503.562 312.427 497.656 360.665 T
509.468 312.427 503.562 312.427 503.562 360.144 T
509.468 359.828 509.468 312.427 503.562 360.144 T
515.374 312.427 509.468 312.427 509.468 359.828 T
515.374 359.861 515.374 312.427 509.468 359.828 T
521.28 312.427 515.374 312.427 515.374 359.861 T
521.28 359.475 521.28 312.427 515.374 359.861 T
0 LC
[] 0 setdash
0 0 0 C
521.28 359.475 LS
515.374 359.861 L
509.468 359.828 L
503.562 360.144 L
497.656 360.665 L
491.75 361.204 L
485.844 361.608 L
479.939 362.111 L
474.033 362.316 L
468.127 362.479 L
462.221 362.682 L
456.315 362.159 L
450.409 360.467 L
444.503 358.138 L
438.597 354.053 L
432.691 337.063 L
426.785 385.841 L
420.879 359.231 L
414.973 350.697 L
409.067 346.606 L
409.067 312.427 L
414.973 312.427 L
420.879 312.427 L
426.785 312.427 L
432.691 312.427 L
438.597 312.427 L
444.503 312.427 L
450.409 312.427 L
456.315 312.427 L
462.221 312.427 L
468.127 312.427 L
474.033 312.427 L
479.939 312.427 L
485.844 312.427 L
491.75 312.427 L
497.656 312.427 L
503.562 312.427 L
509.468 312.427 L
515.374 312.427 L
521.28 312.427 L
521.28 359.475 LE
1 1 1 C
432.691 312.427 438.597 340.094 438.597 312.427 T
444.503 312.427 438.597 312.427 438.597 340.094 T
444.503 346.296 444.503 312.427 438.597 340.094 T
450.409 312.427 444.503 312.427 444.503 346.296 T
450.409 348.574 450.409 312.427 444.503 346.296 T
456.315 312.427 450.409 312.427 450.409 348.574 T
456.315 349.678 456.315 312.427 450.409 348.574 T
462.221 312.427 456.315 312.427 456.315 349.678 T
462.221 349.877 462.221 312.427 456.315 349.678 T
468.127 312.427 462.221 312.427 462.221 349.877 T
468.127 349.669 468.127 312.427 462.221 349.877 T
474.033 312.427 468.127 312.427 468.127 349.669 T
474.033 349.575 474.033 312.427 468.127 349.669 T
479.939 312.427 474.033 312.427 474.033 349.575 T
479.939 349.336 479.939 312.427 474.033 349.575 T
485.844 312.427 479.939 312.427 479.939 349.336 T
485.844 348.977 485.844 312.427 479.939 349.336 T
491.75 312.427 485.844 312.427 485.844 348.977 T
491.75 348.642 491.75 312.427 485.844 348.977 T
497.656 312.427 491.75 312.427 491.75 348.642 T
497.656 348.21 497.656 312.427 491.75 348.642 T
503.562 312.427 497.656 312.427 497.656 348.21 T
503.562 347.813 503.562 312.427 497.656 348.21 T
509.468 312.427 503.562 312.427 503.562 347.813 T
509.468 347.69 509.468 312.427 503.562 347.813 T
515.374 312.427 509.468 312.427 509.468 347.69 T
515.374 347.928 515.374 312.427 509.468 347.69 T
521.28 312.427 515.374 312.427 515.374 347.928 T
521.28 347.686 521.28 312.427 515.374 347.928 T
409.067 312.427 409.067 341.306 414.973 312.427 T
414.973 342.764 414.973 312.427 409.067 341.306 T
420.879 312.427 414.973 312.427 414.973 342.764 T
420.879 345.427 420.879 312.427 414.973 342.764 T
426.785 312.427 420.879 312.427 420.879 345.427 T
426.785 358.394 426.785 312.427 420.879 345.427 T
432.691 312.427 426.785 312.427 426.785 358.394 T
0 0 0 C
432.691 312.427 LS
426.785 358.394 L
420.879 345.427 L
414.973 342.764 L
409.067 341.306 L
409.067 312.427 L
414.973 312.427 L
420.879 312.427 L
426.785 312.427 L
432.691 312.427 LE
521.28 347.686 LS
515.374 347.928 L
509.468 347.69 L
503.562 347.813 L
497.656 348.21 L
491.75 348.642 L
485.844 348.977 L
479.939 349.336 L
474.033 349.575 L
468.127 349.669 L
462.221 349.877 L
456.315 349.678 L
450.409 348.574 L
444.503 346.296 L
438.597 340.094 L
432.691 312.427 L
438.597 312.427 L
444.503 312.427 L
450.409 312.427 L
456.315 312.427 L
462.221 312.427 L
468.127 312.427 L
474.033 312.427 L
479.939 312.427 L
485.844 312.427 L
491.75 312.427 L
497.656 312.427 L
503.562 312.427 L
509.468 312.427 L
515.374 312.427 L
521.28 312.427 L
521.28 347.686 LE
3 W
1 LJ
409.067 344.264 LS
414.973 346.911 L
420.879 352.891 L
426.785 372.338 L
432.691 323.729 L
438.597 345.986 L
444.503 352.296 L
450.409 354.737 L
456.315 355.742 L
462.221 356.092 L
468.127 356.107 L
474.033 355.943 L
479.939 355.681 L
485.844 355.367 L
491.75 355.029 L
497.656 354.683 L
503.562 354.339 L
509.468 354.002 L
515.374 353.677 L
521.28 353.364 LE
grestore
gsave
1.0 1.0 scale
newpath 0 0 moveto 576 0 lineto 576 432 lineto 0 432 lineto
closepath clip
1 1 1 C
74.88 253.387 187.093 179.974 74.88 179.974 T
74.88 253.387 187.093 253.387 187.093 179.974 T
0.5 W
0.15 0.15 0.15 C
98.5037 179.974 LS
98.5037 181.102 LE
98.5037 253.387 LS
98.5037 252.258 LE
128.033 179.974 LS
128.033 181.102 LE
128.033 253.387 LS
128.033 252.258 LE
157.563 179.974 LS
157.563 181.102 LE
157.563 253.387 LS
157.563 252.258 LE
187.093 179.974 LS
187.093 181.102 LE
187.093 253.387 LS
187.093 252.258 LE
gsave
0.14902 0.14902 0.14902 C
(5) [10] 0 95.5037 164.431 10 /Helvetica SRX
grestore

gsave
0.14902 0.14902 0.14902 C
(10) [6 10] 0 122.033 164.431 10 /Helvetica SRX
grestore

gsave
0.14902 0.14902 0.14902 C
(15) [6 10] 0 151.563 164.431 10 /Helvetica SRX
grestore

gsave
0.14902 0.14902 0.14902 C
(20) [6 10] 0 181.093 164.431 10 /Helvetica SRX
grestore

74.88 189.701 LS
76.0043 189.701 LE
187.093 189.701 LS
185.968 189.701 LE
74.88 202.089 LS
76.0043 202.089 LE
187.093 202.089 LS
185.968 202.089 LE
74.88 214.477 LS
76.0043 214.477 LE
187.093 214.477 LS
185.968 214.477 LE
74.88 226.865 LS
76.0043 226.865 LE
187.093 226.865 LS
185.968 226.865 LE
74.88 239.253 LS
76.0043 239.253 LE
187.093 239.253 LS
185.968 239.253 LE
74.88 251.641 LS
76.0043 251.641 LE
187.093 251.641 LS
185.968 251.641 LE
gsave
0.14902 0.14902 0.14902 C
(0.002) [6 3 6 6 10] 0 42.8705 185.701 10 /Helvetica SRX
grestore

gsave
0.14902 0.14902 0.14902 C
(0.004) [6 3 6 6 10] 0 42.8705 198.089 10 /Helvetica SRX
grestore

gsave
0.14902 0.14902 0.14902 C
(0.006) [6 3 6 6 10] 0 42.8705 210.477 10 /Helvetica SRX
grestore

gsave
0.14902 0.14902 0.14902 C
(0.008) [6 3 6 6 10] 0 42.8705 222.865 10 /Helvetica SRX
grestore

gsave
0.14902 0.14902 0.14902 C
(0.01) [6 3 6 10] 0 48.8705 235.253 10 /Helvetica SRX
grestore

gsave
0.14902 0.14902 0.14902 C
(0.012) [6 3 6 6 10] 0 42.8705 247.641 10 /Helvetica SRX
grestore

2 LC
[16 0] 0 setdash
74.88 179.974 LS
187.093 179.974 LE
74.88 253.387 LS
187.093 253.387 LE
74.88 179.974 LS
74.88 253.387 LE
187.093 179.974 LS
187.093 253.387 LE
gsave
0 0 0 C
(C_hat) [8 6 7 6 10] 0 115.486 265.387 11 /Helvetica-Bold SRX
grestore

0.9 0.9 0.9 C
74.88 179.974 74.88 183.453 80.7859 179.974 T
80.7859 186.79 80.7859 179.974 74.88 183.453 T
86.6918 179.974 80.7859 179.974 80.7859 186.79 T
86.6918 191.827 86.6918 179.974 80.7859 186.79 T
92.5978 179.974 86.6918 179.974 86.6918 191.827 T
92.5978 203.581 92.5978 179.974 86.6918 191.827 T
98.5037 179.974 92.5978 179.974 92.5978 203.581 T
98.5037 252.085 98.5037 179.974 92.5978 203.581 T
104.41 179.974 98.5037 179.974 98.5037 252.085 T
104.41 253.387 104.41 179.974 98.5037 252.085 T
110.316 179.974 104.41 179.974 104.41 253.387 T
110.316 249.418 110.316 179.974 104.41 253.387 T
116.221 179.974 110.316 179.974 110.316 249.418 T
116.221 244.226 116.221 179.974 110.316 249.418 T
122.127 179.974 116.221 179.974 116.221 244.226 T
122.127 239.212 122.127 179.974 116.221 244.226 T
128.033 179.974 122.127 179.974 122.127 239.212 T
128.033 234.677 128.033 179.974 122.127 239.212 T
133.939 179.974 128.033 179.974 128.033 234.677 T
133.939 228.277 133.939 179.974 128.033 234.677 T
139.845 179.974 133.939 179.974 133.939 228.277 T
139.845 224.003 139.845 179.974 133.939 228.277 T
145.751 179.974 139.845 179.974 139.845 224.003 T
145.751 221.281 145.751 179.974 139.845 224.003 T
151.657 179.974 145.751 179.974 145.751 221.281 T
151.657 217.579 151.657 179.974 145.751 221.281 T
157.563 179.974 151.657 179.974 151.657 217.579 T
157.563 214.488 157.563 179.974 151.657 217.579 T
163.469 179.974 157.563 179.974 157.563 214.488 T
163.469 212.178 163.469 179.974 157.563 214.488 T
169.375 179.974 163.469 179.974 163.469 212.178 T
169.375 209.631 169.375 179.974 163.469 212.178 T
175.281 179.974 169.375 179.974 169.375 209.631 T
175.281 207.429 175.281 179.974 169.375 209.631 T
181.187 179.974 175.281 179.974 175.281 207.429 T
181.187 205.468 181.187 179.974 175.281 207.429 T
187.093 179.974 181.187 179.974 181.187 205.468 T
187.093 203.782 187.093 179.974 181.187 205.468 T
0 LC
[] 0 setdash
0 0 0 C
187.093 203.782 LS
181.187 205.468 L
175.281 207.429 L
169.375 209.631 L
163.469 212.178 L
157.563 214.488 L
151.657 217.579 L
145.751 221.281 L
139.845 224.003 L
133.939 228.277 L
128.033 234.677 L
122.127 239.212 L
116.221 244.226 L
110.316 249.418 L
104.41 253.387 L
98.5037 252.085 L
92.5978 203.581 L
86.6918 191.827 L
80.7859 186.79 L
74.88 183.453 L
74.88 179.974 L
80.7859 179.974 L
86.6918 179.974 L
92.5978 179.974 L
98.5037 179.974 L
104.41 179.974 L
110.316 179.974 L
116.221 179.974 L
122.127 179.974 L
128.033 179.974 L
133.939 179.974 L
139.845 179.974 L
145.751 179.974 L
151.657 179.974 L
157.563 179.974 L
163.469 179.974 L
169.375 179.974 L
175.281 179.974 L
181.187 179.974 L
187.093 179.974 L
187.093 203.782 LE
1 1 1 C
74.88 179.974 80.7859 181.47 80.7859 179.974 T
86.6918 179.974 80.7859 179.974 80.7859 181.47 T
86.6918 183.456 86.6918 179.974 80.7859 181.47 T
92.5978 179.974 86.6918 179.974 86.6918 183.456 T
92.5978 189.262 92.5978 179.974 86.6918 183.456 T
98.5037 179.974 92.5978 179.974 92.5978 189.262 T
98.5037 215.287 98.5037 179.974 92.5978 189.262 T
104.41 179.974 98.5037 179.974 98.5037 215.287 T
104.41 215.78 104.41 179.974 98.5037 215.287 T
110.316 179.974 104.41 179.974 104.41 215.78 T
110.316 213.41 110.316 179.974 104.41 215.78 T
116.221 179.974 110.316 179.974 110.316 213.41 T
116.221 210.009 116.221 179.974 110.316 213.41 T
122.127 179.974 116.221 179.974 116.221 210.009 T
122.127 206.887 122.127 179.974 116.221 210.009 T
128.033 179.974 122.127 179.974 122.127 206.887 T
128.033 204.191 128.033 179.974 122.127 206.887 T
133.939 179.974 128.033 179.974 128.033 204.191 T
133.939 199.227 133.939 179.974 128.033 204.191 T
139.845 179.974 133.939 179.974 133.939 199.227 T
139.845 196.565 139.845 179.974 133.939 199.227 T
145.751 179.974 139.845 179.974 139.845 196.565 T
145.751 195.452 145.751 179.974 139.845 196.565 T
151.657 179.974 145.751 179.974 145.751 195.452 T
151.657 193.222 151.657 179.974 145.751 195.452 T
157.563 179.974 151.657 179.974 151.657 193.222 T
157.563 191.389 157.563 179.974 151.657 193.222 T
163.469 179.974 157.563 179.974 157.563 191.389 T
163.469 190.364 163.469 179.974 157.563 191.389 T
169.375 179.974 163.469 179.974 163.469 190.364 T
169.375 189.026 169.375 179.974 163.469 190.364 T
175.281 179.974 169.375 179.974 169.375 189.026 T
175.281 188.007 175.281 179.974 169.375 189.026 T
181.187 179.974 175.281 179.974 175.281 188.007 T
181.187 187.152 181.187 179.974 175.281 188.007 T
187.093 179.974 181.187 179.974 181.187 187.152 T
187.093 186.458 187.093 179.974 181.187 187.152 T
0 0 0 C
187.093 186.458 LS
181.187 187.152 L
175.281 188.007 L
169.375 189.026 L
163.469 190.364 L
157.563 191.389 L
151.657 193.222 L
145.751 195.452 L
139.845 196.565 L
133.939 199.227 L
128.033 204.191 L
122.127 206.887 L
116.221 210.009 L
110.316 213.41 L
104.41 215.78 L
98.5037 215.287 L
92.5978 189.262 L
86.6918 183.456 L
80.7859 181.47 L
74.88 179.974 L
80.7859 179.974 L
86.6918 179.974 L
92.5978 179.974 L
98.5037 179.974 L
104.41 179.974 L
110.316 179.974 L
116.221 179.974 L
122.127 179.974 L
128.033 179.974 L
133.939 179.974 L
139.845 179.974 L
145.751 179.974 L
151.657 179.974 L
157.563 179.974 L
163.469 179.974 L
169.375 179.974 L
175.281 179.974 L
181.187 179.974 L
187.093 179.974 L
187.093 186.458 LE
3 W
1 LJ
74.88 181.825 LS
80.7859 184.253 L
86.6918 187.984 L
92.5978 196.555 L
98.5037 233.844 L
104.41 235.088 L
110.316 231.852 L
116.221 227.638 L
122.127 223.304 L
128.033 219.174 L
133.939 215.378 L
139.845 211.955 L
145.751 208.903 L
151.657 206.198 L
157.563 203.811 L
163.469 201.708 L
169.375 199.858 L
175.281 198.232 L
181.187 196.803 L
187.093 195.546 LE
grestore
gsave
1.0 1.0 scale
newpath 0 0 moveto 576 0 lineto 576 432 lineto 0 432 lineto
closepath clip
1 1 1 C
241.974 253.387 354.186 179.974 241.974 179.974 T
241.974 253.387 354.186 253.387 354.186 179.974 T
0.5 W
0.15 0.15 0.15 C
265.597 179.974 LS
265.597 181.102 LE
265.597 253.387 LS
265.597 252.258 LE
295.127 179.974 LS
295.127 181.102 LE
295.127 253.387 LS
295.127 252.258 LE
324.657 179.974 LS
324.657 181.102 LE
324.657 253.387 LS
324.657 252.258 LE
354.186 179.974 LS
354.186 181.102 LE
354.186 253.387 LS
354.186 252.258 LE
gsave
0.14902 0.14902 0.14902 C
(5) [10] 0 262.597 164.431 10 /Helvetica SRX
grestore

gsave
0.14902 0.14902 0.14902 C
(10) [6 10] 0 289.127 164.431 10 /Helvetica SRX
grestore

gsave
0.14902 0.14902 0.14902 C
(15) [6 10] 0 318.657 164.431 10 /Helvetica SRX
grestore

gsave
0.14902 0.14902 0.14902 C
(20) [6 10] 0 348.186 164.431 10 /Helvetica SRX
grestore

241.974 180.163 LS
243.098 180.163 LE
354.186 180.163 LS
353.062 180.163 LE
241.974 199.824 LS
243.098 199.824 LE
354.186 199.824 LS
353.062 199.824 LE
241.974 219.484 LS
243.098 219.484 LE
354.186 219.484 LS
353.062 219.484 LE
241.974 239.145 LS
243.098 239.145 LE
354.186 239.145 LS
353.062 239.145 LE
gsave
0.14902 0.14902 0.14902 C
(0.002) [6 3 6 6 10] 0 209.964 176.163 10 /Helvetica SRX
grestore

gsave
0.14902 0.14902 0.14902 C
(0.004) [6 3 6 6 10] 0 209.964 195.824 10 /Helvetica SRX
grestore

gsave
0.14902 0.14902 0.14902 C
(0.006) [6 3 6 6 10] 0 209.964 215.484 10 /Helvetica SRX
grestore

gsave
0.14902 0.14902 0.14902 C
(0.008) [6 3 6 6 10] 0 209.964 235.145 10 /Helvetica SRX
grestore

2 LC
[16 0] 0 setdash
241.974 179.974 LS
354.186 179.974 LE
241.974 253.387 LS
354.186 253.387 LE
241.974 179.974 LS
241.974 253.387 LE
354.186 179.974 LS
354.186 253.387 LE
gsave
0 0 0 C
(I_hat) [3 6 7 6 10] 0 285.08 265.387 11 /Helvetica-Bold SRX
grestore

0.9 0.9 0.9 C
241.974 179.974 241.974 246.352 247.88 179.974 T
247.88 249.776 247.88 179.974 241.974 246.352 T
253.786 179.974 247.88 179.974 247.88 249.776 T
253.786 251.517 253.786 179.974 247.88 249.776 T
259.691 179.974 253.786 179.974 253.786 251.517 T
259.691 248.148 259.691 179.974 253.786 251.517 T
265.597 179.974 259.691 179.974 259.691 248.148 T
265.597 253.387 265.597 179.974 259.691 248.148 T
271.503 179.974 265.597 179.974 265.597 253.387 T
271.503 252.211 271.503 179.974 265.597 253.387 T
277.409 179.974 271.503 179.974 271.503 252.211 T
277.409 251.285 277.409 179.974 271.503 252.211 T
283.315 179.974 277.409 179.974 277.409 251.285 T
283.315 248.411 283.315 179.974 277.409 251.285 T
289.221 179.974 283.315 179.974 283.315 248.411 T
289.221 245.82 289.221 179.974 283.315 248.411 T
295.127 179.974 289.221 179.974 289.221 245.82 T
295.127 242.603 295.127 179.974 289.221 245.82 T
301.033 179.974 295.127 179.974 295.127 242.603 T
301.033 238.308 301.033 179.974 295.127 242.603 T
306.939 179.974 301.033 179.974 301.033 238.308 T
306.939 232.996 306.939 179.974 301.033 238.308 T
312.845 179.974 306.939 179.974 306.939 232.996 T
312.845 230.139 312.845 179.974 306.939 232.996 T
318.751 179.974 312.845 179.974 312.845 230.139 T
318.751 226.766 318.751 179.974 312.845 230.139 T
324.657 179.974 318.751 179.974 318.751 226.766 T
324.657 223.046 324.657 179.974 318.751 226.766 T
330.563 179.974 324.657 179.974 324.657 223.046 T
330.563 220.013 330.563 179.974 324.657 223.046 T
336.469 179.974 330.563 179.974 330.563 220.013 T
336.469 216.699 336.469 179.974 330.563 220.013 T
342.374 179.974 336.469 179.974 336.469 216.699 T
342.374 213.495 342.374 179.974 336.469 216.699 T
348.28 179.974 342.374 179.974 342.374 213.495 T
348.28 210.743 348.28 179.974 342.374 213.495 T
354.186 179.974 348.28 179.974 348.28 210.743 T
354.186 208.407 354.186 179.974 348.28 210.743 T
0 LC
[] 0 setdash
0 0 0 C
354.186 208.407 LS
348.28 210.743 L
342.374 213.495 L
336.469 216.699 L
330.563 220.013 L
324.657 223.046 L
318.751 226.766 L
312.845 230.139 L
306.939 232.996 L
301.033 238.308 L
295.127 242.603 L
289.221 245.82 L
283.315 248.411 L
277.409 251.285 L
271.503 252.211 L
265.597 253.387 L
259.691 248.148 L
253.786 251.517 L
247.88 249.776 L
241.974 246.352 L
241.974 179.974 L
247.88 179.974 L
253.786 179.974 L
259.691 179.974 L
265.597 179.974 L
271.503 179.974 L
277.409 179.974 L
283.315 179.974 L
289.221 179.974 L
295.127 179.974 L
301.033 179.974 L
306.939 179.974 L
312.845 179.974 L
318.751 179.974 L
324.657 179.974 L
330.563 179.974 L
336.469 179.974 L
342.374 179.974 L
348.28 179.974 L
354.186 179.974 L
354.186 208.407 LE
1 1 1 C
241.974 179.974 241.974 200.19 247.88 179.974 T
247.88 202.829 247.88 179.974 241.974 200.19 T
253.786 179.974 247.88 179.974 247.88 202.829 T
253.786 204.506 253.786 179.974 247.88 202.829 T
259.691 179.974 253.786 179.974 253.786 204.506 T
259.691 203.12 259.691 179.974 253.786 204.506 T
265.597 179.974 259.691 179.974 259.691 203.12 T
265.597 206.351 265.597 179.974 259.691 203.12 T
271.503 179.974 265.597 179.974 265.597 206.351 T
271.503 205.392 271.503 179.974 265.597 206.351 T
277.409 179.974 271.503 179.974 271.503 205.392 T
277.409 205.336 277.409 179.974 271.503 205.392 T
283.315 179.974 277.409 179.974 277.409 205.336 T
283.315 203.454 283.315 179.974 277.409 205.336 T
289.221 179.974 283.315 179.974 283.315 203.454 T
289.221 201.968 289.221 179.974 283.315 203.454 T
295.127 179.974 289.221 179.974 289.221 201.968 T
295.127 199.682 295.127 179.974 289.221 201.968 T
301.033 179.974 295.127 179.974 295.127 199.682 T
301.033 196.967 301.033 179.974 295.127 199.682 T
306.939 179.974 301.033 179.974 301.033 196.967 T
306.939 193.018 306.939 179.974 301.033 196.967 T
312.845 179.974 306.939 179.974 306.939 193.018 T
312.845 191.847 312.845 179.974 306.939 193.018 T
318.751 179.974 312.845 179.974 312.845 191.847 T
318.751 189.962 318.751 179.974 312.845 191.847 T
324.657 179.974 318.751 179.974 318.751 189.962 T
324.657 187.861 324.657 179.974 318.751 189.962 T
330.563 179.974 324.657 179.974 324.657 187.861 T
330.563 186.145 330.563 179.974 324.657 187.861 T
336.469 179.974 330.563 179.974 330.563 186.145 T
336.469 184.234 336.469 179.974 330.563 186.145 T
342.374 179.974 336.469 179.974 336.469 184.234 T
342.374 182.363 342.374 179.974 336.469 184.234 T
348.28 179.974 342.374 179.974 342.374 182.363 T
348.28 181.038 348.28 179.974 342.374 182.363 T
354.186 179.974 348.28 179.974 348.28 181.038 T
0 0 0 C
354.186 179.974 LS
348.28 181.038 L
342.374 182.363 L
336.469 184.234 L
330.563 186.145 L
324.657 187.861 L
318.751 189.962 L
312.845 191.847 L
306.939 193.018 L
301.033 196.967 L
295.127 199.682 L
289.221 201.968 L
283.315 203.454 L
277.409 205.336 L
271.503 205.392 L
265.597 206.351 L
259.691 203.12 L
253.786 204.506 L
247.88 202.829 L
241.974 200.19 L
241.974 179.974 L
247.88 179.974 L
253.786 179.974 L
259.691 179.974 L
265.597 179.974 L
271.503 179.974 L
277.409 179.974 L
283.315 179.974 L
289.221 179.974 L
295.127 179.974 L
301.033 179.974 L
306.939 179.974 L
312.845 179.974 L
318.751 179.974 L
324.657 179.974 L
330.563 179.974 L
336.469 179.974 L
342.374 179.974 L
348.28 179.974 L
354.186 179.974 LE
3 W
1 LJ
241.974 225.922 LS
247.88 227.459 L
253.786 228.948 L
259.691 226.645 L
265.597 229.599 L
271.503 229.572 L
277.409 227.925 L
283.315 225.475 L
289.221 222.634 L
295.127 219.627 L
301.033 216.59 L
306.939 213.604 L
312.845 210.721 L
318.751 207.971 L
324.657 205.37 L
330.563 202.928 L
336.469 200.647 L
342.374 198.524 L
348.28 196.556 L
354.186 194.735 LE
grestore
gsave
1.0 1.0 scale
newpath 0 0 moveto 576 0 lineto 576 432 lineto 0 432 lineto
closepath clip
1 1 1 C
409.067 253.387 521.28 179.974 409.067 179.974 T
409.067 253.387 521.28 253.387 521.28 179.974 T
0.5 W
0.15 0.15 0.15 C
432.691 179.974 LS
432.691 181.102 LE
432.691 253.387 LS
432.691 252.258 LE
462.221 179.974 LS
462.221 181.102 LE
462.221 253.387 LS
462.221 252.258 LE
491.75 179.974 LS
491.75 181.102 LE
491.75 253.387 LS
491.75 252.258 LE
521.28 179.974 LS
521.28 181.102 LE
521.28 253.387 LS
521.28 252.258 LE
gsave
0.14902 0.14902 0.14902 C
(5) [10] 0 429.691 164.431 10 /Helvetica SRX
grestore

gsave
0.14902 0.14902 0.14902 C
(10) [6 10] 0 456.221 164.431 10 /Helvetica SRX
grestore

gsave
0.14902 0.14902 0.14902 C
(15) [6 10] 0 485.75 164.431 10 /Helvetica SRX
grestore

gsave
0.14902 0.14902 0.14902 C
(20) [6 10] 0 515.28 164.431 10 /Helvetica SRX
grestore

409.067 194.408 LS
410.192 194.408 LE
521.28 194.408 LS
520.156 194.408 LE
409.067 209.252 LS
410.192 209.252 LE
521.28 209.252 LS
520.156 209.252 LE
409.067 224.097 LS
410.192 224.097 LE
521.28 224.097 LS
520.156 224.097 LE
409.067 238.941 LS
410.192 238.941 LE
521.28 238.941 LS
520.156 238.941 LE
gsave
0.14902 0.14902 0.14902 C
(0.002) [6 3 6 6 10] 0 377.058 190.408 10 /Helvetica SRX
grestore

gsave
0.14902 0.14902 0.14902 C
(0.004) [6 3 6 6 10] 0 377.058 205.252 10 /Helvetica SRX
grestore

gsave
0.14902 0.14902 0.14902 C
(0.006) [6 3 6 6 10] 0 377.058 220.097 10 /Helvetica SRX
grestore

gsave
0.14902 0.14902 0.14902 C
(0.008) [6 3 6 6 10] 0 377.058 234.941 10 /Helvetica SRX
grestore

2 LC
[16 0] 0 setdash
409.067 179.974 LS
521.28 179.974 LE
409.067 253.387 LS
521.28 253.387 LE
409.067 179.974 LS
409.067 253.387 LE
521.28 179.974 LS
521.28 253.387 LE
gsave
0 0 0 C
(L_hat) [7 6 7 6 10] 0 450.174 265.387 11 /Helvetica-Bold SRX
grestore

0.9 0.9 0.9 C
409.067 179.974 409.067 182.484 414.973 179.974 T
414.973 187.004 414.973 179.974 409.067 182.484 T
420.879 179.974 414.973 179.974 414.973 187.004 T
420.879 196.247 420.879 179.974 414.973 187.004 T
426.785 179.974 420.879 179.974 420.879 196.247 T
426.785 213.435 426.785 179.974 420.879 196.247 T
432.691 179.974 426.785 179.974 426.785 213.435 T
432.691 247.652 432.691 179.974 426.785 213.435 T
438.597 179.974 432.691 179.974 432.691 247.652 T
438.597 253.387 438.597 179.974 432.691 247.652 T
444.503 179.974 438.597 179.974 438.597 253.387 T
444.503 251.999 444.503 179.974 438.597 253.387 T
450.409 179.974 444.503 179.974 444.503 251.999 T
450.409 247.68 450.409 179.974 444.503 251.999 T
456.315 179.974 450.409 179.974 450.409 247.68 T
456.315 241.811 456.315 179.974 450.409 247.68 T
462.221 179.974 456.315 179.974 456.315 241.811 T
462.221 237.488 462.221 179.974 456.315 241.811 T
468.127 179.974 462.221 179.974 462.221 237.488 T
468.127 230.685 468.127 179.974 462.221 237.488 T
474.033 179.974 468.127 179.974 468.127 230.685 T
474.033 227.836 474.033 179.974 468.127 230.685 T
479.939 179.974 474.033 179.974 474.033 227.836 T
479.939 222.576 479.939 179.974 474.033 227.836 T
485.844 179.974 479.939 179.974 479.939 222.576 T
485.844 219.113 485.844 179.974 479.939 222.576 T
491.75 179.974 485.844 179.974 485.844 219.113 T
491.75 216.049 491.75 179.974 485.844 219.113 T
497.656 179.974 491.75 179.974 491.75 216.049 T
497.656 212.9 497.656 179.974 491.75 216.049 T
503.562 179.974 497.656 179.974 497.656 212.9 T
503.562 210.512 503.562 179.974 497.656 212.9 T
509.468 179.974 503.562 179.974 503.562 210.512 T
509.468 208.276 509.468 179.974 503.562 210.512 T
515.374 179.974 509.468 179.974 509.468 208.276 T
515.374 206.204 515.374 179.974 509.468 208.276 T
521.28 179.974 515.374 179.974 515.374 206.204 T
521.28 204.907 521.28 179.974 515.374 206.204 T
0 LC
[] 0 setdash
0 0 0 C
521.28 204.907 LS
515.374 206.204 L
509.468 208.276 L
503.562 210.512 L
497.656 212.9 L
491.75 216.049 L
485.844 219.113 L
479.939 222.576 L
474.033 227.836 L
468.127 230.685 L
462.221 237.488 L
456.315 241.811 L
450.409 247.68 L
444.503 251.999 L
438.597 253.387 L
432.691 247.652 L
426.785 213.435 L
420.879 196.247 L
414.973 187.004 L
409.067 182.484 L
409.067 179.974 L
414.973 179.974 L
420.879 179.974 L
426.785 179.974 L
432.691 179.974 L
438.597 179.974 L
444.503 179.974 L
450.409 179.974 L
456.315 179.974 L
462.221 179.974 L
468.127 179.974 L
474.033 179.974 L
479.939 179.974 L
485.844 179.974 L
491.75 179.974 L
497.656 179.974 L
503.562 179.974 L
509.468 179.974 L
515.374 179.974 L
521.28 179.974 L
521.28 204.907 LE
1 1 1 C
409.067 179.974 414.973 181.833 414.973 179.974 T
420.879 179.974 414.973 179.974 414.973 181.833 T
420.879 185.81 420.879 179.974 414.973 181.833 T
426.785 179.974 420.879 179.974 420.879 185.81 T
426.785 194.07 426.785 179.974 420.879 185.81 T
432.691 179.974 426.785 179.974 426.785 194.07 T
432.691 212.568 432.691 179.974 426.785 194.07 T
438.597 179.974 432.691 179.974 432.691 212.568 T
438.597 216.733 438.597 179.974 432.691 212.568 T
444.503 179.974 438.597 179.974 438.597 216.733 T
444.503 215.951 444.503 179.974 438.597 216.733 T
450.409 179.974 444.503 179.974 444.503 215.951 T
450.409 213.139 450.409 179.974 444.503 215.951 T
456.315 179.974 450.409 179.974 450.409 213.139 T
456.315 209.209 456.315 179.974 450.409 213.139 T
462.221 179.974 456.315 179.974 456.315 209.209 T
462.221 206.632 462.221 179.974 456.315 209.209 T
468.127 179.974 462.221 179.974 462.221 206.632 T
468.127 201.43 468.127 179.974 462.221 206.632 T
474.033 179.974 468.127 179.974 468.127 201.43 T
474.033 200.312 474.033 179.974 468.127 201.43 T
479.939 179.974 474.033 179.974 474.033 200.312 T
479.939 196.872 479.939 179.974 474.033 200.312 T
485.844 179.974 479.939 179.974 479.939 196.872 T
485.844 194.941 485.844 179.974 479.939 196.872 T
491.75 179.974 485.844 179.974 485.844 194.941 T
491.75 193.296 491.75 179.974 485.844 194.941 T
497.656 179.974 491.75 179.974 491.75 193.296 T
497.656 191.447 497.656 179.974 491.75 193.296 T
503.562 179.974 497.656 179.974 497.656 191.447 T
503.562 190.307 503.562 179.974 497.656 191.447 T
509.468 179.974 503.562 179.974 503.562 190.307 T
509.468 189.336 509.468 179.974 503.562 190.307 T
515.374 179.974 509.468 179.974 509.468 189.336 T
515.374 188.427 515.374 179.974 509.468 189.336 T
521.28 179.974 515.374 179.974 515.374 188.427 T
521.28 188.316 521.28 179.974 515.374 188.427 T
0 0 0 C
521.28 188.316 LS
515.374 188.427 L
509.468 189.336 L
503.562 190.307 L
497.656 191.447 L
491.75 193.296 L
485.844 194.941 L
479.939 196.872 L
474.033 200.312 L
468.127 201.43 L
462.221 206.632 L
456.315 209.209 L
450.409 213.139 L
444.503 215.951 L
438.597 216.733 L
432.691 212.568 L
426.785 194.07 L
420.879 185.81 L
414.973 181.833 L
409.067 179.974 L
414.973 179.974 L
420.879 179.974 L
426.785 179.974 L
432.691 179.974 L
438.597 179.974 L
444.503 179.974 L
450.409 179.974 L
456.315 179.974 L
462.221 179.974 L
468.127 179.974 L
474.033 179.974 L
479.939 179.974 L
485.844 179.974 L
491.75 179.974 L
497.656 179.974 L
503.562 179.974 L
509.468 179.974 L
515.374 179.974 L
521.28 179.974 L
521.28 188.316 LE
3 W
1 LJ
409.067 181.228 LS
414.973 184.571 L
420.879 190.716 L
426.785 204.03 L
432.691 230.906 L
438.597 235.103 L
444.503 233.44 L
450.409 229.866 L
456.315 225.732 L
462.221 221.59 L
468.127 217.674 L
474.033 214.08 L
479.939 210.835 L
485.844 207.934 L
491.75 205.357 L
497.656 203.076 L
503.562 201.064 L
509.468 199.292 L
515.374 197.733 L
521.28 196.361 LE
grestore
gsave
1.0 1.0 scale
newpath 0 0 moveto 576 0 lineto 576 432 lineto 0 432 lineto
closepath clip
1 1 1 C
74.88 120.933 187.093 47.52 74.88 47.52 T
74.88 120.933 187.093 120.933 187.093 47.52 T
0.5 W
0.15 0.15 0.15 C
98.5037 47.52 LS
98.5037 48.6485 LE
98.5037 120.933 LS
98.5037 119.805 LE
128.033 47.52 LS
128.033 48.6485 LE
128.033 120.933 LS
128.033 119.805 LE
157.563 47.52 LS
157.563 48.6485 LE
157.563 120.933 LS
157.563 119.805 LE
187.093 47.52 LS
187.093 48.6485 LE
187.093 120.933 LS
187.093 119.805 LE
gsave
0.14902 0.14902 0.14902 C
(5) [10] 0 95.5037 31.9776 10 /Helvetica SRX
grestore

gsave
0.14902 0.14902 0.14902 C
(10) [6 10] 0 122.033 31.9776 10 /Helvetica SRX
grestore

gsave
0.14902 0.14902 0.14902 C
(15) [6 10] 0 151.563 31.9776 10 /Helvetica SRX
grestore

gsave
0.14902 0.14902 0.14902 C
(20) [6 10] 0 181.093 31.9776 10 /Helvetica SRX
grestore

74.88 51.118 LS
76.0043 51.118 LE
187.093 51.118 LS
185.968 51.118 LE
74.88 65.324 LS
76.0043 65.324 LE
187.093 65.324 LS
185.968 65.324 LE
74.88 79.5299 LS
76.0043 79.5299 LE
187.093 79.5299 LS
185.968 79.5299 LE
74.88 93.7358 LS
76.0043 93.7358 LE
187.093 93.7358 LS
185.968 93.7358 LE
74.88 107.942 LS
76.0043 107.942 LE
187.093 107.942 LS
185.968 107.942 LE
gsave
0.14902 0.14902 0.14902 C
(-0.002) [3 6 3 6 6 10] 0 39.8705 47.1181 10 /Helvetica SRX
grestore

gsave
0.14902 0.14902 0.14902 C
(-0.001) [3 6 3 6 6 10] 0 39.8705 61.324 10 /Helvetica SRX
grestore

gsave
0.14902 0.14902 0.14902 C
(0) [10] 0 63.8705 75.5299 10 /Helvetica SRX
grestore

gsave
0.14902 0.14902 0.14902 C
(0.001) [6 3 6 6 10] 0 42.8705 89.7358 10 /Helvetica SRX
grestore

gsave
0.14902 0.14902 0.14902 C
(0.002) [6 3 6 6 10] 0 42.8705 103.942 10 /Helvetica SRX
grestore

2 LC
[16 0] 0 setdash
74.88 47.52 LS
187.093 47.52 LE
74.88 120.933 LS
187.093 120.933 LE
74.88 47.52 LS
74.88 120.933 LE
187.093 47.52 LS
187.093 120.933 LE
gsave
0 0 0 C
(tb_y_hat) [4 7 6 6 6 7 6 10] 0 107.986 133.933 11 /Helvetica-Bold SRX
grestore

0.9 0.9 0.9 C
74.88 47.52 74.88 64.4703 80.7859 47.52 T
80.7859 64.2012 80.7859 47.52 74.88 64.4703 T
86.6918 47.52 80.7859 47.52 80.7859 64.2012 T
86.6918 65.0663 86.6918 47.52 80.7859 64.2012 T
92.5978 47.52 86.6918 47.52 86.6918 65.0663 T
92.5978 66.8447 92.5978 47.52 86.6918 65.0663 T
98.5037 47.52 92.5978 47.52 92.5978 66.8447 T
98.5037 120.933 98.5037 47.52 92.5978 66.8447 T
104.41 47.52 98.5037 47.52 98.5037 120.933 T
104.41 110.393 104.41 47.52 98.5037 120.933 T
110.316 47.52 104.41 47.52 104.41 110.393 T
110.316 104.4 110.316 47.52 104.41 110.393 T
116.221 47.52 110.316 47.52 110.316 104.4 T
116.221 98.8382 116.221 47.52 110.316 104.4 T
122.127 47.52 116.221 47.52 116.221 98.8382 T
122.127 95.3276 122.127 47.52 116.221 98.8382 T
128.033 47.52 122.127 47.52 122.127 95.3276 T
128.033 92.3741 128.033 47.52 122.127 95.3276 T
133.939 47.52 128.033 47.52 128.033 92.3741 T
133.939 89.8223 133.939 47.52 128.033 92.3741 T
139.845 47.52 133.939 47.52 133.939 89.8223 T
139.845 87.8252 139.845 47.52 133.939 89.8223 T
145.751 47.52 139.845 47.52 139.845 87.8252 T
145.751 86.4638 145.751 47.52 139.845 87.8252 T
151.657 47.52 145.751 47.52 145.751 86.4638 T
151.657 85.2108 151.657 47.52 145.751 86.4638 T
157.563 47.52 151.657 47.52 151.657 85.2108 T
157.563 83.9891 157.563 47.52 151.657 85.2108 T
163.469 47.52 157.563 47.52 157.563 83.9891 T
163.469 83.067 163.469 47.52 157.563 83.9891 T
169.375 47.52 163.469 47.52 163.469 83.067 T
169.375 82.2058 169.375 47.52 163.469 83.067 T
175.281 47.52 169.375 47.52 169.375 82.2058 T
175.281 81.5428 175.281 47.52 169.375 82.2058 T
181.187 47.52 175.281 47.52 175.281 81.5428 T
181.187 80.8849 181.187 47.52 175.281 81.5428 T
187.093 47.52 181.187 47.52 181.187 80.8849 T
187.093 80.2638 187.093 47.52 181.187 80.8849 T
0 LC
[] 0 setdash
0 0 0 C
187.093 80.2638 LS
181.187 80.8849 L
175.281 81.5428 L
169.375 82.2058 L
163.469 83.067 L
157.563 83.9891 L
151.657 85.2108 L
145.751 86.4638 L
139.845 87.8252 L
133.939 89.8223 L
128.033 92.3741 L
122.127 95.3276 L
116.221 98.8382 L
110.316 104.4 L
104.41 110.393 L
98.5037 120.933 L
92.5978 66.8447 L
86.6918 65.0663 L
80.7859 64.2012 L
74.88 64.4703 L
74.88 47.52 L
80.7859 47.52 L
86.6918 47.52 L
92.5978 47.52 L
98.5037 47.52 L
104.41 47.52 L
110.316 47.52 L
116.221 47.52 L
122.127 47.52 L
128.033 47.52 L
133.939 47.52 L
139.845 47.52 L
145.751 47.52 L
151.657 47.52 L
157.563 47.52 L
163.469 47.52 L
169.375 47.52 L
175.281 47.52 L
181.187 47.52 L
187.093 47.52 L
187.093 80.2638 LE
1 1 1 C
80.7859 47.52 86.6918 49.1281 86.6918 47.52 T
92.5978 47.52 86.6918 47.52 86.6918 49.1281 T
92.5978 52.1452 92.5978 47.52 86.6918 49.1281 T
98.5037 47.52 92.5978 47.52 92.5978 52.1452 T
98.5037 98.5569 98.5037 47.52 92.5978 52.1452 T
104.41 47.52 98.5037 47.52 98.5037 98.5569 T
104.41 94.7901 104.41 47.52 98.5037 98.5569 T
110.316 47.52 104.41 47.52 104.41 94.7901 T
110.316 92.0543 110.316 47.52 104.41 94.7901 T
116.221 47.52 110.316 47.52 110.316 92.0543 T
116.221 88.609 116.221 47.52 110.316 92.0543 T
122.127 47.52 116.221 47.52 116.221 88.609 T
122.127 86.539 122.127 47.52 116.221 88.609 T
128.033 47.52 122.127 47.52 122.127 86.539 T
128.033 84.423 128.033 47.52 122.127 86.539 T
133.939 47.52 128.033 47.52 128.033 84.423 T
133.939 82.4041 133.939 47.52 128.033 84.423 T
139.845 47.52 133.939 47.52 133.939 82.4041 T
139.845 80.9347 139.845 47.52 133.939 82.4041 T
145.751 47.52 139.845 47.52 139.845 80.9347 T
145.751 80.1939 145.751 47.52 139.845 80.9347 T
151.657 47.52 145.751 47.52 145.751 80.1939 T
151.657 79.4919 151.657 47.52 145.751 80.1939 T
157.563 47.52 151.657 47.52 151.657 79.4919 T
157.563 78.7964 157.563 47.52 151.657 79.4919 T
163.469 47.52 157.563 47.52 157.563 78.7964 T
163.469 78.3489 163.469 47.52 157.563 78.7964 T
169.375 47.52 163.469 47.52 163.469 78.3489 T
169.375 77.9828 169.375 47.52 163.469 78.3489 T
175.281 47.52 169.375 47.52 169.375 77.9828 T
175.281 77.8044 175.281 47.52 169.375 77.9828 T
181.187 47.52 175.281 47.52 175.281 77.8044 T
181.187 77.585 181.187 47.52 175.281 77.8044 T
187.093 47.52 181.187 47.52 181.187 77.585 T
187.093 77.3878 187.093 47.52 181.187 77.585 T
74.88 47.52 74.88 47.6814 80.7859 47.52 T
0 0 0 C
80.7859 47.52 LS
74.88 47.6814 L
74.88 47.52 L
80.7859 47.52 LE
187.093 77.3878 LS
181.187 77.585 L
175.281 77.8044 L
169.375 77.9828 L
163.469 78.3489 L
157.563 78.7964 L
151.657 79.4919 L
145.751 80.1939 L
139.845 80.9347 L
133.939 82.4041 L
128.033 84.423 L
122.127 86.539 L
116.221 88.609 L
110.316 92.0543 L
104.41 94.7901 L
98.5037 98.5569 L
92.5978 52.1452 L
86.6918 49.1281 L
80.7859 47.52 L
86.6918 47.52 L
92.5978 47.52 L
98.5037 47.52 L
104.41 47.52 L
110.316 47.52 L
116.221 47.52 L
122.127 47.52 L
128.033 47.52 L
133.939 47.52 L
139.845 47.52 L
145.751 47.52 L
151.657 47.52 L
157.563 47.52 L
163.469 47.52 L
169.375 47.52 L
175.281 47.52 L
181.187 47.52 L
187.093 47.52 L
187.093 77.3878 LE
3 W
1 LJ
74.88 55.4625 LS
80.7859 55.5259 L
86.6918 56.7567 L
92.5978 59.235 L
98.5037 110.306 L
104.41 102.595 L
110.316 97.8551 L
116.221 94.0164 L
122.127 90.8983 L
128.033 88.374 L
133.939 86.3282 L
139.845 84.6673 L
145.751 83.3172 L
151.657 82.2197 L
157.563 81.3281 L
163.469 80.605 L
169.375 80.02 L
175.281 79.5483 L
181.187 79.1696 L
187.093 78.8671 LE
grestore
gsave
1.0 1.0 scale
newpath 0 0 moveto 576 0 lineto 576 432 lineto 0 432 lineto
closepath clip
1 1 1 C
241.974 120.933 354.186 47.52 241.974 47.52 T
241.974 120.933 354.186 120.933 354.186 47.52 T
0.5 W
0.15 0.15 0.15 C
265.597 47.52 LS
265.597 48.6485 LE
265.597 120.933 LS
265.597 119.805 LE
295.127 47.52 LS
295.127 48.6485 LE
295.127 120.933 LS
295.127 119.805 LE
324.657 47.52 LS
324.657 48.6485 LE
324.657 120.933 LS
324.657 119.805 LE
354.186 47.52 LS
354.186 48.6485 LE
354.186 120.933 LS
354.186 119.805 LE
gsave
0.14902 0.14902 0.14902 C
(5) [10] 0 262.597 31.9776 10 /Helvetica SRX
grestore

gsave
0.14902 0.14902 0.14902 C
(10) [6 10] 0 289.127 31.9776 10 /Helvetica SRX
grestore

gsave
0.14902 0.14902 0.14902 C
(15) [6 10] 0 318.657 31.9776 10 /Helvetica SRX
grestore

gsave
0.14902 0.14902 0.14902 C
(20) [6 10] 0 348.186 31.9776 10 /Helvetica SRX
grestore

241.974 50.4459 LS
243.098 50.4459 LE
354.186 50.4459 LS
353.062 50.4459 LE
241.974 71.0897 LS
243.098 71.0897 LE
354.186 71.0897 LS
353.062 71.0897 LE
241.974 91.7334 LS
243.098 91.7334 LE
354.186 91.7334 LS
353.062 91.7334 LE
241.974 112.377 LS
243.098 112.377 LE
354.186 112.377 LS
353.062 112.377 LE
gsave
0.14902 0.14902 0.14902 C
(-0.01) [3 6 3 6 10] 0 212.964 46.446 10 /Helvetica SRX
grestore

gsave
0.14902 0.14902 0.14902 C
(0) [10] 0 230.964 67.0897 10 /Helvetica SRX
grestore

gsave
0.14902 0.14902 0.14902 C
(0.01) [6 3 6 10] 0 215.964 87.7334 10 /Helvetica SRX
grestore

gsave
0.14902 0.14902 0.14902 C
(0.02) [6 3 6 10] 0 215.964 108.377 10 /Helvetica SRX
grestore

2 LC
[16 0] 0 setdash
241.974 47.52 LS
354.186 47.52 LE
241.974 120.933 LS
354.186 120.933 LE
241.974 47.52 LS
241.974 120.933 LE
354.186 47.52 LS
354.186 120.933 LE
gsave
0 0 0 C
(D_hat) [8 6 7 6 10] 0 282.58 132.933 11 /Helvetica-Bold SRX
grestore

0.9 0.9 0.9 C
241.974 47.52 241.974 84.1365 247.88 47.52 T
247.88 97.3655 247.88 47.52 241.974 84.1365 T
253.786 47.52 247.88 47.52 247.88 97.3655 T
253.786 109.767 253.786 47.52 247.88 97.3655 T
259.691 47.52 253.786 47.52 253.786 109.767 T
259.691 120.933 259.691 47.52 253.786 109.767 T
265.597 47.52 259.691 47.52 259.691 120.933 T
265.597 107.151 265.597 47.52 259.691 120.933 T
271.503 47.52 265.597 47.52 265.597 107.151 T
271.503 97.2614 271.503 47.52 265.597 107.151 T
277.409 47.52 271.503 47.52 271.503 97.2614 T
277.409 89.2857 277.409 47.52 271.503 97.2614 T
283.315 47.52 277.409 47.52 277.409 89.2857 T
283.315 82.4684 283.315 47.52 277.409 89.2857 T
289.221 47.52 283.315 47.52 283.315 82.4684 T
289.221 77.8834 289.221 47.52 283.315 82.4684 T
295.127 47.52 289.221 47.52 289.221 77.8834 T
295.127 72.8798 295.127 47.52 289.221 77.8834 T
301.033 47.52 295.127 47.52 295.127 72.8798 T
301.033 69.8986 301.033 47.52 295.127 72.8798 T
306.939 47.52 301.033 47.52 301.033 69.8986 T
306.939 67.7783 306.939 47.52 301.033 69.8986 T
312.845 47.52 306.939 47.52 306.939 67.7783 T
312.845 66.0776 312.845 47.52 306.939 67.7783 T
318.751 47.52 312.845 47.52 312.845 66.0776 T
318.751 65.0296 318.751 47.52 312.845 66.0776 T
324.657 47.52 318.751 47.52 318.751 65.0296 T
324.657 64.402 324.657 47.52 318.751 65.0296 T
330.563 47.52 324.657 47.52 324.657 64.402 T
330.563 63.6343 330.563 47.52 324.657 64.402 T
336.469 47.52 330.563 47.52 330.563 63.6343 T
336.469 63.4573 336.469 47.52 330.563 63.6343 T
342.374 47.52 336.469 47.52 336.469 63.4573 T
342.374 63.1724 342.374 47.52 336.469 63.4573 T
348.28 47.52 342.374 47.52 342.374 63.1724 T
348.28 63.687 348.28 47.52 342.374 63.1724 T
354.186 47.52 348.28 47.52 348.28 63.687 T
354.186 63.1438 354.186 47.52 348.28 63.687 T
0 LC
[] 0 setdash
0 0 0 C
354.186 63.1438 LS
348.28 63.687 L
342.374 63.1724 L
336.469 63.4573 L
330.563 63.6343 L
324.657 64.402 L
318.751 65.0296 L
312.845 66.0776 L
306.939 67.7783 L
301.033 69.8986 L
295.127 72.8798 L
289.221 77.8834 L
283.315 82.4684 L
277.409 89.2857 L
271.503 97.2614 L
265.597 107.151 L
259.691 120.933 L
253.786 109.767 L
247.88 97.3655 L
241.974 84.1365 L
241.974 47.52 L
247.88 47.52 L
253.786 47.52 L
259.691 47.52 L
265.597 47.52 L
271.503 47.52 L
277.409 47.52 L
283.315 47.52 L
289.221 47.52 L
295.127 47.52 L
301.033 47.52 L
306.939 47.52 L
312.845 47.52 L
318.751 47.52 L
324.657 47.52 L
330.563 47.52 L
336.469 47.52 L
342.374 47.52 L
348.28 47.52 L
354.186 47.52 L
354.186 63.1438 LE
1 1 1 C
241.974 47.52 241.974 77.3265 247.88 47.52 T
247.88 83.6894 247.88 47.52 241.974 77.3265 T
253.786 47.52 247.88 47.52 247.88 83.6894 T
253.786 89.2737 253.786 47.52 247.88 83.6894 T
259.691 47.52 253.786 47.52 253.786 89.2737 T
259.691 94.2637 259.691 47.52 253.786 89.2737 T
265.597 47.52 259.691 47.52 259.691 94.2637 T
265.597 84.5376 265.597 47.52 259.691 94.2637 T
271.503 47.52 265.597 47.52 265.597 84.5376 T
271.503 77.2301 271.503 47.52 265.597 84.5376 T
277.409 47.52 271.503 47.52 271.503 77.2301 T
277.409 72.6381 277.409 47.52 271.503 77.2301 T
283.315 47.52 277.409 47.52 277.409 72.6381 T
283.315 67.9987 283.315 47.52 277.409 72.6381 T
289.221 47.52 283.315 47.52 283.315 67.9987 T
289.221 65.1175 289.221 47.52 283.315 67.9987 T
295.127 47.52 289.221 47.52 289.221 65.1175 T
295.127 61.686 295.127 47.52 289.221 65.1175 T
301.033 47.52 295.127 47.52 295.127 61.686 T
301.033 59.7831 301.033 47.52 295.127 61.686 T
306.939 47.52 301.033 47.52 301.033 59.7831 T
306.939 57.3444 306.939 47.52 301.033 59.7831 T
312.845 47.52 306.939 47.52 306.939 57.3444 T
312.845 54.8078 312.845 47.52 306.939 57.3444 T
318.751 47.52 312.845 47.52 312.845 54.8078 T
318.751 53.2513 318.751 47.52 312.845 54.8078 T
324.657 47.52 318.751 47.52 318.751 53.2513 T
324.657 51.7663 324.657 47.52 318.751 53.2513 T
330.563 47.52 324.657 47.52 324.657 51.7663 T
330.563 50.2769 330.563 47.52 324.657 51.7663 T
336.469 47.52 330.563 47.52 330.563 50.2769 T
336.469 49.5628 336.469 47.52 330.563 50.2769 T
342.374 47.52 336.469 47.52 336.469 49.5628 T
342.374 48.8066 342.374 47.52 336.469 49.5628 T
348.28 47.52 342.374 47.52 342.374 48.8066 T
348.28 48.6656 348.28 47.52 342.374 48.8066 T
354.186 47.52 348.28 47.52 348.28 48.6656 T
0 0 0 C
354.186 47.52 LS
348.28 48.6656 L
342.374 48.8066 L
336.469 49.5628 L
330.563 50.2769 L
324.657 51.7663 L
318.751 53.2513 L
312.845 54.8078 L
306.939 57.3444 L
301.033 59.7831 L
295.127 61.686 L
289.221 65.1175 L
283.315 67.9987 L
277.409 72.6381 L
271.503 77.2301 L
265.597 84.5376 L
259.691 94.2637 L
253.786 89.2737 L
247.88 83.6894 L
241.974 77.3265 L
241.974 47.52 L
247.88 47.52 L
253.786 47.52 L
259.691 47.52 L
265.597 47.52 L
271.503 47.52 L
277.409 47.52 L
283.315 47.52 L
289.221 47.52 L
295.127 47.52 L
301.033 47.52 L
306.939 47.52 L
312.845 47.52 L
318.751 47.52 L
324.657 47.52 L
330.563 47.52 L
336.469 47.52 L
342.374 47.52 L
348.28 47.52 L
354.186 47.52 LE
3 W
1 LJ
241.974 80.6409 LS
247.88 90.2889 L
253.786 99.6216 L
259.691 108.035 L
265.597 96.7062 L
271.503 88.1678 L
277.409 81.2583 L
283.315 75.6742 L
289.221 71.1729 L
295.127 67.5521 L
301.033 64.6483 L
306.939 62.3292 L
312.845 60.4879 L
318.751 59.0372 L
324.657 57.906 L
330.563 57.0357 L
336.469 56.3784 L
342.374 55.8945 L
348.28 55.5515 L
354.186 55.3227 LE
grestore
gsave
1.0 1.0 scale
newpath 0 0 moveto 576 0 lineto 576 432 lineto 0 432 lineto
closepath clip
1 1 1 C
409.067 120.933 521.28 47.52 409.067 47.52 T
409.067 120.933 521.28 120.933 521.28 47.52 T
0.5 W
0.15 0.15 0.15 C
432.691 47.52 LS
432.691 48.6485 LE
432.691 120.933 LS
432.691 119.805 LE
462.221 47.52 LS
462.221 48.6485 LE
462.221 120.933 LS
462.221 119.805 LE
491.75 47.52 LS
491.75 48.6485 LE
491.75 120.933 LS
491.75 119.805 LE
521.28 47.52 LS
521.28 48.6485 LE
521.28 120.933 LS
521.28 119.805 LE
gsave
0.14902 0.14902 0.14902 C
(5) [10] 0 429.691 31.9776 10 /Helvetica SRX
grestore

gsave
0.14902 0.14902 0.14902 C
(10) [6 10] 0 456.221 31.9776 10 /Helvetica SRX
grestore

gsave
0.14902 0.14902 0.14902 C
(15) [6 10] 0 485.75 31.9776 10 /Helvetica SRX
grestore

gsave
0.14902 0.14902 0.14902 C
(20) [6 10] 0 515.28 31.9776 10 /Helvetica SRX
grestore

409.067 51.5653 LS
410.192 51.5653 LE
521.28 51.5653 LS
520.156 51.5653 LE
409.067 65.7273 LS
410.192 65.7273 LE
521.28 65.7273 LS
520.156 65.7273 LE
409.067 79.8892 LS
410.192 79.8892 LE
521.28 79.8892 LS
520.156 79.8892 LE
409.067 94.0512 LS
410.192 94.0512 LE
521.28 94.0512 LS
520.156 94.0512 LE
409.067 108.213 LS
410.192 108.213 LE
521.28 108.213 LS
520.156 108.213 LE
gsave
0.14902 0.14902 0.14902 C
(-0.02) [3 6 3 6 10] 0 380.058 47.5653 10 /Helvetica SRX
grestore

gsave
0.14902 0.14902 0.14902 C
(-0.015) [3 6 3 6 6 10] 0 374.058 61.7273 10 /Helvetica SRX
grestore

gsave
0.14902 0.14902 0.14902 C
(-0.01) [3 6 3 6 10] 0 380.058 75.8893 10 /Helvetica SRX
grestore

gsave
0.14902 0.14902 0.14902 C
(-0.005) [3 6 3 6 6 10] 0 374.058 90.0512 10 /Helvetica SRX
grestore

gsave
0.14902 0.14902 0.14902 C
(0) [10] 0 398.058 104.213 10 /Helvetica SRX
grestore

2 LC
[16 0] 0 setdash
409.067 47.52 LS
521.28 47.52 LE
409.067 120.933 LS
521.28 120.933 LE
409.067 47.52 LS
409.067 120.933 LE
521.28 47.52 LS
521.28 120.933 LE
gsave
0 0 0 C
(reer_hat) [4 6 6 4 6 7 6 10] 0 443.674 132.933 11 /Helvetica-Bold SRX
grestore

0.9 0.9 0.9 C
409.067 47.52 409.067 111.604 414.973 47.52 T
414.973 111.847 414.973 47.52 409.067 111.604 T
420.879 47.52 414.973 47.52 414.973 111.847 T
420.879 113.232 420.879 47.52 414.973 111.847 T
426.785 47.52 420.879 47.52 420.879 113.232 T
426.785 120.933 426.785 47.52 420.879 113.232 T
432.691 47.52 426.785 47.52 426.785 120.933 T
432.691 78.4364 432.691 47.52 426.785 120.933 T
438.597 47.52 432.691 47.52 432.691 78.4364 T
438.597 86.8595 438.597 47.52 432.691 78.4364 T
444.503 47.52 438.597 47.52 438.597 86.8595 T
444.503 90.1641 444.503 47.52 438.597 86.8595 T
450.409 47.52 444.503 47.52 444.503 90.1641 T
450.409 93.4913 450.409 47.52 444.503 90.1641 T
456.315 47.52 450.409 47.52 450.409 93.4913 T
456.315 95.6098 456.315 47.52 450.409 93.4913 T
462.221 47.52 456.315 47.52 456.315 95.6098 T
462.221 98.7873 462.221 47.52 456.315 95.6098 T
468.127 47.52 462.221 47.52 462.221 98.7873 T
468.127 100.328 468.127 47.52 462.221 98.7873 T
474.033 47.52 468.127 47.52 468.127 100.328 T
474.033 101.686 474.033 47.52 468.127 100.328 T
479.939 47.52 474.033 47.52 474.033 101.686 T
479.939 103.277 479.939 47.52 474.033 101.686 T
485.844 47.52 479.939 47.52 479.939 103.277 T
485.844 104.256 485.844 47.52 479.939 103.277 T
491.75 47.52 485.844 47.52 485.844 104.256 T
491.75 104.92 491.75 47.52 485.844 104.256 T
497.656 47.52 491.75 47.52 491.75 104.92 T
497.656 105.467 497.656 47.52 491.75 104.92 T
503.562 47.52 497.656 47.52 497.656 105.467 T
503.562 106.035 503.562 47.52 497.656 105.467 T
509.468 47.52 503.562 47.52 503.562 106.035 T
509.468 106.634 509.468 47.52 503.562 106.035 T
515.374 47.52 509.468 47.52 509.468 106.634 T
515.374 107.226 515.374 47.52 509.468 106.634 T
521.28 47.52 515.374 47.52 515.374 107.226 T
521.28 107.603 521.28 47.52 515.374 107.226 T
0 LC
[] 0 setdash
0 0 0 C
521.28 107.603 LS
515.374 107.226 L
509.468 106.634 L
503.562 106.035 L
497.656 105.467 L
491.75 104.92 L
485.844 104.256 L
479.939 103.277 L
474.033 101.686 L
468.127 100.328 L
462.221 98.7873 L
456.315 95.6098 L
450.409 93.4913 L
444.503 90.1641 L
438.597 86.8595 L
432.691 78.4364 L
426.785 120.933 L
420.879 113.232 L
414.973 111.847 L
409.067 111.604 L
409.067 47.52 L
414.973 47.52 L
420.879 47.52 L
426.785 47.52 L
432.691 47.52 L
438.597 47.52 L
444.503 47.52 L
450.409 47.52 L
456.315 47.52 L
462.221 47.52 L
468.127 47.52 L
474.033 47.52 L
479.939 47.52 L
485.844 47.52 L
491.75 47.52 L
497.656 47.52 L
503.562 47.52 L
509.468 47.52 L
515.374 47.52 L
521.28 47.52 L
521.28 107.603 LE
1 1 1 C
432.691 47.52 438.597 64.8097 438.597 47.52 T
444.503 47.52 438.597 47.52 438.597 64.8097 T
444.503 72.27 444.503 47.52 438.597 64.8097 T
450.409 47.52 444.503 47.52 444.503 72.27 T
450.409 78.0548 450.409 47.52 444.503 72.27 T
456.315 47.52 450.409 47.52 450.409 78.0548 T
456.315 81.981 456.315 47.52 450.409 78.0548 T
462.221 47.52 456.315 47.52 456.315 81.981 T
462.221 86.2158 462.221 47.52 456.315 81.981 T
468.127 47.52 462.221 47.52 462.221 86.2158 T
468.127 88.8108 468.127 47.52 462.221 86.2158 T
474.033 47.52 468.127 47.52 468.127 88.8108 T
474.033 91.1539 474.033 47.52 468.127 88.8108 T
479.939 47.52 474.033 47.52 474.033 91.1539 T
479.939 93.6698 479.939 47.52 474.033 91.1539 T
485.844 47.52 479.939 47.52 479.939 93.6698 T
485.844 95.5582 485.844 47.52 479.939 93.6698 T
491.75 47.52 485.844 47.52 485.844 95.5582 T
491.75 97.0968 491.75 47.52 485.844 95.5582 T
497.656 47.52 491.75 47.52 491.75 97.0968 T
497.656 98.4189 497.656 47.52 491.75 97.0968 T
503.562 47.52 497.656 47.52 497.656 98.4189 T
503.562 99.737 503.562 47.52 497.656 98.4189 T
509.468 47.52 503.562 47.52 503.562 99.737 T
509.468 100.954 509.468 47.52 503.562 99.737 T
515.374 47.52 509.468 47.52 509.468 100.954 T
515.374 102.153 515.374 47.52 509.468 100.954 T
521.28 47.52 515.374 47.52 515.374 102.153 T
521.28 103.043 521.28 47.52 515.374 102.153 T
409.067 47.52 409.067 109.626 414.973 47.52 T
414.973 109.585 414.973 47.52 409.067 109.626 T
420.879 47.52 414.973 47.52 414.973 109.585 T
420.879 109.796 420.879 47.52 414.973 109.585 T
426.785 47.52 420.879 47.52 420.879 109.796 T
426.785 113.574 426.785 47.52 420.879 109.796 T
432.691 47.52 426.785 47.52 426.785 113.574 T
0 0 0 C
432.691 47.52 LS
426.785 113.574 L
420.879 109.796 L
414.973 109.585 L
409.067 109.626 L
409.067 47.52 L
414.973 47.52 L
420.879 47.52 L
426.785 47.52 L
432.691 47.52 LE
521.28 103.043 LS
515.374 102.153 L
509.468 100.954 L
503.562 99.737 L
497.656 98.4189 L
491.75 97.0968 L
485.844 95.5582 L
479.939 93.6698 L
474.033 91.1539 L
468.127 88.8108 L
462.221 86.2158 L
456.315 81.981 L
450.409 78.0548 L
444.503 72.27 L
438.597 64.8097 L
432.691 47.52 L
438.597 47.52 L
444.503 47.52 L
450.409 47.52 L
456.315 47.52 L
462.221 47.52 L
468.127 47.52 L
474.033 47.52 L
479.939 47.52 L
485.844 47.52 L
491.75 47.52 L
497.656 47.52 L
503.562 47.52 L
509.468 47.52 L
515.374 47.52 L
521.28 47.52 L
521.28 103.043 LE
3 W
1 LJ
409.067 110.667 LS
414.973 110.754 L
420.879 111.618 L
426.785 116.921 L
432.691 62.7568 L
438.597 75.1903 L
444.503 81.1029 L
450.409 85.3668 L
456.315 88.8188 L
462.221 91.7138 L
468.127 94.1728 L
474.033 96.2724 L
479.939 98.0697 L
485.844 99.6106 L
491.75 100.933 L
497.656 102.068 L
503.562 103.043 L
509.468 103.881 L
515.374 104.6 L
521.28 105.219 LE
grestore
grestore
showpage
cleartomark
%%PageTrailer
%%Trailer
end
%%EOF
