%!PS-Adobe-3.0 EPSF-3.0
%%Title: gl2ps_renderer figure
%%Creator: GL2PS 1.4.2, (C) 1999-2020 C. Geuzaine
%%For: Octave
%%CreationDate: Wed Oct  7 07:02:50 2020
%%LanguageLevel: 3
%%DocumentData: Clean7Bit
%%Pages: 1
%%BoundingBox: 0 0 576 432
%%EndComments
%%BeginProlog
/gl2psdict 64 dict def gl2psdict begin
/tryPS3shading false def % set to false to force subdivision
/rThreshold 0.064 def % red component subdivision threshold
/gThreshold 0.034 def % green component subdivision threshold
/bThreshold 0.1 def % blue component subdivision threshold
/BD { bind def } bind def
/C  { setrgbcolor } BD
/G  { 0.082 mul exch 0.6094 mul add exch 0.3086 mul add neg 1.0 add setgray } BD
/W  { setlinewidth } BD
/LC  { setlinecap } BD
/LJ  { setlinejoin } BD
/FC { findfont exch /SH exch def SH scalefont setfont } BD
/SW { dup stringwidth pop } BD
/S  { FC moveto show } BD
/SBC{ FC moveto SW -2 div 0 rmoveto show } BD
/SBR{ FC moveto SW neg 0 rmoveto show } BD
/SCL{ FC moveto 0 SH -2 div rmoveto show } BD
/SCC{ FC moveto SW -2 div SH -2 div rmoveto show } BD
/SCR{ FC moveto SW neg SH -2 div rmoveto show } BD
/STL{ FC moveto 0 SH neg rmoveto show } BD
/STC{ FC moveto SW -2 div SH neg rmoveto show } BD
/STR{ FC moveto SW neg SH neg rmoveto show } BD
/FCT { FC translate 0 0 } BD
/SR  { gsave FCT moveto rotate show grestore } BD
/SRX  { gsave FCT moveto rotate xshow grestore } BD
/SBCR{ gsave FCT moveto rotate SW -2 div 0 rmoveto show grestore } BD
/SBRR{ gsave FCT moveto rotate SW neg 0 rmoveto show grestore } BD
/SCLR{ gsave FCT moveto rotate 0 SH -2 div rmoveto show grestore} BD
/SCCR{ gsave FCT moveto rotate SW -2 div SH -2 div rmoveto show grestore} BD
/SCRR{ gsave FCT moveto rotate SW neg SH -2 div rmoveto show grestore} BD
/STLR{ gsave FCT moveto rotate 0 SH neg rmoveto show grestore } BD
/STCR{ gsave FCT moveto rotate SW -2 div SH neg rmoveto show grestore } BD
/STRR{ gsave FCT moveto rotate SW neg SH neg rmoveto show grestore } BD
/P  { newpath 0.0 360.0 arc closepath fill } BD
/LS { newpath moveto } BD
/L  { lineto } BD
/LE { lineto stroke } BD
/T  { newpath moveto lineto lineto closepath fill } BD
/STshfill {
      /b1 exch def /g1 exch def /r1 exch def /y1 exch def /x1 exch def
      /b2 exch def /g2 exch def /r2 exch def /y2 exch def /x2 exch def
      /b3 exch def /g3 exch def /r3 exch def /y3 exch def /x3 exch def
      gsave << /ShadingType 4 /ColorSpace [/DeviceRGB]
      /DataSource [ 0 x1 y1 r1 g1 b1 0 x2 y2 r2 g2 b2 0 x3 y3 r3 g3 b3 ] >>
      shfill grestore } BD
/Tm { 3 -1 roll 8 -1 roll 13 -1 roll add add 3 div
      3 -1 roll 7 -1 roll 11 -1 roll add add 3 div
      3 -1 roll 6 -1 roll 9 -1 roll add add 3 div C T } BD
/STsplit {
      4 index 15 index add 0.5 mul
      4 index 15 index add 0.5 mul
      4 index 15 index add 0.5 mul
      4 index 15 index add 0.5 mul
      4 index 15 index add 0.5 mul
      5 copy 5 copy 25 15 roll
      9 index 30 index add 0.5 mul
      9 index 30 index add 0.5 mul
      9 index 30 index add 0.5 mul
      9 index 30 index add 0.5 mul
      9 index 30 index add 0.5 mul
      5 copy 5 copy 35 5 roll 25 5 roll 15 5 roll
      4 index 10 index add 0.5 mul
      4 index 10 index add 0.5 mul
      4 index 10 index add 0.5 mul
      4 index 10 index add 0.5 mul
      4 index 10 index add 0.5 mul
      5 copy 5 copy 40 5 roll 25 5 roll 15 5 roll 25 5 roll
      STnoshfill STnoshfill STnoshfill STnoshfill } BD
/STnoshfill {
      2 index 8 index sub abs rThreshold gt
      { STsplit }
      { 1 index 7 index sub abs gThreshold gt
        { STsplit }
        { dup 6 index sub abs bThreshold gt
          { STsplit }
          { 2 index 13 index sub abs rThreshold gt
            { STsplit }
            { 1 index 12 index sub abs gThreshold gt
              { STsplit }
              { dup 11 index sub abs bThreshold gt
                { STsplit }
                { 7 index 13 index sub abs rThreshold gt
                  { STsplit }
                  { 6 index 12 index sub abs gThreshold gt
                    { STsplit }
                    { 5 index 11 index sub abs bThreshold gt
                      { STsplit }
                      { Tm }
                      ifelse }
                    ifelse }
                  ifelse }
                ifelse }
              ifelse }
            ifelse }
          ifelse }
        ifelse }
      ifelse } BD
tryPS3shading
{ /shfill where
  { /ST { STshfill } BD }
  { /ST { STnoshfill } BD }
  ifelse }
{ /ST { STnoshfill } BD }
ifelse
end
%%EndProlog
%%BeginSetup
/DeviceRGB setcolorspace
gl2psdict begin
%%EndSetup
%%Page: 1 1
%%BeginPageSetup
%%EndPageSetup
mark
gsave
1.0 1.0 scale
1 1 1 C
newpath 0 0 moveto 576 0 lineto 576 432 lineto 0 432 lineto
closepath fill
gsave
1.0 1.0 scale
1 1 1 C
newpath 0 0 moveto 576 0 lineto 576 432 lineto 0 432 lineto
closepath fill
newpath 0 0 moveto 576 0 lineto 576 432 lineto 0 432 lineto
closepath clip
1 1 1 C
74.88 385.841 187.093 312.427 74.88 312.427 T
74.88 385.841 187.093 385.841 187.093 312.427 T
0.5 W
0.15 0.15 0.15 C
98.5037 312.427 LS
98.5037 313.556 LE
98.5037 385.841 LS
98.5037 384.712 LE
128.033 312.427 LS
128.033 313.556 LE
128.033 385.841 LS
128.033 384.712 LE
157.563 312.427 LS
157.563 313.556 LE
157.563 385.841 LS
157.563 384.712 LE
187.093 312.427 LS
187.093 313.556 LE
187.093 385.841 LS
187.093 384.712 LE
gsave
0.14902 0.14902 0.14902 C
(5) [10] 0 95.5037 296.885 10 /Helvetica SRX
grestore

gsave
0.14902 0.14902 0.14902 C
(10) [6 10] 0 122.033 296.885 10 /Helvetica SRX
grestore

gsave
0.14902 0.14902 0.14902 C
(15) [6 10] 0 151.563 296.885 10 /Helvetica SRX
grestore

gsave
0.14902 0.14902 0.14902 C
(20) [6 10] 0 181.093 296.885 10 /Helvetica SRX
grestore

74.88 316.808 LS
76.0043 316.808 LE
187.093 316.808 LS
185.968 316.808 LE
74.88 327.452 LS
76.0043 327.452 LE
187.093 327.452 LS
185.968 327.452 LE
74.88 338.095 LS
76.0043 338.095 LE
187.093 338.095 LS
185.968 338.095 LE
74.88 348.739 LS
76.0043 348.739 LE
187.093 348.739 LS
185.968 348.739 LE
74.88 359.382 LS
76.0043 359.382 LE
187.093 359.382 LS
185.968 359.382 LE
74.88 370.026 LS
76.0043 370.026 LE
187.093 370.026 LS
185.968 370.026 LE
74.88 380.669 LS
76.0043 380.669 LE
187.093 380.669 LS
185.968 380.669 LE
gsave
0.14902 0.14902 0.14902 C
(-6e-05) [3 6 5 3 6 10] 0 40.8705 312.808 10 /Helvetica SRX
grestore

gsave
0.14902 0.14902 0.14902 C
(-4e-05) [3 6 5 3 6 10] 0 40.8705 323.452 10 /Helvetica SRX
grestore

gsave
0.14902 0.14902 0.14902 C
(-2e-05) [3 6 5 3 6 10] 0 40.8705 334.095 10 /Helvetica SRX
grestore

gsave
0.14902 0.14902 0.14902 C
(0) [10] 0 63.8705 344.739 10 /Helvetica SRX
grestore

gsave
0.14902 0.14902 0.14902 C
(2e-05) [6 5 3 6 10] 0 43.8705 355.382 10 /Helvetica SRX
grestore

gsave
0.14902 0.14902 0.14902 C
(4e-05) [6 5 3 6 10] 0 43.8705 366.026 10 /Helvetica SRX
grestore

gsave
0.14902 0.14902 0.14902 C
(6e-05) [6 5 3 6 10] 0 43.8705 376.669 10 /Helvetica SRX
grestore

2 LC
[16 0] 0 setdash
74.88 312.427 LS
187.093 312.427 LE
74.88 385.841 LS
187.093 385.841 LE
74.88 312.427 LS
74.88 385.841 LE
187.093 312.427 LS
187.093 385.841 LE
gsave
0 0 0 C
(r_hat) [4 6 7 6 10] 0 117.486 397.841 11 /Helvetica-Bold SRX
grestore

0.9 0.9 0.9 C
74.88 312.427 74.88 348.739 80.7859 312.427 T
80.7859 365.987 80.7859 312.427 74.88 348.739 T
86.6918 312.427 80.7859 312.427 80.7859 365.987 T
86.6918 385.841 86.6918 312.427 80.7859 365.987 T
92.5978 312.427 86.6918 312.427 86.6918 385.841 T
92.5978 370.822 92.5978 312.427 86.6918 385.841 T
98.5037 312.427 92.5978 312.427 92.5978 370.822 T
98.5037 357.35 98.5037 312.427 92.5978 370.822 T
104.41 312.427 98.5037 312.427 98.5037 357.35 T
104.41 348.206 104.41 312.427 98.5037 357.35 T
110.316 312.427 104.41 312.427 104.41 348.206 T
110.316 342.242 110.316 312.427 104.41 348.206 T
116.221 312.427 110.316 312.427 110.316 342.242 T
116.221 338.127 116.221 312.427 110.316 342.242 T
122.127 312.427 116.221 312.427 116.221 338.127 T
122.127 335.953 122.127 312.427 116.221 338.127 T
128.033 312.427 122.127 312.427 122.127 335.953 T
128.033 334.427 128.033 312.427 122.127 335.953 T
133.939 312.427 128.033 312.427 128.033 334.427 T
133.939 334.097 133.939 312.427 128.033 334.427 T
139.845 312.427 133.939 312.427 133.939 334.097 T
139.845 335.076 139.845 312.427 133.939 334.097 T
145.751 312.427 139.845 312.427 139.845 335.076 T
145.751 335.481 145.751 312.427 139.845 335.076 T
151.657 312.427 145.751 312.427 145.751 335.481 T
151.657 335.563 151.657 312.427 145.751 335.481 T
157.563 312.427 151.657 312.427 151.657 335.563 T
157.563 336.626 157.563 312.427 151.657 335.563 T
163.469 312.427 157.563 312.427 157.563 336.626 T
163.469 336.855 163.469 312.427 157.563 336.626 T
169.375 312.427 163.469 312.427 163.469 336.855 T
169.375 337.712 169.375 312.427 163.469 336.855 T
175.281 312.427 169.375 312.427 169.375 337.712 T
175.281 338.536 175.281 312.427 169.375 337.712 T
181.187 312.427 175.281 312.427 175.281 338.536 T
181.187 338.826 181.187 312.427 175.281 338.536 T
187.093 312.427 181.187 312.427 181.187 338.826 T
187.093 339.323 187.093 312.427 181.187 338.826 T
0 LC
[] 0 setdash
0 0 0 C
187.093 339.323 LS
181.187 338.826 L
175.281 338.536 L
169.375 337.712 L
163.469 336.855 L
157.563 336.626 L
151.657 335.563 L
145.751 335.481 L
139.845 335.076 L
133.939 334.097 L
128.033 334.427 L
122.127 335.953 L
116.221 338.127 L
110.316 342.242 L
104.41 348.206 L
98.5037 357.35 L
92.5978 370.822 L
86.6918 385.841 L
80.7859 365.987 L
74.88 348.739 L
74.88 312.427 L
80.7859 312.427 L
86.6918 312.427 L
92.5978 312.427 L
98.5037 312.427 L
104.41 312.427 L
110.316 312.427 L
116.221 312.427 L
122.127 312.427 L
128.033 312.427 L
133.939 312.427 L
139.845 312.427 L
145.751 312.427 L
151.657 312.427 L
157.563 312.427 L
163.469 312.427 L
169.375 312.427 L
175.281 312.427 L
181.187 312.427 L
187.093 312.427 L
187.093 339.323 LE
1 1 1 C
128.033 312.427 133.939 312.491 133.939 312.427 T
139.845 312.427 133.939 312.427 133.939 312.491 T
139.845 313.569 139.845 312.427 133.939 312.491 T
145.751 312.427 139.845 312.427 139.845 313.569 T
145.751 314.19 145.751 312.427 139.845 313.569 T
151.657 312.427 145.751 312.427 145.751 314.19 T
151.657 314.971 151.657 312.427 145.751 314.19 T
157.563 312.427 151.657 312.427 151.657 314.971 T
157.563 316.154 157.563 312.427 151.657 314.971 T
163.469 312.427 157.563 312.427 157.563 316.154 T
163.469 316.943 163.469 312.427 157.563 316.154 T
169.375 312.427 163.469 312.427 163.469 316.943 T
169.375 318.384 169.375 312.427 163.469 316.943 T
175.281 312.427 169.375 312.427 169.375 318.384 T
175.281 319.731 175.281 312.427 169.375 318.384 T
181.187 312.427 175.281 312.427 175.281 319.731 T
181.187 320.65 181.187 312.427 175.281 319.731 T
187.093 312.427 181.187 312.427 181.187 320.65 T
187.093 321.515 187.093 312.427 181.187 320.65 T
74.88 312.427 74.88 348.739 80.7859 312.427 T
80.7859 352.056 80.7859 312.427 74.88 348.739 T
86.6918 312.427 80.7859 312.427 80.7859 352.056 T
86.6918 355.669 86.6918 312.427 80.7859 352.056 T
92.5978 312.427 86.6918 312.427 86.6918 355.669 T
92.5978 345.508 92.5978 312.427 86.6918 355.669 T
98.5037 312.427 92.5978 312.427 92.5978 345.508 T
98.5037 333.972 98.5037 312.427 92.5978 345.508 T
104.41 312.427 98.5037 312.427 98.5037 333.972 T
104.41 325.15 104.41 312.427 98.5037 333.972 T
110.316 312.427 104.41 312.427 104.41 325.15 T
110.316 319.199 110.316 312.427 104.41 325.15 T
116.221 312.427 110.316 312.427 110.316 319.199 T
116.221 314.88 116.221 312.427 110.316 319.199 T
122.127 312.427 116.221 312.427 116.221 314.88 T
122.127 313.114 122.127 312.427 116.221 314.88 T
128.033 312.427 122.127 312.427 122.127 313.114 T
0 0 0 C
128.033 312.427 LS
122.127 313.114 L
116.221 314.88 L
110.316 319.199 L
104.41 325.15 L
98.5037 333.972 L
92.5978 345.508 L
86.6918 355.669 L
80.7859 352.056 L
74.88 348.739 L
74.88 312.427 L
80.7859 312.427 L
86.6918 312.427 L
92.5978 312.427 L
98.5037 312.427 L
104.41 312.427 L
110.316 312.427 L
116.221 312.427 L
122.127 312.427 L
128.033 312.427 LE
187.093 321.515 LS
181.187 320.65 L
175.281 319.731 L
169.375 318.384 L
163.469 316.943 L
157.563 316.154 L
151.657 314.971 L
145.751 314.19 L
139.845 313.569 L
133.939 312.491 L
128.033 312.427 L
133.939 312.427 L
139.845 312.427 L
145.751 312.427 L
151.657 312.427 L
157.563 312.427 L
163.469 312.427 L
169.375 312.427 L
175.281 312.427 L
181.187 312.427 L
187.093 312.427 L
187.093 321.515 LE
3 W
1 LJ
74.88 348.739 LS
80.7859 358.932 L
86.6918 370.728 L
92.5978 357.721 L
98.5037 345.533 L
104.41 336.673 L
110.316 330.711 L
116.221 326.935 L
122.127 324.742 L
128.033 323.671 L
133.939 323.382 L
139.845 323.623 L
145.751 324.213 L
151.657 325.022 L
157.563 325.954 L
163.469 326.945 L
169.375 327.948 L
175.281 328.932 L
181.187 329.877 L
187.093 330.77 LE
grestore
gsave
1.0 1.0 scale
newpath 0 0 moveto 576 0 lineto 576 432 lineto 0 432 lineto
closepath clip
1 1 1 C
241.974 385.841 354.186 312.427 241.974 312.427 T
241.974 385.841 354.186 385.841 354.186 312.427 T
0.5 W
0.15 0.15 0.15 C
265.597 312.427 LS
265.597 313.556 LE
265.597 385.841 LS
265.597 384.712 LE
295.127 312.427 LS
295.127 313.556 LE
295.127 385.841 LS
295.127 384.712 LE
324.657 312.427 LS
324.657 313.556 LE
324.657 385.841 LS
324.657 384.712 LE
354.186 312.427 LS
354.186 313.556 LE
354.186 385.841 LS
354.186 384.712 LE
gsave
0.14902 0.14902 0.14902 C
(5) [10] 0 262.597 296.885 10 /Helvetica SRX
grestore

gsave
0.14902 0.14902 0.14902 C
(10) [6 10] 0 289.127 296.885 10 /Helvetica SRX
grestore

gsave
0.14902 0.14902 0.14902 C
(15) [6 10] 0 318.657 296.885 10 /Helvetica SRX
grestore

gsave
0.14902 0.14902 0.14902 C
(20) [6 10] 0 348.186 296.885 10 /Helvetica SRX
grestore

241.974 312.427 LS
243.098 312.427 LE
354.186 312.427 LS
353.062 312.427 LE
241.974 330.011 LS
243.098 330.011 LE
354.186 330.011 LS
353.062 330.011 LE
241.974 347.594 LS
243.098 347.594 LE
354.186 347.594 LS
353.062 347.594 LE
241.974 365.177 LS
243.098 365.177 LE
354.186 365.177 LS
353.062 365.177 LE
241.974 382.761 LS
243.098 382.761 LE
354.186 382.761 LS
353.062 382.761 LE
gsave
0.14902 0.14902 0.14902 C
(0) [10] 0 230.964 308.427 10 /Helvetica SRX
grestore

gsave
0.14902 0.14902 0.14902 C
(0.01) [6 3 6 10] 0 215.964 326.011 10 /Helvetica SRX
grestore

gsave
0.14902 0.14902 0.14902 C
(0.02) [6 3 6 10] 0 215.964 343.594 10 /Helvetica SRX
grestore

gsave
0.14902 0.14902 0.14902 C
(0.03) [6 3 6 10] 0 215.964 361.177 10 /Helvetica SRX
grestore

gsave
0.14902 0.14902 0.14902 C
(0.04) [6 3 6 10] 0 215.964 378.761 10 /Helvetica SRX
grestore

2 LC
[16 0] 0 setdash
241.974 312.427 LS
354.186 312.427 LE
241.974 385.841 LS
354.186 385.841 LE
241.974 312.427 LS
241.974 385.841 LE
354.186 312.427 LS
354.186 385.841 LE
gsave
0 0 0 C
(A_C_hat) [8 6 8 6 7 6 10] 0 275.58 397.841 11 /Helvetica-Bold SRX
grestore

0.9 0.9 0.9 C
241.974 312.427 241.974 312.427 247.88 312.427 T
247.88 312.427 247.88 312.427 241.974 312.427 T
253.786 312.427 247.88 312.427 247.88 312.427 T
253.786 385.841 253.786 312.427 247.88 312.427 T
259.691 312.427 253.786 312.427 253.786 385.841 T
259.691 369.266 259.691 312.427 253.786 385.841 T
265.597 312.427 259.691 312.427 259.691 369.266 T
265.597 359.857 265.597 312.427 259.691 369.266 T
271.503 312.427 265.597 312.427 265.597 359.857 T
271.503 351.799 271.503 312.427 265.597 359.857 T
277.409 312.427 271.503 312.427 271.503 351.799 T
277.409 343.174 277.409 312.427 271.503 351.799 T
283.315 312.427 277.409 312.427 277.409 343.174 T
283.315 337.846 283.315 312.427 277.409 343.174 T
289.221 312.427 283.315 312.427 283.315 337.846 T
289.221 333.707 289.221 312.427 283.315 337.846 T
295.127 312.427 289.221 312.427 289.221 333.707 T
295.127 330.403 295.127 312.427 289.221 333.707 T
301.033 312.427 295.127 312.427 295.127 330.403 T
301.033 327.514 301.033 312.427 295.127 330.403 T
306.939 312.427 301.033 312.427 301.033 327.514 T
306.939 325.143 306.939 312.427 301.033 327.514 T
312.845 312.427 306.939 312.427 306.939 325.143 T
312.845 323.269 312.845 312.427 306.939 325.143 T
318.751 312.427 312.845 312.427 312.845 323.269 T
318.751 321.538 318.751 312.427 312.845 323.269 T
324.657 312.427 318.751 312.427 318.751 321.538 T
324.657 320.189 324.657 312.427 318.751 321.538 T
330.563 312.427 324.657 312.427 324.657 320.189 T
330.563 319.04 330.563 312.427 324.657 320.189 T
336.469 312.427 330.563 312.427 330.563 319.04 T
336.469 318.082 336.469 312.427 330.563 319.04 T
342.374 312.427 336.469 312.427 336.469 318.082 T
342.374 317.201 342.374 312.427 336.469 318.082 T
348.28 312.427 342.374 312.427 342.374 317.201 T
348.28 316.438 348.28 312.427 342.374 317.201 T
354.186 312.427 348.28 312.427 348.28 316.438 T
354.186 315.836 354.186 312.427 348.28 316.438 T
0 LC
[] 0 setdash
0 0 0 C
354.186 315.836 LS
348.28 316.438 L
342.374 317.201 L
336.469 318.082 L
330.563 319.04 L
324.657 320.189 L
318.751 321.538 L
312.845 323.269 L
306.939 325.143 L
301.033 327.514 L
295.127 330.403 L
289.221 333.707 L
283.315 337.846 L
277.409 343.174 L
271.503 351.799 L
265.597 359.857 L
259.691 369.266 L
253.786 385.841 L
247.88 312.427 L
241.974 312.427 L
241.974 312.427 L
247.88 312.427 L
253.786 312.427 L
259.691 312.427 L
265.597 312.427 L
271.503 312.427 L
277.409 312.427 L
283.315 312.427 L
289.221 312.427 L
295.127 312.427 L
301.033 312.427 L
306.939 312.427 L
312.845 312.427 L
318.751 312.427 L
324.657 312.427 L
330.563 312.427 L
336.469 312.427 L
342.374 312.427 L
348.28 312.427 L
354.186 312.427 L
354.186 315.836 LE
1 1 1 C
247.88 312.427 253.786 348.078 253.786 312.427 T
259.691 312.427 253.786 312.427 253.786 348.078 T
259.691 338.081 259.691 312.427 253.786 348.078 T
265.597 312.427 259.691 312.427 259.691 338.081 T
265.597 331.095 265.597 312.427 259.691 338.081 T
271.503 312.427 265.597 312.427 265.597 331.095 T
271.503 324.949 271.503 312.427 265.597 331.095 T
277.409 312.427 271.503 312.427 271.503 324.949 T
277.409 317.976 277.409 312.427 271.503 324.949 T
283.315 312.427 277.409 312.427 277.409 317.976 T
283.315 315.23 283.315 312.427 277.409 317.976 T
289.221 312.427 283.315 312.427 283.315 315.23 T
289.221 313.982 289.221 312.427 283.315 315.23 T
295.127 312.427 289.221 312.427 289.221 313.982 T
295.127 313.289 295.127 312.427 289.221 313.982 T
301.033 312.427 295.127 312.427 295.127 313.289 T
301.033 312.899 301.033 312.427 295.127 313.289 T
306.939 312.427 301.033 312.427 301.033 312.899 T
306.939 312.686 306.939 312.427 301.033 312.899 T
312.845 312.427 306.939 312.427 306.939 312.686 T
312.845 312.569 312.845 312.427 306.939 312.686 T
318.751 312.427 312.845 312.427 312.845 312.569 T
318.751 312.505 318.751 312.427 312.845 312.569 T
324.657 312.427 318.751 312.427 318.751 312.505 T
324.657 312.47 324.657 312.427 318.751 312.505 T
330.563 312.427 324.657 312.427 324.657 312.47 T
330.563 312.451 330.563 312.427 324.657 312.47 T
336.469 312.427 330.563 312.427 330.563 312.451 T
336.469 312.44 336.469 312.427 330.563 312.451 T
342.374 312.427 336.469 312.427 336.469 312.44 T
342.374 312.434 342.374 312.427 336.469 312.44 T
348.28 312.427 342.374 312.427 342.374 312.434 T
348.28 312.431 348.28 312.427 342.374 312.434 T
354.186 312.427 348.28 312.427 348.28 312.431 T
354.186 312.429 354.186 312.427 348.28 312.431 T
241.974 312.427 241.974 312.427 247.88 312.427 T
0 0 0 C
247.88 312.427 LS
241.974 312.427 L
241.974 312.427 L
247.88 312.427 LE
354.186 312.429 LS
348.28 312.431 L
342.374 312.434 L
336.469 312.44 L
330.563 312.451 L
324.657 312.47 L
318.751 312.505 L
312.845 312.569 L
306.939 312.686 L
301.033 312.899 L
295.127 313.289 L
289.221 313.982 L
283.315 315.23 L
277.409 317.976 L
271.503 324.949 L
265.597 331.095 L
259.691 338.081 L
253.786 348.078 L
247.88 312.427 L
253.786 312.427 L
259.691 312.427 L
265.597 312.427 L
271.503 312.427 L
277.409 312.427 L
283.315 312.427 L
289.221 312.427 L
295.127 312.427 L
301.033 312.427 L
306.939 312.427 L
312.845 312.427 L
318.751 312.427 L
324.657 312.427 L
330.563 312.427 L
336.469 312.427 L
342.374 312.427 L
348.28 312.427 L
354.186 312.427 L
354.186 312.429 LE
3 W
1 LJ
241.974 312.427 LS
247.88 312.427 L
253.786 366.666 L
259.691 354.434 L
265.597 345.208 L
271.503 338.185 L
277.409 332.793 L
283.315 328.621 L
289.221 325.37 L
295.127 322.821 L
301.033 320.81 L
306.939 319.215 L
312.845 317.944 L
318.751 316.927 L
324.657 316.109 L
330.563 315.449 L
336.469 314.914 L
342.374 314.48 L
348.28 314.126 L
354.186 313.836 LE
grestore
gsave
1.0 1.0 scale
newpath 0 0 moveto 576 0 lineto 576 432 lineto 0 432 lineto
closepath clip
1 1 1 C
409.067 385.841 521.28 312.427 409.067 312.427 T
409.067 385.841 521.28 385.841 521.28 312.427 T
0.5 W
0.15 0.15 0.15 C
432.691 312.427 LS
432.691 313.556 LE
432.691 385.841 LS
432.691 384.712 LE
462.221 312.427 LS
462.221 313.556 LE
462.221 385.841 LS
462.221 384.712 LE
491.75 312.427 LS
491.75 313.556 LE
491.75 385.841 LS
491.75 384.712 LE
521.28 312.427 LS
521.28 313.556 LE
521.28 385.841 LS
521.28 384.712 LE
gsave
0.14902 0.14902 0.14902 C
(5) [10] 0 429.691 296.885 10 /Helvetica SRX
grestore

gsave
0.14902 0.14902 0.14902 C
(10) [6 10] 0 456.221 296.885 10 /Helvetica SRX
grestore

gsave
0.14902 0.14902 0.14902 C
(15) [6 10] 0 485.75 296.885 10 /Helvetica SRX
grestore

gsave
0.14902 0.14902 0.14902 C
(20) [6 10] 0 515.28 296.885 10 /Helvetica SRX
grestore

409.067 327.296 LS
410.192 327.296 LE
521.28 327.296 LS
520.156 327.296 LE
409.067 346.382 LS
410.192 346.382 LE
521.28 346.382 LS
520.156 346.382 LE
409.067 365.468 LS
410.192 365.468 LE
521.28 365.468 LS
520.156 365.468 LE
409.067 384.554 LS
410.192 384.554 LE
521.28 384.554 LS
520.156 384.554 LE
gsave
0.14902 0.14902 0.14902 C
(0.002) [6 3 6 6 10] 0 377.058 323.296 10 /Helvetica SRX
grestore

gsave
0.14902 0.14902 0.14902 C
(0.004) [6 3 6 6 10] 0 377.058 342.382 10 /Helvetica SRX
grestore

gsave
0.14902 0.14902 0.14902 C
(0.006) [6 3 6 6 10] 0 377.058 361.468 10 /Helvetica SRX
grestore

gsave
0.14902 0.14902 0.14902 C
(0.008) [6 3 6 6 10] 0 377.058 380.554 10 /Helvetica SRX
grestore

2 LC
[16 0] 0 setdash
409.067 312.427 LS
521.28 312.427 LE
409.067 385.841 LS
521.28 385.841 LE
409.067 312.427 LS
409.067 385.841 LE
521.28 312.427 LS
521.28 385.841 LE
gsave
0 0 0 C
(Y_hat) [7 6 7 6 10] 0 450.174 397.841 11 /Helvetica-Bold SRX
grestore

0.9 0.9 0.9 C
409.067 312.427 409.067 320.953 414.973 312.427 T
414.973 327.964 414.973 312.427 409.067 320.953 T
420.879 312.427 414.973 312.427 414.973 327.964 T
420.879 385.841 420.879 312.427 414.973 327.964 T
426.785 312.427 420.879 312.427 420.879 385.841 T
426.785 380.56 426.785 312.427 420.879 385.841 T
432.691 312.427 426.785 312.427 426.785 380.56 T
432.691 375.796 432.691 312.427 426.785 380.56 T
438.597 312.427 432.691 312.427 432.691 375.796 T
438.597 370.359 438.597 312.427 432.691 375.796 T
444.503 312.427 438.597 312.427 438.597 370.359 T
444.503 366.622 444.503 312.427 438.597 370.359 T
450.409 312.427 444.503 312.427 444.503 366.622 T
450.409 358.859 450.409 312.427 444.503 366.622 T
456.315 312.427 450.409 312.427 450.409 358.859 T
456.315 353.646 456.315 312.427 450.409 358.859 T
462.221 312.427 456.315 312.427 456.315 353.646 T
462.221 350.044 462.221 312.427 456.315 353.646 T
468.127 312.427 462.221 312.427 462.221 350.044 T
468.127 346.831 468.127 312.427 462.221 350.044 T
474.033 312.427 468.127 312.427 468.127 346.831 T
474.033 343.82 474.033 312.427 468.127 346.831 T
479.939 312.427 474.033 312.427 474.033 343.82 T
479.939 340.182 479.939 312.427 474.033 343.82 T
485.844 312.427 479.939 312.427 479.939 340.182 T
485.844 337.571 485.844 312.427 479.939 340.182 T
491.75 312.427 485.844 312.427 485.844 337.571 T
491.75 335.649 491.75 312.427 485.844 337.571 T
497.656 312.427 491.75 312.427 491.75 335.649 T
497.656 334.004 497.656 312.427 491.75 335.649 T
503.562 312.427 497.656 312.427 497.656 334.004 T
503.562 332.921 503.562 312.427 497.656 334.004 T
509.468 312.427 503.562 312.427 503.562 332.921 T
509.468 331.795 509.468 312.427 503.562 332.921 T
515.374 312.427 509.468 312.427 509.468 331.795 T
515.374 330.624 515.374 312.427 509.468 331.795 T
521.28 312.427 515.374 312.427 515.374 330.624 T
521.28 329.658 521.28 312.427 515.374 330.624 T
0 LC
[] 0 setdash
0 0 0 C
521.28 329.658 LS
515.374 330.624 L
509.468 331.795 L
503.562 332.921 L
497.656 334.004 L
491.75 335.649 L
485.844 337.571 L
479.939 340.182 L
474.033 343.82 L
468.127 346.831 L
462.221 350.044 L
456.315 353.646 L
450.409 358.859 L
444.503 366.622 L
438.597 370.359 L
432.691 375.796 L
426.785 380.56 L
420.879 385.841 L
414.973 327.964 L
409.067 320.953 L
409.067 312.427 L
414.973 312.427 L
420.879 312.427 L
426.785 312.427 L
432.691 312.427 L
438.597 312.427 L
444.503 312.427 L
450.409 312.427 L
456.315 312.427 L
462.221 312.427 L
468.127 312.427 L
474.033 312.427 L
479.939 312.427 L
485.844 312.427 L
491.75 312.427 L
497.656 312.427 L
503.562 312.427 L
509.468 312.427 L
515.374 312.427 L
521.28 312.427 L
521.28 329.658 LE
1 1 1 C
497.656 312.427 503.562 312.683 503.562 312.427 T
509.468 312.427 503.562 312.427 503.562 312.683 T
509.468 312.773 509.468 312.427 503.562 312.683 T
515.374 312.427 509.468 312.427 509.468 312.773 T
515.374 312.632 515.374 312.427 509.468 312.773 T
521.28 312.427 515.374 312.427 515.374 312.632 T
521.28 312.589 521.28 312.427 515.374 312.632 T
409.067 312.427 409.067 312.591 414.973 312.427 T
414.973 315.405 414.973 312.427 409.067 312.591 T
420.879 312.427 414.973 312.427 414.973 315.405 T
420.879 343.629 420.879 312.427 414.973 315.405 T
426.785 312.427 420.879 312.427 420.879 343.629 T
426.785 338.133 426.785 312.427 420.879 343.629 T
432.691 312.427 426.785 312.427 426.785 338.133 T
432.691 332.62 432.691 312.427 426.785 338.133 T
438.597 312.427 432.691 312.427 432.691 332.62 T
438.597 328.085 438.597 312.427 432.691 332.62 T
444.503 312.427 438.597 312.427 438.597 328.085 T
444.503 326.124 444.503 312.427 438.597 328.085 T
450.409 312.427 444.503 312.427 444.503 326.124 T
450.409 320.34 450.409 312.427 444.503 326.124 T
456.315 312.427 450.409 312.427 450.409 320.34 T
456.315 317.409 456.315 312.427 450.409 320.34 T
462.221 312.427 456.315 312.427 456.315 317.409 T
462.221 316.406 462.221 312.427 456.315 317.409 T
468.127 312.427 462.221 312.427 462.221 316.406 T
468.127 315.505 468.127 312.427 462.221 316.406 T
474.033 312.427 468.127 312.427 468.127 315.505 T
474.033 314.723 474.033 312.427 468.127 315.505 T
479.939 312.427 474.033 312.427 474.033 314.723 T
479.939 313.271 479.939 312.427 474.033 314.723 T
485.844 312.427 479.939 312.427 479.939 313.271 T
485.844 312.762 485.844 312.427 479.939 313.271 T
491.75 312.427 485.844 312.427 485.844 312.762 T
491.75 312.565 491.75 312.427 485.844 312.762 T
497.656 312.427 491.75 312.427 491.75 312.565 T
0 0 0 C
497.656 312.427 LS
491.75 312.565 L
485.844 312.762 L
479.939 313.271 L
474.033 314.723 L
468.127 315.505 L
462.221 316.406 L
456.315 317.409 L
450.409 320.34 L
444.503 326.124 L
438.597 328.085 L
432.691 332.62 L
426.785 338.133 L
420.879 343.629 L
414.973 315.405 L
409.067 312.591 L
409.067 312.427 L
414.973 312.427 L
420.879 312.427 L
426.785 312.427 L
432.691 312.427 L
438.597 312.427 L
444.503 312.427 L
450.409 312.427 L
456.315 312.427 L
462.221 312.427 L
468.127 312.427 L
474.033 312.427 L
479.939 312.427 L
485.844 312.427 L
491.75 312.427 L
497.656 312.427 LE
521.28 312.589 LS
515.374 312.632 L
509.468 312.773 L
503.562 312.683 L
497.656 312.427 L
503.562 312.427 L
509.468 312.427 L
515.374 312.427 L
521.28 312.427 L
521.28 312.589 LE
3 W
1 LJ
409.067 317.064 LS
414.973 321.723 L
420.879 364.474 L
426.785 359.734 L
432.691 354.608 L
438.597 349.659 L
444.503 345.133 L
450.409 341.124 L
456.315 337.642 L
462.221 334.659 L
468.127 332.126 L
474.033 329.987 L
479.939 328.189 L
485.844 326.68 L
491.75 325.414 L
497.656 324.351 L
503.562 323.458 L
509.468 322.705 L
515.374 322.068 L
521.28 321.527 LE
grestore
gsave
1.0 1.0 scale
newpath 0 0 moveto 576 0 lineto 576 432 lineto 0 432 lineto
closepath clip
1 1 1 C
74.88 253.387 187.093 179.974 74.88 179.974 T
74.88 253.387 187.093 253.387 187.093 179.974 T
0.5 W
0.15 0.15 0.15 C
98.5037 179.974 LS
98.5037 181.102 LE
98.5037 253.387 LS
98.5037 252.258 LE
128.033 179.974 LS
128.033 181.102 LE
128.033 253.387 LS
128.033 252.258 LE
157.563 179.974 LS
157.563 181.102 LE
157.563 253.387 LS
157.563 252.258 LE
187.093 179.974 LS
187.093 181.102 LE
187.093 253.387 LS
187.093 252.258 LE
gsave
0.14902 0.14902 0.14902 C
(5) [10] 0 95.5037 164.431 10 /Helvetica SRX
grestore

gsave
0.14902 0.14902 0.14902 C
(10) [6 10] 0 122.033 164.431 10 /Helvetica SRX
grestore

gsave
0.14902 0.14902 0.14902 C
(15) [6 10] 0 151.563 164.431 10 /Helvetica SRX
grestore

gsave
0.14902 0.14902 0.14902 C
(20) [6 10] 0 181.093 164.431 10 /Helvetica SRX
grestore

74.88 185.899 LS
76.0043 185.899 LE
187.093 185.899 LS
185.968 185.899 LE
74.88 201.192 LS
76.0043 201.192 LE
187.093 201.192 LS
185.968 201.192 LE
74.88 216.486 LS
76.0043 216.486 LE
187.093 216.486 LS
185.968 216.486 LE
74.88 231.78 LS
76.0043 231.78 LE
187.093 231.78 LS
185.968 231.78 LE
74.88 247.074 LS
76.0043 247.074 LE
187.093 247.074 LS
185.968 247.074 LE
gsave
0.14902 0.14902 0.14902 C
(0.0005) [6 3 6 6 6 10] 0 36.8705 181.899 10 /Helvetica SRX
grestore

gsave
0.14902 0.14902 0.14902 C
(0.001) [6 3 6 6 10] 0 42.8705 197.192 10 /Helvetica SRX
grestore

gsave
0.14902 0.14902 0.14902 C
(0.0015) [6 3 6 6 6 10] 0 36.8705 212.486 10 /Helvetica SRX
grestore

gsave
0.14902 0.14902 0.14902 C
(0.002) [6 3 6 6 10] 0 42.8705 227.78 10 /Helvetica SRX
grestore

gsave
0.14902 0.14902 0.14902 C
(0.0025) [6 3 6 6 6 10] 0 36.8705 243.074 10 /Helvetica SRX
grestore

2 LC
[16 0] 0 setdash
74.88 179.974 LS
187.093 179.974 LE
74.88 253.387 LS
187.093 253.387 LE
74.88 179.974 LS
74.88 253.387 LE
187.093 179.974 LS
187.093 253.387 LE
gsave
0 0 0 C
(C_hat) [8 6 7 6 10] 0 115.486 265.387 11 /Helvetica-Bold SRX
grestore

0.9 0.9 0.9 C
74.88 179.974 74.88 199.145 80.7859 179.974 T
80.7859 214.653 80.7859 179.974 74.88 199.145 T
86.6918 179.974 80.7859 179.974 80.7859 214.653 T
86.6918 235.369 86.6918 179.974 80.7859 214.653 T
92.5978 179.974 86.6918 179.974 86.6918 235.369 T
92.5978 246.718 92.5978 179.974 86.6918 235.369 T
98.5037 179.974 92.5978 179.974 92.5978 246.718 T
98.5037 250.033 98.5037 179.974 92.5978 246.718 T
104.41 179.974 98.5037 179.974 98.5037 250.033 T
104.41 253.387 104.41 179.974 98.5037 250.033 T
110.316 179.974 104.41 179.974 104.41 253.387 T
110.316 251.836 110.316 179.974 104.41 253.387 T
116.221 179.974 110.316 179.974 110.316 251.836 T
116.221 251.599 116.221 179.974 110.316 251.836 T
122.127 179.974 116.221 179.974 116.221 251.599 T
122.127 248.047 122.127 179.974 116.221 251.599 T
128.033 179.974 122.127 179.974 122.127 248.047 T
128.033 245.147 128.033 179.974 122.127 248.047 T
133.939 179.974 128.033 179.974 128.033 245.147 T
133.939 241.871 133.939 179.974 128.033 245.147 T
139.845 179.974 133.939 179.974 133.939 241.871 T
139.845 238.467 139.845 179.974 133.939 241.871 T
145.751 179.974 139.845 179.974 139.845 238.467 T
145.751 237.491 145.751 179.974 139.845 238.467 T
151.657 179.974 145.751 179.974 145.751 237.491 T
151.657 236.228 151.657 179.974 145.751 237.491 T
157.563 179.974 151.657 179.974 151.657 236.228 T
157.563 232.614 157.563 179.974 151.657 236.228 T
163.469 179.974 157.563 179.974 157.563 232.614 T
163.469 231.172 163.469 179.974 157.563 232.614 T
169.375 179.974 163.469 179.974 163.469 231.172 T
169.375 229.33 169.375 179.974 163.469 231.172 T
175.281 179.974 169.375 179.974 169.375 229.33 T
175.281 227.485 175.281 179.974 169.375 229.33 T
181.187 179.974 175.281 179.974 175.281 227.485 T
181.187 226.445 181.187 179.974 175.281 227.485 T
187.093 179.974 181.187 179.974 181.187 226.445 T
187.093 225.241 187.093 179.974 181.187 226.445 T
0 LC
[] 0 setdash
0 0 0 C
187.093 225.241 LS
181.187 226.445 L
175.281 227.485 L
169.375 229.33 L
163.469 231.172 L
157.563 232.614 L
151.657 236.228 L
145.751 237.491 L
139.845 238.467 L
133.939 241.871 L
128.033 245.147 L
122.127 248.047 L
116.221 251.599 L
110.316 251.836 L
104.41 253.387 L
98.5037 250.033 L
92.5978 246.718 L
86.6918 235.369 L
80.7859 214.653 L
74.88 199.145 L
74.88 179.974 L
80.7859 179.974 L
86.6918 179.974 L
92.5978 179.974 L
98.5037 179.974 L
104.41 179.974 L
110.316 179.974 L
116.221 179.974 L
122.127 179.974 L
128.033 179.974 L
133.939 179.974 L
139.845 179.974 L
145.751 179.974 L
151.657 179.974 L
157.563 179.974 L
163.469 179.974 L
169.375 179.974 L
175.281 179.974 L
181.187 179.974 L
187.093 179.974 L
187.093 225.241 LE
1 1 1 C
74.88 179.974 80.7859 185.674 80.7859 179.974 T
86.6918 179.974 80.7859 179.974 80.7859 185.674 T
86.6918 193.079 86.6918 179.974 80.7859 185.674 T
92.5978 179.974 86.6918 179.974 86.6918 193.079 T
92.5978 196.788 92.5978 179.974 86.6918 193.079 T
98.5037 179.974 92.5978 179.974 92.5978 196.788 T
98.5037 196.527 98.5037 179.974 92.5978 196.788 T
104.41 179.974 98.5037 179.974 98.5037 196.527 T
104.41 197.976 104.41 179.974 98.5037 196.527 T
110.316 179.974 104.41 179.974 104.41 197.976 T
110.316 196.055 110.316 179.974 104.41 197.976 T
116.221 179.974 110.316 179.974 110.316 196.055 T
116.221 196.001 116.221 179.974 110.316 196.055 T
122.127 179.974 116.221 179.974 116.221 196.001 T
122.127 193.005 122.127 179.974 116.221 196.001 T
128.033 179.974 122.127 179.974 122.127 193.005 T
128.033 191.038 128.033 179.974 122.127 193.005 T
133.939 179.974 128.033 179.974 128.033 191.038 T
133.939 189.042 133.939 179.974 128.033 191.038 T
139.845 179.974 133.939 179.974 133.939 189.042 T
139.845 186.836 139.845 179.974 133.939 189.042 T
145.751 179.974 139.845 179.974 139.845 186.836 T
145.751 187.046 145.751 179.974 139.845 186.836 T
151.657 179.974 145.751 179.974 145.751 187.046 T
151.657 186.934 151.657 179.974 145.751 187.046 T
157.563 179.974 151.657 179.974 151.657 186.934 T
157.563 185.004 157.563 179.974 151.657 186.934 T
163.469 179.974 157.563 179.974 157.563 185.004 T
163.469 184.782 163.469 179.974 157.563 185.004 T
169.375 179.974 163.469 179.974 163.469 184.782 T
169.375 184.248 169.375 179.974 163.469 184.782 T
175.281 179.974 169.375 179.974 169.375 184.248 T
175.281 183.435 175.281 179.974 169.375 184.248 T
181.187 179.974 175.281 179.974 175.281 183.435 T
181.187 183.558 181.187 179.974 175.281 183.435 T
187.093 179.974 181.187 179.974 181.187 183.558 T
187.093 183.419 187.093 179.974 181.187 183.558 T
0 0 0 C
187.093 183.419 LS
181.187 183.558 L
175.281 183.435 L
169.375 184.248 L
163.469 184.782 L
157.563 185.004 L
151.657 186.934 L
145.751 187.046 L
139.845 186.836 L
133.939 189.042 L
128.033 191.038 L
122.127 193.005 L
116.221 196.001 L
110.316 196.055 L
104.41 197.976 L
98.5037 196.527 L
92.5978 196.788 L
86.6918 193.079 L
80.7859 185.674 L
74.88 179.974 L
80.7859 179.974 L
86.6918 179.974 L
92.5978 179.974 L
98.5037 179.974 L
104.41 179.974 L
110.316 179.974 L
116.221 179.974 L
122.127 179.974 L
128.033 179.974 L
133.939 179.974 L
139.845 179.974 L
145.751 179.974 L
151.657 179.974 L
157.563 179.974 L
163.469 179.974 L
169.375 179.974 L
175.281 179.974 L
181.187 179.974 L
187.093 179.974 L
187.093 183.419 LE
3 W
1 LJ
74.88 190.443 LS
80.7859 201.496 L
86.6918 213.945 L
92.5978 221.339 L
98.5037 224.871 L
104.41 225.857 L
110.316 225.284 L
116.221 223.838 L
122.127 221.966 L
128.033 219.95 L
133.939 217.957 L
139.845 216.079 L
145.751 214.359 L
151.657 212.814 L
157.563 211.44 L
163.469 210.226 L
169.375 209.157 L
175.281 208.215 L
181.187 207.384 L
187.093 206.648 LE
grestore
gsave
1.0 1.0 scale
newpath 0 0 moveto 576 0 lineto 576 432 lineto 0 432 lineto
closepath clip
1 1 1 C
241.974 253.387 354.186 179.974 241.974 179.974 T
241.974 253.387 354.186 253.387 354.186 179.974 T
0.5 W
0.15 0.15 0.15 C
265.597 179.974 LS
265.597 181.102 LE
265.597 253.387 LS
265.597 252.258 LE
295.127 179.974 LS
295.127 181.102 LE
295.127 253.387 LS
295.127 252.258 LE
324.657 179.974 LS
324.657 181.102 LE
324.657 253.387 LS
324.657 252.258 LE
354.186 179.974 LS
354.186 181.102 LE
354.186 253.387 LS
354.186 252.258 LE
gsave
0.14902 0.14902 0.14902 C
(5) [10] 0 262.597 164.431 10 /Helvetica SRX
grestore

gsave
0.14902 0.14902 0.14902 C
(10) [6 10] 0 289.127 164.431 10 /Helvetica SRX
grestore

gsave
0.14902 0.14902 0.14902 C
(15) [6 10] 0 318.657 164.431 10 /Helvetica SRX
grestore

gsave
0.14902 0.14902 0.14902 C
(20) [6 10] 0 348.186 164.431 10 /Helvetica SRX
grestore

241.974 191.119 LS
243.098 191.119 LE
354.186 191.119 LS
353.062 191.119 LE
241.974 207.567 LS
243.098 207.567 LE
354.186 207.567 LS
353.062 207.567 LE
241.974 224.016 LS
243.098 224.016 LE
354.186 224.016 LS
353.062 224.016 LE
241.974 240.464 LS
243.098 240.464 LE
354.186 240.464 LS
353.062 240.464 LE
gsave
0.14902 0.14902 0.14902 C
(0.002) [6 3 6 6 10] 0 209.964 187.119 10 /Helvetica SRX
grestore

gsave
0.14902 0.14902 0.14902 C
(0.004) [6 3 6 6 10] 0 209.964 203.567 10 /Helvetica SRX
grestore

gsave
0.14902 0.14902 0.14902 C
(0.006) [6 3 6 6 10] 0 209.964 220.016 10 /Helvetica SRX
grestore

gsave
0.14902 0.14902 0.14902 C
(0.008) [6 3 6 6 10] 0 209.964 236.464 10 /Helvetica SRX
grestore

2 LC
[16 0] 0 setdash
241.974 179.974 LS
354.186 179.974 LE
241.974 253.387 LS
354.186 253.387 LE
241.974 179.974 LS
241.974 253.387 LE
354.186 179.974 LS
354.186 253.387 LE
gsave
0 0 0 C
(I_hat) [3 6 7 6 10] 0 285.08 265.387 11 /Helvetica-Bold SRX
grestore

0.9 0.9 0.9 C
241.974 179.974 241.974 252.717 247.88 179.974 T
247.88 253.387 247.88 179.974 241.974 252.717 T
253.786 179.974 247.88 179.974 247.88 253.387 T
253.786 250.485 253.786 179.974 247.88 253.387 T
259.691 179.974 253.786 179.974 253.786 250.485 T
259.691 247.834 259.691 179.974 253.786 250.485 T
265.597 179.974 259.691 179.974 259.691 247.834 T
265.597 246.427 265.597 179.974 259.691 247.834 T
271.503 179.974 265.597 179.974 265.597 246.427 T
271.503 243.437 271.503 179.974 265.597 246.427 T
277.409 179.974 271.503 179.974 271.503 243.437 T
277.409 240.041 277.409 179.974 271.503 243.437 T
283.315 179.974 277.409 179.974 277.409 240.041 T
283.315 236.292 283.315 179.974 277.409 240.041 T
289.221 179.974 283.315 179.974 283.315 236.292 T
289.221 232.821 289.221 179.974 283.315 236.292 T
295.127 179.974 289.221 179.974 289.221 232.821 T
295.127 228.602 295.127 179.974 289.221 232.821 T
301.033 179.974 295.127 179.974 295.127 228.602 T
301.033 225.296 301.033 179.974 295.127 228.602 T
306.939 179.974 301.033 179.974 301.033 225.296 T
306.939 220.431 306.939 179.974 301.033 225.296 T
312.845 179.974 306.939 179.974 306.939 220.431 T
312.845 217.486 312.845 179.974 306.939 220.431 T
318.751 179.974 312.845 179.974 312.845 217.486 T
318.751 213.166 318.751 179.974 312.845 217.486 T
324.657 179.974 318.751 179.974 318.751 213.166 T
324.657 210.444 324.657 179.974 318.751 213.166 T
330.563 179.974 324.657 179.974 324.657 210.444 T
330.563 208.056 330.563 179.974 324.657 210.444 T
336.469 179.974 330.563 179.974 330.563 208.056 T
336.469 205.782 336.469 179.974 330.563 208.056 T
342.374 179.974 336.469 179.974 336.469 205.782 T
342.374 203.918 342.374 179.974 336.469 205.782 T
348.28 179.974 342.374 179.974 342.374 203.918 T
348.28 202.404 348.28 179.974 342.374 203.918 T
354.186 179.974 348.28 179.974 348.28 202.404 T
354.186 200.606 354.186 179.974 348.28 202.404 T
0 LC
[] 0 setdash
0 0 0 C
354.186 200.606 LS
348.28 202.404 L
342.374 203.918 L
336.469 205.782 L
330.563 208.056 L
324.657 210.444 L
318.751 213.166 L
312.845 217.486 L
306.939 220.431 L
301.033 225.296 L
295.127 228.602 L
289.221 232.821 L
283.315 236.292 L
277.409 240.041 L
271.503 243.437 L
265.597 246.427 L
259.691 247.834 L
253.786 250.485 L
247.88 253.387 L
241.974 252.717 L
241.974 179.974 L
247.88 179.974 L
253.786 179.974 L
259.691 179.974 L
265.597 179.974 L
271.503 179.974 L
277.409 179.974 L
283.315 179.974 L
289.221 179.974 L
295.127 179.974 L
301.033 179.974 L
306.939 179.974 L
312.845 179.974 L
318.751 179.974 L
324.657 179.974 L
330.563 179.974 L
336.469 179.974 L
342.374 179.974 L
348.28 179.974 L
354.186 179.974 L
354.186 200.606 LE
1 1 1 C
241.974 179.974 241.974 205.185 247.88 179.974 T
247.88 204.798 247.88 179.974 241.974 205.185 T
253.786 179.974 247.88 179.974 247.88 204.798 T
253.786 202.814 253.786 179.974 247.88 204.798 T
259.691 179.974 253.786 179.974 253.786 202.814 T
259.691 201.027 259.691 179.974 253.786 202.814 T
265.597 179.974 259.691 179.974 259.691 201.027 T
265.597 199.998 265.597 179.974 259.691 201.027 T
271.503 179.974 265.597 179.974 265.597 199.998 T
271.503 197.991 271.503 179.974 265.597 199.998 T
277.409 179.974 271.503 179.974 271.503 197.991 T
277.409 195.854 277.409 179.974 271.503 197.991 T
283.315 179.974 277.409 179.974 277.409 195.854 T
283.315 193.749 283.315 179.974 277.409 195.854 T
289.221 179.974 283.315 179.974 283.315 193.749 T
289.221 192.018 289.221 179.974 283.315 193.749 T
295.127 179.974 289.221 179.974 289.221 192.018 T
295.127 190.023 295.127 179.974 289.221 192.018 T
301.033 179.974 295.127 179.974 295.127 190.023 T
301.033 188.782 301.033 179.974 295.127 190.023 T
306.939 179.974 301.033 179.974 301.033 188.782 T
306.939 186.26 306.939 179.974 301.033 188.782 T
312.845 179.974 306.939 179.974 306.939 186.26 T
312.845 185.264 312.845 179.974 306.939 186.26 T
318.751 179.974 312.845 179.974 312.845 185.264 T
318.751 183.087 318.751 179.974 312.845 185.264 T
324.657 179.974 318.751 179.974 318.751 183.087 T
324.657 182.404 324.657 179.974 318.751 183.087 T
330.563 179.974 324.657 179.974 324.657 182.404 T
330.563 181.78 330.563 179.974 324.657 182.404 T
336.469 179.974 330.563 179.974 330.563 181.78 T
336.469 181.233 336.469 179.974 330.563 181.78 T
342.374 179.974 336.469 179.974 336.469 181.233 T
342.374 180.755 342.374 179.974 336.469 181.233 T
348.28 179.974 342.374 179.974 342.374 180.755 T
348.28 180.541 348.28 179.974 342.374 180.755 T
354.186 179.974 348.28 179.974 348.28 180.541 T
0 0 0 C
354.186 179.974 LS
348.28 180.541 L
342.374 180.755 L
336.469 181.233 L
330.563 181.78 L
324.657 182.404 L
318.751 183.087 L
312.845 185.264 L
306.939 186.26 L
301.033 188.782 L
295.127 190.023 L
289.221 192.018 L
283.315 193.749 L
277.409 195.854 L
271.503 197.991 L
265.597 199.998 L
259.691 201.027 L
253.786 202.814 L
247.88 204.798 L
241.974 205.185 L
241.974 179.974 L
247.88 179.974 L
253.786 179.974 L
259.691 179.974 L
265.597 179.974 L
271.503 179.974 L
277.409 179.974 L
283.315 179.974 L
289.221 179.974 L
295.127 179.974 L
301.033 179.974 L
306.939 179.974 L
312.845 179.974 L
318.751 179.974 L
324.657 179.974 L
330.563 179.974 L
336.469 179.974 L
342.374 179.974 L
348.28 179.974 L
354.186 179.974 LE
3 W
1 LJ
241.974 229.082 LS
247.88 230.442 L
253.786 226.914 L
259.691 225.323 L
265.597 223.264 L
271.503 220.713 L
277.409 217.885 L
283.315 214.962 L
289.221 212.071 L
295.127 209.294 L
301.033 206.68 L
306.939 204.253 L
312.845 202.025 L
318.751 199.995 L
324.657 198.158 L
330.563 196.502 L
336.469 195.015 L
342.374 193.683 L
348.28 192.492 L
354.186 191.43 LE
grestore
gsave
1.0 1.0 scale
newpath 0 0 moveto 576 0 lineto 576 432 lineto 0 432 lineto
closepath clip
1 1 1 C
409.067 253.387 521.28 179.974 409.067 179.974 T
409.067 253.387 521.28 253.387 521.28 179.974 T
0.5 W
0.15 0.15 0.15 C
432.691 179.974 LS
432.691 181.102 LE
432.691 253.387 LS
432.691 252.258 LE
462.221 179.974 LS
462.221 181.102 LE
462.221 253.387 LS
462.221 252.258 LE
491.75 179.974 LS
491.75 181.102 LE
491.75 253.387 LS
491.75 252.258 LE
521.28 179.974 LS
521.28 181.102 LE
521.28 253.387 LS
521.28 252.258 LE
gsave
0.14902 0.14902 0.14902 C
(5) [10] 0 429.691 164.431 10 /Helvetica SRX
grestore

gsave
0.14902 0.14902 0.14902 C
(10) [6 10] 0 456.221 164.431 10 /Helvetica SRX
grestore

gsave
0.14902 0.14902 0.14902 C
(15) [6 10] 0 485.75 164.431 10 /Helvetica SRX
grestore

gsave
0.14902 0.14902 0.14902 C
(20) [6 10] 0 515.28 164.431 10 /Helvetica SRX
grestore

409.067 186.148 LS
410.192 186.148 LE
521.28 186.148 LS
520.156 186.148 LE
409.067 196.942 LS
410.192 196.942 LE
521.28 196.942 LS
520.156 196.942 LE
409.067 207.737 LS
410.192 207.737 LE
521.28 207.737 LS
520.156 207.737 LE
409.067 218.531 LS
410.192 218.531 LE
521.28 218.531 LS
520.156 218.531 LE
409.067 229.325 LS
410.192 229.325 LE
521.28 229.325 LS
520.156 229.325 LE
409.067 240.12 LS
410.192 240.12 LE
521.28 240.12 LS
520.156 240.12 LE
409.067 250.914 LS
410.192 250.914 LE
521.28 250.914 LS
520.156 250.914 LE
gsave
0.14902 0.14902 0.14902 C
(0.0005) [6 3 6 6 6 10] 0 371.058 182.148 10 /Helvetica SRX
grestore

gsave
0.14902 0.14902 0.14902 C
(0.001) [6 3 6 6 10] 0 377.058 192.942 10 /Helvetica SRX
grestore

gsave
0.14902 0.14902 0.14902 C
(0.0015) [6 3 6 6 6 10] 0 371.058 203.737 10 /Helvetica SRX
grestore

gsave
0.14902 0.14902 0.14902 C
(0.002) [6 3 6 6 10] 0 377.058 214.531 10 /Helvetica SRX
grestore

gsave
0.14902 0.14902 0.14902 C
(0.0025) [6 3 6 6 6 10] 0 371.058 225.325 10 /Helvetica SRX
grestore

gsave
0.14902 0.14902 0.14902 C
(0.003) [6 3 6 6 10] 0 377.058 236.12 10 /Helvetica SRX
grestore

gsave
0.14902 0.14902 0.14902 C
(0.0035) [6 3 6 6 6 10] 0 371.058 246.914 10 /Helvetica SRX
grestore

2 LC
[16 0] 0 setdash
409.067 179.974 LS
521.28 179.974 LE
409.067 253.387 LS
521.28 253.387 LE
409.067 179.974 LS
409.067 253.387 LE
521.28 179.974 LS
521.28 253.387 LE
gsave
0 0 0 C
(L_hat) [7 6 7 6 10] 0 450.174 265.387 11 /Helvetica-Bold SRX
grestore

0.9 0.9 0.9 C
409.067 179.974 409.067 189.768 414.973 179.974 T
414.973 209.33 414.973 179.974 409.067 189.768 T
420.879 179.974 414.973 179.974 414.973 209.33 T
420.879 237.203 420.879 179.974 414.973 209.33 T
426.785 179.974 420.879 179.974 420.879 237.203 T
426.785 248.494 426.785 179.974 420.879 237.203 T
432.691 179.974 426.785 179.974 426.785 248.494 T
432.691 253.387 432.691 179.974 426.785 248.494 T
438.597 179.974 432.691 179.974 432.691 253.387 T
438.597 249.899 438.597 179.974 432.691 253.387 T
444.503 179.974 438.597 179.974 438.597 249.899 T
444.503 247.716 444.503 179.974 438.597 249.899 T
450.409 179.974 444.503 179.974 444.503 247.716 T
450.409 241.572 450.409 179.974 444.503 247.716 T
456.315 179.974 450.409 179.974 450.409 241.572 T
456.315 238.991 456.315 179.974 450.409 241.572 T
462.221 179.974 456.315 179.974 456.315 238.991 T
462.221 235.244 462.221 179.974 456.315 238.991 T
468.127 179.974 462.221 179.974 462.221 235.244 T
468.127 229.606 468.127 179.974 462.221 235.244 T
474.033 179.974 468.127 179.974 468.127 229.606 T
474.033 227.327 474.033 179.974 468.127 229.606 T
479.939 179.974 474.033 179.974 474.033 227.327 T
479.939 224.074 479.939 179.974 474.033 227.327 T
485.844 179.974 479.939 179.974 479.939 224.074 T
485.844 220.628 485.844 179.974 479.939 224.074 T
491.75 179.974 485.844 179.974 485.844 220.628 T
491.75 217.549 491.75 179.974 485.844 220.628 T
497.656 179.974 491.75 179.974 491.75 217.549 T
497.656 214.952 497.656 179.974 491.75 217.549 T
503.562 179.974 497.656 179.974 497.656 214.952 T
503.562 212.832 503.562 179.974 497.656 214.952 T
509.468 179.974 503.562 179.974 503.562 212.832 T
509.468 210.801 509.468 179.974 503.562 212.832 T
515.374 179.974 509.468 179.974 509.468 210.801 T
515.374 209.317 515.374 179.974 509.468 210.801 T
521.28 179.974 515.374 179.974 515.374 209.317 T
521.28 207.769 521.28 179.974 515.374 209.317 T
0 LC
[] 0 setdash
0 0 0 C
521.28 207.769 LS
515.374 209.317 L
509.468 210.801 L
503.562 212.832 L
497.656 214.952 L
491.75 217.549 L
485.844 220.628 L
479.939 224.074 L
474.033 227.327 L
468.127 229.606 L
462.221 235.244 L
456.315 238.991 L
450.409 241.572 L
444.503 247.716 L
438.597 249.899 L
432.691 253.387 L
426.785 248.494 L
420.879 237.203 L
414.973 209.33 L
409.067 189.768 L
409.067 179.974 L
414.973 179.974 L
420.879 179.974 L
426.785 179.974 L
432.691 179.974 L
438.597 179.974 L
444.503 179.974 L
450.409 179.974 L
456.315 179.974 L
462.221 179.974 L
468.127 179.974 L
474.033 179.974 L
479.939 179.974 L
485.844 179.974 L
491.75 179.974 L
497.656 179.974 L
503.562 179.974 L
509.468 179.974 L
515.374 179.974 L
521.28 179.974 L
521.28 207.769 LE
1 1 1 C
409.067 179.974 414.973 186.398 414.973 179.974 T
420.879 179.974 414.973 179.974 414.973 186.398 T
420.879 193.627 420.879 179.974 414.973 186.398 T
426.785 179.974 420.879 179.974 420.879 193.627 T
426.785 196.138 426.785 179.974 420.879 193.627 T
432.691 179.974 426.785 179.974 426.785 196.138 T
432.691 199.251 432.691 179.974 426.785 196.138 T
438.597 179.974 432.691 179.974 432.691 199.251 T
438.597 196.682 438.597 179.974 432.691 199.251 T
444.503 179.974 438.597 179.974 438.597 196.682 T
444.503 196.342 444.503 179.974 438.597 196.682 T
450.409 179.974 444.503 179.974 444.503 196.342 T
450.409 191.976 450.409 179.974 444.503 196.342 T
456.315 179.974 450.409 179.974 450.409 191.976 T
456.315 191.341 456.315 179.974 450.409 191.976 T
462.221 179.974 456.315 179.974 456.315 191.341 T
462.221 189.395 462.221 179.974 456.315 191.341 T
468.127 179.974 462.221 179.974 462.221 189.395 T
468.127 185.961 468.127 179.974 462.221 189.395 T
474.033 179.974 468.127 179.974 468.127 185.961 T
474.033 186.154 474.033 179.974 468.127 185.961 T
479.939 179.974 474.033 179.974 474.033 186.154 T
479.939 185.151 479.939 179.974 474.033 186.154 T
485.844 179.974 479.939 179.974 479.939 185.151 T
485.844 183.804 485.844 179.974 479.939 185.151 T
491.75 179.974 485.844 179.974 485.844 183.804 T
491.75 183.006 491.75 179.974 485.844 183.804 T
497.656 179.974 491.75 179.974 491.75 183.006 T
497.656 182.598 497.656 179.974 491.75 183.006 T
503.562 179.974 497.656 179.974 497.656 182.598 T
503.562 182.361 503.562 179.974 497.656 182.598 T
509.468 179.974 503.562 179.974 503.562 182.361 T
509.468 182.036 509.468 179.974 503.562 182.361 T
515.374 179.974 509.468 179.974 509.468 182.036 T
515.374 181.919 515.374 179.974 509.468 182.036 T
521.28 179.974 515.374 179.974 515.374 181.919 T
521.28 181.699 521.28 179.974 515.374 181.919 T
0 0 0 C
521.28 181.699 LS
515.374 181.919 L
509.468 182.036 L
503.562 182.361 L
497.656 182.598 L
491.75 183.006 L
485.844 183.804 L
479.939 185.151 L
474.033 186.154 L
468.127 185.961 L
462.221 189.395 L
456.315 191.341 L
450.409 191.976 L
444.503 196.342 L
438.597 196.682 L
432.691 199.251 L
426.785 196.138 L
420.879 193.627 L
414.973 186.398 L
409.067 179.974 L
414.973 179.974 L
420.879 179.974 L
426.785 179.974 L
432.691 179.974 L
438.597 179.974 L
444.503 179.974 L
450.409 179.974 L
456.315 179.974 L
462.221 179.974 L
468.127 179.974 L
474.033 179.974 L
479.939 179.974 L
485.844 179.974 L
491.75 179.974 L
497.656 179.974 L
503.562 179.974 L
509.468 179.974 L
515.374 179.974 L
521.28 179.974 L
521.28 181.699 LE
3 W
1 LJ
409.067 184.936 LS
414.973 197.987 L
420.879 215.243 L
426.785 223.185 L
432.691 225.707 L
438.597 225.119 L
444.503 222.857 L
450.409 219.81 L
456.315 216.511 L
462.221 213.269 L
468.127 210.245 L
474.033 207.515 L
479.939 205.103 L
485.844 203.001 L
491.75 201.187 L
497.656 199.629 L
503.562 198.297 L
509.468 197.158 L
515.374 196.186 L
521.28 195.352 LE
grestore
gsave
1.0 1.0 scale
newpath 0 0 moveto 576 0 lineto 576 432 lineto 0 432 lineto
closepath clip
1 1 1 C
74.88 120.933 187.093 47.52 74.88 47.52 T
74.88 120.933 187.093 120.933 187.093 47.52 T
0.5 W
0.15 0.15 0.15 C
98.5037 47.52 LS
98.5037 48.6485 LE
98.5037 120.933 LS
98.5037 119.805 LE
128.033 47.52 LS
128.033 48.6485 LE
128.033 120.933 LS
128.033 119.805 LE
157.563 47.52 LS
157.563 48.6485 LE
157.563 120.933 LS
157.563 119.805 LE
187.093 47.52 LS
187.093 48.6485 LE
187.093 120.933 LS
187.093 119.805 LE
gsave
0.14902 0.14902 0.14902 C
(5) [10] 0 95.5037 31.9776 10 /Helvetica SRX
grestore

gsave
0.14902 0.14902 0.14902 C
(10) [6 10] 0 122.033 31.9776 10 /Helvetica SRX
grestore

gsave
0.14902 0.14902 0.14902 C
(15) [6 10] 0 151.563 31.9776 10 /Helvetica SRX
grestore

gsave
0.14902 0.14902 0.14902 C
(20) [6 10] 0 181.093 31.9776 10 /Helvetica SRX
grestore

74.88 50.3782 LS
76.0043 50.3782 LE
187.093 50.3782 LS
185.968 50.3782 LE
74.88 63.8399 LS
76.0043 63.8399 LE
187.093 63.8399 LS
185.968 63.8399 LE
74.88 77.3015 LS
76.0043 77.3015 LE
187.093 77.3015 LS
185.968 77.3015 LE
74.88 90.7632 LS
76.0043 90.7632 LE
187.093 90.7632 LS
185.968 90.7632 LE
74.88 104.225 LS
76.0043 104.225 LE
187.093 104.225 LS
185.968 104.225 LE
74.88 117.686 LS
76.0043 117.686 LE
187.093 117.686 LS
185.968 117.686 LE
gsave
0.14902 0.14902 0.14902 C
(-0.002) [3 6 3 6 6 10] 0 39.8705 46.3782 10 /Helvetica SRX
grestore

gsave
0.14902 0.14902 0.14902 C
(-0.001) [3 6 3 6 6 10] 0 39.8705 59.8399 10 /Helvetica SRX
grestore

gsave
0.14902 0.14902 0.14902 C
(0) [10] 0 63.8705 73.3015 10 /Helvetica SRX
grestore

gsave
0.14902 0.14902 0.14902 C
(0.001) [6 3 6 6 10] 0 42.8705 86.7632 10 /Helvetica SRX
grestore

gsave
0.14902 0.14902 0.14902 C
(0.002) [6 3 6 6 10] 0 42.8705 100.225 10 /Helvetica SRX
grestore

gsave
0.14902 0.14902 0.14902 C
(0.003) [6 3 6 6 10] 0 42.8705 113.686 10 /Helvetica SRX
grestore

2 LC
[16 0] 0 setdash
74.88 47.52 LS
187.093 47.52 LE
74.88 120.933 LS
187.093 120.933 LE
74.88 47.52 LS
74.88 120.933 LE
187.093 47.52 LS
187.093 120.933 LE
gsave
0 0 0 C
(tb_y_hat) [4 7 6 6 6 7 6 10] 0 107.986 133.933 11 /Helvetica-Bold SRX
grestore

0.9 0.9 0.9 C
74.88 47.52 74.88 66.4393 80.7859 47.52 T
80.7859 66.3618 80.7859 47.52 74.88 66.4393 T
86.6918 47.52 80.7859 47.52 80.7859 66.3618 T
86.6918 120.933 86.6918 47.52 80.7859 66.3618 T
92.5978 47.52 86.6918 47.52 86.6918 120.933 T
92.5978 106.753 92.5978 47.52 86.6918 120.933 T
98.5037 47.52 92.5978 47.52 92.5978 106.753 T
98.5037 97.236 98.5037 47.52 92.5978 106.753 T
104.41 47.52 98.5037 47.52 98.5037 97.236 T
104.41 91.4226 104.41 47.52 98.5037 97.236 T
110.316 47.52 104.41 47.52 104.41 91.4226 T
110.316 86.847 110.316 47.52 104.41 91.4226 T
116.221 47.52 110.316 47.52 110.316 86.847 T
116.221 83.1768 116.221 47.52 110.316 86.847 T
122.127 47.52 116.221 47.52 116.221 83.1768 T
122.127 81.0432 122.127 47.52 116.221 83.1768 T
128.033 47.52 122.127 47.52 122.127 81.0432 T
128.033 79.1915 128.033 47.52 122.127 81.0432 T
133.939 47.52 128.033 47.52 128.033 79.1915 T
133.939 78.0983 133.939 47.52 128.033 79.1915 T
139.845 47.52 133.939 47.52 133.939 78.0983 T
139.845 76.9418 139.845 47.52 133.939 78.0983 T
145.751 47.52 139.845 47.52 139.845 76.9418 T
145.751 76.1988 145.751 47.52 139.845 76.9418 T
151.657 47.52 145.751 47.52 145.751 76.1988 T
151.657 75.8964 151.657 47.52 145.751 76.1988 T
157.563 47.52 151.657 47.52 151.657 75.8964 T
157.563 75.6306 157.563 47.52 151.657 75.8964 T
163.469 47.52 157.563 47.52 157.563 75.6306 T
163.469 75.6104 163.469 47.52 157.563 75.6306 T
169.375 47.52 163.469 47.52 163.469 75.6104 T
169.375 75.5418 169.375 47.52 163.469 75.6104 T
175.281 47.52 169.375 47.52 169.375 75.5418 T
175.281 75.6705 175.281 47.52 169.375 75.5418 T
181.187 47.52 175.281 47.52 175.281 75.6705 T
181.187 75.7491 181.187 47.52 175.281 75.6705 T
187.093 47.52 181.187 47.52 181.187 75.7491 T
187.093 75.8845 187.093 47.52 181.187 75.7491 T
0 LC
[] 0 setdash
0 0 0 C
187.093 75.8845 LS
181.187 75.7491 L
175.281 75.6705 L
169.375 75.5418 L
163.469 75.6104 L
157.563 75.6306 L
151.657 75.8964 L
145.751 76.1988 L
139.845 76.9418 L
133.939 78.0983 L
128.033 79.1915 L
122.127 81.0432 L
116.221 83.1768 L
110.316 86.847 L
104.41 91.4226 L
98.5037 97.236 L
92.5978 106.753 L
86.6918 120.933 L
80.7859 66.3618 L
74.88 66.4393 L
74.88 47.52 L
80.7859 47.52 L
86.6918 47.52 L
92.5978 47.52 L
98.5037 47.52 L
104.41 47.52 L
110.316 47.52 L
116.221 47.52 L
122.127 47.52 L
128.033 47.52 L
133.939 47.52 L
139.845 47.52 L
145.751 47.52 L
151.657 47.52 L
157.563 47.52 L
163.469 47.52 L
169.375 47.52 L
175.281 47.52 L
181.187 47.52 L
187.093 47.52 L
187.093 75.8845 LE
1 1 1 C
74.88 47.52 80.7859 47.789 80.7859 47.52 T
86.6918 47.52 80.7859 47.52 80.7859 47.789 T
86.6918 96.0349 86.6918 47.52 80.7859 47.789 T
92.5978 47.52 86.6918 47.52 86.6918 96.0349 T
92.5978 91.2299 92.5978 47.52 86.6918 96.0349 T
98.5037 47.52 92.5978 47.52 92.5978 91.2299 T
98.5037 85.4923 98.5037 47.52 92.5978 91.2299 T
104.41 47.52 98.5037 47.52 98.5037 85.4923 T
104.41 80.8268 104.41 47.52 98.5037 85.4923 T
110.316 47.52 104.41 47.52 104.41 80.8268 T
110.316 77.3214 110.316 47.52 104.41 80.8268 T
116.221 47.52 110.316 47.52 110.316 77.3214 T
116.221 74.7729 116.221 47.52 110.316 77.3214 T
122.127 47.52 116.221 47.52 116.221 74.7729 T
122.127 73.7259 122.127 47.52 116.221 74.7729 T
128.033 47.52 122.127 47.52 122.127 73.7259 T
128.033 72.9024 128.033 47.52 122.127 73.7259 T
133.939 47.52 128.033 47.52 128.033 72.9024 T
133.939 72.8125 133.939 47.52 128.033 72.9024 T
139.845 47.52 133.939 47.52 133.939 72.8125 T
139.845 72.4345 139.845 47.52 133.939 72.8125 T
145.751 47.52 139.845 47.52 139.845 72.4345 T
145.751 72.372 145.751 47.52 139.845 72.4345 T
151.657 47.52 145.751 47.52 145.751 72.372 T
151.657 72.6299 151.657 47.52 145.751 72.372 T
157.563 47.52 151.657 47.52 151.657 72.6299 T
157.563 72.8216 157.563 47.52 151.657 72.6299 T
163.469 47.52 157.563 47.52 157.563 72.8216 T
163.469 73.1086 163.469 47.52 157.563 72.8216 T
169.375 47.52 163.469 47.52 163.469 73.1086 T
169.375 73.1891 169.375 47.52 163.469 73.1086 T
175.281 47.52 169.375 47.52 169.375 73.1891 T
175.281 73.4505 175.281 47.52 169.375 73.1891 T
181.187 47.52 175.281 47.52 175.281 73.4505 T
181.187 73.5756 181.187 47.52 175.281 73.4505 T
187.093 47.52 181.187 47.52 181.187 73.5756 T
187.093 73.7581 187.093 47.52 181.187 73.5756 T
0 0 0 C
187.093 73.7581 LS
181.187 73.5756 L
175.281 73.4505 L
169.375 73.1891 L
163.469 73.1086 L
157.563 72.8216 L
151.657 72.6299 L
145.751 72.372 L
139.845 72.4345 L
133.939 72.8125 L
128.033 72.9024 L
122.127 73.7259 L
116.221 74.7729 L
110.316 77.3214 L
104.41 80.8268 L
98.5037 85.4923 L
92.5978 91.2299 L
86.6918 96.0349 L
80.7859 47.789 L
74.88 47.52 L
80.7859 47.52 L
86.6918 47.52 L
92.5978 47.52 L
98.5037 47.52 L
104.41 47.52 L
110.316 47.52 L
116.221 47.52 L
122.127 47.52 L
128.033 47.52 L
133.939 47.52 L
139.845 47.52 L
145.751 47.52 L
151.657 47.52 L
157.563 47.52 L
163.469 47.52 L
169.375 47.52 L
175.281 47.52 L
181.187 47.52 L
187.093 47.52 L
187.093 73.7581 LE
3 W
1 LJ
74.88 56.2796 LS
80.7859 56.6498 L
86.6918 108.71 L
92.5978 98.6481 L
98.5037 91.212 L
104.41 85.843 L
110.316 82.0127 L
116.221 79.3117 L
122.127 77.435 L
128.033 76.1577 L
133.939 75.3149 L
139.845 74.785 L
145.751 74.479 L
151.657 74.3315 L
157.563 74.2944 L
163.469 74.3327 L
169.375 74.4207 L
175.281 74.5398 L
181.187 74.6769 L
187.093 74.8223 LE
grestore
gsave
1.0 1.0 scale
newpath 0 0 moveto 576 0 lineto 576 432 lineto 0 432 lineto
closepath clip
1 1 1 C
241.974 120.933 354.186 47.52 241.974 47.52 T
241.974 120.933 354.186 120.933 354.186 47.52 T
0.5 W
0.15 0.15 0.15 C
265.597 47.52 LS
265.597 48.6485 LE
265.597 120.933 LS
265.597 119.805 LE
295.127 47.52 LS
295.127 48.6485 LE
295.127 120.933 LS
295.127 119.805 LE
324.657 47.52 LS
324.657 48.6485 LE
324.657 120.933 LS
324.657 119.805 LE
354.186 47.52 LS
354.186 48.6485 LE
354.186 120.933 LS
354.186 119.805 LE
gsave
0.14902 0.14902 0.14902 C
(5) [10] 0 262.597 31.9776 10 /Helvetica SRX
grestore

gsave
0.14902 0.14902 0.14902 C
(10) [6 10] 0 289.127 31.9776 10 /Helvetica SRX
grestore

gsave
0.14902 0.14902 0.14902 C
(15) [6 10] 0 318.657 31.9776 10 /Helvetica SRX
grestore

gsave
0.14902 0.14902 0.14902 C
(20) [6 10] 0 348.186 31.9776 10 /Helvetica SRX
grestore

241.974 59.0325 LS
243.098 59.0325 LE
354.186 59.0325 LS
353.062 59.0325 LE
241.974 72.6969 LS
243.098 72.6969 LE
354.186 72.6969 LS
353.062 72.6969 LE
241.974 86.3614 LS
243.098 86.3614 LE
354.186 86.3614 LS
353.062 86.3614 LE
241.974 100.026 LS
243.098 100.026 LE
354.186 100.026 LS
353.062 100.026 LE
241.974 113.69 LS
243.098 113.69 LE
354.186 113.69 LS
353.062 113.69 LE
gsave
0.14902 0.14902 0.14902 C
(-0.01) [3 6 3 6 10] 0 212.964 55.0325 10 /Helvetica SRX
grestore

gsave
0.14902 0.14902 0.14902 C
(-0.005) [3 6 3 6 6 10] 0 206.964 68.6969 10 /Helvetica SRX
grestore

gsave
0.14902 0.14902 0.14902 C
(0) [10] 0 230.964 82.3614 10 /Helvetica SRX
grestore

gsave
0.14902 0.14902 0.14902 C
(0.005) [6 3 6 6 10] 0 209.964 96.0258 10 /Helvetica SRX
grestore

gsave
0.14902 0.14902 0.14902 C
(0.01) [6 3 6 10] 0 215.964 109.69 10 /Helvetica SRX
grestore

2 LC
[16 0] 0 setdash
241.974 47.52 LS
354.186 47.52 LE
241.974 120.933 LS
354.186 120.933 LE
241.974 47.52 LS
241.974 120.933 LE
354.186 47.52 LS
354.186 120.933 LE
gsave
0 0 0 C
(D_hat) [8 6 7 6 10] 0 282.58 132.933 11 /Helvetica-Bold SRX
grestore

0.9 0.9 0.9 C
241.974 47.52 241.974 104.068 247.88 47.52 T
247.88 120.933 247.88 47.52 241.974 104.068 T
253.786 47.52 247.88 47.52 247.88 120.933 T
253.786 103.68 253.786 47.52 247.88 120.933 T
259.691 47.52 253.786 47.52 253.786 103.68 T
259.691 91.241 259.691 47.52 253.786 103.68 T
265.597 47.52 259.691 47.52 259.691 91.241 T
265.597 84.4309 265.597 47.52 259.691 91.241 T
271.503 47.52 265.597 47.52 265.597 84.4309 T
271.503 78.326 271.503 47.52 265.597 84.4309 T
277.409 47.52 271.503 47.52 271.503 78.326 T
277.409 75.5022 277.409 47.52 271.503 78.326 T
283.315 47.52 277.409 47.52 277.409 75.5022 T
283.315 73.2405 283.315 47.52 277.409 75.5022 T
289.221 47.52 283.315 47.52 283.315 73.2405 T
289.221 73.5892 289.221 47.52 283.315 73.2405 T
295.127 47.52 289.221 47.52 289.221 73.5892 T
295.127 72.5232 295.127 47.52 289.221 73.5892 T
301.033 47.52 295.127 47.52 295.127 72.5232 T
301.033 72.9565 301.033 47.52 295.127 72.5232 T
306.939 47.52 301.033 47.52 301.033 72.9565 T
306.939 74.0625 306.939 47.52 301.033 72.9565 T
312.845 47.52 306.939 47.52 306.939 74.0625 T
312.845 75.7695 312.845 47.52 306.939 74.0625 T
318.751 47.52 312.845 47.52 312.845 75.7695 T
318.751 76.6495 318.751 47.52 312.845 75.7695 T
324.657 47.52 318.751 47.52 318.751 76.6495 T
324.657 78.2031 324.657 47.52 318.751 76.6495 T
330.563 47.52 324.657 47.52 324.657 78.2031 T
330.563 78.0739 330.563 47.52 324.657 78.2031 T
336.469 47.52 330.563 47.52 330.563 78.0739 T
336.469 79.3152 336.469 47.52 330.563 78.0739 T
342.374 47.52 336.469 47.52 336.469 79.3152 T
342.374 79.8021 342.374 47.52 336.469 79.3152 T
348.28 47.52 342.374 47.52 342.374 79.8021 T
348.28 80.2508 348.28 47.52 342.374 79.8021 T
354.186 47.52 348.28 47.52 348.28 80.2508 T
354.186 80.6493 354.186 47.52 348.28 80.2508 T
0 LC
[] 0 setdash
0 0 0 C
354.186 80.6493 LS
348.28 80.2508 L
342.374 79.8021 L
336.469 79.3152 L
330.563 78.0739 L
324.657 78.2031 L
318.751 76.6495 L
312.845 75.7695 L
306.939 74.0625 L
301.033 72.9565 L
295.127 72.5232 L
289.221 73.5892 L
283.315 73.2405 L
277.409 75.5022 L
271.503 78.326 L
265.597 84.4309 L
259.691 91.241 L
253.786 103.68 L
247.88 120.933 L
241.974 104.068 L
241.974 47.52 L
247.88 47.52 L
253.786 47.52 L
259.691 47.52 L
265.597 47.52 L
271.503 47.52 L
277.409 47.52 L
283.315 47.52 L
289.221 47.52 L
295.127 47.52 L
301.033 47.52 L
306.939 47.52 L
312.845 47.52 L
318.751 47.52 L
324.657 47.52 L
330.563 47.52 L
336.469 47.52 L
342.374 47.52 L
348.28 47.52 L
354.186 47.52 L
354.186 80.6493 LE
1 1 1 C
301.033 47.52 306.939 48.1515 306.939 47.52 T
312.845 47.52 306.939 47.52 306.939 48.1515 T
312.845 49.3689 312.845 47.52 306.939 48.1515 T
318.751 47.52 312.845 47.52 312.845 49.3689 T
318.751 50.12 318.751 47.52 312.845 49.3689 T
324.657 47.52 318.751 47.52 318.751 50.12 T
324.657 52.1706 324.657 47.52 318.751 50.12 T
330.563 47.52 324.657 47.52 324.657 52.1706 T
330.563 52.4919 330.563 47.52 324.657 52.1706 T
336.469 47.52 330.563 47.52 330.563 52.4919 T
336.469 54.3858 336.469 47.52 330.563 52.4919 T
342.374 47.52 336.469 47.52 336.469 54.3858 T
342.374 55.3769 342.374 47.52 336.469 54.3858 T
348.28 47.52 342.374 47.52 342.374 55.3769 T
348.28 56.3218 348.28 47.52 342.374 55.3769 T
354.186 47.52 348.28 47.52 348.28 56.3218 T
354.186 57.3879 354.186 47.52 348.28 56.3218 T
241.974 47.52 241.974 92.8997 247.88 47.52 T
247.88 98.5224 247.88 47.52 241.974 92.8997 T
253.786 47.52 247.88 47.52 247.88 98.5224 T
253.786 80.9123 253.786 47.52 247.88 98.5224 T
259.691 47.52 253.786 47.52 253.786 80.9123 T
259.691 67.7115 259.691 47.52 253.786 80.9123 T
265.597 47.52 259.691 47.52 259.691 67.7115 T
265.597 60.1415 265.597 47.52 259.691 67.7115 T
271.503 47.52 265.597 47.52 265.597 60.1415 T
271.503 54.1665 271.503 47.52 265.597 60.1415 T
277.409 47.52 271.503 47.52 271.503 54.1665 T
277.409 51.4395 277.409 47.52 271.503 54.1665 T
283.315 47.52 277.409 47.52 277.409 51.4395 T
283.315 49.2129 283.315 47.52 277.409 51.4395 T
289.221 47.52 283.315 47.52 283.315 49.2129 T
289.221 49.5499 289.221 47.52 283.315 49.2129 T
295.127 47.52 289.221 47.52 289.221 49.5499 T
295.127 47.7692 295.127 47.52 289.221 49.5499 T
301.033 47.52 295.127 47.52 295.127 47.7692 T
0 0 0 C
301.033 47.52 LS
295.127 47.7692 L
289.221 49.5499 L
283.315 49.2129 L
277.409 51.4395 L
271.503 54.1665 L
265.597 60.1415 L
259.691 67.7115 L
253.786 80.9123 L
247.88 98.5224 L
241.974 92.8997 L
241.974 47.52 L
247.88 47.52 L
253.786 47.52 L
259.691 47.52 L
265.597 47.52 L
271.503 47.52 L
277.409 47.52 L
283.315 47.52 L
289.221 47.52 L
295.127 47.52 L
301.033 47.52 LE
354.186 57.3879 LS
348.28 56.3218 L
342.374 55.3769 L
336.469 54.3858 L
330.563 52.4919 L
324.657 52.1706 L
318.751 50.12 L
312.845 49.3689 L
306.939 48.1515 L
301.033 47.52 L
306.939 47.52 L
312.845 47.52 L
318.751 47.52 L
324.657 47.52 L
330.563 47.52 L
336.469 47.52 L
342.374 47.52 L
348.28 47.52 L
354.186 47.52 L
354.186 57.3879 LE
3 W
1 LJ
241.974 98.0442 LS
247.88 109.659 L
253.786 92.1912 L
259.691 80.1802 L
265.597 72.0329 L
271.503 66.6728 L
277.409 63.3183 L
283.315 61.3963 L
289.221 60.4869 L
295.127 60.2827 L
301.033 60.5591 L
306.939 61.1527 L
312.845 61.9455 L
318.751 62.8525 L
324.657 63.8137 L
330.563 64.7869 L
336.469 65.7436 L
342.374 66.6647 L
348.28 67.5384 L
354.186 68.3579 LE
grestore
gsave
1.0 1.0 scale
newpath 0 0 moveto 576 0 lineto 576 432 lineto 0 432 lineto
closepath clip
1 1 1 C
409.067 120.933 521.28 47.52 409.067 47.52 T
409.067 120.933 521.28 120.933 521.28 47.52 T
0.5 W
0.15 0.15 0.15 C
432.691 47.52 LS
432.691 48.6485 LE
432.691 120.933 LS
432.691 119.805 LE
462.221 47.52 LS
462.221 48.6485 LE
462.221 120.933 LS
462.221 119.805 LE
491.75 47.52 LS
491.75 48.6485 LE
491.75 120.933 LS
491.75 119.805 LE
521.28 47.52 LS
521.28 48.6485 LE
521.28 120.933 LS
521.28 119.805 LE
gsave
0.14902 0.14902 0.14902 C
(5) [10] 0 429.691 31.9776 10 /Helvetica SRX
grestore

gsave
0.14902 0.14902 0.14902 C
(10) [6 10] 0 456.221 31.9776 10 /Helvetica SRX
grestore

gsave
0.14902 0.14902 0.14902 C
(15) [6 10] 0 485.75 31.9776 10 /Helvetica SRX
grestore

gsave
0.14902 0.14902 0.14902 C
(20) [6 10] 0 515.28 31.9776 10 /Helvetica SRX
grestore

409.067 60.4659 LS
410.192 60.4659 LE
521.28 60.4659 LS
520.156 60.4659 LE
409.067 75.6665 LS
410.192 75.6665 LE
521.28 75.6665 LS
520.156 75.6665 LE
409.067 90.8671 LS
410.192 90.8671 LE
521.28 90.8671 LS
520.156 90.8671 LE
409.067 106.068 LS
410.192 106.068 LE
521.28 106.068 LS
520.156 106.068 LE
gsave
0.14902 0.14902 0.14902 C
(0.0005) [6 3 6 6 6 10] 0 371.058 56.4659 10 /Helvetica SRX
grestore

gsave
0.14902 0.14902 0.14902 C
(0.001) [6 3 6 6 10] 0 377.058 71.6665 10 /Helvetica SRX
grestore

gsave
0.14902 0.14902 0.14902 C
(0.0015) [6 3 6 6 6 10] 0 371.058 86.8671 10 /Helvetica SRX
grestore

gsave
0.14902 0.14902 0.14902 C
(0.002) [6 3 6 6 10] 0 377.058 102.068 10 /Helvetica SRX
grestore

2 LC
[16 0] 0 setdash
409.067 47.52 LS
521.28 47.52 LE
409.067 120.933 LS
521.28 120.933 LE
409.067 47.52 LS
409.067 120.933 LE
521.28 47.52 LS
521.28 120.933 LE
gsave
0 0 0 C
(reer_hat) [4 6 6 4 6 7 6 10] 0 443.674 132.933 11 /Helvetica-Bold SRX
grestore

0.9 0.9 0.9 C
409.067 47.52 409.067 85.2606 414.973 47.52 T
414.973 91.5376 414.973 47.52 409.067 85.2606 T
420.879 47.52 414.973 47.52 414.973 91.5376 T
420.879 113.676 420.879 47.52 414.973 91.5376 T
426.785 47.52 420.879 47.52 420.879 113.676 T
426.785 120.933 426.785 47.52 420.879 113.676 T
432.691 47.52 426.785 47.52 426.785 120.933 T
432.691 116.745 432.691 47.52 426.785 120.933 T
438.597 47.52 432.691 47.52 432.691 116.745 T
438.597 111.322 438.597 47.52 432.691 116.745 T
444.503 47.52 438.597 47.52 438.597 111.322 T
444.503 104.603 444.503 47.52 438.597 111.322 T
450.409 47.52 444.503 47.52 444.503 104.603 T
450.409 101.929 450.409 47.52 444.503 104.603 T
456.315 47.52 450.409 47.52 450.409 101.929 T
456.315 94.3299 456.315 47.52 450.409 101.929 T
462.221 47.52 456.315 47.52 456.315 94.3299 T
462.221 89.249 462.221 47.52 456.315 94.3299 T
468.127 47.52 462.221 47.52 462.221 89.249 T
468.127 84.0222 468.127 47.52 462.221 89.249 T
474.033 47.52 468.127 47.52 468.127 84.0222 T
474.033 80.6873 474.033 47.52 468.127 84.0222 T
479.939 47.52 474.033 47.52 474.033 80.6873 T
479.939 76.993 479.939 47.52 474.033 80.6873 T
485.844 47.52 479.939 47.52 479.939 76.993 T
485.844 73.6198 485.844 47.52 479.939 76.993 T
491.75 47.52 485.844 47.52 485.844 73.6198 T
491.75 70.1948 491.75 47.52 485.844 73.6198 T
497.656 47.52 491.75 47.52 491.75 70.1948 T
497.656 67.5243 497.656 47.52 491.75 70.1948 T
503.562 47.52 497.656 47.52 497.656 67.5243 T
503.562 65.3508 503.562 47.52 497.656 67.5243 T
509.468 47.52 503.562 47.52 503.562 65.3508 T
509.468 63.5312 509.468 47.52 503.562 65.3508 T
515.374 47.52 509.468 47.52 509.468 63.5312 T
515.374 61.7414 515.374 47.52 509.468 63.5312 T
521.28 47.52 515.374 47.52 515.374 61.7414 T
521.28 60.2609 521.28 47.52 515.374 61.7414 T
0 LC
[] 0 setdash
0 0 0 C
521.28 60.2609 LS
515.374 61.7414 L
509.468 63.5312 L
503.562 65.3508 L
497.656 67.5243 L
491.75 70.1948 L
485.844 73.6198 L
479.939 76.993 L
474.033 80.6873 L
468.127 84.0222 L
462.221 89.249 L
456.315 94.3299 L
450.409 101.929 L
444.503 104.603 L
438.597 111.322 L
432.691 116.745 L
426.785 120.933 L
420.879 113.676 L
414.973 91.5376 L
409.067 85.2606 L
409.067 47.52 L
414.973 47.52 L
420.879 47.52 L
426.785 47.52 L
432.691 47.52 L
438.597 47.52 L
444.503 47.52 L
450.409 47.52 L
456.315 47.52 L
462.221 47.52 L
468.127 47.52 L
474.033 47.52 L
479.939 47.52 L
485.844 47.52 L
491.75 47.52 L
497.656 47.52 L
503.562 47.52 L
509.468 47.52 L
515.374 47.52 L
521.28 47.52 L
521.28 60.2609 LE
1 1 1 C
409.067 47.52 409.067 59.2335 414.973 47.52 T
414.973 62.2546 414.973 47.52 409.067 59.2335 T
420.879 47.52 414.973 47.52 414.973 62.2546 T
420.879 68.8256 420.879 47.52 414.973 62.2546 T
426.785 47.52 420.879 47.52 420.879 68.8256 T
426.785 71.3901 426.785 47.52 420.879 68.8256 T
432.691 47.52 426.785 47.52 426.785 71.3901 T
432.691 68.1211 432.691 47.52 426.785 71.3901 T
438.597 47.52 432.691 47.52 432.691 68.1211 T
438.597 65.4791 438.597 47.52 432.691 68.1211 T
444.503 47.52 438.597 47.52 438.597 65.4791 T
444.503 61.5453 444.503 47.52 438.597 65.4791 T
450.409 47.52 444.503 47.52 444.503 61.5453 T
450.409 61.7941 450.409 47.52 444.503 61.5453 T
456.315 47.52 450.409 47.52 450.409 61.7941 T
456.315 56.987 456.315 47.52 450.409 61.7941 T
462.221 47.52 456.315 47.52 456.315 56.987 T
462.221 54.7205 462.221 47.52 456.315 56.987 T
468.127 47.52 462.221 47.52 462.221 54.7205 T
468.127 52.5759 468.127 47.52 462.221 54.7205 T
474.033 47.52 468.127 47.52 468.127 52.5759 T
474.033 51.5532 474.033 47.52 468.127 52.5759 T
479.939 47.52 474.033 47.52 474.033 51.5532 T
479.939 50.5791 479.939 47.52 474.033 51.5532 T
485.844 47.52 479.939 47.52 479.939 50.5791 T
485.844 49.8583 485.844 47.52 479.939 50.5791 T
491.75 47.52 485.844 47.52 485.844 49.8583 T
491.75 48.9004 491.75 47.52 485.844 49.8583 T
497.656 47.52 491.75 47.52 491.75 48.9004 T
497.656 48.3548 497.656 47.52 491.75 48.9004 T
503.562 47.52 497.656 47.52 497.656 48.3548 T
503.562 48.0573 503.562 47.52 497.656 48.3548 T
509.468 47.52 503.562 47.52 503.562 48.0573 T
509.468 47.901 509.468 47.52 503.562 48.0573 T
515.374 47.52 509.468 47.52 509.468 47.901 T
515.374 47.7127 515.374 47.52 509.468 47.901 T
521.28 47.52 515.374 47.52 515.374 47.7127 T
0 0 0 C
521.28 47.52 LS
515.374 47.7127 L
509.468 47.901 L
503.562 48.0573 L
497.656 48.3548 L
491.75 48.9004 L
485.844 49.8583 L
479.939 50.5791 L
474.033 51.5532 L
468.127 52.5759 L
462.221 54.7205 L
456.315 56.987 L
450.409 61.7941 L
444.503 61.5453 L
438.597 65.4791 L
432.691 68.1211 L
426.785 71.3901 L
420.879 68.8256 L
414.973 62.2546 L
409.067 59.2335 L
409.067 47.52 L
414.973 47.52 L
420.879 47.52 L
426.785 47.52 L
432.691 47.52 L
438.597 47.52 L
444.503 47.52 L
450.409 47.52 L
456.315 47.52 L
462.221 47.52 L
468.127 47.52 L
474.033 47.52 L
479.939 47.52 L
485.844 47.52 L
491.75 47.52 L
497.656 47.52 L
503.562 47.52 L
509.468 47.52 L
515.374 47.52 L
521.28 47.52 LE
3 W
1 LJ
409.067 72.2251 LS
414.973 77.3535 L
420.879 89.6079 L
426.785 93.3491 L
432.691 92.4162 L
438.597 89.3091 L
444.503 85.326 L
450.409 81.143 L
456.315 77.1076 L
462.221 73.3875 L
468.127 70.0497 L
474.033 67.1066 L
479.939 64.5408 L
485.844 62.3209 L
491.75 60.4097 L
497.656 58.7694 L
503.562 57.3641 L
509.468 56.1608 L
515.374 55.1303 L
521.28 54.247 LE
grestore
grestore
showpage
cleartomark
%%PageTrailer
%%Trailer
end
%%EOF
