%!PS-Adobe-3.0 EPSF-3.0
%%Title: gl2ps_renderer figure
%%Creator: GL2PS 1.4.2, (C) 1999-2020 C. Geuzaine
%%For: Octave
%%CreationDate: Wed Oct  7 07:02:33 2020
%%LanguageLevel: 3
%%DocumentData: Clean7Bit
%%Pages: 1
%%BoundingBox: 0 0 576 432
%%EndComments
%%BeginProlog
/gl2psdict 64 dict def gl2psdict begin
/tryPS3shading false def % set to false to force subdivision
/rThreshold 0.064 def % red component subdivision threshold
/gThreshold 0.034 def % green component subdivision threshold
/bThreshold 0.1 def % blue component subdivision threshold
/BD { bind def } bind def
/C  { setrgbcolor } BD
/G  { 0.082 mul exch 0.6094 mul add exch 0.3086 mul add neg 1.0 add setgray } BD
/W  { setlinewidth } BD
/LC  { setlinecap } BD
/LJ  { setlinejoin } BD
/FC { findfont exch /SH exch def SH scalefont setfont } BD
/SW { dup stringwidth pop } BD
/S  { FC moveto show } BD
/SBC{ FC moveto SW -2 div 0 rmoveto show } BD
/SBR{ FC moveto SW neg 0 rmoveto show } BD
/SCL{ FC moveto 0 SH -2 div rmoveto show } BD
/SCC{ FC moveto SW -2 div SH -2 div rmoveto show } BD
/SCR{ FC moveto SW neg SH -2 div rmoveto show } BD
/STL{ FC moveto 0 SH neg rmoveto show } BD
/STC{ FC moveto SW -2 div SH neg rmoveto show } BD
/STR{ FC moveto SW neg SH neg rmoveto show } BD
/FCT { FC translate 0 0 } BD
/SR  { gsave FCT moveto rotate show grestore } BD
/SRX  { gsave FCT moveto rotate xshow grestore } BD
/SBCR{ gsave FCT moveto rotate SW -2 div 0 rmoveto show grestore } BD
/SBRR{ gsave FCT moveto rotate SW neg 0 rmoveto show grestore } BD
/SCLR{ gsave FCT moveto rotate 0 SH -2 div rmoveto show grestore} BD
/SCCR{ gsave FCT moveto rotate SW -2 div SH -2 div rmoveto show grestore} BD
/SCRR{ gsave FCT moveto rotate SW neg SH -2 div rmoveto show grestore} BD
/STLR{ gsave FCT moveto rotate 0 SH neg rmoveto show grestore } BD
/STCR{ gsave FCT moveto rotate SW -2 div SH neg rmoveto show grestore } BD
/STRR{ gsave FCT moveto rotate SW neg SH neg rmoveto show grestore } BD
/P  { newpath 0.0 360.0 arc closepath fill } BD
/LS { newpath moveto } BD
/L  { lineto } BD
/LE { lineto stroke } BD
/T  { newpath moveto lineto lineto closepath fill } BD
/STshfill {
      /b1 exch def /g1 exch def /r1 exch def /y1 exch def /x1 exch def
      /b2 exch def /g2 exch def /r2 exch def /y2 exch def /x2 exch def
      /b3 exch def /g3 exch def /r3 exch def /y3 exch def /x3 exch def
      gsave << /ShadingType 4 /ColorSpace [/DeviceRGB]
      /DataSource [ 0 x1 y1 r1 g1 b1 0 x2 y2 r2 g2 b2 0 x3 y3 r3 g3 b3 ] >>
      shfill grestore } BD
/Tm { 3 -1 roll 8 -1 roll 13 -1 roll add add 3 div
      3 -1 roll 7 -1 roll 11 -1 roll add add 3 div
      3 -1 roll 6 -1 roll 9 -1 roll add add 3 div C T } BD
/STsplit {
      4 index 15 index add 0.5 mul
      4 index 15 index add 0.5 mul
      4 index 15 index add 0.5 mul
      4 index 15 index add 0.5 mul
      4 index 15 index add 0.5 mul
      5 copy 5 copy 25 15 roll
      9 index 30 index add 0.5 mul
      9 index 30 index add 0.5 mul
      9 index 30 index add 0.5 mul
      9 index 30 index add 0.5 mul
      9 index 30 index add 0.5 mul
      5 copy 5 copy 35 5 roll 25 5 roll 15 5 roll
      4 index 10 index add 0.5 mul
      4 index 10 index add 0.5 mul
      4 index 10 index add 0.5 mul
      4 index 10 index add 0.5 mul
      4 index 10 index add 0.5 mul
      5 copy 5 copy 40 5 roll 25 5 roll 15 5 roll 25 5 roll
      STnoshfill STnoshfill STnoshfill STnoshfill } BD
/STnoshfill {
      2 index 8 index sub abs rThreshold gt
      { STsplit }
      { 1 index 7 index sub abs gThreshold gt
        { STsplit }
        { dup 6 index sub abs bThreshold gt
          { STsplit }
          { 2 index 13 index sub abs rThreshold gt
            { STsplit }
            { 1 index 12 index sub abs gThreshold gt
              { STsplit }
              { dup 11 index sub abs bThreshold gt
                { STsplit }
                { 7 index 13 index sub abs rThreshold gt
                  { STsplit }
                  { 6 index 12 index sub abs gThreshold gt
                    { STsplit }
                    { 5 index 11 index sub abs bThreshold gt
                      { STsplit }
                      { Tm }
                      ifelse }
                    ifelse }
                  ifelse }
                ifelse }
              ifelse }
            ifelse }
          ifelse }
        ifelse }
      ifelse } BD
tryPS3shading
{ /shfill where
  { /ST { STshfill } BD }
  { /ST { STnoshfill } BD }
  ifelse }
{ /ST { STnoshfill } BD }
ifelse
end
%%EndProlog
%%BeginSetup
/DeviceRGB setcolorspace
gl2psdict begin
%%EndSetup
%%Page: 1 1
%%BeginPageSetup
%%EndPageSetup
mark
gsave
1.0 1.0 scale
1 1 1 C
newpath 0 0 moveto 576 0 lineto 576 432 lineto 0 432 lineto
closepath fill
gsave
1.0 1.0 scale
1 1 1 C
newpath 0 0 moveto 576 0 lineto 576 432 lineto 0 432 lineto
closepath fill
newpath 0 0 moveto 576 0 lineto 576 432 lineto 0 432 lineto
closepath clip
1 1 1 C
74.88 386.841 187.093 312.427 74.88 312.427 T
74.88 386.841 187.093 386.841 187.093 312.427 T
0.5 W
0.15 0.15 0.15 C
98.5037 312.427 LS
98.5037 313.556 LE
98.5037 386.841 LS
98.5037 385.712 LE
128.033 312.427 LS
128.033 313.556 LE
128.033 386.841 LS
128.033 385.712 LE
157.563 312.427 LS
157.563 313.556 LE
157.563 386.841 LS
157.563 385.712 LE
187.093 312.427 LS
187.093 313.556 LE
187.093 386.841 LS
187.093 385.712 LE
gsave
0.14902 0.14902 0.14902 C
(5) [10] 0 95.5037 296.886 10 /Helvetica SRX
grestore

gsave
0.14902 0.14902 0.14902 C
(10) [6 10] 0 122.033 296.886 10 /Helvetica SRX
grestore

gsave
0.14902 0.14902 0.14902 C
(15) [6 10] 0 151.563 296.886 10 /Helvetica SRX
grestore

gsave
0.14902 0.14902 0.14902 C
(20) [6 10] 0 181.093 296.886 10 /Helvetica SRX
grestore

74.88 314.286 LS
76.0043 314.286 LE
187.093 314.286 LS
185.968 314.286 LE
74.88 334.39 LS
76.0043 334.39 LE
187.093 334.39 LS
185.968 334.39 LE
74.88 354.494 LS
76.0043 354.494 LE
187.093 354.494 LS
185.968 354.494 LE
74.88 374.598 LS
76.0043 374.598 LE
187.093 374.598 LS
185.968 374.598 LE
gsave
0.14902 0.14902 0.14902 C
(0) [10] 0 63.8705 310.286 10 /Helvetica SRX
grestore

gsave
0.14902 0.14902 0.14902 C
(0.01) [6 3 6 10] 0 48.8705 330.39 10 /Helvetica SRX
grestore

gsave
0.14902 0.14902 0.14902 C
(0.02) [6 3 6 10] 0 48.8705 350.494 10 /Helvetica SRX
grestore

gsave
0.14902 0.14902 0.14902 C
(0.03) [6 3 6 10] 0 48.8705 370.598 10 /Helvetica SRX
grestore

2 LC
[16 0] 0 setdash
74.88 312.427 LS
187.093 312.427 LE
74.88 386.841 LS
187.093 386.841 LE
74.88 312.427 LS
74.88 386.841 LE
187.093 312.427 LS
187.093 386.841 LE
gsave
0 0 0 C
(Y_T_hat) [7 6 7 6 7 6 10] 0 109.486 398.841 11 /Helvetica-Bold SRX
grestore

0.9 0.9 0.9 C
74.88 312.427 74.88 313.781 80.7859 312.427 T
80.7859 315.085 80.7859 312.427 74.88 313.781 T
86.6918 312.427 80.7859 312.427 80.7859 315.085 T
86.6918 317.629 86.6918 312.427 80.7859 315.085 T
92.5978 312.427 86.6918 312.427 86.6918 317.629 T
92.5978 323.168 92.5978 312.427 86.6918 317.629 T
98.5037 312.427 92.5978 312.427 92.5978 323.168 T
98.5037 386.841 98.5037 312.427 92.5978 323.168 T
104.41 312.427 98.5037 312.427 98.5037 386.841 T
104.41 385.118 104.41 312.427 98.5037 386.841 T
110.316 312.427 104.41 312.427 104.41 385.118 T
110.316 381.732 110.316 312.427 104.41 385.118 T
116.221 312.427 110.316 312.427 110.316 381.732 T
116.221 375.65 116.221 312.427 110.316 381.732 T
122.127 312.427 116.221 312.427 116.221 375.65 T
122.127 372.521 122.127 312.427 116.221 375.65 T
128.033 312.427 122.127 312.427 122.127 372.521 T
128.033 367.525 128.033 312.427 122.127 372.521 T
133.939 312.427 128.033 312.427 128.033 367.525 T
133.939 363.189 133.939 312.427 128.033 367.525 T
139.845 312.427 133.939 312.427 133.939 363.189 T
139.845 359.665 139.845 312.427 133.939 363.189 T
145.751 312.427 139.845 312.427 139.845 359.665 T
145.751 356.43 145.751 312.427 139.845 359.665 T
151.657 312.427 145.751 312.427 145.751 356.43 T
151.657 353.533 151.657 312.427 145.751 356.43 T
157.563 312.427 151.657 312.427 151.657 353.533 T
157.563 350.892 157.563 312.427 151.657 353.533 T
163.469 312.427 157.563 312.427 157.563 350.892 T
163.469 348.8 163.469 312.427 157.563 350.892 T
169.375 312.427 163.469 312.427 163.469 348.8 T
169.375 346.659 169.375 312.427 163.469 348.8 T
175.281 312.427 169.375 312.427 169.375 346.659 T
175.281 344.806 175.281 312.427 169.375 346.659 T
181.187 312.427 175.281 312.427 175.281 344.806 T
181.187 342.794 181.187 312.427 175.281 344.806 T
187.093 312.427 181.187 312.427 181.187 342.794 T
187.093 341.404 187.093 312.427 181.187 342.794 T
0 LC
[] 0 setdash
0 0 0 C
187.093 341.404 LS
181.187 342.794 L
175.281 344.806 L
169.375 346.659 L
163.469 348.8 L
157.563 350.892 L
151.657 353.533 L
145.751 356.43 L
139.845 359.665 L
133.939 363.189 L
128.033 367.525 L
122.127 372.521 L
116.221 375.65 L
110.316 381.732 L
104.41 385.118 L
98.5037 386.841 L
92.5978 323.168 L
86.6918 317.629 L
80.7859 315.085 L
74.88 313.781 L
74.88 312.427 L
80.7859 312.427 L
86.6918 312.427 L
92.5978 312.427 L
98.5037 312.427 L
104.41 312.427 L
110.316 312.427 L
116.221 312.427 L
122.127 312.427 L
128.033 312.427 L
133.939 312.427 L
139.845 312.427 L
145.751 312.427 L
151.657 312.427 L
157.563 312.427 L
163.469 312.427 L
169.375 312.427 L
175.281 312.427 L
181.187 312.427 L
187.093 312.427 L
187.093 341.404 LE
1 1 1 C
74.88 312.427 80.7859 313.479 80.7859 312.427 T
86.6918 312.427 80.7859 312.427 80.7859 313.479 T
86.6918 314.775 86.6918 312.427 80.7859 313.479 T
92.5978 312.427 86.6918 312.427 86.6918 314.775 T
92.5978 317.807 92.5978 312.427 86.6918 314.775 T
98.5037 312.427 92.5978 312.427 92.5978 317.807 T
98.5037 357.509 98.5037 312.427 92.5978 317.807 T
104.41 312.427 98.5037 312.427 98.5037 357.509 T
104.41 356.534 104.41 312.427 98.5037 357.509 T
110.316 312.427 104.41 312.427 104.41 356.534 T
110.316 354.966 110.316 312.427 104.41 356.534 T
116.221 312.427 110.316 312.427 110.316 354.966 T
116.221 350.83 116.221 312.427 110.316 354.966 T
122.127 312.427 116.221 312.427 116.221 350.83 T
122.127 349.53 122.127 312.427 116.221 350.83 T
128.033 312.427 122.127 312.427 122.127 349.53 T
128.033 346.2 128.033 312.427 122.127 349.53 T
133.939 312.427 128.033 312.427 128.033 346.2 T
133.939 343.505 133.939 312.427 128.033 346.2 T
139.845 312.427 133.939 312.427 133.939 343.505 T
139.845 341.472 139.845 312.427 133.939 343.505 T
145.751 312.427 139.845 312.427 139.845 341.472 T
145.751 339.609 145.751 312.427 139.845 341.472 T
151.657 312.427 145.751 312.427 145.751 339.609 T
151.657 337.793 151.657 312.427 145.751 339.609 T
157.563 312.427 151.657 312.427 151.657 337.793 T
157.563 336.069 157.563 312.427 151.657 337.793 T
163.469 312.427 157.563 312.427 157.563 336.069 T
163.469 334.877 163.469 312.427 157.563 336.069 T
169.375 312.427 163.469 312.427 163.469 334.877 T
169.375 333.549 169.375 312.427 163.469 334.877 T
175.281 312.427 169.375 312.427 169.375 333.549 T
175.281 332.375 175.281 312.427 169.375 333.549 T
181.187 312.427 175.281 312.427 175.281 332.375 T
181.187 331.026 181.187 312.427 175.281 332.375 T
187.093 312.427 181.187 312.427 181.187 331.026 T
187.093 330.23 187.093 312.427 181.187 331.026 T
0 0 0 C
187.093 330.23 LS
181.187 331.026 L
175.281 332.375 L
169.375 333.549 L
163.469 334.877 L
157.563 336.069 L
151.657 337.793 L
145.751 339.609 L
139.845 341.472 L
133.939 343.505 L
128.033 346.2 L
122.127 349.53 L
116.221 350.83 L
110.316 354.966 L
104.41 356.534 L
98.5037 357.509 L
92.5978 317.807 L
86.6918 314.775 L
80.7859 313.479 L
74.88 312.427 L
80.7859 312.427 L
86.6918 312.427 L
92.5978 312.427 L
98.5037 312.427 L
104.41 312.427 L
110.316 312.427 L
116.221 312.427 L
122.127 312.427 L
128.033 312.427 L
133.939 312.427 L
139.845 312.427 L
145.751 312.427 L
151.657 312.427 L
157.563 312.427 L
163.469 312.427 L
169.375 312.427 L
175.281 312.427 L
181.187 312.427 L
187.093 312.427 L
187.093 330.23 LE
3 W
1 LJ
74.88 313.107 LS
80.7859 314.208 L
86.6918 316.272 L
92.5978 320.43 L
98.5037 373.023 L
104.41 371.331 L
110.316 367.728 L
116.221 363.849 L
122.127 360.126 L
128.033 356.68 L
133.939 353.536 L
139.845 350.684 L
145.751 348.105 L
151.657 345.775 L
157.563 343.671 L
163.469 341.77 L
169.375 340.053 L
175.281 338.499 L
181.187 337.093 L
187.093 335.819 LE
grestore
gsave
1.0 1.0 scale
newpath 0 0 moveto 576 0 lineto 576 432 lineto 0 432 lineto
closepath clip
1 1 1 C
241.974 386.841 354.186 312.427 241.974 312.427 T
241.974 386.841 354.186 386.841 354.186 312.427 T
0.5 W
0.15 0.15 0.15 C
265.597 312.427 LS
265.597 313.556 LE
265.597 386.841 LS
265.597 385.712 LE
295.127 312.427 LS
295.127 313.556 LE
295.127 386.841 LS
295.127 385.712 LE
324.657 312.427 LS
324.657 313.556 LE
324.657 386.841 LS
324.657 385.712 LE
354.186 312.427 LS
354.186 313.556 LE
354.186 386.841 LS
354.186 385.712 LE
gsave
0.14902 0.14902 0.14902 C
(5) [10] 0 262.597 296.886 10 /Helvetica SRX
grestore

gsave
0.14902 0.14902 0.14902 C
(10) [6 10] 0 289.127 296.886 10 /Helvetica SRX
grestore

gsave
0.14902 0.14902 0.14902 C
(15) [6 10] 0 318.657 296.886 10 /Helvetica SRX
grestore

gsave
0.14902 0.14902 0.14902 C
(20) [6 10] 0 348.186 296.886 10 /Helvetica SRX
grestore

241.974 319.893 LS
243.098 319.893 LE
354.186 319.893 LS
353.062 319.893 LE
241.974 333.327 LS
243.098 333.327 LE
354.186 333.327 LS
353.062 333.327 LE
241.974 346.761 LS
243.098 346.761 LE
354.186 346.761 LS
353.062 346.761 LE
241.974 360.196 LS
243.098 360.196 LE
354.186 360.196 LS
353.062 360.196 LE
241.974 373.63 LS
243.098 373.63 LE
354.186 373.63 LS
353.062 373.63 LE
gsave
0.14902 0.14902 0.14902 C
(0.001) [6 3 6 6 10] 0 209.964 315.893 10 /Helvetica SRX
grestore

gsave
0.14902 0.14902 0.14902 C
(0.002) [6 3 6 6 10] 0 209.964 329.327 10 /Helvetica SRX
grestore

gsave
0.14902 0.14902 0.14902 C
(0.003) [6 3 6 6 10] 0 209.964 342.761 10 /Helvetica SRX
grestore

gsave
0.14902 0.14902 0.14902 C
(0.004) [6 3 6 6 10] 0 209.964 356.196 10 /Helvetica SRX
grestore

gsave
0.14902 0.14902 0.14902 C
(0.005) [6 3 6 6 10] 0 209.964 369.63 10 /Helvetica SRX
grestore

2 LC
[16 0] 0 setdash
241.974 312.427 LS
354.186 312.427 LE
241.974 386.841 LS
354.186 386.841 LE
241.974 312.427 LS
241.974 386.841 LE
354.186 312.427 LS
354.186 386.841 LE
gsave
0 0 0 C
(Y_N_hat) [7 6 8 6 7 6 10] 0 276.08 398.841 11 /Helvetica-Bold SRX
grestore

0.9 0.9 0.9 C
241.974 312.427 241.974 318.357 247.88 312.427 T
247.88 326.182 247.88 312.427 241.974 318.357 T
253.786 312.427 247.88 312.427 247.88 326.182 T
253.786 334.94 253.786 312.427 247.88 326.182 T
259.691 312.427 253.786 312.427 253.786 334.94 T
259.691 346.393 259.691 312.427 253.786 334.94 T
265.597 312.427 259.691 312.427 259.691 346.393 T
265.597 364.339 265.597 312.427 259.691 346.393 T
271.503 312.427 265.597 312.427 265.597 364.339 T
271.503 377.497 271.503 312.427 265.597 364.339 T
277.409 312.427 271.503 312.427 271.503 377.497 T
277.409 384.262 277.409 312.427 271.503 377.497 T
283.315 312.427 277.409 312.427 277.409 384.262 T
283.315 386.317 283.315 312.427 277.409 384.262 T
289.221 312.427 283.315 312.427 283.315 386.317 T
289.221 385.508 289.221 312.427 283.315 386.317 T
295.127 312.427 289.221 312.427 289.221 385.508 T
295.127 386.841 295.127 312.427 289.221 385.508 T
301.033 312.427 295.127 312.427 295.127 386.841 T
301.033 385.371 301.033 312.427 295.127 386.841 T
306.939 312.427 301.033 312.427 301.033 385.371 T
306.939 384.164 306.939 312.427 301.033 385.371 T
312.845 312.427 306.939 312.427 306.939 384.164 T
312.845 382.824 312.845 312.427 306.939 384.164 T
318.751 312.427 312.845 312.427 312.845 382.824 T
318.751 382.051 318.751 312.427 312.845 382.824 T
324.657 312.427 318.751 312.427 318.751 382.051 T
324.657 380.981 324.657 312.427 318.751 382.051 T
330.563 312.427 324.657 312.427 324.657 380.981 T
330.563 380.372 330.563 312.427 324.657 380.981 T
336.469 312.427 330.563 312.427 330.563 380.372 T
336.469 379.549 336.469 312.427 330.563 380.372 T
342.374 312.427 336.469 312.427 336.469 379.549 T
342.374 378.833 342.374 312.427 336.469 379.549 T
348.28 312.427 342.374 312.427 342.374 378.833 T
348.28 378.184 348.28 312.427 342.374 378.833 T
354.186 312.427 348.28 312.427 348.28 378.184 T
354.186 377.654 354.186 312.427 348.28 378.184 T
0 LC
[] 0 setdash
0 0 0 C
354.186 377.654 LS
348.28 378.184 L
342.374 378.833 L
336.469 379.549 L
330.563 380.372 L
324.657 380.981 L
318.751 382.051 L
312.845 382.824 L
306.939 384.164 L
301.033 385.371 L
295.127 386.841 L
289.221 385.508 L
283.315 386.317 L
277.409 384.262 L
271.503 377.497 L
265.597 364.339 L
259.691 346.393 L
253.786 334.94 L
247.88 326.182 L
241.974 318.357 L
241.974 312.427 L
247.88 312.427 L
253.786 312.427 L
259.691 312.427 L
265.597 312.427 L
271.503 312.427 L
277.409 312.427 L
283.315 312.427 L
289.221 312.427 L
295.127 312.427 L
301.033 312.427 L
306.939 312.427 L
312.845 312.427 L
318.751 312.427 L
324.657 312.427 L
330.563 312.427 L
336.469 312.427 L
342.374 312.427 L
348.28 312.427 L
354.186 312.427 L
354.186 377.654 LE
1 1 1 C
241.974 312.427 247.88 316.744 247.88 312.427 T
253.786 312.427 247.88 312.427 247.88 316.744 T
253.786 321.669 253.786 312.427 247.88 316.744 T
259.691 312.427 253.786 312.427 253.786 321.669 T
259.691 329.223 259.691 312.427 253.786 321.669 T
265.597 312.427 259.691 312.427 259.691 329.223 T
265.597 340.99 265.597 312.427 259.691 329.223 T
271.503 312.427 265.597 312.427 265.597 340.99 T
271.503 349.097 271.503 312.427 265.597 340.99 T
277.409 312.427 271.503 312.427 271.503 349.097 T
277.409 353.838 277.409 312.427 271.503 349.097 T
283.315 312.427 277.409 312.427 277.409 353.838 T
283.315 355.105 283.315 312.427 277.409 353.838 T
289.221 312.427 283.315 312.427 283.315 355.105 T
289.221 354.156 289.221 312.427 283.315 355.105 T
295.127 312.427 289.221 312.427 289.221 354.156 T
295.127 355.581 295.127 312.427 289.221 354.156 T
301.033 312.427 295.127 312.427 295.127 355.581 T
301.033 354.299 301.033 312.427 295.127 355.581 T
306.939 312.427 301.033 312.427 301.033 354.299 T
306.939 353.522 306.939 312.427 301.033 354.299 T
312.845 312.427 306.939 312.427 306.939 353.522 T
312.845 352.429 312.845 312.427 306.939 353.522 T
318.751 312.427 312.845 312.427 312.845 352.429 T
318.751 351.845 318.751 312.427 312.845 352.429 T
324.657 312.427 318.751 312.427 318.751 351.845 T
324.657 350.896 324.657 312.427 318.751 351.845 T
330.563 312.427 324.657 312.427 324.657 350.896 T
330.563 350.522 330.563 312.427 324.657 350.896 T
336.469 312.427 330.563 312.427 330.563 350.522 T
336.469 349.974 336.469 312.427 330.563 350.522 T
342.374 312.427 336.469 312.427 336.469 349.974 T
342.374 349.405 342.374 312.427 336.469 349.974 T
348.28 312.427 342.374 312.427 342.374 349.405 T
348.28 348.769 348.28 312.427 342.374 349.405 T
354.186 312.427 348.28 312.427 348.28 348.769 T
354.186 348.371 354.186 312.427 348.28 348.769 T
0 0 0 C
354.186 348.371 LS
348.28 348.769 L
342.374 349.405 L
336.469 349.974 L
330.563 350.522 L
324.657 350.896 L
318.751 351.845 L
312.845 352.429 L
306.939 353.522 L
301.033 354.299 L
295.127 355.581 L
289.221 354.156 L
283.315 355.105 L
277.409 353.838 L
271.503 349.097 L
265.597 340.99 L
259.691 329.223 L
253.786 321.669 L
247.88 316.744 L
241.974 312.427 L
247.88 312.427 L
253.786 312.427 L
259.691 312.427 L
265.597 312.427 L
271.503 312.427 L
277.409 312.427 L
283.315 312.427 L
289.221 312.427 L
295.127 312.427 L
301.033 312.427 L
306.939 312.427 L
312.845 312.427 L
318.751 312.427 L
324.657 312.427 L
330.563 312.427 L
336.469 312.427 L
342.374 312.427 L
348.28 312.427 L
354.186 312.427 L
354.186 348.371 LE
3 W
1 LJ
241.974 315.199 LS
247.88 321.771 L
253.786 328.359 L
259.691 337.88 L
265.597 353.387 L
271.503 363.418 L
277.409 368.389 L
283.315 370.317 L
289.221 370.651 L
295.127 370.218 L
301.033 369.457 L
306.939 368.588 L
312.845 367.716 L
318.751 366.89 L
324.657 366.125 L
330.563 365.426 L
336.469 364.789 L
342.374 364.206 L
348.28 363.671 L
354.186 363.177 LE
grestore
gsave
1.0 1.0 scale
newpath 0 0 moveto 576 0 lineto 576 432 lineto 0 432 lineto
closepath clip
1 1 1 C
409.067 386.841 521.28 312.427 409.067 312.427 T
409.067 386.841 521.28 386.841 521.28 312.427 T
0.5 W
0.15 0.15 0.15 C
432.691 312.427 LS
432.691 313.556 LE
432.691 386.841 LS
432.691 385.712 LE
462.221 312.427 LS
462.221 313.556 LE
462.221 386.841 LS
462.221 385.712 LE
491.75 312.427 LS
491.75 313.556 LE
491.75 386.841 LS
491.75 385.712 LE
521.28 312.427 LS
521.28 313.556 LE
521.28 386.841 LS
521.28 385.712 LE
gsave
0.14902 0.14902 0.14902 C
(5) [10] 0 429.691 296.886 10 /Helvetica SRX
grestore

gsave
0.14902 0.14902 0.14902 C
(10) [6 10] 0 456.221 296.886 10 /Helvetica SRX
grestore

gsave
0.14902 0.14902 0.14902 C
(15) [6 10] 0 485.75 296.886 10 /Helvetica SRX
grestore

gsave
0.14902 0.14902 0.14902 C
(20) [6 10] 0 515.28 296.886 10 /Helvetica SRX
grestore

409.067 323.709 LS
410.192 323.709 LE
521.28 323.709 LS
520.156 323.709 LE
409.067 337.465 LS
410.192 337.465 LE
521.28 337.465 LS
520.156 337.465 LE
409.067 351.222 LS
410.192 351.222 LE
521.28 351.222 LS
520.156 351.222 LE
409.067 364.979 LS
410.192 364.979 LE
521.28 364.979 LS
520.156 364.979 LE
409.067 378.736 LS
410.192 378.736 LE
521.28 378.736 LS
520.156 378.736 LE
gsave
0.14902 0.14902 0.14902 C
(-0.005) [3 6 3 6 6 10] 0 374.058 319.709 10 /Helvetica SRX
grestore

gsave
0.14902 0.14902 0.14902 C
(-0.004) [3 6 3 6 6 10] 0 374.058 333.465 10 /Helvetica SRX
grestore

gsave
0.14902 0.14902 0.14902 C
(-0.003) [3 6 3 6 6 10] 0 374.058 347.222 10 /Helvetica SRX
grestore

gsave
0.14902 0.14902 0.14902 C
(-0.002) [3 6 3 6 6 10] 0 374.058 360.979 10 /Helvetica SRX
grestore

gsave
0.14902 0.14902 0.14902 C
(-0.001) [3 6 3 6 6 10] 0 374.058 374.736 10 /Helvetica SRX
grestore

2 LC
[16 0] 0 setdash
409.067 312.427 LS
521.28 312.427 LE
409.067 386.841 LS
521.28 386.841 LE
409.067 312.427 LS
409.067 386.841 LE
521.28 312.427 LS
521.28 386.841 LE
gsave
0 0 0 C
(Y_C_hat) [7 6 8 6 7 6 10] 0 443.174 398.841 11 /Helvetica-Bold SRX
grestore

0.9 0.9 0.9 C
409.067 312.427 409.067 386.841 414.973 312.427 T
414.973 380.745 414.973 312.427 409.067 386.841 T
420.879 312.427 414.973 312.427 414.973 380.745 T
420.879 374.007 420.879 312.427 414.973 380.745 T
426.785 312.427 420.879 312.427 420.879 374.007 T
426.785 367.464 426.785 312.427 420.879 374.007 T
432.691 312.427 426.785 312.427 426.785 367.464 T
432.691 361.413 432.691 312.427 426.785 367.464 T
438.597 312.427 432.691 312.427 432.691 361.413 T
438.597 356.66 438.597 312.427 432.691 361.413 T
444.503 312.427 438.597 312.427 438.597 356.66 T
444.503 354.388 444.503 312.427 438.597 356.66 T
450.409 312.427 444.503 312.427 444.503 354.388 T
450.409 351.574 450.409 312.427 444.503 354.388 T
456.315 312.427 450.409 312.427 450.409 351.574 T
456.315 349.903 456.315 312.427 450.409 351.574 T
462.221 312.427 456.315 312.427 456.315 349.903 T
462.221 350.067 462.221 312.427 456.315 349.903 T
468.127 312.427 462.221 312.427 462.221 350.067 T
468.127 352.005 468.127 312.427 462.221 350.067 T
474.033 312.427 468.127 312.427 468.127 352.005 T
474.033 352.614 474.033 312.427 468.127 352.005 T
479.939 312.427 474.033 312.427 474.033 352.614 T
479.939 354.623 479.939 312.427 474.033 352.614 T
485.844 312.427 479.939 312.427 479.939 354.623 T
485.844 356.818 485.844 312.427 479.939 354.623 T
491.75 312.427 485.844 312.427 485.844 356.818 T
491.75 358.468 491.75 312.427 485.844 356.818 T
497.656 312.427 491.75 312.427 491.75 358.468 T
497.656 360.168 497.656 312.427 491.75 358.468 T
503.562 312.427 497.656 312.427 497.656 360.168 T
503.562 362.782 503.562 312.427 497.656 360.168 T
509.468 312.427 503.562 312.427 503.562 362.782 T
509.468 364.273 509.468 312.427 503.562 362.782 T
515.374 312.427 509.468 312.427 509.468 364.273 T
515.374 366.938 515.374 312.427 509.468 364.273 T
521.28 312.427 515.374 312.427 515.374 366.938 T
521.28 368.641 521.28 312.427 515.374 366.938 T
0 LC
[] 0 setdash
0 0 0 C
521.28 368.641 LS
515.374 366.938 L
509.468 364.273 L
503.562 362.782 L
497.656 360.168 L
491.75 358.468 L
485.844 356.818 L
479.939 354.623 L
474.033 352.614 L
468.127 352.005 L
462.221 350.067 L
456.315 349.903 L
450.409 351.574 L
444.503 354.388 L
438.597 356.66 L
432.691 361.413 L
426.785 367.464 L
420.879 374.007 L
414.973 380.745 L
409.067 386.841 L
409.067 312.427 L
414.973 312.427 L
420.879 312.427 L
426.785 312.427 L
432.691 312.427 L
438.597 312.427 L
444.503 312.427 L
450.409 312.427 L
456.315 312.427 L
462.221 312.427 L
468.127 312.427 L
474.033 312.427 L
479.939 312.427 L
485.844 312.427 L
491.75 312.427 L
497.656 312.427 L
503.562 312.427 L
509.468 312.427 L
515.374 312.427 L
521.28 312.427 L
521.28 368.641 LE
1 1 1 C
456.315 312.427 462.221 314.572 462.221 312.427 T
468.127 312.427 462.221 312.427 462.221 314.572 T
468.127 319.078 468.127 312.427 462.221 314.572 T
474.033 312.427 468.127 312.427 468.127 319.078 T
474.033 321.974 474.033 312.427 468.127 319.078 T
479.939 312.427 474.033 312.427 474.033 321.974 T
479.939 325.979 479.939 312.427 474.033 321.974 T
485.844 312.427 479.939 312.427 479.939 325.979 T
485.844 330.079 485.844 312.427 479.939 325.979 T
491.75 312.427 485.844 312.427 485.844 330.079 T
491.75 333.197 491.75 312.427 485.844 330.079 T
497.656 312.427 491.75 312.427 491.75 333.197 T
497.656 336.656 497.656 312.427 491.75 333.197 T
503.562 312.427 497.656 312.427 497.656 336.656 T
503.562 340.586 503.562 312.427 497.656 336.656 T
509.468 312.427 503.562 312.427 503.562 340.586 T
509.468 343.511 509.468 312.427 503.562 340.586 T
515.374 312.427 509.468 312.427 509.468 343.511 T
515.374 347.593 515.374 312.427 509.468 343.511 T
521.28 312.427 515.374 312.427 515.374 347.593 T
521.28 350.658 521.28 312.427 515.374 347.593 T
409.067 312.427 409.067 380.353 414.973 312.427 T
414.973 368.743 414.973 312.427 409.067 380.353 T
420.879 312.427 414.973 312.427 414.973 368.743 T
420.879 356.445 420.879 312.427 414.973 368.743 T
426.785 312.427 420.879 312.427 420.879 356.445 T
426.785 342.912 426.785 312.427 420.879 356.445 T
432.691 312.427 426.785 312.427 426.785 342.912 T
432.691 329.101 432.691 312.427 426.785 342.912 T
438.597 312.427 432.691 312.427 432.691 329.101 T
438.597 319.493 438.597 312.427 432.691 329.101 T
444.503 312.427 438.597 312.427 438.597 319.493 T
444.503 315.144 444.503 312.427 438.597 319.493 T
450.409 312.427 444.503 312.427 444.503 315.144 T
450.409 312.594 450.409 312.427 444.503 315.144 T
456.315 312.427 450.409 312.427 450.409 312.594 T
0 0 0 C
456.315 312.427 LS
450.409 312.594 L
444.503 315.144 L
438.597 319.493 L
432.691 329.101 L
426.785 342.912 L
420.879 356.445 L
414.973 368.743 L
409.067 380.353 L
409.067 312.427 L
414.973 312.427 L
420.879 312.427 L
426.785 312.427 L
432.691 312.427 L
438.597 312.427 L
444.503 312.427 L
450.409 312.427 L
456.315 312.427 LE
521.28 350.658 LS
515.374 347.593 L
509.468 343.511 L
503.562 340.586 L
497.656 336.656 L
491.75 333.197 L
485.844 330.079 L
479.939 325.979 L
474.033 321.974 L
468.127 319.078 L
462.221 314.572 L
456.315 312.427 L
462.221 312.427 L
468.127 312.427 L
474.033 312.427 L
479.939 312.427 L
485.844 312.427 L
491.75 312.427 L
497.656 312.427 L
503.562 312.427 L
509.468 312.427 L
515.374 312.427 L
521.28 312.427 L
521.28 350.658 LE
3 W
1 LJ
409.067 383.483 LS
414.973 374.405 L
420.879 365.253 L
426.785 355.331 L
432.691 344.915 L
438.597 337.74 L
444.503 333.759 L
450.409 332.165 L
456.315 332.223 L
462.221 333.392 L
468.127 335.294 L
474.033 337.668 L
479.939 340.333 L
485.844 343.165 L
491.75 346.076 L
497.656 349.008 L
503.562 351.92 L
509.468 354.782 L
515.374 357.577 L
521.28 360.291 LE
grestore
gsave
1.0 1.0 scale
newpath 0 0 moveto 576 0 lineto 576 432 lineto 0 432 lineto
closepath clip
1 1 1 C
74.88 254.387 187.093 179.974 74.88 179.974 T
74.88 254.387 187.093 254.387 187.093 179.974 T
0.5 W
0.15 0.15 0.15 C
98.5037 179.974 LS
98.5037 181.102 LE
98.5037 254.387 LS
98.5037 253.258 LE
128.033 179.974 LS
128.033 181.102 LE
128.033 254.387 LS
128.033 253.258 LE
157.563 179.974 LS
157.563 181.102 LE
157.563 254.387 LS
157.563 253.258 LE
187.093 179.974 LS
187.093 181.102 LE
187.093 254.387 LS
187.093 253.258 LE
gsave
0.14902 0.14902 0.14902 C
(5) [10] 0 95.5037 164.432 10 /Helvetica SRX
grestore

gsave
0.14902 0.14902 0.14902 C
(10) [6 10] 0 122.033 164.432 10 /Helvetica SRX
grestore

gsave
0.14902 0.14902 0.14902 C
(15) [6 10] 0 151.563 164.432 10 /Helvetica SRX
grestore

gsave
0.14902 0.14902 0.14902 C
(20) [6 10] 0 181.093 164.432 10 /Helvetica SRX
grestore

74.88 185.889 LS
76.0043 185.889 LE
187.093 185.889 LS
185.968 185.889 LE
74.88 206.098 LS
76.0043 206.098 LE
187.093 206.098 LS
185.968 206.098 LE
74.88 226.307 LS
76.0043 226.307 LE
187.093 226.307 LS
185.968 226.307 LE
74.88 246.516 LS
76.0043 246.516 LE
187.093 246.516 LS
185.968 246.516 LE
gsave
0.14902 0.14902 0.14902 C
(0) [10] 0 63.8705 181.889 10 /Helvetica SRX
grestore

gsave
0.14902 0.14902 0.14902 C
(0.005) [6 3 6 6 10] 0 42.8705 202.098 10 /Helvetica SRX
grestore

gsave
0.14902 0.14902 0.14902 C
(0.01) [6 3 6 10] 0 48.8705 222.307 10 /Helvetica SRX
grestore

gsave
0.14902 0.14902 0.14902 C
(0.015) [6 3 6 6 10] 0 42.8705 242.516 10 /Helvetica SRX
grestore

2 LC
[16 0] 0 setdash
74.88 179.974 LS
187.093 179.974 LE
74.88 254.387 LS
187.093 254.387 LE
74.88 179.974 LS
74.88 254.387 LE
187.093 179.974 LS
187.093 254.387 LE
gsave
0 0 0 C
(L_T_hat) [7 6 7 6 7 6 10] 0 109.486 266.387 11 /Helvetica-Bold SRX
grestore

0.9 0.9 0.9 C
74.88 179.974 74.88 184.282 80.7859 179.974 T
80.7859 186.122 80.7859 179.974 74.88 184.282 T
86.6918 179.974 80.7859 179.974 80.7859 186.122 T
86.6918 192.071 86.6918 179.974 80.7859 186.122 T
92.5978 179.974 86.6918 179.974 86.6918 192.071 T
92.5978 205.652 92.5978 179.974 86.6918 192.071 T
98.5037 179.974 92.5978 179.974 92.5978 205.652 T
98.5037 246.507 98.5037 179.974 92.5978 205.652 T
104.41 179.974 98.5037 179.974 98.5037 246.507 T
104.41 254.387 104.41 179.974 98.5037 246.507 T
110.316 179.974 104.41 179.974 104.41 254.387 T
110.316 253.892 110.316 179.974 104.41 254.387 T
116.221 179.974 110.316 179.974 110.316 253.892 T
116.221 250.417 116.221 179.974 110.316 253.892 T
122.127 179.974 116.221 179.974 116.221 250.417 T
122.127 246.143 122.127 179.974 116.221 250.417 T
128.033 179.974 122.127 179.974 122.127 246.143 T
128.033 243.146 128.033 179.974 122.127 246.143 T
133.939 179.974 128.033 179.974 128.033 243.146 T
133.939 238.571 133.939 179.974 128.033 243.146 T
139.845 179.974 133.939 179.974 133.939 238.571 T
139.845 235.113 139.845 179.974 133.939 238.571 T
145.751 179.974 139.845 179.974 139.845 235.113 T
145.751 231.712 145.751 179.974 139.845 235.113 T
151.657 179.974 145.751 179.974 145.751 231.712 T
151.657 228.638 151.657 179.974 145.751 231.712 T
157.563 179.974 151.657 179.974 151.657 228.638 T
157.563 226.227 157.563 179.974 151.657 228.638 T
163.469 179.974 157.563 179.974 157.563 226.227 T
163.469 223.729 163.469 179.974 157.563 226.227 T
169.375 179.974 163.469 179.974 163.469 223.729 T
169.375 221.601 169.375 179.974 163.469 223.729 T
175.281 179.974 169.375 179.974 169.375 221.601 T
175.281 219.583 175.281 179.974 169.375 221.601 T
181.187 179.974 175.281 179.974 175.281 219.583 T
181.187 217.685 181.187 179.974 175.281 219.583 T
187.093 179.974 181.187 179.974 181.187 217.685 T
187.093 216.09 187.093 179.974 181.187 217.685 T
0 LC
[] 0 setdash
0 0 0 C
187.093 216.09 LS
181.187 217.685 L
175.281 219.583 L
169.375 221.601 L
163.469 223.729 L
157.563 226.227 L
151.657 228.638 L
145.751 231.712 L
139.845 235.113 L
133.939 238.571 L
128.033 243.146 L
122.127 246.143 L
116.221 250.417 L
110.316 253.892 L
104.41 254.387 L
98.5037 246.507 L
92.5978 205.652 L
86.6918 192.071 L
80.7859 186.122 L
74.88 184.282 L
74.88 179.974 L
80.7859 179.974 L
86.6918 179.974 L
92.5978 179.974 L
98.5037 179.974 L
104.41 179.974 L
110.316 179.974 L
116.221 179.974 L
122.127 179.974 L
128.033 179.974 L
133.939 179.974 L
139.845 179.974 L
145.751 179.974 L
151.657 179.974 L
157.563 179.974 L
163.469 179.974 L
169.375 179.974 L
175.281 179.974 L
181.187 179.974 L
187.093 179.974 L
187.093 216.09 LE
1 1 1 C
74.88 179.974 80.7859 180.97 80.7859 179.974 T
86.6918 179.974 80.7859 179.974 80.7859 180.97 T
86.6918 184.049 86.6918 179.974 80.7859 180.97 T
92.5978 179.974 86.6918 179.974 86.6918 184.049 T
92.5978 191.143 92.5978 179.974 86.6918 184.049 T
98.5037 179.974 92.5978 179.974 92.5978 191.143 T
98.5037 221.539 98.5037 179.974 92.5978 191.143 T
104.41 179.974 98.5037 179.974 98.5037 221.539 T
104.41 227.554 104.41 179.974 98.5037 221.539 T
110.316 179.974 104.41 179.974 104.41 227.554 T
110.316 226.898 110.316 179.974 104.41 227.554 T
116.221 179.974 110.316 179.974 110.316 226.898 T
116.221 224.694 116.221 179.974 110.316 226.898 T
122.127 179.974 116.221 179.974 116.221 224.694 T
122.127 221.997 122.127 179.974 116.221 224.694 T
128.033 179.974 122.127 179.974 122.127 221.997 T
128.033 220.557 128.033 179.974 122.127 221.997 T
133.939 179.974 128.033 179.974 128.033 220.557 T
133.939 217.477 133.939 179.974 128.033 220.557 T
139.845 179.974 133.939 179.974 133.939 217.477 T
139.845 215.457 139.845 179.974 133.939 217.477 T
145.751 179.974 139.845 179.974 139.845 215.457 T
145.751 213.387 145.751 179.974 139.845 215.457 T
151.657 179.974 145.751 179.974 145.751 213.387 T
151.657 211.386 151.657 179.974 145.751 213.387 T
157.563 179.974 151.657 179.974 151.657 211.386 T
157.563 210.038 157.563 179.974 151.657 211.386 T
163.469 179.974 157.563 179.974 157.563 210.038 T
163.469 208.485 163.469 179.974 157.563 210.038 T
169.375 179.974 163.469 179.974 163.469 208.485 T
169.375 207.152 169.375 179.974 163.469 208.485 T
175.281 179.974 169.375 179.974 169.375 207.152 T
175.281 205.84 175.281 179.974 169.375 207.152 T
181.187 179.974 175.281 179.974 175.281 205.84 T
181.187 204.622 181.187 179.974 175.281 205.84 T
187.093 179.974 181.187 179.974 181.187 204.622 T
187.093 203.533 187.093 179.974 181.187 204.622 T
0 0 0 C
187.093 203.533 LS
181.187 204.622 L
175.281 205.84 L
169.375 207.152 L
163.469 208.485 L
157.563 210.038 L
151.657 211.386 L
145.751 213.387 L
139.845 215.457 L
133.939 217.477 L
128.033 220.557 L
122.127 221.997 L
116.221 224.694 L
110.316 226.898 L
104.41 227.554 L
98.5037 221.539 L
92.5978 191.143 L
86.6918 184.049 L
80.7859 180.97 L
74.88 179.974 L
80.7859 179.974 L
86.6918 179.974 L
92.5978 179.974 L
98.5037 179.974 L
104.41 179.974 L
110.316 179.974 L
116.221 179.974 L
122.127 179.974 L
128.033 179.974 L
133.939 179.974 L
139.845 179.974 L
145.751 179.974 L
151.657 179.974 L
157.563 179.974 L
163.469 179.974 L
169.375 179.974 L
175.281 179.974 L
181.187 179.974 L
187.093 179.974 L
187.093 203.533 LE
3 W
1 LJ
74.88 182.136 LS
80.7859 183.46 L
86.6918 187.797 L
92.5978 198.714 L
98.5037 235.039 L
104.41 241.493 L
110.316 240.628 L
116.221 237.783 L
122.127 234.463 L
128.033 231.157 L
133.939 228.038 L
139.845 225.161 L
145.751 222.536 L
151.657 220.155 L
157.563 218.001 L
163.469 216.054 L
169.375 214.296 L
175.281 212.708 L
181.187 211.273 L
187.093 209.975 LE
grestore
gsave
1.0 1.0 scale
newpath 0 0 moveto 576 0 lineto 576 432 lineto 0 432 lineto
closepath clip
1 1 1 C
241.974 254.387 354.186 179.974 241.974 179.974 T
241.974 254.387 354.186 254.387 354.186 179.974 T
0.5 W
0.15 0.15 0.15 C
265.597 179.974 LS
265.597 181.102 LE
265.597 254.387 LS
265.597 253.258 LE
295.127 179.974 LS
295.127 181.102 LE
295.127 254.387 LS
295.127 253.258 LE
324.657 179.974 LS
324.657 181.102 LE
324.657 254.387 LS
324.657 253.258 LE
354.186 179.974 LS
354.186 181.102 LE
354.186 254.387 LS
354.186 253.258 LE
gsave
0.14902 0.14902 0.14902 C
(5) [10] 0 262.597 164.432 10 /Helvetica SRX
grestore

gsave
0.14902 0.14902 0.14902 C
(10) [6 10] 0 289.127 164.432 10 /Helvetica SRX
grestore

gsave
0.14902 0.14902 0.14902 C
(15) [6 10] 0 318.657 164.432 10 /Helvetica SRX
grestore

gsave
0.14902 0.14902 0.14902 C
(20) [6 10] 0 348.186 164.432 10 /Helvetica SRX
grestore

241.974 184.812 LS
243.098 184.812 LE
354.186 184.812 LS
353.062 184.812 LE
241.974 196.684 LS
243.098 196.684 LE
354.186 196.684 LS
353.062 196.684 LE
241.974 208.556 LS
243.098 208.556 LE
354.186 208.556 LS
353.062 208.556 LE
241.974 220.428 LS
243.098 220.428 LE
354.186 220.428 LS
353.062 220.428 LE
241.974 232.299 LS
243.098 232.299 LE
354.186 232.299 LS
353.062 232.299 LE
241.974 244.171 LS
243.098 244.171 LE
354.186 244.171 LS
353.062 244.171 LE
gsave
0.14902 0.14902 0.14902 C
(0.001) [6 3 6 6 10] 0 209.964 180.812 10 /Helvetica SRX
grestore

gsave
0.14902 0.14902 0.14902 C
(0.002) [6 3 6 6 10] 0 209.964 192.684 10 /Helvetica SRX
grestore

gsave
0.14902 0.14902 0.14902 C
(0.003) [6 3 6 6 10] 0 209.964 204.556 10 /Helvetica SRX
grestore

gsave
0.14902 0.14902 0.14902 C
(0.004) [6 3 6 6 10] 0 209.964 216.428 10 /Helvetica SRX
grestore

gsave
0.14902 0.14902 0.14902 C
(0.005) [6 3 6 6 10] 0 209.964 228.299 10 /Helvetica SRX
grestore

gsave
0.14902 0.14902 0.14902 C
(0.006) [6 3 6 6 10] 0 209.964 240.171 10 /Helvetica SRX
grestore

2 LC
[16 0] 0 setdash
241.974 179.974 LS
354.186 179.974 LE
241.974 254.387 LS
354.186 254.387 LE
241.974 179.974 LS
241.974 254.387 LE
354.186 179.974 LS
354.186 254.387 LE
gsave
0 0 0 C
(L_N_hat) [7 6 8 6 7 6 10] 0 276.08 266.387 11 /Helvetica-Bold SRX
grestore

0.9 0.9 0.9 C
241.974 179.974 241.974 186.96 247.88 179.974 T
247.88 194.557 247.88 179.974 241.974 186.96 T
253.786 179.974 247.88 179.974 247.88 194.557 T
253.786 202.722 253.786 179.974 247.88 194.557 T
259.691 179.974 253.786 179.974 253.786 202.722 T
259.691 214.601 259.691 179.974 253.786 202.722 T
265.597 179.974 259.691 179.974 259.691 214.601 T
265.597 233.602 265.597 179.974 259.691 214.601 T
271.503 179.974 265.597 179.974 265.597 233.602 T
271.503 247.724 271.503 179.974 265.597 233.602 T
277.409 179.974 271.503 179.974 271.503 247.724 T
277.409 252.73 277.409 179.974 271.503 247.724 T
283.315 179.974 277.409 179.974 277.409 252.73 T
283.315 254.387 283.315 179.974 277.409 252.73 T
289.221 179.974 283.315 179.974 283.315 254.387 T
289.221 252.025 289.221 179.974 283.315 254.387 T
295.127 179.974 289.221 179.974 289.221 252.025 T
295.127 251.563 295.127 179.974 289.221 252.025 T
301.033 179.974 295.127 179.974 295.127 251.563 T
301.033 248.781 301.033 179.974 295.127 251.563 T
306.939 179.974 301.033 179.974 301.033 248.781 T
306.939 246.062 306.939 179.974 301.033 248.781 T
312.845 179.974 306.939 179.974 306.939 246.062 T
312.845 243.869 312.845 179.974 306.939 246.062 T
318.751 179.974 312.845 179.974 312.845 243.869 T
318.751 241.589 318.751 179.974 312.845 243.869 T
324.657 179.974 318.751 179.974 318.751 241.589 T
324.657 239.598 324.657 179.974 318.751 241.589 T
330.563 179.974 324.657 179.974 324.657 239.598 T
330.563 237.497 330.563 179.974 324.657 239.598 T
336.469 179.974 330.563 179.974 330.563 237.497 T
336.469 235.992 336.469 179.974 330.563 237.497 T
342.374 179.974 336.469 179.974 336.469 235.992 T
342.374 234.641 342.374 179.974 336.469 235.992 T
348.28 179.974 342.374 179.974 342.374 234.641 T
348.28 232.896 348.28 179.974 342.374 234.641 T
354.186 179.974 348.28 179.974 348.28 232.896 T
354.186 231.504 354.186 179.974 348.28 232.896 T
0 LC
[] 0 setdash
0 0 0 C
354.186 231.504 LS
348.28 232.896 L
342.374 234.641 L
336.469 235.992 L
330.563 237.497 L
324.657 239.598 L
318.751 241.589 L
312.845 243.869 L
306.939 246.062 L
301.033 248.781 L
295.127 251.563 L
289.221 252.025 L
283.315 254.387 L
277.409 252.73 L
271.503 247.724 L
265.597 233.602 L
259.691 214.601 L
253.786 202.722 L
247.88 194.557 L
241.974 186.96 L
241.974 179.974 L
247.88 179.974 L
253.786 179.974 L
259.691 179.974 L
265.597 179.974 L
271.503 179.974 L
277.409 179.974 L
283.315 179.974 L
289.221 179.974 L
295.127 179.974 L
301.033 179.974 L
306.939 179.974 L
312.845 179.974 L
318.751 179.974 L
324.657 179.974 L
330.563 179.974 L
336.469 179.974 L
342.374 179.974 L
348.28 179.974 L
354.186 179.974 L
354.186 231.504 LE
1 1 1 C
241.974 179.974 247.88 184.215 247.88 179.974 T
253.786 179.974 247.88 179.974 247.88 184.215 T
253.786 188.609 253.786 179.974 247.88 184.215 T
259.691 179.974 253.786 179.974 253.786 188.609 T
259.691 196.507 259.691 179.974 253.786 188.609 T
265.597 179.974 259.691 179.974 259.691 196.507 T
265.597 209.125 265.597 179.974 259.691 196.507 T
271.503 179.974 265.597 179.974 265.597 209.125 T
271.503 217.973 271.503 179.974 265.597 209.125 T
277.409 179.974 271.503 179.974 271.503 217.973 T
277.409 221.179 277.409 179.974 271.503 217.973 T
283.315 179.974 277.409 179.974 277.409 221.179 T
283.315 222.698 283.315 179.974 277.409 221.179 T
289.221 179.974 283.315 179.974 283.315 222.698 T
289.221 220.611 289.221 179.974 283.315 222.698 T
295.127 179.974 289.221 179.974 289.221 220.611 T
295.127 220.676 295.127 179.974 289.221 220.611 T
301.033 179.974 295.127 179.974 295.127 220.676 T
301.033 218.838 301.033 179.974 295.127 220.676 T
306.939 179.974 301.033 179.974 301.033 218.838 T
306.939 217.129 306.939 179.974 301.033 218.838 T
312.845 179.974 306.939 179.974 306.939 217.129 T
312.845 215.56 312.845 179.974 306.939 217.129 T
318.751 179.974 312.845 179.974 312.845 215.56 T
318.751 214.029 318.751 179.974 312.845 215.56 T
324.657 179.974 318.751 179.974 318.751 214.029 T
324.657 212.771 324.657 179.974 318.751 214.029 T
330.563 179.974 324.657 179.974 324.657 212.771 T
330.563 211.321 330.563 179.974 324.657 212.771 T
336.469 179.974 330.563 179.974 330.563 211.321 T
336.469 210.432 336.469 179.974 330.563 211.321 T
342.374 179.974 336.469 179.974 336.469 210.432 T
342.374 209.598 342.374 179.974 336.469 210.432 T
348.28 179.974 342.374 179.974 342.374 209.598 T
348.28 208.375 348.28 179.974 342.374 209.598 T
354.186 179.974 348.28 179.974 348.28 208.375 T
354.186 207.598 354.186 179.974 348.28 208.375 T
0 0 0 C
354.186 207.598 LS
348.28 208.375 L
342.374 209.598 L
336.469 210.432 L
330.563 211.321 L
324.657 212.771 L
318.751 214.029 L
312.845 215.56 L
306.939 217.129 L
301.033 218.838 L
295.127 220.676 L
289.221 220.611 L
283.315 222.698 L
277.409 221.179 L
271.503 217.973 L
265.597 209.125 L
259.691 196.507 L
253.786 188.609 L
247.88 184.215 L
241.974 179.974 L
247.88 179.974 L
253.786 179.974 L
259.691 179.974 L
265.597 179.974 L
271.503 179.974 L
277.409 179.974 L
283.315 179.974 L
289.221 179.974 L
295.127 179.974 L
301.033 179.974 L
306.939 179.974 L
312.845 179.974 L
318.751 179.974 L
324.657 179.974 L
330.563 179.974 L
336.469 179.974 L
342.374 179.974 L
348.28 179.974 L
354.186 179.974 L
354.186 207.598 LE
3 W
1 LJ
241.974 183.239 LS
247.88 189.442 L
253.786 195.693 L
259.691 205.402 L
265.597 222.154 L
271.503 232.532 L
277.409 237.011 L
283.315 237.978 L
289.221 237.139 L
295.127 235.473 L
301.033 233.493 L
306.939 231.458 L
312.845 229.49 L
318.751 227.642 L
324.657 225.931 L
330.563 224.359 L
336.469 222.917 L
342.374 221.596 L
348.28 220.384 L
354.186 219.27 LE
grestore
gsave
1.0 1.0 scale
newpath 0 0 moveto 576 0 lineto 576 432 lineto 0 432 lineto
closepath clip
1 1 1 C
409.067 254.387 521.28 179.974 409.067 179.974 T
409.067 254.387 521.28 254.387 521.28 179.974 T
0.5 W
0.15 0.15 0.15 C
432.691 179.974 LS
432.691 181.102 LE
432.691 254.387 LS
432.691 253.258 LE
462.221 179.974 LS
462.221 181.102 LE
462.221 254.387 LS
462.221 253.258 LE
491.75 179.974 LS
491.75 181.102 LE
491.75 254.387 LS
491.75 253.258 LE
521.28 179.974 LS
521.28 181.102 LE
521.28 254.387 LS
521.28 253.258 LE
gsave
0.14902 0.14902 0.14902 C
(5) [10] 0 429.691 164.432 10 /Helvetica SRX
grestore

gsave
0.14902 0.14902 0.14902 C
(10) [6 10] 0 456.221 164.432 10 /Helvetica SRX
grestore

gsave
0.14902 0.14902 0.14902 C
(15) [6 10] 0 485.75 164.432 10 /Helvetica SRX
grestore

gsave
0.14902 0.14902 0.14902 C
(20) [6 10] 0 515.28 164.432 10 /Helvetica SRX
grestore

409.067 199.909 LS
410.192 199.909 LE
521.28 199.909 LS
520.156 199.909 LE
409.067 220.207 LS
410.192 220.207 LE
521.28 220.207 LS
520.156 220.207 LE
409.067 240.504 LS
410.192 240.504 LE
521.28 240.504 LS
520.156 240.504 LE
gsave
0.14902 0.14902 0.14902 C
(-0.006) [3 6 3 6 6 10] 0 374.058 195.909 10 /Helvetica SRX
grestore

gsave
0.14902 0.14902 0.14902 C
(-0.004) [3 6 3 6 6 10] 0 374.058 216.207 10 /Helvetica SRX
grestore

gsave
0.14902 0.14902 0.14902 C
(-0.002) [3 6 3 6 6 10] 0 374.058 236.504 10 /Helvetica SRX
grestore

2 LC
[16 0] 0 setdash
409.067 179.974 LS
521.28 179.974 LE
409.067 254.387 LS
521.28 254.387 LE
409.067 179.974 LS
409.067 254.387 LE
521.28 179.974 LS
521.28 254.387 LE
gsave
0 0 0 C
(L_C_hat) [7 6 8 6 7 6 10] 0 443.174 266.387 11 /Helvetica-Bold SRX
grestore

0.9 0.9 0.9 C
409.067 179.974 409.067 254.387 414.973 179.974 T
414.973 248.27 414.973 179.974 409.067 254.387 T
420.879 179.974 414.973 179.974 414.973 248.27 T
420.879 241.264 420.879 179.974 414.973 248.27 T
426.785 179.974 420.879 179.974 420.879 241.264 T
426.785 235.752 426.785 179.974 420.879 241.264 T
432.691 179.974 426.785 179.974 426.785 235.752 T
432.691 228.991 432.691 179.974 426.785 235.752 T
438.597 179.974 432.691 179.974 432.691 228.991 T
438.597 223.478 438.597 179.974 432.691 228.991 T
444.503 179.974 438.597 179.974 438.597 223.478 T
444.503 221.203 444.503 179.974 438.597 223.478 T
450.409 179.974 444.503 179.974 444.503 221.203 T
450.409 219.91 450.409 179.974 444.503 221.203 T
456.315 179.974 450.409 179.974 450.409 219.91 T
456.315 219.276 456.315 179.974 450.409 219.91 T
462.221 179.974 456.315 179.974 456.315 219.276 T
462.221 219.374 462.221 179.974 456.315 219.276 T
468.127 179.974 462.221 179.974 462.221 219.374 T
468.127 220.385 468.127 179.974 462.221 219.374 T
474.033 179.974 468.127 179.974 468.127 220.385 T
474.033 221.314 474.033 179.974 468.127 220.385 T
479.939 179.974 474.033 179.974 474.033 221.314 T
479.939 222.757 479.939 179.974 474.033 221.314 T
485.844 179.974 479.939 179.974 479.939 222.757 T
485.844 225.232 485.844 179.974 479.939 222.757 T
491.75 179.974 485.844 179.974 485.844 225.232 T
491.75 226.805 491.75 179.974 485.844 225.232 T
497.656 179.974 491.75 179.974 491.75 226.805 T
497.656 228.818 497.656 179.974 491.75 226.805 T
503.562 179.974 497.656 179.974 497.656 228.818 T
503.562 231.55 503.562 179.974 497.656 228.818 T
509.468 179.974 503.562 179.974 503.562 231.55 T
509.468 233.149 509.468 179.974 503.562 231.55 T
515.374 179.974 509.468 179.974 509.468 233.149 T
515.374 235.123 515.374 179.974 509.468 233.149 T
521.28 179.974 515.374 179.974 515.374 235.123 T
521.28 237.334 521.28 179.974 515.374 235.123 T
0 LC
[] 0 setdash
0 0 0 C
521.28 237.334 LS
515.374 235.123 L
509.468 233.149 L
503.562 231.55 L
497.656 228.818 L
491.75 226.805 L
485.844 225.232 L
479.939 222.757 L
474.033 221.314 L
468.127 220.385 L
462.221 219.374 L
456.315 219.276 L
450.409 219.91 L
444.503 221.203 L
438.597 223.478 L
432.691 228.991 L
426.785 235.752 L
420.879 241.264 L
414.973 248.27 L
409.067 254.387 L
409.067 179.974 L
414.973 179.974 L
420.879 179.974 L
426.785 179.974 L
432.691 179.974 L
438.597 179.974 L
444.503 179.974 L
450.409 179.974 L
456.315 179.974 L
462.221 179.974 L
468.127 179.974 L
474.033 179.974 L
479.939 179.974 L
485.844 179.974 L
491.75 179.974 L
497.656 179.974 L
503.562 179.974 L
509.468 179.974 L
515.374 179.974 L
521.28 179.974 L
521.28 237.334 LE
1 1 1 C
450.409 179.974 456.315 181.231 456.315 179.974 T
462.221 179.974 456.315 179.974 456.315 181.231 T
462.221 183.788 462.221 179.974 456.315 181.231 T
468.127 179.974 462.221 179.974 462.221 183.788 T
468.127 187.647 468.127 179.974 462.221 183.788 T
474.033 179.974 468.127 179.974 468.127 187.647 T
474.033 191.255 474.033 179.974 468.127 187.647 T
479.939 179.974 474.033 179.974 474.033 191.255 T
479.939 194.753 479.939 179.974 474.033 191.255 T
485.844 179.974 479.939 179.974 479.939 194.753 T
485.844 199.098 485.844 179.974 479.939 194.753 T
491.75 179.974 485.844 179.974 485.844 199.098 T
491.75 202.479 491.75 179.974 485.844 199.098 T
497.656 179.974 491.75 179.974 491.75 202.479 T
497.656 206.247 497.656 179.974 491.75 202.479 T
503.562 179.974 497.656 179.974 497.656 206.247 T
503.562 210.45 503.562 179.974 497.656 206.247 T
509.468 179.974 503.562 179.974 503.562 210.45 T
509.468 213.44 509.468 179.974 503.562 210.45 T
515.374 179.974 509.468 179.974 509.468 213.44 T
515.374 216.714 515.374 179.974 509.468 213.44 T
521.28 179.974 515.374 179.974 515.374 216.714 T
521.28 220.185 521.28 179.974 515.374 216.714 T
409.067 179.974 409.067 247.024 414.973 179.974 T
414.973 235.434 414.973 179.974 409.067 247.024 T
420.879 179.974 414.973 179.974 414.973 235.434 T
420.879 222.934 420.879 179.974 414.973 235.434 T
426.785 179.974 420.879 179.974 420.879 222.934 T
426.785 210.237 426.785 179.974 420.879 222.934 T
432.691 179.974 426.785 179.974 426.785 210.237 T
432.691 195.105 432.691 179.974 426.785 210.237 T
438.597 179.974 432.691 179.974 432.691 195.105 T
438.597 184.531 438.597 179.974 432.691 195.105 T
444.503 179.974 438.597 179.974 438.597 184.531 T
444.503 180.799 444.503 179.974 438.597 184.531 T
450.409 179.974 444.503 179.974 444.503 180.799 T
0 0 0 C
450.409 179.974 LS
444.503 180.799 L
438.597 184.531 L
432.691 195.105 L
426.785 210.237 L
420.879 222.934 L
414.973 235.434 L
409.067 247.024 L
409.067 179.974 L
414.973 179.974 L
420.879 179.974 L
426.785 179.974 L
432.691 179.974 L
438.597 179.974 L
444.503 179.974 L
450.409 179.974 LE
521.28 220.185 LS
515.374 216.714 L
509.468 213.44 L
503.562 210.45 L
497.656 206.247 L
491.75 202.479 L
485.844 199.098 L
479.939 194.753 L
474.033 191.255 L
468.127 187.647 L
462.221 183.788 L
456.315 181.231 L
450.409 179.974 L
456.315 179.974 L
462.221 179.974 L
468.127 179.974 L
474.033 179.974 L
479.939 179.974 L
485.844 179.974 L
491.75 179.974 L
497.656 179.974 L
503.562 179.974 L
509.468 179.974 L
515.374 179.974 L
521.28 179.974 L
521.28 220.185 LE
3 W
1 LJ
409.067 250.577 LS
414.973 241.575 L
420.879 232.487 L
426.785 222.473 L
432.691 211.796 L
438.597 204.636 L
444.503 200.888 L
450.409 199.645 L
456.315 200.095 L
462.221 201.646 L
468.127 203.887 L
474.033 206.539 L
479.939 209.415 L
485.844 212.387 L
491.75 215.372 L
497.656 218.313 L
503.562 221.174 L
509.468 223.933 L
515.374 226.576 L
521.28 229.097 LE
grestore
gsave
1.0 1.0 scale
newpath 0 0 moveto 576 0 lineto 576 432 lineto 0 432 lineto
closepath clip
1 1 1 C
74.88 121.933 187.093 47.52 74.88 47.52 T
74.88 121.933 187.093 121.933 187.093 47.52 T
0.5 W
0.15 0.15 0.15 C
98.5037 47.52 LS
98.5037 48.6484 LE
98.5037 121.933 LS
98.5037 120.805 LE
128.033 47.52 LS
128.033 48.6484 LE
128.033 121.933 LS
128.033 120.805 LE
157.563 47.52 LS
157.563 48.6484 LE
157.563 121.933 LS
157.563 120.805 LE
187.093 47.52 LS
187.093 48.6484 LE
187.093 121.933 LS
187.093 120.805 LE
gsave
0.14902 0.14902 0.14902 C
(5) [10] 0 95.5037 31.9781 10 /Helvetica SRX
grestore

gsave
0.14902 0.14902 0.14902 C
(10) [6 10] 0 122.033 31.9781 10 /Helvetica SRX
grestore

gsave
0.14902 0.14902 0.14902 C
(15) [6 10] 0 151.563 31.9781 10 /Helvetica SRX
grestore

gsave
0.14902 0.14902 0.14902 C
(20) [6 10] 0 181.093 31.9781 10 /Helvetica SRX
grestore

74.88 53.6891 LS
76.0043 53.6891 LE
187.093 53.6891 LS
185.968 53.6891 LE
74.88 68.3867 LS
76.0043 68.3867 LE
187.093 68.3867 LS
185.968 68.3867 LE
74.88 83.0843 LS
76.0043 83.0843 LE
187.093 83.0843 LS
185.968 83.0843 LE
74.88 97.7819 LS
76.0043 97.7819 LE
187.093 97.7819 LS
185.968 97.7819 LE
74.88 112.479 LS
76.0043 112.479 LE
187.093 112.479 LS
185.968 112.479 LE
gsave
0.14902 0.14902 0.14902 C
(0.01) [6 3 6 10] 0 48.8705 49.6891 10 /Helvetica SRX
grestore

gsave
0.14902 0.14902 0.14902 C
(0.02) [6 3 6 10] 0 48.8705 64.3867 10 /Helvetica SRX
grestore

gsave
0.14902 0.14902 0.14902 C
(0.03) [6 3 6 10] 0 48.8705 79.0843 10 /Helvetica SRX
grestore

gsave
0.14902 0.14902 0.14902 C
(0.04) [6 3 6 10] 0 48.8705 93.7819 10 /Helvetica SRX
grestore

gsave
0.14902 0.14902 0.14902 C
(0.05) [6 3 6 10] 0 48.8705 108.479 10 /Helvetica SRX
grestore

2 LC
[16 0] 0 setdash
74.88 47.52 LS
187.093 47.52 LE
74.88 121.933 LS
187.093 121.933 LE
74.88 47.52 LS
74.88 121.933 LE
187.093 47.52 LS
187.093 121.933 LE
gsave
0 0 0 C
(I_T_hat) [3 6 7 6 7 6 10] 0 111.486 133.933 11 /Helvetica-Bold SRX
grestore

0.9 0.9 0.9 C
74.88 47.52 74.88 109.002 80.7859 47.52 T
80.7859 112.228 80.7859 47.52 74.88 109.002 T
86.6918 47.52 80.7859 47.52 80.7859 112.228 T
86.6918 116.772 86.6918 47.52 80.7859 112.228 T
92.5978 47.52 86.6918 47.52 86.6918 116.772 T
92.5978 121.933 92.5978 47.52 86.6918 116.772 T
98.5037 47.52 92.5978 47.52 92.5978 121.933 T
98.5037 112.433 98.5037 47.52 92.5978 121.933 T
104.41 47.52 98.5037 47.52 98.5037 112.433 T
104.41 105.176 104.41 47.52 98.5037 112.433 T
110.316 47.52 104.41 47.52 104.41 105.176 T
110.316 98.3828 110.316 47.52 104.41 105.176 T
116.221 47.52 110.316 47.52 110.316 98.3828 T
116.221 92.3816 116.221 47.52 110.316 98.3828 T
122.127 47.52 116.221 47.52 116.221 92.3816 T
122.127 87.3522 122.127 47.52 116.221 92.3816 T
128.033 47.52 122.127 47.52 122.127 87.3522 T
128.033 82.9306 128.033 47.52 122.127 87.3522 T
133.939 47.52 128.033 47.52 128.033 82.9306 T
133.939 78.6883 133.939 47.52 128.033 82.9306 T
139.845 47.52 133.939 47.52 133.939 78.6883 T
139.845 75.13 139.845 47.52 133.939 78.6883 T
145.751 47.52 139.845 47.52 139.845 75.13 T
145.751 71.3814 145.751 47.52 139.845 75.13 T
151.657 47.52 145.751 47.52 145.751 71.3814 T
151.657 68.5127 151.657 47.52 145.751 71.3814 T
157.563 47.52 151.657 47.52 151.657 68.5127 T
157.563 65.9014 157.563 47.52 151.657 68.5127 T
163.469 47.52 157.563 47.52 157.563 65.9014 T
163.469 63.5843 163.469 47.52 157.563 65.9014 T
169.375 47.52 163.469 47.52 163.469 63.5843 T
169.375 61.4731 169.375 47.52 163.469 63.5843 T
175.281 47.52 169.375 47.52 169.375 61.4731 T
175.281 59.6143 175.281 47.52 169.375 61.4731 T
181.187 47.52 175.281 47.52 175.281 59.6143 T
181.187 58.0682 181.187 47.52 175.281 59.6143 T
187.093 47.52 181.187 47.52 181.187 58.0682 T
187.093 56.6333 187.093 47.52 181.187 58.0682 T
0 LC
[] 0 setdash
0 0 0 C
187.093 56.6333 LS
181.187 58.0682 L
175.281 59.6143 L
169.375 61.4731 L
163.469 63.5843 L
157.563 65.9014 L
151.657 68.5127 L
145.751 71.3814 L
139.845 75.13 L
133.939 78.6883 L
128.033 82.9306 L
122.127 87.3522 L
116.221 92.3816 L
110.316 98.3828 L
104.41 105.176 L
98.5037 112.433 L
92.5978 121.933 L
86.6918 116.772 L
80.7859 112.228 L
74.88 109.002 L
74.88 47.52 L
80.7859 47.52 L
86.6918 47.52 L
92.5978 47.52 L
98.5037 47.52 L
104.41 47.52 L
110.316 47.52 L
116.221 47.52 L
122.127 47.52 L
128.033 47.52 L
133.939 47.52 L
139.845 47.52 L
145.751 47.52 L
151.657 47.52 L
157.563 47.52 L
163.469 47.52 L
169.375 47.52 L
175.281 47.52 L
181.187 47.52 L
187.093 47.52 L
187.093 56.6333 LE
1 1 1 C
74.88 47.52 74.88 80.517 80.7859 47.52 T
80.7859 82.5358 80.7859 47.52 74.88 80.517 T
86.6918 47.52 80.7859 47.52 80.7859 82.5358 T
86.6918 85.6038 86.6918 47.52 80.7859 82.5358 T
92.5978 47.52 86.6918 47.52 86.6918 85.6038 T
92.5978 89.2358 92.5978 47.52 86.6918 85.6038 T
98.5037 47.52 92.5978 47.52 92.5978 89.2358 T
98.5037 83.3704 98.5037 47.52 92.5978 89.2358 T
104.41 47.52 98.5037 47.52 98.5037 83.3704 T
104.41 79.0554 104.41 47.52 98.5037 83.3704 T
110.316 47.52 104.41 47.52 104.41 79.0554 T
110.316 74.7079 110.316 47.52 104.41 79.0554 T
116.221 47.52 110.316 47.52 110.316 74.7079 T
116.221 70.9442 116.221 47.52 110.316 74.7079 T
122.127 47.52 116.221 47.52 116.221 70.9442 T
122.127 67.5067 122.127 47.52 116.221 70.9442 T
128.033 47.52 122.127 47.52 122.127 67.5067 T
128.033 64.6739 128.033 47.52 122.127 67.5067 T
133.939 47.52 128.033 47.52 128.033 64.6739 T
133.939 61.6215 133.939 47.52 128.033 64.6739 T
139.845 47.52 133.939 47.52 133.939 61.6215 T
139.845 59.2194 139.845 47.52 133.939 61.6215 T
145.751 47.52 139.845 47.52 139.845 59.2194 T
145.751 56.5546 145.751 47.52 139.845 59.2194 T
151.657 47.52 145.751 47.52 145.751 56.5546 T
151.657 54.734 151.657 47.52 145.751 56.5546 T
157.563 47.52 151.657 47.52 151.657 54.734 T
157.563 53.1153 157.563 47.52 151.657 54.734 T
163.469 47.52 157.563 47.52 157.563 53.1153 T
163.469 51.6708 163.469 47.52 157.563 53.1153 T
169.375 47.52 163.469 47.52 163.469 51.6708 T
169.375 50.33 169.375 47.52 163.469 51.6708 T
175.281 47.52 169.375 47.52 169.375 50.33 T
175.281 49.2194 175.281 47.52 169.375 50.33 T
181.187 47.52 175.281 47.52 175.281 49.2194 T
181.187 48.3058 181.187 47.52 175.281 49.2194 T
187.093 47.52 181.187 47.52 181.187 48.3058 T
0 0 0 C
187.093 47.52 LS
181.187 48.3058 L
175.281 49.2194 L
169.375 50.33 L
163.469 51.6708 L
157.563 53.1153 L
151.657 54.734 L
145.751 56.5546 L
139.845 59.2194 L
133.939 61.6215 L
128.033 64.6739 L
122.127 67.5067 L
116.221 70.9442 L
110.316 74.7079 L
104.41 79.0554 L
98.5037 83.3704 L
92.5978 89.2358 L
86.6918 85.6038 L
80.7859 82.5358 L
74.88 80.517 L
74.88 47.52 L
80.7859 47.52 L
86.6918 47.52 L
92.5978 47.52 L
98.5037 47.52 L
104.41 47.52 L
110.316 47.52 L
116.221 47.52 L
122.127 47.52 L
128.033 47.52 L
133.939 47.52 L
139.845 47.52 L
145.751 47.52 L
151.657 47.52 L
157.563 47.52 L
163.469 47.52 L
169.375 47.52 L
175.281 47.52 L
181.187 47.52 L
187.093 47.52 LE
3 W
1 LJ
74.88 94.2341 LS
80.7859 96.9925 L
86.6918 100.635 L
92.5978 104.846 L
98.5037 97.4164 L
104.41 91.5437 L
110.316 86.2751 L
116.221 81.5023 L
122.127 77.199 L
128.033 73.3381 L
133.939 69.8867 L
139.845 66.8095 L
145.751 64.0712 L
151.657 61.6384 L
157.563 59.4796 L
163.469 57.5661 L
169.375 55.8716 L
175.281 54.3725 L
181.187 53.0472 L
187.093 51.8766 LE
grestore
gsave
1.0 1.0 scale
newpath 0 0 moveto 576 0 lineto 576 432 lineto 0 432 lineto
closepath clip
1 1 1 C
241.974 121.933 354.186 47.52 241.974 47.52 T
241.974 121.933 354.186 121.933 354.186 47.52 T
0.5 W
0.15 0.15 0.15 C
265.597 47.52 LS
265.597 48.6484 LE
265.597 121.933 LS
265.597 120.805 LE
295.127 47.52 LS
295.127 48.6484 LE
295.127 121.933 LS
295.127 120.805 LE
324.657 47.52 LS
324.657 48.6484 LE
324.657 121.933 LS
324.657 120.805 LE
354.186 47.52 LS
354.186 48.6484 LE
354.186 121.933 LS
354.186 120.805 LE
gsave
0.14902 0.14902 0.14902 C
(5) [10] 0 262.597 31.9781 10 /Helvetica SRX
grestore

gsave
0.14902 0.14902 0.14902 C
(10) [6 10] 0 289.127 31.9781 10 /Helvetica SRX
grestore

gsave
0.14902 0.14902 0.14902 C
(15) [6 10] 0 318.657 31.9781 10 /Helvetica SRX
grestore

gsave
0.14902 0.14902 0.14902 C
(20) [6 10] 0 348.186 31.9781 10 /Helvetica SRX
grestore

241.974 51.9794 LS
243.098 51.9794 LE
354.186 51.9794 LS
353.062 51.9794 LE
241.974 63.1341 LS
243.098 63.1341 LE
354.186 63.1341 LS
353.062 63.1341 LE
241.974 74.2889 LS
243.098 74.2889 LE
354.186 74.2889 LS
353.062 74.2889 LE
241.974 85.4437 LS
243.098 85.4437 LE
354.186 85.4437 LS
353.062 85.4437 LE
241.974 96.5984 LS
243.098 96.5984 LE
354.186 96.5984 LS
353.062 96.5984 LE
241.974 107.753 LS
243.098 107.753 LE
354.186 107.753 LS
353.062 107.753 LE
241.974 118.908 LS
243.098 118.908 LE
354.186 118.908 LS
353.062 118.908 LE
gsave
0.14902 0.14902 0.14902 C
(0.008) [6 3 6 6 10] 0 209.964 47.9794 10 /Helvetica SRX
grestore

gsave
0.14902 0.14902 0.14902 C
(0.01) [6 3 6 10] 0 215.964 59.1341 10 /Helvetica SRX
grestore

gsave
0.14902 0.14902 0.14902 C
(0.012) [6 3 6 6 10] 0 209.964 70.2889 10 /Helvetica SRX
grestore

gsave
0.14902 0.14902 0.14902 C
(0.014) [6 3 6 6 10] 0 209.964 81.4437 10 /Helvetica SRX
grestore

gsave
0.14902 0.14902 0.14902 C
(0.016) [6 3 6 6 10] 0 209.964 92.5985 10 /Helvetica SRX
grestore

gsave
0.14902 0.14902 0.14902 C
(0.018) [6 3 6 6 10] 0 209.964 103.753 10 /Helvetica SRX
grestore

gsave
0.14902 0.14902 0.14902 C
(0.02) [6 3 6 10] 0 215.964 114.908 10 /Helvetica SRX
grestore

2 LC
[16 0] 0 setdash
241.974 47.52 LS
354.186 47.52 LE
241.974 121.933 LS
354.186 121.933 LE
241.974 47.52 LS
241.974 121.933 LE
354.186 47.52 LS
354.186 121.933 LE
gsave
0 0 0 C
(I_N_hat) [3 6 8 6 7 6 10] 0 278.08 133.933 11 /Helvetica-Bold SRX
grestore

0.9 0.9 0.9 C
241.974 47.52 241.974 117.715 247.88 47.52 T
247.88 117.979 247.88 47.52 241.974 117.715 T
253.786 47.52 247.88 47.52 247.88 117.979 T
253.786 120.041 253.786 47.52 247.88 117.979 T
259.691 47.52 253.786 47.52 253.786 120.041 T
259.691 121.933 259.691 47.52 253.786 120.041 T
265.597 47.52 259.691 47.52 259.691 121.933 T
265.597 120.38 265.597 47.52 259.691 121.933 T
271.503 47.52 265.597 47.52 265.597 120.38 T
271.503 117.255 271.503 47.52 265.597 120.38 T
277.409 47.52 271.503 47.52 271.503 117.255 T
277.409 114.032 277.409 47.52 271.503 117.255 T
283.315 47.52 277.409 47.52 277.409 114.032 T
283.315 112.317 283.315 47.52 277.409 114.032 T
289.221 47.52 283.315 47.52 283.315 112.317 T
289.221 109.807 289.221 47.52 283.315 112.317 T
295.127 47.52 289.221 47.52 289.221 109.807 T
295.127 107.343 295.127 47.52 289.221 109.807 T
301.033 47.52 295.127 47.52 295.127 107.343 T
301.033 104.862 301.033 47.52 295.127 107.343 T
306.939 47.52 301.033 47.52 301.033 104.862 T
306.939 102.043 306.939 47.52 301.033 104.862 T
312.845 47.52 306.939 47.52 306.939 102.043 T
312.845 99.6737 312.845 47.52 306.939 102.043 T
318.751 47.52 312.845 47.52 312.845 99.6737 T
318.751 97.6915 318.751 47.52 312.845 99.6737 T
324.657 47.52 318.751 47.52 318.751 97.6915 T
324.657 94.41 324.657 47.52 318.751 97.6915 T
330.563 47.52 324.657 47.52 324.657 94.41 T
330.563 91.6907 330.563 47.52 324.657 94.41 T
336.469 47.52 330.563 47.52 330.563 91.6907 T
336.469 88.9763 336.469 47.52 330.563 91.6907 T
342.374 47.52 336.469 47.52 336.469 88.9763 T
342.374 86.2801 342.374 47.52 336.469 88.9763 T
348.28 47.52 342.374 47.52 342.374 86.2801 T
348.28 83.6839 348.28 47.52 342.374 86.2801 T
354.186 47.52 348.28 47.52 348.28 83.6839 T
354.186 79.9449 354.186 47.52 348.28 83.6839 T
0 LC
[] 0 setdash
0 0 0 C
354.186 79.9449 LS
348.28 83.6839 L
342.374 86.2801 L
336.469 88.9763 L
330.563 91.6907 L
324.657 94.41 L
318.751 97.6915 L
312.845 99.6737 L
306.939 102.043 L
301.033 104.862 L
295.127 107.343 L
289.221 109.807 L
283.315 112.317 L
277.409 114.032 L
271.503 117.255 L
265.597 120.38 L
259.691 121.933 L
253.786 120.041 L
247.88 117.979 L
241.974 117.715 L
241.974 47.52 L
247.88 47.52 L
253.786 47.52 L
259.691 47.52 L
265.597 47.52 L
271.503 47.52 L
277.409 47.52 L
283.315 47.52 L
289.221 47.52 L
295.127 47.52 L
301.033 47.52 L
306.939 47.52 L
312.845 47.52 L
318.751 47.52 L
324.657 47.52 L
330.563 47.52 L
336.469 47.52 L
342.374 47.52 L
348.28 47.52 L
354.186 47.52 L
354.186 79.9449 LE
1 1 1 C
241.974 47.52 241.974 71.8113 247.88 47.52 T
247.88 72.0079 247.88 47.52 241.974 71.8113 T
253.786 47.52 247.88 47.52 247.88 72.0079 T
253.786 73.6596 253.786 47.52 247.88 72.0079 T
259.691 47.52 253.786 47.52 253.786 73.6596 T
259.691 75.6787 259.691 47.52 253.786 73.6596 T
265.597 47.52 259.691 47.52 259.691 75.6787 T
265.597 76.1093 265.597 47.52 259.691 75.6787 T
271.503 47.52 265.597 47.52 265.597 76.1093 T
271.503 73.3437 271.503 47.52 265.597 76.1093 T
277.409 47.52 271.503 47.52 271.503 73.3437 T
277.409 71.1455 277.409 47.52 271.503 73.3437 T
283.315 47.52 277.409 47.52 277.409 71.1455 T
283.315 69.5278 283.315 47.52 277.409 71.1455 T
289.221 47.52 283.315 47.52 283.315 69.5278 T
289.221 67.3691 289.221 47.52 283.315 69.5278 T
295.127 47.52 289.221 47.52 289.221 67.3691 T
295.127 65.4716 295.127 47.52 289.221 67.3691 T
301.033 47.52 295.127 47.52 295.127 65.4716 T
301.033 63.4708 301.033 47.52 295.127 65.4716 T
306.939 47.52 301.033 47.52 301.033 63.4708 T
306.939 61.0184 306.939 47.52 301.033 63.4708 T
312.845 47.52 306.939 47.52 306.939 61.0184 T
312.845 59.2893 312.845 47.52 306.939 61.0184 T
318.751 47.52 312.845 47.52 312.845 59.2893 T
318.751 58.2454 318.751 47.52 312.845 59.2893 T
324.657 47.52 318.751 47.52 318.751 58.2454 T
324.657 56.2777 324.657 47.52 318.751 58.2454 T
330.563 47.52 324.657 47.52 324.657 56.2777 T
330.563 54.6487 330.563 47.52 324.657 56.2777 T
336.469 47.52 330.563 47.52 330.563 54.6487 T
336.469 53.1334 336.469 47.52 330.563 54.6487 T
342.374 47.52 336.469 47.52 336.469 53.1334 T
342.374 51.5812 342.374 47.52 336.469 53.1334 T
348.28 47.52 342.374 47.52 342.374 51.5812 T
348.28 50.1029 348.28 47.52 342.374 51.5812 T
354.186 47.52 348.28 47.52 348.28 50.1029 T
0 0 0 C
354.186 47.52 LS
348.28 50.1029 L
342.374 51.5812 L
336.469 53.1334 L
330.563 54.6487 L
324.657 56.2777 L
318.751 58.2454 L
312.845 59.2893 L
306.939 61.0184 L
301.033 63.4708 L
295.127 65.4716 L
289.221 67.3691 L
283.315 69.5278 L
277.409 71.1455 L
271.503 73.3437 L
265.597 76.1093 L
259.691 75.6787 L
253.786 73.6596 L
247.88 72.0079 L
241.974 71.8113 L
241.974 47.52 L
247.88 47.52 L
253.786 47.52 L
259.691 47.52 L
265.597 47.52 L
271.503 47.52 L
277.409 47.52 L
283.315 47.52 L
289.221 47.52 L
295.127 47.52 L
301.033 47.52 L
306.939 47.52 L
312.845 47.52 L
318.751 47.52 L
324.657 47.52 L
330.563 47.52 L
336.469 47.52 L
342.374 47.52 L
348.28 47.52 L
354.186 47.52 LE
3 W
1 LJ
241.974 94.2209 LS
247.88 94.7355 L
253.786 96.7442 L
259.691 99.399 L
265.597 97.2245 L
271.503 95.5776 L
277.409 93.5106 L
283.315 91.1669 L
289.221 88.6877 L
295.127 86.1585 L
301.033 83.6291 L
306.939 81.1298 L
312.845 78.6795 L
318.751 76.2907 L
324.657 73.9719 L
330.563 71.7284 L
336.469 69.5638 L
342.374 67.48 L
348.28 65.4779 L
354.186 63.5576 LE
grestore
gsave
1.0 1.0 scale
newpath 0 0 moveto 576 0 lineto 576 432 lineto 0 432 lineto
closepath clip
1 1 1 C
409.067 121.933 521.28 47.52 409.067 47.52 T
409.067 121.933 521.28 121.933 521.28 47.52 T
0.5 W
0.15 0.15 0.15 C
432.691 47.52 LS
432.691 48.6484 LE
432.691 121.933 LS
432.691 120.805 LE
462.221 47.52 LS
462.221 48.6484 LE
462.221 121.933 LS
462.221 120.805 LE
491.75 47.52 LS
491.75 48.6484 LE
491.75 121.933 LS
491.75 120.805 LE
521.28 47.52 LS
521.28 48.6484 LE
521.28 121.933 LS
521.28 120.805 LE
gsave
0.14902 0.14902 0.14902 C
(5) [10] 0 429.691 31.9781 10 /Helvetica SRX
grestore

gsave
0.14902 0.14902 0.14902 C
(10) [6 10] 0 456.221 31.9781 10 /Helvetica SRX
grestore

gsave
0.14902 0.14902 0.14902 C
(15) [6 10] 0 485.75 31.9781 10 /Helvetica SRX
grestore

gsave
0.14902 0.14902 0.14902 C
(20) [6 10] 0 515.28 31.9781 10 /Helvetica SRX
grestore

409.067 60.6706 LS
410.192 60.6706 LE
521.28 60.6706 LS
520.156 60.6706 LE
409.067 81.5422 LS
410.192 81.5422 LE
521.28 81.5422 LS
520.156 81.5422 LE
409.067 102.414 LS
410.192 102.414 LE
521.28 102.414 LS
520.156 102.414 LE
gsave
0.14902 0.14902 0.14902 C
(-0.01) [3 6 3 6 10] 0 380.058 56.6706 10 /Helvetica SRX
grestore

gsave
0.14902 0.14902 0.14902 C
(-0.005) [3 6 3 6 6 10] 0 374.058 77.5422 10 /Helvetica SRX
grestore

gsave
0.14902 0.14902 0.14902 C
(0) [10] 0 398.058 98.4138 10 /Helvetica SRX
grestore

2 LC
[16 0] 0 setdash
409.067 47.52 LS
521.28 47.52 LE
409.067 121.933 LS
521.28 121.933 LE
409.067 47.52 LS
409.067 121.933 LE
521.28 47.52 LS
521.28 121.933 LE
gsave
0 0 0 C
(I_C_hat) [3 6 8 6 7 6 10] 0 445.174 133.933 11 /Helvetica-Bold SRX
grestore

0.9 0.9 0.9 C
409.067 47.52 409.067 76.8481 414.973 47.52 T
414.973 76.4144 414.973 47.52 409.067 76.8481 T
420.879 47.52 414.973 47.52 414.973 76.4144 T
420.879 77.8252 420.879 47.52 414.973 76.4144 T
426.785 47.52 420.879 47.52 420.879 77.8252 T
426.785 78.5129 426.785 47.52 420.879 77.8252 T
432.691 47.52 426.785 47.52 426.785 78.5129 T
432.691 81.0767 432.691 47.52 426.785 78.5129 T
438.597 47.52 432.691 47.52 432.691 81.0767 T
438.597 83.3683 438.597 47.52 432.691 81.0767 T
444.503 47.52 438.597 47.52 438.597 83.3683 T
444.503 87.1504 444.503 47.52 438.597 83.3683 T
450.409 47.52 444.503 47.52 444.503 87.1504 T
450.409 90.8385 450.409 47.52 444.503 87.1504 T
456.315 47.52 450.409 47.52 450.409 90.8385 T
456.315 94.4906 456.315 47.52 450.409 90.8385 T
462.221 47.52 456.315 47.52 456.315 94.4906 T
462.221 98.0249 462.221 47.52 456.315 94.4906 T
468.127 47.52 462.221 47.52 462.221 98.0249 T
468.127 101.802 468.127 47.52 462.221 98.0249 T
474.033 47.52 468.127 47.52 468.127 101.802 T
474.033 105.109 474.033 47.52 468.127 101.802 T
479.939 47.52 474.033 47.52 474.033 105.109 T
479.939 108.072 479.939 47.52 474.033 105.109 T
485.844 47.52 479.939 47.52 479.939 108.072 T
485.844 111.17 485.844 47.52 479.939 108.072 T
491.75 47.52 485.844 47.52 485.844 111.17 T
491.75 113.375 491.75 47.52 485.844 111.17 T
497.656 47.52 491.75 47.52 491.75 113.375 T
497.656 115.812 497.656 47.52 491.75 113.375 T
503.562 47.52 497.656 47.52 497.656 115.812 T
503.562 117.787 503.562 47.52 497.656 115.812 T
509.468 47.52 503.562 47.52 503.562 117.787 T
509.468 119.196 509.468 47.52 503.562 117.787 T
515.374 47.52 509.468 47.52 509.468 119.196 T
515.374 120.977 515.374 47.52 509.468 119.196 T
521.28 47.52 515.374 47.52 515.374 120.977 T
521.28 121.933 521.28 47.52 515.374 120.977 T
0 LC
[] 0 setdash
0 0 0 C
521.28 121.933 LS
515.374 120.977 L
509.468 119.196 L
503.562 117.787 L
497.656 115.812 L
491.75 113.375 L
485.844 111.17 L
479.939 108.072 L
474.033 105.109 L
468.127 101.802 L
462.221 98.0249 L
456.315 94.4906 L
450.409 90.8385 L
444.503 87.1504 L
438.597 83.3683 L
432.691 81.0767 L
426.785 78.5129 L
420.879 77.8252 L
414.973 76.4144 L
409.067 76.8481 L
409.067 47.52 L
414.973 47.52 L
420.879 47.52 L
426.785 47.52 L
432.691 47.52 L
438.597 47.52 L
444.503 47.52 L
450.409 47.52 L
456.315 47.52 L
462.221 47.52 L
468.127 47.52 L
474.033 47.52 L
479.939 47.52 L
485.844 47.52 L
491.75 47.52 L
497.656 47.52 L
503.562 47.52 L
509.468 47.52 L
515.374 47.52 L
521.28 47.52 L
521.28 121.933 LE
1 1 1 C
414.973 47.52 420.879 49.4222 420.879 47.52 T
426.785 47.52 420.879 47.52 420.879 49.4222 T
426.785 51.8679 426.785 47.52 420.879 49.4222 T
432.691 47.52 426.785 47.52 426.785 51.8679 T
432.691 57.6874 432.691 47.52 426.785 51.8679 T
438.597 47.52 432.691 47.52 432.691 57.6874 T
438.597 64.7576 438.597 47.52 432.691 57.6874 T
444.503 47.52 438.597 47.52 438.597 64.7576 T
444.503 72.2295 444.503 47.52 438.597 64.7576 T
450.409 47.52 444.503 47.52 444.503 72.2295 T
450.409 79.0964 450.409 47.52 444.503 72.2295 T
456.315 47.52 450.409 47.52 450.409 79.0964 T
456.315 84.7943 456.315 47.52 450.409 79.0964 T
462.221 47.52 456.315 47.52 456.315 84.7943 T
462.221 89.4982 462.221 47.52 456.315 84.7943 T
468.127 47.52 462.221 47.52 462.221 89.4982 T
468.127 93.7327 468.127 47.52 462.221 89.4982 T
474.033 47.52 468.127 47.52 468.127 93.7327 T
474.033 96.8716 474.033 47.52 468.127 93.7327 T
479.939 47.52 474.033 47.52 474.033 96.8716 T
479.939 99.5189 479.939 47.52 474.033 96.8716 T
485.844 47.52 479.939 47.52 479.939 99.5189 T
485.844 102.1 485.844 47.52 479.939 99.5189 T
491.75 47.52 485.844 47.52 485.844 102.1 T
491.75 103.962 491.75 47.52 485.844 102.1 T
497.656 47.52 491.75 47.52 491.75 103.962 T
497.656 105.871 497.656 47.52 491.75 103.962 T
503.562 47.52 497.656 47.52 497.656 105.871 T
503.562 107.417 503.562 47.52 497.656 105.871 T
509.468 47.52 503.562 47.52 503.562 107.417 T
509.468 108.488 509.468 47.52 503.562 107.417 T
515.374 47.52 509.468 47.52 509.468 108.488 T
515.374 109.857 515.374 47.52 509.468 108.488 T
521.28 47.52 515.374 47.52 515.374 109.857 T
521.28 110.626 521.28 47.52 515.374 109.857 T
409.067 47.52 409.067 48.6639 414.973 47.52 T
0 0 0 C
414.973 47.52 LS
409.067 48.6639 L
409.067 47.52 L
414.973 47.52 LE
521.28 110.626 LS
515.374 109.857 L
509.468 108.488 L
503.562 107.417 L
497.656 105.871 L
491.75 103.962 L
485.844 102.1 L
479.939 99.5189 L
474.033 96.8716 L
468.127 93.7327 L
462.221 89.4982 L
456.315 84.7943 L
450.409 79.0964 L
444.503 72.2295 L
438.597 64.7576 L
432.691 57.6874 L
426.785 51.8679 L
420.879 49.4222 L
414.973 47.52 L
420.879 47.52 L
426.785 47.52 L
432.691 47.52 L
438.597 47.52 L
444.503 47.52 L
450.409 47.52 L
456.315 47.52 L
462.221 47.52 L
468.127 47.52 L
474.033 47.52 L
479.939 47.52 L
485.844 47.52 L
491.75 47.52 L
497.656 47.52 L
503.562 47.52 L
509.468 47.52 L
515.374 47.52 L
521.28 47.52 L
521.28 110.626 LE
3 W
1 LJ
409.067 62.6073 LS
414.973 61.7684 L
420.879 62.2982 L
426.785 64.499 L
432.691 68.5513 L
438.597 74.3285 L
444.503 79.9358 L
450.409 85.0754 L
456.315 89.7131 L
462.221 93.87 L
468.127 97.5804 L
474.033 100.882 L
479.939 103.811 L
485.844 106.404 L
491.75 108.693 L
497.656 110.709 L
503.562 112.48 L
509.468 114.031 L
515.374 115.386 L
521.28 116.564 LE
grestore
grestore
showpage
cleartomark
%%PageTrailer
%%Trailer
end
%%EOF
