%!PS-Adobe-3.0 EPSF-3.0
%%Title: gl2ps_renderer figure
%%Creator: GL2PS 1.4.2, (C) 1999-2020 C. Geuzaine
%%For: Octave
%%CreationDate: Wed Oct  7 07:02:17 2020
%%LanguageLevel: 3
%%DocumentData: Clean7Bit
%%Pages: 1
%%BoundingBox: 0 0 576 432
%%EndComments
%%BeginProlog
/gl2psdict 64 dict def gl2psdict begin
/tryPS3shading false def % set to false to force subdivision
/rThreshold 0.064 def % red component subdivision threshold
/gThreshold 0.034 def % green component subdivision threshold
/bThreshold 0.1 def % blue component subdivision threshold
/BD { bind def } bind def
/C  { setrgbcolor } BD
/G  { 0.082 mul exch 0.6094 mul add exch 0.3086 mul add neg 1.0 add setgray } BD
/W  { setlinewidth } BD
/LC  { setlinecap } BD
/LJ  { setlinejoin } BD
/FC { findfont exch /SH exch def SH scalefont setfont } BD
/SW { dup stringwidth pop } BD
/S  { FC moveto show } BD
/SBC{ FC moveto SW -2 div 0 rmoveto show } BD
/SBR{ FC moveto SW neg 0 rmoveto show } BD
/SCL{ FC moveto 0 SH -2 div rmoveto show } BD
/SCC{ FC moveto SW -2 div SH -2 div rmoveto show } BD
/SCR{ FC moveto SW neg SH -2 div rmoveto show } BD
/STL{ FC moveto 0 SH neg rmoveto show } BD
/STC{ FC moveto SW -2 div SH neg rmoveto show } BD
/STR{ FC moveto SW neg SH neg rmoveto show } BD
/FCT { FC translate 0 0 } BD
/SR  { gsave FCT moveto rotate show grestore } BD
/SRX  { gsave FCT moveto rotate xshow grestore } BD
/SBCR{ gsave FCT moveto rotate SW -2 div 0 rmoveto show grestore } BD
/SBRR{ gsave FCT moveto rotate SW neg 0 rmoveto show grestore } BD
/SCLR{ gsave FCT moveto rotate 0 SH -2 div rmoveto show grestore} BD
/SCCR{ gsave FCT moveto rotate SW -2 div SH -2 div rmoveto show grestore} BD
/SCRR{ gsave FCT moveto rotate SW neg SH -2 div rmoveto show grestore} BD
/STLR{ gsave FCT moveto rotate 0 SH neg rmoveto show grestore } BD
/STCR{ gsave FCT moveto rotate SW -2 div SH neg rmoveto show grestore } BD
/STRR{ gsave FCT moveto rotate SW neg SH neg rmoveto show grestore } BD
/P  { newpath 0.0 360.0 arc closepath fill } BD
/LS { newpath moveto } BD
/L  { lineto } BD
/LE { lineto stroke } BD
/T  { newpath moveto lineto lineto closepath fill } BD
/STshfill {
      /b1 exch def /g1 exch def /r1 exch def /y1 exch def /x1 exch def
      /b2 exch def /g2 exch def /r2 exch def /y2 exch def /x2 exch def
      /b3 exch def /g3 exch def /r3 exch def /y3 exch def /x3 exch def
      gsave << /ShadingType 4 /ColorSpace [/DeviceRGB]
      /DataSource [ 0 x1 y1 r1 g1 b1 0 x2 y2 r2 g2 b2 0 x3 y3 r3 g3 b3 ] >>
      shfill grestore } BD
/Tm { 3 -1 roll 8 -1 roll 13 -1 roll add add 3 div
      3 -1 roll 7 -1 roll 11 -1 roll add add 3 div
      3 -1 roll 6 -1 roll 9 -1 roll add add 3 div C T } BD
/STsplit {
      4 index 15 index add 0.5 mul
      4 index 15 index add 0.5 mul
      4 index 15 index add 0.5 mul
      4 index 15 index add 0.5 mul
      4 index 15 index add 0.5 mul
      5 copy 5 copy 25 15 roll
      9 index 30 index add 0.5 mul
      9 index 30 index add 0.5 mul
      9 index 30 index add 0.5 mul
      9 index 30 index add 0.5 mul
      9 index 30 index add 0.5 mul
      5 copy 5 copy 35 5 roll 25 5 roll 15 5 roll
      4 index 10 index add 0.5 mul
      4 index 10 index add 0.5 mul
      4 index 10 index add 0.5 mul
      4 index 10 index add 0.5 mul
      4 index 10 index add 0.5 mul
      5 copy 5 copy 40 5 roll 25 5 roll 15 5 roll 25 5 roll
      STnoshfill STnoshfill STnoshfill STnoshfill } BD
/STnoshfill {
      2 index 8 index sub abs rThreshold gt
      { STsplit }
      { 1 index 7 index sub abs gThreshold gt
        { STsplit }
        { dup 6 index sub abs bThreshold gt
          { STsplit }
          { 2 index 13 index sub abs rThreshold gt
            { STsplit }
            { 1 index 12 index sub abs gThreshold gt
              { STsplit }
              { dup 11 index sub abs bThreshold gt
                { STsplit }
                { 7 index 13 index sub abs rThreshold gt
                  { STsplit }
                  { 6 index 12 index sub abs gThreshold gt
                    { STsplit }
                    { 5 index 11 index sub abs bThreshold gt
                      { STsplit }
                      { Tm }
                      ifelse }
                    ifelse }
                  ifelse }
                ifelse }
              ifelse }
            ifelse }
          ifelse }
        ifelse }
      ifelse } BD
tryPS3shading
{ /shfill where
  { /ST { STshfill } BD }
  { /ST { STnoshfill } BD }
  ifelse }
{ /ST { STnoshfill } BD }
ifelse
end
%%EndProlog
%%BeginSetup
/DeviceRGB setcolorspace
gl2psdict begin
%%EndSetup
%%Page: 1 1
%%BeginPageSetup
%%EndPageSetup
mark
gsave
1.0 1.0 scale
1 1 1 C
newpath 0 0 moveto 576 0 lineto 576 432 lineto 0 432 lineto
closepath fill
gsave
1.0 1.0 scale
1 1 1 C
newpath 0 0 moveto 576 0 lineto 576 432 lineto 0 432 lineto
closepath fill
newpath 0 0 moveto 576 0 lineto 576 432 lineto 0 432 lineto
closepath clip
1 1 1 C
74.88 386.841 187.093 312.427 74.88 312.427 T
74.88 386.841 187.093 386.841 187.093 312.427 T
0.5 W
0.15 0.15 0.15 C
98.5037 312.427 LS
98.5037 313.556 LE
98.5037 386.841 LS
98.5037 385.712 LE
128.033 312.427 LS
128.033 313.556 LE
128.033 386.841 LS
128.033 385.712 LE
157.563 312.427 LS
157.563 313.556 LE
157.563 386.841 LS
157.563 385.712 LE
187.093 312.427 LS
187.093 313.556 LE
187.093 386.841 LS
187.093 385.712 LE
gsave
0.14902 0.14902 0.14902 C
(5) [10] 0 95.5037 296.886 10 /Helvetica SRX
grestore

gsave
0.14902 0.14902 0.14902 C
(10) [6 10] 0 122.033 296.886 10 /Helvetica SRX
grestore

gsave
0.14902 0.14902 0.14902 C
(15) [6 10] 0 151.563 296.886 10 /Helvetica SRX
grestore

gsave
0.14902 0.14902 0.14902 C
(20) [6 10] 0 181.093 296.886 10 /Helvetica SRX
grestore

74.88 315.276 LS
76.0043 315.276 LE
187.093 315.276 LS
185.968 315.276 LE
74.88 327.507 LS
76.0043 327.507 LE
187.093 327.507 LS
185.968 327.507 LE
74.88 339.738 LS
76.0043 339.738 LE
187.093 339.738 LS
185.968 339.738 LE
74.88 351.97 LS
76.0043 351.97 LE
187.093 351.97 LS
185.968 351.97 LE
74.88 364.201 LS
76.0043 364.201 LE
187.093 364.201 LS
185.968 364.201 LE
74.88 376.432 LS
76.0043 376.432 LE
187.093 376.432 LS
185.968 376.432 LE
gsave
0.14902 0.14902 0.14902 C
(-0.01) [3 6 3 6 10] 0 45.8705 311.276 10 /Helvetica SRX
grestore

gsave
0.14902 0.14902 0.14902 C
(-0.008) [3 6 3 6 6 10] 0 39.8705 323.507 10 /Helvetica SRX
grestore

gsave
0.14902 0.14902 0.14902 C
(-0.006) [3 6 3 6 6 10] 0 39.8705 335.738 10 /Helvetica SRX
grestore

gsave
0.14902 0.14902 0.14902 C
(-0.004) [3 6 3 6 6 10] 0 39.8705 347.97 10 /Helvetica SRX
grestore

gsave
0.14902 0.14902 0.14902 C
(-0.002) [3 6 3 6 6 10] 0 39.8705 360.201 10 /Helvetica SRX
grestore

gsave
0.14902 0.14902 0.14902 C
(0) [10] 0 63.8705 372.432 10 /Helvetica SRX
grestore

2 LC
[16 0] 0 setdash
74.88 312.427 LS
187.093 312.427 LE
74.88 386.841 LS
187.093 386.841 LE
74.88 312.427 LS
74.88 386.841 LE
187.093 312.427 LS
187.093 386.841 LE
gsave
0 0 0 C
(Y_T_hat) [7 6 7 6 7 6 10] 0 109.486 398.841 11 /Helvetica-Bold SRX
grestore

0.9 0.9 0.9 C
74.88 312.427 74.88 352.901 80.7859 312.427 T
80.7859 342.019 80.7859 312.427 74.88 352.901 T
86.6918 312.427 80.7859 312.427 80.7859 342.019 T
86.6918 337.594 86.6918 312.427 80.7859 342.019 T
92.5978 312.427 86.6918 312.427 86.6918 337.594 T
92.5978 337.109 92.5978 312.427 86.6918 337.594 T
98.5037 312.427 92.5978 312.427 92.5978 337.109 T
98.5037 341.337 98.5037 312.427 92.5978 337.109 T
104.41 312.427 98.5037 312.427 98.5037 341.337 T
104.41 345.689 104.41 312.427 98.5037 341.337 T
110.316 312.427 104.41 312.427 104.41 345.689 T
110.316 350.474 110.316 312.427 104.41 345.689 T
116.221 312.427 110.316 312.427 110.316 350.474 T
116.221 356.206 116.221 312.427 110.316 350.474 T
122.127 312.427 116.221 312.427 116.221 356.206 T
122.127 360.757 122.127 312.427 116.221 356.206 T
128.033 312.427 122.127 312.427 122.127 360.757 T
128.033 365.108 128.033 312.427 122.127 360.757 T
133.939 312.427 128.033 312.427 128.033 365.108 T
133.939 368.932 133.939 312.427 128.033 365.108 T
139.845 312.427 133.939 312.427 133.939 368.932 T
139.845 372.108 139.845 312.427 133.939 368.932 T
145.751 312.427 139.845 312.427 139.845 372.108 T
145.751 375.218 145.751 312.427 139.845 372.108 T
151.657 312.427 145.751 312.427 145.751 375.218 T
151.657 377.6 151.657 312.427 145.751 375.218 T
157.563 312.427 151.657 312.427 151.657 377.6 T
157.563 379.854 157.563 312.427 151.657 377.6 T
163.469 312.427 157.563 312.427 157.563 379.854 T
163.469 381.9 163.469 312.427 157.563 379.854 T
169.375 312.427 163.469 312.427 163.469 381.9 T
169.375 383.487 169.375 312.427 163.469 381.9 T
175.281 312.427 169.375 312.427 169.375 383.487 T
175.281 384.733 175.281 312.427 169.375 383.487 T
181.187 312.427 175.281 312.427 175.281 384.733 T
181.187 385.884 181.187 312.427 175.281 384.733 T
187.093 312.427 181.187 312.427 181.187 385.884 T
187.093 386.841 187.093 312.427 181.187 385.884 T
0 LC
[] 0 setdash
0 0 0 C
187.093 386.841 LS
181.187 385.884 L
175.281 384.733 L
169.375 383.487 L
163.469 381.9 L
157.563 379.854 L
151.657 377.6 L
145.751 375.218 L
139.845 372.108 L
133.939 368.932 L
128.033 365.108 L
122.127 360.757 L
116.221 356.206 L
110.316 350.474 L
104.41 345.689 L
98.5037 341.337 L
92.5978 337.109 L
86.6918 337.594 L
80.7859 342.019 L
74.88 352.901 L
74.88 312.427 L
80.7859 312.427 L
86.6918 312.427 L
92.5978 312.427 L
98.5037 312.427 L
104.41 312.427 L
110.316 312.427 L
116.221 312.427 L
122.127 312.427 L
128.033 312.427 L
133.939 312.427 L
139.845 312.427 L
145.751 312.427 L
151.657 312.427 L
157.563 312.427 L
163.469 312.427 L
169.375 312.427 L
175.281 312.427 L
181.187 312.427 L
187.093 312.427 L
187.093 386.841 LE
1 1 1 C
86.6918 312.427 92.5978 312.713 92.5978 312.427 T
98.5037 312.427 92.5978 312.427 92.5978 312.713 T
98.5037 319.275 98.5037 312.427 92.5978 312.713 T
104.41 312.427 98.5037 312.427 98.5037 319.275 T
104.41 326.551 104.41 312.427 98.5037 319.275 T
110.316 312.427 104.41 312.427 104.41 326.551 T
110.316 334.409 110.316 312.427 104.41 326.551 T
116.221 312.427 110.316 312.427 110.316 334.409 T
116.221 342.978 116.221 312.427 110.316 334.409 T
122.127 312.427 116.221 312.427 116.221 342.978 T
122.127 350.032 122.127 312.427 116.221 342.978 T
128.033 312.427 122.127 312.427 122.127 350.032 T
128.033 356.183 128.033 312.427 122.127 350.032 T
133.939 312.427 128.033 312.427 128.033 356.183 T
133.939 361.458 133.939 312.427 128.033 356.183 T
139.845 312.427 133.939 312.427 133.939 361.458 T
139.845 365.564 139.845 312.427 133.939 361.458 T
145.751 312.427 139.845 312.427 139.845 365.564 T
145.751 369.32 145.751 312.427 139.845 365.564 T
151.657 312.427 145.751 312.427 145.751 369.32 T
151.657 371.961 151.657 312.427 145.751 369.32 T
157.563 312.427 151.657 312.427 151.657 371.961 T
157.563 374.259 157.563 312.427 151.657 371.961 T
163.469 312.427 157.563 312.427 157.563 374.259 T
163.469 376.331 163.469 312.427 157.563 374.259 T
169.375 312.427 163.469 312.427 163.469 376.331 T
169.375 377.874 169.375 312.427 163.469 376.331 T
175.281 312.427 169.375 312.427 169.375 377.874 T
175.281 379.053 175.281 312.427 169.375 377.874 T
181.187 312.427 175.281 312.427 175.281 379.053 T
181.187 380.073 181.187 312.427 175.281 379.053 T
187.093 312.427 181.187 312.427 181.187 380.073 T
187.093 380.956 187.093 312.427 181.187 380.073 T
74.88 312.427 74.88 336.556 80.7859 312.427 T
80.7859 319.251 80.7859 312.427 74.88 336.556 T
86.6918 312.427 80.7859 312.427 80.7859 319.251 T
0 0 0 C
86.6918 312.427 LS
80.7859 319.251 L
74.88 336.556 L
74.88 312.427 L
80.7859 312.427 L
86.6918 312.427 LE
187.093 380.956 LS
181.187 380.073 L
175.281 379.053 L
169.375 377.874 L
163.469 376.331 L
157.563 374.259 L
151.657 371.961 L
145.751 369.32 L
139.845 365.564 L
133.939 361.458 L
128.033 356.183 L
122.127 350.032 L
116.221 342.978 L
110.316 334.409 L
104.41 326.551 L
98.5037 319.275 L
92.5978 312.713 L
86.6918 312.427 L
92.5978 312.427 L
98.5037 312.427 L
104.41 312.427 L
110.316 312.427 L
116.221 312.427 L
122.127 312.427 L
128.033 312.427 L
133.939 312.427 L
139.845 312.427 L
145.751 312.427 L
151.657 312.427 L
157.563 312.427 L
163.469 312.427 L
169.375 312.427 L
175.281 312.427 L
181.187 312.427 L
187.093 312.427 L
187.093 380.956 LE
3 W
1 LJ
74.88 344.395 LS
80.7859 329.736 L
86.6918 325.116 L
92.5978 326.3 L
98.5037 330.685 L
104.41 336.606 L
110.316 343.025 L
116.221 349.32 L
122.127 355.151 L
128.033 360.358 L
133.939 364.894 L
139.845 368.775 L
145.751 372.053 L
151.657 374.798 L
157.563 377.08 L
163.469 378.97 L
169.375 380.53 L
175.281 381.816 L
181.187 382.876 L
187.093 383.749 LE
grestore
gsave
1.0 1.0 scale
newpath 0 0 moveto 576 0 lineto 576 432 lineto 0 432 lineto
closepath clip
1 1 1 C
241.974 386.841 354.186 312.427 241.974 312.427 T
241.974 386.841 354.186 386.841 354.186 312.427 T
0.5 W
0.15 0.15 0.15 C
265.597 312.427 LS
265.597 313.556 LE
265.597 386.841 LS
265.597 385.712 LE
295.127 312.427 LS
295.127 313.556 LE
295.127 386.841 LS
295.127 385.712 LE
324.657 312.427 LS
324.657 313.556 LE
324.657 386.841 LS
324.657 385.712 LE
354.186 312.427 LS
354.186 313.556 LE
354.186 386.841 LS
354.186 385.712 LE
gsave
0.14902 0.14902 0.14902 C
(5) [10] 0 262.597 296.886 10 /Helvetica SRX
grestore

gsave
0.14902 0.14902 0.14902 C
(10) [6 10] 0 289.127 296.886 10 /Helvetica SRX
grestore

gsave
0.14902 0.14902 0.14902 C
(15) [6 10] 0 318.657 296.886 10 /Helvetica SRX
grestore

gsave
0.14902 0.14902 0.14902 C
(20) [6 10] 0 348.186 296.886 10 /Helvetica SRX
grestore

241.974 317.837 LS
243.098 317.837 LE
354.186 317.837 LS
353.062 317.837 LE
241.974 335.569 LS
243.098 335.569 LE
354.186 335.569 LS
353.062 335.569 LE
241.974 353.301 LS
243.098 353.301 LE
354.186 353.301 LS
353.062 353.301 LE
241.974 371.032 LS
243.098 371.032 LE
354.186 371.032 LS
353.062 371.032 LE
gsave
0.14902 0.14902 0.14902 C
(0.001) [6 3 6 6 10] 0 209.964 313.837 10 /Helvetica SRX
grestore

gsave
0.14902 0.14902 0.14902 C
(0.002) [6 3 6 6 10] 0 209.964 331.569 10 /Helvetica SRX
grestore

gsave
0.14902 0.14902 0.14902 C
(0.003) [6 3 6 6 10] 0 209.964 349.301 10 /Helvetica SRX
grestore

gsave
0.14902 0.14902 0.14902 C
(0.004) [6 3 6 6 10] 0 209.964 367.032 10 /Helvetica SRX
grestore

2 LC
[16 0] 0 setdash
241.974 312.427 LS
354.186 312.427 LE
241.974 386.841 LS
354.186 386.841 LE
241.974 312.427 LS
241.974 386.841 LE
354.186 312.427 LS
354.186 386.841 LE
gsave
0 0 0 C
(Y_N_hat) [7 6 8 6 7 6 10] 0 276.08 398.841 11 /Helvetica-Bold SRX
grestore

0.9 0.9 0.9 C
241.974 312.427 241.974 329.265 247.88 312.427 T
247.88 350.258 247.88 312.427 241.974 329.265 T
253.786 312.427 247.88 312.427 247.88 350.258 T
253.786 366.133 253.786 312.427 247.88 350.258 T
259.691 312.427 253.786 312.427 253.786 366.133 T
259.691 376.27 259.691 312.427 253.786 366.133 T
265.597 312.427 259.691 312.427 259.691 376.27 T
265.597 382.011 265.597 312.427 259.691 376.27 T
271.503 312.427 265.597 312.427 265.597 382.011 T
271.503 385.421 271.503 312.427 265.597 382.011 T
277.409 312.427 271.503 312.427 271.503 385.421 T
277.409 386.841 277.409 312.427 271.503 385.421 T
283.315 312.427 277.409 312.427 277.409 386.841 T
283.315 386.478 283.315 312.427 277.409 386.841 T
289.221 312.427 283.315 312.427 283.315 386.478 T
289.221 385.463 289.221 312.427 283.315 386.478 T
295.127 312.427 289.221 312.427 289.221 385.463 T
295.127 382.397 295.127 312.427 289.221 385.463 T
301.033 312.427 295.127 312.427 295.127 382.397 T
301.033 382.169 301.033 312.427 295.127 382.397 T
306.939 312.427 301.033 312.427 301.033 382.169 T
306.939 379.738 306.939 312.427 301.033 382.169 T
312.845 312.427 306.939 312.427 306.939 379.738 T
312.845 377.851 312.845 312.427 306.939 379.738 T
318.751 312.427 312.845 312.427 312.845 377.851 T
318.751 375.674 318.751 312.427 312.845 377.851 T
324.657 312.427 318.751 312.427 318.751 375.674 T
324.657 374.036 324.657 312.427 318.751 375.674 T
330.563 312.427 324.657 312.427 324.657 374.036 T
330.563 372.671 330.563 312.427 324.657 374.036 T
336.469 312.427 330.563 312.427 330.563 372.671 T
336.469 371.21 336.469 312.427 330.563 372.671 T
342.374 312.427 336.469 312.427 336.469 371.21 T
342.374 369.711 342.374 312.427 336.469 371.21 T
348.28 312.427 342.374 312.427 342.374 369.711 T
348.28 368.475 348.28 312.427 342.374 369.711 T
354.186 312.427 348.28 312.427 348.28 368.475 T
354.186 367.335 354.186 312.427 348.28 368.475 T
0 LC
[] 0 setdash
0 0 0 C
354.186 367.335 LS
348.28 368.475 L
342.374 369.711 L
336.469 371.21 L
330.563 372.671 L
324.657 374.036 L
318.751 375.674 L
312.845 377.851 L
306.939 379.738 L
301.033 382.169 L
295.127 382.397 L
289.221 385.463 L
283.315 386.478 L
277.409 386.841 L
271.503 385.421 L
265.597 382.011 L
259.691 376.27 L
253.786 366.133 L
247.88 350.258 L
241.974 329.265 L
241.974 312.427 L
247.88 312.427 L
253.786 312.427 L
259.691 312.427 L
265.597 312.427 L
271.503 312.427 L
277.409 312.427 L
283.315 312.427 L
289.221 312.427 L
295.127 312.427 L
301.033 312.427 L
306.939 312.427 L
312.845 312.427 L
318.751 312.427 L
324.657 312.427 L
330.563 312.427 L
336.469 312.427 L
342.374 312.427 L
348.28 312.427 L
354.186 312.427 L
354.186 367.335 LE
1 1 1 C
241.974 312.427 247.88 322.385 247.88 312.427 T
253.786 312.427 247.88 312.427 247.88 322.385 T
253.786 331.812 253.786 312.427 247.88 322.385 T
259.691 312.427 253.786 312.427 253.786 331.812 T
259.691 338.612 259.691 312.427 253.786 331.812 T
265.597 312.427 259.691 312.427 259.691 338.612 T
265.597 343.618 265.597 312.427 259.691 338.612 T
271.503 312.427 265.597 312.427 265.597 343.618 T
271.503 347.81 271.503 312.427 265.597 343.618 T
277.409 312.427 271.503 312.427 271.503 347.81 T
277.409 350.757 277.409 312.427 271.503 347.81 T
283.315 312.427 277.409 312.427 277.409 350.757 T
283.315 351.768 283.315 312.427 277.409 350.757 T
289.221 312.427 283.315 312.427 283.315 351.768 T
289.221 351.938 289.221 312.427 283.315 351.768 T
295.127 312.427 289.221 312.427 289.221 351.938 T
295.127 350.055 295.127 312.427 289.221 351.938 T
301.033 312.427 295.127 312.427 295.127 350.055 T
301.033 351.028 301.033 312.427 295.127 350.055 T
306.939 312.427 301.033 312.427 301.033 351.028 T
306.939 349.681 306.939 312.427 301.033 351.028 T
312.845 312.427 306.939 312.427 306.939 349.681 T
312.845 348.611 312.845 312.427 306.939 349.681 T
318.751 312.427 312.845 312.427 312.845 348.611 T
318.751 347.372 318.751 312.427 312.845 348.611 T
324.657 312.427 318.751 312.427 318.751 347.372 T
324.657 346.192 324.657 312.427 318.751 347.372 T
330.563 312.427 324.657 312.427 324.657 346.192 T
330.563 345.543 330.563 312.427 324.657 346.192 T
336.469 312.427 330.563 312.427 330.563 345.543 T
336.469 344.562 336.469 312.427 330.563 345.543 T
342.374 312.427 336.469 312.427 336.469 344.562 T
342.374 343.736 342.374 312.427 336.469 344.562 T
348.28 312.427 342.374 312.427 342.374 343.736 T
348.28 342.991 348.28 312.427 342.374 343.736 T
354.186 312.427 348.28 312.427 348.28 342.991 T
354.186 342.321 354.186 312.427 348.28 342.991 T
0 0 0 C
354.186 342.321 LS
348.28 342.991 L
342.374 343.736 L
336.469 344.562 L
330.563 345.543 L
324.657 346.192 L
318.751 347.372 L
312.845 348.611 L
306.939 349.681 L
301.033 351.028 L
295.127 350.055 L
289.221 351.938 L
283.315 351.768 L
277.409 350.757 L
271.503 347.81 L
265.597 343.618 L
259.691 338.612 L
253.786 331.812 L
247.88 322.385 L
241.974 312.427 L
247.88 312.427 L
253.786 312.427 L
259.691 312.427 L
265.597 312.427 L
271.503 312.427 L
277.409 312.427 L
283.315 312.427 L
289.221 312.427 L
295.127 312.427 L
301.033 312.427 L
306.939 312.427 L
312.845 312.427 L
318.751 312.427 L
324.657 312.427 L
330.563 312.427 L
336.469 312.427 L
342.374 312.427 L
348.28 312.427 L
354.186 312.427 L
354.186 342.321 LE
3 W
1 LJ
241.974 320.884 LS
247.88 337.295 L
253.786 349.352 L
259.691 358.06 L
265.597 363.932 L
271.503 367.454 L
277.409 369.133 L
283.315 369.455 L
289.221 368.846 L
295.127 367.651 L
301.033 366.132 L
306.939 364.479 L
312.845 362.817 L
318.751 361.225 L
324.657 359.749 L
330.563 358.408 L
336.469 357.206 L
342.374 356.136 L
348.28 355.187 L
354.186 354.345 LE
grestore
gsave
1.0 1.0 scale
newpath 0 0 moveto 576 0 lineto 576 432 lineto 0 432 lineto
closepath clip
1 1 1 C
409.067 386.841 521.28 312.427 409.067 312.427 T
409.067 386.841 521.28 386.841 521.28 312.427 T
0.5 W
0.15 0.15 0.15 C
432.691 312.427 LS
432.691 313.556 LE
432.691 386.841 LS
432.691 385.712 LE
462.221 312.427 LS
462.221 313.556 LE
462.221 386.841 LS
462.221 385.712 LE
491.75 312.427 LS
491.75 313.556 LE
491.75 386.841 LS
491.75 385.712 LE
521.28 312.427 LS
521.28 313.556 LE
521.28 386.841 LS
521.28 385.712 LE
gsave
0.14902 0.14902 0.14902 C
(5) [10] 0 429.691 296.886 10 /Helvetica SRX
grestore

gsave
0.14902 0.14902 0.14902 C
(10) [6 10] 0 456.221 296.886 10 /Helvetica SRX
grestore

gsave
0.14902 0.14902 0.14902 C
(15) [6 10] 0 485.75 296.886 10 /Helvetica SRX
grestore

gsave
0.14902 0.14902 0.14902 C
(20) [6 10] 0 515.28 296.886 10 /Helvetica SRX
grestore

409.067 320.506 LS
410.192 320.506 LE
521.28 320.506 LS
520.156 320.506 LE
409.067 331.132 LS
410.192 331.132 LE
521.28 331.132 LS
520.156 331.132 LE
409.067 341.758 LS
410.192 341.758 LE
521.28 341.758 LS
520.156 341.758 LE
409.067 352.384 LS
410.192 352.384 LE
521.28 352.384 LS
520.156 352.384 LE
409.067 363.01 LS
410.192 363.01 LE
521.28 363.01 LS
520.156 363.01 LE
409.067 373.636 LS
410.192 373.636 LE
521.28 373.636 LS
520.156 373.636 LE
409.067 384.262 LS
410.192 384.262 LE
521.28 384.262 LS
520.156 384.262 LE
gsave
0.14902 0.14902 0.14902 C
(0.01) [6 3 6 10] 0 383.058 316.506 10 /Helvetica SRX
grestore

gsave
0.14902 0.14902 0.14902 C
(0.015) [6 3 6 6 10] 0 377.058 327.132 10 /Helvetica SRX
grestore

gsave
0.14902 0.14902 0.14902 C
(0.02) [6 3 6 10] 0 383.058 337.758 10 /Helvetica SRX
grestore

gsave
0.14902 0.14902 0.14902 C
(0.025) [6 3 6 6 10] 0 377.058 348.384 10 /Helvetica SRX
grestore

gsave
0.14902 0.14902 0.14902 C
(0.03) [6 3 6 10] 0 383.058 359.01 10 /Helvetica SRX
grestore

gsave
0.14902 0.14902 0.14902 C
(0.035) [6 3 6 6 10] 0 377.058 369.636 10 /Helvetica SRX
grestore

gsave
0.14902 0.14902 0.14902 C
(0.04) [6 3 6 10] 0 383.058 380.262 10 /Helvetica SRX
grestore

2 LC
[16 0] 0 setdash
409.067 312.427 LS
521.28 312.427 LE
409.067 386.841 LS
521.28 386.841 LE
409.067 312.427 LS
409.067 386.841 LE
521.28 312.427 LS
521.28 386.841 LE
gsave
0 0 0 C
(Y_C_hat) [7 6 8 6 7 6 10] 0 443.174 398.841 11 /Helvetica-Bold SRX
grestore

0.9 0.9 0.9 C
409.067 312.427 409.067 333.774 414.973 312.427 T
414.973 362.483 414.973 312.427 409.067 333.774 T
420.879 312.427 414.973 312.427 414.973 362.483 T
420.879 379.345 420.879 312.427 414.973 362.483 T
426.785 312.427 420.879 312.427 420.879 379.345 T
426.785 386.841 426.785 312.427 420.879 379.345 T
432.691 312.427 426.785 312.427 426.785 386.841 T
432.691 386.73 432.691 312.427 426.785 386.841 T
438.597 312.427 432.691 312.427 432.691 386.73 T
438.597 381.278 438.597 312.427 432.691 386.73 T
444.503 312.427 438.597 312.427 438.597 381.278 T
444.503 374.997 444.503 312.427 438.597 381.278 T
450.409 312.427 444.503 312.427 444.503 374.997 T
450.409 369.313 450.409 312.427 444.503 374.997 T
456.315 312.427 450.409 312.427 450.409 369.313 T
456.315 361.892 456.315 312.427 450.409 369.313 T
462.221 312.427 456.315 312.427 456.315 361.892 T
462.221 355.14 462.221 312.427 456.315 361.892 T
468.127 312.427 462.221 312.427 462.221 355.14 T
468.127 349.535 468.127 312.427 462.221 355.14 T
474.033 312.427 468.127 312.427 468.127 349.535 T
474.033 344.696 474.033 312.427 468.127 349.535 T
479.939 312.427 474.033 312.427 474.033 344.696 T
479.939 340.025 479.939 312.427 474.033 344.696 T
485.844 312.427 479.939 312.427 479.939 340.025 T
485.844 336.058 485.844 312.427 479.939 340.025 T
491.75 312.427 485.844 312.427 485.844 336.058 T
491.75 332.612 491.75 312.427 485.844 336.058 T
497.656 312.427 491.75 312.427 491.75 332.612 T
497.656 329.698 497.656 312.427 491.75 332.612 T
503.562 312.427 497.656 312.427 497.656 329.698 T
503.562 327.25 503.562 312.427 497.656 329.698 T
509.468 312.427 503.562 312.427 503.562 327.25 T
509.468 325.223 509.468 312.427 503.562 327.25 T
515.374 312.427 509.468 312.427 509.468 325.223 T
515.374 323.395 515.374 312.427 509.468 325.223 T
521.28 312.427 515.374 312.427 515.374 323.395 T
521.28 321.838 521.28 312.427 515.374 323.395 T
0 LC
[] 0 setdash
0 0 0 C
521.28 321.838 LS
515.374 323.395 L
509.468 325.223 L
503.562 327.25 L
497.656 329.698 L
491.75 332.612 L
485.844 336.058 L
479.939 340.025 L
474.033 344.696 L
468.127 349.535 L
462.221 355.14 L
456.315 361.892 L
450.409 369.313 L
444.503 374.997 L
438.597 381.278 L
432.691 386.73 L
426.785 386.841 L
420.879 379.345 L
414.973 362.483 L
409.067 333.774 L
409.067 312.427 L
414.973 312.427 L
420.879 312.427 L
426.785 312.427 L
432.691 312.427 L
438.597 312.427 L
444.503 312.427 L
450.409 312.427 L
456.315 312.427 L
462.221 312.427 L
468.127 312.427 L
474.033 312.427 L
479.939 312.427 L
485.844 312.427 L
491.75 312.427 L
497.656 312.427 L
503.562 312.427 L
509.468 312.427 L
515.374 312.427 L
521.28 312.427 L
521.28 321.838 LE
1 1 1 C
409.067 312.427 414.973 325.584 414.973 312.427 T
420.879 312.427 414.973 312.427 414.973 325.584 T
420.879 334.988 420.879 312.427 414.973 325.584 T
426.785 312.427 420.879 312.427 420.879 334.988 T
426.785 341.485 426.785 312.427 420.879 334.988 T
432.691 312.427 426.785 312.427 426.785 341.485 T
432.691 344.063 432.691 312.427 426.785 341.485 T
438.597 312.427 432.691 312.427 432.691 344.063 T
438.597 343.634 438.597 312.427 432.691 344.063 T
444.503 312.427 438.597 312.427 438.597 343.634 T
444.503 342.498 444.503 312.427 438.597 343.634 T
450.409 312.427 444.503 312.427 444.503 342.498 T
450.409 342.012 450.409 312.427 444.503 342.498 T
456.315 312.427 450.409 312.427 450.409 342.012 T
456.315 338.531 456.315 312.427 450.409 342.012 T
462.221 312.427 456.315 312.427 456.315 338.531 T
462.221 334.372 462.221 312.427 456.315 338.531 T
468.127 312.427 462.221 312.427 462.221 334.372 T
468.127 331.103 468.127 312.427 462.221 334.372 T
474.033 312.427 468.127 312.427 468.127 331.103 T
474.033 328.043 474.033 312.427 468.127 331.103 T
479.939 312.427 474.033 312.427 474.033 328.043 T
479.939 324.956 479.939 312.427 474.033 328.043 T
485.844 312.427 479.939 312.427 479.939 324.956 T
485.844 322.118 485.844 312.427 479.939 324.956 T
491.75 312.427 485.844 312.427 485.844 322.118 T
491.75 319.669 491.75 312.427 485.844 322.118 T
497.656 312.427 491.75 312.427 491.75 319.669 T
497.656 317.721 497.656 312.427 491.75 319.669 T
503.562 312.427 497.656 312.427 497.656 317.721 T
503.562 316.082 503.562 312.427 497.656 317.721 T
509.468 312.427 503.562 312.427 503.562 316.082 T
509.468 314.827 509.468 312.427 503.562 316.082 T
515.374 312.427 509.468 312.427 509.468 314.827 T
515.374 313.728 515.374 312.427 509.468 314.827 T
521.28 312.427 515.374 312.427 515.374 313.728 T
521.28 312.824 521.28 312.427 515.374 313.728 T
0 0 0 C
521.28 312.824 LS
515.374 313.728 L
509.468 314.827 L
503.562 316.082 L
497.656 317.721 L
491.75 319.669 L
485.844 322.118 L
479.939 324.956 L
474.033 328.043 L
468.127 331.103 L
462.221 334.372 L
456.315 338.531 L
450.409 342.012 L
444.503 342.498 L
438.597 343.634 L
432.691 344.063 L
426.785 341.485 L
420.879 334.988 L
414.973 325.584 L
409.067 312.427 L
414.973 312.427 L
420.879 312.427 L
426.785 312.427 L
432.691 312.427 L
438.597 312.427 L
444.503 312.427 L
450.409 312.427 L
456.315 312.427 L
462.221 312.427 L
468.127 312.427 L
474.033 312.427 L
479.939 312.427 L
485.844 312.427 L
491.75 312.427 L
497.656 312.427 L
503.562 312.427 L
509.468 312.427 L
515.374 312.427 L
521.28 312.427 L
521.28 312.824 LE
3 W
1 LJ
409.067 322.605 LS
414.973 342.565 L
420.879 355.689 L
426.785 362.611 L
432.691 364.707 L
438.597 363.431 L
444.503 360.03 L
450.409 355.468 L
456.315 350.436 L
462.221 345.391 L
468.127 340.616 L
474.033 336.266 L
479.939 332.406 L
485.844 329.047 L
491.75 326.164 L
497.656 323.714 L
503.562 321.646 L
509.468 319.906 L
515.374 318.444 L
521.28 317.215 LE
grestore
gsave
1.0 1.0 scale
newpath 0 0 moveto 576 0 lineto 576 432 lineto 0 432 lineto
closepath clip
1 1 1 C
74.88 254.387 187.093 179.974 74.88 179.974 T
74.88 254.387 187.093 254.387 187.093 179.974 T
0.5 W
0.15 0.15 0.15 C
98.5037 179.974 LS
98.5037 181.102 LE
98.5037 254.387 LS
98.5037 253.258 LE
128.033 179.974 LS
128.033 181.102 LE
128.033 254.387 LS
128.033 253.258 LE
157.563 179.974 LS
157.563 181.102 LE
157.563 254.387 LS
157.563 253.258 LE
187.093 179.974 LS
187.093 181.102 LE
187.093 254.387 LS
187.093 253.258 LE
gsave
0.14902 0.14902 0.14902 C
(5) [10] 0 95.5037 164.432 10 /Helvetica SRX
grestore

gsave
0.14902 0.14902 0.14902 C
(10) [6 10] 0 122.033 164.432 10 /Helvetica SRX
grestore

gsave
0.14902 0.14902 0.14902 C
(15) [6 10] 0 151.563 164.432 10 /Helvetica SRX
grestore

gsave
0.14902 0.14902 0.14902 C
(20) [6 10] 0 181.093 164.432 10 /Helvetica SRX
grestore

74.88 181.899 LS
76.0043 181.899 LE
187.093 181.899 LS
185.968 181.899 LE
74.88 195.376 LS
76.0043 195.376 LE
187.093 195.376 LS
185.968 195.376 LE
74.88 208.854 LS
76.0043 208.854 LE
187.093 208.854 LS
185.968 208.854 LE
74.88 222.331 LS
76.0043 222.331 LE
187.093 222.331 LS
185.968 222.331 LE
74.88 235.808 LS
76.0043 235.808 LE
187.093 235.808 LS
185.968 235.808 LE
74.88 249.285 LS
76.0043 249.285 LE
187.093 249.285 LS
185.968 249.285 LE
gsave
0.14902 0.14902 0.14902 C
(-0.01) [3 6 3 6 10] 0 45.8705 177.899 10 /Helvetica SRX
grestore

gsave
0.14902 0.14902 0.14902 C
(-0.008) [3 6 3 6 6 10] 0 39.8705 191.376 10 /Helvetica SRX
grestore

gsave
0.14902 0.14902 0.14902 C
(-0.006) [3 6 3 6 6 10] 0 39.8705 204.854 10 /Helvetica SRX
grestore

gsave
0.14902 0.14902 0.14902 C
(-0.004) [3 6 3 6 6 10] 0 39.8705 218.331 10 /Helvetica SRX
grestore

gsave
0.14902 0.14902 0.14902 C
(-0.002) [3 6 3 6 6 10] 0 39.8705 231.808 10 /Helvetica SRX
grestore

gsave
0.14902 0.14902 0.14902 C
(0) [10] 0 63.8705 245.285 10 /Helvetica SRX
grestore

2 LC
[16 0] 0 setdash
74.88 179.974 LS
187.093 179.974 LE
74.88 254.387 LS
187.093 254.387 LE
74.88 179.974 LS
74.88 254.387 LE
187.093 179.974 LS
187.093 254.387 LE
gsave
0 0 0 C
(L_T_hat) [7 6 7 6 7 6 10] 0 109.486 266.387 11 /Helvetica-Bold SRX
grestore

0.9 0.9 0.9 C
74.88 179.974 74.88 228.243 80.7859 179.974 T
80.7859 216.663 80.7859 179.974 74.88 228.243 T
86.6918 179.974 80.7859 179.974 80.7859 216.663 T
86.6918 211.241 86.6918 179.974 80.7859 216.663 T
92.5978 179.974 86.6918 179.974 86.6918 211.241 T
92.5978 209.358 92.5978 179.974 86.6918 211.241 T
98.5037 179.974 92.5978 179.974 92.5978 209.358 T
98.5037 211.534 98.5037 179.974 92.5978 209.358 T
104.41 179.974 98.5037 179.974 98.5037 211.534 T
104.41 214.711 104.41 179.974 98.5037 211.534 T
110.316 179.974 104.41 179.974 104.41 214.711 T
110.316 219.417 110.316 179.974 104.41 214.711 T
116.221 179.974 110.316 179.974 110.316 219.417 T
116.221 223.238 116.221 179.974 110.316 219.417 T
122.127 179.974 116.221 179.974 116.221 223.238 T
122.127 227.936 122.127 179.974 116.221 223.238 T
128.033 179.974 122.127 179.974 122.127 227.936 T
128.033 232.709 128.033 179.974 122.127 227.936 T
133.939 179.974 128.033 179.974 128.033 232.709 T
133.939 236.147 133.939 179.974 128.033 232.709 T
139.845 179.974 133.939 179.974 133.939 236.147 T
139.845 239.782 139.845 179.974 133.939 236.147 T
145.751 179.974 139.845 179.974 139.845 239.782 T
145.751 242.438 145.751 179.974 139.845 239.782 T
151.657 179.974 145.751 179.974 145.751 242.438 T
151.657 245.115 151.657 179.974 145.751 242.438 T
157.563 179.974 151.657 179.974 151.657 245.115 T
157.563 247.704 157.563 179.974 151.657 245.115 T
163.469 179.974 157.563 179.974 157.563 247.704 T
163.469 249.618 163.469 179.974 157.563 247.704 T
169.375 179.974 163.469 179.974 163.469 249.618 T
169.375 251.164 169.375 179.974 163.469 249.618 T
175.281 179.974 169.375 179.974 169.375 251.164 T
175.281 252.201 175.281 179.974 169.375 251.164 T
181.187 179.974 175.281 179.974 175.281 252.201 T
181.187 253.597 181.187 179.974 175.281 252.201 T
187.093 179.974 181.187 179.974 181.187 253.597 T
187.093 254.387 187.093 179.974 181.187 253.597 T
0 LC
[] 0 setdash
0 0 0 C
187.093 254.387 LS
181.187 253.597 L
175.281 252.201 L
169.375 251.164 L
163.469 249.618 L
157.563 247.704 L
151.657 245.115 L
145.751 242.438 L
139.845 239.782 L
133.939 236.147 L
128.033 232.709 L
122.127 227.936 L
116.221 223.238 L
110.316 219.417 L
104.41 214.711 L
98.5037 211.534 L
92.5978 209.358 L
86.6918 211.241 L
80.7859 216.663 L
74.88 228.243 L
74.88 179.974 L
80.7859 179.974 L
86.6918 179.974 L
92.5978 179.974 L
98.5037 179.974 L
104.41 179.974 L
110.316 179.974 L
116.221 179.974 L
122.127 179.974 L
128.033 179.974 L
133.939 179.974 L
139.845 179.974 L
145.751 179.974 L
151.657 179.974 L
157.563 179.974 L
163.469 179.974 L
169.375 179.974 L
175.281 179.974 L
181.187 179.974 L
187.093 179.974 L
187.093 254.387 LE
1 1 1 C
92.5978 179.974 98.5037 184.569 98.5037 179.974 T
104.41 179.974 98.5037 179.974 98.5037 184.569 T
104.41 191.216 104.41 179.974 98.5037 184.569 T
110.316 179.974 104.41 179.974 104.41 191.216 T
110.316 199.74 110.316 179.974 104.41 191.216 T
116.221 179.974 110.316 179.974 110.316 199.74 T
116.221 206.802 116.221 179.974 110.316 199.74 T
122.127 179.974 116.221 179.974 116.221 206.802 T
122.127 214.631 122.127 179.974 116.221 206.802 T
128.033 179.974 122.127 179.974 122.127 214.631 T
128.033 221.644 128.033 179.974 122.127 214.631 T
133.939 179.974 128.033 179.974 128.033 221.644 T
133.939 226.724 133.939 179.974 128.033 221.644 T
139.845 179.974 133.939 179.974 133.939 226.724 T
139.845 231.843 139.845 179.974 133.939 226.724 T
145.751 179.974 139.845 179.974 139.845 231.843 T
145.751 235.546 145.751 179.974 139.845 231.843 T
151.657 179.974 145.751 179.974 145.751 235.546 T
151.657 238.993 151.657 179.974 145.751 235.546 T
157.563 179.974 151.657 179.974 151.657 238.993 T
157.563 242.047 157.563 179.974 151.657 238.993 T
163.469 179.974 157.563 179.974 157.563 242.047 T
163.469 244.284 163.469 179.974 157.563 242.047 T
169.375 179.974 163.469 179.974 163.469 244.284 T
169.375 246.025 169.375 179.974 163.469 244.284 T
175.281 179.974 169.375 179.974 169.375 246.025 T
175.281 247.32 175.281 179.974 169.375 246.025 T
181.187 179.974 175.281 179.974 175.281 247.32 T
181.187 248.92 181.187 179.974 175.281 247.32 T
187.093 179.974 181.187 179.974 181.187 248.92 T
187.093 249.8 187.093 179.974 181.187 248.92 T
74.88 179.974 74.88 208.707 80.7859 179.974 T
80.7859 189.677 80.7859 179.974 74.88 208.707 T
86.6918 179.974 80.7859 179.974 80.7859 189.677 T
86.6918 181.416 86.6918 179.974 80.7859 189.677 T
92.5978 179.974 86.6918 179.974 86.6918 181.416 T
0 0 0 C
92.5978 179.974 LS
86.6918 181.416 L
80.7859 189.677 L
74.88 208.707 L
74.88 179.974 L
80.7859 179.974 L
86.6918 179.974 L
92.5978 179.974 LE
187.093 249.8 LS
181.187 248.92 L
175.281 247.32 L
169.375 246.025 L
163.469 244.284 L
157.563 242.047 L
151.657 238.993 L
145.751 235.546 L
139.845 231.843 L
133.939 226.724 L
128.033 221.644 L
122.127 214.631 L
116.221 206.802 L
110.316 199.74 L
104.41 191.216 L
98.5037 184.569 L
92.5978 179.974 L
98.5037 179.974 L
104.41 179.974 L
110.316 179.974 L
116.221 179.974 L
122.127 179.974 L
128.033 179.974 L
133.939 179.974 L
139.845 179.974 L
145.751 179.974 L
151.657 179.974 L
157.563 179.974 L
163.469 179.974 L
169.375 179.974 L
175.281 179.974 L
181.187 179.974 L
187.093 179.974 L
187.093 249.8 LE
3 W
1 LJ
74.88 218.898 LS
80.7859 203.606 L
86.6918 197.191 L
92.5978 196.404 L
98.5037 199.142 L
104.41 203.9 L
110.316 209.617 L
116.221 215.583 L
122.127 221.354 L
128.033 226.676 L
133.939 231.428 L
139.845 235.575 L
145.751 239.133 L
151.657 242.148 L
157.563 244.677 L
163.469 246.785 L
169.375 248.534 L
175.281 249.979 L
181.187 251.171 L
187.093 252.154 LE
grestore
gsave
1.0 1.0 scale
newpath 0 0 moveto 576 0 lineto 576 432 lineto 0 432 lineto
closepath clip
1 1 1 C
241.974 254.387 354.186 179.974 241.974 179.974 T
241.974 254.387 354.186 254.387 354.186 179.974 T
0.5 W
0.15 0.15 0.15 C
265.597 179.974 LS
265.597 181.102 LE
265.597 254.387 LS
265.597 253.258 LE
295.127 179.974 LS
295.127 181.102 LE
295.127 254.387 LS
295.127 253.258 LE
324.657 179.974 LS
324.657 181.102 LE
324.657 254.387 LS
324.657 253.258 LE
354.186 179.974 LS
354.186 181.102 LE
354.186 254.387 LS
354.186 253.258 LE
gsave
0.14902 0.14902 0.14902 C
(5) [10] 0 262.597 164.432 10 /Helvetica SRX
grestore

gsave
0.14902 0.14902 0.14902 C
(10) [6 10] 0 289.127 164.432 10 /Helvetica SRX
grestore

gsave
0.14902 0.14902 0.14902 C
(15) [6 10] 0 318.657 164.432 10 /Helvetica SRX
grestore

gsave
0.14902 0.14902 0.14902 C
(20) [6 10] 0 348.186 164.432 10 /Helvetica SRX
grestore

241.974 181.201 LS
243.098 181.201 LE
354.186 181.201 LS
353.062 181.201 LE
241.974 197.908 LS
243.098 197.908 LE
354.186 197.908 LS
353.062 197.908 LE
241.974 214.616 LS
243.098 214.616 LE
354.186 214.616 LS
353.062 214.616 LE
241.974 231.323 LS
243.098 231.323 LE
354.186 231.323 LS
353.062 231.323 LE
241.974 248.031 LS
243.098 248.031 LE
354.186 248.031 LS
353.062 248.031 LE
gsave
0.14902 0.14902 0.14902 C
(0.001) [6 3 6 6 10] 0 209.964 177.201 10 /Helvetica SRX
grestore

gsave
0.14902 0.14902 0.14902 C
(0.002) [6 3 6 6 10] 0 209.964 193.908 10 /Helvetica SRX
grestore

gsave
0.14902 0.14902 0.14902 C
(0.003) [6 3 6 6 10] 0 209.964 210.616 10 /Helvetica SRX
grestore

gsave
0.14902 0.14902 0.14902 C
(0.004) [6 3 6 6 10] 0 209.964 227.323 10 /Helvetica SRX
grestore

gsave
0.14902 0.14902 0.14902 C
(0.005) [6 3 6 6 10] 0 209.964 244.031 10 /Helvetica SRX
grestore

2 LC
[16 0] 0 setdash
241.974 179.974 LS
354.186 179.974 LE
241.974 254.387 LS
354.186 254.387 LE
241.974 179.974 LS
241.974 254.387 LE
354.186 179.974 LS
354.186 254.387 LE
gsave
0 0 0 C
(L_N_hat) [7 6 8 6 7 6 10] 0 276.08 266.387 11 /Helvetica-Bold SRX
grestore

0.9 0.9 0.9 C
241.974 179.974 241.974 201.127 247.88 179.974 T
247.88 223.775 247.88 179.974 241.974 201.127 T
253.786 179.974 247.88 179.974 247.88 223.775 T
253.786 240.55 253.786 179.974 247.88 223.775 T
259.691 179.974 253.786 179.974 253.786 240.55 T
259.691 249.654 259.691 179.974 253.786 240.55 T
265.597 179.974 259.691 179.974 259.691 249.654 T
265.597 253.606 265.597 179.974 259.691 249.654 T
271.503 179.974 265.597 179.974 265.597 253.606 T
271.503 254.387 271.503 179.974 265.597 253.606 T
277.409 179.974 271.503 179.974 271.503 254.387 T
277.409 253.788 277.409 179.974 271.503 254.387 T
283.315 179.974 277.409 179.974 277.409 253.788 T
283.315 252.053 283.315 179.974 277.409 253.788 T
289.221 179.974 283.315 179.974 283.315 252.053 T
289.221 248.614 289.221 179.974 283.315 252.053 T
295.127 179.974 289.221 179.974 289.221 248.614 T
295.127 242.722 295.127 179.974 289.221 248.614 T
301.033 179.974 295.127 179.974 295.127 242.722 T
301.033 239.607 301.033 179.974 295.127 242.722 T
306.939 179.974 301.033 179.974 301.033 239.607 T
306.939 236.204 306.939 179.974 301.033 239.607 T
312.845 179.974 306.939 179.974 306.939 236.204 T
312.845 231.532 312.845 179.974 306.939 236.204 T
318.751 179.974 312.845 179.974 312.845 231.532 T
318.751 229.099 318.751 179.974 312.845 231.532 T
324.657 179.974 318.751 179.974 318.751 229.099 T
324.657 226.154 324.657 179.974 318.751 229.099 T
330.563 179.974 324.657 179.974 324.657 226.154 T
330.563 223.353 330.563 179.974 324.657 226.154 T
336.469 179.974 330.563 179.974 330.563 223.353 T
336.469 221.859 336.469 179.974 330.563 223.353 T
342.374 179.974 336.469 179.974 336.469 221.859 T
342.374 219.174 342.374 179.974 336.469 221.859 T
348.28 179.974 342.374 179.974 342.374 219.174 T
348.28 217.399 348.28 179.974 342.374 219.174 T
354.186 179.974 348.28 179.974 348.28 217.399 T
354.186 216.157 354.186 179.974 348.28 217.399 T
0 LC
[] 0 setdash
0 0 0 C
354.186 216.157 LS
348.28 217.399 L
342.374 219.174 L
336.469 221.859 L
330.563 223.353 L
324.657 226.154 L
318.751 229.099 L
312.845 231.532 L
306.939 236.204 L
301.033 239.607 L
295.127 242.722 L
289.221 248.614 L
283.315 252.053 L
277.409 253.788 L
271.503 254.387 L
265.597 253.606 L
259.691 249.654 L
253.786 240.55 L
247.88 223.775 L
241.974 201.127 L
241.974 179.974 L
247.88 179.974 L
253.786 179.974 L
259.691 179.974 L
265.597 179.974 L
271.503 179.974 L
277.409 179.974 L
283.315 179.974 L
289.221 179.974 L
295.127 179.974 L
301.033 179.974 L
306.939 179.974 L
312.845 179.974 L
318.751 179.974 L
324.657 179.974 L
330.563 179.974 L
336.469 179.974 L
342.374 179.974 L
348.28 179.974 L
354.186 179.974 L
354.186 216.157 LE
1 1 1 C
241.974 179.974 247.88 190.043 247.88 179.974 T
253.786 179.974 247.88 179.974 247.88 190.043 T
253.786 199.981 253.786 179.974 247.88 190.043 T
259.691 179.974 253.786 179.974 253.786 199.981 T
259.691 206.44 259.691 179.974 253.786 199.981 T
265.597 179.974 259.691 179.974 259.691 206.44 T
265.597 210.619 265.597 179.974 259.691 206.44 T
271.503 179.974 265.597 179.974 265.597 210.619 T
271.503 213.158 271.503 179.974 265.597 210.619 T
277.409 179.974 271.503 179.974 271.503 213.158 T
277.409 215.784 277.409 179.974 271.503 213.158 T
283.315 179.974 277.409 179.974 277.409 215.784 T
283.315 216.878 283.315 179.974 277.409 215.784 T
289.221 179.974 283.315 179.974 283.315 216.878 T
289.221 215.752 289.221 179.974 283.315 216.878 T
295.127 179.974 289.221 179.974 289.221 215.752 T
295.127 212.07 295.127 179.974 289.221 215.752 T
301.033 179.974 295.127 179.974 295.127 212.07 T
301.033 211.11 301.033 179.974 295.127 212.07 T
306.939 179.974 301.033 179.974 301.033 211.11 T
306.939 209.28 306.939 179.974 301.033 211.11 T
312.845 179.974 306.939 179.974 306.939 209.28 T
312.845 206.001 312.845 179.974 306.939 209.28 T
318.751 179.974 312.845 179.974 312.845 206.001 T
318.751 204.802 318.751 179.974 312.845 206.001 T
324.657 179.974 318.751 179.974 318.751 204.802 T
324.657 203.072 324.657 179.974 318.751 204.802 T
330.563 179.974 324.657 179.974 324.657 203.072 T
330.563 201.212 330.563 179.974 324.657 203.072 T
336.469 179.974 330.563 179.974 330.563 201.212 T
336.469 200.704 336.469 179.974 330.563 201.212 T
342.374 179.974 336.469 179.974 336.469 200.704 T
342.374 198.827 342.374 179.974 336.469 200.704 T
348.28 179.974 342.374 179.974 342.374 198.827 T
348.28 197.711 348.28 179.974 342.374 198.827 T
354.186 179.974 348.28 179.974 348.28 197.711 T
354.186 197.039 354.186 179.974 348.28 197.711 T
0 0 0 C
354.186 197.039 LS
348.28 197.711 L
342.374 198.827 L
336.469 200.704 L
330.563 201.212 L
324.657 203.072 L
318.751 204.802 L
312.845 206.001 L
306.939 209.28 L
301.033 211.11 L
295.127 212.07 L
289.221 215.752 L
283.315 216.878 L
277.409 215.784 L
271.503 213.158 L
265.597 210.619 L
259.691 206.44 L
253.786 199.981 L
247.88 190.043 L
241.974 179.974 L
247.88 179.974 L
253.786 179.974 L
259.691 179.974 L
265.597 179.974 L
271.503 179.974 L
277.409 179.974 L
283.315 179.974 L
289.221 179.974 L
295.127 179.974 L
301.033 179.974 L
306.939 179.974 L
312.845 179.974 L
318.751 179.974 L
324.657 179.974 L
330.563 179.974 L
336.469 179.974 L
342.374 179.974 L
348.28 179.974 L
354.186 179.974 L
354.186 197.039 LE
3 W
1 LJ
241.974 190.598 LS
247.88 208.085 L
253.786 220.267 L
259.691 228.438 L
265.597 233.272 L
271.503 235.395 L
277.409 235.446 L
283.315 234.035 L
289.221 231.685 L
295.127 228.814 L
301.033 225.734 L
306.939 222.66 L
312.845 219.735 L
318.751 217.037 L
324.657 214.607 L
330.563 212.453 L
336.469 210.565 L
342.374 208.925 L
348.28 207.504 L
354.186 206.277 LE
grestore
gsave
1.0 1.0 scale
newpath 0 0 moveto 576 0 lineto 576 432 lineto 0 432 lineto
closepath clip
1 1 1 C
409.067 254.387 521.28 179.974 409.067 179.974 T
409.067 254.387 521.28 254.387 521.28 179.974 T
0.5 W
0.15 0.15 0.15 C
432.691 179.974 LS
432.691 181.102 LE
432.691 254.387 LS
432.691 253.258 LE
462.221 179.974 LS
462.221 181.102 LE
462.221 254.387 LS
462.221 253.258 LE
491.75 179.974 LS
491.75 181.102 LE
491.75 254.387 LS
491.75 253.258 LE
521.28 179.974 LS
521.28 181.102 LE
521.28 254.387 LS
521.28 253.258 LE
gsave
0.14902 0.14902 0.14902 C
(5) [10] 0 429.691 164.432 10 /Helvetica SRX
grestore

gsave
0.14902 0.14902 0.14902 C
(10) [6 10] 0 456.221 164.432 10 /Helvetica SRX
grestore

gsave
0.14902 0.14902 0.14902 C
(15) [6 10] 0 485.75 164.432 10 /Helvetica SRX
grestore

gsave
0.14902 0.14902 0.14902 C
(20) [6 10] 0 515.28 164.432 10 /Helvetica SRX
grestore

409.067 186.839 LS
410.192 186.839 LE
521.28 186.839 LS
520.156 186.839 LE
409.067 200.477 LS
410.192 200.477 LE
521.28 200.477 LS
520.156 200.477 LE
409.067 214.116 LS
410.192 214.116 LE
521.28 214.116 LS
520.156 214.116 LE
409.067 227.754 LS
410.192 227.754 LE
521.28 227.754 LS
520.156 227.754 LE
409.067 241.392 LS
410.192 241.392 LE
521.28 241.392 LS
520.156 241.392 LE
gsave
0.14902 0.14902 0.14902 C
(0.01) [6 3 6 10] 0 383.058 182.839 10 /Helvetica SRX
grestore

gsave
0.14902 0.14902 0.14902 C
(0.02) [6 3 6 10] 0 383.058 196.477 10 /Helvetica SRX
grestore

gsave
0.14902 0.14902 0.14902 C
(0.03) [6 3 6 10] 0 383.058 210.115 10 /Helvetica SRX
grestore

gsave
0.14902 0.14902 0.14902 C
(0.04) [6 3 6 10] 0 383.058 223.754 10 /Helvetica SRX
grestore

gsave
0.14902 0.14902 0.14902 C
(0.05) [6 3 6 10] 0 383.058 237.392 10 /Helvetica SRX
grestore

2 LC
[16 0] 0 setdash
409.067 179.974 LS
521.28 179.974 LE
409.067 254.387 LS
521.28 254.387 LE
409.067 179.974 LS
409.067 254.387 LE
521.28 179.974 LS
521.28 254.387 LE
gsave
0 0 0 C
(L_C_hat) [7 6 8 6 7 6 10] 0 443.174 266.387 11 /Helvetica-Bold SRX
grestore

0.9 0.9 0.9 C
409.067 179.974 409.067 207.282 414.973 179.974 T
414.973 231.76 414.973 179.974 409.067 207.282 T
420.879 179.974 414.973 179.974 414.973 231.76 T
420.879 248.329 420.879 179.974 414.973 231.76 T
426.785 179.974 420.879 179.974 420.879 248.329 T
426.785 254.387 426.785 179.974 420.879 248.329 T
432.691 179.974 426.785 179.974 426.785 254.387 T
432.691 253.498 432.691 179.974 426.785 254.387 T
438.597 179.974 432.691 179.974 432.691 253.498 T
438.597 247.895 438.597 179.974 432.691 253.498 T
444.503 179.974 438.597 179.974 438.597 247.895 T
444.503 240.381 444.503 179.974 438.597 247.895 T
450.409 179.974 444.503 179.974 444.503 240.381 T
450.409 233.509 450.409 179.974 444.503 240.381 T
456.315 179.974 450.409 179.974 450.409 233.509 T
456.315 225.682 456.315 179.974 450.409 233.509 T
462.221 179.974 456.315 179.974 456.315 225.682 T
462.221 218.656 462.221 179.974 456.315 225.682 T
468.127 179.974 462.221 179.974 462.221 218.656 T
468.127 212.638 468.127 179.974 462.221 218.656 T
474.033 179.974 468.127 179.974 468.127 212.638 T
474.033 207.47 474.033 179.974 468.127 212.638 T
479.939 179.974 474.033 179.974 474.033 207.47 T
479.939 202.762 479.939 179.974 474.033 207.47 T
485.844 179.974 479.939 179.974 479.939 202.762 T
485.844 198.742 485.844 179.974 479.939 202.762 T
491.75 179.974 485.844 179.974 485.844 198.742 T
491.75 196.036 491.75 179.974 485.844 198.742 T
497.656 179.974 491.75 179.974 491.75 196.036 T
497.656 192.996 497.656 179.974 491.75 196.036 T
503.562 179.974 497.656 179.974 497.656 192.996 T
503.562 190.679 503.562 179.974 497.656 192.996 T
509.468 179.974 503.562 179.974 503.562 190.679 T
509.468 188.799 509.468 179.974 503.562 190.679 T
515.374 179.974 509.468 179.974 509.468 188.799 T
515.374 186.895 515.374 179.974 509.468 188.799 T
521.28 179.974 515.374 179.974 515.374 186.895 T
521.28 185.58 521.28 179.974 515.374 186.895 T
0 LC
[] 0 setdash
0 0 0 C
521.28 185.58 LS
515.374 186.895 L
509.468 188.799 L
503.562 190.679 L
497.656 192.996 L
491.75 196.036 L
485.844 198.742 L
479.939 202.762 L
474.033 207.47 L
468.127 212.638 L
462.221 218.656 L
456.315 225.682 L
450.409 233.509 L
444.503 240.381 L
438.597 247.895 L
432.691 253.498 L
426.785 254.387 L
420.879 248.329 L
414.973 231.76 L
409.067 207.282 L
409.067 179.974 L
414.973 179.974 L
420.879 179.974 L
426.785 179.974 L
432.691 179.974 L
438.597 179.974 L
444.503 179.974 L
450.409 179.974 L
456.315 179.974 L
462.221 179.974 L
468.127 179.974 L
474.033 179.974 L
479.939 179.974 L
485.844 179.974 L
491.75 179.974 L
497.656 179.974 L
503.562 179.974 L
509.468 179.974 L
515.374 179.974 L
521.28 179.974 L
521.28 185.58 LE
1 1 1 C
409.067 179.974 409.067 186.207 414.973 179.974 T
414.973 195.81 414.973 179.974 409.067 186.207 T
420.879 179.974 414.973 179.974 414.973 195.81 T
420.879 205.545 420.879 179.974 414.973 195.81 T
426.785 179.974 420.879 179.974 420.879 205.545 T
426.785 210.835 426.785 179.974 420.879 205.545 T
432.691 179.974 426.785 179.974 426.785 210.835 T
432.691 213.168 432.691 179.974 426.785 210.835 T
438.597 179.974 432.691 179.974 432.691 213.168 T
438.597 212.79 438.597 179.974 432.691 213.168 T
444.503 179.974 438.597 179.974 438.597 212.79 T
444.503 211.021 444.503 179.974 438.597 212.79 T
450.409 179.974 444.503 179.974 444.503 211.021 T
450.409 209.371 450.409 179.974 444.503 211.021 T
456.315 179.974 450.409 179.974 450.409 209.371 T
456.315 205.858 456.315 179.974 450.409 209.371 T
462.221 179.974 456.315 179.974 456.315 205.858 T
462.221 201.985 462.221 179.974 456.315 205.858 T
468.127 179.974 462.221 179.974 462.221 201.985 T
468.127 198.31 468.127 179.974 462.221 201.985 T
474.033 179.974 468.127 179.974 468.127 198.31 T
474.033 194.975 474.033 179.974 468.127 198.31 T
479.939 179.974 474.033 179.974 474.033 194.975 T
479.939 191.501 479.939 179.974 474.033 194.975 T
485.844 179.974 479.939 179.974 479.939 191.501 T
485.844 188.491 485.844 179.974 479.939 191.501 T
491.75 179.974 485.844 179.974 485.844 188.491 T
491.75 186.762 491.75 179.974 485.844 188.491 T
497.656 179.974 491.75 179.974 491.75 186.762 T
497.656 184.516 497.656 179.974 491.75 186.762 T
503.562 179.974 497.656 179.974 497.656 184.516 T
503.562 183.042 503.562 179.974 497.656 184.516 T
509.468 179.974 503.562 179.974 503.562 183.042 T
509.468 181.902 509.468 179.974 503.562 183.042 T
515.374 179.974 509.468 179.974 509.468 181.902 T
515.374 180.713 515.374 179.974 509.468 181.902 T
521.28 179.974 515.374 179.974 515.374 180.713 T
0 0 0 C
521.28 179.974 LS
515.374 180.713 L
509.468 181.902 L
503.562 183.042 L
497.656 184.516 L
491.75 186.762 L
485.844 188.491 L
479.939 191.501 L
474.033 194.975 L
468.127 198.31 L
462.221 201.985 L
456.315 205.858 L
450.409 209.371 L
444.503 211.021 L
438.597 212.79 L
432.691 213.168 L
426.785 210.835 L
420.879 205.545 L
414.973 195.81 L
409.067 186.207 L
409.067 179.974 L
414.973 179.974 L
420.879 179.974 L
426.785 179.974 L
432.691 179.974 L
438.597 179.974 L
444.503 179.974 L
450.409 179.974 L
456.315 179.974 L
462.221 179.974 L
468.127 179.974 L
474.033 179.974 L
479.939 179.974 L
485.844 179.974 L
491.75 179.974 L
497.656 179.974 L
503.562 179.974 L
509.468 179.974 L
515.374 179.974 L
521.28 179.974 LE
3 W
1 LJ
409.067 196.254 LS
414.973 214.199 L
420.879 225.606 L
426.785 231.127 L
432.691 232.117 L
438.597 229.994 L
444.503 225.964 L
450.409 220.952 L
456.315 215.612 L
462.221 210.373 L
468.127 205.493 L
474.033 201.106 L
479.939 197.261 L
485.844 193.958 L
491.75 191.16 L
497.656 188.817 L
503.562 186.872 L
509.468 185.267 L
515.374 183.948 L
521.28 182.866 LE
grestore
gsave
1.0 1.0 scale
newpath 0 0 moveto 576 0 lineto 576 432 lineto 0 432 lineto
closepath clip
1 1 1 C
74.88 121.933 187.093 47.52 74.88 47.52 T
74.88 121.933 187.093 121.933 187.093 47.52 T
0.5 W
0.15 0.15 0.15 C
98.5037 47.52 LS
98.5037 48.6484 LE
98.5037 121.933 LS
98.5037 120.805 LE
128.033 47.52 LS
128.033 48.6484 LE
128.033 121.933 LS
128.033 120.805 LE
157.563 47.52 LS
157.563 48.6484 LE
157.563 121.933 LS
157.563 120.805 LE
187.093 47.52 LS
187.093 48.6484 LE
187.093 121.933 LS
187.093 120.805 LE
gsave
0.14902 0.14902 0.14902 C
(5) [10] 0 95.5037 31.9781 10 /Helvetica SRX
grestore

gsave
0.14902 0.14902 0.14902 C
(10) [6 10] 0 122.033 31.9781 10 /Helvetica SRX
grestore

gsave
0.14902 0.14902 0.14902 C
(15) [6 10] 0 151.563 31.9781 10 /Helvetica SRX
grestore

gsave
0.14902 0.14902 0.14902 C
(20) [6 10] 0 181.093 31.9781 10 /Helvetica SRX
grestore

74.88 53.4522 LS
76.0043 53.4522 LE
187.093 53.4522 LS
185.968 53.4522 LE
74.88 73.2418 LS
76.0043 73.2418 LE
187.093 73.2418 LS
185.968 73.2418 LE
74.88 93.0314 LS
76.0043 93.0314 LE
187.093 93.0314 LS
185.968 93.0314 LE
74.88 112.821 LS
76.0043 112.821 LE
187.093 112.821 LS
185.968 112.821 LE
gsave
0.14902 0.14902 0.14902 C
(-0.005) [3 6 3 6 6 10] 0 39.8705 49.4522 10 /Helvetica SRX
grestore

gsave
0.14902 0.14902 0.14902 C
(0) [10] 0 63.8705 69.2418 10 /Helvetica SRX
grestore

gsave
0.14902 0.14902 0.14902 C
(0.005) [6 3 6 6 10] 0 42.8705 89.0315 10 /Helvetica SRX
grestore

gsave
0.14902 0.14902 0.14902 C
(0.01) [6 3 6 10] 0 48.8705 108.821 10 /Helvetica SRX
grestore

2 LC
[16 0] 0 setdash
74.88 47.52 LS
187.093 47.52 LE
74.88 121.933 LS
187.093 121.933 LE
74.88 47.52 LS
74.88 121.933 LE
187.093 47.52 LS
187.093 121.933 LE
gsave
0 0 0 C
(I_T_hat) [3 6 7 6 7 6 10] 0 111.486 133.933 11 /Helvetica-Bold SRX
grestore

0.9 0.9 0.9 C
74.88 47.52 74.88 94.0683 80.7859 47.52 T
80.7859 100.323 80.7859 47.52 74.88 94.0683 T
86.6918 47.52 80.7859 47.52 80.7859 100.323 T
86.6918 104.336 86.6918 47.52 80.7859 100.323 T
92.5978 47.52 86.6918 47.52 86.6918 104.336 T
92.5978 111.951 92.5978 47.52 86.6918 104.336 T
98.5037 47.52 92.5978 47.52 92.5978 111.951 T
98.5037 114.037 98.5037 47.52 92.5978 111.951 T
104.41 47.52 98.5037 47.52 98.5037 114.037 T
104.41 118.441 104.41 47.52 98.5037 114.037 T
110.316 47.52 104.41 47.52 104.41 118.441 T
110.316 121.933 110.316 47.52 104.41 118.441 T
116.221 47.52 110.316 47.52 110.316 121.933 T
116.221 121.381 116.221 47.52 110.316 121.933 T
122.127 47.52 116.221 47.52 116.221 121.381 T
122.127 120.692 122.127 47.52 116.221 121.381 T
128.033 47.52 122.127 47.52 122.127 120.692 T
128.033 119.113 128.033 47.52 122.127 120.692 T
133.939 47.52 128.033 47.52 128.033 119.113 T
133.939 117.745 133.939 47.52 128.033 119.113 T
139.845 47.52 133.939 47.52 133.939 117.745 T
139.845 116.043 139.845 47.52 133.939 117.745 T
145.751 47.52 139.845 47.52 139.845 116.043 T
145.751 114.571 145.751 47.52 139.845 116.043 T
151.657 47.52 145.751 47.52 145.751 114.571 T
151.657 112.081 151.657 47.52 145.751 114.571 T
157.563 47.52 151.657 47.52 151.657 112.081 T
157.563 110.545 157.563 47.52 151.657 112.081 T
163.469 47.52 157.563 47.52 157.563 110.545 T
163.469 108.781 163.469 47.52 157.563 110.545 T
169.375 47.52 163.469 47.52 163.469 108.781 T
169.375 105.971 169.375 47.52 163.469 108.781 T
175.281 47.52 169.375 47.52 169.375 105.971 T
175.281 104.672 175.281 47.52 169.375 105.971 T
181.187 47.52 175.281 47.52 175.281 104.672 T
181.187 102.304 181.187 47.52 175.281 104.672 T
187.093 47.52 181.187 47.52 181.187 102.304 T
187.093 101.487 187.093 47.52 181.187 102.304 T
0 LC
[] 0 setdash
0 0 0 C
187.093 101.487 LS
181.187 102.304 L
175.281 104.672 L
169.375 105.971 L
163.469 108.781 L
157.563 110.545 L
151.657 112.081 L
145.751 114.571 L
139.845 116.043 L
133.939 117.745 L
128.033 119.113 L
122.127 120.692 L
116.221 121.381 L
110.316 121.933 L
104.41 118.441 L
98.5037 114.037 L
92.5978 111.951 L
86.6918 104.336 L
80.7859 100.323 L
74.88 94.0683 L
74.88 47.52 L
80.7859 47.52 L
86.6918 47.52 L
92.5978 47.52 L
98.5037 47.52 L
104.41 47.52 L
110.316 47.52 L
116.221 47.52 L
122.127 47.52 L
128.033 47.52 L
133.939 47.52 L
139.845 47.52 L
145.751 47.52 L
151.657 47.52 L
157.563 47.52 L
163.469 47.52 L
169.375 47.52 L
175.281 47.52 L
181.187 47.52 L
187.093 47.52 L
187.093 101.487 LE
1 1 1 C
74.88 47.52 80.7859 57.4951 80.7859 47.52 T
86.6918 47.52 80.7859 47.52 80.7859 57.4951 T
86.6918 66.8318 86.6918 47.52 80.7859 57.4951 T
92.5978 47.52 86.6918 47.52 86.6918 66.8318 T
92.5978 79.6184 92.5978 47.52 86.6918 66.8318 T
98.5037 47.52 92.5978 47.52 92.5978 79.6184 T
98.5037 85.5851 98.5037 47.52 92.5978 79.6184 T
104.41 47.52 98.5037 47.52 98.5037 85.5851 T
104.41 92.5615 104.41 47.52 98.5037 85.5851 T
110.316 47.52 104.41 47.52 104.41 92.5615 T
110.316 97.1 110.316 47.52 104.41 92.5615 T
116.221 47.52 110.316 47.52 110.316 97.1 T
116.221 97.8188 116.221 47.52 110.316 97.1 T
122.127 47.52 116.221 47.52 116.221 97.8188 T
122.127 97.7816 122.127 47.52 116.221 97.8188 T
128.033 47.52 122.127 47.52 122.127 97.7816 T
128.033 97.3399 128.033 47.52 122.127 97.7816 T
133.939 47.52 128.033 47.52 128.033 97.3399 T
133.939 97.1751 133.939 47.52 128.033 97.3399 T
139.845 47.52 133.939 47.52 133.939 97.1751 T
139.845 96.7659 139.845 47.52 133.939 97.1751 T
145.751 47.52 139.845 47.52 139.845 96.7659 T
145.751 96.7922 145.751 47.52 139.845 96.7659 T
151.657 47.52 145.751 47.52 145.751 96.7922 T
151.657 95.6261 151.657 47.52 145.751 96.7922 T
157.563 47.52 151.657 47.52 151.657 95.6261 T
157.563 95.1936 157.563 47.52 151.657 95.6261 T
163.469 47.52 157.563 47.52 157.563 95.1936 T
163.469 94.5357 163.469 47.52 157.563 95.1936 T
169.375 47.52 163.469 47.52 163.469 94.5357 T
169.375 92.7898 169.375 47.52 163.469 94.5357 T
175.281 47.52 169.375 47.52 169.375 92.7898 T
175.281 92.4264 175.281 47.52 169.375 92.7898 T
181.187 47.52 175.281 47.52 175.281 92.4264 T
181.187 90.8536 181.187 47.52 175.281 92.4264 T
187.093 47.52 181.187 47.52 181.187 90.8536 T
187.093 90.8613 187.093 47.52 181.187 90.8536 T
0 0 0 C
187.093 90.8613 LS
181.187 90.8536 L
175.281 92.4264 L
169.375 92.7898 L
163.469 94.5357 L
157.563 95.1936 L
151.657 95.6261 L
145.751 96.7922 L
139.845 96.7659 L
133.939 97.1751 L
128.033 97.3399 L
122.127 97.7816 L
116.221 97.8188 L
110.316 97.1 L
104.41 92.5615 L
98.5037 85.5851 L
92.5978 79.6184 L
86.6918 66.8318 L
80.7859 57.4951 L
74.88 47.52 L
80.7859 47.52 L
86.6918 47.52 L
92.5978 47.52 L
98.5037 47.52 L
104.41 47.52 L
110.316 47.52 L
116.221 47.52 L
122.127 47.52 L
128.033 47.52 L
133.939 47.52 L
139.845 47.52 L
145.751 47.52 L
151.657 47.52 L
157.563 47.52 L
163.469 47.52 L
169.375 47.52 L
175.281 47.52 L
181.187 47.52 L
187.093 47.52 L
187.093 90.8613 LE
3 W
1 LJ
74.88 69.9199 LS
80.7859 77.9894 L
86.6918 86.482 L
92.5978 94.1536 L
98.5037 100.364 L
104.41 104.933 L
110.316 107.947 L
116.221 109.622 L
122.127 110.217 L
128.033 109.987 L
133.939 109.161 L
139.845 107.929 L
145.751 106.445 L
151.657 104.827 L
157.563 103.163 L
163.469 101.514 L
169.375 99.9234 L
175.281 98.4187 L
181.187 97.0154 L
187.093 95.7209 LE
grestore
gsave
1.0 1.0 scale
newpath 0 0 moveto 576 0 lineto 576 432 lineto 0 432 lineto
closepath clip
1 1 1 C
241.974 121.933 354.186 47.52 241.974 47.52 T
241.974 121.933 354.186 121.933 354.186 47.52 T
0.5 W
0.15 0.15 0.15 C
265.597 47.52 LS
265.597 48.6484 LE
265.597 121.933 LS
265.597 120.805 LE
295.127 47.52 LS
295.127 48.6484 LE
295.127 121.933 LS
295.127 120.805 LE
324.657 47.52 LS
324.657 48.6484 LE
324.657 121.933 LS
324.657 120.805 LE
354.186 47.52 LS
354.186 48.6484 LE
354.186 121.933 LS
354.186 120.805 LE
gsave
0.14902 0.14902 0.14902 C
(5) [10] 0 262.597 31.9781 10 /Helvetica SRX
grestore

gsave
0.14902 0.14902 0.14902 C
(10) [6 10] 0 289.127 31.9781 10 /Helvetica SRX
grestore

gsave
0.14902 0.14902 0.14902 C
(15) [6 10] 0 318.657 31.9781 10 /Helvetica SRX
grestore

gsave
0.14902 0.14902 0.14902 C
(20) [6 10] 0 348.186 31.9781 10 /Helvetica SRX
grestore

241.974 49.7347 LS
243.098 49.7347 LE
354.186 49.7347 LS
353.062 49.7347 LE
241.974 64.9329 LS
243.098 64.9329 LE
354.186 64.9329 LS
353.062 64.9329 LE
241.974 80.1311 LS
243.098 80.1311 LE
354.186 80.1311 LS
353.062 80.1311 LE
241.974 95.3293 LS
243.098 95.3293 LE
354.186 95.3293 LS
353.062 95.3293 LE
241.974 110.527 LS
243.098 110.527 LE
354.186 110.527 LS
353.062 110.527 LE
gsave
0.14902 0.14902 0.14902 C
(0.005) [6 3 6 6 10] 0 209.964 45.7347 10 /Helvetica SRX
grestore

gsave
0.14902 0.14902 0.14902 C
(0.01) [6 3 6 10] 0 215.964 60.9329 10 /Helvetica SRX
grestore

gsave
0.14902 0.14902 0.14902 C
(0.015) [6 3 6 6 10] 0 209.964 76.1311 10 /Helvetica SRX
grestore

gsave
0.14902 0.14902 0.14902 C
(0.02) [6 3 6 10] 0 215.964 91.3293 10 /Helvetica SRX
grestore

gsave
0.14902 0.14902 0.14902 C
(0.025) [6 3 6 6 10] 0 209.964 106.527 10 /Helvetica SRX
grestore

2 LC
[16 0] 0 setdash
241.974 47.52 LS
354.186 47.52 LE
241.974 121.933 LS
354.186 121.933 LE
241.974 47.52 LS
241.974 121.933 LE
354.186 47.52 LS
354.186 121.933 LE
gsave
0 0 0 C
(I_N_hat) [3 6 8 6 7 6 10] 0 278.08 133.933 11 /Helvetica-Bold SRX
grestore

0.9 0.9 0.9 C
241.974 47.52 241.974 121.933 247.88 47.52 T
247.88 118.662 247.88 47.52 241.974 121.933 T
253.786 47.52 247.88 47.52 247.88 118.662 T
253.786 114.898 253.786 47.52 247.88 118.662 T
259.691 47.52 253.786 47.52 253.786 114.898 T
259.691 109.443 259.691 47.52 253.786 114.898 T
265.597 47.52 259.691 47.52 259.691 109.443 T
265.597 104.484 265.597 47.52 259.691 109.443 T
271.503 47.52 265.597 47.52 265.597 104.484 T
271.503 98.8436 271.503 47.52 265.597 104.484 T
277.409 47.52 271.503 47.52 271.503 98.8436 T
277.409 94.6233 277.409 47.52 271.503 98.8436 T
283.315 47.52 277.409 47.52 277.409 94.6233 T
283.315 87.9661 283.315 47.52 277.409 94.6233 T
289.221 47.52 283.315 47.52 283.315 87.9661 T
289.221 83.5893 289.221 47.52 283.315 87.9661 T
295.127 47.52 289.221 47.52 289.221 83.5893 T
295.127 79.3542 295.127 47.52 289.221 83.5893 T
301.033 47.52 295.127 47.52 295.127 79.3542 T
301.033 75.2287 301.033 47.52 295.127 79.3542 T
306.939 47.52 301.033 47.52 301.033 75.2287 T
306.939 72.2247 306.939 47.52 301.033 75.2287 T
312.845 47.52 306.939 47.52 306.939 72.2247 T
312.845 68.9963 312.845 47.52 306.939 72.2247 T
318.751 47.52 312.845 47.52 312.845 68.9963 T
318.751 66.3182 318.751 47.52 312.845 68.9963 T
324.657 47.52 318.751 47.52 318.751 66.3182 T
324.657 63.297 324.657 47.52 318.751 66.3182 T
330.563 47.52 324.657 47.52 324.657 63.297 T
330.563 61.2369 330.563 47.52 324.657 63.297 T
336.469 47.52 330.563 47.52 330.563 61.2369 T
336.469 59.6423 336.469 47.52 330.563 61.2369 T
342.374 47.52 336.469 47.52 336.469 59.6423 T
342.374 57.7381 342.374 47.52 336.469 59.6423 T
348.28 47.52 342.374 47.52 342.374 57.7381 T
348.28 56.4152 348.28 47.52 342.374 57.7381 T
354.186 47.52 348.28 47.52 348.28 56.4152 T
354.186 54.8414 354.186 47.52 348.28 56.4152 T
0 LC
[] 0 setdash
0 0 0 C
354.186 54.8414 LS
348.28 56.4152 L
342.374 57.7381 L
336.469 59.6423 L
330.563 61.2369 L
324.657 63.297 L
318.751 66.3182 L
312.845 68.9963 L
306.939 72.2247 L
301.033 75.2287 L
295.127 79.3542 L
289.221 83.5893 L
283.315 87.9661 L
277.409 94.6233 L
271.503 98.8436 L
265.597 104.484 L
259.691 109.443 L
253.786 114.898 L
247.88 118.662 L
241.974 121.933 L
241.974 47.52 L
247.88 47.52 L
253.786 47.52 L
259.691 47.52 L
265.597 47.52 L
271.503 47.52 L
277.409 47.52 L
283.315 47.52 L
289.221 47.52 L
295.127 47.52 L
301.033 47.52 L
306.939 47.52 L
312.845 47.52 L
318.751 47.52 L
324.657 47.52 L
330.563 47.52 L
336.469 47.52 L
342.374 47.52 L
348.28 47.52 L
354.186 47.52 L
354.186 54.8414 LE
1 1 1 C
241.974 47.52 241.974 84.0488 247.88 47.52 T
247.88 82.5738 247.88 47.52 241.974 84.0488 T
253.786 47.52 247.88 47.52 247.88 82.5738 T
253.786 81.2792 253.786 47.52 247.88 82.5738 T
259.691 47.52 253.786 47.52 253.786 81.2792 T
259.691 79.0799 259.691 47.52 253.786 81.2792 T
265.597 47.52 259.691 47.52 259.691 79.0799 T
265.597 76.4056 265.597 47.52 259.691 79.0799 T
271.503 47.52 265.597 47.52 265.597 76.4056 T
271.503 73.3208 271.503 47.52 265.597 76.4056 T
277.409 47.52 271.503 47.52 271.503 73.3208 T
277.409 71.2261 277.409 47.52 271.503 73.3208 T
283.315 47.52 277.409 47.52 277.409 71.2261 T
283.315 66.7538 283.315 47.52 277.409 71.2261 T
289.221 47.52 283.315 47.52 283.315 66.7538 T
289.221 64.2869 289.221 47.52 283.315 66.7538 T
295.127 47.52 289.221 47.52 289.221 64.2869 T
295.127 61.9804 295.127 47.52 289.221 64.2869 T
301.033 47.52 295.127 47.52 295.127 61.9804 T
301.033 59.4102 301.033 47.52 295.127 61.9804 T
306.939 47.52 301.033 47.52 301.033 59.4102 T
306.939 57.8133 306.939 47.52 301.033 59.4102 T
312.845 47.52 306.939 47.52 306.939 57.8133 T
312.845 55.9672 312.845 47.52 306.939 57.8133 T
318.751 47.52 312.845 47.52 312.845 55.9672 T
318.751 54.422 318.751 47.52 312.845 55.9672 T
324.657 47.52 318.751 47.52 318.751 54.422 T
324.657 52.4643 324.657 47.52 318.751 54.422 T
330.563 47.52 324.657 47.52 324.657 52.4643 T
330.563 51.3755 330.563 47.52 324.657 52.4643 T
336.469 47.52 330.563 47.52 330.563 51.3755 T
336.469 50.5742 336.469 47.52 330.563 51.3755 T
342.374 47.52 336.469 47.52 336.469 50.5742 T
342.374 49.3623 342.374 47.52 336.469 50.5742 T
348.28 47.52 342.374 47.52 342.374 49.3623 T
348.28 48.6192 348.28 47.52 342.374 49.3623 T
354.186 47.52 348.28 47.52 348.28 48.6192 T
0 0 0 C
354.186 47.52 LS
348.28 48.6192 L
342.374 49.3623 L
336.469 50.5742 L
330.563 51.3755 L
324.657 52.4643 L
318.751 54.422 L
312.845 55.9672 L
306.939 57.8133 L
301.033 59.4102 L
295.127 61.9804 L
289.221 64.2869 L
283.315 66.7538 L
277.409 71.2261 L
271.503 73.3208 L
265.597 76.4056 L
259.691 79.0799 L
253.786 81.2792 L
247.88 82.5738 L
241.974 84.0488 L
241.974 47.52 L
247.88 47.52 L
253.786 47.52 L
259.691 47.52 L
265.597 47.52 L
271.503 47.52 L
277.409 47.52 L
283.315 47.52 L
289.221 47.52 L
295.127 47.52 L
301.033 47.52 L
306.939 47.52 L
312.845 47.52 L
318.751 47.52 L
324.657 47.52 L
330.563 47.52 L
336.469 47.52 L
342.374 47.52 L
348.28 47.52 L
354.186 47.52 LE
3 W
1 LJ
241.974 102.867 LS
247.88 101.013 L
253.786 98.2952 L
259.691 94.8957 L
265.597 91.0305 L
271.503 86.9247 L
277.409 82.7748 L
283.315 78.7331 L
289.221 74.9057 L
295.127 71.3587 L
301.033 68.126 L
306.939 65.2178 L
312.845 62.6275 L
318.751 60.3381 L
324.657 58.3263 L
330.563 56.5656 L
336.469 55.0289 L
342.374 53.69 L
348.28 52.5241 L
354.186 51.5084 LE
grestore
gsave
1.0 1.0 scale
newpath 0 0 moveto 576 0 lineto 576 432 lineto 0 432 lineto
closepath clip
1 1 1 C
409.067 121.933 521.28 47.52 409.067 47.52 T
409.067 121.933 521.28 121.933 521.28 47.52 T
0.5 W
0.15 0.15 0.15 C
432.691 47.52 LS
432.691 48.6484 LE
432.691 121.933 LS
432.691 120.805 LE
462.221 47.52 LS
462.221 48.6484 LE
462.221 121.933 LS
462.221 120.805 LE
491.75 47.52 LS
491.75 48.6484 LE
491.75 121.933 LS
491.75 120.805 LE
521.28 47.52 LS
521.28 48.6484 LE
521.28 121.933 LS
521.28 120.805 LE
gsave
0.14902 0.14902 0.14902 C
(5) [10] 0 429.691 31.9781 10 /Helvetica SRX
grestore

gsave
0.14902 0.14902 0.14902 C
(10) [6 10] 0 456.221 31.9781 10 /Helvetica SRX
grestore

gsave
0.14902 0.14902 0.14902 C
(15) [6 10] 0 485.75 31.9781 10 /Helvetica SRX
grestore

gsave
0.14902 0.14902 0.14902 C
(20) [6 10] 0 515.28 31.9781 10 /Helvetica SRX
grestore

409.067 58.8723 LS
410.192 58.8723 LE
521.28 58.8723 LS
520.156 58.8723 LE
409.067 71.8013 LS
410.192 71.8013 LE
521.28 71.8013 LS
520.156 71.8013 LE
409.067 84.7303 LS
410.192 84.7303 LE
521.28 84.7303 LS
520.156 84.7303 LE
409.067 97.6593 LS
410.192 97.6593 LE
521.28 97.6593 LS
520.156 97.6593 LE
409.067 110.588 LS
410.192 110.588 LE
521.28 110.588 LS
520.156 110.588 LE
gsave
0.14902 0.14902 0.14902 C
(0.02) [6 3 6 10] 0 383.058 54.8724 10 /Helvetica SRX
grestore

gsave
0.14902 0.14902 0.14902 C
(0.04) [6 3 6 10] 0 383.058 67.8013 10 /Helvetica SRX
grestore

gsave
0.14902 0.14902 0.14902 C
(0.06) [6 3 6 10] 0 383.058 80.7303 10 /Helvetica SRX
grestore

gsave
0.14902 0.14902 0.14902 C
(0.08) [6 3 6 10] 0 383.058 93.6593 10 /Helvetica SRX
grestore

gsave
0.14902 0.14902 0.14902 C
(0.1) [6 3 10] 0 389.058 106.588 10 /Helvetica SRX
grestore

2 LC
[16 0] 0 setdash
409.067 47.52 LS
521.28 47.52 LE
409.067 121.933 LS
521.28 121.933 LE
409.067 47.52 LS
409.067 121.933 LE
521.28 47.52 LS
521.28 121.933 LE
gsave
0 0 0 C
(I_C_hat) [3 6 8 6 7 6 10] 0 445.174 133.933 11 /Helvetica-Bold SRX
grestore

0.9 0.9 0.9 C
409.067 47.52 409.067 121.933 414.973 47.52 T
414.973 114.609 414.973 47.52 409.067 121.933 T
420.879 47.52 414.973 47.52 414.973 114.609 T
420.879 105.23 420.879 47.52 414.973 114.609 T
426.785 47.52 420.879 47.52 420.879 105.23 T
426.785 96.7001 426.785 47.52 420.879 105.23 T
432.691 47.52 426.785 47.52 426.785 96.7001 T
432.691 88.4849 432.691 47.52 426.785 96.7001 T
438.597 47.52 432.691 47.52 432.691 88.4849 T
438.597 82.2465 438.597 47.52 432.691 88.4849 T
444.503 47.52 438.597 47.52 438.597 82.2465 T
444.503 76.1533 444.503 47.52 438.597 82.2465 T
450.409 47.52 444.503 47.52 444.503 76.1533 T
450.409 70.452 450.409 47.52 444.503 76.1533 T
456.315 47.52 450.409 47.52 450.409 70.452 T
456.315 66.0656 456.315 47.52 450.409 70.452 T
462.221 47.52 456.315 47.52 456.315 66.0656 T
462.221 62.2615 462.221 47.52 456.315 66.0656 T
468.127 47.52 462.221 47.52 462.221 62.2615 T
468.127 59.1748 468.127 47.52 462.221 62.2615 T
474.033 47.52 468.127 47.52 468.127 59.1748 T
474.033 56.9238 474.033 47.52 468.127 59.1748 T
479.939 47.52 474.033 47.52 474.033 56.9238 T
479.939 54.8859 479.939 47.52 474.033 56.9238 T
485.844 47.52 479.939 47.52 479.939 54.8859 T
485.844 53.3426 485.844 47.52 479.939 54.8859 T
491.75 47.52 485.844 47.52 485.844 53.3426 T
491.75 52.0854 491.75 47.52 485.844 53.3426 T
497.656 47.52 491.75 47.52 491.75 52.0854 T
497.656 51.1133 497.656 47.52 491.75 52.0854 T
503.562 47.52 497.656 47.52 497.656 51.1133 T
503.562 50.3583 503.562 47.52 497.656 51.1133 T
509.468 47.52 503.562 47.52 503.562 50.3583 T
509.468 49.7726 509.468 47.52 503.562 50.3583 T
515.374 47.52 509.468 47.52 509.468 49.7726 T
515.374 49.2608 515.374 47.52 509.468 49.7726 T
521.28 47.52 515.374 47.52 515.374 49.2608 T
521.28 48.8464 521.28 47.52 515.374 49.2608 T
0 LC
[] 0 setdash
0 0 0 C
521.28 48.8464 LS
515.374 49.2608 L
509.468 49.7726 L
503.562 50.3583 L
497.656 51.1133 L
491.75 52.0854 L
485.844 53.3426 L
479.939 54.8859 L
474.033 56.9238 L
468.127 59.1748 L
462.221 62.2615 L
456.315 66.0656 L
450.409 70.452 L
444.503 76.1533 L
438.597 82.2465 L
432.691 88.4849 L
426.785 96.7001 L
420.879 105.23 L
414.973 114.609 L
409.067 121.933 L
409.067 47.52 L
414.973 47.52 L
420.879 47.52 L
426.785 47.52 L
432.691 47.52 L
438.597 47.52 L
444.503 47.52 L
450.409 47.52 L
456.315 47.52 L
462.221 47.52 L
468.127 47.52 L
474.033 47.52 L
479.939 47.52 L
485.844 47.52 L
491.75 47.52 L
497.656 47.52 L
503.562 47.52 L
509.468 47.52 L
515.374 47.52 L
521.28 47.52 L
521.28 48.8464 LE
1 1 1 C
409.067 47.52 409.067 93.9247 414.973 47.52 T
414.973 89.3135 414.973 47.52 409.067 93.9247 T
420.879 47.52 414.973 47.52 414.973 89.3135 T
420.879 83.2595 420.879 47.52 414.973 89.3135 T
426.785 47.52 420.879 47.52 420.879 83.2595 T
426.785 77.9689 426.785 47.52 420.879 83.2595 T
432.691 47.52 426.785 47.52 426.785 77.9689 T
432.691 72.5853 432.691 47.52 426.785 77.9689 T
438.597 47.52 432.691 47.52 432.691 72.5853 T
438.597 68.8447 438.597 47.52 432.691 72.5853 T
444.503 47.52 438.597 47.52 438.597 68.8447 T
444.503 65.0511 444.503 47.52 438.597 68.8447 T
450.409 47.52 444.503 47.52 444.503 65.0511 T
450.409 61.3626 450.409 47.52 444.503 65.0511 T
456.315 47.52 450.409 47.52 450.409 61.3626 T
456.315 58.4324 456.315 47.52 450.409 61.3626 T
462.221 47.52 456.315 47.52 456.315 58.4324 T
462.221 55.8454 462.221 47.52 456.315 58.4324 T
468.127 47.52 462.221 47.52 462.221 55.8454 T
468.127 53.8222 468.127 47.52 462.221 55.8454 T
474.033 47.52 468.127 47.52 468.127 53.8222 T
474.033 52.4498 474.033 47.52 468.127 53.8222 T
479.939 47.52 474.033 47.52 474.033 52.4498 T
479.939 51.1184 479.939 47.52 474.033 52.4498 T
485.844 47.52 479.939 47.52 479.939 51.1184 T
485.844 50.1459 485.844 47.52 479.939 51.1184 T
491.75 47.52 485.844 47.52 485.844 50.1459 T
491.75 49.3612 491.75 47.52 485.844 50.1459 T
497.656 47.52 491.75 47.52 491.75 49.3612 T
497.656 48.7749 497.656 47.52 491.75 49.3612 T
503.562 47.52 497.656 47.52 497.656 48.7749 T
503.562 48.3481 503.562 47.52 497.656 48.7749 T
509.468 47.52 503.562 47.52 503.562 48.3481 T
509.468 48.0439 509.468 47.52 503.562 48.3481 T
515.374 47.52 509.468 47.52 509.468 48.0439 T
515.374 47.7538 515.374 47.52 509.468 48.0439 T
521.28 47.52 515.374 47.52 515.374 47.7538 T
0 0 0 C
521.28 47.52 LS
515.374 47.7538 L
509.468 48.0439 L
503.562 48.3481 L
497.656 48.7749 L
491.75 49.3612 L
485.844 50.1459 L
479.939 51.1184 L
474.033 52.4498 L
468.127 53.8222 L
462.221 55.8454 L
456.315 58.4324 L
450.409 61.3626 L
444.503 65.0511 L
438.597 68.8447 L
432.691 72.5853 L
426.785 77.9689 L
420.879 83.2595 L
414.973 89.3135 L
409.067 93.9247 L
409.067 47.52 L
414.973 47.52 L
420.879 47.52 L
426.785 47.52 L
432.691 47.52 L
438.597 47.52 L
444.503 47.52 L
450.409 47.52 L
456.315 47.52 L
462.221 47.52 L
468.127 47.52 L
474.033 47.52 L
479.939 47.52 L
485.844 47.52 L
491.75 47.52 L
497.656 47.52 L
503.562 47.52 L
509.468 47.52 L
515.374 47.52 L
521.28 47.52 LE
3 W
1 LJ
409.067 107.974 LS
414.973 102.087 L
420.879 95.1021 L
426.785 88.0111 L
432.691 81.3537 L
438.597 75.3926 L
444.503 70.2218 L
450.409 65.8369 L
456.315 62.1804 L
462.221 59.1701 L
468.127 56.7165 L
474.033 54.7323 L
479.939 53.1376 L
485.844 51.8622 L
491.75 50.8463 L
497.656 50.0396 L
503.562 49.4004 L
509.468 48.895 L
515.374 48.496 L
521.28 48.1814 LE
grestore
grestore
showpage
cleartomark
%%PageTrailer
%%Trailer
end
%%EOF
