%!PS-Adobe-3.0 EPSF-3.0
%%Title: gl2ps_renderer figure
%%Creator: GL2PS 1.4.2, (C) 1999-2020 C. Geuzaine
%%For: Octave
%%CreationDate: Wed Oct  7 04:42:53 2020
%%LanguageLevel: 3
%%DocumentData: Clean7Bit
%%Pages: 1
%%BoundingBox: 0 0 576 432
%%EndComments
%%BeginProlog
/gl2psdict 64 dict def gl2psdict begin
/tryPS3shading false def % set to false to force subdivision
/rThreshold 0.064 def % red component subdivision threshold
/gThreshold 0.034 def % green component subdivision threshold
/bThreshold 0.1 def % blue component subdivision threshold
/BD { bind def } bind def
/C  { setrgbcolor } BD
/G  { 0.082 mul exch 0.6094 mul add exch 0.3086 mul add neg 1.0 add setgray } BD
/W  { setlinewidth } BD
/LC  { setlinecap } BD
/LJ  { setlinejoin } BD
/FC { findfont exch /SH exch def SH scalefont setfont } BD
/SW { dup stringwidth pop } BD
/S  { FC moveto show } BD
/SBC{ FC moveto SW -2 div 0 rmoveto show } BD
/SBR{ FC moveto SW neg 0 rmoveto show } BD
/SCL{ FC moveto 0 SH -2 div rmoveto show } BD
/SCC{ FC moveto SW -2 div SH -2 div rmoveto show } BD
/SCR{ FC moveto SW neg SH -2 div rmoveto show } BD
/STL{ FC moveto 0 SH neg rmoveto show } BD
/STC{ FC moveto SW -2 div SH neg rmoveto show } BD
/STR{ FC moveto SW neg SH neg rmoveto show } BD
/FCT { FC translate 0 0 } BD
/SR  { gsave FCT moveto rotate show grestore } BD
/SRX  { gsave FCT moveto rotate xshow grestore } BD
/SBCR{ gsave FCT moveto rotate SW -2 div 0 rmoveto show grestore } BD
/SBRR{ gsave FCT moveto rotate SW neg 0 rmoveto show grestore } BD
/SCLR{ gsave FCT moveto rotate 0 SH -2 div rmoveto show grestore} BD
/SCCR{ gsave FCT moveto rotate SW -2 div SH -2 div rmoveto show grestore} BD
/SCRR{ gsave FCT moveto rotate SW neg SH -2 div rmoveto show grestore} BD
/STLR{ gsave FCT moveto rotate 0 SH neg rmoveto show grestore } BD
/STCR{ gsave FCT moveto rotate SW -2 div SH neg rmoveto show grestore } BD
/STRR{ gsave FCT moveto rotate SW neg SH neg rmoveto show grestore } BD
/P  { newpath 0.0 360.0 arc closepath fill } BD
/LS { newpath moveto } BD
/L  { lineto } BD
/LE { lineto stroke } BD
/T  { newpath moveto lineto lineto closepath fill } BD
/STshfill {
      /b1 exch def /g1 exch def /r1 exch def /y1 exch def /x1 exch def
      /b2 exch def /g2 exch def /r2 exch def /y2 exch def /x2 exch def
      /b3 exch def /g3 exch def /r3 exch def /y3 exch def /x3 exch def
      gsave << /ShadingType 4 /ColorSpace [/DeviceRGB]
      /DataSource [ 0 x1 y1 r1 g1 b1 0 x2 y2 r2 g2 b2 0 x3 y3 r3 g3 b3 ] >>
      shfill grestore } BD
/Tm { 3 -1 roll 8 -1 roll 13 -1 roll add add 3 div
      3 -1 roll 7 -1 roll 11 -1 roll add add 3 div
      3 -1 roll 6 -1 roll 9 -1 roll add add 3 div C T } BD
/STsplit {
      4 index 15 index add 0.5 mul
      4 index 15 index add 0.5 mul
      4 index 15 index add 0.5 mul
      4 index 15 index add 0.5 mul
      4 index 15 index add 0.5 mul
      5 copy 5 copy 25 15 roll
      9 index 30 index add 0.5 mul
      9 index 30 index add 0.5 mul
      9 index 30 index add 0.5 mul
      9 index 30 index add 0.5 mul
      9 index 30 index add 0.5 mul
      5 copy 5 copy 35 5 roll 25 5 roll 15 5 roll
      4 index 10 index add 0.5 mul
      4 index 10 index add 0.5 mul
      4 index 10 index add 0.5 mul
      4 index 10 index add 0.5 mul
      4 index 10 index add 0.5 mul
      5 copy 5 copy 40 5 roll 25 5 roll 15 5 roll 25 5 roll
      STnoshfill STnoshfill STnoshfill STnoshfill } BD
/STnoshfill {
      2 index 8 index sub abs rThreshold gt
      { STsplit }
      { 1 index 7 index sub abs gThreshold gt
        { STsplit }
        { dup 6 index sub abs bThreshold gt
          { STsplit }
          { 2 index 13 index sub abs rThreshold gt
            { STsplit }
            { 1 index 12 index sub abs gThreshold gt
              { STsplit }
              { dup 11 index sub abs bThreshold gt
                { STsplit }
                { 7 index 13 index sub abs rThreshold gt
                  { STsplit }
                  { 6 index 12 index sub abs gThreshold gt
                    { STsplit }
                    { 5 index 11 index sub abs bThreshold gt
                      { STsplit }
                      { Tm }
                      ifelse }
                    ifelse }
                  ifelse }
                ifelse }
              ifelse }
            ifelse }
          ifelse }
        ifelse }
      ifelse } BD
tryPS3shading
{ /shfill where
  { /ST { STshfill } BD }
  { /ST { STnoshfill } BD }
  ifelse }
{ /ST { STnoshfill } BD }
ifelse
end
%%EndProlog
%%BeginSetup
/DeviceRGB setcolorspace
gl2psdict begin
%%EndSetup
%%Page: 1 1
%%BeginPageSetup
%%EndPageSetup
mark
gsave
1.0 1.0 scale
1 1 1 C
newpath 0 0 moveto 576 0 lineto 576 432 lineto 0 432 lineto
closepath fill
gsave
1.0 1.0 scale
1 1 1 C
newpath 0 0 moveto 576 0 lineto 576 432 lineto 0 432 lineto
closepath fill
newpath 0 0 moveto 576 0 lineto 576 432 lineto 0 432 lineto
closepath clip
1 1 1 C
74.88 388.841 521.28 312.427 74.88 312.427 T
74.88 388.841 521.28 388.841 521.28 312.427 T
0.5 W
0.15 0.15 0.15 C
164.124 312.427 LS
164.124 316.916 LE
164.124 388.841 LS
164.124 384.352 LE
253.413 312.427 LS
253.413 316.916 LE
253.413 388.841 LS
253.413 384.352 LE
342.702 312.427 LS
342.702 316.916 LE
342.702 388.841 LS
342.702 384.352 LE
431.991 312.427 LS
431.991 316.916 LE
431.991 388.841 LS
431.991 384.352 LE
521.28 312.427 LS
521.28 316.916 LE
521.28 388.841 LS
521.28 384.352 LE
gsave
0.14902 0.14902 0.14902 C
(2e+06) [6 5 6 6 10] 0 149.624 296.887 10 /Helvetica SRX
grestore

gsave
0.14902 0.14902 0.14902 C
(4e+06) [6 5 6 6 10] 0 238.913 296.887 10 /Helvetica SRX
grestore

gsave
0.14902 0.14902 0.14902 C
(6e+06) [6 5 6 6 10] 0 328.202 296.887 10 /Helvetica SRX
grestore

gsave
0.14902 0.14902 0.14902 C
(8e+06) [6 5 6 6 10] 0 417.491 296.887 10 /Helvetica SRX
grestore

gsave
0.14902 0.14902 0.14902 C
(1e+07) [6 5 6 6 10] 0 506.78 296.887 10 /Helvetica SRX
grestore

74.88 312.427 LS
79.348 312.427 LE
521.28 312.427 LS
516.812 312.427 LE
74.88 327.71 LS
79.348 327.71 LE
521.28 327.71 LS
516.812 327.71 LE
74.88 342.993 LS
79.348 342.993 LE
521.28 342.993 LS
516.812 342.993 LE
74.88 358.275 LS
79.348 358.275 LE
521.28 358.275 LS
516.812 358.275 LE
74.88 373.558 LS
79.348 373.558 LE
521.28 373.558 LS
516.812 373.558 LE
74.88 388.841 LS
79.348 388.841 LE
521.28 388.841 LS
516.812 388.841 LE
gsave
0.14902 0.14902 0.14902 C
(0) [10] 0 63.8755 308.427 10 /Helvetica SRX
grestore

gsave
0.14902 0.14902 0.14902 C
(5) [10] 0 63.8755 323.71 10 /Helvetica SRX
grestore

gsave
0.14902 0.14902 0.14902 C
(10) [6 10] 0 57.8755 338.993 10 /Helvetica SRX
grestore

gsave
0.14902 0.14902 0.14902 C
(15) [6 10] 0 57.8755 354.275 10 /Helvetica SRX
grestore

gsave
0.14902 0.14902 0.14902 C
(20) [6 10] 0 57.8755 369.558 10 /Helvetica SRX
grestore

gsave
0.14902 0.14902 0.14902 C
(25) [6 10] 0 57.8755 384.841 10 /Helvetica SRX
grestore

2 LC
[16 0] 0 setdash
74.88 312.427 LS
521.28 312.427 LE
74.88 388.841 LS
521.28 388.841 LE
74.88 312.427 LS
74.88 388.841 LE
521.28 312.427 LS
521.28 388.841 LE
gsave
0 0 0 C
(Interval) [3 7 4 6 4 6 6 10] 0 278.58 399.841 11 /Helvetica-Bold SRX
grestore

0 LC
1 LJ
[] 0 setdash
0 0 1 C
74.88 332.09 LS
79.344 384.111 L
83.808 387.407 L
88.272 385.93 L
92.736 356.583 L
97.2 351.44 L
101.664 353.329 L
106.128 369.21 L
110.592 365.149 L
115.056 355.752 L
119.52 354.109 L
123.984 349.899 L
128.448 353.932 L
132.912 356.415 L
137.376 351.698 L
141.84 353.645 L
146.304 352.433 L
150.768 351.297 L
155.232 349.238 L
159.696 343.191 L
164.16 339.667 L
168.624 339.655 L
173.088 339.129 L
177.552 338.687 L
182.016 338.092 L
186.48 337.482 L
190.944 337.812 L
195.408 337.724 L
199.872 338.901 L
204.336 339.332 L
208.8 340.08 L
213.264 343.315 L
217.728 343.582 L
222.192 343.496 L
226.656 343.404 L
231.12 342.9 L
235.584 342.558 L
240.048 342.132 L
244.512 341.907 L
248.976 341.053 L
253.44 340.406 L
257.904 340.103 L
262.368 338.866 L
266.832 338.786 L
271.296 338.447 L
275.76 338.297 L
280.224 337.728 L
284.688 337.614 L
289.152 337.57 L
293.616 338.134 L
298.08 339.564 L
302.544 340.174 L
307.008 340.619 L
311.472 340.784 L
315.936 341.381 L
320.4 341.588 L
324.864 342.017 L
329.328 341.858 L
333.792 341.716 L
338.256 341.988 L
342.72 341.773 L
347.184 341.717 L
351.648 341.084 L
356.112 340.636 L
360.576 340.054 L
365.04 340.739 L
369.504 341.224 L
373.968 340.713 L
378.432 340.526 L
382.896 340.364 L
387.36 340.21 L
391.824 340.349 L
396.288 340.295 L
400.752 340.252 L
405.216 340.624 L
409.68 340.652 L
414.144 340.54 L
418.608 340.496 L
423.072 341.393 L
427.536 341.495 L
432 341.686 L
436.464 341.838 L
440.928 342.75 L
445.392 342.49 L
449.856 343.522 L
454.32 343.391 L
458.784 343.492 L
463.248 343.256 L
467.712 342.907 L
472.176 343.181 L
476.64 343.34 L
481.104 343.315 L
485.568 343.013 L
490.032 342.869 L
494.496 342.758 L
498.96 342.536 L
503.424 342.502 L
507.888 342.341 L
512.352 342.626 L
516.816 342.7 L
521.28 342.459 LE
1 0 0 C
74.88 325.528 LS
79.344 338.034 L
83.808 343.151 L
88.272 339.301 L
92.736 341.624 L
97.2 336.554 L
101.664 336.825 L
106.128 342.055 L
110.592 341.974 L
115.056 337.597 L
119.52 339.384 L
123.984 338.492 L
128.448 340.911 L
132.912 338.48 L
137.376 338.94 L
141.84 339.658 L
146.304 339.325 L
150.768 340.468 L
155.232 342.336 L
159.696 340.024 L
164.16 338.7 L
168.624 339.092 L
173.088 338.912 L
177.552 338.647 L
182.016 338.076 L
186.48 337.472 L
190.944 337.699 L
195.408 337.628 L
199.872 338.852 L
204.336 339.311 L
208.8 340.041 L
213.264 343.234 L
217.728 342.842 L
222.192 342.416 L
226.656 341.787 L
231.12 341.614 L
235.584 341.157 L
240.048 340.235 L
244.512 340.462 L
248.976 340.218 L
253.44 340.115 L
257.904 339.957 L
262.368 338.861 L
266.832 338.776 L
271.296 338.425 L
275.76 338.239 L
280.224 337.662 L
284.688 337.502 L
289.152 337.465 L
293.616 337.931 L
298.08 339.189 L
302.544 339.559 L
307.008 339.717 L
311.472 339.952 L
315.936 340.301 L
320.4 340.601 L
324.864 340.913 L
329.328 340.752 L
333.792 340.709 L
338.256 341.166 L
342.72 341.138 L
347.184 341.233 L
351.648 340.761 L
356.112 340.595 L
360.576 340.039 L
365.04 340.578 L
369.504 340.863 L
373.968 340.529 L
378.432 340.314 L
382.896 340.029 L
387.36 340.106 L
391.824 340.3 L
396.288 340.239 L
400.752 340.249 L
405.216 340.643 L
409.68 340.662 L
414.144 340.574 L
418.608 340.521 L
423.072 341.366 L
427.536 341.451 L
432 341.586 L
436.464 341.623 L
440.928 342.671 L
445.392 342.411 L
449.856 343.718 L
454.32 343.561 L
458.784 343.68 L
463.248 343.449 L
467.712 343.122 L
472.176 343.346 L
476.64 343.496 L
481.104 343.413 L
485.568 342.892 L
490.032 342.627 L
494.496 342.513 L
498.96 342.31 L
503.424 342.311 L
507.888 342.148 L
512.352 342.45 L
516.816 342.556 L
521.28 342.217 LE
grestore
gsave
1.0 1.0 scale
newpath 0 0 moveto 576 0 lineto 576 432 lineto 0 432 lineto
closepath clip
1 1 1 C
74.88 256.387 521.28 179.974 74.88 179.974 T
74.88 256.387 521.28 256.387 521.28 179.974 T
0.5 W
0.15 0.15 0.15 C
164.124 179.974 LS
164.124 184.462 LE
164.124 256.387 LS
164.124 251.899 LE
253.413 179.974 LS
253.413 184.462 LE
253.413 256.387 LS
253.413 251.899 LE
342.702 179.974 LS
342.702 184.462 LE
342.702 256.387 LS
342.702 251.899 LE
431.991 179.974 LS
431.991 184.462 LE
431.991 256.387 LS
431.991 251.899 LE
521.28 179.974 LS
521.28 184.462 LE
521.28 256.387 LS
521.28 251.899 LE
gsave
0.14902 0.14902 0.14902 C
(2e+06) [6 5 6 6 10] 0 149.624 164.433 10 /Helvetica SRX
grestore

gsave
0.14902 0.14902 0.14902 C
(4e+06) [6 5 6 6 10] 0 238.913 164.433 10 /Helvetica SRX
grestore

gsave
0.14902 0.14902 0.14902 C
(6e+06) [6 5 6 6 10] 0 328.202 164.433 10 /Helvetica SRX
grestore

gsave
0.14902 0.14902 0.14902 C
(8e+06) [6 5 6 6 10] 0 417.491 164.433 10 /Helvetica SRX
grestore

gsave
0.14902 0.14902 0.14902 C
(1e+07) [6 5 6 6 10] 0 506.78 164.433 10 /Helvetica SRX
grestore

74.88 179.974 LS
79.348 179.974 LE
521.28 179.974 LS
516.812 179.974 LE
74.88 195.256 LS
79.348 195.256 LE
521.28 195.256 LS
516.812 195.256 LE
74.88 210.539 LS
79.348 210.539 LE
521.28 210.539 LS
516.812 210.539 LE
74.88 225.822 LS
79.348 225.822 LE
521.28 225.822 LS
516.812 225.822 LE
74.88 241.104 LS
79.348 241.104 LE
521.28 241.104 LS
516.812 241.104 LE
74.88 256.387 LS
79.348 256.387 LE
521.28 256.387 LS
516.812 256.387 LE
gsave
0.14902 0.14902 0.14902 C
(0) [10] 0 63.8755 175.974 10 /Helvetica SRX
grestore

gsave
0.14902 0.14902 0.14902 C
(20) [6 10] 0 57.8755 191.256 10 /Helvetica SRX
grestore

gsave
0.14902 0.14902 0.14902 C
(40) [6 10] 0 57.8755 206.539 10 /Helvetica SRX
grestore

gsave
0.14902 0.14902 0.14902 C
(60) [6 10] 0 57.8755 221.822 10 /Helvetica SRX
grestore

gsave
0.14902 0.14902 0.14902 C
(80) [6 10] 0 57.8755 237.104 10 /Helvetica SRX
grestore

gsave
0.14902 0.14902 0.14902 C
(100) [6 6 10] 0 51.8755 252.387 10 /Helvetica SRX
grestore

2 LC
[16 0] 0 setdash
74.88 179.974 LS
521.28 179.974 LE
74.88 256.387 LS
521.28 256.387 LE
74.88 179.974 LS
74.88 256.387 LE
521.28 179.974 LS
521.28 256.387 LE
gsave
0 0 0 C
(m2) [10 10] 0 290.08 266.387 11 /Helvetica-Bold SRX
grestore

0 LC
1 LJ
[] 0 setdash
0 0 1 C
74.88 184.91 LS
79.344 250.474 L
83.808 253.753 L
88.272 252.839 L
92.736 202.835 L
97.2 198.408 L
101.664 200.348 L
106.128 219.392 L
110.592 212.489 L
115.056 202.323 L
119.52 200.642 L
123.984 197.351 L
128.448 200.171 L
132.912 203.001 L
137.376 198.294 L
141.84 200.153 L
146.304 199.212 L
150.768 198.388 L
155.232 196.722 L
159.696 192.446 L
164.16 189.388 L
168.624 189.427 L
173.088 189.032 L
177.552 188.795 L
182.016 188.406 L
186.48 187.95 L
190.944 188.138 L
195.408 188.085 L
199.872 189.006 L
204.336 189.321 L
208.8 189.811 L
213.264 192.074 L
217.728 192.153 L
222.192 192.093 L
226.656 191.984 L
231.12 191.61 L
235.584 191.323 L
240.048 191.023 L
244.512 190.934 L
248.976 190.33 L
253.44 189.948 L
257.904 189.815 L
262.368 188.804 L
266.832 188.758 L
271.296 188.549 L
275.76 188.432 L
280.224 188.068 L
284.688 188 L
289.152 187.942 L
293.616 188.31 L
298.08 189.25 L
302.544 189.634 L
307.008 189.928 L
311.472 190.011 L
315.936 190.393 L
320.4 190.5 L
324.864 190.8 L
329.328 190.69 L
333.792 190.629 L
338.256 190.812 L
342.72 190.672 L
347.184 190.627 L
351.648 190.226 L
356.112 189.948 L
360.576 189.594 L
365.04 190.04 L
369.504 190.365 L
373.968 190.055 L
378.432 189.941 L
382.896 189.843 L
387.36 189.738 L
391.824 189.844 L
396.288 189.803 L
400.752 189.767 L
405.216 189.96 L
409.68 189.993 L
414.144 189.952 L
418.608 189.929 L
423.072 190.495 L
427.536 190.54 L
432 190.656 L
436.464 190.77 L
440.928 191.797 L
445.392 191.653 L
449.856 192.389 L
454.32 192.302 L
458.784 192.349 L
463.248 192.168 L
467.712 191.911 L
472.176 192.052 L
476.64 192.192 L
481.104 192.174 L
485.568 192.003 L
490.032 191.887 L
494.496 191.784 L
498.96 191.628 L
503.424 191.623 L
507.888 191.531 L
512.352 191.705 L
516.816 191.744 L
521.28 191.597 LE
1 0 0 C
74.88 182.447 LS
79.344 188.541 L
83.808 191.706 L
88.272 188.709 L
92.736 190.849 L
97.2 187.295 L
101.664 187.56 L
106.128 190.733 L
110.592 190.998 L
115.056 187.968 L
119.52 189.191 L
123.984 188.932 L
128.448 190.052 L
132.912 188.439 L
137.376 188.693 L
141.84 189.163 L
146.304 189.087 L
150.768 189.962 L
155.232 191.347 L
159.696 189.962 L
164.16 188.734 L
168.624 189.026 L
173.088 188.882 L
177.552 188.745 L
182.016 188.4 L
186.48 187.95 L
190.944 188.075 L
195.408 188.007 L
199.872 188.927 L
204.336 189.258 L
208.8 189.81 L
213.264 191.926 L
217.728 191.706 L
222.192 191.395 L
226.656 190.888 L
231.12 190.772 L
235.584 190.389 L
240.048 189.771 L
244.512 190.015 L
248.976 189.786 L
253.44 189.724 L
257.904 189.68 L
262.368 188.804 L
266.832 188.753 L
271.296 188.534 L
275.76 188.405 L
280.224 188.029 L
284.688 187.935 L
289.152 187.886 L
293.616 188.194 L
298.08 189.031 L
302.544 189.242 L
307.008 189.365 L
311.472 189.497 L
315.936 189.725 L
320.4 189.901 L
324.864 190.111 L
329.328 190.011 L
333.792 190.008 L
338.256 190.334 L
342.72 190.317 L
347.184 190.365 L
351.648 190.033 L
356.112 189.907 L
360.576 189.579 L
365.04 189.951 L
369.504 190.147 L
373.968 189.932 L
378.432 189.807 L
382.896 189.644 L
387.36 189.667 L
391.824 189.813 L
396.288 189.771 L
400.752 189.76 L
405.216 189.959 L
409.68 189.993 L
414.144 189.952 L
418.608 189.927 L
423.072 190.466 L
427.536 190.499 L
432 190.574 L
436.464 190.634 L
440.928 191.727 L
445.392 191.588 L
449.856 192.381 L
454.32 192.29 L
458.784 192.341 L
463.248 192.166 L
467.712 191.908 L
472.176 192.011 L
476.64 192.121 L
481.104 192.063 L
485.568 191.729 L
490.032 191.548 L
494.496 191.432 L
498.96 191.278 L
503.424 191.293 L
507.888 191.192 L
512.352 191.42 L
516.816 191.496 L
521.28 191.271 LE
grestore
gsave
1.0 1.0 scale
newpath 0 0 moveto 576 0 lineto 576 432 lineto 0 432 lineto
closepath clip
1 1 1 C
74.88 123.933 521.28 47.52 74.88 47.52 T
74.88 123.933 521.28 123.933 521.28 47.52 T
0.5 W
0.15 0.15 0.15 C
164.124 47.52 LS
164.124 52.0082 LE
164.124 123.933 LS
164.124 119.445 LE
253.413 47.52 LS
253.413 52.0082 LE
253.413 123.933 LS
253.413 119.445 LE
342.702 47.52 LS
342.702 52.0082 LE
342.702 123.933 LS
342.702 119.445 LE
431.991 47.52 LS
431.991 52.0082 LE
431.991 123.933 LS
431.991 119.445 LE
521.28 47.52 LS
521.28 52.0082 LE
521.28 123.933 LS
521.28 119.445 LE
gsave
0.14902 0.14902 0.14902 C
(2e+06) [6 5 6 6 10] 0 149.624 31.9792 10 /Helvetica SRX
grestore

gsave
0.14902 0.14902 0.14902 C
(4e+06) [6 5 6 6 10] 0 238.913 31.9792 10 /Helvetica SRX
grestore

gsave
0.14902 0.14902 0.14902 C
(6e+06) [6 5 6 6 10] 0 328.202 31.9792 10 /Helvetica SRX
grestore

gsave
0.14902 0.14902 0.14902 C
(8e+06) [6 5 6 6 10] 0 417.491 31.9792 10 /Helvetica SRX
grestore

gsave
0.14902 0.14902 0.14902 C
(1e+07) [6 5 6 6 10] 0 506.78 31.9792 10 /Helvetica SRX
grestore

74.88 47.52 LS
79.348 47.52 LE
521.28 47.52 LS
516.812 47.52 LE
74.88 60.2555 LS
79.348 60.2555 LE
521.28 60.2555 LS
516.812 60.2555 LE
74.88 72.991 LS
79.348 72.991 LE
521.28 72.991 LS
516.812 72.991 LE
74.88 85.7265 LS
79.348 85.7265 LE
521.28 85.7265 LS
516.812 85.7265 LE
74.88 98.4621 LS
79.348 98.4621 LE
521.28 98.4621 LS
516.812 98.4621 LE
74.88 111.198 LS
79.348 111.198 LE
521.28 111.198 LS
516.812 111.198 LE
74.88 123.933 LS
79.348 123.933 LE
521.28 123.933 LS
516.812 123.933 LE
gsave
0.14902 0.14902 0.14902 C
(0) [10] 0 63.8755 43.52 10 /Helvetica SRX
grestore

gsave
0.14902 0.14902 0.14902 C
(200) [6 6 10] 0 51.8755 56.2555 10 /Helvetica SRX
grestore

gsave
0.14902 0.14902 0.14902 C
(400) [6 6 10] 0 51.8755 68.991 10 /Helvetica SRX
grestore

gsave
0.14902 0.14902 0.14902 C
(600) [6 6 10] 0 51.8755 81.7266 10 /Helvetica SRX
grestore

gsave
0.14902 0.14902 0.14902 C
(800) [6 6 10] 0 51.8755 94.4621 10 /Helvetica SRX
grestore

gsave
0.14902 0.14902 0.14902 C
(1000) [6 6 6 10] 0 45.8755 107.198 10 /Helvetica SRX
grestore

gsave
0.14902 0.14902 0.14902 C
(1200) [6 6 6 10] 0 45.8755 119.933 10 /Helvetica SRX
grestore

2 LC
[16 0] 0 setdash
74.88 47.52 LS
521.28 47.52 LE
74.88 123.933 LS
521.28 123.933 LE
74.88 47.52 LS
74.88 123.933 LE
521.28 47.52 LS
521.28 123.933 LE
gsave
0 0 0 C
(m3) [10 10] 0 290.08 133.933 11 /Helvetica-Bold SRX
grestore

0 LC
1 LJ
[] 0 setdash
0 0 1 C
74.88 49.242 LS
79.344 112.492 L
83.808 120.67 L
88.272 116.301 L
92.736 62.9286 L
97.2 58.6126 L
101.664 60.1867 L
106.128 77.9586 L
110.592 71.8001 L
115.056 61.4903 L
119.52 60.6 L
123.984 58.1121 L
128.448 60.2488 L
132.912 62.1536 L
137.376 58.3789 L
141.84 59.9965 L
146.304 59.4743 L
150.768 59.1058 L
155.232 58.1442 L
159.696 54.9027 L
164.16 52.0971 L
168.624 52.1513 L
173.088 51.8463 L
177.552 51.691 L
182.016 51.4087 L
186.48 51.0928 L
190.944 51.171 L
195.408 51.1384 L
199.872 51.8674 L
204.336 52.0973 L
208.8 52.4292 L
213.264 54.2049 L
217.728 54.1587 L
222.192 54.1028 L
226.656 53.9915 L
231.12 53.7192 L
235.584 53.4828 L
240.048 53.2654 L
244.512 53.2171 L
248.976 52.7576 L
253.44 52.5327 L
257.904 52.4761 L
262.368 51.6083 L
266.832 51.5838 L
271.296 51.4588 L
275.76 51.3802 L
280.224 51.1494 L
284.688 51.1035 L
289.152 51.0463 L
293.616 51.3019 L
298.08 51.9454 L
302.544 52.2017 L
307.008 52.4111 L
311.472 52.4649 L
315.936 52.7186 L
320.4 52.7741 L
324.864 52.991 L
329.328 52.9175 L
333.792 52.8877 L
338.256 53.0271 L
342.72 52.9246 L
347.184 52.8962 L
351.648 52.6301 L
356.112 52.4385 L
360.576 52.2046 L
365.04 52.5106 L
369.504 52.7311 L
373.968 52.5305 L
378.432 52.4594 L
382.896 52.403 L
387.36 52.3187 L
391.824 52.3987 L
396.288 52.3661 L
400.752 52.3325 L
405.216 52.4327 L
409.68 52.4682 L
414.144 52.4502 L
418.608 52.4365 L
423.072 52.8229 L
427.536 52.8374 L
432 52.8994 L
436.464 52.9998 L
440.928 54.0506 L
445.392 53.9692 L
449.856 54.5043 L
454.32 54.4591 L
458.784 54.4748 L
463.248 54.33 L
467.712 54.1178 L
472.176 54.1982 L
476.64 54.3154 L
481.104 54.3013 L
485.568 54.2087 L
490.032 54.1196 L
494.496 54.0352 L
498.96 53.915 L
503.424 53.917 L
507.888 53.8507 L
512.352 53.9624 L
516.816 53.9902 L
521.28 53.898 LE
1 0 0 C
74.88 48.1856 LS
79.344 51.7566 L
83.808 53.8313 L
88.272 51.4444 L
92.736 53.0801 L
97.2 50.6462 L
101.664 50.8982 L
106.128 52.9075 L
110.592 52.9582 L
115.056 50.9951 L
119.52 51.874 L
123.984 51.9023 L
128.448 52.5053 L
132.912 51.3141 L
137.376 51.4824 L
141.84 51.7819 L
146.304 51.8348 L
150.768 52.5139 L
155.232 53.5582 L
159.696 52.7467 L
164.16 51.6443 L
168.624 51.8744 L
173.088 51.752 L
177.552 51.6644 L
182.016 51.4082 L
186.48 51.0924 L
190.944 51.1164 L
195.408 51.0754 L
199.872 51.8006 L
204.336 52.0353 L
208.8 52.4257 L
213.264 53.9957 L
217.728 53.7475 L
222.192 53.5298 L
226.656 53.1806 L
231.12 53.0756 L
235.584 52.7854 L
240.048 52.356 L
244.512 52.5821 L
248.976 52.377 L
253.44 52.3598 L
257.904 52.3589 L
262.368 51.6085 L
266.832 51.5819 L
271.296 51.4513 L
275.76 51.3639 L
280.224 51.1219 L
284.688 51.06 L
289.152 51.0119 L
293.616 51.2239 L
298.08 51.7951 L
302.544 51.9331 L
307.008 52.0288 L
311.472 52.1088 L
315.936 52.2492 L
320.4 52.3697 L
324.864 52.5136 L
329.328 52.4399 L
333.792 52.4484 L
338.256 52.6958 L
342.72 52.6692 L
347.184 52.7042 L
351.648 52.4781 L
356.112 52.3984 L
360.576 52.1881 L
365.04 52.4332 L
369.504 52.5603 L
373.968 52.4297 L
378.432 52.3535 L
382.896 52.2488 L
387.36 52.263 L
391.824 52.371 L
396.288 52.3382 L
400.752 52.3229 L
405.216 52.4331 L
409.68 52.4676 L
414.144 52.4506 L
418.608 52.4377 L
423.072 52.8056 L
427.536 52.8136 L
432 52.8467 L
436.464 52.9174 L
440.928 54.0561 L
445.392 53.9761 L
449.856 54.5208 L
454.32 54.4788 L
458.784 54.4919 L
463.248 54.3379 L
467.712 54.1057 L
472.176 54.1287 L
476.64 54.2115 L
481.104 54.1617 L
485.568 53.9211 L
490.032 53.7833 L
494.496 53.682 L
498.96 53.5646 L
503.424 53.584 L
507.888 53.5112 L
512.352 53.6812 L
516.816 53.7397 L
521.28 53.5899 LE
grestore
grestore
showpage
cleartomark
%%PageTrailer
%%Trailer
end
%%EOF
