%!PS-Adobe-3.0 EPSF-3.0
%%Title: gl2ps_renderer figure
%%Creator: GL2PS 1.4.2, (C) 1999-2020 C. Geuzaine
%%For: Octave
%%CreationDate: Wed Oct  7 04:42:28 2020
%%LanguageLevel: 3
%%DocumentData: Clean7Bit
%%Pages: 1
%%BoundingBox: 0 0 576 432
%%EndComments
%%BeginProlog
/gl2psdict 64 dict def gl2psdict begin
/tryPS3shading false def % set to false to force subdivision
/rThreshold 0.064 def % red component subdivision threshold
/gThreshold 0.034 def % green component subdivision threshold
/bThreshold 0.1 def % blue component subdivision threshold
/BD { bind def } bind def
/C  { setrgbcolor } BD
/G  { 0.082 mul exch 0.6094 mul add exch 0.3086 mul add neg 1.0 add setgray } BD
/W  { setlinewidth } BD
/LC  { setlinecap } BD
/LJ  { setlinejoin } BD
/FC { findfont exch /SH exch def SH scalefont setfont } BD
/SW { dup stringwidth pop } BD
/S  { FC moveto show } BD
/SBC{ FC moveto SW -2 div 0 rmoveto show } BD
/SBR{ FC moveto SW neg 0 rmoveto show } BD
/SCL{ FC moveto 0 SH -2 div rmoveto show } BD
/SCC{ FC moveto SW -2 div SH -2 div rmoveto show } BD
/SCR{ FC moveto SW neg SH -2 div rmoveto show } BD
/STL{ FC moveto 0 SH neg rmoveto show } BD
/STC{ FC moveto SW -2 div SH neg rmoveto show } BD
/STR{ FC moveto SW neg SH neg rmoveto show } BD
/FCT { FC translate 0 0 } BD
/SR  { gsave FCT moveto rotate show grestore } BD
/SRX  { gsave FCT moveto rotate xshow grestore } BD
/SBCR{ gsave FCT moveto rotate SW -2 div 0 rmoveto show grestore } BD
/SBRR{ gsave FCT moveto rotate SW neg 0 rmoveto show grestore } BD
/SCLR{ gsave FCT moveto rotate 0 SH -2 div rmoveto show grestore} BD
/SCCR{ gsave FCT moveto rotate SW -2 div SH -2 div rmoveto show grestore} BD
/SCRR{ gsave FCT moveto rotate SW neg SH -2 div rmoveto show grestore} BD
/STLR{ gsave FCT moveto rotate 0 SH neg rmoveto show grestore } BD
/STCR{ gsave FCT moveto rotate SW -2 div SH neg rmoveto show grestore } BD
/STRR{ gsave FCT moveto rotate SW neg SH neg rmoveto show grestore } BD
/P  { newpath 0.0 360.0 arc closepath fill } BD
/LS { newpath moveto } BD
/L  { lineto } BD
/LE { lineto stroke } BD
/T  { newpath moveto lineto lineto closepath fill } BD
/STshfill {
      /b1 exch def /g1 exch def /r1 exch def /y1 exch def /x1 exch def
      /b2 exch def /g2 exch def /r2 exch def /y2 exch def /x2 exch def
      /b3 exch def /g3 exch def /r3 exch def /y3 exch def /x3 exch def
      gsave << /ShadingType 4 /ColorSpace [/DeviceRGB]
      /DataSource [ 0 x1 y1 r1 g1 b1 0 x2 y2 r2 g2 b2 0 x3 y3 r3 g3 b3 ] >>
      shfill grestore } BD
/Tm { 3 -1 roll 8 -1 roll 13 -1 roll add add 3 div
      3 -1 roll 7 -1 roll 11 -1 roll add add 3 div
      3 -1 roll 6 -1 roll 9 -1 roll add add 3 div C T } BD
/STsplit {
      4 index 15 index add 0.5 mul
      4 index 15 index add 0.5 mul
      4 index 15 index add 0.5 mul
      4 index 15 index add 0.5 mul
      4 index 15 index add 0.5 mul
      5 copy 5 copy 25 15 roll
      9 index 30 index add 0.5 mul
      9 index 30 index add 0.5 mul
      9 index 30 index add 0.5 mul
      9 index 30 index add 0.5 mul
      9 index 30 index add 0.5 mul
      5 copy 5 copy 35 5 roll 25 5 roll 15 5 roll
      4 index 10 index add 0.5 mul
      4 index 10 index add 0.5 mul
      4 index 10 index add 0.5 mul
      4 index 10 index add 0.5 mul
      4 index 10 index add 0.5 mul
      5 copy 5 copy 40 5 roll 25 5 roll 15 5 roll 25 5 roll
      STnoshfill STnoshfill STnoshfill STnoshfill } BD
/STnoshfill {
      2 index 8 index sub abs rThreshold gt
      { STsplit }
      { 1 index 7 index sub abs gThreshold gt
        { STsplit }
        { dup 6 index sub abs bThreshold gt
          { STsplit }
          { 2 index 13 index sub abs rThreshold gt
            { STsplit }
            { 1 index 12 index sub abs gThreshold gt
              { STsplit }
              { dup 11 index sub abs bThreshold gt
                { STsplit }
                { 7 index 13 index sub abs rThreshold gt
                  { STsplit }
                  { 6 index 12 index sub abs gThreshold gt
                    { STsplit }
                    { 5 index 11 index sub abs bThreshold gt
                      { STsplit }
                      { Tm }
                      ifelse }
                    ifelse }
                  ifelse }
                ifelse }
              ifelse }
            ifelse }
          ifelse }
        ifelse }
      ifelse } BD
tryPS3shading
{ /shfill where
  { /ST { STshfill } BD }
  { /ST { STnoshfill } BD }
  ifelse }
{ /ST { STnoshfill } BD }
ifelse
end
%%EndProlog
%%BeginSetup
/DeviceRGB setcolorspace
gl2psdict begin
%%EndSetup
%%Page: 1 1
%%BeginPageSetup
%%EndPageSetup
mark
gsave
1.0 1.0 scale
1 1 1 C
newpath 0 0 moveto 576 0 lineto 576 432 lineto 0 432 lineto
closepath fill
gsave
1.0 1.0 scale
1 1 1 C
newpath 0 0 moveto 576 0 lineto 576 432 lineto 0 432 lineto
closepath fill
newpath 0 0 moveto 576 0 lineto 576 432 lineto 0 432 lineto
closepath clip
1 1 1 C
74.88 385.841 187.093 253.401 74.88 253.401 T
74.88 385.841 187.093 385.841 187.093 253.401 T
0.5 W
0.15 0.15 0.15 C
97.3135 253.401 LS
97.3135 254.729 LE
97.3135 385.841 LS
97.3135 384.512 LE
119.758 253.401 LS
119.758 254.729 LE
119.758 385.841 LS
119.758 384.512 LE
142.203 253.401 LS
142.203 254.729 LE
142.203 385.841 LS
142.203 384.512 LE
164.648 253.401 LS
164.648 254.729 LE
164.648 385.841 LS
164.648 384.512 LE
187.093 253.401 LS
187.093 254.729 LE
187.093 385.841 LS
187.093 384.512 LE
gsave
0.14902 0.14902 0.14902 C
(2e+06) [6 5 6 6 10] 0 82.8135 237.876 10 /Helvetica SRX
grestore

gsave
0.14902 0.14902 0.14902 C
(4e+06) [6 5 6 6 10] 0 105.258 237.876 10 /Helvetica SRX
grestore

gsave
0.14902 0.14902 0.14902 C
(6e+06) [6 5 6 6 10] 0 127.703 237.876 10 /Helvetica SRX
grestore

gsave
0.14902 0.14902 0.14902 C
(8e+06) [6 5 6 6 10] 0 150.148 237.876 10 /Helvetica SRX
grestore

gsave
0.14902 0.14902 0.14902 C
(1e+07) [6 5 6 6 10] 0 172.593 237.876 10 /Helvetica SRX
grestore

74.88 253.401 LS
76.2069 253.401 LE
187.093 253.401 LS
185.766 253.401 LE
74.88 272.321 LS
76.2069 272.321 LE
187.093 272.321 LS
185.766 272.321 LE
74.88 291.241 LS
76.2069 291.241 LE
187.093 291.241 LS
185.766 291.241 LE
74.88 310.161 LS
76.2069 310.161 LE
187.093 310.161 LS
185.766 310.161 LE
74.88 329.081 LS
76.2069 329.081 LE
187.093 329.081 LS
185.766 329.081 LE
74.88 348.001 LS
76.2069 348.001 LE
187.093 348.001 LS
185.766 348.001 LE
74.88 366.921 LS
76.2069 366.921 LE
187.093 366.921 LS
185.766 366.921 LE
74.88 385.841 LS
76.2069 385.841 LE
187.093 385.841 LS
185.766 385.841 LE
gsave
0.14902 0.14902 0.14902 C
(1) [10] 0 63.8705 249.401 10 /Helvetica SRX
grestore

gsave
0.14902 0.14902 0.14902 C
(2) [10] 0 63.8705 268.321 10 /Helvetica SRX
grestore

gsave
0.14902 0.14902 0.14902 C
(3) [10] 0 63.8705 287.241 10 /Helvetica SRX
grestore

gsave
0.14902 0.14902 0.14902 C
(4) [10] 0 63.8705 306.161 10 /Helvetica SRX
grestore

gsave
0.14902 0.14902 0.14902 C
(5) [10] 0 63.8705 325.081 10 /Helvetica SRX
grestore

gsave
0.14902 0.14902 0.14902 C
(6) [10] 0 63.8705 344.001 10 /Helvetica SRX
grestore

gsave
0.14902 0.14902 0.14902 C
(7) [10] 0 63.8705 362.921 10 /Helvetica SRX
grestore

gsave
0.14902 0.14902 0.14902 C
(8) [10] 0 63.8705 381.841 10 /Helvetica SRX
grestore

2 LC
[16 0] 0 setdash
74.88 253.401 LS
187.093 253.401 LE
74.88 385.841 LS
187.093 385.841 LE
74.88 253.401 LS
74.88 385.841 LE
187.093 253.401 LS
187.093 385.841 LE
gsave
0 0 0 C
(iiota_N \(Interval\)) [3 3 7 4 6 6 8 3 4 3 7 4 6 4 6 6 3 10] 0 87.4863 398.841 11 /Helvetica-Bold SRX
grestore

0 LC
1 LJ
[] 0 setdash
0 0 1 C
74.88 254.775 LS
76.0021 291.212 L
77.1242 277.825 L
78.2464 281.962 L
79.3685 286.391 L
80.4906 299.407 L
81.6127 303.796 L
82.7349 322.633 L
83.857 329.677 L
84.9791 313.426 L
86.1013 298.44 L
87.2234 293.177 L
88.3455 291.379 L
89.4676 288.655 L
90.5898 283.19 L
91.7119 282.42 L
92.834 280.638 L
93.9561 285.424 L
95.0783 288.035 L
96.2004 291.787 L
97.3225 300.202 L
98.4446 301.958 L
99.5668 305.131 L
100.689 302.863 L
101.811 300.759 L
102.933 296.586 L
104.055 298.364 L
105.177 301.251 L
106.3 305.096 L
107.422 306.601 L
108.544 307.91 L
109.666 309.502 L
110.788 311.083 L
111.91 317.13 L
113.032 333.75 L
114.154 371.28 L
115.277 375.479 L
116.399 375.773 L
117.521 374.432 L
118.643 372.723 L
119.765 370.253 L
120.887 367.717 L
122.009 354.173 L
123.131 340.329 L
124.254 327.707 L
125.376 316.616 L
126.498 313.05 L
127.62 310.063 L
128.742 304.712 L
129.864 305.345 L
130.986 312.302 L
132.108 312.338 L
133.231 318.668 L
134.353 318.278 L
135.475 319.313 L
136.597 320.271 L
137.719 319.253 L
138.841 316.812 L
139.963 313.27 L
141.085 312.104 L
142.208 315.472 L
143.33 311.471 L
144.452 304.278 L
145.574 302.141 L
146.696 300.907 L
147.818 302.301 L
148.94 306.102 L
150.062 305.824 L
151.185 303.829 L
152.307 301.946 L
153.429 301.185 L
154.551 301.682 L
155.673 302.249 L
156.795 305.161 L
157.917 306.453 L
159.039 306.402 L
160.162 307.518 L
161.284 306.834 L
162.406 307.305 L
163.528 306.331 L
164.65 305.845 L
165.772 303.784 L
166.894 299.361 L
168.016 297.263 L
169.139 298.174 L
170.261 298.748 L
171.383 300.519 L
172.505 300.522 L
173.627 300.542 L
174.749 300.344 L
175.871 301.159 L
176.993 300.09 L
178.116 298.056 L
179.238 296.928 L
180.36 295.914 L
181.482 300.49 L
182.604 306.496 L
183.726 309.429 L
184.848 311.744 L
185.97 312.111 L
187.093 313.039 LE
1 0 0 C
74.88 253.568 LS
76.0021 284.354 L
77.1242 277.792 L
78.2464 278.579 L
79.3685 285.46 L
80.4906 290.725 L
81.6127 279.993 L
82.7349 281.455 L
83.857 279.461 L
84.9791 276.341 L
86.1013 275.391 L
87.2234 274.335 L
88.3455 275.557 L
89.4676 276.07 L
90.5898 278.366 L
91.7119 279.521 L
92.834 279.16 L
93.9561 283.061 L
95.0783 283.145 L
96.2004 283.088 L
97.3225 289.057 L
98.4446 289.421 L
99.5668 298.258 L
100.689 299.599 L
101.811 299.077 L
102.933 296.464 L
104.055 298.06 L
105.177 301.086 L
106.3 304.298 L
107.422 304.399 L
108.544 305.461 L
109.666 303.766 L
110.788 307.401 L
111.91 317.111 L
113.032 337.912 L
114.154 345.018 L
115.277 337.245 L
116.399 338.775 L
117.521 330.708 L
118.643 320.272 L
119.765 320.226 L
120.887 328.924 L
122.009 327.343 L
123.131 325.473 L
124.254 316.627 L
125.376 313.012 L
126.498 310.709 L
127.62 309.3 L
128.742 304.726 L
129.864 304.198 L
130.986 307.608 L
132.108 305.96 L
133.231 306.667 L
134.353 304.136 L
135.475 305.011 L
136.597 305.402 L
137.719 304.719 L
138.841 304.057 L
139.963 303.367 L
141.085 301.829 L
142.208 302.447 L
143.33 302.221 L
144.452 296.673 L
145.574 295.451 L
146.696 294.953 L
147.818 296.746 L
148.94 299.869 L
150.062 299.614 L
151.185 296.818 L
152.307 295.648 L
153.429 296.222 L
154.551 296.959 L
155.673 297.532 L
156.795 299.173 L
157.917 299.679 L
159.039 299.613 L
160.162 299.485 L
161.284 300.412 L
162.406 301.504 L
163.528 300.926 L
164.65 300.968 L
165.772 300.484 L
166.894 296.476 L
168.016 295.254 L
169.139 296.212 L
170.261 297.01 L
171.383 298.693 L
172.505 298.58 L
173.627 299.09 L
174.749 299.255 L
175.871 300.585 L
176.993 299.907 L
178.116 298.081 L
179.238 296.876 L
180.36 295.731 L
181.482 300.119 L
182.604 306.268 L
183.726 308.592 L
184.848 309.839 L
185.97 309.09 L
187.093 308.835 LE
grestore
gsave
1.0 1.0 scale
newpath 0 0 moveto 576 0 lineto 576 432 lineto 0 432 lineto
closepath clip
1 1 1 C
241.974 385.841 354.186 253.401 241.974 253.401 T
241.974 385.841 354.186 385.841 354.186 253.401 T
0.5 W
0.15 0.15 0.15 C
264.407 253.401 LS
264.407 254.729 LE
264.407 385.841 LS
264.407 384.512 LE
286.852 253.401 LS
286.852 254.729 LE
286.852 385.841 LS
286.852 384.512 LE
309.297 253.401 LS
309.297 254.729 LE
309.297 385.841 LS
309.297 384.512 LE
331.742 253.401 LS
331.742 254.729 LE
331.742 385.841 LS
331.742 384.512 LE
354.186 253.401 LS
354.186 254.729 LE
354.186 385.841 LS
354.186 384.512 LE
gsave
0.14902 0.14902 0.14902 C
(2e+06) [6 5 6 6 10] 0 249.907 237.876 10 /Helvetica SRX
grestore

gsave
0.14902 0.14902 0.14902 C
(4e+06) [6 5 6 6 10] 0 272.352 237.876 10 /Helvetica SRX
grestore

gsave
0.14902 0.14902 0.14902 C
(6e+06) [6 5 6 6 10] 0 294.797 237.876 10 /Helvetica SRX
grestore

gsave
0.14902 0.14902 0.14902 C
(8e+06) [6 5 6 6 10] 0 317.242 237.876 10 /Helvetica SRX
grestore

gsave
0.14902 0.14902 0.14902 C
(1e+07) [6 5 6 6 10] 0 339.686 237.876 10 /Helvetica SRX
grestore

241.974 253.401 LS
243.301 253.401 LE
354.186 253.401 LS
352.859 253.401 LE
241.974 286.511 LS
243.301 286.511 LE
354.186 286.511 LS
352.859 286.511 LE
241.974 319.621 LS
243.301 319.621 LE
354.186 319.621 LS
352.859 319.621 LE
241.974 352.731 LS
243.301 352.731 LE
354.186 352.731 LS
352.859 352.731 LE
241.974 385.841 LS
243.301 385.841 LE
354.186 385.841 LS
352.859 385.841 LE
gsave
0.14902 0.14902 0.14902 C
(0) [10] 0 230.964 249.401 10 /Helvetica SRX
grestore

gsave
0.14902 0.14902 0.14902 C
(2) [10] 0 230.964 282.511 10 /Helvetica SRX
grestore

gsave
0.14902 0.14902 0.14902 C
(4) [10] 0 230.964 315.621 10 /Helvetica SRX
grestore

gsave
0.14902 0.14902 0.14902 C
(6) [10] 0 230.964 348.731 10 /Helvetica SRX
grestore

gsave
0.14902 0.14902 0.14902 C
(8) [10] 0 230.964 381.841 10 /Helvetica SRX
grestore

2 LC
[16 0] 0 setdash
241.974 253.401 LS
354.186 253.401 LE
241.974 385.841 LS
354.186 385.841 LE
241.974 253.401 LS
241.974 385.841 LE
354.186 253.401 LS
354.186 385.841 LE
gsave
0 0 0 C
(iiota_N \(m2\)) [3 3 7 4 6 6 8 3 4 10 6 10] 0 266.08 398.841 11 /Helvetica-Bold SRX
grestore

0 LC
1 LJ
[] 0 setdash
0 0 1 C
241.974 256.28 LS
243.096 274.453 L
244.218 266.498 L
245.34 268.139 L
246.462 270.961 L
247.584 281.735 L
248.706 283.492 L
249.829 308.56 L
250.951 319.027 L
252.073 296.383 L
253.195 281.03 L
254.317 276.173 L
255.439 274.215 L
256.561 272.452 L
257.683 269.191 L
258.806 268.67 L
259.928 267.591 L
261.05 270.753 L
262.172 272.364 L
263.294 275.419 L
264.416 284.302 L
265.538 285.437 L
266.66 286.603 L
267.783 285.107 L
268.905 283.566 L
270.027 279.638 L
271.149 280.459 L
272.271 283.151 L
273.393 286.238 L
274.515 287.698 L
275.637 289.033 L
276.76 290.613 L
277.882 292.179 L
279.004 305.989 L
280.126 328.333 L
281.248 368.816 L
282.37 380.727 L
283.492 383.005 L
284.614 377.359 L
285.737 373.382 L
286.859 368.153 L
287.981 367.335 L
289.103 352.174 L
290.225 334.423 L
291.347 312.843 L
292.469 301.695 L
293.591 295.337 L
294.714 292.89 L
295.836 289.442 L
296.958 288.442 L
298.08 295.65 L
299.202 295.684 L
300.324 300.898 L
301.446 300.566 L
302.568 301.441 L
303.691 302.425 L
304.813 301.572 L
305.935 299.934 L
307.057 296.71 L
308.179 296.028 L
309.301 298.233 L
310.423 295.477 L
311.546 288.423 L
312.668 286.614 L
313.79 284.964 L
314.912 284.297 L
316.034 287.859 L
317.156 287.468 L
318.278 285.73 L
319.4 284.173 L
320.523 283.591 L
321.645 283.954 L
322.767 284.549 L
323.889 286.915 L
325.011 288.061 L
326.133 288.146 L
327.255 289.11 L
328.377 288.574 L
329.5 289.091 L
330.622 288.245 L
331.744 287.887 L
332.866 286.427 L
333.988 282.405 L
335.11 280.125 L
336.232 281.047 L
337.354 281.418 L
338.477 282.623 L
339.599 282.595 L
340.721 282.619 L
341.843 282.441 L
342.965 283.34 L
344.087 282.288 L
345.209 280.608 L
346.331 279.717 L
347.454 279.074 L
348.576 285.393 L
349.698 290.377 L
350.82 292.334 L
351.942 293.983 L
353.064 293.986 L
354.186 294.825 LE
1 0 0 C
241.974 255.959 LS
243.096 270.378 L
244.218 266.497 L
245.34 266.106 L
246.462 270.458 L
247.584 275.166 L
248.706 267.886 L
249.829 270.842 L
250.951 268.232 L
252.073 265.862 L
253.195 265.67 L
254.317 264.529 L
255.439 264.747 L
256.561 265.093 L
257.683 266.69 L
258.806 267.142 L
259.928 266.828 L
261.05 269.286 L
262.172 269.485 L
263.294 269.739 L
264.416 274.662 L
265.538 274.677 L
266.66 281.035 L
267.783 282.536 L
268.905 282.285 L
270.027 279.637 L
271.149 280.333 L
272.271 282.952 L
273.393 285.895 L
274.515 286.078 L
275.637 287.223 L
276.76 286.278 L
277.882 289.528 L
279.004 305.963 L
280.126 325.486 L
281.248 349.037 L
282.37 340.603 L
283.492 332.207 L
284.614 317.763 L
285.737 304.321 L
286.859 303.004 L
287.981 315.249 L
289.103 312.87 L
290.225 310.317 L
291.347 299.834 L
292.469 296.886 L
293.591 294.381 L
294.714 292.653 L
295.836 289.429 L
296.958 287.576 L
298.08 292.132 L
299.202 289.982 L
300.324 290.256 L
301.446 288.213 L
302.568 289.369 L
303.691 289.422 L
304.813 288.634 L
305.935 287.805 L
307.057 287.078 L
308.179 285.812 L
309.301 286.335 L
310.423 285.828 L
311.546 280.999 L
312.668 279.923 L
313.79 279.108 L
314.912 280.51 L
316.034 282.985 L
317.156 282.397 L
318.278 280.184 L
319.4 279.321 L
320.523 279.667 L
321.645 280.266 L
322.767 280.792 L
323.889 282.004 L
325.011 282.381 L
326.133 282.538 L
327.255 282.437 L
328.377 283.128 L
329.5 284.45 L
330.622 283.984 L
331.744 284.027 L
332.866 283.655 L
333.988 280.083 L
335.11 278.591 L
336.232 279.474 L
337.354 279.981 L
338.477 281.196 L
339.599 281.12 L
340.721 281.473 L
341.843 281.512 L
342.965 282.828 L
344.087 282.166 L
345.209 280.602 L
346.331 279.693 L
347.454 278.987 L
348.576 285.058 L
349.698 289.97 L
350.82 291.319 L
351.942 292.128 L
353.064 291.521 L
354.186 291.397 LE
grestore
gsave
1.0 1.0 scale
newpath 0 0 moveto 576 0 lineto 576 432 lineto 0 432 lineto
closepath clip
1 1 1 C
409.067 385.841 521.28 253.401 409.067 253.401 T
409.067 385.841 521.28 385.841 521.28 253.401 T
0.5 W
0.15 0.15 0.15 C
431.501 253.401 LS
431.501 254.729 LE
431.501 385.841 LS
431.501 384.512 LE
453.946 253.401 LS
453.946 254.729 LE
453.946 385.841 LS
453.946 384.512 LE
476.39 253.401 LS
476.39 254.729 LE
476.39 385.841 LS
476.39 384.512 LE
498.835 253.401 LS
498.835 254.729 LE
498.835 385.841 LS
498.835 384.512 LE
521.28 253.401 LS
521.28 254.729 LE
521.28 385.841 LS
521.28 384.512 LE
gsave
0.14902 0.14902 0.14902 C
(2e+06) [6 5 6 6 10] 0 417.001 237.876 10 /Helvetica SRX
grestore

gsave
0.14902 0.14902 0.14902 C
(4e+06) [6 5 6 6 10] 0 439.446 237.876 10 /Helvetica SRX
grestore

gsave
0.14902 0.14902 0.14902 C
(6e+06) [6 5 6 6 10] 0 461.89 237.876 10 /Helvetica SRX
grestore

gsave
0.14902 0.14902 0.14902 C
(8e+06) [6 5 6 6 10] 0 484.335 237.876 10 /Helvetica SRX
grestore

gsave
0.14902 0.14902 0.14902 C
(1e+07) [6 5 6 6 10] 0 506.78 237.876 10 /Helvetica SRX
grestore

409.067 253.401 LS
410.394 253.401 LE
521.28 253.401 LS
519.953 253.401 LE
409.067 272.321 LS
410.394 272.321 LE
521.28 272.321 LS
519.953 272.321 LE
409.067 291.241 LS
410.394 291.241 LE
521.28 291.241 LS
519.953 291.241 LE
409.067 310.161 LS
410.394 310.161 LE
521.28 310.161 LS
519.953 310.161 LE
409.067 329.081 LS
410.394 329.081 LE
521.28 329.081 LS
519.953 329.081 LE
409.067 348.001 LS
410.394 348.001 LE
521.28 348.001 LS
519.953 348.001 LE
409.067 366.921 LS
410.394 366.921 LE
521.28 366.921 LS
519.953 366.921 LE
409.067 385.841 LS
410.394 385.841 LE
521.28 385.841 LS
519.953 385.841 LE
gsave
0.14902 0.14902 0.14902 C
(0) [10] 0 398.058 249.401 10 /Helvetica SRX
grestore

gsave
0.14902 0.14902 0.14902 C
(5) [10] 0 398.058 268.321 10 /Helvetica SRX
grestore

gsave
0.14902 0.14902 0.14902 C
(10) [6 10] 0 392.058 287.241 10 /Helvetica SRX
grestore

gsave
0.14902 0.14902 0.14902 C
(15) [6 10] 0 392.058 306.161 10 /Helvetica SRX
grestore

gsave
0.14902 0.14902 0.14902 C
(20) [6 10] 0 392.058 325.081 10 /Helvetica SRX
grestore

gsave
0.14902 0.14902 0.14902 C
(25) [6 10] 0 392.058 344.001 10 /Helvetica SRX
grestore

gsave
0.14902 0.14902 0.14902 C
(30) [6 10] 0 392.058 362.921 10 /Helvetica SRX
grestore

gsave
0.14902 0.14902 0.14902 C
(35) [6 10] 0 392.058 381.841 10 /Helvetica SRX
grestore

2 LC
[16 0] 0 setdash
409.067 253.401 LS
521.28 253.401 LE
409.067 385.841 LS
521.28 385.841 LE
409.067 253.401 LS
409.067 385.841 LE
521.28 253.401 LS
521.28 385.841 LE
gsave
0 0 0 C
(iiota_N \(m3\)) [3 3 7 4 6 6 8 3 4 10 6 10] 0 433.174 398.841 11 /Helvetica-Bold SRX
grestore

0 LC
1 LJ
[] 0 setdash
0 0 1 C
409.067 253.825 LS
410.19 261.445 L
411.312 257.725 L
412.434 257.988 L
413.556 259.704 L
414.678 266.047 L
415.8 266.156 L
416.922 283.426 L
418.044 291.514 L
419.167 274.72 L
420.289 265.503 L
421.411 262.018 L
422.533 260.866 L
423.655 260.098 L
424.777 258.777 L
425.899 258.489 L
427.021 257.971 L
428.144 259.499 L
429.266 260.313 L
430.388 261.914 L
431.51 268.878 L
432.632 269.598 L
433.754 269.855 L
434.876 269.153 L
435.998 268.014 L
437.121 265.22 L
438.243 265.512 L
439.365 267.342 L
440.487 268.937 L
441.609 269.851 L
442.731 270.848 L
443.853 272.086 L
444.975 273.174 L
446.098 291.52 L
447.22 317.097 L
448.342 371.53 L
449.464 378.197 L
450.586 371.274 L
451.708 364.372 L
452.83 357.796 L
453.952 352.67 L
455.075 353.241 L
456.197 339.414 L
457.319 320.848 L
458.441 293.904 L
459.563 283.866 L
460.685 277.315 L
461.807 276.138 L
462.929 274.021 L
464.052 272.498 L
465.174 279.039 L
466.296 278.405 L
467.418 282.09 L
468.54 282.552 L
469.662 283.644 L
470.784 284.508 L
471.906 283.8 L
473.029 282.851 L
474.151 279.76 L
475.273 279.572 L
476.395 280.703 L
477.517 279.214 L
478.639 272.605 L
479.761 271.181 L
480.883 269.469 L
482.006 267.916 L
483.128 270.621 L
484.25 270.255 L
485.372 269.203 L
486.494 268.109 L
487.616 267.86 L
488.738 268.093 L
489.86 268.487 L
490.983 270.039 L
492.105 270.692 L
493.227 270.737 L
494.349 271.252 L
495.471 270.916 L
496.593 271.395 L
497.715 270.909 L
498.837 270.776 L
499.96 269.968 L
501.082 267.187 L
502.204 265.411 L
503.326 266.171 L
504.448 266.232 L
505.57 266.88 L
506.692 266.857 L
507.814 266.803 L
508.937 266.653 L
510.059 267.344 L
511.181 266.667 L
512.303 265.578 L
513.425 265.009 L
514.547 264.664 L
515.669 270.433 L
516.792 274.039 L
517.914 275.402 L
519.036 276.397 L
520.158 276.27 L
521.28 276.693 LE
1 0 0 C
409.067 253.785 LS
410.19 259.32 L
411.312 257.726 L
412.434 257.274 L
413.556 259.527 L
414.678 262.134 L
415.8 258.126 L
416.922 260.753 L
418.044 258.88 L
419.167 257.451 L
420.289 257.531 L
421.411 256.719 L
422.533 256.667 L
423.655 256.832 L
424.777 257.706 L
425.899 257.88 L
427.021 257.692 L
428.144 258.823 L
429.266 258.917 L
430.388 259.249 L
431.51 262.618 L
432.632 262.558 L
433.754 266.71 L
434.876 267.662 L
435.998 267.402 L
437.121 265.213 L
438.243 265.429 L
439.365 267.197 L
440.487 268.79 L
441.609 269.087 L
442.731 269.838 L
443.853 269.574 L
444.975 271.662 L
446.098 291.729 L
447.22 310.209 L
448.342 336.11 L
449.464 325.045 L
450.586 314.295 L
451.708 300.361 L
452.83 285.799 L
453.952 283.944 L
455.075 297.833 L
456.197 296.061 L
457.319 293.556 L
458.441 280.65 L
459.563 278.478 L
460.685 276.656 L
461.807 275.946 L
462.929 274.016 L
464.052 271.389 L
465.174 275.176 L
466.296 273.227 L
467.418 273.203 L
468.54 271.925 L
469.662 272.911 L
470.784 272.848 L
471.906 272.341 L
473.029 271.864 L
474.151 271.336 L
475.273 270.728 L
476.395 270.837 L
477.517 270.797 L
478.639 267.051 L
479.761 266.323 L
480.883 265.385 L
482.006 265.941 L
483.128 267.69 L
484.25 267.161 L
485.372 265.709 L
486.494 265.121 L
487.616 265.34 L
488.738 265.716 L
489.86 266.047 L
490.983 266.793 L
492.105 267.076 L
493.227 267.21 L
494.349 267.152 L
495.471 267.421 L
496.593 268.335 L
497.715 268.056 L
498.837 268.264 L
499.96 268.087 L
501.082 265.52 L
502.204 264.356 L
503.326 265.021 L
504.448 265.257 L
505.57 265.906 L
506.692 265.871 L
507.814 266.013 L
508.937 265.96 L
510.059 266.964 L
511.181 266.566 L
512.303 265.579 L
513.425 265.001 L
514.547 264.631 L
515.669 270.144 L
516.792 273.677 L
517.914 274.493 L
519.036 274.91 L
520.158 274.446 L
521.28 274.388 LE
grestore
gsave
1.0 1.0 scale
newpath 0 0 moveto 576 0 lineto 576 432 lineto 0 432 lineto
closepath clip
1 1 1 C
74.88 179.96 187.093 47.52 74.88 47.52 T
74.88 179.96 187.093 179.96 187.093 47.52 T
0.5 W
0.15 0.15 0.15 C
97.3135 47.52 LS
97.3135 48.8488 LE
97.3135 179.96 LS
97.3135 178.631 LE
119.758 47.52 LS
119.758 48.8488 LE
119.758 179.96 LS
119.758 178.631 LE
142.203 47.52 LS
142.203 48.8488 LE
142.203 179.96 LS
142.203 178.631 LE
164.648 47.52 LS
164.648 48.8488 LE
164.648 179.96 LS
164.648 178.631 LE
187.093 47.52 LS
187.093 48.8488 LE
187.093 179.96 LS
187.093 178.631 LE
gsave
0.14902 0.14902 0.14902 C
(2e+06) [6 5 6 6 10] 0 82.8135 31.995 10 /Helvetica SRX
grestore

gsave
0.14902 0.14902 0.14902 C
(4e+06) [6 5 6 6 10] 0 105.258 31.995 10 /Helvetica SRX
grestore

gsave
0.14902 0.14902 0.14902 C
(6e+06) [6 5 6 6 10] 0 127.703 31.995 10 /Helvetica SRX
grestore

gsave
0.14902 0.14902 0.14902 C
(8e+06) [6 5 6 6 10] 0 150.148 31.995 10 /Helvetica SRX
grestore

gsave
0.14902 0.14902 0.14902 C
(1e+07) [6 5 6 6 10] 0 172.593 31.995 10 /Helvetica SRX
grestore

74.88 47.52 LS
76.2069 47.52 LE
187.093 47.52 LS
185.766 47.52 LE
74.88 80.63 LS
76.2069 80.63 LE
187.093 80.63 LS
185.766 80.63 LE
74.88 113.74 LS
76.2069 113.74 LE
187.093 113.74 LS
185.766 113.74 LE
74.88 146.85 LS
76.2069 146.85 LE
187.093 146.85 LS
185.766 146.85 LE
74.88 179.96 LS
76.2069 179.96 LE
187.093 179.96 LS
185.766 179.96 LE
gsave
0.14902 0.14902 0.14902 C
(0) [10] 0 63.8705 43.52 10 /Helvetica SRX
grestore

gsave
0.14902 0.14902 0.14902 C
(5) [10] 0 63.8705 76.63 10 /Helvetica SRX
grestore

gsave
0.14902 0.14902 0.14902 C
(10) [6 10] 0 57.8705 109.74 10 /Helvetica SRX
grestore

gsave
0.14902 0.14902 0.14902 C
(15) [6 10] 0 57.8705 142.85 10 /Helvetica SRX
grestore

gsave
0.14902 0.14902 0.14902 C
(20) [6 10] 0 57.8705 175.96 10 /Helvetica SRX
grestore

2 LC
[16 0] 0 setdash
74.88 47.52 LS
187.093 47.52 LE
74.88 179.96 LS
187.093 179.96 LE
74.88 47.52 LS
74.88 179.96 LE
187.093 47.52 LS
187.093 179.96 LE
gsave
0 0 0 C
(iiota_C \(Interval\)) [3 3 7 4 6 6 8 3 4 3 7 4 6 4 6 6 3 10] 0 87.4863 192.96 11 /Helvetica-Bold SRX
grestore

0 LC
1 LJ
[] 0 setdash
0 0 1 C
74.88 57.0875 LS
76.0021 97.3496 L
77.1242 104.248 L
78.2464 113.179 L
79.3685 83.8858 L
80.4906 77.2686 L
81.6127 93.9266 L
82.7349 114.116 L
83.857 106.099 L
84.9791 81.2246 L
86.1013 78.9319 L
87.2234 93.4231 L
88.3455 94.8772 L
89.4676 94.7953 L
90.5898 81.9465 L
91.7119 74.547 L
92.834 85.4836 L
93.9561 92.7959 L
95.0783 96.2452 L
96.2004 95.0163 L
97.3225 90.2433 L
98.4446 86.4298 L
99.5668 81.7209 L
100.689 81.7242 L
101.811 89.2342 L
102.933 93.1589 L
104.055 92.7717 L
105.177 91.1484 L
106.3 90.3547 L
107.422 86.944 L
108.544 90.1899 L
109.666 91.3865 L
110.788 98.0807 L
111.91 97.2681 L
113.032 98.7214 L
114.154 97.9026 L
115.277 96.1189 L
116.399 96.9179 L
117.521 93.9876 L
118.643 90.8314 L
119.765 86.2428 L
120.887 87.8827 L
122.009 89.2823 L
123.131 93.4443 L
124.254 105.775 L
125.376 114.478 L
126.498 117.664 L
127.62 114.442 L
128.742 111.224 L
129.864 104.946 L
130.986 107.026 L
132.108 109.556 L
133.231 110.072 L
134.353 108.635 L
135.475 103.596 L
136.597 98.1189 L
137.719 96.0478 L
138.841 95.3507 L
139.963 94.5204 L
141.085 95.6189 L
142.208 97.5365 L
143.33 99.6268 L
144.452 97.5682 L
145.574 96.7317 L
146.696 99.3756 L
147.818 102.706 L
148.94 106.87 L
150.062 109.449 L
151.185 111.04 L
152.307 113.853 L
153.429 114.23 L
154.551 114.391 L
155.673 116.417 L
156.795 116.04 L
157.917 115.742 L
159.039 115.074 L
160.162 111.874 L
161.284 112.824 L
162.406 111.892 L
163.528 108.058 L
164.65 106.203 L
165.772 109.075 L
166.894 107.701 L
168.016 105.821 L
169.139 104.818 L
170.261 105.933 L
171.383 107.756 L
172.505 108.022 L
173.627 110.335 L
174.749 109.197 L
175.871 107.7 L
176.993 107.588 L
178.116 108.371 L
179.238 111.778 L
180.36 116.815 L
181.482 121.241 L
182.604 125.996 L
183.726 130.95 L
184.848 135.4 L
185.97 140.461 L
187.093 145.86 LE
1 0 0 C
74.88 54.9714 LS
76.0021 78.2347 L
77.1242 71.8064 L
78.2464 73.4142 L
79.3685 75.0442 L
80.4906 72.1365 L
81.6127 72.8792 L
82.7349 71.176 L
83.857 88.0304 L
84.9791 80.8052 L
86.1013 78.6277 L
87.2234 84.9221 L
88.3455 80.2868 L
89.4676 86.3675 L
90.5898 81.4531 L
91.7119 74.5271 L
92.834 83.7402 L
93.9561 85.8992 L
95.0783 84.7943 L
96.2004 83.2168 L
97.3225 85.2016 L
98.4446 85.7499 L
99.5668 81.0395 L
100.689 79.3812 L
101.811 82.7403 L
102.933 90.6579 L
104.055 87.7431 L
105.177 86.2856 L
106.3 85.603 L
107.422 84.5124 L
108.544 88.817 L
109.666 87.0218 L
110.788 98.6496 L
111.91 97.8699 L
113.032 99.1507 L
114.154 97.7946 L
115.277 95.5677 L
116.399 97.1175 L
117.521 94.1127 L
118.643 91.0357 L
119.765 86.527 L
120.887 87.6644 L
122.009 89.1013 L
123.131 94.2971 L
124.254 110.946 L
125.376 111.566 L
126.498 114.571 L
127.62 114.406 L
128.742 111.438 L
129.864 105.162 L
130.986 102.961 L
132.108 102.041 L
133.231 102.562 L
134.353 101.646 L
135.475 100.991 L
136.597 96.6652 L
137.719 95.3455 L
138.841 93.6723 L
139.963 91.6034 L
141.085 90.7274 L
142.208 91.3714 L
143.33 92.3584 L
144.452 91.0952 L
145.574 90.7464 L
146.696 93.0576 L
147.818 96.9718 L
148.94 101.975 L
150.062 103.049 L
151.185 103.116 L
152.307 104.264 L
153.429 104.351 L
154.551 103.546 L
155.673 104.084 L
156.795 103.661 L
157.917 103.974 L
159.039 102.352 L
160.162 99.6721 L
161.284 98.9704 L
162.406 98.9918 L
163.528 95.3542 L
164.65 93.969 L
165.772 95.0719 L
166.894 93.223 L
168.016 91.923 L
169.139 92.7336 L
170.261 92.2497 L
171.383 92.4585 L
172.505 91.4861 L
173.627 92.1875 L
174.749 92.194 L
175.871 93.8575 L
176.993 97.9197 L
178.116 101.288 L
179.238 107.921 L
180.36 115.584 L
181.482 120.872 L
182.604 123.967 L
183.726 127.585 L
184.848 131.649 L
185.97 137.339 L
187.093 141.361 LE
grestore
gsave
1.0 1.0 scale
newpath 0 0 moveto 576 0 lineto 576 432 lineto 0 432 lineto
closepath clip
1 1 1 C
241.974 179.96 354.186 47.52 241.974 47.52 T
241.974 179.96 354.186 179.96 354.186 47.52 T
0.5 W
0.15 0.15 0.15 C
264.407 47.52 LS
264.407 48.8488 LE
264.407 179.96 LS
264.407 178.631 LE
286.852 47.52 LS
286.852 48.8488 LE
286.852 179.96 LS
286.852 178.631 LE
309.297 47.52 LS
309.297 48.8488 LE
309.297 179.96 LS
309.297 178.631 LE
331.742 47.52 LS
331.742 48.8488 LE
331.742 179.96 LS
331.742 178.631 LE
354.186 47.52 LS
354.186 48.8488 LE
354.186 179.96 LS
354.186 178.631 LE
gsave
0.14902 0.14902 0.14902 C
(2e+06) [6 5 6 6 10] 0 249.907 31.995 10 /Helvetica SRX
grestore

gsave
0.14902 0.14902 0.14902 C
(4e+06) [6 5 6 6 10] 0 272.352 31.995 10 /Helvetica SRX
grestore

gsave
0.14902 0.14902 0.14902 C
(6e+06) [6 5 6 6 10] 0 294.797 31.995 10 /Helvetica SRX
grestore

gsave
0.14902 0.14902 0.14902 C
(8e+06) [6 5 6 6 10] 0 317.242 31.995 10 /Helvetica SRX
grestore

gsave
0.14902 0.14902 0.14902 C
(1e+07) [6 5 6 6 10] 0 339.686 31.995 10 /Helvetica SRX
grestore

241.974 47.52 LS
243.301 47.52 LE
354.186 47.52 LS
352.859 47.52 LE
241.974 66.44 LS
243.301 66.44 LE
354.186 66.44 LS
352.859 66.44 LE
241.974 85.36 LS
243.301 85.36 LE
354.186 85.36 LS
352.859 85.36 LE
241.974 104.28 LS
243.301 104.28 LE
354.186 104.28 LS
352.859 104.28 LE
241.974 123.2 LS
243.301 123.2 LE
354.186 123.2 LS
352.859 123.2 LE
241.974 142.12 LS
243.301 142.12 LE
354.186 142.12 LS
352.859 142.12 LE
241.974 161.04 LS
243.301 161.04 LE
354.186 161.04 LS
352.859 161.04 LE
241.974 179.96 LS
243.301 179.96 LE
354.186 179.96 LS
352.859 179.96 LE
gsave
0.14902 0.14902 0.14902 C
(0) [10] 0 230.964 43.52 10 /Helvetica SRX
grestore

gsave
0.14902 0.14902 0.14902 C
(5) [10] 0 230.964 62.44 10 /Helvetica SRX
grestore

gsave
0.14902 0.14902 0.14902 C
(10) [6 10] 0 224.964 81.36 10 /Helvetica SRX
grestore

gsave
0.14902 0.14902 0.14902 C
(15) [6 10] 0 224.964 100.28 10 /Helvetica SRX
grestore

gsave
0.14902 0.14902 0.14902 C
(20) [6 10] 0 224.964 119.2 10 /Helvetica SRX
grestore

gsave
0.14902 0.14902 0.14902 C
(25) [6 10] 0 224.964 138.12 10 /Helvetica SRX
grestore

gsave
0.14902 0.14902 0.14902 C
(30) [6 10] 0 224.964 157.04 10 /Helvetica SRX
grestore

gsave
0.14902 0.14902 0.14902 C
(35) [6 10] 0 224.964 175.96 10 /Helvetica SRX
grestore

2 LC
[16 0] 0 setdash
241.974 47.52 LS
354.186 47.52 LE
241.974 179.96 LS
354.186 179.96 LE
241.974 47.52 LS
241.974 179.96 LE
354.186 47.52 LS
354.186 179.96 LE
gsave
0 0 0 C
(iiota_C \(m2\)) [3 3 7 4 6 6 8 3 4 10 6 10] 0 266.08 192.96 11 /Helvetica-Bold SRX
grestore

0 LC
1 LJ
[] 0 setdash
0 0 1 C
241.974 48.467 LS
243.096 75.6787 L
244.218 90.5109 L
245.34 107.178 L
246.462 63.7253 L
247.584 58.8294 L
248.706 75.0225 L
249.829 110.985 L
250.951 87.4472 L
252.073 61.4627 L
253.195 59.9354 L
254.317 77.4243 L
255.439 77.9913 L
256.561 77.7759 L
257.683 62.3518 L
258.806 57.1786 L
259.928 65.3809 L
261.05 73.7202 L
262.172 77.1123 L
263.294 75.7934 L
264.416 70.8103 L
265.538 67.8047 L
266.66 62.0208 L
267.783 61.9456 L
268.905 67.906 L
270.027 71.9375 L
271.149 71.0691 L
272.271 69.5221 L
273.393 68.8681 L
274.515 66.1718 L
275.637 69.9005 L
276.76 71.6586 L
277.882 78.9726 L
279.004 78.3723 L
280.126 80.1485 L
281.248 79.3954 L
282.37 77.5213 L
283.492 78.6204 L
284.614 76.4124 L
285.737 73.188 L
286.859 66.3274 L
287.981 67.8048 L
289.103 69.1102 L
290.225 82.6794 L
291.347 101.065 L
292.469 105.067 L
293.591 105.873 L
294.714 101.456 L
295.836 96.8425 L
296.958 87.9569 L
298.08 88.97 L
299.202 92.2577 L
300.324 93.0359 L
301.446 91.7613 L
302.568 86.6715 L
303.691 80.2605 L
304.813 77.8669 L
305.935 77.495 L
307.057 77.514 L
308.179 78.4267 L
309.301 80.1015 L
310.423 82.6574 L
311.546 80.6602 L
312.668 78.8627 L
313.79 83.7614 L
314.912 88.7242 L
316.034 93.7962 L
317.156 97.0459 L
318.278 99.5063 L
319.4 103.616 L
320.523 104.327 L
321.645 103.614 L
322.767 105.237 L
323.889 103.896 L
325.011 103.466 L
326.133 102.473 L
327.255 98.5239 L
328.377 99.3699 L
329.5 98.0714 L
330.622 91.9367 L
331.744 87.9015 L
332.866 91.6264 L
333.988 90.3047 L
335.11 88.1162 L
336.232 87.0225 L
337.354 88.0326 L
338.477 92.5896 L
339.599 93.116 L
340.721 95.9615 L
341.843 94.7419 L
342.965 93.5947 L
344.087 93.7975 L
345.209 94.9577 L
346.331 101.028 L
347.454 106.16 L
348.576 111.916 L
349.698 119.095 L
350.82 133.123 L
351.942 144.811 L
353.064 157.862 L
354.186 167.661 LE
1 0 0 C
241.974 48.189 LS
243.096 59.5992 L
244.218 54.9457 L
245.34 56.4771 L
246.462 57.2979 L
247.584 55.3969 L
248.706 55.8183 L
249.829 54.8666 L
250.951 69.211 L
252.073 61.3902 L
253.195 59.8062 L
254.317 68.5806 L
255.439 63.3192 L
256.561 70.179 L
257.683 61.9774 L
258.806 57.0888 L
259.928 63.9133 L
261.05 67.5452 L
262.172 65.3602 L
263.294 63.8641 L
264.416 66.183 L
265.538 66.9796 L
266.66 61.5862 L
267.783 60.2935 L
268.905 63.6351 L
270.027 69.8845 L
271.149 66.7195 L
272.271 65.53 L
273.393 65.0083 L
274.515 64.2578 L
275.637 67.8489 L
276.76 68.1064 L
277.882 78.7038 L
279.004 78.3637 L
280.126 79.9487 L
281.248 78.5431 L
282.37 76.6123 L
283.492 77.6794 L
284.614 75.4363 L
285.737 72.7711 L
286.859 66.3207 L
287.981 67.3659 L
289.103 69.1003 L
290.225 82.5022 L
291.347 99.7901 L
292.469 102.32 L
293.591 102.987 L
294.714 99.1417 L
295.836 94.5278 L
296.958 85.8561 L
298.08 84.2393 L
299.202 83.5081 L
300.324 84.5453 L
301.446 83.3881 L
302.568 82.3618 L
303.691 78.4834 L
304.813 76.9761 L
305.935 76 L
307.057 73.123 L
308.179 72.4949 L
309.301 72.9605 L
310.423 73.77 L
311.546 72.6796 L
312.668 71.9021 L
313.79 74.0633 L
314.912 78.0707 L
316.034 83.9674 L
317.156 85.4352 L
318.278 85.7371 L
319.4 87.1164 L
320.523 87.338 L
321.645 86.2878 L
322.767 86.9702 L
323.889 86.5339 L
325.011 86.8654 L
326.133 84.3041 L
327.255 81.1254 L
328.377 80.7094 L
329.5 80.505 L
330.622 76.2733 L
331.744 74.0105 L
332.866 75.7836 L
333.988 73.7827 L
335.11 72.1671 L
336.232 72.9643 L
337.354 72.3851 L
338.477 74.0872 L
339.599 72.9303 L
340.721 73.472 L
341.843 74.052 L
342.965 76.3139 L
344.087 80.7419 L
345.209 85.3053 L
346.331 95.9556 L
347.454 103.713 L
348.576 111.044 L
349.698 119.074 L
350.82 132.942 L
351.942 143.971 L
353.064 155.423 L
354.186 163.577 LE
grestore
gsave
1.0 1.0 scale
newpath 0 0 moveto 576 0 lineto 576 432 lineto 0 432 lineto
closepath clip
1 1 1 C
409.067 179.96 521.28 47.52 409.067 47.52 T
409.067 179.96 521.28 179.96 521.28 47.52 T
0.5 W
0.15 0.15 0.15 C
431.501 47.52 LS
431.501 48.8488 LE
431.501 179.96 LS
431.501 178.631 LE
453.946 47.52 LS
453.946 48.8488 LE
453.946 179.96 LS
453.946 178.631 LE
476.39 47.52 LS
476.39 48.8488 LE
476.39 179.96 LS
476.39 178.631 LE
498.835 47.52 LS
498.835 48.8488 LE
498.835 179.96 LS
498.835 178.631 LE
521.28 47.52 LS
521.28 48.8488 LE
521.28 179.96 LS
521.28 178.631 LE
gsave
0.14902 0.14902 0.14902 C
(2e+06) [6 5 6 6 10] 0 417.001 31.995 10 /Helvetica SRX
grestore

gsave
0.14902 0.14902 0.14902 C
(4e+06) [6 5 6 6 10] 0 439.446 31.995 10 /Helvetica SRX
grestore

gsave
0.14902 0.14902 0.14902 C
(6e+06) [6 5 6 6 10] 0 461.89 31.995 10 /Helvetica SRX
grestore

gsave
0.14902 0.14902 0.14902 C
(8e+06) [6 5 6 6 10] 0 484.335 31.995 10 /Helvetica SRX
grestore

gsave
0.14902 0.14902 0.14902 C
(1e+07) [6 5 6 6 10] 0 506.78 31.995 10 /Helvetica SRX
grestore

409.067 47.52 LS
410.394 47.52 LE
521.28 47.52 LS
519.953 47.52 LE
409.067 69.5933 LS
410.394 69.5933 LE
521.28 69.5933 LS
519.953 69.5933 LE
409.067 91.6666 LS
410.394 91.6666 LE
521.28 91.6666 LS
519.953 91.6666 LE
409.067 113.74 LS
410.394 113.74 LE
521.28 113.74 LS
519.953 113.74 LE
409.067 135.813 LS
410.394 135.813 LE
521.28 135.813 LS
519.953 135.813 LE
409.067 157.887 LS
410.394 157.887 LE
521.28 157.887 LS
519.953 157.887 LE
409.067 179.96 LS
410.394 179.96 LE
521.28 179.96 LS
519.953 179.96 LE
gsave
0.14902 0.14902 0.14902 C
(0) [10] 0 398.058 43.52 10 /Helvetica SRX
grestore

gsave
0.14902 0.14902 0.14902 C
(50) [6 10] 0 392.058 65.5933 10 /Helvetica SRX
grestore

gsave
0.14902 0.14902 0.14902 C
(100) [6 6 10] 0 386.058 87.6667 10 /Helvetica SRX
grestore

gsave
0.14902 0.14902 0.14902 C
(150) [6 6 10] 0 386.058 109.74 10 /Helvetica SRX
grestore

gsave
0.14902 0.14902 0.14902 C
(200) [6 6 10] 0 386.058 131.813 10 /Helvetica SRX
grestore

gsave
0.14902 0.14902 0.14902 C
(250) [6 6 10] 0 386.058 153.887 10 /Helvetica SRX
grestore

gsave
0.14902 0.14902 0.14902 C
(300) [6 6 10] 0 386.058 175.96 10 /Helvetica SRX
grestore

2 LC
[16 0] 0 setdash
409.067 47.52 LS
521.28 47.52 LE
409.067 179.96 LS
521.28 179.96 LE
409.067 47.52 LS
409.067 179.96 LE
521.28 47.52 LS
521.28 179.96 LE
gsave
0 0 0 C
(iiota_C \(m3\)) [3 3 7 4 6 6 8 3 4 10 6 10] 0 433.174 192.96 11 /Helvetica-Bold SRX
grestore

0 LC
1 LJ
[] 0 setdash
0 0 1 C
409.067 47.6032 LS
410.19 60.4945 L
411.312 68.2221 L
412.434 79.8599 L
413.556 53.4002 L
414.678 51.1255 L
415.8 59.2208 L
416.922 82.3183 L
418.044 68.1919 L
419.167 52.2011 L
420.289 51.61 L
421.411 65.5466 L
422.533 64.3526 L
423.655 64.8297 L
424.777 52.894 L
425.899 50.4683 L
427.021 54.9198 L
428.144 60.1754 L
429.266 61.3213 L
430.388 60.4826 L
431.51 58.1951 L
432.632 56.8693 L
433.754 52.5527 L
434.876 52.7495 L
435.998 55.9211 L
437.121 57.8572 L
438.243 57.428 L
439.365 56.606 L
440.487 56.2334 L
441.609 55.0069 L
442.731 57.5235 L
443.853 58.7205 L
444.975 63.7667 L
446.098 63.2021 L
447.22 64.4859 L
448.342 63.7023 L
449.464 62.5187 L
450.586 63.4901 L
451.708 62.5888 L
452.83 60.5605 L
453.952 54.9895 L
455.075 55.8977 L
456.197 56.6468 L
457.319 72.4548 L
458.441 91.7081 L
459.563 92.5279 L
460.685 89.1701 L
461.807 83.6571 L
462.929 79.9439 L
464.052 72.1851 L
465.174 71.998 L
466.296 74.3689 L
467.418 75.0691 L
468.54 73.915 L
469.662 70.0401 L
470.784 64.9358 L
471.906 63.6961 L
473.029 63.5993 L
474.151 63.7395 L
475.273 64.4411 L
476.395 65.0573 L
477.517 66.7144 L
478.639 65.5013 L
479.761 63.7995 L
480.883 68.585 L
482.006 72.9447 L
483.128 77.0327 L
484.25 79.3107 L
485.372 81.0057 L
486.494 84.2928 L
487.616 84.9198 L
488.738 84.7177 L
489.86 85.9664 L
490.983 84.9539 L
492.105 84.562 L
493.227 84.0493 L
494.349 81.0795 L
495.471 81.7154 L
496.593 80.9736 L
497.715 75.0002 L
498.837 70.6854 L
499.96 74.1167 L
501.082 73.0903 L
502.204 71.4753 L
503.326 70.6664 L
504.448 71.3165 L
505.57 76.1213 L
506.692 76.0241 L
507.814 78.314 L
508.937 77.6506 L
510.059 76.9856 L
511.181 77.2389 L
512.303 78.2041 L
513.425 84.602 L
514.547 89.4442 L
515.669 94.6151 L
516.792 102.6 L
517.914 121.549 L
519.036 134.825 L
520.158 152.372 L
521.28 161.86 LE
1 0 0 C
409.067 47.5689 LS
410.19 51.2305 L
411.312 49.396 L
412.434 50.2494 L
413.556 50.4151 L
414.678 49.5942 L
415.8 49.7173 L
416.922 49.4238 L
418.044 55.9755 L
419.167 52.2188 L
420.289 51.5364 L
421.411 58.2438 L
422.533 54.1351 L
423.655 58.9813 L
424.777 52.5917 L
425.899 50.4244 L
427.021 53.824 L
428.144 56.0233 L
429.266 55.2019 L
430.388 54.0264 L
431.51 55.2646 L
432.632 56.0321 L
433.754 52.3437 L
434.876 51.8165 L
435.998 53.3326 L
437.121 57.0932 L
438.243 55.6489 L
439.365 54.9739 L
440.487 54.6057 L
441.609 54.2107 L
442.731 56.1113 L
443.853 56.7963 L
444.975 63.9653 L
446.098 63.1583 L
447.22 64.2694 L
448.342 63.1946 L
449.464 61.8814 L
450.586 62.8781 L
451.708 61.5599 L
452.83 59.9795 L
453.952 54.9931 L
455.075 55.6097 L
456.197 56.6443 L
457.319 71.7659 L
458.441 87.8699 L
459.563 87.3596 L
460.685 85.5896 L
461.807 81.3543 L
462.929 77.3547 L
464.052 69.8657 L
465.174 67.7899 L
466.296 66.957 L
467.418 68.0038 L
468.54 67.2571 L
469.662 66.7969 L
470.784 63.8195 L
471.906 63.0404 L
473.029 62.4902 L
474.151 59.9463 L
475.273 59.519 L
476.395 59.7601 L
477.517 60.3038 L
478.639 59.699 L
479.761 58.9748 L
480.883 60.627 L
482.006 63.4616 L
483.128 67.4077 L
484.25 68.1052 L
485.372 68.2038 L
486.494 69.1434 L
487.616 69.4002 L
488.738 68.6235 L
489.86 68.9209 L
490.983 68.5559 L
492.105 68.6867 L
493.227 67.0024 L
494.349 65.1641 L
495.471 64.8892 L
496.593 64.8239 L
497.715 61.5628 L
498.837 59.4753 L
499.96 60.8293 L
501.082 59.5998 L
502.204 58.6028 L
503.326 59.0866 L
504.448 58.6861 L
505.57 60.5056 L
506.692 59.7524 L
507.814 60.0077 L
508.937 60.62 L
510.059 62.6122 L
511.181 66.1847 L
512.303 70.0013 L
513.425 81.6264 L
514.547 88.7205 L
515.669 94.8497 L
516.792 102.789 L
517.914 120.368 L
519.036 131.489 L
520.158 145.203 L
521.28 151.808 LE
grestore
grestore
showpage
cleartomark
%%PageTrailer
%%Trailer
end
%%EOF
