%!PS-Adobe-3.0 EPSF-3.0
%%Title: gl2ps_renderer figure
%%Creator: GL2PS 1.4.2, (C) 1999-2020 C. Geuzaine
%%For: Octave
%%CreationDate: Wed Oct  7 07:02:27 2020
%%LanguageLevel: 3
%%DocumentData: Clean7Bit
%%Pages: 1
%%BoundingBox: 0 0 576 432
%%EndComments
%%BeginProlog
/gl2psdict 64 dict def gl2psdict begin
/tryPS3shading false def % set to false to force subdivision
/rThreshold 0.064 def % red component subdivision threshold
/gThreshold 0.034 def % green component subdivision threshold
/bThreshold 0.1 def % blue component subdivision threshold
/BD { bind def } bind def
/C  { setrgbcolor } BD
/G  { 0.082 mul exch 0.6094 mul add exch 0.3086 mul add neg 1.0 add setgray } BD
/W  { setlinewidth } BD
/LC  { setlinecap } BD
/LJ  { setlinejoin } BD
/FC { findfont exch /SH exch def SH scalefont setfont } BD
/SW { dup stringwidth pop } BD
/S  { FC moveto show } BD
/SBC{ FC moveto SW -2 div 0 rmoveto show } BD
/SBR{ FC moveto SW neg 0 rmoveto show } BD
/SCL{ FC moveto 0 SH -2 div rmoveto show } BD
/SCC{ FC moveto SW -2 div SH -2 div rmoveto show } BD
/SCR{ FC moveto SW neg SH -2 div rmoveto show } BD
/STL{ FC moveto 0 SH neg rmoveto show } BD
/STC{ FC moveto SW -2 div SH neg rmoveto show } BD
/STR{ FC moveto SW neg SH neg rmoveto show } BD
/FCT { FC translate 0 0 } BD
/SR  { gsave FCT moveto rotate show grestore } BD
/SRX  { gsave FCT moveto rotate xshow grestore } BD
/SBCR{ gsave FCT moveto rotate SW -2 div 0 rmoveto show grestore } BD
/SBRR{ gsave FCT moveto rotate SW neg 0 rmoveto show grestore } BD
/SCLR{ gsave FCT moveto rotate 0 SH -2 div rmoveto show grestore} BD
/SCCR{ gsave FCT moveto rotate SW -2 div SH -2 div rmoveto show grestore} BD
/SCRR{ gsave FCT moveto rotate SW neg SH -2 div rmoveto show grestore} BD
/STLR{ gsave FCT moveto rotate 0 SH neg rmoveto show grestore } BD
/STCR{ gsave FCT moveto rotate SW -2 div SH neg rmoveto show grestore } BD
/STRR{ gsave FCT moveto rotate SW neg SH neg rmoveto show grestore } BD
/P  { newpath 0.0 360.0 arc closepath fill } BD
/LS { newpath moveto } BD
/L  { lineto } BD
/LE { lineto stroke } BD
/T  { newpath moveto lineto lineto closepath fill } BD
/STshfill {
      /b1 exch def /g1 exch def /r1 exch def /y1 exch def /x1 exch def
      /b2 exch def /g2 exch def /r2 exch def /y2 exch def /x2 exch def
      /b3 exch def /g3 exch def /r3 exch def /y3 exch def /x3 exch def
      gsave << /ShadingType 4 /ColorSpace [/DeviceRGB]
      /DataSource [ 0 x1 y1 r1 g1 b1 0 x2 y2 r2 g2 b2 0 x3 y3 r3 g3 b3 ] >>
      shfill grestore } BD
/Tm { 3 -1 roll 8 -1 roll 13 -1 roll add add 3 div
      3 -1 roll 7 -1 roll 11 -1 roll add add 3 div
      3 -1 roll 6 -1 roll 9 -1 roll add add 3 div C T } BD
/STsplit {
      4 index 15 index add 0.5 mul
      4 index 15 index add 0.5 mul
      4 index 15 index add 0.5 mul
      4 index 15 index add 0.5 mul
      4 index 15 index add 0.5 mul
      5 copy 5 copy 25 15 roll
      9 index 30 index add 0.5 mul
      9 index 30 index add 0.5 mul
      9 index 30 index add 0.5 mul
      9 index 30 index add 0.5 mul
      9 index 30 index add 0.5 mul
      5 copy 5 copy 35 5 roll 25 5 roll 15 5 roll
      4 index 10 index add 0.5 mul
      4 index 10 index add 0.5 mul
      4 index 10 index add 0.5 mul
      4 index 10 index add 0.5 mul
      4 index 10 index add 0.5 mul
      5 copy 5 copy 40 5 roll 25 5 roll 15 5 roll 25 5 roll
      STnoshfill STnoshfill STnoshfill STnoshfill } BD
/STnoshfill {
      2 index 8 index sub abs rThreshold gt
      { STsplit }
      { 1 index 7 index sub abs gThreshold gt
        { STsplit }
        { dup 6 index sub abs bThreshold gt
          { STsplit }
          { 2 index 13 index sub abs rThreshold gt
            { STsplit }
            { 1 index 12 index sub abs gThreshold gt
              { STsplit }
              { dup 11 index sub abs bThreshold gt
                { STsplit }
                { 7 index 13 index sub abs rThreshold gt
                  { STsplit }
                  { 6 index 12 index sub abs gThreshold gt
                    { STsplit }
                    { 5 index 11 index sub abs bThreshold gt
                      { STsplit }
                      { Tm }
                      ifelse }
                    ifelse }
                  ifelse }
                ifelse }
              ifelse }
            ifelse }
          ifelse }
        ifelse }
      ifelse } BD
tryPS3shading
{ /shfill where
  { /ST { STshfill } BD }
  { /ST { STnoshfill } BD }
  ifelse }
{ /ST { STnoshfill } BD }
ifelse
end
%%EndProlog
%%BeginSetup
/DeviceRGB setcolorspace
gl2psdict begin
%%EndSetup
%%Page: 1 1
%%BeginPageSetup
%%EndPageSetup
mark
gsave
1.0 1.0 scale
1 1 1 C
newpath 0 0 moveto 576 0 lineto 576 432 lineto 0 432 lineto
closepath fill
gsave
1.0 1.0 scale
1 1 1 C
newpath 0 0 moveto 576 0 lineto 576 432 lineto 0 432 lineto
closepath fill
newpath 0 0 moveto 576 0 lineto 576 432 lineto 0 432 lineto
closepath clip
1 1 1 C
74.88 386.841 187.093 312.427 74.88 312.427 T
74.88 386.841 187.093 386.841 187.093 312.427 T
0.5 W
0.15 0.15 0.15 C
98.5037 312.427 LS
98.5037 313.556 LE
98.5037 386.841 LS
98.5037 385.712 LE
128.033 312.427 LS
128.033 313.556 LE
128.033 386.841 LS
128.033 385.712 LE
157.563 312.427 LS
157.563 313.556 LE
157.563 386.841 LS
157.563 385.712 LE
187.093 312.427 LS
187.093 313.556 LE
187.093 386.841 LS
187.093 385.712 LE
gsave
0.14902 0.14902 0.14902 C
(5) [10] 0 95.5037 296.886 10 /Helvetica SRX
grestore

gsave
0.14902 0.14902 0.14902 C
(10) [6 10] 0 122.033 296.886 10 /Helvetica SRX
grestore

gsave
0.14902 0.14902 0.14902 C
(15) [6 10] 0 151.563 296.886 10 /Helvetica SRX
grestore

gsave
0.14902 0.14902 0.14902 C
(20) [6 10] 0 181.093 296.886 10 /Helvetica SRX
grestore

74.88 328.502 LS
76.0043 328.502 LE
187.093 328.502 LS
185.968 328.502 LE
74.88 345.561 LS
76.0043 345.561 LE
187.093 345.561 LS
185.968 345.561 LE
74.88 362.619 LS
76.0043 362.619 LE
187.093 362.619 LS
185.968 362.619 LE
74.88 379.678 LS
76.0043 379.678 LE
187.093 379.678 LS
185.968 379.678 LE
gsave
0.14902 0.14902 0.14902 C
(0.02) [6 3 6 10] 0 48.8705 324.502 10 /Helvetica SRX
grestore

gsave
0.14902 0.14902 0.14902 C
(0.03) [6 3 6 10] 0 48.8705 341.561 10 /Helvetica SRX
grestore

gsave
0.14902 0.14902 0.14902 C
(0.04) [6 3 6 10] 0 48.8705 358.619 10 /Helvetica SRX
grestore

gsave
0.14902 0.14902 0.14902 C
(0.05) [6 3 6 10] 0 48.8705 375.678 10 /Helvetica SRX
grestore

2 LC
[16 0] 0 setdash
74.88 312.427 LS
187.093 312.427 LE
74.88 386.841 LS
187.093 386.841 LE
74.88 312.427 LS
74.88 386.841 LE
187.093 312.427 LS
187.093 386.841 LE
gsave
0 0 0 C
(Y_T_hat) [7 6 7 6 7 6 10] 0 109.486 398.841 11 /Helvetica-Bold SRX
grestore

0.9 0.9 0.9 C
74.88 312.427 74.88 386.841 80.7859 312.427 T
80.7859 385.865 80.7859 312.427 74.88 386.841 T
86.6918 312.427 80.7859 312.427 80.7859 385.865 T
86.6918 383.014 86.6918 312.427 80.7859 385.865 T
92.5978 312.427 86.6918 312.427 86.6918 383.014 T
92.5978 379.293 92.5978 312.427 86.6918 383.014 T
98.5037 312.427 92.5978 312.427 92.5978 379.293 T
98.5037 373.257 98.5037 312.427 92.5978 379.293 T
104.41 312.427 98.5037 312.427 98.5037 373.257 T
104.41 368.028 104.41 312.427 98.5037 373.257 T
110.316 312.427 104.41 312.427 104.41 368.028 T
110.316 363.518 110.316 312.427 104.41 368.028 T
116.221 312.427 110.316 312.427 110.316 363.518 T
116.221 358.675 116.221 312.427 110.316 363.518 T
122.127 312.427 116.221 312.427 116.221 358.675 T
122.127 354.931 122.127 312.427 116.221 358.675 T
128.033 312.427 122.127 312.427 122.127 354.931 T
128.033 351.262 128.033 312.427 122.127 354.931 T
133.939 312.427 128.033 312.427 128.033 351.262 T
133.939 347.17 133.939 312.427 128.033 351.262 T
139.845 312.427 133.939 312.427 133.939 347.17 T
139.845 343.68 139.845 312.427 133.939 347.17 T
145.751 312.427 139.845 312.427 139.845 343.68 T
145.751 341.195 145.751 312.427 139.845 343.68 T
151.657 312.427 145.751 312.427 145.751 341.195 T
151.657 338.576 151.657 312.427 145.751 341.195 T
157.563 312.427 151.657 312.427 151.657 338.576 T
157.563 336.203 157.563 312.427 151.657 338.576 T
163.469 312.427 157.563 312.427 157.563 336.203 T
163.469 334.048 163.469 312.427 157.563 336.203 T
169.375 312.427 163.469 312.427 163.469 334.048 T
169.375 332.109 169.375 312.427 163.469 334.048 T
175.281 312.427 169.375 312.427 169.375 332.109 T
175.281 329.816 175.281 312.427 169.375 332.109 T
181.187 312.427 175.281 312.427 175.281 329.816 T
181.187 328.51 181.187 312.427 175.281 329.816 T
187.093 312.427 181.187 312.427 181.187 328.51 T
187.093 326.971 187.093 312.427 181.187 328.51 T
0 LC
[] 0 setdash
0 0 0 C
187.093 326.971 LS
181.187 328.51 L
175.281 329.816 L
169.375 332.109 L
163.469 334.048 L
157.563 336.203 L
151.657 338.576 L
145.751 341.195 L
139.845 343.68 L
133.939 347.17 L
128.033 351.262 L
122.127 354.931 L
116.221 358.675 L
110.316 363.518 L
104.41 368.028 L
98.5037 373.257 L
92.5978 379.293 L
86.6918 383.014 L
80.7859 385.865 L
74.88 386.841 L
74.88 312.427 L
80.7859 312.427 L
86.6918 312.427 L
92.5978 312.427 L
98.5037 312.427 L
104.41 312.427 L
110.316 312.427 L
116.221 312.427 L
122.127 312.427 L
128.033 312.427 L
133.939 312.427 L
139.845 312.427 L
145.751 312.427 L
151.657 312.427 L
157.563 312.427 L
163.469 312.427 L
169.375 312.427 L
175.281 312.427 L
181.187 312.427 L
187.093 312.427 L
187.093 326.971 LE
1 1 1 C
74.88 312.427 74.88 354.94 80.7859 312.427 T
80.7859 352.297 80.7859 312.427 74.88 354.94 T
86.6918 312.427 80.7859 312.427 80.7859 352.297 T
86.6918 349.05 86.6918 312.427 80.7859 352.297 T
92.5978 312.427 86.6918 312.427 86.6918 349.05 T
92.5978 346.065 92.5978 312.427 86.6918 349.05 T
98.5037 312.427 92.5978 312.427 92.5978 346.065 T
98.5037 341.581 98.5037 312.427 92.5978 346.065 T
104.41 312.427 98.5037 312.427 98.5037 341.581 T
104.41 338.215 104.41 312.427 98.5037 341.581 T
110.316 312.427 104.41 312.427 104.41 338.215 T
110.316 335.389 110.316 312.427 104.41 338.215 T
116.221 312.427 110.316 312.427 110.316 335.389 T
116.221 332.074 116.221 312.427 110.316 335.389 T
122.127 312.427 116.221 312.427 116.221 332.074 T
122.127 329.9 122.127 312.427 116.221 332.074 T
128.033 312.427 122.127 312.427 122.127 329.9 T
128.033 327.641 128.033 312.427 122.127 329.9 T
133.939 312.427 128.033 312.427 128.033 327.641 T
133.939 324.772 133.939 312.427 128.033 327.641 T
139.845 312.427 133.939 312.427 133.939 324.772 T
139.845 322.422 139.845 312.427 133.939 324.772 T
145.751 312.427 139.845 312.427 139.845 322.422 T
145.751 321.048 145.751 312.427 139.845 322.422 T
151.657 312.427 145.751 312.427 145.751 321.048 T
151.657 319.421 151.657 312.427 145.751 321.048 T
157.563 312.427 151.657 312.427 151.657 319.421 T
157.563 317.968 157.563 312.427 151.657 319.421 T
163.469 312.427 157.563 312.427 157.563 317.968 T
163.469 316.645 163.469 312.427 157.563 317.968 T
169.375 312.427 163.469 312.427 163.469 316.645 T
169.375 315.5 169.375 312.427 163.469 316.645 T
175.281 312.427 169.375 312.427 169.375 315.5 T
175.281 313.909 175.281 312.427 169.375 315.5 T
181.187 312.427 175.281 312.427 175.281 313.909 T
181.187 313.298 181.187 312.427 175.281 313.909 T
187.093 312.427 181.187 312.427 181.187 313.298 T
0 0 0 C
187.093 312.427 LS
181.187 313.298 L
175.281 313.909 L
169.375 315.5 L
163.469 316.645 L
157.563 317.968 L
151.657 319.421 L
145.751 321.048 L
139.845 322.422 L
133.939 324.772 L
128.033 327.641 L
122.127 329.9 L
116.221 332.074 L
110.316 335.389 L
104.41 338.215 L
98.5037 341.581 L
92.5978 346.065 L
86.6918 349.05 L
80.7859 352.297 L
74.88 354.94 L
74.88 312.427 L
80.7859 312.427 L
86.6918 312.427 L
92.5978 312.427 L
98.5037 312.427 L
104.41 312.427 L
110.316 312.427 L
116.221 312.427 L
122.127 312.427 L
128.033 312.427 L
133.939 312.427 L
139.845 312.427 L
145.751 312.427 L
151.657 312.427 L
157.563 312.427 L
163.469 312.427 L
169.375 312.427 L
175.281 312.427 L
181.187 312.427 L
187.093 312.427 LE
3 W
1 LJ
74.88 371.201 LS
80.7859 370.35 L
86.6918 366.423 L
92.5978 361.8 L
98.5037 357.187 L
104.41 352.822 L
110.316 348.778 L
116.221 345.073 L
122.127 341.694 L
128.033 338.621 L
133.939 335.831 L
139.845 333.298 L
145.751 330.998 L
151.657 328.91 L
157.563 327.012 L
163.469 325.287 L
169.375 323.716 L
175.281 322.286 L
181.187 320.981 L
187.093 319.789 LE
grestore
gsave
1.0 1.0 scale
newpath 0 0 moveto 576 0 lineto 576 432 lineto 0 432 lineto
closepath clip
1 1 1 C
241.974 386.841 354.186 312.427 241.974 312.427 T
241.974 386.841 354.186 386.841 354.186 312.427 T
0.5 W
0.15 0.15 0.15 C
265.597 312.427 LS
265.597 313.556 LE
265.597 386.841 LS
265.597 385.712 LE
295.127 312.427 LS
295.127 313.556 LE
295.127 386.841 LS
295.127 385.712 LE
324.657 312.427 LS
324.657 313.556 LE
324.657 386.841 LS
324.657 385.712 LE
354.186 312.427 LS
354.186 313.556 LE
354.186 386.841 LS
354.186 385.712 LE
gsave
0.14902 0.14902 0.14902 C
(5) [10] 0 262.597 296.886 10 /Helvetica SRX
grestore

gsave
0.14902 0.14902 0.14902 C
(10) [6 10] 0 289.127 296.886 10 /Helvetica SRX
grestore

gsave
0.14902 0.14902 0.14902 C
(15) [6 10] 0 318.657 296.886 10 /Helvetica SRX
grestore

gsave
0.14902 0.14902 0.14902 C
(20) [6 10] 0 348.186 296.886 10 /Helvetica SRX
grestore

241.974 323.575 LS
243.098 323.575 LE
354.186 323.575 LS
353.062 323.575 LE
241.974 343.044 LS
243.098 343.044 LE
354.186 343.044 LS
353.062 343.044 LE
241.974 362.513 LS
243.098 362.513 LE
354.186 362.513 LS
353.062 362.513 LE
241.974 381.983 LS
243.098 381.983 LE
354.186 381.983 LS
353.062 381.983 LE
gsave
0.14902 0.14902 0.14902 C
(0.004) [6 3 6 6 10] 0 209.964 319.575 10 /Helvetica SRX
grestore

gsave
0.14902 0.14902 0.14902 C
(0.006) [6 3 6 6 10] 0 209.964 339.044 10 /Helvetica SRX
grestore

gsave
0.14902 0.14902 0.14902 C
(0.008) [6 3 6 6 10] 0 209.964 358.513 10 /Helvetica SRX
grestore

gsave
0.14902 0.14902 0.14902 C
(0.01) [6 3 6 10] 0 215.964 377.983 10 /Helvetica SRX
grestore

2 LC
[16 0] 0 setdash
241.974 312.427 LS
354.186 312.427 LE
241.974 386.841 LS
354.186 386.841 LE
241.974 312.427 LS
241.974 386.841 LE
354.186 312.427 LS
354.186 386.841 LE
gsave
0 0 0 C
(Y_N_hat) [7 6 8 6 7 6 10] 0 276.08 398.841 11 /Helvetica-Bold SRX
grestore

0.9 0.9 0.9 C
241.974 312.427 241.974 333.987 247.88 312.427 T
247.88 360.238 247.88 312.427 241.974 333.987 T
253.786 312.427 247.88 312.427 247.88 360.238 T
253.786 374.248 253.786 312.427 247.88 360.238 T
259.691 312.427 253.786 312.427 253.786 374.248 T
259.691 381.001 259.691 312.427 253.786 374.248 T
265.597 312.427 259.691 312.427 259.691 381.001 T
265.597 383.094 265.597 312.427 259.691 381.001 T
271.503 312.427 265.597 312.427 265.597 383.094 T
271.503 386.841 271.503 312.427 265.597 383.094 T
277.409 312.427 271.503 312.427 271.503 386.841 T
277.409 386.738 277.409 312.427 271.503 386.841 T
283.315 312.427 277.409 312.427 277.409 386.738 T
283.315 386.267 283.315 312.427 277.409 386.738 T
289.221 312.427 283.315 312.427 283.315 386.267 T
289.221 385.535 289.221 312.427 283.315 386.267 T
295.127 312.427 289.221 312.427 289.221 385.535 T
295.127 384.899 295.127 312.427 289.221 385.535 T
301.033 312.427 295.127 312.427 295.127 384.899 T
301.033 384.002 301.033 312.427 295.127 384.899 T
306.939 312.427 301.033 312.427 301.033 384.002 T
306.939 382.118 306.939 312.427 301.033 384.002 T
312.845 312.427 306.939 312.427 306.939 382.118 T
312.845 381.326 312.845 312.427 306.939 382.118 T
318.751 312.427 312.845 312.427 312.845 381.326 T
318.751 380.553 318.751 312.427 312.845 381.326 T
324.657 312.427 318.751 312.427 318.751 380.553 T
324.657 381.041 324.657 312.427 318.751 380.553 T
330.563 312.427 324.657 312.427 324.657 381.041 T
330.563 379.443 330.563 312.427 324.657 381.041 T
336.469 312.427 330.563 312.427 330.563 379.443 T
336.469 378.85 336.469 312.427 330.563 379.443 T
342.374 312.427 336.469 312.427 336.469 378.85 T
342.374 379.012 342.374 312.427 336.469 378.85 T
348.28 312.427 342.374 312.427 342.374 379.012 T
348.28 377.771 348.28 312.427 342.374 379.012 T
354.186 312.427 348.28 312.427 348.28 377.771 T
354.186 378.076 354.186 312.427 348.28 377.771 T
0 LC
[] 0 setdash
0 0 0 C
354.186 378.076 LS
348.28 377.771 L
342.374 379.012 L
336.469 378.85 L
330.563 379.443 L
324.657 381.041 L
318.751 380.553 L
312.845 381.326 L
306.939 382.118 L
301.033 384.002 L
295.127 384.899 L
289.221 385.535 L
283.315 386.267 L
277.409 386.738 L
271.503 386.841 L
265.597 383.094 L
259.691 381.001 L
253.786 374.248 L
247.88 360.238 L
241.974 333.987 L
241.974 312.427 L
247.88 312.427 L
253.786 312.427 L
259.691 312.427 L
265.597 312.427 L
271.503 312.427 L
277.409 312.427 L
283.315 312.427 L
289.221 312.427 L
295.127 312.427 L
301.033 312.427 L
306.939 312.427 L
312.845 312.427 L
318.751 312.427 L
324.657 312.427 L
330.563 312.427 L
336.469 312.427 L
342.374 312.427 L
348.28 312.427 L
354.186 312.427 L
354.186 378.076 LE
1 1 1 C
241.974 312.427 247.88 328.927 247.88 312.427 T
253.786 312.427 247.88 312.427 247.88 328.927 T
253.786 338.939 253.786 312.427 247.88 328.927 T
259.691 312.427 253.786 312.427 253.786 338.939 T
259.691 343.191 259.691 312.427 253.786 338.939 T
265.597 312.427 259.691 312.427 259.691 343.191 T
265.597 343.415 265.597 312.427 259.691 343.191 T
271.503 312.427 265.597 312.427 265.597 343.415 T
271.503 345.886 271.503 312.427 265.597 343.415 T
277.409 312.427 271.503 312.427 271.503 345.886 T
277.409 345.574 277.409 312.427 271.503 345.886 T
283.315 312.427 277.409 312.427 277.409 345.574 T
283.315 344.976 283.315 312.427 277.409 345.574 T
289.221 312.427 283.315 312.427 283.315 344.976 T
289.221 344.309 289.221 312.427 283.315 344.976 T
295.127 312.427 289.221 312.427 289.221 344.309 T
295.127 343.837 295.127 312.427 289.221 344.309 T
301.033 312.427 295.127 312.427 295.127 343.837 T
301.033 343.072 301.033 312.427 295.127 343.837 T
306.939 312.427 301.033 312.427 301.033 343.072 T
306.939 341.364 306.939 312.427 301.033 343.072 T
312.845 312.427 306.939 312.427 306.939 341.364 T
312.845 340.766 312.845 312.427 306.939 341.364 T
318.751 312.427 312.845 312.427 312.845 340.766 T
318.751 340.128 318.751 312.427 312.845 340.766 T
324.657 312.427 318.751 312.427 318.751 340.128 T
324.657 340.845 324.657 312.427 318.751 340.128 T
330.563 312.427 324.657 312.427 324.657 340.845 T
330.563 339.453 330.563 312.427 324.657 340.845 T
336.469 312.427 330.563 312.427 330.563 339.453 T
336.469 339.024 336.469 312.427 330.563 339.453 T
342.374 312.427 336.469 312.427 336.469 339.024 T
342.374 339.321 342.374 312.427 336.469 339.024 T
348.28 312.427 342.374 312.427 342.374 339.321 T
348.28 338.236 348.28 312.427 342.374 339.321 T
354.186 312.427 348.28 312.427 348.28 338.236 T
354.186 338.711 354.186 312.427 348.28 338.236 T
0 0 0 C
354.186 338.711 LS
348.28 338.236 L
342.374 339.321 L
336.469 339.024 L
330.563 339.453 L
324.657 340.845 L
318.751 340.128 L
312.845 340.766 L
306.939 341.364 L
301.033 343.072 L
295.127 343.837 L
289.221 344.309 L
283.315 344.976 L
277.409 345.574 L
271.503 345.886 L
265.597 343.415 L
259.691 343.191 L
253.786 338.939 L
247.88 328.927 L
241.974 312.427 L
247.88 312.427 L
253.786 312.427 L
259.691 312.427 L
265.597 312.427 L
271.503 312.427 L
277.409 312.427 L
283.315 312.427 L
289.221 312.427 L
295.127 312.427 L
301.033 312.427 L
306.939 312.427 L
312.845 312.427 L
318.751 312.427 L
324.657 312.427 L
330.563 312.427 L
336.469 312.427 L
342.374 312.427 L
348.28 312.427 L
354.186 312.427 L
354.186 338.711 LE
3 W
1 LJ
241.974 322.661 LS
247.88 346.299 L
253.786 358.203 L
259.691 363.639 L
265.597 365.736 L
271.503 366.176 L
277.409 365.833 L
283.315 365.149 L
289.221 364.344 L
295.127 363.522 L
301.033 362.732 L
306.939 361.99 L
312.845 361.3 L
318.751 360.66 L
324.657 360.064 L
330.563 359.506 L
336.469 358.978 L
342.374 358.476 L
348.28 357.995 L
354.186 357.53 LE
grestore
gsave
1.0 1.0 scale
newpath 0 0 moveto 576 0 lineto 576 432 lineto 0 432 lineto
closepath clip
1 1 1 C
409.067 386.841 521.28 312.427 409.067 312.427 T
409.067 386.841 521.28 386.841 521.28 312.427 T
0.5 W
0.15 0.15 0.15 C
432.691 312.427 LS
432.691 313.556 LE
432.691 386.841 LS
432.691 385.712 LE
462.221 312.427 LS
462.221 313.556 LE
462.221 386.841 LS
462.221 385.712 LE
491.75 312.427 LS
491.75 313.556 LE
491.75 386.841 LS
491.75 385.712 LE
521.28 312.427 LS
521.28 313.556 LE
521.28 386.841 LS
521.28 385.712 LE
gsave
0.14902 0.14902 0.14902 C
(5) [10] 0 429.691 296.886 10 /Helvetica SRX
grestore

gsave
0.14902 0.14902 0.14902 C
(10) [6 10] 0 456.221 296.886 10 /Helvetica SRX
grestore

gsave
0.14902 0.14902 0.14902 C
(15) [6 10] 0 485.75 296.886 10 /Helvetica SRX
grestore

gsave
0.14902 0.14902 0.14902 C
(20) [6 10] 0 515.28 296.886 10 /Helvetica SRX
grestore

409.067 316.253 LS
410.192 316.253 LE
521.28 316.253 LS
520.156 316.253 LE
409.067 327.305 LS
410.192 327.305 LE
521.28 327.305 LS
520.156 327.305 LE
409.067 338.356 LS
410.192 338.356 LE
521.28 338.356 LS
520.156 338.356 LE
409.067 349.408 LS
410.192 349.408 LE
521.28 349.408 LS
520.156 349.408 LE
409.067 360.459 LS
410.192 360.459 LE
521.28 360.459 LS
520.156 360.459 LE
409.067 371.511 LS
410.192 371.511 LE
521.28 371.511 LS
520.156 371.511 LE
409.067 382.562 LS
410.192 382.562 LE
521.28 382.562 LS
520.156 382.562 LE
gsave
0.14902 0.14902 0.14902 C
(-0.007) [3 6 3 6 6 10] 0 374.058 312.253 10 /Helvetica SRX
grestore

gsave
0.14902 0.14902 0.14902 C
(-0.006) [3 6 3 6 6 10] 0 374.058 323.305 10 /Helvetica SRX
grestore

gsave
0.14902 0.14902 0.14902 C
(-0.005) [3 6 3 6 6 10] 0 374.058 334.356 10 /Helvetica SRX
grestore

gsave
0.14902 0.14902 0.14902 C
(-0.004) [3 6 3 6 6 10] 0 374.058 345.408 10 /Helvetica SRX
grestore

gsave
0.14902 0.14902 0.14902 C
(-0.003) [3 6 3 6 6 10] 0 374.058 356.459 10 /Helvetica SRX
grestore

gsave
0.14902 0.14902 0.14902 C
(-0.002) [3 6 3 6 6 10] 0 374.058 367.511 10 /Helvetica SRX
grestore

gsave
0.14902 0.14902 0.14902 C
(-0.001) [3 6 3 6 6 10] 0 374.058 378.562 10 /Helvetica SRX
grestore

2 LC
[16 0] 0 setdash
409.067 312.427 LS
521.28 312.427 LE
409.067 386.841 LS
521.28 386.841 LE
409.067 312.427 LS
409.067 386.841 LE
521.28 312.427 LS
521.28 386.841 LE
gsave
0 0 0 C
(Y_C_hat) [7 6 8 6 7 6 10] 0 443.174 398.841 11 /Helvetica-Bold SRX
grestore

0.9 0.9 0.9 C
409.067 312.427 409.067 379.934 414.973 312.427 T
414.973 369.322 414.973 312.427 409.067 379.934 T
420.879 312.427 414.973 312.427 414.973 369.322 T
420.879 360.445 420.879 312.427 414.973 369.322 T
426.785 312.427 420.879 312.427 420.879 360.445 T
426.785 355.548 426.785 312.427 420.879 360.445 T
432.691 312.427 426.785 312.427 426.785 355.548 T
432.691 353.257 432.691 312.427 426.785 355.548 T
438.597 312.427 432.691 312.427 432.691 353.257 T
438.597 352.676 438.597 312.427 432.691 353.257 T
444.503 312.427 438.597 312.427 438.597 352.676 T
444.503 352.883 444.503 312.427 438.597 352.676 T
450.409 312.427 444.503 312.427 444.503 352.883 T
450.409 353.798 450.409 312.427 444.503 352.883 T
456.315 312.427 450.409 312.427 450.409 353.798 T
456.315 357.204 456.315 312.427 450.409 353.798 T
462.221 312.427 456.315 312.427 456.315 357.204 T
462.221 357.446 462.221 312.427 456.315 357.204 T
468.127 312.427 462.221 312.427 462.221 357.446 T
468.127 361.09 468.127 312.427 462.221 357.446 T
474.033 312.427 468.127 312.427 468.127 361.09 T
474.033 364.587 474.033 312.427 468.127 361.09 T
479.939 312.427 474.033 312.427 474.033 364.587 T
479.939 367.482 479.939 312.427 474.033 364.587 T
485.844 312.427 479.939 312.427 479.939 367.482 T
485.844 371.215 485.844 312.427 479.939 367.482 T
491.75 312.427 485.844 312.427 485.844 371.215 T
491.75 373.348 491.75 312.427 485.844 371.215 T
497.656 312.427 491.75 312.427 491.75 373.348 T
497.656 375.876 497.656 312.427 491.75 373.348 T
503.562 312.427 497.656 312.427 497.656 375.876 T
503.562 378.158 503.562 312.427 497.656 375.876 T
509.468 312.427 503.562 312.427 503.562 378.158 T
509.468 380.699 509.468 312.427 503.562 378.158 T
515.374 312.427 509.468 312.427 509.468 380.699 T
515.374 383.784 515.374 312.427 509.468 380.699 T
521.28 312.427 515.374 312.427 515.374 383.784 T
521.28 386.841 521.28 312.427 515.374 383.784 T
0 LC
[] 0 setdash
0 0 0 C
521.28 386.841 LS
515.374 383.784 L
509.468 380.699 L
503.562 378.158 L
497.656 375.876 L
491.75 373.348 L
485.844 371.215 L
479.939 367.482 L
474.033 364.587 L
468.127 361.09 L
462.221 357.446 L
456.315 357.204 L
450.409 353.798 L
444.503 352.883 L
438.597 352.676 L
432.691 353.257 L
426.785 355.548 L
420.879 360.445 L
414.973 369.322 L
409.067 379.934 L
409.067 312.427 L
414.973 312.427 L
420.879 312.427 L
426.785 312.427 L
432.691 312.427 L
438.597 312.427 L
444.503 312.427 L
450.409 312.427 L
456.315 312.427 L
462.221 312.427 L
468.127 312.427 L
474.033 312.427 L
479.939 312.427 L
485.844 312.427 L
491.75 312.427 L
497.656 312.427 L
503.562 312.427 L
509.468 312.427 L
515.374 312.427 L
521.28 312.427 L
521.28 386.841 LE
1 1 1 C
432.691 312.427 438.597 313.975 438.597 312.427 T
444.503 312.427 438.597 312.427 438.597 313.975 T
444.503 316.422 444.503 312.427 438.597 313.975 T
450.409 312.427 444.503 312.427 444.503 316.422 T
450.409 319.613 450.409 312.427 444.503 316.422 T
456.315 312.427 450.409 312.427 450.409 319.613 T
456.315 325.408 456.315 312.427 450.409 319.613 T
462.221 312.427 456.315 312.427 456.315 325.408 T
462.221 327.854 462.221 312.427 456.315 325.408 T
468.127 312.427 462.221 312.427 462.221 327.854 T
468.127 333.577 468.127 312.427 462.221 327.854 T
474.033 312.427 468.127 312.427 468.127 333.577 T
474.033 339.05 474.033 312.427 468.127 333.577 T
479.939 312.427 474.033 312.427 474.033 339.05 T
479.939 343.668 479.939 312.427 474.033 339.05 T
485.844 312.427 479.939 312.427 479.939 343.668 T
485.844 349.032 485.844 312.427 479.939 343.668 T
491.75 312.427 485.844 312.427 485.844 349.032 T
491.75 352.696 491.75 312.427 485.844 349.032 T
497.656 312.427 491.75 312.427 491.75 352.696 T
497.656 356.46 497.656 312.427 491.75 352.696 T
503.562 312.427 497.656 312.427 497.656 356.46 T
503.562 360.138 503.562 312.427 497.656 356.46 T
509.468 312.427 503.562 312.427 503.562 360.138 T
509.468 363.814 509.468 312.427 503.562 360.138 T
515.374 312.427 509.468 312.427 509.468 363.814 T
515.374 368.197 515.374 312.427 509.468 363.814 T
521.28 312.427 515.374 312.427 515.374 368.197 T
521.28 371.935 521.28 312.427 515.374 368.197 T
409.067 312.427 409.067 355.631 414.973 312.427 T
414.973 331.604 414.973 312.427 409.067 355.631 T
420.879 312.427 414.973 312.427 414.973 331.604 T
420.879 317.822 420.879 312.427 414.973 331.604 T
426.785 312.427 420.879 312.427 420.879 317.822 T
426.785 312.804 426.785 312.427 420.879 317.822 T
432.691 312.427 426.785 312.427 426.785 312.804 T
0 0 0 C
432.691 312.427 LS
426.785 312.804 L
420.879 317.822 L
414.973 331.604 L
409.067 355.631 L
409.067 312.427 L
414.973 312.427 L
420.879 312.427 L
426.785 312.427 L
432.691 312.427 LE
521.28 371.935 LS
515.374 368.197 L
509.468 363.814 L
503.562 360.138 L
497.656 356.46 L
491.75 352.696 L
485.844 349.032 L
479.939 343.668 L
474.033 339.05 L
468.127 333.577 L
462.221 327.854 L
456.315 325.408 L
450.409 319.613 L
444.503 316.422 L
438.597 313.975 L
432.691 312.427 L
438.597 312.427 L
444.503 312.427 L
450.409 312.427 L
456.315 312.427 L
462.221 312.427 L
468.127 312.427 L
474.033 312.427 L
479.939 312.427 L
485.844 312.427 L
491.75 312.427 L
497.656 312.427 L
503.562 312.427 L
509.468 312.427 L
515.374 312.427 L
521.28 312.427 L
521.28 371.935 LE
3 W
1 LJ
409.067 367.67 LS
414.973 350.345 L
420.879 340.12 L
426.785 334.861 L
432.691 332.945 L
438.597 333.242 L
444.503 334.982 L
450.409 337.647 L
456.315 340.885 L
462.221 344.455 L
468.127 348.195 L
474.033 351.993 L
479.939 355.776 L
485.844 359.493 L
491.75 363.112 L
497.656 366.611 L
503.562 369.98 L
509.468 373.21 L
515.374 376.302 L
521.28 379.254 LE
grestore
gsave
1.0 1.0 scale
newpath 0 0 moveto 576 0 lineto 576 432 lineto 0 432 lineto
closepath clip
1 1 1 C
74.88 254.387 187.093 179.974 74.88 179.974 T
74.88 254.387 187.093 254.387 187.093 179.974 T
0.5 W
0.15 0.15 0.15 C
98.5037 179.974 LS
98.5037 181.102 LE
98.5037 254.387 LS
98.5037 253.258 LE
128.033 179.974 LS
128.033 181.102 LE
128.033 254.387 LS
128.033 253.258 LE
157.563 179.974 LS
157.563 181.102 LE
157.563 254.387 LS
157.563 253.258 LE
187.093 179.974 LS
187.093 181.102 LE
187.093 254.387 LS
187.093 253.258 LE
gsave
0.14902 0.14902 0.14902 C
(5) [10] 0 95.5037 164.432 10 /Helvetica SRX
grestore

gsave
0.14902 0.14902 0.14902 C
(10) [6 10] 0 122.033 164.432 10 /Helvetica SRX
grestore

gsave
0.14902 0.14902 0.14902 C
(15) [6 10] 0 151.563 164.432 10 /Helvetica SRX
grestore

gsave
0.14902 0.14902 0.14902 C
(20) [6 10] 0 181.093 164.432 10 /Helvetica SRX
grestore

74.88 195.668 LS
76.0043 195.668 LE
187.093 195.668 LS
185.968 195.668 LE
74.88 215.75 LS
76.0043 215.75 LE
187.093 215.75 LS
185.968 215.75 LE
74.88 235.832 LS
76.0043 235.832 LE
187.093 235.832 LS
185.968 235.832 LE
gsave
0.14902 0.14902 0.14902 C
(0.01) [6 3 6 10] 0 48.8705 191.668 10 /Helvetica SRX
grestore

gsave
0.14902 0.14902 0.14902 C
(0.015) [6 3 6 6 10] 0 42.8705 211.75 10 /Helvetica SRX
grestore

gsave
0.14902 0.14902 0.14902 C
(0.02) [6 3 6 10] 0 48.8705 231.832 10 /Helvetica SRX
grestore

2 LC
[16 0] 0 setdash
74.88 179.974 LS
187.093 179.974 LE
74.88 254.387 LS
187.093 254.387 LE
74.88 179.974 LS
74.88 254.387 LE
187.093 179.974 LS
187.093 254.387 LE
gsave
0 0 0 C
(L_T_hat) [7 6 7 6 7 6 10] 0 109.486 266.387 11 /Helvetica-Bold SRX
grestore

0.9 0.9 0.9 C
74.88 179.974 74.88 232.279 80.7859 179.974 T
80.7859 249.989 80.7859 179.974 74.88 232.279 T
86.6918 179.974 80.7859 179.974 80.7859 249.989 T
86.6918 254.387 86.6918 179.974 80.7859 249.989 T
92.5978 179.974 86.6918 179.974 86.6918 254.387 T
92.5978 251.597 92.5978 179.974 86.6918 254.387 T
98.5037 179.974 92.5978 179.974 92.5978 251.597 T
98.5037 250.022 98.5037 179.974 92.5978 251.597 T
104.41 179.974 98.5037 179.974 98.5037 250.022 T
104.41 246.204 104.41 179.974 98.5037 250.022 T
110.316 179.974 104.41 179.974 104.41 246.204 T
110.316 240.163 110.316 179.974 104.41 246.204 T
116.221 179.974 110.316 179.974 110.316 240.163 T
116.221 235.266 116.221 179.974 110.316 240.163 T
122.127 179.974 116.221 179.974 116.221 235.266 T
122.127 230.775 122.127 179.974 116.221 235.266 T
128.033 179.974 122.127 179.974 122.127 230.775 T
128.033 226.972 128.033 179.974 122.127 230.775 T
133.939 179.974 128.033 179.974 128.033 226.972 T
133.939 223.343 133.939 179.974 128.033 226.972 T
139.845 179.974 133.939 179.974 133.939 223.343 T
139.845 218.172 139.845 179.974 133.939 223.343 T
145.751 179.974 139.845 179.974 139.845 218.172 T
145.751 216.276 145.751 179.974 139.845 218.172 T
151.657 179.974 145.751 179.974 145.751 216.276 T
151.657 213.444 151.657 179.974 145.751 216.276 T
157.563 179.974 151.657 179.974 151.657 213.444 T
157.563 210.199 157.563 179.974 151.657 213.444 T
163.469 179.974 157.563 179.974 157.563 210.199 T
163.469 207.743 163.469 179.974 157.563 210.199 T
169.375 179.974 163.469 179.974 163.469 207.743 T
169.375 205.291 169.375 179.974 163.469 207.743 T
175.281 179.974 169.375 179.974 169.375 205.291 T
175.281 203.19 175.281 179.974 169.375 205.291 T
181.187 179.974 175.281 179.974 175.281 203.19 T
181.187 201.516 181.187 179.974 175.281 203.19 T
187.093 179.974 181.187 179.974 181.187 201.516 T
187.093 199.692 187.093 179.974 181.187 201.516 T
0 LC
[] 0 setdash
0 0 0 C
187.093 199.692 LS
181.187 201.516 L
175.281 203.19 L
169.375 205.291 L
163.469 207.743 L
157.563 210.199 L
151.657 213.444 L
145.751 216.276 L
139.845 218.172 L
133.939 223.343 L
128.033 226.972 L
122.127 230.775 L
116.221 235.266 L
110.316 240.163 L
104.41 246.204 L
98.5037 250.022 L
92.5978 251.597 L
86.6918 254.387 L
80.7859 249.989 L
74.88 232.279 L
74.88 179.974 L
80.7859 179.974 L
86.6918 179.974 L
92.5978 179.974 L
98.5037 179.974 L
104.41 179.974 L
110.316 179.974 L
116.221 179.974 L
122.127 179.974 L
128.033 179.974 L
133.939 179.974 L
139.845 179.974 L
145.751 179.974 L
151.657 179.974 L
157.563 179.974 L
163.469 179.974 L
169.375 179.974 L
175.281 179.974 L
181.187 179.974 L
187.093 179.974 L
187.093 199.692 LE
1 1 1 C
74.88 179.974 74.88 207.218 80.7859 179.974 T
80.7859 220.573 80.7859 179.974 74.88 207.218 T
86.6918 179.974 80.7859 179.974 80.7859 220.573 T
86.6918 220.266 86.6918 179.974 80.7859 220.573 T
92.5978 179.974 86.6918 179.974 86.6918 220.266 T
92.5978 215.187 92.5978 179.974 86.6918 220.266 T
98.5037 179.974 92.5978 179.974 92.5978 215.187 T
98.5037 213.126 98.5037 179.974 92.5978 215.187 T
104.41 179.974 98.5037 179.974 98.5037 213.126 T
104.41 210.018 104.41 179.974 98.5037 213.126 T
110.316 179.974 104.41 179.974 104.41 210.018 T
110.316 205.435 110.316 179.974 104.41 210.018 T
116.221 179.974 110.316 179.974 110.316 205.435 T
116.221 202.177 116.221 179.974 110.316 205.435 T
122.127 179.974 116.221 179.974 116.221 202.177 T
122.127 199.165 122.127 179.974 116.221 202.177 T
128.033 179.974 122.127 179.974 122.127 199.165 T
128.033 197.022 128.033 179.974 122.127 199.165 T
133.939 179.974 128.033 179.974 128.033 197.022 T
133.939 194.686 133.939 179.974 128.033 197.022 T
139.845 179.974 133.939 179.974 133.939 194.686 T
139.845 190.873 139.845 179.974 133.939 194.686 T
145.751 179.974 139.845 179.974 139.845 190.873 T
145.751 190.242 145.751 179.974 139.845 190.873 T
151.657 179.974 145.751 179.974 145.751 190.242 T
151.657 188.484 151.657 179.974 145.751 190.242 T
157.563 179.974 151.657 179.974 151.657 188.484 T
157.563 186.253 157.563 179.974 151.657 188.484 T
163.469 179.974 157.563 179.974 157.563 186.253 T
163.469 184.813 163.469 179.974 157.563 186.253 T
169.375 179.974 163.469 179.974 163.469 184.813 T
169.375 183.328 169.375 179.974 163.469 184.813 T
175.281 179.974 169.375 179.974 169.375 183.328 T
175.281 182.036 175.281 179.974 169.375 183.328 T
181.187 179.974 175.281 179.974 175.281 182.036 T
181.187 181.12 181.187 179.974 175.281 182.036 T
187.093 179.974 181.187 179.974 181.187 181.12 T
0 0 0 C
187.093 179.974 LS
181.187 181.12 L
175.281 182.036 L
169.375 183.328 L
163.469 184.813 L
157.563 186.253 L
151.657 188.484 L
145.751 190.242 L
139.845 190.873 L
133.939 194.686 L
128.033 197.022 L
122.127 199.165 L
116.221 202.177 L
110.316 205.435 L
104.41 210.018 L
98.5037 213.126 L
92.5978 215.187 L
86.6918 220.266 L
80.7859 220.573 L
74.88 207.218 L
74.88 179.974 L
80.7859 179.974 L
86.6918 179.974 L
92.5978 179.974 L
98.5037 179.974 L
104.41 179.974 L
110.316 179.974 L
116.221 179.974 L
122.127 179.974 L
128.033 179.974 L
133.939 179.974 L
139.845 179.974 L
145.751 179.974 L
151.657 179.974 L
157.563 179.974 L
163.469 179.974 L
169.375 179.974 L
175.281 179.974 L
181.187 179.974 L
187.093 179.974 LE
3 W
1 LJ
74.88 220.753 LS
80.7859 235.726 L
86.6918 237.397 L
92.5978 234.844 L
98.5037 230.883 L
104.41 226.548 L
110.316 222.256 L
116.221 218.182 L
122.127 214.393 L
128.033 210.907 L
133.939 207.719 L
139.845 204.813 L
145.751 202.169 L
151.657 199.766 L
157.563 197.58 L
163.469 195.593 L
169.375 193.785 L
175.281 192.138 L
181.187 190.637 L
187.093 189.266 LE
grestore
gsave
1.0 1.0 scale
newpath 0 0 moveto 576 0 lineto 576 432 lineto 0 432 lineto
closepath clip
1 1 1 C
241.974 254.387 354.186 179.974 241.974 179.974 T
241.974 254.387 354.186 254.387 354.186 179.974 T
0.5 W
0.15 0.15 0.15 C
265.597 179.974 LS
265.597 181.102 LE
265.597 254.387 LS
265.597 253.258 LE
295.127 179.974 LS
295.127 181.102 LE
295.127 254.387 LS
295.127 253.258 LE
324.657 179.974 LS
324.657 181.102 LE
324.657 254.387 LS
324.657 253.258 LE
354.186 179.974 LS
354.186 181.102 LE
354.186 254.387 LS
354.186 253.258 LE
gsave
0.14902 0.14902 0.14902 C
(5) [10] 0 262.597 164.432 10 /Helvetica SRX
grestore

gsave
0.14902 0.14902 0.14902 C
(10) [6 10] 0 289.127 164.432 10 /Helvetica SRX
grestore

gsave
0.14902 0.14902 0.14902 C
(15) [6 10] 0 318.657 164.432 10 /Helvetica SRX
grestore

gsave
0.14902 0.14902 0.14902 C
(20) [6 10] 0 348.186 164.432 10 /Helvetica SRX
grestore

241.974 181.725 LS
243.098 181.725 LE
354.186 181.725 LS
353.062 181.725 LE
241.974 199.83 LS
243.098 199.83 LE
354.186 199.83 LS
353.062 199.83 LE
241.974 217.935 LS
243.098 217.935 LE
354.186 217.935 LS
353.062 217.935 LE
241.974 236.04 LS
243.098 236.04 LE
354.186 236.04 LS
353.062 236.04 LE
241.974 254.145 LS
243.098 254.145 LE
354.186 254.145 LS
353.062 254.145 LE
gsave
0.14902 0.14902 0.14902 C
(0.004) [6 3 6 6 10] 0 209.964 177.725 10 /Helvetica SRX
grestore

gsave
0.14902 0.14902 0.14902 C
(0.006) [6 3 6 6 10] 0 209.964 195.83 10 /Helvetica SRX
grestore

gsave
0.14902 0.14902 0.14902 C
(0.008) [6 3 6 6 10] 0 209.964 213.935 10 /Helvetica SRX
grestore

gsave
0.14902 0.14902 0.14902 C
(0.01) [6 3 6 10] 0 215.964 232.04 10 /Helvetica SRX
grestore

gsave
0.14902 0.14902 0.14902 C
(0.012) [6 3 6 6 10] 0 209.964 250.145 10 /Helvetica SRX
grestore

2 LC
[16 0] 0 setdash
241.974 179.974 LS
354.186 179.974 LE
241.974 254.387 LS
354.186 254.387 LE
241.974 179.974 LS
241.974 254.387 LE
354.186 179.974 LS
354.186 254.387 LE
gsave
0 0 0 C
(L_N_hat) [7 6 8 6 7 6 10] 0 276.08 266.387 11 /Helvetica-Bold SRX
grestore

0.9 0.9 0.9 C
241.974 179.974 241.974 206.706 247.88 179.974 T
247.88 235.211 247.88 179.974 241.974 206.706 T
253.786 179.974 247.88 179.974 247.88 235.211 T
253.786 248.276 253.786 179.974 247.88 235.211 T
259.691 179.974 253.786 179.974 253.786 248.276 T
259.691 253.84 259.691 179.974 253.786 248.276 T
265.597 179.974 259.691 179.974 259.691 253.84 T
265.597 253.105 265.597 179.974 259.691 253.84 T
271.503 179.974 265.597 179.974 265.597 253.105 T
271.503 254.387 271.503 179.974 265.597 253.105 T
277.409 179.974 271.503 179.974 271.503 254.387 T
277.409 251.651 277.409 179.974 271.503 254.387 T
283.315 179.974 277.409 179.974 277.409 251.651 T
283.315 248.603 283.315 179.974 277.409 251.651 T
289.221 179.974 283.315 179.974 283.315 248.603 T
289.221 245.505 289.221 179.974 283.315 248.603 T
295.127 179.974 289.221 179.974 289.221 245.505 T
295.127 242.583 295.127 179.974 289.221 245.505 T
301.033 179.974 295.127 179.974 295.127 242.583 T
301.033 239.336 301.033 179.974 295.127 242.583 T
306.939 179.974 301.033 179.974 301.033 239.336 T
306.939 236.868 306.939 179.974 301.033 239.336 T
312.845 179.974 306.939 179.974 306.939 236.868 T
312.845 234.696 312.845 179.974 306.939 236.868 T
318.751 179.974 312.845 179.974 312.845 234.696 T
318.751 232.552 318.751 179.974 312.845 234.696 T
324.657 179.974 318.751 179.974 318.751 232.552 T
324.657 229.803 324.657 179.974 318.751 232.552 T
330.563 179.974 324.657 179.974 324.657 229.803 T
330.563 227.875 330.563 179.974 324.657 229.803 T
336.469 179.974 330.563 179.974 330.563 227.875 T
336.469 226.726 336.469 179.974 330.563 227.875 T
342.374 179.974 336.469 179.974 336.469 226.726 T
342.374 225.049 342.374 179.974 336.469 226.726 T
348.28 179.974 342.374 179.974 342.374 225.049 T
348.28 224.058 348.28 179.974 342.374 225.049 T
354.186 179.974 348.28 179.974 348.28 224.058 T
354.186 222.626 354.186 179.974 348.28 224.058 T
0 LC
[] 0 setdash
0 0 0 C
354.186 222.626 LS
348.28 224.058 L
342.374 225.049 L
336.469 226.726 L
330.563 227.875 L
324.657 229.803 L
318.751 232.552 L
312.845 234.696 L
306.939 236.868 L
301.033 239.336 L
295.127 242.583 L
289.221 245.505 L
283.315 248.603 L
277.409 251.651 L
271.503 254.387 L
265.597 253.105 L
259.691 253.84 L
253.786 248.276 L
247.88 235.211 L
241.974 206.706 L
241.974 179.974 L
247.88 179.974 L
253.786 179.974 L
259.691 179.974 L
265.597 179.974 L
271.503 179.974 L
277.409 179.974 L
283.315 179.974 L
289.221 179.974 L
295.127 179.974 L
301.033 179.974 L
306.939 179.974 L
312.845 179.974 L
318.751 179.974 L
324.657 179.974 L
330.563 179.974 L
336.469 179.974 L
342.374 179.974 L
348.28 179.974 L
354.186 179.974 L
354.186 222.626 LE
1 1 1 C
241.974 179.974 247.88 197.443 247.88 179.974 T
253.786 179.974 247.88 179.974 247.88 197.443 T
253.786 207.016 253.786 179.974 247.88 197.443 T
259.691 179.974 253.786 179.974 253.786 207.016 T
259.691 211.494 259.691 179.974 253.786 207.016 T
265.597 179.974 259.691 179.974 259.691 211.494 T
265.597 209.683 265.597 179.974 259.691 211.494 T
271.503 179.974 265.597 179.974 265.597 209.683 T
271.503 210.902 271.503 179.974 265.597 209.683 T
277.409 179.974 271.503 179.974 271.503 210.902 T
277.409 208.881 277.409 179.974 271.503 210.902 T
283.315 179.974 277.409 179.974 277.409 208.881 T
283.315 206.808 283.315 179.974 277.409 208.881 T
289.221 179.974 283.315 179.974 283.315 206.808 T
289.221 204.636 289.221 179.974 283.315 206.808 T
295.127 179.974 289.221 179.974 289.221 204.636 T
295.127 202.852 295.127 179.974 289.221 204.636 T
301.033 179.974 295.127 179.974 295.127 202.852 T
301.033 200.54 301.033 179.974 295.127 202.852 T
306.939 179.974 301.033 179.974 301.033 200.54 T
306.939 199.031 306.939 179.974 301.033 200.54 T
312.845 179.974 306.939 179.974 306.939 199.031 T
312.845 197.624 312.845 179.974 306.939 199.031 T
318.751 179.974 312.845 179.974 312.845 197.624 T
318.751 196.261 318.751 179.974 312.845 197.624 T
324.657 179.974 318.751 179.974 318.751 196.261 T
324.657 194.281 324.657 179.974 318.751 196.261 T
330.563 179.974 324.657 179.974 324.657 194.281 T
330.563 192.982 330.563 179.974 324.657 194.281 T
336.469 179.974 330.563 179.974 330.563 192.982 T
336.469 192.463 336.469 179.974 330.563 192.982 T
342.374 179.974 336.469 179.974 336.469 192.463 T
342.374 191.385 342.374 179.974 336.469 192.463 T
348.28 179.974 342.374 179.974 342.374 191.385 T
348.28 191.104 348.28 179.974 342.374 191.385 T
354.186 179.974 348.28 179.974 348.28 191.104 T
354.186 190.255 354.186 179.974 348.28 191.104 T
0 0 0 C
354.186 190.255 LS
348.28 191.104 L
342.374 191.385 L
336.469 192.463 L
330.563 192.982 L
324.657 194.281 L
318.751 196.261 L
312.845 197.624 L
306.939 199.031 L
301.033 200.54 L
295.127 202.852 L
289.221 204.636 L
283.315 206.808 L
277.409 208.881 L
271.503 210.902 L
265.597 209.683 L
259.691 211.494 L
253.786 207.016 L
247.88 197.443 L
241.974 179.974 L
247.88 179.974 L
253.786 179.974 L
259.691 179.974 L
265.597 179.974 L
271.503 179.974 L
277.409 179.974 L
283.315 179.974 L
289.221 179.974 L
295.127 179.974 L
301.033 179.974 L
306.939 179.974 L
312.845 179.974 L
318.751 179.974 L
324.657 179.974 L
330.563 179.974 L
336.469 179.974 L
342.374 179.974 L
348.28 179.974 L
354.186 179.974 L
354.186 190.255 LE
3 W
1 LJ
241.974 192.663 LS
247.88 218.596 L
253.786 230.264 L
259.691 234.187 L
265.597 234.227 L
271.503 232.448 L
277.409 229.912 L
283.315 227.148 L
289.221 224.411 L
295.127 221.815 L
301.033 219.405 L
306.939 217.19 L
312.845 215.162 L
318.751 213.309 L
324.657 211.613 L
330.563 210.058 L
336.469 208.63 L
342.374 207.313 L
348.28 206.095 L
354.186 204.966 LE
grestore
gsave
1.0 1.0 scale
newpath 0 0 moveto 576 0 lineto 576 432 lineto 0 432 lineto
closepath clip
1 1 1 C
409.067 254.387 521.28 179.974 409.067 179.974 T
409.067 254.387 521.28 254.387 521.28 179.974 T
0.5 W
0.15 0.15 0.15 C
432.691 179.974 LS
432.691 181.102 LE
432.691 254.387 LS
432.691 253.258 LE
462.221 179.974 LS
462.221 181.102 LE
462.221 254.387 LS
462.221 253.258 LE
491.75 179.974 LS
491.75 181.102 LE
491.75 254.387 LS
491.75 253.258 LE
521.28 179.974 LS
521.28 181.102 LE
521.28 254.387 LS
521.28 253.258 LE
gsave
0.14902 0.14902 0.14902 C
(5) [10] 0 429.691 164.432 10 /Helvetica SRX
grestore

gsave
0.14902 0.14902 0.14902 C
(10) [6 10] 0 456.221 164.432 10 /Helvetica SRX
grestore

gsave
0.14902 0.14902 0.14902 C
(15) [6 10] 0 485.75 164.432 10 /Helvetica SRX
grestore

gsave
0.14902 0.14902 0.14902 C
(20) [6 10] 0 515.28 164.432 10 /Helvetica SRX
grestore

409.067 189.468 LS
410.192 189.468 LE
521.28 189.468 LS
520.156 189.468 LE
409.067 205.506 LS
410.192 205.506 LE
521.28 205.506 LS
520.156 205.506 LE
409.067 221.544 LS
410.192 221.544 LE
521.28 221.544 LS
520.156 221.544 LE
409.067 237.582 LS
410.192 237.582 LE
521.28 237.582 LS
520.156 237.582 LE
409.067 253.62 LS
410.192 253.62 LE
521.28 253.62 LS
520.156 253.62 LE
gsave
0.14902 0.14902 0.14902 C
(-0.01) [3 6 3 6 10] 0 380.058 185.468 10 /Helvetica SRX
grestore

gsave
0.14902 0.14902 0.14902 C
(-0.008) [3 6 3 6 6 10] 0 374.058 201.506 10 /Helvetica SRX
grestore

gsave
0.14902 0.14902 0.14902 C
(-0.006) [3 6 3 6 6 10] 0 374.058 217.544 10 /Helvetica SRX
grestore

gsave
0.14902 0.14902 0.14902 C
(-0.004) [3 6 3 6 6 10] 0 374.058 233.582 10 /Helvetica SRX
grestore

gsave
0.14902 0.14902 0.14902 C
(-0.002) [3 6 3 6 6 10] 0 374.058 249.62 10 /Helvetica SRX
grestore

2 LC
[16 0] 0 setdash
409.067 179.974 LS
521.28 179.974 LE
409.067 254.387 LS
521.28 254.387 LE
409.067 179.974 LS
409.067 254.387 LE
521.28 179.974 LS
521.28 254.387 LE
gsave
0 0 0 C
(L_C_hat) [7 6 8 6 7 6 10] 0 443.174 266.387 11 /Helvetica-Bold SRX
grestore

0.9 0.9 0.9 C
409.067 179.974 409.067 254.387 414.973 179.974 T
414.973 242.428 414.973 179.974 409.067 254.387 T
420.879 179.974 414.973 179.974 414.973 242.428 T
420.879 232.818 420.879 179.974 414.973 242.428 T
426.785 179.974 420.879 179.974 420.879 232.818 T
426.785 227.586 426.785 179.974 420.879 232.818 T
432.691 179.974 426.785 179.974 426.785 227.586 T
432.691 225.1 432.691 179.974 426.785 227.586 T
438.597 179.974 432.691 179.974 432.691 225.1 T
438.597 223.954 438.597 179.974 432.691 225.1 T
444.503 179.974 438.597 179.974 438.597 223.954 T
444.503 223.632 444.503 179.974 438.597 223.954 T
450.409 179.974 444.503 179.974 444.503 223.632 T
450.409 224.954 450.409 179.974 444.503 223.632 T
456.315 179.974 450.409 179.974 450.409 224.954 T
456.315 227.52 456.315 179.974 450.409 224.954 T
462.221 179.974 456.315 179.974 456.315 227.52 T
462.221 229.144 462.221 179.974 456.315 227.52 T
468.127 179.974 462.221 179.974 462.221 229.144 T
468.127 231.141 468.127 179.974 462.221 229.144 T
474.033 179.974 468.127 179.974 468.127 231.141 T
474.033 234.097 474.033 179.974 468.127 231.141 T
479.939 179.974 474.033 179.974 474.033 234.097 T
479.939 237.152 479.939 179.974 474.033 234.097 T
485.844 179.974 479.939 179.974 479.939 237.152 T
485.844 240.34 485.844 179.974 479.939 237.152 T
491.75 179.974 485.844 179.974 485.844 240.34 T
491.75 243.936 491.75 179.974 485.844 240.34 T
497.656 179.974 491.75 179.974 491.75 243.936 T
497.656 244.586 497.656 179.974 491.75 243.936 T
503.562 179.974 497.656 179.974 497.656 244.586 T
503.562 247.656 503.562 179.974 497.656 244.586 T
509.468 179.974 503.562 179.974 503.562 247.656 T
509.468 249.758 509.468 179.974 503.562 247.656 T
515.374 179.974 509.468 179.974 509.468 249.758 T
515.374 252.228 515.374 179.974 509.468 249.758 T
521.28 179.974 515.374 179.974 515.374 252.228 T
521.28 253.767 521.28 179.974 515.374 252.228 T
0 LC
[] 0 setdash
0 0 0 C
521.28 253.767 LS
515.374 252.228 L
509.468 249.758 L
503.562 247.656 L
497.656 244.586 L
491.75 243.936 L
485.844 240.34 L
479.939 237.152 L
474.033 234.097 L
468.127 231.141 L
462.221 229.144 L
456.315 227.52 L
450.409 224.954 L
444.503 223.632 L
438.597 223.954 L
432.691 225.1 L
426.785 227.586 L
420.879 232.818 L
414.973 242.428 L
409.067 254.387 L
409.067 179.974 L
414.973 179.974 L
420.879 179.974 L
426.785 179.974 L
432.691 179.974 L
438.597 179.974 L
444.503 179.974 L
450.409 179.974 L
456.315 179.974 L
462.221 179.974 L
468.127 179.974 L
474.033 179.974 L
479.939 179.974 L
485.844 179.974 L
491.75 179.974 L
497.656 179.974 L
503.562 179.974 L
509.468 179.974 L
515.374 179.974 L
521.28 179.974 L
521.28 253.767 LE
1 1 1 C
432.691 179.974 438.597 181.222 438.597 179.974 T
444.503 179.974 438.597 179.974 438.597 181.222 T
444.503 183.799 444.503 179.974 438.597 181.222 T
450.409 179.974 444.503 179.974 444.503 183.799 T
450.409 187.71 450.409 179.974 444.503 183.799 T
456.315 179.974 450.409 179.974 450.409 187.71 T
456.315 192.891 456.315 179.974 450.409 187.71 T
462.221 179.974 456.315 179.974 456.315 192.891 T
462.221 196.956 462.221 179.974 456.315 192.891 T
468.127 179.974 462.221 179.974 462.221 196.956 T
468.127 201.705 468.127 179.974 462.221 196.956 T
474.033 179.974 468.127 179.974 468.127 201.705 T
474.033 206.576 474.033 179.974 468.127 201.705 T
479.939 179.974 474.033 179.974 474.033 206.576 T
479.939 211.335 479.939 179.974 474.033 206.576 T
485.844 179.974 479.939 179.974 479.939 211.335 T
485.844 216.111 485.844 179.974 479.939 211.335 T
491.75 179.974 485.844 179.974 485.844 216.111 T
491.75 221.353 491.75 179.974 485.844 216.111 T
497.656 179.974 491.75 179.974 491.75 221.353 T
497.656 223.744 497.656 179.974 491.75 221.353 T
503.562 179.974 497.656 179.974 497.656 223.744 T
503.562 228.163 503.562 179.974 497.656 223.744 T
509.468 179.974 503.562 179.974 503.562 228.163 T
509.468 231.671 509.468 179.974 503.562 228.163 T
515.374 179.974 509.468 179.974 509.468 231.671 T
515.374 235.325 515.374 179.974 509.468 231.671 T
521.28 179.974 515.374 179.974 515.374 235.325 T
521.28 238.012 521.28 179.974 515.374 235.325 T
409.067 179.974 409.067 227.257 414.973 179.974 T
414.973 200.636 414.973 179.974 409.067 227.257 T
420.879 179.974 414.973 179.974 414.973 200.636 T
420.879 185.716 420.879 179.974 414.973 200.636 T
426.785 179.974 420.879 179.974 420.879 185.716 T
426.785 180.373 426.785 179.974 420.879 185.716 T
432.691 179.974 426.785 179.974 426.785 180.373 T
0 0 0 C
432.691 179.974 LS
426.785 180.373 L
420.879 185.716 L
414.973 200.636 L
409.067 227.257 L
409.067 179.974 L
414.973 179.974 L
420.879 179.974 L
426.785 179.974 L
432.691 179.974 LE
521.28 238.012 LS
515.374 235.325 L
509.468 231.671 L
503.562 228.163 L
497.656 223.744 L
491.75 221.353 L
485.844 216.111 L
479.939 211.335 L
474.033 206.576 L
468.127 201.705 L
462.221 196.956 L
456.315 192.891 L
450.409 187.71 L
444.503 183.799 L
438.597 181.222 L
432.691 179.974 L
438.597 179.974 L
444.503 179.974 L
450.409 179.974 L
456.315 179.974 L
462.221 179.974 L
468.127 179.974 L
474.033 179.974 L
479.939 179.974 L
485.844 179.974 L
491.75 179.974 L
497.656 179.974 L
503.562 179.974 L
509.468 179.974 L
515.374 179.974 L
521.28 179.974 L
521.28 238.012 LE
3 W
1 LJ
409.067 240.697 LS
414.973 221.496 L
420.879 210.157 L
426.785 204.29 L
432.691 202.077 L
438.597 202.258 L
444.503 203.977 L
450.409 206.659 L
456.315 209.918 L
462.221 213.491 L
468.127 217.203 L
474.033 220.937 L
479.939 224.616 L
485.844 228.189 L
491.75 231.626 L
497.656 234.908 L
503.562 238.028 L
509.468 240.982 L
515.374 243.771 L
521.28 246.401 LE
grestore
gsave
1.0 1.0 scale
newpath 0 0 moveto 576 0 lineto 576 432 lineto 0 432 lineto
closepath clip
1 1 1 C
74.88 121.933 187.093 47.52 74.88 47.52 T
74.88 121.933 187.093 121.933 187.093 47.52 T
0.5 W
0.15 0.15 0.15 C
98.5037 47.52 LS
98.5037 48.6484 LE
98.5037 121.933 LS
98.5037 120.805 LE
128.033 47.52 LS
128.033 48.6484 LE
128.033 121.933 LS
128.033 120.805 LE
157.563 47.52 LS
157.563 48.6484 LE
157.563 121.933 LS
157.563 120.805 LE
187.093 47.52 LS
187.093 48.6484 LE
187.093 121.933 LS
187.093 120.805 LE
gsave
0.14902 0.14902 0.14902 C
(5) [10] 0 95.5037 31.9781 10 /Helvetica SRX
grestore

gsave
0.14902 0.14902 0.14902 C
(10) [6 10] 0 122.033 31.9781 10 /Helvetica SRX
grestore

gsave
0.14902 0.14902 0.14902 C
(15) [6 10] 0 151.563 31.9781 10 /Helvetica SRX
grestore

gsave
0.14902 0.14902 0.14902 C
(20) [6 10] 0 181.093 31.9781 10 /Helvetica SRX
grestore

74.88 54.4914 LS
76.0043 54.4914 LE
187.093 54.4914 LS
185.968 54.4914 LE
74.88 67.3655 LS
76.0043 67.3655 LE
187.093 67.3655 LS
185.968 67.3655 LE
74.88 80.2395 LS
76.0043 80.2395 LE
187.093 80.2395 LS
185.968 80.2395 LE
74.88 93.1135 LS
76.0043 93.1135 LE
187.093 93.1135 LS
185.968 93.1135 LE
74.88 105.988 LS
76.0043 105.988 LE
187.093 105.988 LS
185.968 105.988 LE
74.88 118.862 LS
76.0043 118.862 LE
187.093 118.862 LS
185.968 118.862 LE
gsave
0.14902 0.14902 0.14902 C
(0.02) [6 3 6 10] 0 48.8705 50.4915 10 /Helvetica SRX
grestore

gsave
0.14902 0.14902 0.14902 C
(0.04) [6 3 6 10] 0 48.8705 63.3655 10 /Helvetica SRX
grestore

gsave
0.14902 0.14902 0.14902 C
(0.06) [6 3 6 10] 0 48.8705 76.2395 10 /Helvetica SRX
grestore

gsave
0.14902 0.14902 0.14902 C
(0.08) [6 3 6 10] 0 48.8705 89.1136 10 /Helvetica SRX
grestore

gsave
0.14902 0.14902 0.14902 C
(0.1) [6 3 10] 0 54.8705 101.988 10 /Helvetica SRX
grestore

gsave
0.14902 0.14902 0.14902 C
(0.12) [6 3 6 10] 0 48.8705 114.862 10 /Helvetica SRX
grestore

2 LC
[16 0] 0 setdash
74.88 47.52 LS
187.093 47.52 LE
74.88 121.933 LS
187.093 121.933 LE
74.88 47.52 LS
74.88 121.933 LE
187.093 47.52 LS
187.093 121.933 LE
gsave
0 0 0 C
(I_T_hat) [3 6 7 6 7 6 10] 0 111.486 133.933 11 /Helvetica-Bold SRX
grestore

0.9 0.9 0.9 C
74.88 47.52 74.88 121.933 80.7859 47.52 T
80.7859 113.421 80.7859 47.52 74.88 121.933 T
86.6918 47.52 80.7859 47.52 80.7859 113.421 T
86.6918 105.824 86.6918 47.52 80.7859 113.421 T
92.5978 47.52 86.6918 47.52 86.6918 105.824 T
92.5978 99.0126 92.5978 47.52 86.6918 105.824 T
98.5037 47.52 92.5978 47.52 92.5978 99.0126 T
98.5037 92.6446 98.5037 47.52 92.5978 99.0126 T
104.41 47.52 98.5037 47.52 98.5037 92.6446 T
104.41 86.8037 104.41 47.52 98.5037 92.6446 T
110.316 47.52 104.41 47.52 104.41 86.8037 T
110.316 82.0333 110.316 47.52 104.41 86.8037 T
116.221 47.52 110.316 47.52 110.316 82.0333 T
116.221 77.6608 116.221 47.52 110.316 82.0333 T
122.127 47.52 116.221 47.52 116.221 77.6608 T
122.127 73.9145 122.127 47.52 116.221 77.6608 T
128.033 47.52 122.127 47.52 122.127 73.9145 T
128.033 70.5502 128.033 47.52 122.127 73.9145 T
133.939 47.52 128.033 47.52 128.033 70.5502 T
133.939 67.7331 133.939 47.52 128.033 70.5502 T
139.845 47.52 133.939 47.52 133.939 67.7331 T
139.845 65.0966 139.845 47.52 133.939 67.7331 T
145.751 47.52 139.845 47.52 139.845 65.0966 T
145.751 62.794 145.751 47.52 139.845 65.0966 T
151.657 47.52 145.751 47.52 145.751 62.794 T
151.657 60.7426 151.657 47.52 145.751 62.794 T
157.563 47.52 151.657 47.52 151.657 60.7426 T
157.563 58.9835 157.563 47.52 151.657 60.7426 T
163.469 47.52 157.563 47.52 157.563 58.9835 T
163.469 57.5705 163.469 47.52 157.563 58.9835 T
169.375 47.52 163.469 47.52 163.469 57.5705 T
169.375 56.196 169.375 47.52 163.469 57.5705 T
175.281 47.52 169.375 47.52 169.375 56.196 T
175.281 55.0094 175.281 47.52 169.375 56.196 T
181.187 47.52 175.281 47.52 175.281 55.0094 T
181.187 53.9426 181.187 47.52 175.281 55.0094 T
187.093 47.52 181.187 47.52 181.187 53.9426 T
187.093 53.0003 187.093 47.52 181.187 53.9426 T
0 LC
[] 0 setdash
0 0 0 C
187.093 53.0003 LS
181.187 53.9426 L
175.281 55.0094 L
169.375 56.196 L
163.469 57.5705 L
157.563 58.9835 L
151.657 60.7426 L
145.751 62.794 L
139.845 65.0966 L
133.939 67.7331 L
128.033 70.5502 L
122.127 73.9145 L
116.221 77.6608 L
110.316 82.0333 L
104.41 86.8037 L
98.5037 92.6446 L
92.5978 99.0126 L
86.6918 105.824 L
80.7859 113.421 L
74.88 121.933 L
74.88 47.52 L
80.7859 47.52 L
86.6918 47.52 L
92.5978 47.52 L
98.5037 47.52 L
104.41 47.52 L
110.316 47.52 L
116.221 47.52 L
122.127 47.52 L
128.033 47.52 L
133.939 47.52 L
139.845 47.52 L
145.751 47.52 L
151.657 47.52 L
157.563 47.52 L
163.469 47.52 L
169.375 47.52 L
175.281 47.52 L
181.187 47.52 L
187.093 47.52 L
187.093 53.0003 LE
1 1 1 C
74.88 47.52 74.88 89.9269 80.7859 47.52 T
80.7859 84.3815 80.7859 47.52 74.88 89.9269 T
86.6918 47.52 80.7859 47.52 80.7859 84.3815 T
86.6918 79.545 86.6918 47.52 80.7859 84.3815 T
92.5978 47.52 86.6918 47.52 86.6918 79.545 T
92.5978 75.3178 92.5978 47.52 86.6918 79.545 T
98.5037 47.52 92.5978 47.52 92.5978 75.3178 T
98.5037 71.2892 98.5037 47.52 92.5978 75.3178 T
104.41 47.52 98.5037 47.52 98.5037 71.2892 T
104.41 67.5921 104.41 47.52 98.5037 71.2892 T
110.316 47.52 104.41 47.52 104.41 67.5921 T
110.316 64.6684 110.316 47.52 104.41 67.5921 T
116.221 47.52 110.316 47.52 110.316 64.6684 T
116.221 62.0065 116.221 47.52 110.316 64.6684 T
122.127 47.52 116.221 47.52 116.221 62.0065 T
122.127 59.8439 122.127 47.52 116.221 62.0065 T
128.033 47.52 122.127 47.52 122.127 59.8439 T
128.033 57.8202 128.033 47.52 122.127 59.8439 T
133.939 47.52 128.033 47.52 128.033 57.8202 T
133.939 56.138 133.939 47.52 128.033 57.8202 T
139.845 47.52 133.939 47.52 133.939 56.138 T
139.845 54.5409 139.845 47.52 133.939 56.138 T
145.751 47.52 139.845 47.52 139.845 54.5409 T
145.751 53.156 145.751 47.52 139.845 54.5409 T
151.657 47.52 145.751 47.52 145.751 53.156 T
151.657 51.929 151.657 47.52 145.751 53.156 T
157.563 47.52 151.657 47.52 151.657 51.929 T
157.563 50.8682 157.563 47.52 151.657 51.929 T
163.469 47.52 157.563 47.52 157.563 50.8682 T
163.469 50.0964 163.469 47.52 157.563 50.8682 T
169.375 47.52 163.469 47.52 163.469 50.0964 T
169.375 49.3162 169.375 47.52 163.469 50.0964 T
175.281 47.52 169.375 47.52 169.375 49.3162 T
175.281 48.6394 175.281 47.52 169.375 49.3162 T
181.187 47.52 175.281 47.52 175.281 48.6394 T
181.187 48.0509 181.187 47.52 175.281 48.6394 T
187.093 47.52 181.187 47.52 181.187 48.0509 T
0 0 0 C
187.093 47.52 LS
181.187 48.0509 L
175.281 48.6394 L
169.375 49.3162 L
163.469 50.0964 L
157.563 50.8682 L
151.657 51.929 L
145.751 53.156 L
139.845 54.5409 L
133.939 56.138 L
128.033 57.8202 L
122.127 59.8439 L
116.221 62.0065 L
110.316 64.6684 L
104.41 67.5921 L
98.5037 71.2892 L
92.5978 75.3178 L
86.6918 79.545 L
80.7859 84.3815 L
74.88 89.9269 L
74.88 47.52 L
80.7859 47.52 L
86.6918 47.52 L
92.5978 47.52 L
98.5037 47.52 L
104.41 47.52 L
110.316 47.52 L
116.221 47.52 L
122.127 47.52 L
128.033 47.52 L
133.939 47.52 L
139.845 47.52 L
145.751 47.52 L
151.657 47.52 L
157.563 47.52 L
163.469 47.52 L
169.375 47.52 L
175.281 47.52 L
181.187 47.52 L
187.093 47.52 LE
3 W
1 LJ
74.88 105.564 LS
80.7859 98.7032 L
86.6918 92.428 L
92.5978 86.7959 L
98.5037 81.7873 L
104.41 77.3551 L
110.316 73.4442 L
116.221 69.9994 L
122.127 66.9685 L
128.033 64.3037 L
133.939 61.9621 L
139.845 59.9052 L
145.751 58.099 L
151.657 56.5133 L
157.563 55.1215 L
163.469 53.9001 L
169.375 52.8285 L
175.281 51.8884 L
181.187 51.0639 L
187.093 50.3408 LE
grestore
gsave
1.0 1.0 scale
newpath 0 0 moveto 576 0 lineto 576 432 lineto 0 432 lineto
closepath clip
1 1 1 C
241.974 121.933 354.186 47.52 241.974 47.52 T
241.974 121.933 354.186 121.933 354.186 47.52 T
0.5 W
0.15 0.15 0.15 C
265.597 47.52 LS
265.597 48.6484 LE
265.597 121.933 LS
265.597 120.805 LE
295.127 47.52 LS
295.127 48.6484 LE
295.127 121.933 LS
295.127 120.805 LE
324.657 47.52 LS
324.657 48.6484 LE
324.657 121.933 LS
324.657 120.805 LE
354.186 47.52 LS
354.186 48.6484 LE
354.186 121.933 LS
354.186 120.805 LE
gsave
0.14902 0.14902 0.14902 C
(5) [10] 0 262.597 31.9781 10 /Helvetica SRX
grestore

gsave
0.14902 0.14902 0.14902 C
(10) [6 10] 0 289.127 31.9781 10 /Helvetica SRX
grestore

gsave
0.14902 0.14902 0.14902 C
(15) [6 10] 0 318.657 31.9781 10 /Helvetica SRX
grestore

gsave
0.14902 0.14902 0.14902 C
(20) [6 10] 0 348.186 31.9781 10 /Helvetica SRX
grestore

241.974 60.5148 LS
243.098 60.5148 LE
354.186 60.5148 LS
353.062 60.5148 LE
241.974 77.8473 LS
243.098 77.8473 LE
354.186 77.8473 LS
353.062 77.8473 LE
241.974 95.1798 LS
243.098 95.1798 LE
354.186 95.1798 LS
353.062 95.1798 LE
241.974 112.512 LS
243.098 112.512 LE
354.186 112.512 LS
353.062 112.512 LE
gsave
0.14902 0.14902 0.14902 C
(0.02) [6 3 6 10] 0 215.964 56.5148 10 /Helvetica SRX
grestore

gsave
0.14902 0.14902 0.14902 C
(0.03) [6 3 6 10] 0 215.964 73.8473 10 /Helvetica SRX
grestore

gsave
0.14902 0.14902 0.14902 C
(0.04) [6 3 6 10] 0 215.964 91.1798 10 /Helvetica SRX
grestore

gsave
0.14902 0.14902 0.14902 C
(0.05) [6 3 6 10] 0 215.964 108.512 10 /Helvetica SRX
grestore

2 LC
[16 0] 0 setdash
241.974 47.52 LS
354.186 47.52 LE
241.974 121.933 LS
354.186 121.933 LE
241.974 47.52 LS
241.974 121.933 LE
354.186 47.52 LS
354.186 121.933 LE
gsave
0 0 0 C
(I_N_hat) [3 6 8 6 7 6 10] 0 278.08 133.933 11 /Helvetica-Bold SRX
grestore

0.9 0.9 0.9 C
241.974 47.52 241.974 121.933 247.88 47.52 T
247.88 116.926 247.88 47.52 241.974 121.933 T
253.786 47.52 247.88 47.52 247.88 116.926 T
253.786 111.077 253.786 47.52 247.88 116.926 T
259.691 47.52 253.786 47.52 253.786 111.077 T
259.691 106.043 259.691 47.52 253.786 111.077 T
265.597 47.52 259.691 47.52 259.691 106.043 T
265.597 101.295 265.597 47.52 259.691 106.043 T
271.503 47.52 265.597 47.52 265.597 101.295 T
271.503 96.9318 271.503 47.52 265.597 101.295 T
277.409 47.52 271.503 47.52 271.503 96.9318 T
277.409 92.9725 277.409 47.52 271.503 96.9318 T
283.315 47.52 277.409 47.52 277.409 92.9725 T
283.315 89.3312 283.315 47.52 277.409 92.9725 T
289.221 47.52 283.315 47.52 283.315 89.3312 T
289.221 86.0667 289.221 47.52 283.315 89.3312 T
295.127 47.52 289.221 47.52 289.221 86.0667 T
295.127 82.752 295.127 47.52 289.221 86.0667 T
301.033 47.52 295.127 47.52 295.127 82.752 T
301.033 80.2789 301.033 47.52 295.127 82.752 T
306.939 47.52 301.033 47.52 301.033 80.2789 T
306.939 77.7583 306.939 47.52 301.033 80.2789 T
312.845 47.52 306.939 47.52 306.939 77.7583 T
312.845 75.1722 312.845 47.52 306.939 77.7583 T
318.751 47.52 312.845 47.52 312.845 75.1722 T
318.751 73.1712 318.751 47.52 312.845 75.1722 T
324.657 47.52 318.751 47.52 318.751 73.1712 T
324.657 71.1824 324.657 47.52 318.751 73.1712 T
330.563 47.52 324.657 47.52 324.657 71.1824 T
330.563 69.3886 330.563 47.52 324.657 71.1824 T
336.469 47.52 330.563 47.52 330.563 69.3886 T
336.469 67.6121 336.469 47.52 330.563 69.3886 T
342.374 47.52 336.469 47.52 336.469 67.6121 T
342.374 66.5975 342.374 47.52 336.469 67.6121 T
348.28 47.52 342.374 47.52 342.374 66.5975 T
348.28 65.0258 348.28 47.52 342.374 66.5975 T
354.186 47.52 348.28 47.52 348.28 65.0258 T
354.186 63.4923 354.186 47.52 348.28 65.0258 T
0 LC
[] 0 setdash
0 0 0 C
354.186 63.4923 LS
348.28 65.0258 L
342.374 66.5975 L
336.469 67.6121 L
330.563 69.3886 L
324.657 71.1824 L
318.751 73.1712 L
312.845 75.1722 L
306.939 77.7583 L
301.033 80.2789 L
295.127 82.752 L
289.221 86.0667 L
283.315 89.3312 L
277.409 92.9725 L
271.503 96.9318 L
265.597 101.295 L
259.691 106.043 L
253.786 111.077 L
247.88 116.926 L
241.974 121.933 L
241.974 47.52 L
247.88 47.52 L
253.786 47.52 L
259.691 47.52 L
265.597 47.52 L
271.503 47.52 L
277.409 47.52 L
283.315 47.52 L
289.221 47.52 L
295.127 47.52 L
301.033 47.52 L
306.939 47.52 L
312.845 47.52 L
318.751 47.52 L
324.657 47.52 L
330.563 47.52 L
336.469 47.52 L
342.374 47.52 L
348.28 47.52 L
354.186 47.52 L
354.186 63.4923 LE
1 1 1 C
241.974 47.52 241.974 84.3028 247.88 47.52 T
247.88 80.4218 247.88 47.52 241.974 84.3028 T
253.786 47.52 247.88 47.52 247.88 80.4218 T
253.786 76.2504 253.786 47.52 247.88 80.4218 T
259.691 47.52 253.786 47.52 253.786 76.2504 T
259.691 72.9737 259.691 47.52 253.786 76.2504 T
265.597 47.52 259.691 47.52 259.691 72.9737 T
265.597 69.9936 265.597 47.52 259.691 72.9737 T
271.503 47.52 265.597 47.52 265.597 69.9936 T
271.503 67.2354 271.503 47.52 265.597 69.9936 T
277.409 47.52 271.503 47.52 271.503 67.2354 T
277.409 64.8083 277.409 47.52 271.503 67.2354 T
283.315 47.52 277.409 47.52 277.409 64.8083 T
283.315 62.659 283.315 47.52 277.409 64.8083 T
289.221 47.52 283.315 47.52 283.315 62.659 T
289.221 60.6555 289.221 47.52 283.315 62.659 T
295.127 47.52 289.221 47.52 289.221 60.6555 T
295.127 58.5843 295.127 47.52 289.221 60.6555 T
301.033 47.52 295.127 47.52 295.127 58.5843 T
301.033 57.1652 301.033 47.52 295.127 58.5843 T
306.939 47.52 301.033 47.52 301.033 57.1652 T
306.939 55.7308 306.939 47.52 301.033 57.1652 T
312.845 47.52 306.939 47.52 306.939 55.7308 T
312.845 54.0808 312.845 47.52 306.939 55.7308 T
318.751 47.52 312.845 47.52 312.845 54.0808 T
318.751 52.9521 318.751 47.52 312.845 54.0808 T
324.657 47.52 318.751 47.52 318.751 52.9521 T
324.657 51.7373 324.657 47.52 318.751 52.9521 T
330.563 47.52 324.657 47.52 324.657 51.7373 T
330.563 50.6661 330.563 47.52 324.657 51.7373 T
336.469 47.52 330.563 47.52 330.563 50.6661 T
336.469 49.6448 336.469 47.52 330.563 50.6661 T
342.374 47.52 336.469 47.52 336.469 49.6448 T
342.374 49.281 342.374 47.52 336.469 49.6448 T
348.28 47.52 342.374 47.52 342.374 49.281 T
348.28 48.3849 348.28 47.52 342.374 49.281 T
354.186 47.52 348.28 47.52 348.28 48.3849 T
0 0 0 C
354.186 47.52 LS
348.28 48.3849 L
342.374 49.281 L
336.469 49.6448 L
330.563 50.6661 L
324.657 51.7373 L
318.751 52.9521 L
312.845 54.0808 L
306.939 55.7308 L
301.033 57.1652 L
295.127 58.5843 L
289.221 60.6555 L
283.315 62.659 L
277.409 64.8083 L
271.503 67.2354 L
265.597 69.9936 L
259.691 72.9737 L
253.786 76.2504 L
247.88 80.4218 L
241.974 84.3028 L
241.974 47.52 L
247.88 47.52 L
253.786 47.52 L
259.691 47.52 L
265.597 47.52 L
271.503 47.52 L
277.409 47.52 L
283.315 47.52 L
289.221 47.52 L
295.127 47.52 L
301.033 47.52 L
306.939 47.52 L
312.845 47.52 L
318.751 47.52 L
324.657 47.52 L
330.563 47.52 L
336.469 47.52 L
342.374 47.52 L
348.28 47.52 L
354.186 47.52 LE
3 W
1 LJ
241.974 103.401 LS
247.88 98.825 L
253.786 94.2729 L
259.691 89.9999 L
265.597 86.0702 L
271.503 82.484 L
277.409 79.2189 L
283.315 76.2459 L
289.221 73.5353 L
295.127 71.059 L
301.033 68.7919 L
306.939 66.7116 L
312.845 64.7986 L
318.751 63.0355 L
324.657 61.4073 L
330.563 59.9005 L
336.469 58.5036 L
342.374 57.2063 L
348.28 55.9993 L
354.186 54.8748 LE
grestore
gsave
1.0 1.0 scale
newpath 0 0 moveto 576 0 lineto 576 432 lineto 0 432 lineto
closepath clip
1 1 1 C
409.067 121.933 521.28 47.52 409.067 47.52 T
409.067 121.933 521.28 121.933 521.28 47.52 T
0.5 W
0.15 0.15 0.15 C
432.691 47.52 LS
432.691 48.6484 LE
432.691 121.933 LS
432.691 120.805 LE
462.221 47.52 LS
462.221 48.6484 LE
462.221 121.933 LS
462.221 120.805 LE
491.75 47.52 LS
491.75 48.6484 LE
491.75 121.933 LS
491.75 120.805 LE
521.28 47.52 LS
521.28 48.6484 LE
521.28 121.933 LS
521.28 120.805 LE
gsave
0.14902 0.14902 0.14902 C
(5) [10] 0 429.691 31.9781 10 /Helvetica SRX
grestore

gsave
0.14902 0.14902 0.14902 C
(10) [6 10] 0 456.221 31.9781 10 /Helvetica SRX
grestore

gsave
0.14902 0.14902 0.14902 C
(15) [6 10] 0 485.75 31.9781 10 /Helvetica SRX
grestore

gsave
0.14902 0.14902 0.14902 C
(20) [6 10] 0 515.28 31.9781 10 /Helvetica SRX
grestore

409.067 56.8046 LS
410.192 56.8046 LE
521.28 56.8046 LS
520.156 56.8046 LE
409.067 67.545 LS
410.192 67.545 LE
521.28 67.545 LS
520.156 67.545 LE
409.067 78.2854 LS
410.192 78.2854 LE
521.28 78.2854 LS
520.156 78.2854 LE
409.067 89.0258 LS
410.192 89.0258 LE
521.28 89.0258 LS
520.156 89.0258 LE
409.067 99.7662 LS
410.192 99.7662 LE
521.28 99.7662 LS
520.156 99.7662 LE
409.067 110.507 LS
410.192 110.507 LE
521.28 110.507 LS
520.156 110.507 LE
409.067 121.247 LS
410.192 121.247 LE
521.28 121.247 LS
520.156 121.247 LE
gsave
0.14902 0.14902 0.14902 C
(-0.002) [3 6 3 6 6 10] 0 374.058 52.8046 10 /Helvetica SRX
grestore

gsave
0.14902 0.14902 0.14902 C
(0) [10] 0 398.058 63.545 10 /Helvetica SRX
grestore

gsave
0.14902 0.14902 0.14902 C
(0.002) [6 3 6 6 10] 0 377.058 74.2854 10 /Helvetica SRX
grestore

gsave
0.14902 0.14902 0.14902 C
(0.004) [6 3 6 6 10] 0 377.058 85.0258 10 /Helvetica SRX
grestore

gsave
0.14902 0.14902 0.14902 C
(0.006) [6 3 6 6 10] 0 377.058 95.7662 10 /Helvetica SRX
grestore

gsave
0.14902 0.14902 0.14902 C
(0.008) [6 3 6 6 10] 0 377.058 106.507 10 /Helvetica SRX
grestore

gsave
0.14902 0.14902 0.14902 C
(0.01) [6 3 6 10] 0 383.058 117.247 10 /Helvetica SRX
grestore

2 LC
[16 0] 0 setdash
409.067 47.52 LS
521.28 47.52 LE
409.067 121.933 LS
521.28 121.933 LE
409.067 47.52 LS
409.067 121.933 LE
521.28 47.52 LS
521.28 121.933 LE
gsave
0 0 0 C
(I_C_hat) [3 6 8 6 7 6 10] 0 445.174 133.933 11 /Helvetica-Bold SRX
grestore

0.9 0.9 0.9 C
409.067 47.52 409.067 73.0808 414.973 47.52 T
414.973 77.1551 414.973 47.52 409.067 73.0808 T
420.879 47.52 414.973 47.52 414.973 77.1551 T
420.879 79.4165 420.879 47.52 414.973 77.1551 T
426.785 47.52 420.879 47.52 420.879 79.4165 T
426.785 80.8333 426.785 47.52 420.879 79.4165 T
432.691 47.52 426.785 47.52 426.785 80.8333 T
432.691 85.3564 432.691 47.52 426.785 80.8333 T
438.597 47.52 432.691 47.52 432.691 85.3564 T
438.597 89.1487 438.597 47.52 432.691 85.3564 T
444.503 47.52 438.597 47.52 438.597 89.1487 T
444.503 91.9759 444.503 47.52 438.597 89.1487 T
450.409 47.52 444.503 47.52 444.503 91.9759 T
450.409 95.6317 450.409 47.52 444.503 91.9759 T
456.315 47.52 450.409 47.52 450.409 95.6317 T
456.315 99.7592 456.315 47.52 450.409 95.6317 T
462.221 47.52 456.315 47.52 456.315 99.7592 T
462.221 102.912 462.221 47.52 456.315 99.7592 T
468.127 47.52 462.221 47.52 462.221 102.912 T
468.127 105.858 468.127 47.52 462.221 102.912 T
474.033 47.52 468.127 47.52 468.127 105.858 T
474.033 108.528 474.033 47.52 468.127 105.858 T
479.939 47.52 474.033 47.52 474.033 108.528 T
479.939 110.741 479.939 47.52 474.033 108.528 T
485.844 47.52 479.939 47.52 479.939 110.741 T
485.844 112.454 485.844 47.52 479.939 110.741 T
491.75 47.52 485.844 47.52 485.844 112.454 T
491.75 114.8 491.75 47.52 485.844 112.454 T
497.656 47.52 491.75 47.52 491.75 114.8 T
497.656 116.901 497.656 47.52 491.75 114.8 T
503.562 47.52 497.656 47.52 497.656 116.901 T
503.562 118.364 503.562 47.52 497.656 116.901 T
509.468 47.52 503.562 47.52 503.562 118.364 T
509.468 119.219 509.468 47.52 503.562 118.364 T
515.374 47.52 509.468 47.52 509.468 119.219 T
515.374 120.271 515.374 47.52 509.468 119.219 T
521.28 47.52 515.374 47.52 515.374 120.271 T
521.28 121.933 521.28 47.52 515.374 120.271 T
0 LC
[] 0 setdash
0 0 0 C
521.28 121.933 LS
515.374 120.271 L
509.468 119.219 L
503.562 118.364 L
497.656 116.901 L
491.75 114.8 L
485.844 112.454 L
479.939 110.741 L
474.033 108.528 L
468.127 105.858 L
462.221 102.912 L
456.315 99.7592 L
450.409 95.6317 L
444.503 91.9759 L
438.597 89.1487 L
432.691 85.3564 L
426.785 80.8333 L
420.879 79.4165 L
414.973 77.1551 L
409.067 73.0808 L
409.067 47.52 L
414.973 47.52 L
420.879 47.52 L
426.785 47.52 L
432.691 47.52 L
438.597 47.52 L
444.503 47.52 L
450.409 47.52 L
456.315 47.52 L
462.221 47.52 L
468.127 47.52 L
474.033 47.52 L
479.939 47.52 L
485.844 47.52 L
491.75 47.52 L
497.656 47.52 L
503.562 47.52 L
509.468 47.52 L
515.374 47.52 L
521.28 47.52 L
521.28 121.933 LE
1 1 1 C
409.067 47.52 414.973 52.1816 414.973 47.52 T
420.879 47.52 414.973 47.52 414.973 52.1816 T
420.879 55.3905 420.879 47.52 414.973 52.1816 T
426.785 47.52 420.879 47.52 420.879 55.3905 T
426.785 57.8177 426.785 47.52 420.879 55.3905 T
432.691 47.52 426.785 47.52 426.785 57.8177 T
432.691 63.2072 432.691 47.52 426.785 57.8177 T
438.597 47.52 432.691 47.52 432.691 63.2072 T
438.597 67.9135 438.597 47.52 432.691 63.2072 T
444.503 47.52 438.597 47.52 438.597 67.9135 T
444.503 71.0872 444.503 47.52 438.597 67.9135 T
450.409 47.52 444.503 47.52 444.503 71.0872 T
450.409 74.9172 450.409 47.52 444.503 71.0872 T
456.315 47.52 450.409 47.52 450.409 74.9172 T
456.315 79.2668 456.315 47.52 450.409 74.9172 T
462.221 47.52 456.315 47.52 456.315 79.2668 T
462.221 82.3149 462.221 47.52 456.315 79.2668 T
468.127 47.52 462.221 47.52 462.221 82.3149 T
468.127 84.8601 468.127 47.52 462.221 82.3149 T
474.033 47.52 468.127 47.52 468.127 84.8601 T
474.033 87.1506 474.033 47.52 468.127 84.8601 T
479.939 47.52 474.033 47.52 474.033 87.1506 T
479.939 89.0825 479.939 47.52 474.033 87.1506 T
485.844 47.52 479.939 47.52 479.939 89.0825 T
485.844 90.4549 485.844 47.52 479.939 89.0825 T
491.75 47.52 485.844 47.52 485.844 90.4549 T
491.75 92.5027 491.75 47.52 485.844 90.4549 T
497.656 47.52 491.75 47.52 491.75 92.5027 T
497.656 94.2611 497.656 47.52 491.75 92.5027 T
503.562 47.52 497.656 47.52 497.656 94.2611 T
503.562 95.3129 503.562 47.52 497.656 94.2611 T
509.468 47.52 503.562 47.52 503.562 95.3129 T
509.468 95.8805 509.468 47.52 503.562 95.3129 T
515.374 47.52 509.468 47.52 509.468 95.8805 T
515.374 96.6633 515.374 47.52 509.468 95.8805 T
521.28 47.52 515.374 47.52 515.374 96.6633 T
521.28 98.1645 521.28 47.52 515.374 96.6633 T
0 0 0 C
521.28 98.1645 LS
515.374 96.6633 L
509.468 95.8805 L
503.562 95.3129 L
497.656 94.2611 L
491.75 92.5027 L
485.844 90.4549 L
479.939 89.0825 L
474.033 87.1506 L
468.127 84.8601 L
462.221 82.3149 L
456.315 79.2668 L
450.409 74.9172 L
444.503 71.0872 L
438.597 67.9135 L
432.691 63.2072 L
426.785 57.8177 L
420.879 55.3905 L
414.973 52.1816 L
409.067 47.52 L
414.973 47.52 L
420.879 47.52 L
426.785 47.52 L
432.691 47.52 L
438.597 47.52 L
444.503 47.52 L
450.409 47.52 L
456.315 47.52 L
462.221 47.52 L
468.127 47.52 L
474.033 47.52 L
479.939 47.52 L
485.844 47.52 L
491.75 47.52 L
497.656 47.52 L
503.562 47.52 L
509.468 47.52 L
515.374 47.52 L
521.28 47.52 L
521.28 98.1645 LE
3 W
1 LJ
409.067 60.6223 LS
414.973 63.5704 L
420.879 67.1269 L
426.785 70.9556 L
432.691 74.8545 L
438.597 78.6932 L
444.503 82.3865 L
450.409 85.8806 L
456.315 89.1436 L
462.221 92.1589 L
468.127 94.9209 L
474.033 97.4315 L
479.939 99.6977 L
485.844 101.73 L
491.75 103.54 L
497.656 105.142 L
503.562 106.55 L
509.468 107.778 L
515.374 108.841 L
521.28 109.75 LE
grestore
grestore
showpage
cleartomark
%%PageTrailer
%%Trailer
end
%%EOF
