%!PS-Adobe-3.0 EPSF-3.0
%%Title: gl2ps_renderer figure
%%Creator: GL2PS 1.4.0, (C) 1999-2017 C. Geuzaine
%%For: Octave
%%CreationDate: Mon Oct  8 02:02:43 2018
%%LanguageLevel: 3
%%DocumentData: Clean7Bit
%%Pages: 1
%%BoundingBox: 0 0 576 432
%%EndComments
%%BeginProlog
/gl2psdict 64 dict def gl2psdict begin
/tryPS3shading false def % set to false to force subdivision
/rThreshold 0.064 def % red component subdivision threshold
/gThreshold 0.034 def % green component subdivision threshold
/bThreshold 0.1 def % blue component subdivision threshold
/BD { bind def } bind def
/C  { setrgbcolor } BD
/G  { 0.082 mul exch 0.6094 mul add exch 0.3086 mul add neg 1.0 add setgray } BD
/W  { setlinewidth } BD
/LC  { setlinecap } BD
/LJ  { setlinejoin } BD
/FC { findfont exch /SH exch def SH scalefont setfont } BD
/SW { dup stringwidth pop } BD
/S  { FC moveto show } BD
/SBC{ FC moveto SW -2 div 0 rmoveto show } BD
/SBR{ FC moveto SW neg 0 rmoveto show } BD
/SCL{ FC moveto 0 SH -2 div rmoveto show } BD
/SCC{ FC moveto SW -2 div SH -2 div rmoveto show } BD
/SCR{ FC moveto SW neg SH -2 div rmoveto show } BD
/STL{ FC moveto 0 SH neg rmoveto show } BD
/STC{ FC moveto SW -2 div SH neg rmoveto show } BD
/STR{ FC moveto SW neg SH neg rmoveto show } BD
/FCT { FC translate 0 0 } BD
/SR  { gsave FCT moveto rotate show grestore } BD
/SBCR{ gsave FCT moveto rotate SW -2 div 0 rmoveto show grestore } BD
/SBRR{ gsave FCT moveto rotate SW neg 0 rmoveto show grestore } BD
/SCLR{ gsave FCT moveto rotate 0 SH -2 div rmoveto show grestore} BD
/SCCR{ gsave FCT moveto rotate SW -2 div SH -2 div rmoveto show grestore} BD
/SCRR{ gsave FCT moveto rotate SW neg SH -2 div rmoveto show grestore} BD
/STLR{ gsave FCT moveto rotate 0 SH neg rmoveto show grestore } BD
/STCR{ gsave FCT moveto rotate SW -2 div SH neg rmoveto show grestore } BD
/STRR{ gsave FCT moveto rotate SW neg SH neg rmoveto show grestore } BD
/P  { newpath 0.0 360.0 arc closepath fill } BD
/LS { newpath moveto } BD
/L  { lineto } BD
/LE { lineto stroke } BD
/T  { newpath moveto lineto lineto closepath fill } BD
/STshfill {
      /b1 exch def /g1 exch def /r1 exch def /y1 exch def /x1 exch def
      /b2 exch def /g2 exch def /r2 exch def /y2 exch def /x2 exch def
      /b3 exch def /g3 exch def /r3 exch def /y3 exch def /x3 exch def
      gsave << /ShadingType 4 /ColorSpace [/DeviceRGB]
      /DataSource [ 0 x1 y1 r1 g1 b1 0 x2 y2 r2 g2 b2 0 x3 y3 r3 g3 b3 ] >>
      shfill grestore } BD
/Tm { 3 -1 roll 8 -1 roll 13 -1 roll add add 3 div
      3 -1 roll 7 -1 roll 11 -1 roll add add 3 div
      3 -1 roll 6 -1 roll 9 -1 roll add add 3 div C T } BD
/STsplit {
      4 index 15 index add 0.5 mul
      4 index 15 index add 0.5 mul
      4 index 15 index add 0.5 mul
      4 index 15 index add 0.5 mul
      4 index 15 index add 0.5 mul
      5 copy 5 copy 25 15 roll
      9 index 30 index add 0.5 mul
      9 index 30 index add 0.5 mul
      9 index 30 index add 0.5 mul
      9 index 30 index add 0.5 mul
      9 index 30 index add 0.5 mul
      5 copy 5 copy 35 5 roll 25 5 roll 15 5 roll
      4 index 10 index add 0.5 mul
      4 index 10 index add 0.5 mul
      4 index 10 index add 0.5 mul
      4 index 10 index add 0.5 mul
      4 index 10 index add 0.5 mul
      5 copy 5 copy 40 5 roll 25 5 roll 15 5 roll 25 5 roll
      STnoshfill STnoshfill STnoshfill STnoshfill } BD
/STnoshfill {
      2 index 8 index sub abs rThreshold gt
      { STsplit }
      { 1 index 7 index sub abs gThreshold gt
        { STsplit }
        { dup 6 index sub abs bThreshold gt
          { STsplit }
          { 2 index 13 index sub abs rThreshold gt
            { STsplit }
            { 1 index 12 index sub abs gThreshold gt
              { STsplit }
              { dup 11 index sub abs bThreshold gt
                { STsplit }
                { 7 index 13 index sub abs rThreshold gt
                  { STsplit }
                  { 6 index 12 index sub abs gThreshold gt
                    { STsplit }
                    { 5 index 11 index sub abs bThreshold gt
                      { STsplit }
                      { Tm }
                      ifelse }
                    ifelse }
                  ifelse }
                ifelse }
              ifelse }
            ifelse }
          ifelse }
        ifelse }
      ifelse } BD
tryPS3shading
{ /shfill where
  { /ST { STshfill } BD }
  { /ST { STnoshfill } BD }
  ifelse }
{ /ST { STnoshfill } BD }
ifelse
end
%%EndProlog
%%BeginSetup
/DeviceRGB setcolorspace
gl2psdict begin
%%EndSetup
%%Page: 1 1
%%BeginPageSetup
%%EndPageSetup
mark
gsave
1.0 1.0 scale
1 1 1 C
newpath 0 0 moveto 576 0 lineto 576 432 lineto 0 432 lineto
closepath fill
gsave
1.0 1.0 scale
1 1 1 C
newpath 0 0 moveto 576 0 lineto 576 432 lineto 0 432 lineto
closepath fill
newpath 0 0 moveto 576 0 lineto 576 432 lineto 0 432 lineto
closepath clip
1 1 1 C
74.88 399.6 187.097 312.423 74.88 312.423 T
74.88 399.6 187.097 399.6 187.097 312.423 T
0.5 W
0.15 0.15 0.15 C
88.8381 312.423 LS
88.8381 313.548 LE
88.8381 399.6 LS
88.8381 398.476 LE
106.603 312.423 LS
106.603 313.548 LE
106.603 399.6 LS
106.603 398.476 LE
124.367 312.423 LS
124.367 313.548 LE
124.367 399.6 LS
124.367 398.476 LE
142.132 312.423 LS
142.132 313.548 LE
142.132 399.6 LS
142.132 398.476 LE
159.897 312.423 LS
159.897 313.548 LE
159.897 399.6 LS
159.897 398.476 LE
177.662 312.423 LS
177.662 313.548 LE
177.662 399.6 LS
177.662 398.476 LE
0.14902 0.14902 0.14902 C
(5) 88.8381 307.413 10 /Helvetica STC
(10) 106.603 307.413 10 /Helvetica STC
(15) 124.367 307.413 10 /Helvetica STC
(20) 142.132 307.413 10 /Helvetica STC
(25) 159.897 307.413 10 /Helvetica STC
(30) 177.662 307.413 10 /Helvetica STC
0.15 0.15 0.15 C
74.88 312.423 LS
76.0043 312.423 LE
187.097 312.423 LS
185.972 312.423 LE
74.88 337.492 LS
76.0043 337.492 LE
187.097 337.492 LS
185.972 337.492 LE
74.88 362.562 LS
76.0043 362.562 LE
187.097 362.562 LS
185.972 362.562 LE
74.88 387.631 LS
76.0043 387.631 LE
187.097 387.631 LS
185.972 387.631 LE
0.14902 0.14902 0.14902 C
(0) 69.8703 312.423 10 /Helvetica SCR
(5) 69.8703 337.492 10 /Helvetica SCR
(10) 69.8703 362.562 10 /Helvetica SCR
(15) 69.8703 387.631 10 /Helvetica SCR
[16 0] 0 setdash
0.15 0.15 0.15 C
74.88 312.423 LS
187.097 312.423 LE
74.88 399.6 LS
187.097 399.6 LE
74.88 312.423 LS
74.88 399.6 LE
187.097 312.423 LS
187.097 399.6 LE
2 W
[] 0 setdash
0.7 0.7 0.7 C
74.88 312.44 LS
75.4439 312.448 L
76.0078 312.456 L
76.5717 312.466 L
77.1356 312.477 L
77.6995 312.489 L
78.2634 312.502 L
78.8273 312.516 L
79.3912 312.531 L
79.9551 312.546 L
80.519 312.562 L
81.0829 312.578 L
81.6468 312.595 L
82.2107 312.611 L
82.7746 312.628 L
83.3385 312.644 L
83.9025 312.661 L
84.4663 312.677 L
85.0302 312.693 L
85.5942 312.708 L
86.1581 312.723 L
86.722 312.737 L
87.2859 312.751 L
87.8498 312.764 L
88.4137 312.776 L
88.9776 312.788 L
89.5415 312.799 L
90.1054 312.809 L
90.6693 312.818 L
91.2332 312.827 L
91.7971 312.835 L
92.361 312.842 L
92.9249 312.848 L
93.4888 312.854 L
94.0527 312.859 L
94.6166 312.863 L
95.1805 312.866 L
95.7444 312.869 L
96.3083 312.871 L
96.8722 312.872 L
97.4361 312.872 L
98 312.872 L
98.5639 312.872 L
99.1278 312.871 L
99.6917 312.869 L
100.256 312.867 L
100.82 312.864 L
101.383 312.861 L
101.947 312.857 L
102.511 312.853 L
103.075 312.849 L
103.639 312.844 L
104.203 312.839 L
104.767 312.834 L
105.331 312.829 L
105.895 312.823 L
106.459 312.817 L
107.022 312.81 L
107.586 312.804 L
108.15 312.797 L
108.714 312.791 L
109.278 312.784 L
109.842 312.777 L
110.406 312.77 L
110.97 312.763 L
111.534 312.755 L
112.098 312.748 L
112.662 312.741 L
113.225 312.734 L
113.789 312.726 L
114.353 312.719 L
114.917 312.712 L
115.481 312.705 L
116.045 312.698 L
116.609 312.691 L
117.173 312.684 L
117.737 312.677 L
118.301 312.67 L
118.864 312.663 L
119.428 312.656 L
119.992 312.65 L
120.556 312.643 L
121.12 312.637 L
121.684 312.631 L
122.248 312.624 L
122.812 312.618 L
123.376 312.612 L
123.94 312.607 L
124.503 312.601 L
125.067 312.595 L
125.631 312.59 L
126.195 312.584 L
126.759 312.579 L
127.323 312.574 L
127.887 312.569 L
128.451 312.564 L
129.015 312.56 L
129.579 312.555 L
130.143 312.55 L
130.706 312.546 L
131.27 312.542 L
131.834 312.538 L
132.398 312.534 L
132.962 312.53 L
133.526 312.526 L
134.09 312.522 L
134.654 312.519 L
135.218 312.515 L
135.782 312.512 L
136.345 312.509 L
136.909 312.505 L
137.473 312.502 L
138.037 312.499 L
138.601 312.497 L
139.165 312.494 L
139.729 312.491 L
140.293 312.489 L
140.857 312.486 L
141.421 312.484 L
141.984 312.481 L
142.548 312.479 L
143.112 312.477 L
143.676 312.475 L
144.24 312.473 L
144.804 312.471 L
145.368 312.469 L
145.932 312.467 L
146.496 312.465 L
147.06 312.464 L
147.624 312.462 L
148.187 312.46 L
148.751 312.459 L
149.315 312.457 L
149.879 312.456 L
150.443 312.455 L
151.007 312.453 L
151.571 312.452 L
152.135 312.451 L
152.699 312.45 L
153.263 312.449 L
153.826 312.448 L
154.39 312.447 L
154.954 312.446 L
155.518 312.445 L
156.082 312.444 L
156.646 312.443 L
157.21 312.442 L
157.774 312.441 L
158.338 312.44 L
158.902 312.44 L
159.465 312.439 L
160.029 312.438 L
160.593 312.438 L
161.157 312.437 L
161.721 312.436 L
162.285 312.436 L
162.849 312.435 L
163.413 312.435 L
163.977 312.434 L
164.541 312.434 L
165.105 312.433 L
165.668 312.433 L
166.232 312.432 L
166.796 312.432 L
167.36 312.432 L
167.924 312.431 L
168.488 312.431 L
169.052 312.431 L
169.616 312.43 L
170.18 312.43 L
170.744 312.43 L
171.307 312.429 L
171.871 312.429 L
172.435 312.429 L
172.999 312.428 L
173.563 312.428 L
174.127 312.428 L
174.691 312.428 L
175.255 312.428 L
175.819 312.427 L
176.383 312.427 L
176.947 312.427 L
177.51 312.427 L
178.074 312.427 L
178.638 312.427 L
179.202 312.426 L
179.766 312.426 L
180.33 312.426 L
180.894 312.426 L
181.458 312.426 L
182.022 312.426 L
182.586 312.426 L
183.149 312.425 L
183.713 312.425 L
184.277 312.425 L
184.841 312.425 L
185.405 312.425 L
185.969 312.425 L
186.533 312.425 L
187.097 312.425 LE
0 0 0 C
115.647 367.391 LS
115.647 367.688 L
115.648 367.984 L
115.648 368.28 L
115.648 368.575 L
115.649 368.868 L
115.649 369.161 L
115.649 369.452 L
115.65 369.742 L
115.65 370.032 L
115.65 370.32 L
115.651 370.607 L
115.651 370.892 L
115.651 371.177 L
115.652 371.46 L
115.652 371.742 L
115.653 372.023 L
115.653 372.302 L
115.653 372.58 L
115.654 372.857 L
115.654 373.132 L
115.654 373.406 L
115.655 373.678 L
115.655 373.949 L
115.655 374.218 L
115.656 374.486 L
115.656 374.752 L
115.656 375.017 L
115.657 375.28 L
115.657 375.541 L
115.658 375.801 L
115.658 376.059 L
115.658 376.315 L
115.659 376.57 L
115.659 376.823 L
115.659 377.074 L
115.66 377.323 L
115.66 377.571 L
115.66 377.817 L
115.661 378.06 L
115.661 378.302 L
115.661 378.543 L
115.662 378.781 L
115.662 379.017 L
115.663 379.251 L
115.663 379.484 L
115.663 379.714 L
115.664 379.942 L
115.664 380.169 L
115.664 380.393 L
115.665 380.615 L
115.665 380.835 L
115.665 381.053 L
115.666 381.269 L
115.666 381.483 L
115.667 381.695 L
115.667 381.905 L
115.667 382.112 L
115.668 382.317 L
115.668 382.52 L
115.668 382.721 L
115.669 382.92 L
115.669 383.116 L
115.669 383.31 L
115.67 383.502 L
115.67 383.692 L
115.67 383.88 L
115.671 384.065 L
115.671 384.248 L
115.672 384.428 L
115.672 384.607 L
115.672 384.783 L
115.673 384.956 L
115.673 385.128 L
115.673 385.297 L
115.674 385.464 L
115.674 385.628 L
115.674 385.79 L
115.675 385.95 L
115.675 386.107 L
115.675 386.262 L
115.676 386.415 L
115.676 386.565 L
115.677 386.713 L
115.677 386.859 L
115.677 387.002 L
115.678 387.143 L
115.678 387.282 L
115.678 387.418 L
115.679 387.552 L
115.679 387.683 L
115.679 387.813 L
115.68 387.939 L
115.68 388.064 L
115.681 388.186 L
115.681 388.306 L
115.681 388.423 L
115.682 388.539 L
115.682 388.651 L
115.682 388.762 L
115.683 388.87 L
115.683 388.976 L
115.683 389.08 L
115.684 389.181 L
115.684 389.28 L
115.684 389.377 L
115.685 389.472 L
115.685 389.564 L
115.686 389.654 L
115.686 389.742 L
115.686 389.828 L
115.687 389.911 L
115.687 389.993 L
115.687 390.072 L
115.688 390.149 L
115.688 390.224 L
115.688 390.296 L
115.689 390.367 L
115.689 390.435 L
115.689 390.502 L
115.69 390.566 L
115.69 390.628 L
115.691 390.689 L
115.691 390.747 L
115.691 390.803 L
115.692 390.858 L
115.692 390.91 L
115.692 390.96 L
115.693 391.009 L
115.693 391.055 L
115.693 391.1 L
115.694 391.143 L
115.694 391.183 L
115.695 391.223 L
115.695 391.26 L
115.695 391.295 L
115.696 391.329 L
115.696 391.361 L
115.696 391.392 L
115.697 391.42 L
115.697 391.447 L
115.697 391.472 L
115.698 391.496 L
115.698 391.518 L
115.698 391.539 L
115.699 391.558 L
115.699 391.575 L
115.7 391.591 L
115.7 391.606 L
115.7 391.619 L
115.701 391.63 L
115.701 391.64 L
115.701 391.649 L
115.702 391.657 L
115.702 391.663 L
115.702 391.668 L
115.703 391.671 L
115.703 391.674 L
115.703 391.675 L
115.704 391.675 L
115.704 391.674 L
115.705 391.671 L
115.705 391.668 L
115.705 391.663 L
115.706 391.658 L
115.706 391.651 L
115.706 391.644 L
115.707 391.635 L
115.707 391.626 L
115.707 391.616 L
115.708 391.604 L
115.708 391.592 L
115.709 391.579 L
115.709 391.566 L
115.709 391.551 L
115.71 391.536 L
115.71 391.52 L
115.71 391.503 L
115.711 391.486 L
115.711 391.468 L
115.711 391.45 L
115.712 391.431 L
115.712 391.411 L
115.712 391.391 L
115.713 391.37 L
115.713 391.349 L
115.714 391.328 L
115.714 391.306 L
115.714 391.284 L
115.715 391.261 L
115.715 391.238 L
115.715 391.215 L
115.716 391.191 L
115.716 391.168 L
115.716 391.144 L
115.717 391.119 L
115.717 391.095 L
115.717 391.07 L
115.718 391.046 L
115.718 391.021 L
115.719 390.996 L
115.719 390.971 L
115.719 390.947 L
115.72 390.922 L
115.72 390.897 L
115.72 390.872 L
115.721 390.847 L
115.721 390.823 L
115.721 390.798 L
115.722 390.774 L
115.722 390.75 L
115.723 390.726 L
115.723 390.702 L
115.723 390.678 L
115.724 390.655 L
115.724 390.632 L
115.724 390.609 L
115.725 390.587 L
115.725 390.564 L
115.725 390.542 L
115.726 390.521 L
115.726 390.5 L
115.726 390.479 L
115.727 390.459 L
115.727 390.439 L
115.728 390.42 L
115.728 390.401 L
115.728 390.382 L
115.729 390.364 L
115.729 390.347 L
115.729 390.33 L
115.73 390.313 L
115.73 390.297 L
115.73 390.282 L
115.731 390.267 L
115.731 390.253 L
115.731 390.239 L
115.732 390.226 L
115.732 390.214 L
115.733 390.202 L
115.733 390.191 L
115.733 390.18 L
115.734 390.17 L
115.734 390.161 L
115.734 390.152 L
115.735 390.144 L
115.735 390.137 L
115.735 390.13 L
115.736 390.124 L
115.736 390.119 L
115.736 390.115 L
115.737 390.111 L
115.737 390.108 L
115.738 390.105 L
115.738 390.103 L
115.738 390.102 L
115.739 390.102 L
115.739 390.102 L
115.739 390.103 L
115.74 390.105 L
115.74 390.108 L
115.74 390.111 L
115.741 390.115 L
115.741 390.119 L
115.742 390.124 L
115.742 390.13 L
115.742 390.137 L
115.743 390.144 L
115.743 390.152 L
115.743 390.161 L
115.744 390.17 L
115.744 390.18 L
115.744 390.191 L
115.745 390.202 L
115.745 390.214 L
115.745 390.226 L
115.746 390.239 L
115.746 390.253 L
115.747 390.267 L
115.747 390.282 L
115.747 390.297 L
115.748 390.313 L
115.748 390.33 L
115.748 390.347 L
115.749 390.364 L
115.749 390.382 L
115.749 390.401 L
115.75 390.42 L
115.75 390.439 L
115.75 390.459 L
115.751 390.479 L
115.751 390.5 L
115.752 390.521 L
115.752 390.542 L
115.752 390.564 L
115.753 390.587 L
115.753 390.609 L
115.753 390.632 L
115.754 390.655 L
115.754 390.678 L
115.754 390.702 L
115.755 390.726 L
115.755 390.75 L
115.755 390.774 L
115.756 390.798 L
115.756 390.823 L
115.757 390.847 L
115.757 390.872 L
115.757 390.897 L
115.758 390.922 L
115.758 390.947 L
115.758 390.971 L
115.759 390.996 L
115.759 391.021 L
115.759 391.046 L
115.76 391.07 L
115.76 391.095 L
115.761 391.119 L
115.761 391.144 L
115.761 391.168 L
115.762 391.191 L
115.762 391.215 L
115.762 391.238 L
115.763 391.261 L
115.763 391.284 L
115.763 391.306 L
115.764 391.328 L
115.764 391.349 L
115.764 391.37 L
115.765 391.391 L
115.765 391.411 L
115.766 391.431 L
115.766 391.45 L
115.766 391.468 L
115.767 391.486 L
115.767 391.503 L
115.767 391.52 L
115.768 391.536 L
115.768 391.551 L
115.768 391.566 L
115.769 391.579 L
115.769 391.592 L
115.77 391.604 L
115.77 391.616 L
115.77 391.626 L
115.771 391.635 L
115.771 391.644 L
115.771 391.651 L
115.772 391.658 L
115.772 391.663 L
115.772 391.668 L
115.773 391.671 L
115.773 391.674 L
115.773 391.675 L
115.774 391.675 L
115.774 391.674 L
115.775 391.671 L
115.775 391.668 L
115.775 391.663 L
115.776 391.657 L
115.776 391.649 L
115.776 391.64 L
115.777 391.63 L
115.777 391.619 L
115.777 391.606 L
115.778 391.591 L
115.778 391.575 L
115.778 391.558 L
115.779 391.539 L
115.779 391.518 L
115.78 391.496 L
115.78 391.472 L
115.78 391.447 L
115.781 391.42 L
115.781 391.392 L
115.781 391.361 L
115.782 391.329 L
115.782 391.295 L
115.782 391.26 L
115.783 391.223 L
115.783 391.183 L
115.783 391.143 L
115.784 391.1 L
115.784 391.055 L
115.785 391.009 L
115.785 390.96 L
115.785 390.91 L
115.786 390.858 L
115.786 390.803 L
115.786 390.747 L
115.787 390.689 L
115.787 390.628 L
115.787 390.566 L
115.788 390.502 L
115.788 390.435 L
115.788 390.367 L
115.789 390.296 L
115.789 390.224 L
115.79 390.149 L
115.79 390.072 L
115.79 389.993 L
115.791 389.911 L
115.791 389.828 L
115.791 389.742 L
115.792 389.654 L
115.792 389.564 L
115.792 389.472 L
115.793 389.377 L
115.793 389.28 L
115.794 389.181 L
115.794 389.08 L
115.794 388.976 L
115.795 388.87 L
115.795 388.762 L
115.795 388.651 L
115.796 388.539 L
115.796 388.423 L
115.796 388.306 L
115.797 388.186 L
115.797 388.064 L
115.797 387.939 L
115.798 387.813 L
115.798 387.683 L
115.799 387.552 L
115.799 387.418 L
115.799 387.282 L
115.8 387.143 L
115.8 387.002 L
115.8 386.859 L
115.801 386.713 L
115.801 386.565 L
115.801 386.415 L
115.802 386.262 L
115.802 386.107 L
115.802 385.95 L
115.803 385.79 L
115.803 385.628 L
115.804 385.464 L
115.804 385.297 L
115.804 385.128 L
115.805 384.956 L
115.805 384.783 L
115.805 384.607 L
115.806 384.428 L
115.806 384.248 L
115.806 384.065 L
115.807 383.88 L
115.807 383.692 L
115.808 383.502 L
115.808 383.31 L
115.808 383.116 L
115.809 382.92 L
115.809 382.721 L
115.809 382.52 L
115.81 382.317 L
115.81 382.112 L
115.81 381.905 L
115.811 381.695 L
115.811 381.483 L
115.811 381.269 L
115.812 381.053 L
115.812 380.835 L
115.813 380.615 L
115.813 380.393 L
115.813 380.169 L
115.814 379.942 L
115.814 379.714 L
115.814 379.484 L
115.815 379.251 L
115.815 379.017 L
115.815 378.781 L
115.816 378.543 L
115.816 378.302 L
115.816 378.06 L
115.817 377.817 L
115.817 377.571 L
115.818 377.323 L
115.818 377.074 L
115.818 376.823 L
115.819 376.57 L
115.819 376.315 L
115.819 376.059 L
115.82 375.801 L
115.82 375.541 L
115.82 375.28 L
115.821 375.017 L
115.821 374.752 L
115.822 374.486 L
115.822 374.218 L
115.822 373.949 L
115.823 373.678 L
115.823 373.406 L
115.823 373.132 L
115.824 372.857 L
115.824 372.58 L
115.824 372.302 L
115.825 372.023 L
115.825 371.742 L
115.825 371.46 L
115.826 371.177 L
115.826 370.892 L
115.827 370.607 L
115.827 370.32 L
115.827 370.032 L
115.828 369.742 L
115.828 369.452 L
115.828 369.161 L
115.829 368.868 L
115.829 368.575 L
115.829 368.28 L
115.83 367.984 L
115.83 367.688 LE
[8 8 8 8] 0 setdash
0 1 0 C
117.567 312.423 LS
117.567 399.6 LE
0 0 0 C
(iiota_N) 130.988 409.6 11 /Helvetica-Bold SBC
grestore
gsave
1.0 1.0 scale
newpath 0 0 moveto 576 0 lineto 576 432 lineto 0 432 lineto
closepath clip
1 1 1 C
241.972 399.6 354.188 312.423 241.972 312.423 T
241.972 399.6 354.188 399.6 354.188 312.423 T
0.5 W
[] 0 setdash
0.15 0.15 0.15 C
255.93 312.423 LS
255.93 313.548 LE
255.93 399.6 LS
255.93 398.476 LE
273.694 312.423 LS
273.694 313.548 LE
273.694 399.6 LS
273.694 398.476 LE
291.459 312.423 LS
291.459 313.548 LE
291.459 399.6 LS
291.459 398.476 LE
309.224 312.423 LS
309.224 313.548 LE
309.224 399.6 LS
309.224 398.476 LE
326.988 312.423 LS
326.988 313.548 LE
326.988 399.6 LS
326.988 398.476 LE
344.753 312.423 LS
344.753 313.548 LE
344.753 399.6 LS
344.753 398.476 LE
0.14902 0.14902 0.14902 C
(5) 255.93 307.413 10 /Helvetica STC
(10) 273.694 307.413 10 /Helvetica STC
(15) 291.459 307.413 10 /Helvetica STC
(20) 309.224 307.413 10 /Helvetica STC
(25) 326.988 307.413 10 /Helvetica STC
(30) 344.753 307.413 10 /Helvetica STC
0.15 0.15 0.15 C
241.972 312.423 LS
243.096 312.423 LE
354.188 312.423 LS
353.064 312.423 LE
241.972 339.891 LS
243.096 339.891 LE
354.188 339.891 LS
353.064 339.891 LE
241.972 367.358 LS
243.096 367.358 LE
354.188 367.358 LS
353.064 367.358 LE
241.972 394.826 LS
243.096 394.826 LE
354.188 394.826 LS
353.064 394.826 LE
0.14902 0.14902 0.14902 C
(0) 236.962 312.423 10 /Helvetica SCR
(0.5) 236.962 339.891 10 /Helvetica SCR
(1) 236.962 367.358 10 /Helvetica SCR
(1.5) 236.962 394.826 10 /Helvetica SCR
[16 0] 0 setdash
0.15 0.15 0.15 C
241.972 312.423 LS
354.188 312.423 LE
241.972 399.6 LS
354.188 399.6 LE
241.972 312.423 LS
241.972 399.6 LE
354.188 312.423 LS
354.188 399.6 LE
2 W
[] 0 setdash
0.7 0.7 0.7 C
241.972 312.611 LS
242.536 312.69 L
243.099 312.783 L
243.663 312.891 L
244.227 313.012 L
244.791 313.144 L
245.355 313.288 L
245.919 313.441 L
246.483 313.602 L
247.047 313.77 L
247.611 313.944 L
248.175 314.121 L
248.738 314.302 L
249.302 314.484 L
249.866 314.666 L
250.43 314.847 L
250.994 315.026 L
251.558 315.203 L
252.122 315.375 L
252.686 315.543 L
253.25 315.706 L
253.814 315.863 L
254.377 316.013 L
254.941 316.156 L
255.505 316.291 L
256.069 316.419 L
256.633 316.539 L
257.197 316.651 L
257.761 316.754 L
258.325 316.848 L
258.889 316.935 L
259.453 317.012 L
260.017 317.081 L
260.58 317.142 L
261.144 317.194 L
261.708 317.239 L
262.272 317.275 L
262.836 317.304 L
263.4 317.325 L
263.964 317.339 L
264.528 317.345 L
265.092 317.346 L
265.656 317.339 L
266.219 317.326 L
266.783 317.308 L
267.347 317.284 L
267.911 317.254 L
268.475 317.22 L
269.039 317.181 L
269.603 317.137 L
270.167 317.09 L
270.731 317.038 L
271.295 316.983 L
271.858 316.925 L
272.422 316.864 L
272.986 316.8 L
273.55 316.734 L
274.114 316.665 L
274.678 316.594 L
275.242 316.522 L
275.806 316.448 L
276.37 316.373 L
276.934 316.296 L
277.498 316.219 L
278.061 316.141 L
278.625 316.062 L
279.189 315.983 L
279.753 315.904 L
280.317 315.825 L
280.881 315.745 L
281.445 315.666 L
282.009 315.587 L
282.573 315.508 L
283.137 315.43 L
283.7 315.353 L
284.264 315.276 L
284.828 315.2 L
285.392 315.125 L
285.956 315.051 L
286.52 314.977 L
287.084 314.905 L
287.648 314.834 L
288.212 314.764 L
288.776 314.695 L
289.339 314.627 L
289.903 314.561 L
290.467 314.496 L
291.031 314.432 L
291.595 314.369 L
292.159 314.308 L
292.723 314.248 L
293.287 314.189 L
293.851 314.132 L
294.415 314.076 L
294.979 314.022 L
295.542 313.968 L
296.106 313.917 L
296.67 313.866 L
297.234 313.817 L
297.798 313.769 L
298.362 313.722 L
298.926 313.677 L
299.49 313.633 L
300.054 313.59 L
300.618 313.549 L
301.181 313.508 L
301.745 313.469 L
302.309 313.431 L
302.873 313.394 L
303.437 313.359 L
304.001 313.324 L
304.565 313.29 L
305.129 313.258 L
305.693 313.227 L
306.257 313.196 L
306.82 313.167 L
307.384 313.138 L
307.948 313.111 L
308.512 313.084 L
309.076 313.059 L
309.64 313.034 L
310.204 313.01 L
310.768 312.987 L
311.332 312.965 L
311.896 312.943 L
312.46 312.923 L
313.023 312.903 L
313.587 312.883 L
314.151 312.865 L
314.715 312.847 L
315.279 312.83 L
315.843 312.813 L
316.407 312.797 L
316.971 312.782 L
317.535 312.767 L
318.099 312.753 L
318.662 312.739 L
319.226 312.726 L
319.79 312.713 L
320.354 312.701 L
320.918 312.69 L
321.482 312.678 L
322.046 312.668 L
322.61 312.657 L
323.174 312.647 L
323.738 312.638 L
324.302 312.628 L
324.865 312.62 L
325.429 312.611 L
325.993 312.603 L
326.557 312.595 L
327.121 312.588 L
327.685 312.581 L
328.249 312.574 L
328.813 312.567 L
329.377 312.561 L
329.941 312.555 L
330.504 312.549 L
331.068 312.543 L
331.632 312.538 L
332.196 312.533 L
332.76 312.528 L
333.324 312.523 L
333.888 312.519 L
334.452 312.515 L
335.016 312.511 L
335.58 312.507 L
336.143 312.503 L
336.707 312.499 L
337.271 312.496 L
337.835 312.493 L
338.399 312.489 L
338.963 312.486 L
339.527 312.483 L
340.091 312.481 L
340.655 312.478 L
341.219 312.476 L
341.783 312.473 L
342.346 312.471 L
342.91 312.469 L
343.474 312.467 L
344.038 312.465 L
344.602 312.463 L
345.166 312.461 L
345.73 312.459 L
346.294 312.457 L
346.858 312.456 L
347.422 312.454 L
347.985 312.453 L
348.549 312.451 L
349.113 312.45 L
349.677 312.449 L
350.241 312.448 L
350.805 312.446 L
351.369 312.445 L
351.933 312.444 L
352.497 312.443 L
353.061 312.442 L
353.624 312.441 L
354.188 312.441 LE
0 0 0 C
252.485 367.391 LS
252.489 367.688 L
252.493 367.984 L
252.497 368.28 L
252.501 368.575 L
252.504 368.868 L
252.508 369.161 L
252.512 369.452 L
252.516 369.742 L
252.52 370.032 L
252.524 370.32 L
252.528 370.607 L
252.532 370.892 L
252.536 371.177 L
252.54 371.46 L
252.544 371.742 L
252.548 372.023 L
252.552 372.302 L
252.556 372.58 L
252.559 372.857 L
252.563 373.132 L
252.567 373.406 L
252.571 373.678 L
252.575 373.949 L
252.579 374.218 L
252.583 374.486 L
252.587 374.752 L
252.591 375.017 L
252.595 375.28 L
252.599 375.541 L
252.603 375.801 L
252.607 376.059 L
252.611 376.315 L
252.615 376.57 L
252.618 376.823 L
252.622 377.074 L
252.626 377.323 L
252.63 377.571 L
252.634 377.817 L
252.638 378.06 L
252.642 378.302 L
252.646 378.543 L
252.65 378.781 L
252.654 379.017 L
252.658 379.251 L
252.662 379.484 L
252.666 379.714 L
252.67 379.942 L
252.673 380.169 L
252.677 380.393 L
252.681 380.615 L
252.685 380.835 L
252.689 381.053 L
252.693 381.269 L
252.697 381.483 L
252.701 381.695 L
252.705 381.905 L
252.709 382.112 L
252.713 382.317 L
252.717 382.52 L
252.721 382.721 L
252.725 382.92 L
252.728 383.116 L
252.732 383.31 L
252.736 383.502 L
252.74 383.692 L
252.744 383.88 L
252.748 384.065 L
252.752 384.248 L
252.756 384.428 L
252.76 384.607 L
252.764 384.783 L
252.768 384.956 L
252.772 385.128 L
252.776 385.297 L
252.78 385.464 L
252.784 385.628 L
252.787 385.79 L
252.791 385.95 L
252.795 386.107 L
252.799 386.262 L
252.803 386.415 L
252.807 386.565 L
252.811 386.713 L
252.815 386.859 L
252.819 387.002 L
252.823 387.143 L
252.827 387.282 L
252.831 387.418 L
252.835 387.552 L
252.839 387.683 L
252.842 387.813 L
252.846 387.939 L
252.85 388.064 L
252.854 388.186 L
252.858 388.306 L
252.862 388.423 L
252.866 388.539 L
252.87 388.651 L
252.874 388.762 L
252.878 388.87 L
252.882 388.976 L
252.886 389.08 L
252.89 389.181 L
252.894 389.28 L
252.898 389.377 L
252.901 389.472 L
252.905 389.564 L
252.909 389.654 L
252.913 389.742 L
252.917 389.828 L
252.921 389.911 L
252.925 389.993 L
252.929 390.072 L
252.933 390.149 L
252.937 390.224 L
252.941 390.296 L
252.945 390.367 L
252.949 390.435 L
252.953 390.502 L
252.956 390.566 L
252.96 390.628 L
252.964 390.689 L
252.968 390.747 L
252.972 390.803 L
252.976 390.858 L
252.98 390.91 L
252.984 390.96 L
252.988 391.009 L
252.992 391.055 L
252.996 391.1 L
253 391.143 L
253.004 391.183 L
253.008 391.223 L
253.011 391.26 L
253.015 391.295 L
253.019 391.329 L
253.023 391.361 L
253.027 391.392 L
253.031 391.42 L
253.035 391.447 L
253.039 391.472 L
253.043 391.496 L
253.047 391.518 L
253.051 391.539 L
253.055 391.558 L
253.059 391.575 L
253.063 391.591 L
253.067 391.606 L
253.07 391.619 L
253.074 391.63 L
253.078 391.64 L
253.082 391.649 L
253.086 391.657 L
253.09 391.663 L
253.094 391.668 L
253.098 391.671 L
253.102 391.674 L
253.106 391.675 L
253.11 391.675 L
253.114 391.674 L
253.118 391.671 L
253.122 391.668 L
253.125 391.663 L
253.129 391.658 L
253.133 391.651 L
253.137 391.644 L
253.141 391.635 L
253.145 391.626 L
253.149 391.616 L
253.153 391.604 L
253.157 391.592 L
253.161 391.579 L
253.165 391.566 L
253.169 391.551 L
253.173 391.536 L
253.177 391.52 L
253.181 391.503 L
253.184 391.486 L
253.188 391.468 L
253.192 391.45 L
253.196 391.431 L
253.2 391.411 L
253.204 391.391 L
253.208 391.37 L
253.212 391.349 L
253.216 391.328 L
253.22 391.306 L
253.224 391.284 L
253.228 391.261 L
253.232 391.238 L
253.236 391.215 L
253.239 391.191 L
253.243 391.168 L
253.247 391.144 L
253.251 391.119 L
253.255 391.095 L
253.259 391.07 L
253.263 391.046 L
253.267 391.021 L
253.271 390.996 L
253.275 390.971 L
253.279 390.947 L
253.283 390.922 L
253.287 390.897 L
253.291 390.872 L
253.294 390.847 L
253.298 390.823 L
253.302 390.798 L
253.306 390.774 L
253.31 390.75 L
253.314 390.726 L
253.318 390.702 L
253.322 390.678 L
253.326 390.655 L
253.33 390.632 L
253.334 390.609 L
253.338 390.587 L
253.342 390.564 L
253.346 390.542 L
253.35 390.521 L
253.353 390.5 L
253.357 390.479 L
253.361 390.459 L
253.365 390.439 L
253.369 390.42 L
253.373 390.401 L
253.377 390.382 L
253.381 390.364 L
253.385 390.347 L
253.389 390.33 L
253.393 390.313 L
253.397 390.297 L
253.401 390.282 L
253.405 390.267 L
253.408 390.253 L
253.412 390.239 L
253.416 390.226 L
253.42 390.214 L
253.424 390.202 L
253.428 390.191 L
253.432 390.18 L
253.436 390.17 L
253.44 390.161 L
253.444 390.152 L
253.448 390.144 L
253.452 390.137 L
253.456 390.13 L
253.46 390.124 L
253.464 390.119 L
253.467 390.115 L
253.471 390.111 L
253.475 390.108 L
253.479 390.105 L
253.483 390.103 L
253.487 390.102 L
253.491 390.102 L
253.495 390.102 L
253.499 390.103 L
253.503 390.105 L
253.507 390.108 L
253.511 390.111 L
253.515 390.115 L
253.519 390.119 L
253.522 390.124 L
253.526 390.13 L
253.53 390.137 L
253.534 390.144 L
253.538 390.152 L
253.542 390.161 L
253.546 390.17 L
253.55 390.18 L
253.554 390.191 L
253.558 390.202 L
253.562 390.214 L
253.566 390.226 L
253.57 390.239 L
253.574 390.253 L
253.578 390.267 L
253.581 390.282 L
253.585 390.297 L
253.589 390.313 L
253.593 390.33 L
253.597 390.347 L
253.601 390.364 L
253.605 390.382 L
253.609 390.401 L
253.613 390.42 L
253.617 390.439 L
253.621 390.459 L
253.625 390.479 L
253.629 390.5 L
253.633 390.521 L
253.636 390.542 L
253.64 390.564 L
253.644 390.587 L
253.648 390.609 L
253.652 390.632 L
253.656 390.655 L
253.66 390.678 L
253.664 390.702 L
253.668 390.726 L
253.672 390.75 L
253.676 390.774 L
253.68 390.798 L
253.684 390.823 L
253.688 390.847 L
253.691 390.872 L
253.695 390.897 L
253.699 390.922 L
253.703 390.947 L
253.707 390.971 L
253.711 390.996 L
253.715 391.021 L
253.719 391.046 L
253.723 391.07 L
253.727 391.095 L
253.731 391.119 L
253.735 391.144 L
253.739 391.168 L
253.743 391.191 L
253.747 391.215 L
253.75 391.238 L
253.754 391.261 L
253.758 391.284 L
253.762 391.306 L
253.766 391.328 L
253.77 391.349 L
253.774 391.37 L
253.778 391.391 L
253.782 391.411 L
253.786 391.431 L
253.79 391.45 L
253.794 391.468 L
253.798 391.486 L
253.802 391.503 L
253.805 391.52 L
253.809 391.536 L
253.813 391.551 L
253.817 391.566 L
253.821 391.579 L
253.825 391.592 L
253.829 391.604 L
253.833 391.616 L
253.837 391.626 L
253.841 391.635 L
253.845 391.644 L
253.849 391.651 L
253.853 391.658 L
253.857 391.663 L
253.861 391.668 L
253.864 391.671 L
253.868 391.674 L
253.872 391.675 L
253.876 391.675 L
253.88 391.674 L
253.884 391.671 L
253.888 391.668 L
253.892 391.663 L
253.896 391.657 L
253.9 391.649 L
253.904 391.64 L
253.908 391.63 L
253.912 391.619 L
253.916 391.606 L
253.919 391.591 L
253.923 391.575 L
253.927 391.558 L
253.931 391.539 L
253.935 391.518 L
253.939 391.496 L
253.943 391.472 L
253.947 391.447 L
253.951 391.42 L
253.955 391.392 L
253.959 391.361 L
253.963 391.329 L
253.967 391.295 L
253.971 391.26 L
253.975 391.223 L
253.978 391.183 L
253.982 391.143 L
253.986 391.1 L
253.99 391.055 L
253.994 391.009 L
253.998 390.96 L
254.002 390.91 L
254.006 390.858 L
254.01 390.803 L
254.014 390.747 L
254.018 390.689 L
254.022 390.628 L
254.026 390.566 L
254.03 390.502 L
254.033 390.435 L
254.037 390.367 L
254.041 390.296 L
254.045 390.224 L
254.049 390.149 L
254.053 390.072 L
254.057 389.993 L
254.061 389.911 L
254.065 389.828 L
254.069 389.742 L
254.073 389.654 L
254.077 389.564 L
254.081 389.472 L
254.085 389.377 L
254.089 389.28 L
254.092 389.181 L
254.096 389.08 L
254.1 388.976 L
254.104 388.87 L
254.108 388.762 L
254.112 388.651 L
254.116 388.539 L
254.12 388.423 L
254.124 388.306 L
254.128 388.186 L
254.132 388.064 L
254.136 387.939 L
254.14 387.813 L
254.144 387.683 L
254.147 387.552 L
254.151 387.418 L
254.155 387.282 L
254.159 387.143 L
254.163 387.002 L
254.167 386.859 L
254.171 386.713 L
254.175 386.565 L
254.179 386.415 L
254.183 386.262 L
254.187 386.107 L
254.191 385.95 L
254.195 385.79 L
254.199 385.628 L
254.202 385.464 L
254.206 385.297 L
254.21 385.128 L
254.214 384.956 L
254.218 384.783 L
254.222 384.607 L
254.226 384.428 L
254.23 384.248 L
254.234 384.065 L
254.238 383.88 L
254.242 383.692 L
254.246 383.502 L
254.25 383.31 L
254.254 383.116 L
254.258 382.92 L
254.261 382.721 L
254.265 382.52 L
254.269 382.317 L
254.273 382.112 L
254.277 381.905 L
254.281 381.695 L
254.285 381.483 L
254.289 381.269 L
254.293 381.053 L
254.297 380.835 L
254.301 380.615 L
254.305 380.393 L
254.309 380.169 L
254.313 379.942 L
254.316 379.714 L
254.32 379.484 L
254.324 379.251 L
254.328 379.017 L
254.332 378.781 L
254.336 378.543 L
254.34 378.302 L
254.344 378.06 L
254.348 377.817 L
254.352 377.571 L
254.356 377.323 L
254.36 377.074 L
254.364 376.823 L
254.368 376.57 L
254.372 376.315 L
254.375 376.059 L
254.379 375.801 L
254.383 375.541 L
254.387 375.28 L
254.391 375.017 L
254.395 374.752 L
254.399 374.486 L
254.403 374.218 L
254.407 373.949 L
254.411 373.678 L
254.415 373.406 L
254.419 373.132 L
254.423 372.857 L
254.427 372.58 L
254.43 372.302 L
254.434 372.023 L
254.438 371.742 L
254.442 371.46 L
254.446 371.177 L
254.45 370.892 L
254.454 370.607 L
254.458 370.32 L
254.462 370.032 L
254.466 369.742 L
254.47 369.452 L
254.474 369.161 L
254.478 368.868 L
254.482 368.575 L
254.485 368.28 L
254.489 367.984 L
254.493 367.688 LE
[8 8 8 8] 0 setdash
0 1 0 C
248.71 312.423 LS
248.71 399.6 LE
0 0 0 C
(iiota_C) 298.08 409.6 11 /Helvetica-Bold SBC
grestore
grestore
showpage
cleartomark
%%PageTrailer
%%Trailer
end
%%EOF
