%!PS-Adobe-3.0 EPSF-3.0
%%Title: gl2ps_renderer figure
%%Creator: GL2PS 1.4.2, (C) 1999-2020 C. Geuzaine
%%For: Octave
%%CreationDate: Wed Oct  7 07:02:41 2020
%%LanguageLevel: 3
%%DocumentData: Clean7Bit
%%Pages: 1
%%BoundingBox: 0 0 576 432
%%EndComments
%%BeginProlog
/gl2psdict 64 dict def gl2psdict begin
/tryPS3shading false def % set to false to force subdivision
/rThreshold 0.064 def % red component subdivision threshold
/gThreshold 0.034 def % green component subdivision threshold
/bThreshold 0.1 def % blue component subdivision threshold
/BD { bind def } bind def
/C  { setrgbcolor } BD
/G  { 0.082 mul exch 0.6094 mul add exch 0.3086 mul add neg 1.0 add setgray } BD
/W  { setlinewidth } BD
/LC  { setlinecap } BD
/LJ  { setlinejoin } BD
/FC { findfont exch /SH exch def SH scalefont setfont } BD
/SW { dup stringwidth pop } BD
/S  { FC moveto show } BD
/SBC{ FC moveto SW -2 div 0 rmoveto show } BD
/SBR{ FC moveto SW neg 0 rmoveto show } BD
/SCL{ FC moveto 0 SH -2 div rmoveto show } BD
/SCC{ FC moveto SW -2 div SH -2 div rmoveto show } BD
/SCR{ FC moveto SW neg SH -2 div rmoveto show } BD
/STL{ FC moveto 0 SH neg rmoveto show } BD
/STC{ FC moveto SW -2 div SH neg rmoveto show } BD
/STR{ FC moveto SW neg SH neg rmoveto show } BD
/FCT { FC translate 0 0 } BD
/SR  { gsave FCT moveto rotate show grestore } BD
/SRX  { gsave FCT moveto rotate xshow grestore } BD
/SBCR{ gsave FCT moveto rotate SW -2 div 0 rmoveto show grestore } BD
/SBRR{ gsave FCT moveto rotate SW neg 0 rmoveto show grestore } BD
/SCLR{ gsave FCT moveto rotate 0 SH -2 div rmoveto show grestore} BD
/SCCR{ gsave FCT moveto rotate SW -2 div SH -2 div rmoveto show grestore} BD
/SCRR{ gsave FCT moveto rotate SW neg SH -2 div rmoveto show grestore} BD
/STLR{ gsave FCT moveto rotate 0 SH neg rmoveto show grestore } BD
/STCR{ gsave FCT moveto rotate SW -2 div SH neg rmoveto show grestore } BD
/STRR{ gsave FCT moveto rotate SW neg SH neg rmoveto show grestore } BD
/P  { newpath 0.0 360.0 arc closepath fill } BD
/LS { newpath moveto } BD
/L  { lineto } BD
/LE { lineto stroke } BD
/T  { newpath moveto lineto lineto closepath fill } BD
/STshfill {
      /b1 exch def /g1 exch def /r1 exch def /y1 exch def /x1 exch def
      /b2 exch def /g2 exch def /r2 exch def /y2 exch def /x2 exch def
      /b3 exch def /g3 exch def /r3 exch def /y3 exch def /x3 exch def
      gsave << /ShadingType 4 /ColorSpace [/DeviceRGB]
      /DataSource [ 0 x1 y1 r1 g1 b1 0 x2 y2 r2 g2 b2 0 x3 y3 r3 g3 b3 ] >>
      shfill grestore } BD
/Tm { 3 -1 roll 8 -1 roll 13 -1 roll add add 3 div
      3 -1 roll 7 -1 roll 11 -1 roll add add 3 div
      3 -1 roll 6 -1 roll 9 -1 roll add add 3 div C T } BD
/STsplit {
      4 index 15 index add 0.5 mul
      4 index 15 index add 0.5 mul
      4 index 15 index add 0.5 mul
      4 index 15 index add 0.5 mul
      4 index 15 index add 0.5 mul
      5 copy 5 copy 25 15 roll
      9 index 30 index add 0.5 mul
      9 index 30 index add 0.5 mul
      9 index 30 index add 0.5 mul
      9 index 30 index add 0.5 mul
      9 index 30 index add 0.5 mul
      5 copy 5 copy 35 5 roll 25 5 roll 15 5 roll
      4 index 10 index add 0.5 mul
      4 index 10 index add 0.5 mul
      4 index 10 index add 0.5 mul
      4 index 10 index add 0.5 mul
      4 index 10 index add 0.5 mul
      5 copy 5 copy 40 5 roll 25 5 roll 15 5 roll 25 5 roll
      STnoshfill STnoshfill STnoshfill STnoshfill } BD
/STnoshfill {
      2 index 8 index sub abs rThreshold gt
      { STsplit }
      { 1 index 7 index sub abs gThreshold gt
        { STsplit }
        { dup 6 index sub abs bThreshold gt
          { STsplit }
          { 2 index 13 index sub abs rThreshold gt
            { STsplit }
            { 1 index 12 index sub abs gThreshold gt
              { STsplit }
              { dup 11 index sub abs bThreshold gt
                { STsplit }
                { 7 index 13 index sub abs rThreshold gt
                  { STsplit }
                  { 6 index 12 index sub abs gThreshold gt
                    { STsplit }
                    { 5 index 11 index sub abs bThreshold gt
                      { STsplit }
                      { Tm }
                      ifelse }
                    ifelse }
                  ifelse }
                ifelse }
              ifelse }
            ifelse }
          ifelse }
        ifelse }
      ifelse } BD
tryPS3shading
{ /shfill where
  { /ST { STshfill } BD }
  { /ST { STnoshfill } BD }
  ifelse }
{ /ST { STnoshfill } BD }
ifelse
end
%%EndProlog
%%BeginSetup
/DeviceRGB setcolorspace
gl2psdict begin
%%EndSetup
%%Page: 1 1
%%BeginPageSetup
%%EndPageSetup
mark
gsave
1.0 1.0 scale
1 1 1 C
newpath 0 0 moveto 576 0 lineto 576 432 lineto 0 432 lineto
closepath fill
gsave
1.0 1.0 scale
1 1 1 C
newpath 0 0 moveto 576 0 lineto 576 432 lineto 0 432 lineto
closepath fill
newpath 0 0 moveto 576 0 lineto 576 432 lineto 0 432 lineto
closepath clip
1 1 1 C
74.88 385.841 187.093 312.427 74.88 312.427 T
74.88 385.841 187.093 385.841 187.093 312.427 T
0.5 W
0.15 0.15 0.15 C
98.5037 312.427 LS
98.5037 313.556 LE
98.5037 385.841 LS
98.5037 384.712 LE
128.033 312.427 LS
128.033 313.556 LE
128.033 385.841 LS
128.033 384.712 LE
157.563 312.427 LS
157.563 313.556 LE
157.563 385.841 LS
157.563 384.712 LE
187.093 312.427 LS
187.093 313.556 LE
187.093 385.841 LS
187.093 384.712 LE
gsave
0.14902 0.14902 0.14902 C
(5) [10] 0 95.5037 296.885 10 /Helvetica SRX
grestore

gsave
0.14902 0.14902 0.14902 C
(10) [6 10] 0 122.033 296.885 10 /Helvetica SRX
grestore

gsave
0.14902 0.14902 0.14902 C
(15) [6 10] 0 151.563 296.885 10 /Helvetica SRX
grestore

gsave
0.14902 0.14902 0.14902 C
(20) [6 10] 0 181.093 296.885 10 /Helvetica SRX
grestore

74.88 320.438 LS
76.0043 320.438 LE
187.093 320.438 LS
185.968 320.438 LE
74.88 331.31 LS
76.0043 331.31 LE
187.093 331.31 LS
185.968 331.31 LE
74.88 342.183 LS
76.0043 342.183 LE
187.093 342.183 LS
185.968 342.183 LE
74.88 353.055 LS
76.0043 353.055 LE
187.093 353.055 LS
185.968 353.055 LE
74.88 363.928 LS
76.0043 363.928 LE
187.093 363.928 LS
185.968 363.928 LE
74.88 374.801 LS
76.0043 374.801 LE
187.093 374.801 LS
185.968 374.801 LE
74.88 385.673 LS
76.0043 385.673 LE
187.093 385.673 LS
185.968 385.673 LE
gsave
0.14902 0.14902 0.14902 C
(-4e-05) [3 6 5 3 6 10] 0 40.8705 316.438 10 /Helvetica SRX
grestore

gsave
0.14902 0.14902 0.14902 C
(-2e-05) [3 6 5 3 6 10] 0 40.8705 327.31 10 /Helvetica SRX
grestore

gsave
0.14902 0.14902 0.14902 C
(0) [10] 0 63.8705 338.183 10 /Helvetica SRX
grestore

gsave
0.14902 0.14902 0.14902 C
(2e-05) [6 5 3 6 10] 0 43.8705 349.055 10 /Helvetica SRX
grestore

gsave
0.14902 0.14902 0.14902 C
(4e-05) [6 5 3 6 10] 0 43.8705 359.928 10 /Helvetica SRX
grestore

gsave
0.14902 0.14902 0.14902 C
(6e-05) [6 5 3 6 10] 0 43.8705 370.801 10 /Helvetica SRX
grestore

gsave
0.14902 0.14902 0.14902 C
(8e-05) [6 5 3 6 10] 0 43.8705 381.673 10 /Helvetica SRX
grestore

2 LC
[16 0] 0 setdash
74.88 312.427 LS
187.093 312.427 LE
74.88 385.841 LS
187.093 385.841 LE
74.88 312.427 LS
74.88 385.841 LE
187.093 312.427 LS
187.093 385.841 LE
gsave
0 0 0 C
(r_hat) [4 6 7 6 10] 0 117.486 397.841 11 /Helvetica-Bold SRX
grestore

0.9 0.9 0.9 C
74.88 312.427 74.88 342.183 80.7859 312.427 T
80.7859 363.011 80.7859 312.427 74.88 342.183 T
86.6918 312.427 80.7859 312.427 80.7859 363.011 T
86.6918 385.841 86.6918 312.427 80.7859 363.011 T
92.5978 312.427 86.6918 312.427 86.6918 385.841 T
92.5978 372.465 92.5978 312.427 86.6918 385.841 T
98.5037 312.427 92.5978 312.427 92.5978 372.465 T
98.5037 361.272 98.5037 312.427 92.5978 372.465 T
104.41 312.427 98.5037 312.427 98.5037 361.272 T
104.41 352.879 104.41 312.427 98.5037 361.272 T
110.316 312.427 104.41 312.427 104.41 352.879 T
110.316 346.511 110.316 312.427 104.41 352.879 T
116.221 312.427 110.316 312.427 110.316 346.511 T
116.221 340.9 116.221 312.427 110.316 346.511 T
122.127 312.427 116.221 312.427 116.221 340.9 T
122.127 337.889 122.127 312.427 116.221 340.9 T
128.033 312.427 122.127 312.427 122.127 337.889 T
128.033 335.956 128.033 312.427 122.127 337.889 T
133.939 312.427 128.033 312.427 128.033 335.956 T
133.939 333.999 133.939 312.427 128.033 335.956 T
139.845 312.427 133.939 312.427 133.939 333.999 T
139.845 331.905 139.845 312.427 133.939 333.999 T
145.751 312.427 139.845 312.427 139.845 331.905 T
145.751 331.311 145.751 312.427 139.845 331.905 T
151.657 312.427 145.751 312.427 145.751 331.311 T
151.657 330.562 151.657 312.427 145.751 331.311 T
157.563 312.427 151.657 312.427 151.657 330.562 T
157.563 329.907 157.563 312.427 151.657 330.562 T
163.469 312.427 157.563 312.427 157.563 329.907 T
163.469 329.795 163.469 312.427 157.563 329.907 T
169.375 312.427 163.469 312.427 163.469 329.795 T
169.375 329.416 169.375 312.427 163.469 329.795 T
175.281 312.427 169.375 312.427 169.375 329.416 T
175.281 328.347 175.281 312.427 169.375 329.416 T
181.187 312.427 175.281 312.427 175.281 328.347 T
181.187 328.252 181.187 312.427 175.281 328.347 T
187.093 312.427 181.187 312.427 181.187 328.252 T
187.093 328.267 187.093 312.427 181.187 328.252 T
0 LC
[] 0 setdash
0 0 0 C
187.093 328.267 LS
181.187 328.252 L
175.281 328.347 L
169.375 329.416 L
163.469 329.795 L
157.563 329.907 L
151.657 330.562 L
145.751 331.311 L
139.845 331.905 L
133.939 333.999 L
128.033 335.956 L
122.127 337.889 L
116.221 340.9 L
110.316 346.511 L
104.41 352.879 L
98.5037 361.272 L
92.5978 372.465 L
86.6918 385.841 L
80.7859 363.011 L
74.88 342.183 L
74.88 312.427 L
80.7859 312.427 L
86.6918 312.427 L
92.5978 312.427 L
98.5037 312.427 L
104.41 312.427 L
110.316 312.427 L
116.221 312.427 L
122.127 312.427 L
128.033 312.427 L
133.939 312.427 L
139.845 312.427 L
145.751 312.427 L
151.657 312.427 L
157.563 312.427 L
163.469 312.427 L
169.375 312.427 L
175.281 312.427 L
181.187 312.427 L
187.093 312.427 L
187.093 328.267 LE
1 1 1 C
175.281 312.427 181.187 312.701 181.187 312.427 T
187.093 312.427 181.187 312.427 181.187 312.701 T
187.093 312.921 187.093 312.427 181.187 312.701 T
74.88 312.427 74.88 342.183 80.7859 312.427 T
80.7859 347.14 80.7859 312.427 74.88 342.183 T
86.6918 312.427 80.7859 312.427 80.7859 347.14 T
86.6918 353.454 86.6918 312.427 80.7859 347.14 T
92.5978 312.427 86.6918 312.427 86.6918 353.454 T
92.5978 348.932 92.5978 312.427 86.6918 353.454 T
98.5037 312.427 92.5978 312.427 92.5978 348.932 T
98.5037 342.939 98.5037 312.427 92.5978 348.932 T
104.41 312.427 98.5037 312.427 98.5037 342.939 T
104.41 336.729 104.41 312.427 98.5037 342.939 T
110.316 312.427 104.41 312.427 104.41 336.729 T
110.316 331.134 110.316 312.427 104.41 336.729 T
116.221 312.427 110.316 312.427 110.316 331.134 T
116.221 325.788 116.221 312.427 110.316 331.134 T
122.127 312.427 116.221 312.427 116.221 325.788 T
122.127 321.719 122.127 312.427 116.221 325.788 T
128.033 312.427 122.127 312.427 122.127 321.719 T
128.033 318.688 128.033 312.427 122.127 321.719 T
133.939 312.427 128.033 312.427 128.033 318.688 T
133.939 316.427 133.939 312.427 128.033 318.688 T
139.845 312.427 133.939 312.427 133.939 316.427 T
139.845 314.15 139.845 312.427 133.939 316.427 T
145.751 312.427 139.845 312.427 139.845 314.15 T
145.751 313.783 145.751 312.427 139.845 314.15 T
151.657 312.427 145.751 312.427 145.751 313.783 T
151.657 313.322 151.657 312.427 145.751 313.783 T
157.563 312.427 151.657 312.427 151.657 313.322 T
157.563 312.964 157.563 312.427 151.657 313.322 T
163.469 312.427 157.563 312.427 157.563 312.964 T
163.469 313.338 163.469 312.427 157.563 312.964 T
169.375 312.427 163.469 312.427 163.469 313.338 T
169.375 313.037 169.375 312.427 163.469 313.338 T
175.281 312.427 169.375 312.427 169.375 313.037 T
0 0 0 C
175.281 312.427 LS
169.375 313.037 L
163.469 313.338 L
157.563 312.964 L
151.657 313.322 L
145.751 313.783 L
139.845 314.15 L
133.939 316.427 L
128.033 318.688 L
122.127 321.719 L
116.221 325.788 L
110.316 331.134 L
104.41 336.729 L
98.5037 342.939 L
92.5978 348.932 L
86.6918 353.454 L
80.7859 347.14 L
74.88 342.183 L
74.88 312.427 L
80.7859 312.427 L
86.6918 312.427 L
92.5978 312.427 L
98.5037 312.427 L
104.41 312.427 L
110.316 312.427 L
116.221 312.427 L
122.127 312.427 L
128.033 312.427 L
133.939 312.427 L
139.845 312.427 L
145.751 312.427 L
151.657 312.427 L
157.563 312.427 L
163.469 312.427 L
169.375 312.427 L
175.281 312.427 LE
187.093 312.921 LS
181.187 312.701 L
175.281 312.427 L
181.187 312.427 L
187.093 312.427 L
187.093 312.921 LE
3 W
1 LJ
74.88 342.183 LS
80.7859 355.175 L
86.6918 369.061 L
92.5978 360.808 L
98.5037 351.991 L
104.41 344.577 L
110.316 338.645 L
116.221 333.98 L
122.127 330.349 L
128.033 327.547 L
133.939 325.409 L
139.845 323.8 L
145.751 322.615 L
151.657 321.767 L
157.563 321.187 L
163.469 320.819 L
169.375 320.619 L
175.281 320.549 L
181.187 320.582 L
187.093 320.693 LE
grestore
gsave
1.0 1.0 scale
newpath 0 0 moveto 576 0 lineto 576 432 lineto 0 432 lineto
closepath clip
1 1 1 C
241.974 385.841 354.186 312.427 241.974 312.427 T
241.974 385.841 354.186 385.841 354.186 312.427 T
0.5 W
0.15 0.15 0.15 C
265.597 312.427 LS
265.597 313.556 LE
265.597 385.841 LS
265.597 384.712 LE
295.127 312.427 LS
295.127 313.556 LE
295.127 385.841 LS
295.127 384.712 LE
324.657 312.427 LS
324.657 313.556 LE
324.657 385.841 LS
324.657 384.712 LE
354.186 312.427 LS
354.186 313.556 LE
354.186 385.841 LS
354.186 384.712 LE
gsave
0.14902 0.14902 0.14902 C
(5) [10] 0 262.597 296.885 10 /Helvetica SRX
grestore

gsave
0.14902 0.14902 0.14902 C
(10) [6 10] 0 289.127 296.885 10 /Helvetica SRX
grestore

gsave
0.14902 0.14902 0.14902 C
(15) [6 10] 0 318.657 296.885 10 /Helvetica SRX
grestore

gsave
0.14902 0.14902 0.14902 C
(20) [6 10] 0 348.186 296.885 10 /Helvetica SRX
grestore

241.974 312.427 LS
243.098 312.427 LE
354.186 312.427 LS
353.062 312.427 LE
241.974 321.777 LS
243.098 321.777 LE
354.186 321.777 LS
353.062 321.777 LE
241.974 331.127 LS
243.098 331.127 LE
354.186 331.127 LS
353.062 331.127 LE
241.974 340.477 LS
243.098 340.477 LE
354.186 340.477 LS
353.062 340.477 LE
241.974 349.827 LS
243.098 349.827 LE
354.186 349.827 LS
353.062 349.827 LE
241.974 359.177 LS
243.098 359.177 LE
354.186 359.177 LS
353.062 359.177 LE
241.974 368.527 LS
243.098 368.527 LE
354.186 368.527 LS
353.062 368.527 LE
241.974 377.877 LS
243.098 377.877 LE
354.186 377.877 LS
353.062 377.877 LE
gsave
0.14902 0.14902 0.14902 C
(0) [10] 0 230.964 308.427 10 /Helvetica SRX
grestore

gsave
0.14902 0.14902 0.14902 C
(0.002) [6 3 6 6 10] 0 209.964 317.777 10 /Helvetica SRX
grestore

gsave
0.14902 0.14902 0.14902 C
(0.004) [6 3 6 6 10] 0 209.964 327.127 10 /Helvetica SRX
grestore

gsave
0.14902 0.14902 0.14902 C
(0.006) [6 3 6 6 10] 0 209.964 336.477 10 /Helvetica SRX
grestore

gsave
0.14902 0.14902 0.14902 C
(0.008) [6 3 6 6 10] 0 209.964 345.827 10 /Helvetica SRX
grestore

gsave
0.14902 0.14902 0.14902 C
(0.01) [6 3 6 10] 0 215.964 355.177 10 /Helvetica SRX
grestore

gsave
0.14902 0.14902 0.14902 C
(0.012) [6 3 6 6 10] 0 209.964 364.527 10 /Helvetica SRX
grestore

gsave
0.14902 0.14902 0.14902 C
(0.014) [6 3 6 6 10] 0 209.964 373.877 10 /Helvetica SRX
grestore

2 LC
[16 0] 0 setdash
241.974 312.427 LS
354.186 312.427 LE
241.974 385.841 LS
354.186 385.841 LE
241.974 312.427 LS
241.974 385.841 LE
354.186 312.427 LS
354.186 385.841 LE
gsave
0 0 0 C
(A_N_hat) [8 6 8 6 7 6 10] 0 275.58 397.841 11 /Helvetica-Bold SRX
grestore

0.9 0.9 0.9 C
241.974 312.427 241.974 312.427 247.88 312.427 T
247.88 312.427 247.88 312.427 241.974 312.427 T
253.786 312.427 247.88 312.427 247.88 312.427 T
253.786 385.841 253.786 312.427 247.88 312.427 T
259.691 312.427 253.786 312.427 253.786 385.841 T
259.691 376.789 259.691 312.427 253.786 385.841 T
265.597 312.427 259.691 312.427 259.691 376.789 T
265.597 368.228 265.597 312.427 259.691 376.789 T
271.503 312.427 265.597 312.427 265.597 368.228 T
271.503 361.902 271.503 312.427 265.597 368.228 T
277.409 312.427 271.503 312.427 271.503 361.902 T
277.409 355.497 277.409 312.427 271.503 361.902 T
283.315 312.427 277.409 312.427 277.409 355.497 T
283.315 350.621 283.315 312.427 277.409 355.497 T
289.221 312.427 283.315 312.427 283.315 350.621 T
289.221 346.291 289.221 312.427 283.315 350.621 T
295.127 312.427 289.221 312.427 289.221 346.291 T
295.127 342.982 295.127 312.427 289.221 346.291 T
301.033 312.427 295.127 312.427 295.127 342.982 T
301.033 339.57 301.033 312.427 295.127 342.982 T
306.939 312.427 301.033 312.427 301.033 339.57 T
306.939 336.274 306.939 312.427 301.033 339.57 T
312.845 312.427 306.939 312.427 306.939 336.274 T
312.845 333.833 312.845 312.427 306.939 336.274 T
318.751 312.427 312.845 312.427 312.845 333.833 T
318.751 331.338 318.751 312.427 312.845 333.833 T
324.657 312.427 318.751 312.427 318.751 331.338 T
324.657 329.279 324.657 312.427 318.751 331.338 T
330.563 312.427 324.657 312.427 324.657 329.279 T
330.563 327.109 330.563 312.427 324.657 329.279 T
336.469 312.427 330.563 312.427 330.563 327.109 T
336.469 325.491 336.469 312.427 330.563 327.109 T
342.374 312.427 336.469 312.427 336.469 325.491 T
342.374 324.154 342.374 312.427 336.469 325.491 T
348.28 312.427 342.374 312.427 342.374 324.154 T
348.28 322.85 348.28 312.427 342.374 324.154 T
354.186 312.427 348.28 312.427 348.28 322.85 T
354.186 321.73 354.186 312.427 348.28 322.85 T
0 LC
[] 0 setdash
0 0 0 C
354.186 321.73 LS
348.28 322.85 L
342.374 324.154 L
336.469 325.491 L
330.563 327.109 L
324.657 329.279 L
318.751 331.338 L
312.845 333.833 L
306.939 336.274 L
301.033 339.57 L
295.127 342.982 L
289.221 346.291 L
283.315 350.621 L
277.409 355.497 L
271.503 361.902 L
265.597 368.228 L
259.691 376.789 L
253.786 385.841 L
247.88 312.427 L
241.974 312.427 L
241.974 312.427 L
247.88 312.427 L
253.786 312.427 L
259.691 312.427 L
265.597 312.427 L
271.503 312.427 L
277.409 312.427 L
283.315 312.427 L
289.221 312.427 L
295.127 312.427 L
301.033 312.427 L
306.939 312.427 L
312.845 312.427 L
318.751 312.427 L
324.657 312.427 L
330.563 312.427 L
336.469 312.427 L
342.374 312.427 L
348.28 312.427 L
354.186 312.427 L
354.186 321.73 LE
1 1 1 C
247.88 312.427 253.786 349.641 253.786 312.427 T
259.691 312.427 253.786 312.427 253.786 349.641 T
259.691 344.959 259.691 312.427 253.786 349.641 T
265.597 312.427 259.691 312.427 259.691 344.959 T
265.597 340.256 265.597 312.427 259.691 344.959 T
271.503 312.427 265.597 312.427 265.597 340.256 T
271.503 336.972 271.503 312.427 265.597 340.256 T
277.409 312.427 271.503 312.427 271.503 336.972 T
277.409 332.522 277.409 312.427 271.503 336.972 T
283.315 312.427 277.409 312.427 277.409 332.522 T
283.315 329.59 283.315 312.427 277.409 332.522 T
289.221 312.427 283.315 312.427 283.315 329.59 T
289.221 326.654 289.221 312.427 283.315 329.59 T
295.127 312.427 289.221 312.427 289.221 326.654 T
295.127 324.941 295.127 312.427 289.221 326.654 T
301.033 312.427 295.127 312.427 295.127 324.941 T
301.033 322.966 301.033 312.427 295.127 324.941 T
306.939 312.427 301.033 312.427 301.033 322.966 T
306.939 320.961 306.939 312.427 301.033 322.966 T
312.845 312.427 306.939 312.427 306.939 320.961 T
312.845 319.752 312.845 312.427 306.939 320.961 T
318.751 312.427 312.845 312.427 312.845 319.752 T
318.751 318.465 318.751 312.427 312.845 319.752 T
324.657 312.427 318.751 312.427 318.751 318.465 T
324.657 317.374 324.657 312.427 318.751 318.465 T
330.563 312.427 324.657 312.427 324.657 317.374 T
330.563 316.237 330.563 312.427 324.657 317.374 T
336.469 312.427 330.563 312.427 330.563 316.237 T
336.469 315.56 336.469 312.427 330.563 316.237 T
342.374 312.427 336.469 312.427 336.469 315.56 T
342.374 315.076 342.374 312.427 336.469 315.56 T
348.28 312.427 342.374 312.427 342.374 315.076 T
348.28 314.644 348.28 312.427 342.374 315.076 T
354.186 312.427 348.28 312.427 348.28 314.644 T
354.186 314.267 354.186 312.427 348.28 314.644 T
241.974 312.427 241.974 312.427 247.88 312.427 T
0 0 0 C
247.88 312.427 LS
241.974 312.427 L
241.974 312.427 L
247.88 312.427 LE
354.186 314.267 LS
348.28 314.644 L
342.374 315.076 L
336.469 315.56 L
330.563 316.237 L
324.657 317.374 L
318.751 318.465 L
312.845 319.752 L
306.939 320.961 L
301.033 322.966 L
295.127 324.941 L
289.221 326.654 L
283.315 329.59 L
277.409 332.522 L
271.503 336.972 L
265.597 340.256 L
259.691 344.959 L
253.786 349.641 L
247.88 312.427 L
253.786 312.427 L
259.691 312.427 L
265.597 312.427 L
271.503 312.427 L
277.409 312.427 L
283.315 312.427 L
289.221 312.427 L
295.127 312.427 L
301.033 312.427 L
306.939 312.427 L
312.845 312.427 L
318.751 312.427 L
324.657 312.427 L
330.563 312.427 L
336.469 312.427 L
342.374 312.427 L
348.28 312.427 L
354.186 312.427 L
354.186 314.267 LE
3 W
1 LJ
241.974 312.427 LS
247.88 312.427 L
253.786 367.218 L
259.691 360.135 L
265.597 354.003 L
271.503 348.689 L
277.409 344.077 L
283.315 340.072 L
289.221 336.589 L
295.127 333.559 L
301.033 330.919 L
306.939 328.619 L
312.845 326.612 L
318.751 324.86 L
324.657 323.33 L
330.563 321.992 L
336.469 320.823 L
342.374 319.799 L
348.28 318.903 L
354.186 318.118 LE
grestore
gsave
1.0 1.0 scale
newpath 0 0 moveto 576 0 lineto 576 432 lineto 0 432 lineto
closepath clip
1 1 1 C
409.067 385.841 521.28 312.427 409.067 312.427 T
409.067 385.841 521.28 385.841 521.28 312.427 T
0.5 W
0.15 0.15 0.15 C
432.691 312.427 LS
432.691 313.556 LE
432.691 385.841 LS
432.691 384.712 LE
462.221 312.427 LS
462.221 313.556 LE
462.221 385.841 LS
462.221 384.712 LE
491.75 312.427 LS
491.75 313.556 LE
491.75 385.841 LS
491.75 384.712 LE
521.28 312.427 LS
521.28 313.556 LE
521.28 385.841 LS
521.28 384.712 LE
gsave
0.14902 0.14902 0.14902 C
(5) [10] 0 429.691 296.885 10 /Helvetica SRX
grestore

gsave
0.14902 0.14902 0.14902 C
(10) [6 10] 0 456.221 296.885 10 /Helvetica SRX
grestore

gsave
0.14902 0.14902 0.14902 C
(15) [6 10] 0 485.75 296.885 10 /Helvetica SRX
grestore

gsave
0.14902 0.14902 0.14902 C
(20) [6 10] 0 515.28 296.885 10 /Helvetica SRX
grestore

409.067 326.151 LS
410.192 326.151 LE
521.28 326.151 LS
520.156 326.151 LE
409.067 341.333 LS
410.192 341.333 LE
521.28 341.333 LS
520.156 341.333 LE
409.067 356.515 LS
410.192 356.515 LE
521.28 356.515 LS
520.156 356.515 LE
409.067 371.697 LS
410.192 371.697 LE
521.28 371.697 LS
520.156 371.697 LE
gsave
0.14902 0.14902 0.14902 C
(-0.002) [3 6 3 6 6 10] 0 374.058 322.151 10 /Helvetica SRX
grestore

gsave
0.14902 0.14902 0.14902 C
(0) [10] 0 398.058 337.333 10 /Helvetica SRX
grestore

gsave
0.14902 0.14902 0.14902 C
(0.002) [6 3 6 6 10] 0 377.058 352.515 10 /Helvetica SRX
grestore

gsave
0.14902 0.14902 0.14902 C
(0.004) [6 3 6 6 10] 0 377.058 367.697 10 /Helvetica SRX
grestore

2 LC
[16 0] 0 setdash
409.067 312.427 LS
521.28 312.427 LE
409.067 385.841 LS
521.28 385.841 LE
409.067 312.427 LS
409.067 385.841 LE
521.28 312.427 LS
521.28 385.841 LE
gsave
0 0 0 C
(Y_hat) [7 6 7 6 10] 0 450.174 397.841 11 /Helvetica-Bold SRX
grestore

0.9 0.9 0.9 C
409.067 312.427 409.067 359.932 414.973 312.427 T
414.973 385.841 414.973 312.427 409.067 359.932 T
420.879 312.427 414.973 312.427 414.973 385.841 T
420.879 337.706 420.879 312.427 414.973 385.841 T
426.785 312.427 420.879 312.427 420.879 337.706 T
426.785 355.377 426.785 312.427 420.879 337.706 T
432.691 312.427 426.785 312.427 426.785 355.377 T
432.691 360.792 432.691 312.427 426.785 355.377 T
438.597 312.427 432.691 312.427 432.691 360.792 T
438.597 363.888 438.597 312.427 432.691 360.792 T
444.503 312.427 438.597 312.427 438.597 363.888 T
444.503 365.646 444.503 312.427 438.597 363.888 T
450.409 312.427 444.503 312.427 444.503 365.646 T
450.409 366.118 450.409 312.427 444.503 365.646 T
456.315 312.427 450.409 312.427 450.409 366.118 T
456.315 366.37 456.315 312.427 450.409 366.118 T
462.221 312.427 456.315 312.427 456.315 366.37 T
462.221 366.194 462.221 312.427 456.315 366.37 T
468.127 312.427 462.221 312.427 462.221 366.194 T
468.127 366.149 468.127 312.427 462.221 366.194 T
474.033 312.427 468.127 312.427 468.127 366.149 T
474.033 365.822 474.033 312.427 468.127 366.149 T
479.939 312.427 474.033 312.427 474.033 365.822 T
479.939 365.39 479.939 312.427 474.033 365.822 T
485.844 312.427 479.939 312.427 479.939 365.39 T
485.844 364.63 485.844 312.427 479.939 365.39 T
491.75 312.427 485.844 312.427 485.844 364.63 T
491.75 364.394 491.75 312.427 485.844 364.63 T
497.656 312.427 491.75 312.427 491.75 364.394 T
497.656 363.903 497.656 312.427 491.75 364.394 T
503.562 312.427 497.656 312.427 497.656 363.903 T
503.562 363.545 503.562 312.427 497.656 363.903 T
509.468 312.427 503.562 312.427 503.562 363.545 T
509.468 363.236 509.468 312.427 503.562 363.545 T
515.374 312.427 509.468 312.427 509.468 363.236 T
515.374 362.886 515.374 312.427 509.468 363.236 T
521.28 312.427 515.374 312.427 515.374 362.886 T
521.28 362.615 521.28 312.427 515.374 362.886 T
0 LC
[] 0 setdash
0 0 0 C
521.28 362.615 LS
515.374 362.886 L
509.468 363.236 L
503.562 363.545 L
497.656 363.903 L
491.75 364.394 L
485.844 364.63 L
479.939 365.39 L
474.033 365.822 L
468.127 366.149 L
462.221 366.194 L
456.315 366.37 L
450.409 366.118 L
444.503 365.646 L
438.597 363.888 L
432.691 360.792 L
426.785 355.377 L
420.879 337.706 L
414.973 385.841 L
409.067 359.932 L
409.067 312.427 L
414.973 312.427 L
420.879 312.427 L
426.785 312.427 L
432.691 312.427 L
438.597 312.427 L
444.503 312.427 L
450.409 312.427 L
456.315 312.427 L
462.221 312.427 L
468.127 312.427 L
474.033 312.427 L
479.939 312.427 L
485.844 312.427 L
491.75 312.427 L
497.656 312.427 L
503.562 312.427 L
509.468 312.427 L
515.374 312.427 L
521.28 312.427 L
521.28 362.615 LE
1 1 1 C
420.879 312.427 426.785 341.802 426.785 312.427 T
432.691 312.427 426.785 312.427 426.785 341.802 T
432.691 349.131 432.691 312.427 426.785 341.802 T
438.597 312.427 432.691 312.427 432.691 349.131 T
438.597 352.05 438.597 312.427 432.691 349.131 T
444.503 312.427 438.597 312.427 438.597 352.05 T
444.503 353.024 444.503 312.427 438.597 352.05 T
450.409 312.427 444.503 312.427 444.503 353.024 T
450.409 353.271 450.409 312.427 444.503 353.024 T
456.315 312.427 450.409 312.427 450.409 353.271 T
456.315 353.268 456.315 312.427 450.409 353.271 T
462.221 312.427 456.315 312.427 456.315 353.268 T
462.221 353.027 462.221 312.427 456.315 353.268 T
468.127 312.427 462.221 312.427 462.221 353.027 T
468.127 352.958 468.127 312.427 462.221 353.027 T
474.033 312.427 468.127 312.427 468.127 352.958 T
474.033 352.577 474.033 312.427 468.127 352.958 T
479.939 312.427 474.033 312.427 474.033 352.577 T
479.939 352.156 479.939 312.427 474.033 352.577 T
485.844 312.427 479.939 312.427 479.939 352.156 T
485.844 351.542 485.844 312.427 479.939 352.156 T
491.75 312.427 485.844 312.427 485.844 351.542 T
491.75 351.407 491.75 312.427 485.844 351.542 T
497.656 312.427 491.75 312.427 491.75 351.407 T
497.656 351.087 497.656 312.427 491.75 351.407 T
503.562 312.427 497.656 312.427 497.656 351.087 T
503.562 350.945 503.562 312.427 497.656 351.087 T
509.468 312.427 503.562 312.427 503.562 350.945 T
509.468 350.707 509.468 312.427 503.562 350.945 T
515.374 312.427 509.468 312.427 509.468 350.707 T
515.374 350.492 515.374 312.427 509.468 350.707 T
521.28 312.427 515.374 312.427 515.374 350.492 T
521.28 350.426 521.28 312.427 515.374 350.492 T
409.067 312.427 409.067 347.504 414.973 312.427 T
414.973 358.682 414.973 312.427 409.067 347.504 T
420.879 312.427 414.973 312.427 414.973 358.682 T
0 0 0 C
420.879 312.427 LS
414.973 358.682 L
409.067 347.504 L
409.067 312.427 L
414.973 312.427 L
420.879 312.427 LE
521.28 350.426 LS
515.374 350.492 L
509.468 350.707 L
503.562 350.945 L
497.656 351.087 L
491.75 351.407 L
485.844 351.542 L
479.939 352.156 L
474.033 352.577 L
468.127 352.958 L
462.221 353.027 L
456.315 353.268 L
450.409 353.271 L
444.503 353.024 L
438.597 352.05 L
432.691 349.131 L
426.785 341.802 L
420.879 312.427 L
426.785 312.427 L
432.691 312.427 L
438.597 312.427 L
444.503 312.427 L
450.409 312.427 L
456.315 312.427 L
462.221 312.427 L
468.127 312.427 L
474.033 312.427 L
479.939 312.427 L
485.844 312.427 L
491.75 312.427 L
497.656 312.427 L
503.562 312.427 L
509.468 312.427 L
515.374 312.427 L
521.28 312.427 L
521.28 350.426 LE
3 W
1 LJ
409.067 353.773 LS
414.973 374.476 L
420.879 324.831 L
426.785 348.121 L
432.691 354.892 L
438.597 357.619 L
444.503 358.822 L
450.409 359.316 L
456.315 359.44 L
462.221 359.359 L
468.127 359.161 L
474.033 358.897 L
479.939 358.598 L
485.844 358.283 L
491.75 357.963 L
497.656 357.645 L
503.562 357.333 L
509.468 357.032 L
515.374 356.741 L
521.28 356.461 LE
grestore
gsave
1.0 1.0 scale
newpath 0 0 moveto 576 0 lineto 576 432 lineto 0 432 lineto
closepath clip
1 1 1 C
74.88 253.387 187.093 179.974 74.88 179.974 T
74.88 253.387 187.093 253.387 187.093 179.974 T
0.5 W
0.15 0.15 0.15 C
98.5037 179.974 LS
98.5037 181.102 LE
98.5037 253.387 LS
98.5037 252.258 LE
128.033 179.974 LS
128.033 181.102 LE
128.033 253.387 LS
128.033 252.258 LE
157.563 179.974 LS
157.563 181.102 LE
157.563 253.387 LS
157.563 252.258 LE
187.093 179.974 LS
187.093 181.102 LE
187.093 253.387 LS
187.093 252.258 LE
gsave
0.14902 0.14902 0.14902 C
(5) [10] 0 95.5037 164.431 10 /Helvetica SRX
grestore

gsave
0.14902 0.14902 0.14902 C
(10) [6 10] 0 122.033 164.431 10 /Helvetica SRX
grestore

gsave
0.14902 0.14902 0.14902 C
(15) [6 10] 0 151.563 164.431 10 /Helvetica SRX
grestore

gsave
0.14902 0.14902 0.14902 C
(20) [6 10] 0 181.093 164.431 10 /Helvetica SRX
grestore

74.88 188.181 LS
76.0043 188.181 LE
187.093 188.181 LS
185.968 188.181 LE
74.88 201.303 LS
76.0043 201.303 LE
187.093 201.303 LS
185.968 201.303 LE
74.88 214.425 LS
76.0043 214.425 LE
187.093 214.425 LS
185.968 214.425 LE
74.88 227.547 LS
76.0043 227.547 LE
187.093 227.547 LS
185.968 227.547 LE
74.88 240.669 LS
76.0043 240.669 LE
187.093 240.669 LS
185.968 240.669 LE
gsave
0.14902 0.14902 0.14902 C
(0.002) [6 3 6 6 10] 0 42.8705 184.181 10 /Helvetica SRX
grestore

gsave
0.14902 0.14902 0.14902 C
(0.004) [6 3 6 6 10] 0 42.8705 197.303 10 /Helvetica SRX
grestore

gsave
0.14902 0.14902 0.14902 C
(0.006) [6 3 6 6 10] 0 42.8705 210.425 10 /Helvetica SRX
grestore

gsave
0.14902 0.14902 0.14902 C
(0.008) [6 3 6 6 10] 0 42.8705 223.547 10 /Helvetica SRX
grestore

gsave
0.14902 0.14902 0.14902 C
(0.01) [6 3 6 10] 0 48.8705 236.669 10 /Helvetica SRX
grestore

2 LC
[16 0] 0 setdash
74.88 179.974 LS
187.093 179.974 LE
74.88 253.387 LS
187.093 253.387 LE
74.88 179.974 LS
74.88 253.387 LE
187.093 179.974 LS
187.093 253.387 LE
gsave
0 0 0 C
(C_hat) [8 6 7 6 10] 0 115.486 265.387 11 /Helvetica-Bold SRX
grestore

0.9 0.9 0.9 C
74.88 179.974 74.88 186.683 80.7859 179.974 T
80.7859 200.175 80.7859 179.974 74.88 186.683 T
86.6918 179.974 80.7859 179.974 80.7859 200.175 T
86.6918 250.239 86.6918 179.974 80.7859 200.175 T
92.5978 179.974 86.6918 179.974 86.6918 250.239 T
92.5978 253.387 92.5978 179.974 86.6918 250.239 T
98.5037 179.974 92.5978 179.974 92.5978 253.387 T
98.5037 250.433 98.5037 179.974 92.5978 253.387 T
104.41 179.974 98.5037 179.974 98.5037 250.433 T
104.41 244.955 104.41 179.974 98.5037 250.433 T
110.316 179.974 104.41 179.974 104.41 244.955 T
110.316 239.695 110.316 179.974 104.41 244.955 T
116.221 179.974 110.316 179.974 110.316 239.695 T
116.221 233.66 116.221 179.974 110.316 239.695 T
122.127 179.974 116.221 179.974 116.221 233.66 T
122.127 228.975 122.127 179.974 116.221 233.66 T
128.033 179.974 122.127 179.974 122.127 228.975 T
128.033 224.813 128.033 179.974 122.127 228.975 T
133.939 179.974 128.033 179.974 128.033 224.813 T
133.939 222.121 133.939 179.974 128.033 224.813 T
139.845 179.974 133.939 179.974 133.939 222.121 T
139.845 218.418 139.845 179.974 133.939 222.121 T
145.751 179.974 139.845 179.974 139.845 218.418 T
145.751 215.267 145.751 179.974 139.845 218.418 T
151.657 179.974 145.751 179.974 145.751 215.267 T
151.657 211.503 151.657 179.974 145.751 215.267 T
157.563 179.974 151.657 179.974 151.657 211.503 T
157.563 208.954 157.563 179.974 151.657 211.503 T
163.469 179.974 157.563 179.974 157.563 208.954 T
163.469 206.922 163.469 179.974 157.563 208.954 T
169.375 179.974 163.469 179.974 163.469 206.922 T
169.375 205.015 169.375 179.974 163.469 206.922 T
175.281 179.974 169.375 179.974 169.375 205.015 T
175.281 203.066 175.281 179.974 169.375 205.015 T
181.187 179.974 175.281 179.974 175.281 203.066 T
181.187 201.472 181.187 179.974 175.281 203.066 T
187.093 179.974 181.187 179.974 181.187 201.472 T
187.093 199.591 187.093 179.974 181.187 201.472 T
0 LC
[] 0 setdash
0 0 0 C
187.093 199.591 LS
181.187 201.472 L
175.281 203.066 L
169.375 205.015 L
163.469 206.922 L
157.563 208.954 L
151.657 211.503 L
145.751 215.267 L
139.845 218.418 L
133.939 222.121 L
128.033 224.813 L
122.127 228.975 L
116.221 233.66 L
110.316 239.695 L
104.41 244.955 L
98.5037 250.433 L
92.5978 253.387 L
86.6918 250.239 L
80.7859 200.175 L
74.88 186.683 L
74.88 179.974 L
80.7859 179.974 L
86.6918 179.974 L
92.5978 179.974 L
98.5037 179.974 L
104.41 179.974 L
110.316 179.974 L
116.221 179.974 L
122.127 179.974 L
128.033 179.974 L
133.939 179.974 L
139.845 179.974 L
145.751 179.974 L
151.657 179.974 L
157.563 179.974 L
163.469 179.974 L
169.375 179.974 L
175.281 179.974 L
181.187 179.974 L
187.093 179.974 L
187.093 199.591 LE
1 1 1 C
74.88 179.974 80.7859 186.153 80.7859 179.974 T
86.6918 179.974 80.7859 179.974 80.7859 186.153 T
86.6918 212.385 86.6918 179.974 80.7859 186.153 T
92.5978 179.974 86.6918 179.974 86.6918 212.385 T
92.5978 214.688 92.5978 179.974 86.6918 212.385 T
98.5037 179.974 92.5978 179.974 92.5978 214.688 T
98.5037 212.925 98.5037 179.974 92.5978 214.688 T
104.41 179.974 98.5037 179.974 98.5037 212.925 T
104.41 209.686 104.41 179.974 98.5037 212.925 T
110.316 179.974 104.41 179.974 104.41 209.686 T
110.316 206.125 110.316 179.974 104.41 209.686 T
116.221 179.974 110.316 179.974 110.316 206.125 T
116.221 202.023 116.221 179.974 110.316 206.125 T
122.127 179.974 116.221 179.974 116.221 202.023 T
122.127 198.937 122.127 179.974 116.221 202.023 T
128.033 179.974 122.127 179.974 122.127 198.937 T
128.033 196.161 128.033 179.974 122.127 198.937 T
133.939 179.974 128.033 179.974 128.033 196.161 T
133.939 195.092 133.939 179.974 128.033 196.161 T
139.845 179.974 133.939 179.974 133.939 195.092 T
139.845 193.015 139.845 179.974 133.939 195.092 T
145.751 179.974 139.845 179.974 139.845 193.015 T
145.751 191.209 145.751 179.974 139.845 193.015 T
151.657 179.974 145.751 179.974 145.751 191.209 T
151.657 188.823 151.657 179.974 145.751 191.209 T
157.563 179.974 151.657 179.974 151.657 188.823 T
157.563 187.53 157.563 179.974 151.657 188.823 T
163.469 179.974 157.563 179.974 157.563 187.53 T
163.469 186.651 163.469 179.974 157.563 187.53 T
169.375 179.974 163.469 179.974 163.469 186.651 T
169.375 185.871 169.375 179.974 163.469 186.651 T
175.281 179.974 169.375 179.974 169.375 185.871 T
175.281 184.947 175.281 179.974 169.375 185.871 T
181.187 179.974 175.281 179.974 175.281 184.947 T
181.187 184.304 181.187 179.974 175.281 184.947 T
187.093 179.974 181.187 179.974 181.187 184.304 T
187.093 183.323 187.093 179.974 181.187 184.304 T
0 0 0 C
187.093 183.323 LS
181.187 184.304 L
175.281 184.947 L
169.375 185.871 L
163.469 186.651 L
157.563 187.53 L
151.657 188.823 L
145.751 191.209 L
139.845 193.015 L
133.939 195.092 L
128.033 196.161 L
122.127 198.937 L
116.221 202.023 L
110.316 206.125 L
104.41 209.686 L
98.5037 212.925 L
92.5978 214.688 L
86.6918 212.385 L
80.7859 186.153 L
74.88 179.974 L
80.7859 179.974 L
86.6918 179.974 L
92.5978 179.974 L
98.5037 179.974 L
104.41 179.974 L
110.316 179.974 L
116.221 179.974 L
122.127 179.974 L
128.033 179.974 L
133.939 179.974 L
139.845 179.974 L
145.751 179.974 L
151.657 179.974 L
157.563 179.974 L
163.469 179.974 L
169.375 179.974 L
175.281 179.974 L
181.187 179.974 L
187.093 179.974 L
187.093 183.323 LE
3 W
1 LJ
74.88 183.488 LS
80.7859 193.4 L
86.6918 231.73 L
92.5978 233.365 L
98.5037 230.311 L
104.41 226.183 L
110.316 221.881 L
116.221 217.755 L
122.127 213.946 L
128.033 210.503 L
133.939 207.425 L
139.845 204.692 L
145.751 202.277 L
151.657 200.147 L
157.563 198.271 L
163.469 196.62 L
169.375 195.167 L
175.281 193.888 L
181.187 192.762 L
187.093 191.77 LE
grestore
gsave
1.0 1.0 scale
newpath 0 0 moveto 576 0 lineto 576 432 lineto 0 432 lineto
closepath clip
1 1 1 C
241.974 253.387 354.186 179.974 241.974 179.974 T
241.974 253.387 354.186 253.387 354.186 179.974 T
0.5 W
0.15 0.15 0.15 C
265.597 179.974 LS
265.597 181.102 LE
265.597 253.387 LS
265.597 252.258 LE
295.127 179.974 LS
295.127 181.102 LE
295.127 253.387 LS
295.127 252.258 LE
324.657 179.974 LS
324.657 181.102 LE
324.657 253.387 LS
324.657 252.258 LE
354.186 179.974 LS
354.186 181.102 LE
354.186 253.387 LS
354.186 252.258 LE
gsave
0.14902 0.14902 0.14902 C
(5) [10] 0 262.597 164.431 10 /Helvetica SRX
grestore

gsave
0.14902 0.14902 0.14902 C
(10) [6 10] 0 289.127 164.431 10 /Helvetica SRX
grestore

gsave
0.14902 0.14902 0.14902 C
(15) [6 10] 0 318.657 164.431 10 /Helvetica SRX
grestore

gsave
0.14902 0.14902 0.14902 C
(20) [6 10] 0 348.186 164.431 10 /Helvetica SRX
grestore

241.974 181.311 LS
243.098 181.311 LE
354.186 181.311 LS
353.062 181.311 LE
241.974 196.293 LS
243.098 196.293 LE
354.186 196.293 LS
353.062 196.293 LE
241.974 211.275 LS
243.098 211.275 LE
354.186 211.275 LS
353.062 211.275 LE
241.974 226.256 LS
243.098 226.256 LE
354.186 226.256 LS
353.062 226.256 LE
241.974 241.238 LS
243.098 241.238 LE
354.186 241.238 LS
353.062 241.238 LE
gsave
0.14902 0.14902 0.14902 C
(0.002) [6 3 6 6 10] 0 209.964 177.311 10 /Helvetica SRX
grestore

gsave
0.14902 0.14902 0.14902 C
(0.004) [6 3 6 6 10] 0 209.964 192.293 10 /Helvetica SRX
grestore

gsave
0.14902 0.14902 0.14902 C
(0.006) [6 3 6 6 10] 0 209.964 207.275 10 /Helvetica SRX
grestore

gsave
0.14902 0.14902 0.14902 C
(0.008) [6 3 6 6 10] 0 209.964 222.256 10 /Helvetica SRX
grestore

gsave
0.14902 0.14902 0.14902 C
(0.01) [6 3 6 10] 0 215.964 237.238 10 /Helvetica SRX
grestore

2 LC
[16 0] 0 setdash
241.974 179.974 LS
354.186 179.974 LE
241.974 253.387 LS
354.186 253.387 LE
241.974 179.974 LS
241.974 253.387 LE
354.186 179.974 LS
354.186 253.387 LE
gsave
0 0 0 C
(I_hat) [3 6 7 6 10] 0 285.08 265.387 11 /Helvetica-Bold SRX
grestore

0.9 0.9 0.9 C
241.974 179.974 241.974 253.387 247.88 179.974 T
247.88 247.737 247.88 179.974 241.974 253.387 T
253.786 179.974 247.88 179.974 247.88 247.737 T
253.786 249.2 253.786 179.974 247.88 247.737 T
259.691 179.974 253.786 179.974 253.786 249.2 T
259.691 246.456 259.691 179.974 253.786 249.2 T
265.597 179.974 259.691 179.974 259.691 246.456 T
265.597 242.849 265.597 179.974 259.691 246.456 T
271.503 179.974 265.597 179.974 265.597 242.849 T
271.503 240.089 271.503 179.974 265.597 242.849 T
277.409 179.974 271.503 179.974 271.503 240.089 T
277.409 236.833 277.409 179.974 271.503 240.089 T
283.315 179.974 277.409 179.974 277.409 236.833 T
283.315 233.032 283.315 179.974 277.409 236.833 T
289.221 179.974 283.315 179.974 283.315 233.032 T
289.221 229.73 289.221 179.974 283.315 233.032 T
295.127 179.974 289.221 179.974 289.221 229.73 T
295.127 226.47 295.127 179.974 289.221 229.73 T
301.033 179.974 295.127 179.974 295.127 226.47 T
301.033 223.147 301.033 179.974 295.127 226.47 T
306.939 179.974 301.033 179.974 301.033 223.147 T
306.939 220.058 306.939 179.974 301.033 223.147 T
312.845 179.974 306.939 179.974 306.939 220.058 T
312.845 215.762 312.845 179.974 306.939 220.058 T
318.751 179.974 312.845 179.974 312.845 215.762 T
318.751 213.365 318.751 179.974 312.845 215.762 T
324.657 179.974 318.751 179.974 318.751 213.365 T
324.657 210.882 324.657 179.974 318.751 213.365 T
330.563 179.974 324.657 179.974 324.657 210.882 T
330.563 208.183 330.563 179.974 324.657 210.882 T
336.469 179.974 330.563 179.974 330.563 208.183 T
336.469 205.822 336.469 179.974 330.563 208.183 T
342.374 179.974 336.469 179.974 336.469 205.822 T
342.374 203.925 342.374 179.974 336.469 205.822 T
348.28 179.974 342.374 179.974 342.374 203.925 T
348.28 202.08 348.28 179.974 342.374 203.925 T
354.186 179.974 348.28 179.974 348.28 202.08 T
354.186 200.363 354.186 179.974 348.28 202.08 T
0 LC
[] 0 setdash
0 0 0 C
354.186 200.363 LS
348.28 202.08 L
342.374 203.925 L
336.469 205.822 L
330.563 208.183 L
324.657 210.882 L
318.751 213.365 L
312.845 215.762 L
306.939 220.058 L
301.033 223.147 L
295.127 226.47 L
289.221 229.73 L
283.315 233.032 L
277.409 236.833 L
271.503 240.089 L
265.597 242.849 L
259.691 246.456 L
253.786 249.2 L
247.88 247.737 L
241.974 253.387 L
241.974 179.974 L
247.88 179.974 L
253.786 179.974 L
259.691 179.974 L
265.597 179.974 L
271.503 179.974 L
277.409 179.974 L
283.315 179.974 L
289.221 179.974 L
295.127 179.974 L
301.033 179.974 L
306.939 179.974 L
312.845 179.974 L
318.751 179.974 L
324.657 179.974 L
330.563 179.974 L
336.469 179.974 L
342.374 179.974 L
348.28 179.974 L
354.186 179.974 L
354.186 200.363 LE
1 1 1 C
241.974 179.974 241.974 209.914 247.88 179.974 T
247.88 206.241 247.88 179.974 241.974 209.914 T
253.786 179.974 247.88 179.974 247.88 206.241 T
253.786 207.783 253.786 179.974 247.88 206.241 T
259.691 179.974 253.786 179.974 253.786 207.783 T
259.691 205.882 259.691 179.974 253.786 207.783 T
265.597 179.974 259.691 179.974 259.691 205.882 T
265.597 203.545 265.597 179.974 259.691 205.882 T
271.503 179.974 265.597 179.974 265.597 203.545 T
271.503 202.382 271.503 179.974 265.597 203.545 T
277.409 179.974 271.503 179.974 271.503 202.382 T
277.409 200.597 277.409 179.974 271.503 202.382 T
283.315 179.974 277.409 179.974 277.409 200.597 T
283.315 198.187 283.315 179.974 277.409 200.597 T
289.221 179.974 283.315 179.974 283.315 198.187 T
289.221 196.45 289.221 179.974 283.315 198.187 T
295.127 179.974 289.221 179.974 289.221 196.45 T
295.127 194.805 295.127 179.974 289.221 196.45 T
301.033 179.974 295.127 179.974 295.127 194.805 T
301.033 192.784 301.033 179.974 295.127 194.805 T
306.939 179.974 301.033 179.974 301.033 192.784 T
306.939 190.831 306.939 179.974 301.033 192.784 T
312.845 179.974 306.939 179.974 306.939 190.831 T
312.845 187.709 312.845 179.974 306.939 190.831 T
318.751 179.974 312.845 179.974 312.845 187.709 T
318.751 186.616 318.751 179.974 312.845 187.709 T
324.657 179.974 318.751 179.974 318.751 186.616 T
324.657 185.336 324.657 179.974 318.751 186.616 T
330.563 179.974 324.657 179.974 324.657 185.336 T
330.563 183.773 330.563 179.974 324.657 185.336 T
336.469 179.974 330.563 179.974 330.563 183.773 T
336.469 182.557 336.469 179.974 330.563 183.773 T
342.374 179.974 336.469 179.974 336.469 182.557 T
342.374 181.693 342.374 179.974 336.469 182.557 T
348.28 179.974 342.374 179.974 342.374 181.693 T
348.28 180.823 348.28 179.974 342.374 181.693 T
354.186 179.974 348.28 179.974 348.28 180.823 T
0 0 0 C
354.186 179.974 LS
348.28 180.823 L
342.374 181.693 L
336.469 182.557 L
330.563 183.773 L
324.657 185.336 L
318.751 186.616 L
312.845 187.709 L
306.939 190.831 L
301.033 192.784 L
295.127 194.805 L
289.221 196.45 L
283.315 198.187 L
277.409 200.597 L
271.503 202.382 L
265.597 203.545 L
259.691 205.882 L
253.786 207.783 L
247.88 206.241 L
241.974 209.914 L
241.974 179.974 L
247.88 179.974 L
253.786 179.974 L
259.691 179.974 L
265.597 179.974 L
271.503 179.974 L
277.409 179.974 L
283.315 179.974 L
289.221 179.974 L
295.127 179.974 L
301.033 179.974 L
306.939 179.974 L
312.845 179.974 L
318.751 179.974 L
324.657 179.974 L
330.563 179.974 L
336.469 179.974 L
342.374 179.974 L
348.28 179.974 L
354.186 179.974 LE
3 W
1 LJ
241.974 229.964 LS
247.88 226.712 L
253.786 227.281 L
259.691 225.848 L
265.597 223.415 L
271.503 220.563 L
277.409 217.574 L
283.315 214.592 L
289.221 211.698 L
295.127 208.938 L
301.033 206.335 L
306.939 203.898 L
312.845 201.631 L
318.751 199.532 L
324.657 197.594 L
330.563 195.81 L
336.469 194.171 L
342.374 192.668 L
348.28 191.291 L
354.186 190.031 LE
grestore
gsave
1.0 1.0 scale
newpath 0 0 moveto 576 0 lineto 576 432 lineto 0 432 lineto
closepath clip
1 1 1 C
409.067 253.387 521.28 179.974 409.067 179.974 T
409.067 253.387 521.28 253.387 521.28 179.974 T
0.5 W
0.15 0.15 0.15 C
432.691 179.974 LS
432.691 181.102 LE
432.691 253.387 LS
432.691 252.258 LE
462.221 179.974 LS
462.221 181.102 LE
462.221 253.387 LS
462.221 252.258 LE
491.75 179.974 LS
491.75 181.102 LE
491.75 253.387 LS
491.75 252.258 LE
521.28 179.974 LS
521.28 181.102 LE
521.28 253.387 LS
521.28 252.258 LE
gsave
0.14902 0.14902 0.14902 C
(5) [10] 0 429.691 164.431 10 /Helvetica SRX
grestore

gsave
0.14902 0.14902 0.14902 C
(10) [6 10] 0 456.221 164.431 10 /Helvetica SRX
grestore

gsave
0.14902 0.14902 0.14902 C
(15) [6 10] 0 485.75 164.431 10 /Helvetica SRX
grestore

gsave
0.14902 0.14902 0.14902 C
(20) [6 10] 0 515.28 164.431 10 /Helvetica SRX
grestore

409.067 192.385 LS
410.192 192.385 LE
521.28 192.385 LS
520.156 192.385 LE
409.067 208.519 LS
410.192 208.519 LE
521.28 208.519 LS
520.156 208.519 LE
409.067 224.652 LS
410.192 224.652 LE
521.28 224.652 LS
520.156 224.652 LE
409.067 240.786 LS
410.192 240.786 LE
521.28 240.786 LS
520.156 240.786 LE
gsave
0.14902 0.14902 0.14902 C
(0.002) [6 3 6 6 10] 0 377.058 188.385 10 /Helvetica SRX
grestore

gsave
0.14902 0.14902 0.14902 C
(0.004) [6 3 6 6 10] 0 377.058 204.519 10 /Helvetica SRX
grestore

gsave
0.14902 0.14902 0.14902 C
(0.006) [6 3 6 6 10] 0 377.058 220.652 10 /Helvetica SRX
grestore

gsave
0.14902 0.14902 0.14902 C
(0.008) [6 3 6 6 10] 0 377.058 236.786 10 /Helvetica SRX
grestore

2 LC
[16 0] 0 setdash
409.067 179.974 LS
521.28 179.974 LE
409.067 253.387 LS
521.28 253.387 LE
409.067 179.974 LS
409.067 253.387 LE
521.28 179.974 LS
521.28 253.387 LE
gsave
0 0 0 C
(L_hat) [7 6 7 6 10] 0 450.174 265.387 11 /Helvetica-Bold SRX
grestore

0.9 0.9 0.9 C
409.067 179.974 409.067 188.543 414.973 179.974 T
414.973 208.705 414.973 179.974 409.067 188.543 T
420.879 179.974 414.973 179.974 414.973 208.705 T
420.879 246.053 420.879 179.974 414.973 208.705 T
426.785 179.974 420.879 179.974 420.879 246.053 T
426.785 253.387 426.785 179.974 420.879 246.053 T
432.691 179.974 426.785 179.974 426.785 253.387 T
432.691 251.585 432.691 179.974 426.785 253.387 T
438.597 179.974 432.691 179.974 432.691 251.585 T
438.597 246.767 438.597 179.974 432.691 251.585 T
444.503 179.974 438.597 179.974 438.597 246.767 T
444.503 242.016 444.503 179.974 438.597 246.767 T
450.409 179.974 444.503 179.974 444.503 242.016 T
450.409 236.03 450.409 179.974 444.503 242.016 T
456.315 179.974 450.409 179.974 450.409 236.03 T
456.315 231.151 456.315 179.974 450.409 236.03 T
462.221 179.974 456.315 179.974 456.315 231.151 T
462.221 226.788 462.221 179.974 456.315 231.151 T
468.127 179.974 462.221 179.974 462.221 226.788 T
468.127 223.866 468.127 179.974 462.221 226.788 T
474.033 179.974 468.127 179.974 468.127 223.866 T
474.033 219.542 474.033 179.974 468.127 223.866 T
479.939 179.974 474.033 179.974 474.033 219.542 T
479.939 215.7 479.939 179.974 474.033 219.542 T
485.844 179.974 479.939 179.974 479.939 215.7 T
485.844 212.232 485.844 179.974 479.939 215.7 T
491.75 179.974 485.844 179.974 485.844 212.232 T
491.75 209.459 491.75 179.974 485.844 212.232 T
497.656 179.974 491.75 179.974 491.75 209.459 T
497.656 207.121 497.656 179.974 491.75 209.459 T
503.562 179.974 497.656 179.974 497.656 207.121 T
503.562 204.806 503.562 179.974 497.656 207.121 T
509.468 179.974 503.562 179.974 503.562 204.806 T
509.468 202.818 509.468 179.974 503.562 204.806 T
515.374 179.974 509.468 179.974 509.468 202.818 T
515.374 200.171 515.374 179.974 509.468 202.818 T
521.28 179.974 515.374 179.974 515.374 200.171 T
521.28 198.638 521.28 179.974 515.374 200.171 T
0 LC
[] 0 setdash
0 0 0 C
521.28 198.638 LS
515.374 200.171 L
509.468 202.818 L
503.562 204.806 L
497.656 207.121 L
491.75 209.459 L
485.844 212.232 L
479.939 215.7 L
474.033 219.542 L
468.127 223.866 L
462.221 226.788 L
456.315 231.151 L
450.409 236.03 L
444.503 242.016 L
438.597 246.767 L
432.691 251.585 L
426.785 253.387 L
420.879 246.053 L
414.973 208.705 L
409.067 188.543 L
409.067 179.974 L
414.973 179.974 L
420.879 179.974 L
426.785 179.974 L
432.691 179.974 L
438.597 179.974 L
444.503 179.974 L
450.409 179.974 L
456.315 179.974 L
462.221 179.974 L
468.127 179.974 L
474.033 179.974 L
479.939 179.974 L
485.844 179.974 L
491.75 179.974 L
497.656 179.974 L
503.562 179.974 L
509.468 179.974 L
515.374 179.974 L
521.28 179.974 L
521.28 198.638 LE
1 1 1 C
409.067 179.974 414.973 189.745 414.973 179.974 T
420.879 179.974 414.973 179.974 414.973 189.745 T
420.879 209.889 420.879 179.974 414.973 189.745 T
426.785 179.974 420.879 179.974 420.879 209.889 T
426.785 214.954 426.785 179.974 420.879 209.889 T
432.691 179.974 426.785 179.974 426.785 214.954 T
432.691 213.724 432.691 179.974 426.785 214.954 T
438.597 179.974 432.691 179.974 432.691 213.724 T
438.597 210.656 438.597 179.974 432.691 213.724 T
444.503 179.974 438.597 179.974 438.597 210.656 T
444.503 207.727 444.503 179.974 438.597 210.656 T
450.409 179.974 444.503 179.974 444.503 207.727 T
450.409 203.732 450.409 179.974 444.503 207.727 T
456.315 179.974 450.409 179.974 450.409 203.732 T
456.315 200.435 456.315 179.974 450.409 203.732 T
462.221 179.974 456.315 179.974 456.315 200.435 T
462.221 197.657 462.221 179.974 456.315 200.435 T
468.127 179.974 462.221 179.974 462.221 197.657 T
468.127 196.477 468.127 179.974 462.221 197.657 T
474.033 179.974 468.127 179.974 468.127 196.477 T
474.033 193.785 474.033 179.974 468.127 196.477 T
479.939 179.974 474.033 179.974 474.033 193.785 T
479.939 191.532 479.939 179.974 474.033 193.785 T
485.844 179.974 479.939 179.974 479.939 191.532 T
485.844 189.575 485.844 179.974 479.939 191.532 T
491.75 179.974 485.844 179.974 485.844 189.575 T
491.75 188.228 491.75 179.974 485.844 189.575 T
497.656 179.974 491.75 179.974 491.75 188.228 T
497.656 187.176 497.656 179.974 491.75 188.228 T
503.562 179.974 497.656 179.974 497.656 187.176 T
503.562 186.052 503.562 179.974 497.656 187.176 T
509.468 179.974 503.562 179.974 503.562 186.052 T
509.468 185.193 509.468 179.974 503.562 186.052 T
515.374 179.974 509.468 179.974 509.468 185.193 T
515.374 183.614 515.374 179.974 509.468 185.193 T
521.28 179.974 515.374 179.974 515.374 183.614 T
521.28 183.021 521.28 179.974 515.374 183.614 T
0 0 0 C
521.28 183.021 LS
515.374 183.614 L
509.468 185.193 L
503.562 186.052 L
497.656 187.176 L
491.75 188.228 L
485.844 189.575 L
479.939 191.532 L
474.033 193.785 L
468.127 196.477 L
462.221 197.657 L
456.315 200.435 L
450.409 203.732 L
444.503 207.727 L
438.597 210.656 L
432.691 213.724 L
426.785 214.954 L
420.879 209.889 L
414.973 189.745 L
409.067 179.974 L
414.973 179.974 L
420.879 179.974 L
426.785 179.974 L
432.691 179.974 L
438.597 179.974 L
444.503 179.974 L
450.409 179.974 L
456.315 179.974 L
462.221 179.974 L
468.127 179.974 L
474.033 179.974 L
479.939 179.974 L
485.844 179.974 L
491.75 179.974 L
497.656 179.974 L
503.562 179.974 L
509.468 179.974 L
515.374 179.974 L
521.28 179.974 L
521.28 183.021 LE
3 W
1 LJ
409.067 184.147 LS
414.973 199.226 L
420.879 227.983 L
426.785 232.886 L
432.691 231.527 L
438.597 228.071 L
444.503 223.96 L
450.409 219.79 L
456.315 215.82 L
462.221 212.159 L
468.127 208.842 L
474.033 205.869 L
479.939 203.222 L
485.844 200.876 L
491.75 198.802 L
497.656 196.972 L
503.562 195.361 L
509.468 193.941 L
515.374 192.692 L
521.28 191.593 LE
grestore
gsave
1.0 1.0 scale
newpath 0 0 moveto 576 0 lineto 576 432 lineto 0 432 lineto
closepath clip
1 1 1 C
74.88 120.933 187.093 47.52 74.88 47.52 T
74.88 120.933 187.093 120.933 187.093 47.52 T
0.5 W
0.15 0.15 0.15 C
98.5037 47.52 LS
98.5037 48.6485 LE
98.5037 120.933 LS
98.5037 119.805 LE
128.033 47.52 LS
128.033 48.6485 LE
128.033 120.933 LS
128.033 119.805 LE
157.563 47.52 LS
157.563 48.6485 LE
157.563 120.933 LS
157.563 119.805 LE
187.093 47.52 LS
187.093 48.6485 LE
187.093 120.933 LS
187.093 119.805 LE
gsave
0.14902 0.14902 0.14902 C
(5) [10] 0 95.5037 31.9776 10 /Helvetica SRX
grestore

gsave
0.14902 0.14902 0.14902 C
(10) [6 10] 0 122.033 31.9776 10 /Helvetica SRX
grestore

gsave
0.14902 0.14902 0.14902 C
(15) [6 10] 0 151.563 31.9776 10 /Helvetica SRX
grestore

gsave
0.14902 0.14902 0.14902 C
(20) [6 10] 0 181.093 31.9776 10 /Helvetica SRX
grestore

74.88 57.907 LS
76.0043 57.907 LE
187.093 57.907 LS
185.968 57.907 LE
74.88 72.4082 LS
76.0043 72.4082 LE
187.093 72.4082 LS
185.968 72.4082 LE
74.88 86.9094 LS
76.0043 86.9094 LE
187.093 86.9094 LS
185.968 86.9094 LE
74.88 101.411 LS
76.0043 101.411 LE
187.093 101.411 LS
185.968 101.411 LE
74.88 115.912 LS
76.0043 115.912 LE
187.093 115.912 LS
185.968 115.912 LE
gsave
0.14902 0.14902 0.14902 C
(-0.002) [3 6 3 6 6 10] 0 39.8705 53.907 10 /Helvetica SRX
grestore

gsave
0.14902 0.14902 0.14902 C
(-0.001) [3 6 3 6 6 10] 0 39.8705 68.4082 10 /Helvetica SRX
grestore

gsave
0.14902 0.14902 0.14902 C
(0) [10] 0 63.8705 82.9094 10 /Helvetica SRX
grestore

gsave
0.14902 0.14902 0.14902 C
(0.001) [6 3 6 6 10] 0 42.8705 97.4106 10 /Helvetica SRX
grestore

gsave
0.14902 0.14902 0.14902 C
(0.002) [6 3 6 6 10] 0 42.8705 111.912 10 /Helvetica SRX
grestore

2 LC
[16 0] 0 setdash
74.88 47.52 LS
187.093 47.52 LE
74.88 120.933 LS
187.093 120.933 LE
74.88 47.52 LS
74.88 120.933 LE
187.093 47.52 LS
187.093 120.933 LE
gsave
0 0 0 C
(tb_y_hat) [4 7 6 6 6 7 6 10] 0 107.986 133.933 11 /Helvetica-Bold SRX
grestore

0.9 0.9 0.9 C
74.88 47.52 74.88 67.4987 80.7859 47.52 T
80.7859 69.9694 80.7859 47.52 74.88 67.4987 T
86.6918 47.52 80.7859 47.52 80.7859 69.9694 T
86.6918 120.933 86.6918 47.52 80.7859 69.9694 T
92.5978 47.52 86.6918 47.52 86.6918 120.933 T
92.5978 110.711 92.5978 47.52 86.6918 120.933 T
98.5037 47.52 92.5978 47.52 92.5978 110.711 T
98.5037 104.981 98.5037 47.52 92.5978 110.711 T
104.41 47.52 98.5037 47.52 98.5037 104.981 T
104.41 101.122 104.41 47.52 98.5037 104.981 T
110.316 47.52 104.41 47.52 104.41 101.122 T
110.316 98.1817 110.316 47.52 104.41 101.122 T
116.221 47.52 110.316 47.52 110.316 98.1817 T
116.221 95.9348 116.221 47.52 110.316 98.1817 T
122.127 47.52 116.221 47.52 116.221 95.9348 T
122.127 93.9353 122.127 47.52 116.221 95.9348 T
128.033 47.52 122.127 47.52 122.127 93.9353 T
128.033 92.6529 128.033 47.52 122.127 93.9353 T
133.939 47.52 128.033 47.52 128.033 92.6529 T
133.939 91.3374 133.939 47.52 128.033 92.6529 T
139.845 47.52 133.939 47.52 133.939 91.3374 T
139.845 90.3356 139.845 47.52 133.939 91.3374 T
145.751 47.52 139.845 47.52 139.845 90.3356 T
145.751 89.3307 145.751 47.52 139.845 90.3356 T
151.657 47.52 145.751 47.52 145.751 89.3307 T
151.657 88.6445 151.657 47.52 145.751 89.3307 T
157.563 47.52 151.657 47.52 151.657 88.6445 T
157.563 88.0346 157.563 47.52 151.657 88.6445 T
163.469 47.52 157.563 47.52 157.563 88.0346 T
163.469 87.5924 163.469 47.52 157.563 88.0346 T
169.375 47.52 163.469 47.52 163.469 87.5924 T
169.375 87.0506 169.375 47.52 163.469 87.5924 T
175.281 47.52 169.375 47.52 169.375 87.0506 T
175.281 86.7393 175.281 47.52 169.375 87.0506 T
181.187 47.52 175.281 47.52 175.281 86.7393 T
181.187 86.5175 181.187 47.52 175.281 86.7393 T
187.093 47.52 181.187 47.52 181.187 86.5175 T
187.093 86.2995 187.093 47.52 181.187 86.5175 T
0 LC
[] 0 setdash
0 0 0 C
187.093 86.2995 LS
181.187 86.5175 L
175.281 86.7393 L
169.375 87.0506 L
163.469 87.5924 L
157.563 88.0346 L
151.657 88.6445 L
145.751 89.3307 L
139.845 90.3356 L
133.939 91.3374 L
128.033 92.6529 L
122.127 93.9353 L
116.221 95.9348 L
110.316 98.1817 L
104.41 101.122 L
98.5037 104.981 L
92.5978 110.711 L
86.6918 120.933 L
80.7859 69.9694 L
74.88 67.4987 L
74.88 47.52 L
80.7859 47.52 L
86.6918 47.52 L
92.5978 47.52 L
98.5037 47.52 L
104.41 47.52 L
110.316 47.52 L
116.221 47.52 L
122.127 47.52 L
128.033 47.52 L
133.939 47.52 L
139.845 47.52 L
145.751 47.52 L
151.657 47.52 L
157.563 47.52 L
163.469 47.52 L
169.375 47.52 L
175.281 47.52 L
181.187 47.52 L
187.093 47.52 L
187.093 86.2995 LE
1 1 1 C
74.88 47.52 80.7859 51.3014 80.7859 47.52 T
86.6918 47.52 80.7859 47.52 80.7859 51.3014 T
86.6918 102.315 86.6918 47.52 80.7859 51.3014 T
92.5978 47.52 86.6918 47.52 86.6918 102.315 T
92.5978 98.4054 92.5978 47.52 86.6918 102.315 T
98.5037 47.52 92.5978 47.52 92.5978 98.4054 T
98.5037 95.4473 98.5037 47.52 92.5978 98.4054 T
104.41 47.52 98.5037 47.52 98.5037 95.4473 T
104.41 93.3604 104.41 47.52 98.5037 95.4473 T
110.316 47.52 104.41 47.52 104.41 93.3604 T
110.316 91.5537 110.316 47.52 104.41 93.3604 T
116.221 47.52 110.316 47.52 110.316 91.5537 T
116.221 89.8836 116.221 47.52 110.316 91.5537 T
122.127 47.52 116.221 47.52 116.221 89.8836 T
122.127 88.1991 122.127 47.52 116.221 89.8836 T
128.033 47.52 122.127 47.52 122.127 88.1991 T
128.033 87.3183 128.033 47.52 122.127 88.1991 T
133.939 47.52 128.033 47.52 128.033 87.3183 T
133.939 86.3566 133.939 47.52 128.033 87.3183 T
139.845 47.52 133.939 47.52 133.939 86.3566 T
139.845 85.7162 139.845 47.52 133.939 86.3566 T
145.751 47.52 139.845 47.52 139.845 85.7162 T
145.751 85.1003 145.751 47.52 139.845 85.7162 T
151.657 47.52 145.751 47.52 145.751 85.1003 T
151.657 84.8282 151.657 47.52 145.751 85.1003 T
157.563 47.52 151.657 47.52 151.657 84.8282 T
157.563 84.6107 157.563 47.52 151.657 84.8282 T
163.469 47.52 157.563 47.52 157.563 84.6107 T
163.469 84.6097 163.469 47.52 157.563 84.6107 T
169.375 47.52 163.469 47.52 163.469 84.6097 T
169.375 84.4575 169.375 47.52 163.469 84.6097 T
175.281 47.52 169.375 47.52 169.375 84.4575 T
175.281 84.4268 175.281 47.52 169.375 84.4575 T
181.187 47.52 175.281 47.52 175.281 84.4268 T
181.187 84.473 181.187 47.52 175.281 84.4268 T
187.093 47.52 181.187 47.52 181.187 84.473 T
187.093 84.4633 187.093 47.52 181.187 84.473 T
0 0 0 C
187.093 84.4633 LS
181.187 84.473 L
175.281 84.4268 L
169.375 84.4575 L
163.469 84.6097 L
157.563 84.6107 L
151.657 84.8282 L
145.751 85.1003 L
139.845 85.7162 L
133.939 86.3566 L
128.033 87.3183 L
122.127 88.1991 L
116.221 89.8836 L
110.316 91.5537 L
104.41 93.3604 L
98.5037 95.4473 L
92.5978 98.4054 L
86.6918 102.315 L
80.7859 51.3014 L
74.88 47.52 L
80.7859 47.52 L
86.6918 47.52 L
92.5978 47.52 L
98.5037 47.52 L
104.41 47.52 L
110.316 47.52 L
116.221 47.52 L
122.127 47.52 L
128.033 47.52 L
133.939 47.52 L
139.845 47.52 L
145.751 47.52 L
151.657 47.52 L
157.563 47.52 L
163.469 47.52 L
169.375 47.52 L
175.281 47.52 L
181.187 47.52 L
187.093 47.52 L
187.093 84.4633 LE
3 W
1 LJ
74.88 58.1583 LS
80.7859 60.7562 L
86.6918 111.25 L
92.5978 104.459 L
98.5037 100.507 L
104.41 97.3542 L
110.316 94.8248 L
116.221 92.803 L
122.127 91.1856 L
128.033 89.8898 L
133.939 88.851 L
139.845 88.0188 L
145.751 87.3537 L
151.657 86.824 L
157.563 86.4042 L
163.469 86.0738 L
169.375 85.8159 L
175.281 85.617 L
181.187 85.4657 L
187.093 85.353 LE
grestore
gsave
1.0 1.0 scale
newpath 0 0 moveto 576 0 lineto 576 432 lineto 0 432 lineto
closepath clip
1 1 1 C
241.974 120.933 354.186 47.52 241.974 47.52 T
241.974 120.933 354.186 120.933 354.186 47.52 T
0.5 W
0.15 0.15 0.15 C
265.597 47.52 LS
265.597 48.6485 LE
265.597 120.933 LS
265.597 119.805 LE
295.127 47.52 LS
295.127 48.6485 LE
295.127 120.933 LS
295.127 119.805 LE
324.657 47.52 LS
324.657 48.6485 LE
324.657 120.933 LS
324.657 119.805 LE
354.186 47.52 LS
354.186 48.6485 LE
354.186 120.933 LS
354.186 119.805 LE
gsave
0.14902 0.14902 0.14902 C
(5) [10] 0 262.597 31.9776 10 /Helvetica SRX
grestore

gsave
0.14902 0.14902 0.14902 C
(10) [6 10] 0 289.127 31.9776 10 /Helvetica SRX
grestore

gsave
0.14902 0.14902 0.14902 C
(15) [6 10] 0 318.657 31.9776 10 /Helvetica SRX
grestore

gsave
0.14902 0.14902 0.14902 C
(20) [6 10] 0 348.186 31.9776 10 /Helvetica SRX
grestore

241.974 53.974 LS
243.098 53.974 LE
354.186 53.974 LS
353.062 53.974 LE
241.974 67.7131 LS
243.098 67.7131 LE
354.186 67.7131 LS
353.062 67.7131 LE
241.974 81.4521 LS
243.098 81.4521 LE
354.186 81.4521 LS
353.062 81.4521 LE
241.974 95.1912 LS
243.098 95.1912 LE
354.186 95.1912 LS
353.062 95.1912 LE
241.974 108.93 LS
243.098 108.93 LE
354.186 108.93 LS
353.062 108.93 LE
gsave
0.14902 0.14902 0.14902 C
(-0.01) [3 6 3 6 10] 0 212.964 49.974 10 /Helvetica SRX
grestore

gsave
0.14902 0.14902 0.14902 C
(-0.005) [3 6 3 6 6 10] 0 206.964 63.7131 10 /Helvetica SRX
grestore

gsave
0.14902 0.14902 0.14902 C
(0) [10] 0 230.964 77.4521 10 /Helvetica SRX
grestore

gsave
0.14902 0.14902 0.14902 C
(0.005) [6 3 6 6 10] 0 209.964 91.1912 10 /Helvetica SRX
grestore

gsave
0.14902 0.14902 0.14902 C
(0.01) [6 3 6 10] 0 215.964 104.93 10 /Helvetica SRX
grestore

2 LC
[16 0] 0 setdash
241.974 47.52 LS
354.186 47.52 LE
241.974 120.933 LS
354.186 120.933 LE
241.974 47.52 LS
241.974 120.933 LE
354.186 47.52 LS
354.186 120.933 LE
gsave
0 0 0 C
(D_hat) [8 6 7 6 10] 0 282.58 132.933 11 /Helvetica-Bold SRX
grestore

0.9 0.9 0.9 C
241.974 47.52 241.974 101.911 247.88 47.52 T
247.88 120.933 247.88 47.52 241.974 101.911 T
253.786 47.52 247.88 47.52 247.88 120.933 T
253.786 105.785 253.786 47.52 247.88 120.933 T
259.691 47.52 253.786 47.52 253.786 105.785 T
259.691 96.6228 259.691 47.52 253.786 105.785 T
265.597 47.52 259.691 47.52 259.691 96.6228 T
265.597 89.2966 265.597 47.52 259.691 96.6228 T
271.503 47.52 265.597 47.52 265.597 89.2966 T
271.503 83.4502 271.503 47.52 265.597 89.2966 T
277.409 47.52 271.503 47.52 271.503 83.4502 T
277.409 78.98 277.409 47.52 271.503 83.4502 T
283.315 47.52 277.409 47.52 277.409 78.98 T
283.315 76.5973 283.315 47.52 277.409 78.98 T
289.221 47.52 283.315 47.52 283.315 76.5973 T
289.221 74.5918 289.221 47.52 283.315 76.5973 T
295.127 47.52 289.221 47.52 289.221 74.5918 T
295.127 72.9386 295.127 47.52 289.221 74.5918 T
301.033 47.52 295.127 47.52 295.127 72.9386 T
301.033 72.0845 301.033 47.52 295.127 72.9386 T
306.939 47.52 301.033 47.52 301.033 72.0845 T
306.939 70.9795 306.939 47.52 301.033 72.0845 T
312.845 47.52 306.939 47.52 306.939 70.9795 T
312.845 70.2493 312.845 47.52 306.939 70.9795 T
318.751 47.52 312.845 47.52 312.845 70.2493 T
318.751 71.016 318.751 47.52 312.845 70.2493 T
324.657 47.52 318.751 47.52 318.751 71.016 T
324.657 70.7442 324.657 47.52 318.751 71.016 T
330.563 47.52 324.657 47.52 324.657 70.7442 T
330.563 70.4228 330.563 47.52 324.657 70.7442 T
336.469 47.52 330.563 47.52 330.563 70.4228 T
336.469 70.2506 336.469 47.52 330.563 70.4228 T
342.374 47.52 336.469 47.52 336.469 70.2506 T
342.374 71.2826 342.374 47.52 336.469 70.2506 T
348.28 47.52 342.374 47.52 342.374 71.2826 T
348.28 71.1955 348.28 47.52 342.374 71.2826 T
354.186 47.52 348.28 47.52 348.28 71.1955 T
354.186 71.3706 354.186 47.52 348.28 71.1955 T
0 LC
[] 0 setdash
0 0 0 C
354.186 71.3706 LS
348.28 71.1955 L
342.374 71.2826 L
336.469 70.2506 L
330.563 70.4228 L
324.657 70.7442 L
318.751 71.016 L
312.845 70.2493 L
306.939 70.9795 L
301.033 72.0845 L
295.127 72.9386 L
289.221 74.5918 L
283.315 76.5973 L
277.409 78.98 L
271.503 83.4502 L
265.597 89.2966 L
259.691 96.6228 L
253.786 105.785 L
247.88 120.933 L
241.974 101.911 L
241.974 47.52 L
247.88 47.52 L
253.786 47.52 L
259.691 47.52 L
265.597 47.52 L
271.503 47.52 L
277.409 47.52 L
283.315 47.52 L
289.221 47.52 L
295.127 47.52 L
301.033 47.52 L
306.939 47.52 L
312.845 47.52 L
318.751 47.52 L
324.657 47.52 L
330.563 47.52 L
336.469 47.52 L
342.374 47.52 L
348.28 47.52 L
354.186 47.52 L
354.186 71.3706 LE
1 1 1 C
336.469 47.52 342.374 48.2217 342.374 47.52 T
348.28 47.52 342.374 47.52 342.374 48.2217 T
348.28 47.7326 348.28 47.52 342.374 48.2217 T
354.186 47.52 348.28 47.52 348.28 47.7326 T
354.186 47.8484 354.186 47.52 348.28 47.7326 T
241.974 47.52 241.974 90.9324 247.88 47.52 T
247.88 99.6605 247.88 47.52 241.974 90.9324 T
253.786 47.52 247.88 47.52 247.88 99.6605 T
253.786 89.0432 253.786 47.52 247.88 99.6605 T
259.691 47.52 253.786 47.52 253.786 89.0432 T
259.691 81.4144 259.691 47.52 253.786 89.0432 T
265.597 47.52 259.691 47.52 259.691 81.4144 T
265.597 75.2715 265.597 47.52 259.691 81.4144 T
271.503 47.52 265.597 47.52 265.597 75.2715 T
271.503 69.9794 271.503 47.52 265.597 75.2715 T
277.409 47.52 271.503 47.52 271.503 69.9794 T
277.409 64.8058 277.409 47.52 271.503 69.9794 T
283.315 47.52 277.409 47.52 277.409 64.8058 T
283.315 61.5399 283.315 47.52 277.409 64.8058 T
289.221 47.52 283.315 47.52 283.315 61.5399 T
289.221 58.3413 289.221 47.52 283.315 61.5399 T
295.127 47.52 289.221 47.52 289.221 58.3413 T
295.127 55.415 295.127 47.52 289.221 58.3413 T
301.033 47.52 295.127 47.52 295.127 55.415 T
301.033 53.8537 301.033 47.52 295.127 55.415 T
306.939 47.52 301.033 47.52 301.033 53.8537 T
306.939 51.9222 306.939 47.52 301.033 53.8537 T
312.845 47.52 306.939 47.52 306.939 51.9222 T
312.845 50.1818 312.845 47.52 306.939 51.9222 T
318.751 47.52 312.845 47.52 312.845 50.1818 T
318.751 50.068 318.751 47.52 312.845 50.1818 T
324.657 47.52 318.751 47.52 318.751 50.068 T
324.657 48.9967 324.657 47.52 318.751 50.068 T
330.563 47.52 324.657 47.52 324.657 48.9967 T
330.563 48.1447 330.563 47.52 324.657 48.9967 T
336.469 47.52 330.563 47.52 330.563 48.1447 T
0 0 0 C
336.469 47.52 LS
330.563 48.1447 L
324.657 48.9967 L
318.751 50.068 L
312.845 50.1818 L
306.939 51.9222 L
301.033 53.8537 L
295.127 55.415 L
289.221 58.3413 L
283.315 61.5399 L
277.409 64.8058 L
271.503 69.9794 L
265.597 75.2715 L
259.691 81.4144 L
253.786 89.0432 L
247.88 99.6605 L
241.974 90.9324 L
241.974 47.52 L
247.88 47.52 L
253.786 47.52 L
259.691 47.52 L
265.597 47.52 L
271.503 47.52 L
277.409 47.52 L
283.315 47.52 L
289.221 47.52 L
295.127 47.52 L
301.033 47.52 L
306.939 47.52 L
312.845 47.52 L
318.751 47.52 L
324.657 47.52 L
330.563 47.52 L
336.469 47.52 LE
354.186 47.8484 LS
348.28 47.7326 L
342.374 48.2217 L
336.469 47.52 L
342.374 47.52 L
348.28 47.52 L
354.186 47.52 L
354.186 47.8484 LE
3 W
1 LJ
241.974 96.2769 LS
247.88 109.763 L
253.786 97.8469 L
259.691 89.1558 L
265.597 82.239 L
271.503 76.747 L
277.409 72.4061 L
283.315 68.991 L
289.221 66.321 L
295.127 64.2519 L
301.033 62.6681 L
306.939 61.4762 L
312.845 60.6007 L
318.751 59.9799 L
324.657 59.5638 L
330.563 59.3112 L
336.469 59.189 L
342.374 59.1698 L
348.28 59.2314 L
354.186 59.3559 LE
grestore
gsave
1.0 1.0 scale
newpath 0 0 moveto 576 0 lineto 576 432 lineto 0 432 lineto
closepath clip
1 1 1 C
409.067 120.933 521.28 47.52 409.067 47.52 T
409.067 120.933 521.28 120.933 521.28 47.52 T
0.5 W
0.15 0.15 0.15 C
432.691 47.52 LS
432.691 48.6485 LE
432.691 120.933 LS
432.691 119.805 LE
462.221 47.52 LS
462.221 48.6485 LE
462.221 120.933 LS
462.221 119.805 LE
491.75 47.52 LS
491.75 48.6485 LE
491.75 120.933 LS
491.75 119.805 LE
521.28 47.52 LS
521.28 48.6485 LE
521.28 120.933 LS
521.28 119.805 LE
gsave
0.14902 0.14902 0.14902 C
(5) [10] 0 429.691 31.9776 10 /Helvetica SRX
grestore

gsave
0.14902 0.14902 0.14902 C
(10) [6 10] 0 456.221 31.9776 10 /Helvetica SRX
grestore

gsave
0.14902 0.14902 0.14902 C
(15) [6 10] 0 485.75 31.9776 10 /Helvetica SRX
grestore

gsave
0.14902 0.14902 0.14902 C
(20) [6 10] 0 515.28 31.9776 10 /Helvetica SRX
grestore

409.067 49.3301 LS
410.192 49.3301 LE
521.28 49.3301 LS
520.156 49.3301 LE
409.067 64.1916 LS
410.192 64.1916 LE
521.28 64.1916 LS
520.156 64.1916 LE
409.067 79.0531 LS
410.192 79.0531 LE
521.28 79.0531 LS
520.156 79.0531 LE
409.067 93.9146 LS
410.192 93.9146 LE
521.28 93.9146 LS
520.156 93.9146 LE
409.067 108.776 LS
410.192 108.776 LE
521.28 108.776 LS
520.156 108.776 LE
gsave
0.14902 0.14902 0.14902 C
(-0.02) [3 6 3 6 10] 0 380.058 45.3301 10 /Helvetica SRX
grestore

gsave
0.14902 0.14902 0.14902 C
(-0.015) [3 6 3 6 6 10] 0 374.058 60.1916 10 /Helvetica SRX
grestore

gsave
0.14902 0.14902 0.14902 C
(-0.01) [3 6 3 6 10] 0 380.058 75.0531 10 /Helvetica SRX
grestore

gsave
0.14902 0.14902 0.14902 C
(-0.005) [3 6 3 6 6 10] 0 374.058 89.9146 10 /Helvetica SRX
grestore

gsave
0.14902 0.14902 0.14902 C
(0) [10] 0 398.058 104.776 10 /Helvetica SRX
grestore

2 LC
[16 0] 0 setdash
409.067 47.52 LS
521.28 47.52 LE
409.067 120.933 LS
521.28 120.933 LE
409.067 47.52 LS
409.067 120.933 LE
521.28 47.52 LS
521.28 120.933 LE
gsave
0 0 0 C
(reer_hat) [4 6 6 4 6 7 6 10] 0 443.674 132.933 11 /Helvetica-Bold SRX
grestore

0.9 0.9 0.9 C
409.067 47.52 409.067 114.176 414.973 47.52 T
414.973 120.933 414.973 47.52 409.067 114.176 T
420.879 47.52 414.973 47.52 414.973 120.933 T
420.879 78.7127 420.879 47.52 414.973 120.933 T
426.785 47.52 420.879 47.52 420.879 78.7127 T
426.785 86.8641 426.785 47.52 420.879 78.7127 T
432.691 47.52 426.785 47.52 426.785 86.8641 T
432.691 90.1956 432.691 47.52 426.785 86.8641 T
438.597 47.52 432.691 47.52 432.691 90.1956 T
438.597 93.3031 438.597 47.52 432.691 90.1956 T
444.503 47.52 438.597 47.52 438.597 93.3031 T
444.503 96.6545 444.503 47.52 438.597 93.3031 T
450.409 47.52 444.503 47.52 444.503 96.6545 T
450.409 99.0353 450.409 47.52 444.503 96.6545 T
456.315 47.52 450.409 47.52 450.409 99.0353 T
456.315 100.603 456.315 47.52 450.409 99.0353 T
462.221 47.52 456.315 47.52 456.315 100.603 T
462.221 101.975 462.221 47.52 456.315 100.603 T
468.127 47.52 462.221 47.52 462.221 101.975 T
468.127 103.112 468.127 47.52 462.221 101.975 T
474.033 47.52 468.127 47.52 468.127 103.112 T
474.033 104.346 474.033 47.52 468.127 103.112 T
479.939 47.52 474.033 47.52 474.033 104.346 T
479.939 105.422 479.939 47.52 474.033 104.346 T
485.844 47.52 479.939 47.52 479.939 105.422 T
485.844 106.357 485.844 47.52 479.939 105.422 T
491.75 47.52 485.844 47.52 485.844 106.357 T
491.75 106.873 491.75 47.52 485.844 106.357 T
497.656 47.52 491.75 47.52 491.75 106.873 T
497.656 107.446 497.656 47.52 491.75 106.873 T
503.562 47.52 497.656 47.52 497.656 107.446 T
503.562 107.861 503.562 47.52 497.656 107.446 T
509.468 47.52 503.562 47.52 503.562 107.861 T
509.468 108.166 509.468 47.52 503.562 107.861 T
515.374 47.52 509.468 47.52 509.468 108.166 T
515.374 108.393 515.374 47.52 509.468 108.166 T
521.28 47.52 515.374 47.52 515.374 108.393 T
521.28 108.674 521.28 47.52 515.374 108.393 T
0 LC
[] 0 setdash
0 0 0 C
521.28 108.674 LS
515.374 108.393 L
509.468 108.166 L
503.562 107.861 L
497.656 107.446 L
491.75 106.873 L
485.844 106.357 L
479.939 105.422 L
474.033 104.346 L
468.127 103.112 L
462.221 101.975 L
456.315 100.603 L
450.409 99.0353 L
444.503 96.6545 L
438.597 93.3031 L
432.691 90.1956 L
426.785 86.8641 L
420.879 78.7127 L
414.973 120.933 L
409.067 114.176 L
409.067 47.52 L
414.973 47.52 L
420.879 47.52 L
426.785 47.52 L
432.691 47.52 L
438.597 47.52 L
444.503 47.52 L
450.409 47.52 L
456.315 47.52 L
462.221 47.52 L
468.127 47.52 L
474.033 47.52 L
479.939 47.52 L
485.844 47.52 L
491.75 47.52 L
497.656 47.52 L
503.562 47.52 L
509.468 47.52 L
515.374 47.52 L
521.28 47.52 L
521.28 108.674 LE
1 1 1 C
420.879 47.52 426.785 64.3899 426.785 47.52 T
432.691 47.52 426.785 47.52 426.785 64.3899 T
432.691 71.8319 432.691 47.52 426.785 64.3899 T
438.597 47.52 432.691 47.52 432.691 71.8319 T
438.597 77.2648 438.597 47.52 432.691 71.8319 T
444.503 47.52 438.597 47.52 438.597 77.2648 T
444.503 82.4348 444.503 47.52 438.597 77.2648 T
450.409 47.52 444.503 47.52 444.503 82.4348 T
450.409 86.0862 450.409 47.52 444.503 82.4348 T
456.315 47.52 450.409 47.52 450.409 86.0862 T
456.315 88.8134 456.315 47.52 450.409 86.0862 T
462.221 47.52 456.315 47.52 456.315 88.8134 T
462.221 91.3705 462.221 47.52 456.315 88.8134 T
468.127 47.52 462.221 47.52 462.221 91.3705 T
468.127 93.4718 468.127 47.52 462.221 91.3705 T
474.033 47.52 468.127 47.52 468.127 93.4718 T
474.033 95.6089 474.033 47.52 468.127 93.4718 T
479.939 47.52 474.033 47.52 474.033 95.6089 T
479.939 97.4807 479.939 47.52 474.033 95.6089 T
485.844 47.52 479.939 47.52 479.939 97.4807 T
485.844 99.1641 485.844 47.52 479.939 97.4807 T
491.75 47.52 485.844 47.52 485.844 99.1641 T
491.75 100.41 491.75 47.52 485.844 99.1641 T
497.656 47.52 491.75 47.52 491.75 100.41 T
497.656 101.642 497.656 47.52 491.75 100.41 T
503.562 47.52 497.656 47.52 497.656 101.642 T
503.562 102.695 503.562 47.52 497.656 101.642 T
509.468 47.52 503.562 47.52 503.562 102.695 T
509.468 103.56 509.468 47.52 503.562 102.695 T
515.374 47.52 509.468 47.52 509.468 103.56 T
515.374 104.263 515.374 47.52 509.468 103.56 T
521.28 47.52 515.374 47.52 515.374 104.263 T
521.28 104.98 521.28 47.52 515.374 104.263 T
409.067 47.52 409.067 110.619 414.973 47.52 T
414.973 113.733 414.973 47.52 409.067 110.619 T
420.879 47.52 414.973 47.52 414.973 113.733 T
0 0 0 C
420.879 47.52 LS
414.973 113.733 L
409.067 110.619 L
409.067 47.52 L
414.973 47.52 L
420.879 47.52 LE
521.28 104.98 LS
515.374 104.263 L
509.468 103.56 L
503.562 102.695 L
497.656 101.642 L
491.75 100.41 L
485.844 99.1641 L
479.939 97.4807 L
474.033 95.6089 L
468.127 93.4718 L
462.221 91.3705 L
456.315 88.8134 L
450.409 86.0862 L
444.503 82.4348 L
438.597 77.2648 L
432.691 71.8319 L
426.785 64.3899 L
420.879 47.52 L
426.785 47.52 L
432.691 47.52 L
438.597 47.52 L
444.503 47.52 L
450.409 47.52 L
456.315 47.52 L
462.221 47.52 L
468.127 47.52 L
474.033 47.52 L
479.939 47.52 L
485.844 47.52 L
491.75 47.52 L
497.656 47.52 L
503.562 47.52 L
509.468 47.52 L
515.374 47.52 L
521.28 47.52 L
521.28 104.98 LE
3 W
1 LJ
409.067 112.377 LS
414.973 117.544 L
420.879 63.1853 L
426.785 75.5864 L
432.691 81.4849 L
438.597 85.7481 L
444.503 89.2063 L
450.409 92.1108 L
456.315 94.5806 L
462.221 96.6913 L
468.127 98.4996 L
474.033 100.051 L
479.939 101.383 L
485.844 102.527 L
491.75 103.511 L
497.656 104.356 L
503.562 105.083 L
509.468 105.708 L
515.374 106.245 L
521.28 106.706 LE
grestore
grestore
showpage
cleartomark
%%PageTrailer
%%Trailer
end
%%EOF
