%!PS-Adobe-3.0 EPSF-3.0
%%Title: gl2ps_renderer figure
%%Creator: GL2PS 1.4.2, (C) 1999-2020 C. Geuzaine
%%For: Octave
%%CreationDate: Wed Oct  7 07:02:19 2020
%%LanguageLevel: 3
%%DocumentData: Clean7Bit
%%Pages: 1
%%BoundingBox: 0 0 576 432
%%EndComments
%%BeginProlog
/gl2psdict 64 dict def gl2psdict begin
/tryPS3shading false def % set to false to force subdivision
/rThreshold 0.064 def % red component subdivision threshold
/gThreshold 0.034 def % green component subdivision threshold
/bThreshold 0.1 def % blue component subdivision threshold
/BD { bind def } bind def
/C  { setrgbcolor } BD
/G  { 0.082 mul exch 0.6094 mul add exch 0.3086 mul add neg 1.0 add setgray } BD
/W  { setlinewidth } BD
/LC  { setlinecap } BD
/LJ  { setlinejoin } BD
/FC { findfont exch /SH exch def SH scalefont setfont } BD
/SW { dup stringwidth pop } BD
/S  { FC moveto show } BD
/SBC{ FC moveto SW -2 div 0 rmoveto show } BD
/SBR{ FC moveto SW neg 0 rmoveto show } BD
/SCL{ FC moveto 0 SH -2 div rmoveto show } BD
/SCC{ FC moveto SW -2 div SH -2 div rmoveto show } BD
/SCR{ FC moveto SW neg SH -2 div rmoveto show } BD
/STL{ FC moveto 0 SH neg rmoveto show } BD
/STC{ FC moveto SW -2 div SH neg rmoveto show } BD
/STR{ FC moveto SW neg SH neg rmoveto show } BD
/FCT { FC translate 0 0 } BD
/SR  { gsave FCT moveto rotate show grestore } BD
/SRX  { gsave FCT moveto rotate xshow grestore } BD
/SBCR{ gsave FCT moveto rotate SW -2 div 0 rmoveto show grestore } BD
/SBRR{ gsave FCT moveto rotate SW neg 0 rmoveto show grestore } BD
/SCLR{ gsave FCT moveto rotate 0 SH -2 div rmoveto show grestore} BD
/SCCR{ gsave FCT moveto rotate SW -2 div SH -2 div rmoveto show grestore} BD
/SCRR{ gsave FCT moveto rotate SW neg SH -2 div rmoveto show grestore} BD
/STLR{ gsave FCT moveto rotate 0 SH neg rmoveto show grestore } BD
/STCR{ gsave FCT moveto rotate SW -2 div SH neg rmoveto show grestore } BD
/STRR{ gsave FCT moveto rotate SW neg SH neg rmoveto show grestore } BD
/P  { newpath 0.0 360.0 arc closepath fill } BD
/LS { newpath moveto } BD
/L  { lineto } BD
/LE { lineto stroke } BD
/T  { newpath moveto lineto lineto closepath fill } BD
/STshfill {
      /b1 exch def /g1 exch def /r1 exch def /y1 exch def /x1 exch def
      /b2 exch def /g2 exch def /r2 exch def /y2 exch def /x2 exch def
      /b3 exch def /g3 exch def /r3 exch def /y3 exch def /x3 exch def
      gsave << /ShadingType 4 /ColorSpace [/DeviceRGB]
      /DataSource [ 0 x1 y1 r1 g1 b1 0 x2 y2 r2 g2 b2 0 x3 y3 r3 g3 b3 ] >>
      shfill grestore } BD
/Tm { 3 -1 roll 8 -1 roll 13 -1 roll add add 3 div
      3 -1 roll 7 -1 roll 11 -1 roll add add 3 div
      3 -1 roll 6 -1 roll 9 -1 roll add add 3 div C T } BD
/STsplit {
      4 index 15 index add 0.5 mul
      4 index 15 index add 0.5 mul
      4 index 15 index add 0.5 mul
      4 index 15 index add 0.5 mul
      4 index 15 index add 0.5 mul
      5 copy 5 copy 25 15 roll
      9 index 30 index add 0.5 mul
      9 index 30 index add 0.5 mul
      9 index 30 index add 0.5 mul
      9 index 30 index add 0.5 mul
      9 index 30 index add 0.5 mul
      5 copy 5 copy 35 5 roll 25 5 roll 15 5 roll
      4 index 10 index add 0.5 mul
      4 index 10 index add 0.5 mul
      4 index 10 index add 0.5 mul
      4 index 10 index add 0.5 mul
      4 index 10 index add 0.5 mul
      5 copy 5 copy 40 5 roll 25 5 roll 15 5 roll 25 5 roll
      STnoshfill STnoshfill STnoshfill STnoshfill } BD
/STnoshfill {
      2 index 8 index sub abs rThreshold gt
      { STsplit }
      { 1 index 7 index sub abs gThreshold gt
        { STsplit }
        { dup 6 index sub abs bThreshold gt
          { STsplit }
          { 2 index 13 index sub abs rThreshold gt
            { STsplit }
            { 1 index 12 index sub abs gThreshold gt
              { STsplit }
              { dup 11 index sub abs bThreshold gt
                { STsplit }
                { 7 index 13 index sub abs rThreshold gt
                  { STsplit }
                  { 6 index 12 index sub abs gThreshold gt
                    { STsplit }
                    { 5 index 11 index sub abs bThreshold gt
                      { STsplit }
                      { Tm }
                      ifelse }
                    ifelse }
                  ifelse }
                ifelse }
              ifelse }
            ifelse }
          ifelse }
        ifelse }
      ifelse } BD
tryPS3shading
{ /shfill where
  { /ST { STshfill } BD }
  { /ST { STnoshfill } BD }
  ifelse }
{ /ST { STnoshfill } BD }
ifelse
end
%%EndProlog
%%BeginSetup
/DeviceRGB setcolorspace
gl2psdict begin
%%EndSetup
%%Page: 1 1
%%BeginPageSetup
%%EndPageSetup
mark
gsave
1.0 1.0 scale
1 1 1 C
newpath 0 0 moveto 576 0 lineto 576 432 lineto 0 432 lineto
closepath fill
gsave
1.0 1.0 scale
1 1 1 C
newpath 0 0 moveto 576 0 lineto 576 432 lineto 0 432 lineto
closepath fill
newpath 0 0 moveto 576 0 lineto 576 432 lineto 0 432 lineto
closepath clip
1 1 1 C
80.2559 385.841 187.093 312.427 80.2559 312.427 T
80.2559 385.841 187.093 385.841 187.093 312.427 T
0.5 W
0.15 0.15 0.15 C
102.748 312.427 LS
102.748 313.502 LE
102.748 385.841 LS
102.748 384.766 LE
130.863 312.427 LS
130.863 313.502 LE
130.863 385.841 LS
130.863 384.766 LE
158.978 312.427 LS
158.978 313.502 LE
158.978 385.841 LS
158.978 384.766 LE
187.093 312.427 LS
187.093 313.502 LE
187.093 385.841 LS
187.093 384.766 LE
gsave
0.14902 0.14902 0.14902 C
(5) [10] 0 99.7478 296.885 10 /Helvetica SRX
grestore

gsave
0.14902 0.14902 0.14902 C
(10) [6 10] 0 124.863 296.885 10 /Helvetica SRX
grestore

gsave
0.14902 0.14902 0.14902 C
(15) [6 10] 0 152.978 296.885 10 /Helvetica SRX
grestore

gsave
0.14902 0.14902 0.14902 C
(20) [6 10] 0 181.093 296.885 10 /Helvetica SRX
grestore

80.2559 329.97 LS
81.3226 329.97 LE
187.093 329.97 LS
186.026 329.97 LE
80.2559 348.247 LS
81.3226 348.247 LE
187.093 348.247 LS
186.026 348.247 LE
80.2559 366.525 LS
81.3226 366.525 LE
187.093 366.525 LS
186.026 366.525 LE
80.2559 384.802 LS
81.3226 384.802 LE
187.093 384.802 LS
186.026 384.802 LE
gsave
0.14902 0.14902 0.14902 C
(0.02) [6 3 6 10] 0 54.2635 325.97 10 /Helvetica SRX
grestore

gsave
0.14902 0.14902 0.14902 C
(0.04) [6 3 6 10] 0 54.2635 344.247 10 /Helvetica SRX
grestore

gsave
0.14902 0.14902 0.14902 C
(0.06) [6 3 6 10] 0 54.2635 362.525 10 /Helvetica SRX
grestore

gsave
0.14902 0.14902 0.14902 C
(0.08) [6 3 6 10] 0 54.2635 380.802 10 /Helvetica SRX
grestore

2 LC
[16 0] 0 setdash
80.2559 312.427 LS
187.093 312.427 LE
80.2559 385.841 LS
187.093 385.841 LE
80.2559 312.427 LS
80.2559 385.841 LE
187.093 312.427 LS
187.093 385.841 LE
gsave
0 0 0 C
(P_C_hat) [7 6 8 6 7 6 10] 0 111.674 397.841 11 /Helvetica-Bold SRX
grestore

0.9 0.9 0.9 C
80.2559 312.427 80.2559 362.133 85.8789 312.427 T
85.8789 382.31 85.8789 312.427 80.2559 362.133 T
91.5019 312.427 85.8789 312.427 85.8789 382.31 T
91.5019 385.841 91.5019 312.427 85.8789 382.31 T
97.1248 312.427 91.5019 312.427 91.5019 385.841 T
97.1248 380.897 97.1248 312.427 91.5019 385.841 T
102.748 312.427 97.1248 312.427 97.1248 380.897 T
102.748 372.247 102.748 312.427 97.1248 380.897 T
108.371 312.427 102.748 312.427 102.748 372.247 T
108.371 362.558 108.371 312.427 102.748 372.247 T
113.994 312.427 108.371 312.427 108.371 362.558 T
113.994 353.233 113.994 312.427 108.371 362.558 T
119.617 312.427 113.994 312.427 113.994 353.233 T
119.617 344.924 119.617 312.427 113.994 353.233 T
125.24 312.427 119.617 312.427 119.617 344.924 T
125.24 337.863 125.24 312.427 119.617 344.924 T
130.863 312.427 125.24 312.427 125.24 337.863 T
130.863 332.047 130.863 312.427 125.24 337.863 T
136.486 312.427 130.863 312.427 130.863 332.047 T
136.486 327.365 136.486 312.427 130.863 332.047 T
142.109 312.427 136.486 312.427 136.486 327.365 T
142.109 323.661 142.109 312.427 136.486 327.365 T
147.732 312.427 142.109 312.427 142.109 323.661 T
147.732 320.768 147.732 312.427 142.109 323.661 T
153.355 312.427 147.732 312.427 147.732 320.768 T
153.355 318.534 153.355 312.427 147.732 320.768 T
158.978 312.427 153.355 312.427 153.355 318.534 T
158.978 316.824 158.978 312.427 153.355 318.534 T
164.601 312.427 158.978 312.427 158.978 316.824 T
164.601 315.524 164.601 312.427 158.978 316.824 T
170.224 312.427 164.601 312.427 164.601 315.524 T
170.224 314.542 170.224 312.427 164.601 315.524 T
175.847 312.427 170.224 312.427 170.224 314.542 T
175.847 313.804 175.847 312.427 170.224 314.542 T
181.47 312.427 175.847 312.427 175.847 313.804 T
181.47 313.253 181.47 312.427 175.847 313.804 T
187.093 312.427 181.47 312.427 181.47 313.253 T
187.093 312.842 187.093 312.427 181.47 313.253 T
0 LC
[] 0 setdash
0 0 0 C
187.093 312.842 LS
181.47 313.253 L
175.847 313.804 L
170.224 314.542 L
164.601 315.524 L
158.978 316.824 L
153.355 318.534 L
147.732 320.768 L
142.109 323.661 L
136.486 327.365 L
130.863 332.047 L
125.24 337.863 L
119.617 344.924 L
113.994 353.233 L
108.371 362.558 L
102.748 372.247 L
97.1248 380.897 L
91.5019 385.841 L
85.8789 382.31 L
80.2559 362.133 L
80.2559 312.427 L
85.8789 312.427 L
91.5019 312.427 L
97.1248 312.427 L
102.748 312.427 L
108.371 312.427 L
113.994 312.427 L
119.617 312.427 L
125.24 312.427 L
130.863 312.427 L
136.486 312.427 L
142.109 312.427 L
147.732 312.427 L
153.355 312.427 L
158.978 312.427 L
164.601 312.427 L
170.224 312.427 L
175.847 312.427 L
181.47 312.427 L
187.093 312.427 L
187.093 312.842 LE
1 1 1 C
80.2559 312.427 80.2559 343.94 85.8789 312.427 T
85.8789 356.839 85.8789 312.427 80.2559 343.94 T
91.5019 312.427 85.8789 312.427 85.8789 356.839 T
91.5019 359.097 91.5019 312.427 85.8789 356.839 T
97.1248 312.427 91.5019 312.427 91.5019 359.097 T
97.1248 355.936 97.1248 312.427 91.5019 359.097 T
102.748 312.427 97.1248 312.427 97.1248 355.936 T
102.748 350.406 102.748 312.427 97.1248 355.936 T
108.371 312.427 102.748 312.427 102.748 350.406 T
108.371 344.212 108.371 312.427 102.748 350.406 T
113.994 312.427 108.371 312.427 108.371 344.212 T
113.994 338.25 113.994 312.427 108.371 344.212 T
119.617 312.427 113.994 312.427 113.994 338.25 T
119.617 332.938 119.617 312.427 113.994 338.25 T
125.24 312.427 119.617 312.427 119.617 332.938 T
125.24 328.423 125.24 312.427 119.617 332.938 T
130.863 312.427 125.24 312.427 125.24 328.423 T
130.863 324.705 130.863 312.427 125.24 328.423 T
136.486 312.427 130.863 312.427 130.863 324.705 T
136.486 321.712 136.486 312.427 130.863 324.705 T
142.109 312.427 136.486 312.427 136.486 321.712 T
142.109 319.344 142.109 312.427 136.486 321.712 T
147.732 312.427 142.109 312.427 142.109 319.344 T
147.732 317.495 147.732 312.427 142.109 319.344 T
153.355 312.427 147.732 312.427 147.732 317.495 T
153.355 316.066 153.355 312.427 147.732 317.495 T
158.978 312.427 153.355 312.427 153.355 316.066 T
158.978 314.973 158.978 312.427 153.355 316.066 T
164.601 312.427 158.978 312.427 158.978 314.973 T
164.601 314.142 164.601 312.427 158.978 314.973 T
170.224 312.427 164.601 312.427 164.601 314.142 T
170.224 313.514 170.224 312.427 164.601 314.142 T
175.847 312.427 170.224 312.427 170.224 313.514 T
175.847 313.043 175.847 312.427 170.224 313.514 T
181.47 312.427 175.847 312.427 175.847 313.043 T
181.47 312.69 181.47 312.427 175.847 313.043 T
187.093 312.427 181.47 312.427 181.47 312.69 T
0 0 0 C
187.093 312.427 LS
181.47 312.69 L
175.847 313.043 L
170.224 313.514 L
164.601 314.142 L
158.978 314.973 L
153.355 316.066 L
147.732 317.495 L
142.109 319.344 L
136.486 321.712 L
130.863 324.705 L
125.24 328.423 L
119.617 332.938 L
113.994 338.25 L
108.371 344.212 L
102.748 350.406 L
97.1248 355.936 L
91.5019 359.097 L
85.8789 356.839 L
80.2559 343.94 L
80.2559 312.427 L
85.8789 312.427 L
91.5019 312.427 L
97.1248 312.427 L
102.748 312.427 L
108.371 312.427 L
113.994 312.427 L
119.617 312.427 L
125.24 312.427 L
130.863 312.427 L
136.486 312.427 L
142.109 312.427 L
147.732 312.427 L
153.355 312.427 L
158.978 312.427 L
164.601 312.427 L
170.224 312.427 L
175.847 312.427 L
181.47 312.427 L
187.093 312.427 LE
3 W
1 LJ
80.2559 353.281 LS
85.8789 369.916 L
91.5019 372.828 L
97.1248 368.752 L
102.748 361.62 L
108.371 353.631 L
113.994 345.942 L
119.617 339.092 L
125.24 333.27 L
130.863 328.475 L
136.486 324.615 L
142.109 321.56 L
147.732 319.176 L
153.355 317.334 L
158.978 315.923 L
164.601 314.851 L
170.224 314.042 L
175.847 313.434 L
181.47 312.979 L
187.093 312.64 LE
grestore
gsave
1.0 1.0 scale
newpath 0 0 moveto 576 0 lineto 576 432 lineto 0 432 lineto
closepath clip
1 1 1 C
247.35 385.841 354.186 312.427 247.35 312.427 T
247.35 385.841 354.186 385.841 354.186 312.427 T
0.5 W
0.15 0.15 0.15 C
269.842 312.427 LS
269.842 313.502 LE
269.842 385.841 LS
269.842 384.766 LE
297.956 312.427 LS
297.956 313.502 LE
297.956 385.841 LS
297.956 384.766 LE
326.071 312.427 LS
326.071 313.502 LE
326.071 385.841 LS
326.071 384.766 LE
354.186 312.427 LS
354.186 313.502 LE
354.186 385.841 LS
354.186 384.766 LE
gsave
0.14902 0.14902 0.14902 C
(5) [10] 0 266.842 296.885 10 /Helvetica SRX
grestore

gsave
0.14902 0.14902 0.14902 C
(10) [6 10] 0 291.956 296.885 10 /Helvetica SRX
grestore

gsave
0.14902 0.14902 0.14902 C
(15) [6 10] 0 320.071 296.885 10 /Helvetica SRX
grestore

gsave
0.14902 0.14902 0.14902 C
(20) [6 10] 0 348.186 296.885 10 /Helvetica SRX
grestore

247.35 318.434 LS
248.416 318.434 LE
354.186 318.434 LS
353.12 318.434 LE
247.35 331.657 LS
248.416 331.657 LE
354.186 331.657 LS
353.12 331.657 LE
247.35 344.881 LS
248.416 344.881 LE
354.186 344.881 LS
353.12 344.881 LE
247.35 358.105 LS
248.416 358.105 LE
354.186 358.105 LS
353.12 358.105 LE
247.35 371.328 LS
248.416 371.328 LE
354.186 371.328 LS
353.12 371.328 LE
247.35 384.552 LS
248.416 384.552 LE
354.186 384.552 LS
353.12 384.552 LE
gsave
0.14902 0.14902 0.14902 C
(-0.00025) [3 6 3 6 6 6 6 10] 0 200.357 314.434 10 /Helvetica SRX
grestore

gsave
0.14902 0.14902 0.14902 C
(-0.0002) [3 6 3 6 6 6 10] 0 206.357 327.657 10 /Helvetica SRX
grestore

gsave
0.14902 0.14902 0.14902 C
(-0.00015) [3 6 3 6 6 6 6 10] 0 200.357 340.881 10 /Helvetica SRX
grestore

gsave
0.14902 0.14902 0.14902 C
(-0.0001) [3 6 3 6 6 6 10] 0 206.357 354.105 10 /Helvetica SRX
grestore

gsave
0.14902 0.14902 0.14902 C
(-5e-05) [3 6 5 3 6 10] 0 213.357 367.328 10 /Helvetica SRX
grestore

gsave
0.14902 0.14902 0.14902 C
(0) [10] 0 236.357 380.552 10 /Helvetica SRX
grestore

2 LC
[16 0] 0 setdash
247.35 312.427 LS
354.186 312.427 LE
247.35 385.841 LS
354.186 385.841 LE
247.35 312.427 LS
247.35 385.841 LE
354.186 312.427 LS
354.186 385.841 LE
gsave
0 0 0 C
(r_hat) [4 6 7 6 10] 0 287.268 397.841 11 /Helvetica-Bold SRX
grestore

0.9 0.9 0.9 C
247.35 312.427 247.35 384.531 252.973 312.427 T
252.973 385.841 252.973 312.427 247.35 384.531 T
258.596 312.427 252.973 312.427 252.973 385.841 T
258.596 380.033 258.596 312.427 252.973 385.841 T
264.219 312.427 258.596 312.427 258.596 380.033 T
264.219 373.569 264.219 312.427 258.596 380.033 T
269.842 312.427 264.219 312.427 264.219 373.569 T
269.842 368.519 269.842 312.427 264.219 373.569 T
275.465 312.427 269.842 312.427 269.842 368.519 T
275.465 359.443 275.465 312.427 269.842 368.519 T
281.087 312.427 275.465 312.427 275.465 359.443 T
281.087 356.964 281.087 312.427 275.465 359.443 T
286.71 312.427 281.087 312.427 281.087 356.964 T
286.71 353.367 286.71 312.427 281.087 356.964 T
292.333 312.427 286.71 312.427 286.71 353.367 T
292.333 351.962 292.333 312.427 286.71 353.367 T
297.956 312.427 292.333 312.427 292.333 351.962 T
297.956 351.589 297.956 312.427 292.333 351.962 T
303.579 312.427 297.956 312.427 297.956 351.589 T
303.579 353.62 303.579 312.427 297.956 351.589 T
309.202 312.427 303.579 312.427 303.579 353.62 T
309.202 354.318 309.202 312.427 303.579 353.62 T
314.825 312.427 309.202 312.427 309.202 354.318 T
314.825 357.593 314.825 312.427 309.202 354.318 T
320.448 312.427 314.825 312.427 314.825 357.593 T
320.448 357.897 320.448 312.427 314.825 357.593 T
326.071 312.427 320.448 312.427 320.448 357.897 T
326.071 358.58 326.071 312.427 320.448 357.897 T
331.694 312.427 326.071 312.427 326.071 358.58 T
331.694 360.477 331.694 312.427 326.071 358.58 T
337.317 312.427 331.694 312.427 331.694 360.477 T
337.317 362.263 337.317 312.427 331.694 360.477 T
342.94 312.427 337.317 312.427 337.317 362.263 T
342.94 363.509 342.94 312.427 337.317 362.263 T
348.563 312.427 342.94 312.427 342.94 363.509 T
348.563 364.24 348.563 312.427 342.94 363.509 T
354.186 312.427 348.563 312.427 348.563 364.24 T
354.186 365.373 354.186 312.427 348.563 364.24 T
0 LC
[] 0 setdash
0 0 0 C
354.186 365.373 LS
348.563 364.24 L
342.94 363.509 L
337.317 362.263 L
331.694 360.477 L
326.071 358.58 L
320.448 357.897 L
314.825 357.593 L
309.202 354.318 L
303.579 353.62 L
297.956 351.589 L
292.333 351.962 L
286.71 353.367 L
281.087 356.964 L
275.465 359.443 L
269.842 368.519 L
264.219 373.569 L
258.596 380.033 L
252.973 385.841 L
247.35 384.531 L
247.35 312.427 L
252.973 312.427 L
258.596 312.427 L
264.219 312.427 L
269.842 312.427 L
275.465 312.427 L
281.087 312.427 L
286.71 312.427 L
292.333 312.427 L
297.956 312.427 L
303.579 312.427 L
309.202 312.427 L
314.825 312.427 L
320.448 312.427 L
326.071 312.427 L
331.694 312.427 L
337.317 312.427 L
342.94 312.427 L
348.563 312.427 L
354.186 312.427 L
354.186 365.373 LE
1 1 1 C
275.465 312.427 281.087 314.509 281.087 312.427 T
286.71 312.427 281.087 312.427 281.087 314.509 T
286.71 316.222 286.71 312.427 281.087 314.509 T
292.333 312.427 286.71 312.427 286.71 316.222 T
292.333 316.97 292.333 312.427 286.71 316.222 T
297.956 312.427 292.333 312.427 292.333 316.97 T
297.956 319.594 297.956 312.427 292.333 316.97 T
303.579 312.427 297.956 312.427 297.956 319.594 T
303.579 324.439 303.579 312.427 297.956 319.594 T
309.202 312.427 303.579 312.427 303.579 324.439 T
309.202 327.403 309.202 312.427 303.579 324.439 T
314.825 312.427 309.202 312.427 309.202 327.403 T
314.825 332.585 314.825 312.427 309.202 327.403 T
320.448 312.427 314.825 312.427 314.825 332.585 T
320.448 335.175 320.448 312.427 314.825 332.585 T
326.071 312.427 320.448 312.427 320.448 335.175 T
326.071 337.914 326.071 312.427 320.448 335.175 T
331.694 312.427 326.071 312.427 326.071 337.914 T
331.694 341.67 331.694 312.427 326.071 337.914 T
337.317 312.427 331.694 312.427 331.694 341.67 T
337.317 345.33 337.317 312.427 331.694 341.67 T
342.94 312.427 337.317 312.427 337.317 345.33 T
342.94 348.13 342.94 312.427 337.317 345.33 T
348.563 312.427 342.94 312.427 342.94 348.13 T
348.563 350.364 348.563 312.427 342.94 348.13 T
354.186 312.427 348.563 312.427 348.563 350.364 T
354.186 352.477 354.186 312.427 348.563 350.364 T
247.35 312.427 247.35 347.721 252.973 312.427 T
252.973 330.411 252.973 312.427 247.35 347.721 T
258.596 312.427 252.973 312.427 252.973 330.411 T
258.596 322.164 258.596 312.427 252.973 330.411 T
264.219 312.427 258.596 312.427 258.596 322.164 T
264.219 316.98 264.219 312.427 258.596 322.164 T
269.842 312.427 264.219 312.427 264.219 316.98 T
269.842 316.287 269.842 312.427 264.219 316.98 T
275.465 312.427 269.842 312.427 269.842 316.287 T
0 0 0 C
275.465 312.427 LS
269.842 316.287 L
264.219 316.98 L
258.596 322.164 L
252.973 330.411 L
247.35 347.721 L
247.35 312.427 L
252.973 312.427 L
258.596 312.427 L
264.219 312.427 L
269.842 312.427 L
275.465 312.427 LE
354.186 352.477 LS
348.563 350.364 L
342.94 348.13 L
337.317 345.33 L
331.694 341.67 L
326.071 337.914 L
320.448 335.175 L
314.825 332.585 L
309.202 327.403 L
303.579 324.439 L
297.956 319.594 L
292.333 316.97 L
286.71 316.222 L
281.087 314.509 L
275.465 312.427 L
281.087 312.427 L
286.71 312.427 L
292.333 312.427 L
297.956 312.427 L
303.579 312.427 L
309.202 312.427 L
314.825 312.427 L
320.448 312.427 L
326.071 312.427 L
331.694 312.427 L
337.317 312.427 L
342.94 312.427 L
348.563 312.427 L
354.186 312.427 L
354.186 352.477 LE
3 W
1 LJ
247.35 368.394 LS
252.973 361.258 L
258.596 353.959 L
264.219 347.023 L
269.842 341.39 L
275.465 337.465 L
281.087 335.248 L
286.71 334.519 L
292.333 334.977 L
297.956 336.312 L
303.579 338.246 L
309.202 340.549 L
314.825 343.039 L
320.448 345.58 L
326.071 348.077 L
331.694 350.465 L
337.317 352.702 L
342.94 354.767 L
348.563 356.651 L
354.186 358.354 LE
grestore
gsave
1.0 1.0 scale
newpath 0 0 moveto 576 0 lineto 576 432 lineto 0 432 lineto
closepath clip
1 1 1 C
414.443 385.841 521.28 312.427 414.443 312.427 T
414.443 385.841 521.28 385.841 521.28 312.427 T
0.5 W
0.15 0.15 0.15 C
436.935 312.427 LS
436.935 313.502 LE
436.935 385.841 LS
436.935 384.766 LE
465.05 312.427 LS
465.05 313.502 LE
465.05 385.841 LS
465.05 384.766 LE
493.165 312.427 LS
493.165 313.502 LE
493.165 385.841 LS
493.165 384.766 LE
521.28 312.427 LS
521.28 313.502 LE
521.28 385.841 LS
521.28 384.766 LE
gsave
0.14902 0.14902 0.14902 C
(5) [10] 0 433.935 296.885 10 /Helvetica SRX
grestore

gsave
0.14902 0.14902 0.14902 C
(10) [6 10] 0 459.05 296.885 10 /Helvetica SRX
grestore

gsave
0.14902 0.14902 0.14902 C
(15) [6 10] 0 487.165 296.885 10 /Helvetica SRX
grestore

gsave
0.14902 0.14902 0.14902 C
(20) [6 10] 0 515.28 296.885 10 /Helvetica SRX
grestore

414.443 319.428 LS
415.51 319.428 LE
521.28 319.428 LS
520.213 319.428 LE
414.443 330.767 LS
415.51 330.767 LE
521.28 330.767 LS
520.213 330.767 LE
414.443 342.106 LS
415.51 342.106 LE
521.28 342.106 LS
520.213 342.106 LE
414.443 353.445 LS
415.51 353.445 LE
521.28 353.445 LS
520.213 353.445 LE
414.443 364.784 LS
415.51 364.784 LE
521.28 364.784 LS
520.213 364.784 LE
414.443 376.123 LS
415.51 376.123 LE
521.28 376.123 LS
520.213 376.123 LE
gsave
0.14902 0.14902 0.14902 C
(0.004) [6 3 6 6 10] 0 382.451 315.428 10 /Helvetica SRX
grestore

gsave
0.14902 0.14902 0.14902 C
(0.006) [6 3 6 6 10] 0 382.451 326.767 10 /Helvetica SRX
grestore

gsave
0.14902 0.14902 0.14902 C
(0.008) [6 3 6 6 10] 0 382.451 338.106 10 /Helvetica SRX
grestore

gsave
0.14902 0.14902 0.14902 C
(0.01) [6 3 6 10] 0 388.451 349.445 10 /Helvetica SRX
grestore

gsave
0.14902 0.14902 0.14902 C
(0.012) [6 3 6 6 10] 0 382.451 360.784 10 /Helvetica SRX
grestore

gsave
0.14902 0.14902 0.14902 C
(0.014) [6 3 6 6 10] 0 382.451 372.123 10 /Helvetica SRX
grestore

2 LC
[16 0] 0 setdash
414.443 312.427 LS
521.28 312.427 LE
414.443 385.841 LS
521.28 385.841 LE
414.443 312.427 LS
414.443 385.841 LE
521.28 312.427 LS
521.28 385.841 LE
gsave
0 0 0 C
(Y_hat) [7 6 7 6 10] 0 452.862 397.841 11 /Helvetica-Bold SRX
grestore

0.9 0.9 0.9 C
414.443 312.427 414.443 352.316 420.066 312.427 T
420.066 375.819 420.066 312.427 414.443 352.316 T
425.689 312.427 420.066 312.427 420.066 375.819 T
425.689 385.642 425.689 312.427 420.066 375.819 T
431.312 312.427 425.689 312.427 425.689 385.642 T
431.312 385.841 431.312 312.427 425.689 385.642 T
436.935 312.427 431.312 312.427 431.312 385.841 T
436.935 384.836 436.935 312.427 431.312 385.841 T
442.558 312.427 436.935 312.427 436.935 384.836 T
442.558 377.849 442.558 312.427 436.935 384.836 T
448.181 312.427 442.558 312.427 442.558 377.849 T
448.181 370.493 448.181 312.427 442.558 377.849 T
453.804 312.427 448.181 312.427 448.181 370.493 T
453.804 362.586 453.804 312.427 448.181 370.493 T
459.427 312.427 453.804 312.427 453.804 362.586 T
459.427 355.366 459.427 312.427 453.804 362.586 T
465.05 312.427 459.427 312.427 459.427 355.366 T
465.05 348.445 465.05 312.427 459.427 355.366 T
470.673 312.427 465.05 312.427 465.05 348.445 T
470.673 344.357 470.673 312.427 465.05 348.445 T
476.296 312.427 470.673 312.427 470.673 344.357 T
476.296 339.741 476.296 312.427 470.673 344.357 T
481.919 312.427 476.296 312.427 476.296 339.741 T
481.919 336.095 481.919 312.427 476.296 339.741 T
487.542 312.427 481.919 312.427 481.919 336.095 T
487.542 332.465 487.542 312.427 481.919 336.095 T
493.165 312.427 487.542 312.427 487.542 332.465 T
493.165 330.446 493.165 312.427 487.542 332.465 T
498.788 312.427 493.165 312.427 493.165 330.446 T
498.788 327.396 498.788 312.427 493.165 330.446 T
504.411 312.427 498.788 312.427 498.788 327.396 T
504.411 325.7 504.411 312.427 498.788 327.396 T
510.034 312.427 504.411 312.427 504.411 325.7 T
510.034 324.287 510.034 312.427 504.411 325.7 T
515.657 312.427 510.034 312.427 510.034 324.287 T
515.657 323.204 515.657 312.427 510.034 324.287 T
521.28 312.427 515.657 312.427 515.657 323.204 T
521.28 322.221 521.28 312.427 515.657 323.204 T
0 LC
[] 0 setdash
0 0 0 C
521.28 322.221 LS
515.657 323.204 L
510.034 324.287 L
504.411 325.7 L
498.788 327.396 L
493.165 330.446 L
487.542 332.465 L
481.919 336.095 L
476.296 339.741 L
470.673 344.357 L
465.05 348.445 L
459.427 355.366 L
453.804 362.586 L
448.181 370.493 L
442.558 377.849 L
436.935 384.836 L
431.312 385.841 L
425.689 385.642 L
420.066 375.819 L
414.443 352.316 L
414.443 312.427 L
420.066 312.427 L
425.689 312.427 L
431.312 312.427 L
436.935 312.427 L
442.558 312.427 L
448.181 312.427 L
453.804 312.427 L
459.427 312.427 L
465.05 312.427 L
470.673 312.427 L
476.296 312.427 L
481.919 312.427 L
487.542 312.427 L
493.165 312.427 L
498.788 312.427 L
504.411 312.427 L
510.034 312.427 L
515.657 312.427 L
521.28 312.427 L
521.28 322.221 LE
1 1 1 C
414.443 312.427 414.443 328.946 420.066 312.427 T
420.066 342.355 420.066 312.427 414.443 328.946 T
425.689 312.427 420.066 312.427 420.066 342.355 T
425.689 347.969 425.689 312.427 420.066 342.355 T
431.312 312.427 425.689 312.427 425.689 347.969 T
431.312 348.104 431.312 312.427 425.689 347.969 T
436.935 312.427 431.312 312.427 431.312 348.104 T
436.935 349.491 436.935 312.427 431.312 348.104 T
442.558 312.427 436.935 312.427 436.935 349.491 T
442.558 346.129 442.558 312.427 436.935 349.491 T
448.181 312.427 442.558 312.427 442.558 346.129 T
448.181 342.448 448.181 312.427 442.558 346.129 T
453.804 312.427 448.181 312.427 448.181 342.448 T
453.804 338.02 453.804 312.427 448.181 342.448 T
459.427 312.427 453.804 312.427 453.804 338.02 T
459.427 333.516 459.427 312.427 453.804 338.02 T
465.05 312.427 459.427 312.427 459.427 333.516 T
465.05 328.675 465.05 312.427 459.427 333.516 T
470.673 312.427 465.05 312.427 465.05 328.675 T
470.673 326.55 470.673 312.427 465.05 328.675 T
476.296 312.427 470.673 312.427 470.673 326.55 T
476.296 323.623 476.296 312.427 470.673 326.55 T
481.919 312.427 476.296 312.427 476.296 323.623 T
481.919 321.246 481.919 312.427 476.296 323.623 T
487.542 312.427 481.919 312.427 481.919 321.246 T
487.542 318.707 487.542 312.427 481.919 321.246 T
493.165 312.427 487.542 312.427 487.542 318.707 T
493.165 317.633 493.165 312.427 487.542 318.707 T
498.788 312.427 493.165 312.427 493.165 317.633 T
498.788 315.347 498.788 312.427 493.165 317.633 T
504.411 312.427 498.788 312.427 498.788 315.347 T
504.411 314.392 504.411 312.427 498.788 315.347 T
510.034 312.427 504.411 312.427 504.411 314.392 T
510.034 313.603 510.034 312.427 504.411 314.392 T
515.657 312.427 510.034 312.427 510.034 313.603 T
515.657 312.992 515.657 312.427 510.034 313.603 T
521.28 312.427 515.657 312.427 515.657 312.992 T
0 0 0 C
521.28 312.427 LS
515.657 312.992 L
510.034 313.603 L
504.411 314.392 L
498.788 315.347 L
493.165 317.633 L
487.542 318.707 L
481.919 321.246 L
476.296 323.623 L
470.673 326.55 L
465.05 328.675 L
459.427 333.516 L
453.804 338.02 L
448.181 342.448 L
442.558 346.129 L
436.935 349.491 L
431.312 348.104 L
425.689 347.969 L
420.066 342.355 L
414.443 328.946 L
414.443 312.427 L
420.066 312.427 L
425.689 312.427 L
431.312 312.427 L
436.935 312.427 L
442.558 312.427 L
448.181 312.427 L
453.804 312.427 L
459.427 312.427 L
465.05 312.427 L
470.673 312.427 L
476.296 312.427 L
481.919 312.427 L
487.542 312.427 L
493.165 312.427 L
498.788 312.427 L
504.411 312.427 L
510.034 312.427 L
515.657 312.427 L
521.28 312.427 LE
3 W
1 LJ
414.443 340.384 LS
420.066 358.188 L
425.689 366.192 L
431.312 367.865 L
436.935 365.621 L
442.558 361.203 L
448.181 355.796 L
453.804 350.159 L
459.427 344.746 L
465.05 339.806 L
470.673 335.447 L
476.296 331.694 L
481.919 328.52 L
487.542 325.872 L
493.165 323.684 L
498.788 321.889 L
504.411 320.424 L
510.034 319.229 L
515.657 318.256 L
521.28 317.46 LE
grestore
gsave
1.0 1.0 scale
newpath 0 0 moveto 576 0 lineto 576 432 lineto 0 432 lineto
closepath clip
1 1 1 C
80.2559 253.387 187.093 179.974 80.2559 179.974 T
80.2559 253.387 187.093 253.387 187.093 179.974 T
0.5 W
0.15 0.15 0.15 C
102.748 179.974 LS
102.748 181.048 LE
102.748 253.387 LS
102.748 252.312 LE
130.863 179.974 LS
130.863 181.048 LE
130.863 253.387 LS
130.863 252.312 LE
158.978 179.974 LS
158.978 181.048 LE
158.978 253.387 LS
158.978 252.312 LE
187.093 179.974 LS
187.093 181.048 LE
187.093 253.387 LS
187.093 252.312 LE
gsave
0.14902 0.14902 0.14902 C
(5) [10] 0 99.7478 164.431 10 /Helvetica SRX
grestore

gsave
0.14902 0.14902 0.14902 C
(10) [6 10] 0 124.863 164.431 10 /Helvetica SRX
grestore

gsave
0.14902 0.14902 0.14902 C
(15) [6 10] 0 152.978 164.431 10 /Helvetica SRX
grestore

gsave
0.14902 0.14902 0.14902 C
(20) [6 10] 0 181.093 164.431 10 /Helvetica SRX
grestore

80.2559 189.234 LS
81.3226 189.234 LE
187.093 189.234 LS
186.026 189.234 LE
80.2559 203.74 LS
81.3226 203.74 LE
187.093 203.74 LS
186.026 203.74 LE
80.2559 218.246 LS
81.3226 218.246 LE
187.093 218.246 LS
186.026 218.246 LE
80.2559 232.752 LS
81.3226 232.752 LE
187.093 232.752 LS
186.026 232.752 LE
80.2559 247.258 LS
81.3226 247.258 LE
187.093 247.258 LS
186.026 247.258 LE
gsave
0.14902 0.14902 0.14902 C
(0.002) [6 3 6 6 10] 0 48.2635 185.234 10 /Helvetica SRX
grestore

gsave
0.14902 0.14902 0.14902 C
(0.003) [6 3 6 6 10] 0 48.2635 199.74 10 /Helvetica SRX
grestore

gsave
0.14902 0.14902 0.14902 C
(0.004) [6 3 6 6 10] 0 48.2635 214.246 10 /Helvetica SRX
grestore

gsave
0.14902 0.14902 0.14902 C
(0.005) [6 3 6 6 10] 0 48.2635 228.752 10 /Helvetica SRX
grestore

gsave
0.14902 0.14902 0.14902 C
(0.006) [6 3 6 6 10] 0 48.2635 243.258 10 /Helvetica SRX
grestore

2 LC
[16 0] 0 setdash
80.2559 179.974 LS
187.093 179.974 LE
80.2559 253.387 LS
187.093 253.387 LE
80.2559 179.974 LS
80.2559 253.387 LE
187.093 179.974 LS
187.093 253.387 LE
gsave
0 0 0 C
(C_hat) [8 6 7 6 10] 0 118.174 265.387 11 /Helvetica-Bold SRX
grestore

0.9 0.9 0.9 C
80.2559 179.974 80.2559 202.137 85.8789 179.974 T
85.8789 223.348 85.8789 179.974 80.2559 202.137 T
91.5019 179.974 85.8789 179.974 85.8789 223.348 T
91.5019 237.6 91.5019 179.974 85.8789 223.348 T
97.1248 179.974 91.5019 179.974 91.5019 237.6 T
97.1248 245.821 97.1248 179.974 91.5019 237.6 T
102.748 179.974 97.1248 179.974 97.1248 245.821 T
102.748 252.865 102.748 179.974 97.1248 245.821 T
108.371 179.974 102.748 179.974 102.748 252.865 T
108.371 253.387 108.371 179.974 102.748 252.865 T
113.994 179.974 108.371 179.974 108.371 253.387 T
113.994 252.509 113.994 179.974 108.371 253.387 T
119.617 179.974 113.994 179.974 113.994 252.509 T
119.617 250.364 119.617 179.974 113.994 252.509 T
125.24 179.974 119.617 179.974 119.617 250.364 T
125.24 247.125 125.24 179.974 119.617 250.364 T
130.863 179.974 125.24 179.974 125.24 247.125 T
130.863 242.714 130.863 179.974 125.24 247.125 T
136.486 179.974 130.863 179.974 130.863 242.714 T
136.486 239.463 136.486 179.974 130.863 242.714 T
142.109 179.974 136.486 179.974 136.486 239.463 T
142.109 236.034 142.109 179.974 136.486 239.463 T
147.732 179.974 142.109 179.974 142.109 236.034 T
147.732 233.735 147.732 179.974 142.109 236.034 T
153.355 179.974 147.732 179.974 147.732 233.735 T
153.355 230.199 153.355 179.974 147.732 233.735 T
158.978 179.974 153.355 179.974 153.355 230.199 T
158.978 227.658 158.978 179.974 153.355 230.199 T
164.601 179.974 158.978 179.974 158.978 227.658 T
164.601 225.274 164.601 179.974 158.978 227.658 T
170.224 179.974 164.601 179.974 164.601 225.274 T
170.224 223.23 170.224 179.974 164.601 225.274 T
175.847 179.974 170.224 179.974 170.224 223.23 T
175.847 221.612 175.847 179.974 170.224 223.23 T
181.47 179.974 175.847 179.974 175.847 221.612 T
181.47 220.316 181.47 179.974 175.847 221.612 T
187.093 179.974 181.47 179.974 181.47 220.316 T
187.093 218.867 187.093 179.974 181.47 220.316 T
0 LC
[] 0 setdash
0 0 0 C
187.093 218.867 LS
181.47 220.316 L
175.847 221.612 L
170.224 223.23 L
164.601 225.274 L
158.978 227.658 L
153.355 230.199 L
147.732 233.735 L
142.109 236.034 L
136.486 239.463 L
130.863 242.714 L
125.24 247.125 L
119.617 250.364 L
113.994 252.509 L
108.371 253.387 L
102.748 252.865 L
97.1248 245.821 L
91.5019 237.6 L
85.8789 223.348 L
80.2559 202.137 L
80.2559 179.974 L
85.8789 179.974 L
91.5019 179.974 L
97.1248 179.974 L
102.748 179.974 L
108.371 179.974 L
113.994 179.974 L
119.617 179.974 L
125.24 179.974 L
130.863 179.974 L
136.486 179.974 L
142.109 179.974 L
147.732 179.974 L
153.355 179.974 L
158.978 179.974 L
164.601 179.974 L
170.224 179.974 L
175.847 179.974 L
181.47 179.974 L
187.093 179.974 L
187.093 218.867 LE
1 1 1 C
80.2559 179.974 85.8789 188.836 85.8789 179.974 T
91.5019 179.974 85.8789 179.974 85.8789 188.836 T
91.5019 196.9 91.5019 179.974 85.8789 188.836 T
97.1248 179.974 91.5019 179.974 91.5019 196.9 T
97.1248 202.819 97.1248 179.974 91.5019 196.9 T
102.748 179.974 97.1248 179.974 97.1248 202.819 T
102.748 210.024 102.748 179.974 97.1248 202.819 T
108.371 179.974 102.748 179.974 102.748 210.024 T
108.371 213.016 108.371 179.974 102.748 210.024 T
113.994 179.974 108.371 179.974 108.371 213.016 T
113.994 214.911 113.994 179.974 108.371 213.016 T
119.617 179.974 113.994 179.974 113.994 214.911 T
119.617 214.923 119.617 179.974 113.994 214.911 T
125.24 179.974 119.617 179.974 119.617 214.923 T
125.24 213.824 125.24 179.974 119.617 214.923 T
130.863 179.974 125.24 179.974 125.24 213.824 T
130.863 211.229 130.863 179.974 125.24 213.824 T
136.486 179.974 130.863 179.974 130.863 211.229 T
136.486 209.808 136.486 179.974 130.863 211.229 T
142.109 179.974 136.486 179.974 136.486 209.808 T
142.109 207.635 142.109 179.974 136.486 209.808 T
147.732 179.974 142.109 179.974 142.109 207.635 T
147.732 206.472 147.732 179.974 142.109 207.635 T
153.355 179.974 147.732 179.974 147.732 206.472 T
153.355 204.075 153.355 179.974 147.732 206.472 T
158.978 179.974 153.355 179.974 153.355 204.075 T
158.978 202.398 158.978 179.974 153.355 204.075 T
164.601 179.974 158.978 179.974 158.978 202.398 T
164.601 200.927 164.601 179.974 158.978 202.398 T
170.224 179.974 164.601 179.974 164.601 200.927 T
170.224 199.619 170.224 179.974 164.601 200.927 T
175.847 179.974 170.224 179.974 170.224 199.619 T
175.847 198.64 175.847 179.974 170.224 199.619 T
181.47 179.974 175.847 179.974 175.847 198.64 T
181.47 197.956 181.47 179.974 175.847 198.64 T
187.093 179.974 181.47 179.974 181.47 197.956 T
187.093 197.117 187.093 179.974 181.47 197.956 T
0 0 0 C
187.093 197.117 LS
181.47 197.956 L
175.847 198.64 L
170.224 199.619 L
164.601 200.927 L
158.978 202.398 L
153.355 204.075 L
147.732 206.472 L
142.109 207.635 L
136.486 209.808 L
130.863 211.229 L
125.24 213.824 L
119.617 214.923 L
113.994 214.911 L
108.371 213.016 L
102.748 210.024 L
97.1248 202.819 L
91.5019 196.9 L
85.8789 188.836 L
80.2559 179.974 L
85.8789 179.974 L
91.5019 179.974 L
97.1248 179.974 L
102.748 179.974 L
108.371 179.974 L
113.994 179.974 L
119.617 179.974 L
125.24 179.974 L
130.863 179.974 L
136.486 179.974 L
142.109 179.974 L
147.732 179.974 L
153.355 179.974 L
158.978 179.974 L
164.601 179.974 L
170.224 179.974 L
175.847 179.974 L
181.47 179.974 L
187.093 179.974 L
187.093 197.117 LE
3 W
1 LJ
80.2559 191.399 LS
85.8789 206.71 L
91.5019 218.08 L
97.1248 225.946 L
102.748 230.639 L
108.371 232.731 L
113.994 232.869 L
119.617 231.658 L
125.24 229.606 L
130.863 227.103 L
136.486 224.433 L
142.109 221.786 L
147.732 219.282 L
153.355 216.986 L
158.978 214.926 L
164.601 213.107 L
170.224 211.516 L
175.847 210.133 L
181.47 208.933 L
187.093 207.892 LE
grestore
gsave
1.0 1.0 scale
newpath 0 0 moveto 576 0 lineto 576 432 lineto 0 432 lineto
closepath clip
1 1 1 C
247.35 253.387 354.186 179.974 247.35 179.974 T
247.35 253.387 354.186 253.387 354.186 179.974 T
0.5 W
0.15 0.15 0.15 C
269.842 179.974 LS
269.842 181.048 LE
269.842 253.387 LS
269.842 252.312 LE
297.956 179.974 LS
297.956 181.048 LE
297.956 253.387 LS
297.956 252.312 LE
326.071 179.974 LS
326.071 181.048 LE
326.071 253.387 LS
326.071 252.312 LE
354.186 179.974 LS
354.186 181.048 LE
354.186 253.387 LS
354.186 252.312 LE
gsave
0.14902 0.14902 0.14902 C
(5) [10] 0 266.842 164.431 10 /Helvetica SRX
grestore

gsave
0.14902 0.14902 0.14902 C
(10) [6 10] 0 291.956 164.431 10 /Helvetica SRX
grestore

gsave
0.14902 0.14902 0.14902 C
(15) [6 10] 0 320.071 164.431 10 /Helvetica SRX
grestore

gsave
0.14902 0.14902 0.14902 C
(20) [6 10] 0 348.186 164.431 10 /Helvetica SRX
grestore

247.35 182.26 LS
248.416 182.26 LE
354.186 182.26 LS
353.12 182.26 LE
247.35 197.395 LS
248.416 197.395 LE
354.186 197.395 LS
353.12 197.395 LE
247.35 212.53 LS
248.416 212.53 LE
354.186 212.53 LS
353.12 212.53 LE
247.35 227.664 LS
248.416 227.664 LE
354.186 227.664 LS
353.12 227.664 LE
247.35 242.799 LS
248.416 242.799 LE
354.186 242.799 LS
353.12 242.799 LE
gsave
0.14902 0.14902 0.14902 C
(0.005) [6 3 6 6 10] 0 215.357 178.26 10 /Helvetica SRX
grestore

gsave
0.14902 0.14902 0.14902 C
(0.01) [6 3 6 10] 0 221.357 193.395 10 /Helvetica SRX
grestore

gsave
0.14902 0.14902 0.14902 C
(0.015) [6 3 6 6 10] 0 215.357 208.53 10 /Helvetica SRX
grestore

gsave
0.14902 0.14902 0.14902 C
(0.02) [6 3 6 10] 0 221.357 223.664 10 /Helvetica SRX
grestore

gsave
0.14902 0.14902 0.14902 C
(0.025) [6 3 6 6 10] 0 215.357 238.799 10 /Helvetica SRX
grestore

2 LC
[16 0] 0 setdash
247.35 179.974 LS
354.186 179.974 LE
247.35 253.387 LS
354.186 253.387 LE
247.35 179.974 LS
247.35 253.387 LE
354.186 179.974 LS
354.186 253.387 LE
gsave
0 0 0 C
(I_hat) [3 6 7 6 10] 0 287.768 265.387 11 /Helvetica-Bold SRX
grestore

0.9 0.9 0.9 C
247.35 179.974 247.35 253.387 252.973 179.974 T
252.973 249.65 252.973 179.974 247.35 253.387 T
258.596 179.974 252.973 179.974 252.973 249.65 T
258.596 245.424 258.596 179.974 252.973 249.65 T
264.219 179.974 258.596 179.974 258.596 245.424 T
264.219 241.915 264.219 179.974 258.596 245.424 T
269.842 179.974 264.219 179.974 264.219 241.915 T
269.842 234.797 269.842 179.974 264.219 241.915 T
275.465 179.974 269.842 179.974 269.842 234.797 T
275.465 231.175 275.465 179.974 269.842 234.797 T
281.087 179.974 275.465 179.974 275.465 231.175 T
281.087 224.896 281.087 179.974 275.465 231.175 T
286.71 179.974 281.087 179.974 281.087 224.896 T
286.71 220.179 286.71 179.974 281.087 224.896 T
292.333 179.974 286.71 179.974 286.71 220.179 T
292.333 215.544 292.333 179.974 286.71 220.179 T
297.956 179.974 292.333 179.974 292.333 215.544 T
297.956 211.163 297.956 179.974 292.333 215.544 T
303.579 179.974 297.956 179.974 297.956 211.163 T
303.579 207.354 303.579 179.974 297.956 211.163 T
309.202 179.974 303.579 179.974 303.579 207.354 T
309.202 203.773 309.202 179.974 303.579 207.354 T
314.825 179.974 309.202 179.974 309.202 203.773 T
314.825 200.986 314.825 179.974 309.202 203.773 T
320.448 179.974 314.825 179.974 314.825 200.986 T
320.448 198.048 320.448 179.974 314.825 200.986 T
326.071 179.974 320.448 179.974 320.448 198.048 T
326.071 195.482 326.071 179.974 320.448 198.048 T
331.694 179.974 326.071 179.974 326.071 195.482 T
331.694 193.435 331.694 179.974 326.071 195.482 T
337.317 179.974 331.694 179.974 331.694 193.435 T
337.317 191.558 337.317 179.974 331.694 193.435 T
342.94 179.974 337.317 179.974 337.317 191.558 T
342.94 189.706 342.94 179.974 337.317 191.558 T
348.563 179.974 342.94 179.974 342.94 189.706 T
348.563 188.066 348.563 179.974 342.94 189.706 T
354.186 179.974 348.563 179.974 348.563 188.066 T
354.186 187.092 354.186 179.974 348.563 188.066 T
0 LC
[] 0 setdash
0 0 0 C
354.186 187.092 LS
348.563 188.066 L
342.94 189.706 L
337.317 191.558 L
331.694 193.435 L
326.071 195.482 L
320.448 198.048 L
314.825 200.986 L
309.202 203.773 L
303.579 207.354 L
297.956 211.163 L
292.333 215.544 L
286.71 220.179 L
281.087 224.896 L
275.465 231.175 L
269.842 234.797 L
264.219 241.915 L
258.596 245.424 L
252.973 249.65 L
247.35 253.387 L
247.35 179.974 L
252.973 179.974 L
258.596 179.974 L
264.219 179.974 L
269.842 179.974 L
275.465 179.974 L
281.087 179.974 L
286.71 179.974 L
292.333 179.974 L
297.956 179.974 L
303.579 179.974 L
309.202 179.974 L
314.825 179.974 L
320.448 179.974 L
326.071 179.974 L
331.694 179.974 L
337.317 179.974 L
342.94 179.974 L
348.563 179.974 L
354.186 179.974 L
354.186 187.092 LE
1 1 1 C
247.35 179.974 247.35 213.009 252.973 179.974 T
252.973 211.435 252.973 179.974 247.35 213.009 T
258.596 179.974 252.973 179.974 252.973 211.435 T
258.596 210.06 258.596 179.974 252.973 211.435 T
264.219 179.974 258.596 179.974 258.596 210.06 T
264.219 209.86 264.219 179.974 258.596 210.06 T
269.842 179.974 264.219 179.974 264.219 209.86 T
269.842 205.252 269.842 179.974 264.219 209.86 T
275.465 179.974 269.842 179.974 269.842 205.252 T
275.465 204.415 275.465 179.974 269.842 205.252 T
281.087 179.974 275.465 179.974 275.465 204.415 T
281.087 200.848 281.087 179.974 275.465 204.415 T
286.71 179.974 281.087 179.974 281.087 200.848 T
286.71 198.308 286.71 179.974 281.087 200.848 T
292.333 179.974 286.71 179.974 286.71 198.308 T
292.333 195.744 292.333 179.974 286.71 198.308 T
297.956 179.974 292.333 179.974 292.333 195.744 T
297.956 193.398 297.956 179.974 292.333 195.744 T
303.579 179.974 297.956 179.974 297.956 193.398 T
303.579 191.245 303.579 179.974 297.956 193.398 T
309.202 179.974 303.579 179.974 303.579 191.245 T
309.202 189.272 309.202 179.974 303.579 191.245 T
314.825 179.974 309.202 179.974 309.202 189.272 T
314.825 187.943 314.825 179.974 309.202 189.272 T
320.448 179.974 314.825 179.974 314.825 187.943 T
320.448 186.25 320.448 179.974 314.825 187.943 T
326.071 179.974 320.448 179.974 320.448 186.25 T
326.071 184.753 326.071 179.974 320.448 186.25 T
331.694 179.974 326.071 179.974 326.071 184.753 T
331.694 183.649 331.694 179.974 326.071 184.753 T
337.317 179.974 331.694 179.974 331.694 183.649 T
337.317 182.638 337.317 179.974 331.694 183.649 T
342.94 179.974 337.317 179.974 337.317 182.638 T
342.94 181.506 342.94 179.974 337.317 182.638 T
348.563 179.974 342.94 179.974 342.94 181.506 T
348.563 180.398 348.563 179.974 342.94 181.506 T
354.186 179.974 348.563 179.974 348.563 180.398 T
0 0 0 C
354.186 179.974 LS
348.563 180.398 L
342.94 181.506 L
337.317 182.638 L
331.694 183.649 L
326.071 184.753 L
320.448 186.25 L
314.825 187.943 L
309.202 189.272 L
303.579 191.245 L
297.956 193.398 L
292.333 195.744 L
286.71 198.308 L
281.087 200.848 L
275.465 204.415 L
269.842 205.252 L
264.219 209.86 L
258.596 210.06 L
252.973 211.435 L
247.35 213.009 L
247.35 179.974 L
252.973 179.974 L
258.596 179.974 L
264.219 179.974 L
269.842 179.974 L
275.465 179.974 L
281.087 179.974 L
286.71 179.974 L
292.333 179.974 L
297.956 179.974 L
303.579 179.974 L
309.202 179.974 L
314.825 179.974 L
320.448 179.974 L
326.071 179.974 L
331.694 179.974 L
337.317 179.974 L
342.94 179.974 L
348.563 179.974 L
354.186 179.974 LE
3 W
1 LJ
247.35 232.369 LS
252.973 230.777 L
258.596 228.299 L
264.219 225.189 L
269.842 221.649 L
275.465 217.871 L
281.087 214.022 L
286.71 210.236 L
292.333 206.612 L
297.956 203.215 L
303.579 200.083 L
309.202 197.232 L
314.825 194.664 L
320.448 192.371 L
326.071 190.335 L
331.694 188.537 L
337.317 186.955 L
342.94 185.566 L
348.563 184.35 L
354.186 183.286 LE
grestore
gsave
1.0 1.0 scale
newpath 0 0 moveto 576 0 lineto 576 432 lineto 0 432 lineto
closepath clip
1 1 1 C
414.443 253.387 521.28 179.974 414.443 179.974 T
414.443 253.387 521.28 253.387 521.28 179.974 T
0.5 W
0.15 0.15 0.15 C
436.935 179.974 LS
436.935 181.048 LE
436.935 253.387 LS
436.935 252.312 LE
465.05 179.974 LS
465.05 181.048 LE
465.05 253.387 LS
465.05 252.312 LE
493.165 179.974 LS
493.165 181.048 LE
493.165 253.387 LS
493.165 252.312 LE
521.28 179.974 LS
521.28 181.048 LE
521.28 253.387 LS
521.28 252.312 LE
gsave
0.14902 0.14902 0.14902 C
(5) [10] 0 433.935 164.431 10 /Helvetica SRX
grestore

gsave
0.14902 0.14902 0.14902 C
(10) [6 10] 0 459.05 164.431 10 /Helvetica SRX
grestore

gsave
0.14902 0.14902 0.14902 C
(15) [6 10] 0 487.165 164.431 10 /Helvetica SRX
grestore

gsave
0.14902 0.14902 0.14902 C
(20) [6 10] 0 515.28 164.431 10 /Helvetica SRX
grestore

414.443 193.367 LS
415.51 193.367 LE
521.28 193.367 LS
520.213 193.367 LE
414.443 211.592 LS
415.51 211.592 LE
521.28 211.592 LS
520.213 211.592 LE
414.443 229.817 LS
415.51 229.817 LE
521.28 229.817 LS
520.213 229.817 LE
414.443 248.042 LS
415.51 248.042 LE
521.28 248.042 LS
520.213 248.042 LE
gsave
0.14902 0.14902 0.14902 C
(0.002) [6 3 6 6 10] 0 382.451 189.367 10 /Helvetica SRX
grestore

gsave
0.14902 0.14902 0.14902 C
(0.004) [6 3 6 6 10] 0 382.451 207.592 10 /Helvetica SRX
grestore

gsave
0.14902 0.14902 0.14902 C
(0.006) [6 3 6 6 10] 0 382.451 225.817 10 /Helvetica SRX
grestore

gsave
0.14902 0.14902 0.14902 C
(0.008) [6 3 6 6 10] 0 382.451 244.042 10 /Helvetica SRX
grestore

2 LC
[16 0] 0 setdash
414.443 179.974 LS
521.28 179.974 LE
414.443 253.387 LS
521.28 253.387 LE
414.443 179.974 LS
414.443 253.387 LE
521.28 179.974 LS
521.28 253.387 LE
gsave
0 0 0 C
(L_hat) [7 6 7 6 10] 0 452.862 265.387 11 /Helvetica-Bold SRX
grestore

0.9 0.9 0.9 C
414.443 179.974 414.443 202.87 420.066 179.974 T
420.066 227.394 420.066 179.974 414.443 202.87 T
425.689 179.974 420.066 179.974 420.066 227.394 T
425.689 243.802 425.689 179.974 420.066 227.394 T
431.312 179.974 425.689 179.974 425.689 243.802 T
431.312 250.828 431.312 179.974 425.689 243.802 T
436.935 179.974 431.312 179.974 431.312 250.828 T
436.935 253.387 436.935 179.974 431.312 250.828 T
442.558 179.974 436.935 179.974 436.935 253.387 T
442.558 253.001 442.558 179.974 436.935 253.387 T
448.181 179.974 442.558 179.974 442.558 253.001 T
448.181 248.09 448.181 179.974 442.558 253.001 T
453.804 179.974 448.181 179.974 448.181 248.09 T
453.804 242.731 453.804 179.974 448.181 248.09 T
459.427 179.974 453.804 179.974 453.804 242.731 T
459.427 237.882 459.427 179.974 453.804 242.731 T
465.05 179.974 459.427 179.974 459.427 237.882 T
465.05 232.148 465.05 179.974 459.427 237.882 T
470.673 179.974 465.05 179.974 465.05 232.148 T
470.673 227.915 470.673 179.974 465.05 232.148 T
476.296 179.974 470.673 179.974 470.673 227.915 T
476.296 223.014 476.296 179.974 470.673 227.915 T
481.919 179.974 476.296 179.974 476.296 223.014 T
481.919 219.68 481.919 179.974 476.296 223.014 T
487.542 179.974 481.919 179.974 481.919 219.68 T
487.542 215.422 487.542 179.974 481.919 219.68 T
493.165 179.974 487.542 179.974 487.542 215.422 T
493.165 212.856 493.165 179.974 487.542 215.422 T
498.788 179.974 493.165 179.974 493.165 212.856 T
498.788 210.299 498.788 179.974 493.165 212.856 T
504.411 179.974 498.788 179.974 498.788 210.299 T
504.411 208.149 504.411 179.974 498.788 210.299 T
510.034 179.974 504.411 179.974 504.411 208.149 T
510.034 206.29 510.034 179.974 504.411 208.149 T
515.657 179.974 510.034 179.974 510.034 206.29 T
515.657 204.648 515.657 179.974 510.034 206.29 T
521.28 179.974 515.657 179.974 515.657 204.648 T
521.28 203.47 521.28 179.974 515.657 204.648 T
0 LC
[] 0 setdash
0 0 0 C
521.28 203.47 LS
515.657 204.648 L
510.034 206.29 L
504.411 208.149 L
498.788 210.299 L
493.165 212.856 L
487.542 215.422 L
481.919 219.68 L
476.296 223.014 L
470.673 227.915 L
465.05 232.148 L
459.427 237.882 L
453.804 242.731 L
448.181 248.09 L
442.558 253.001 L
436.935 253.387 L
431.312 250.828 L
425.689 243.802 L
420.066 227.394 L
414.443 202.87 L
414.443 179.974 L
420.066 179.974 L
425.689 179.974 L
431.312 179.974 L
436.935 179.974 L
442.558 179.974 L
448.181 179.974 L
453.804 179.974 L
459.427 179.974 L
465.05 179.974 L
470.673 179.974 L
476.296 179.974 L
481.919 179.974 L
487.542 179.974 L
493.165 179.974 L
498.788 179.974 L
504.411 179.974 L
510.034 179.974 L
515.657 179.974 L
521.28 179.974 L
521.28 203.47 LE
1 1 1 C
414.443 179.974 420.066 189.341 420.066 179.974 T
425.689 179.974 420.066 179.974 420.066 189.341 T
425.689 198.583 425.689 179.974 420.066 189.341 T
431.312 179.974 425.689 179.974 425.689 198.583 T
431.312 205.049 431.312 179.974 425.689 198.583 T
436.935 179.974 431.312 179.974 431.312 205.049 T
436.935 210.324 436.935 179.974 431.312 205.049 T
442.558 179.974 436.935 179.974 436.935 210.324 T
442.558 214.667 442.558 179.974 436.935 210.324 T
448.181 179.974 442.558 179.974 442.558 214.667 T
448.181 215.476 448.181 179.974 442.558 214.667 T
453.804 179.974 448.181 179.974 448.181 215.476 T
453.804 214.349 453.804 179.974 448.181 215.476 T
459.427 179.974 453.804 179.974 453.804 214.349 T
459.427 213.458 459.427 179.974 453.804 214.349 T
465.05 179.974 459.427 179.974 459.427 213.458 T
465.05 210.145 465.05 179.974 459.427 213.458 T
470.673 179.974 465.05 179.974 465.05 210.145 T
470.673 208.236 470.673 179.974 465.05 210.145 T
476.296 179.974 470.673 179.974 470.673 208.236 T
476.296 205.067 476.296 179.974 470.673 208.236 T
481.919 179.974 476.296 179.974 476.296 205.067 T
481.919 202.859 481.919 179.974 476.296 205.067 T
487.542 179.974 481.919 179.974 481.919 202.859 T
487.542 199.628 487.542 179.974 481.919 202.859 T
493.165 179.974 487.542 179.974 487.542 199.628 T
493.165 198.136 493.165 179.974 487.542 199.628 T
498.788 179.974 493.165 179.974 493.165 198.136 T
498.788 196.408 498.788 179.974 493.165 198.136 T
504.411 179.974 498.788 179.974 498.788 196.408 T
504.411 195.005 504.411 179.974 498.788 196.408 T
510.034 179.974 504.411 179.974 504.411 195.005 T
510.034 193.908 510.034 179.974 504.411 195.005 T
515.657 179.974 510.034 179.974 510.034 193.908 T
515.657 192.899 515.657 179.974 510.034 193.908 T
521.28 179.974 515.657 179.974 515.657 192.899 T
521.28 192.218 521.28 179.974 515.657 192.899 T
0 0 0 C
521.28 192.218 LS
515.657 192.899 L
510.034 193.908 L
504.411 195.005 L
498.788 196.408 L
493.165 198.136 L
487.542 199.628 L
481.919 202.859 L
476.296 205.067 L
470.673 208.236 L
465.05 210.145 L
459.427 213.458 L
453.804 214.349 L
448.181 215.476 L
442.558 214.667 L
436.935 210.324 L
431.312 205.049 L
425.689 198.583 L
420.066 189.341 L
414.443 179.974 L
420.066 179.974 L
425.689 179.974 L
431.312 179.974 L
436.935 179.974 L
442.558 179.974 L
448.181 179.974 L
453.804 179.974 L
459.427 179.974 L
465.05 179.974 L
470.673 179.974 L
476.296 179.974 L
481.919 179.974 L
487.542 179.974 L
493.165 179.974 L
498.788 179.974 L
504.411 179.974 L
510.034 179.974 L
515.657 179.974 L
521.28 179.974 L
521.28 192.218 LE
3 W
1 LJ
414.443 192.23 LS
420.066 208.904 L
425.689 221.4 L
431.312 229.17 L
436.935 232.844 L
442.558 233.397 L
448.181 231.797 L
453.804 228.867 L
459.427 225.239 L
465.05 221.368 L
470.673 217.557 L
476.296 213.992 L
481.919 210.77 L
487.542 207.934 L
493.165 205.483 L
498.788 203.395 L
504.411 201.635 L
510.034 200.162 L
515.657 198.936 L
521.28 197.917 LE
grestore
gsave
1.0 1.0 scale
newpath 0 0 moveto 576 0 lineto 576 432 lineto 0 432 lineto
closepath clip
1 1 1 C
80.2559 120.933 187.093 47.52 80.2559 47.52 T
80.2559 120.933 187.093 120.933 187.093 47.52 T
0.5 W
0.15 0.15 0.15 C
102.748 47.52 LS
102.748 48.5944 LE
102.748 120.933 LS
102.748 119.859 LE
130.863 47.52 LS
130.863 48.5944 LE
130.863 120.933 LS
130.863 119.859 LE
158.978 47.52 LS
158.978 48.5944 LE
158.978 120.933 LS
158.978 119.859 LE
187.093 47.52 LS
187.093 48.5944 LE
187.093 120.933 LS
187.093 119.859 LE
gsave
0.14902 0.14902 0.14902 C
(5) [10] 0 99.7478 31.9776 10 /Helvetica SRX
grestore

gsave
0.14902 0.14902 0.14902 C
(10) [6 10] 0 124.863 31.9776 10 /Helvetica SRX
grestore

gsave
0.14902 0.14902 0.14902 C
(15) [6 10] 0 152.978 31.9776 10 /Helvetica SRX
grestore

gsave
0.14902 0.14902 0.14902 C
(20) [6 10] 0 181.093 31.9776 10 /Helvetica SRX
grestore

80.2559 55.4701 LS
81.3226 55.4701 LE
187.093 55.4701 LS
186.026 55.4701 LE
80.2559 72.1904 LS
81.3226 72.1904 LE
187.093 72.1904 LS
186.026 72.1904 LE
80.2559 88.9107 LS
81.3226 88.9107 LE
187.093 88.9107 LS
186.026 88.9107 LE
80.2559 105.631 LS
81.3226 105.631 LE
187.093 105.631 LS
186.026 105.631 LE
gsave
0.14902 0.14902 0.14902 C
(-0.001) [3 6 3 6 6 10] 0 45.2635 51.4701 10 /Helvetica SRX
grestore

gsave
0.14902 0.14902 0.14902 C
(0) [10] 0 69.2635 68.1904 10 /Helvetica SRX
grestore

gsave
0.14902 0.14902 0.14902 C
(0.001) [6 3 6 6 10] 0 48.2635 84.9107 10 /Helvetica SRX
grestore

gsave
0.14902 0.14902 0.14902 C
(0.002) [6 3 6 6 10] 0 48.2635 101.631 10 /Helvetica SRX
grestore

2 LC
[16 0] 0 setdash
80.2559 47.52 LS
187.093 47.52 LE
80.2559 120.933 LS
187.093 120.933 LE
80.2559 47.52 LS
80.2559 120.933 LE
187.093 47.52 LS
187.093 120.933 LE
gsave
0 0 0 C
(tb_y_hat) [4 7 6 6 6 7 6 10] 0 110.674 133.933 11 /Helvetica-Bold SRX
grestore

0.9 0.9 0.9 C
80.2559 47.52 80.2559 77.2305 85.8789 47.52 T
85.8789 110.762 85.8789 47.52 80.2559 77.2305 T
91.5019 47.52 85.8789 47.52 85.8789 110.762 T
91.5019 120.933 91.5019 47.52 85.8789 110.762 T
97.1248 47.52 91.5019 47.52 91.5019 120.933 T
97.1248 117.763 97.1248 47.52 91.5019 120.933 T
102.748 47.52 97.1248 47.52 97.1248 117.763 T
102.748 108.815 102.748 47.52 97.1248 117.763 T
108.371 47.52 102.748 47.52 102.748 108.815 T
108.371 98.0365 108.371 47.52 102.748 108.815 T
113.994 47.52 108.371 47.52 108.371 98.0365 T
113.994 88.3652 113.994 47.52 108.371 98.0365 T
119.617 47.52 113.994 47.52 113.994 88.3652 T
119.617 80.6111 119.617 47.52 113.994 88.3652 T
125.24 47.52 119.617 47.52 119.617 80.6111 T
125.24 74.631 125.24 47.52 119.617 80.6111 T
130.863 47.52 125.24 47.52 125.24 74.631 T
130.863 70.7286 130.863 47.52 125.24 74.631 T
136.486 47.52 130.863 47.52 130.863 70.7286 T
136.486 67.294 136.486 47.52 130.863 70.7286 T
142.109 47.52 136.486 47.52 136.486 67.294 T
142.109 64.7182 142.109 47.52 136.486 67.294 T
147.732 47.52 142.109 47.52 142.109 64.7182 T
147.732 63.5834 147.732 47.52 142.109 64.7182 T
153.355 47.52 147.732 47.52 147.732 63.5834 T
153.355 63.1483 153.355 47.52 147.732 63.5834 T
158.978 47.52 153.355 47.52 153.355 63.1483 T
158.978 63.0787 158.978 47.52 153.355 63.1483 T
164.601 47.52 158.978 47.52 158.978 63.0787 T
164.601 63.4792 164.601 47.52 158.978 63.0787 T
170.224 47.52 164.601 47.52 164.601 63.4792 T
170.224 63.6402 170.224 47.52 164.601 63.4792 T
175.847 47.52 170.224 47.52 170.224 63.6402 T
175.847 64.232 175.847 47.52 170.224 63.6402 T
181.47 47.52 175.847 47.52 175.847 64.232 T
181.47 65.213 181.47 47.52 175.847 64.232 T
187.093 47.52 181.47 47.52 181.47 65.213 T
187.093 65.6356 187.093 47.52 181.47 65.213 T
0 LC
[] 0 setdash
0 0 0 C
187.093 65.6356 LS
181.47 65.213 L
175.847 64.232 L
170.224 63.6402 L
164.601 63.4792 L
158.978 63.0787 L
153.355 63.1483 L
147.732 63.5834 L
142.109 64.7182 L
136.486 67.294 L
130.863 70.7286 L
125.24 74.631 L
119.617 80.6111 L
113.994 88.3652 L
108.371 98.0365 L
102.748 108.815 L
97.1248 117.763 L
91.5019 120.933 L
85.8789 110.762 L
80.2559 77.2305 L
80.2559 47.52 L
85.8789 47.52 L
91.5019 47.52 L
97.1248 47.52 L
102.748 47.52 L
108.371 47.52 L
113.994 47.52 L
119.617 47.52 L
125.24 47.52 L
130.863 47.52 L
136.486 47.52 L
142.109 47.52 L
147.732 47.52 L
153.355 47.52 L
158.978 47.52 L
164.601 47.52 L
170.224 47.52 L
175.847 47.52 L
181.47 47.52 L
187.093 47.52 L
187.093 65.6356 LE
1 1 1 C
80.2559 47.52 85.8789 82.6163 85.8789 47.52 T
91.5019 47.52 85.8789 47.52 85.8789 82.6163 T
91.5019 94.7099 91.5019 47.52 85.8789 82.6163 T
97.1248 47.52 91.5019 47.52 91.5019 94.7099 T
97.1248 95.3378 97.1248 47.52 91.5019 94.7099 T
102.748 47.52 97.1248 47.52 97.1248 95.3378 T
102.748 91.0799 102.748 47.52 97.1248 95.3378 T
108.371 47.52 102.748 47.52 102.748 91.0799 T
108.371 83.693 108.371 47.52 102.748 91.0799 T
113.994 47.52 108.371 47.52 108.371 83.693 T
113.994 76.7016 113.994 47.52 108.371 83.693 T
119.617 47.52 113.994 47.52 113.994 76.7016 T
119.617 70.3123 119.617 47.52 113.994 76.7016 T
125.24 47.52 119.617 47.52 119.617 70.3123 T
125.24 64.9891 125.24 47.52 119.617 70.3123 T
130.863 47.52 125.24 47.52 125.24 64.9891 T
130.863 61.6364 130.863 47.52 125.24 64.9891 T
136.486 47.52 130.863 47.52 130.863 61.6364 T
136.486 58.5924 136.486 47.52 130.863 61.6364 T
142.109 47.52 136.486 47.52 136.486 58.5924 T
142.109 56.3296 142.109 47.52 136.486 58.5924 T
147.732 47.52 142.109 47.52 142.109 56.3296 T
147.732 55.3303 147.732 47.52 142.109 56.3296 T
153.355 47.52 147.732 47.52 147.732 55.3303 T
153.355 55.1172 153.355 47.52 147.732 55.3303 T
158.978 47.52 153.355 47.52 153.355 55.1172 T
158.978 55.2427 158.978 47.52 153.355 55.1172 T
164.601 47.52 158.978 47.52 158.978 55.2427 T
164.601 55.8919 164.601 47.52 158.978 55.2427 T
170.224 47.52 164.601 47.52 164.601 55.8919 T
170.224 56.2401 170.224 47.52 164.601 55.8919 T
175.847 47.52 170.224 47.52 170.224 56.2401 T
175.847 57.0419 175.847 47.52 170.224 56.2401 T
181.47 47.52 175.847 47.52 175.847 57.0419 T
181.47 58.3589 181.47 47.52 175.847 57.0419 T
187.093 47.52 181.47 47.52 181.47 58.3589 T
187.093 59.0957 187.093 47.52 181.47 58.3589 T
0 0 0 C
187.093 59.0957 LS
181.47 58.3589 L
175.847 57.0419 L
170.224 56.2401 L
164.601 55.8919 L
158.978 55.2427 L
153.355 55.1172 L
147.732 55.3303 L
142.109 56.3296 L
136.486 58.5924 L
130.863 61.6364 L
125.24 64.9891 L
119.617 70.3123 L
113.994 76.7016 L
108.371 83.693 L
102.748 91.0799 L
97.1248 95.3378 L
91.5019 94.7099 L
85.8789 82.6163 L
80.2559 47.52 L
85.8789 47.52 L
91.5019 47.52 L
97.1248 47.52 L
102.748 47.52 L
108.371 47.52 L
113.994 47.52 L
119.617 47.52 L
125.24 47.52 L
130.863 47.52 L
136.486 47.52 L
142.109 47.52 L
147.732 47.52 L
153.355 47.52 L
158.978 47.52 L
164.601 47.52 L
170.224 47.52 L
175.847 47.52 L
181.47 47.52 L
187.093 47.52 L
187.093 59.0957 LE
3 W
1 LJ
80.2559 62.5261 LS
85.8789 96.6872 L
91.5019 107.879 L
97.1248 106.64 L
102.748 99.7638 L
108.371 91.1153 L
113.994 82.7191 L
119.617 75.5052 L
125.24 69.784 L
130.863 65.5379 L
136.486 62.5939 L
142.109 60.7228 L
147.732 59.692 L
153.355 59.2915 L
158.978 59.3441 L
164.601 59.7072 L
170.224 60.2701 L
175.847 60.9496 L
181.47 61.6849 L
187.093 62.4329 LE
grestore
gsave
1.0 1.0 scale
newpath 0 0 moveto 576 0 lineto 576 432 lineto 0 432 lineto
closepath clip
1 1 1 C
247.35 120.933 354.186 47.52 247.35 47.52 T
247.35 120.933 354.186 120.933 354.186 47.52 T
0.5 W
0.15 0.15 0.15 C
269.842 47.52 LS
269.842 48.5944 LE
269.842 120.933 LS
269.842 119.859 LE
297.956 47.52 LS
297.956 48.5944 LE
297.956 120.933 LS
297.956 119.859 LE
326.071 47.52 LS
326.071 48.5944 LE
326.071 120.933 LS
326.071 119.859 LE
354.186 47.52 LS
354.186 48.5944 LE
354.186 120.933 LS
354.186 119.859 LE
gsave
0.14902 0.14902 0.14902 C
(5) [10] 0 266.842 31.9776 10 /Helvetica SRX
grestore

gsave
0.14902 0.14902 0.14902 C
(10) [6 10] 0 291.956 31.9776 10 /Helvetica SRX
grestore

gsave
0.14902 0.14902 0.14902 C
(15) [6 10] 0 320.071 31.9776 10 /Helvetica SRX
grestore

gsave
0.14902 0.14902 0.14902 C
(20) [6 10] 0 348.186 31.9776 10 /Helvetica SRX
grestore

247.35 50.0256 LS
248.416 50.0256 LE
354.186 50.0256 LS
353.12 50.0256 LE
247.35 66.2479 LS
248.416 66.2479 LE
354.186 66.2479 LS
353.12 66.2479 LE
247.35 82.4702 LS
248.416 82.4702 LE
354.186 82.4702 LS
353.12 82.4702 LE
247.35 98.6925 LS
248.416 98.6925 LE
354.186 98.6925 LS
353.12 98.6925 LE
247.35 114.915 LS
248.416 114.915 LE
354.186 114.915 LS
353.12 114.915 LE
gsave
0.14902 0.14902 0.14902 C
(-0.04) [3 6 3 6 10] 0 218.357 46.0256 10 /Helvetica SRX
grestore

gsave
0.14902 0.14902 0.14902 C
(-0.03) [3 6 3 6 10] 0 218.357 62.2479 10 /Helvetica SRX
grestore

gsave
0.14902 0.14902 0.14902 C
(-0.02) [3 6 3 6 10] 0 218.357 78.4702 10 /Helvetica SRX
grestore

gsave
0.14902 0.14902 0.14902 C
(-0.01) [3 6 3 6 10] 0 218.357 94.6925 10 /Helvetica SRX
grestore

gsave
0.14902 0.14902 0.14902 C
(0) [10] 0 236.357 110.915 10 /Helvetica SRX
grestore

2 LC
[16 0] 0 setdash
247.35 47.52 LS
354.186 47.52 LE
247.35 120.933 LS
354.186 120.933 LE
247.35 47.52 LS
247.35 120.933 LE
354.186 47.52 LS
354.186 120.933 LE
gsave
0 0 0 C
(D_hat) [8 6 7 6 10] 0 285.268 132.933 11 /Helvetica-Bold SRX
grestore

0.9 0.9 0.9 C
247.35 47.52 247.35 120.933 252.973 47.52 T
252.973 118.012 252.973 47.52 247.35 120.933 T
258.596 47.52 252.973 47.52 252.973 118.012 T
258.596 110.26 258.596 47.52 252.973 118.012 T
264.219 47.52 258.596 47.52 258.596 110.26 T
264.219 101.956 264.219 47.52 258.596 110.26 T
269.842 47.52 264.219 47.52 264.219 101.956 T
269.842 95.5739 269.842 47.52 264.219 101.956 T
275.465 47.52 269.842 47.52 269.842 95.5739 T
275.465 91.5272 275.465 47.52 269.842 95.5739 T
281.087 47.52 275.465 47.52 275.465 91.5272 T
281.087 88.5777 281.087 47.52 275.465 91.5272 T
286.71 47.52 281.087 47.52 281.087 88.5777 T
286.71 88.7483 286.71 47.52 281.087 88.5777 T
292.333 47.52 286.71 47.52 286.71 88.7483 T
292.333 86.9151 292.333 47.52 286.71 88.7483 T
297.956 47.52 292.333 47.52 292.333 86.9151 T
297.956 86.9954 297.956 47.52 292.333 86.9151 T
303.579 47.52 297.956 47.52 297.956 86.9954 T
303.579 87.9641 303.579 47.52 297.956 86.9954 T
309.202 47.52 303.579 47.52 303.579 87.9641 T
309.202 89.2161 309.202 47.52 303.579 87.9641 T
314.825 47.52 309.202 47.52 309.202 89.2161 T
314.825 91.1025 314.825 47.52 309.202 89.2161 T
320.448 47.52 314.825 47.52 314.825 91.1025 T
320.448 91.1866 320.448 47.52 314.825 91.1025 T
326.071 47.52 320.448 47.52 320.448 91.1866 T
326.071 93.1709 326.071 47.52 320.448 91.1866 T
331.694 47.52 326.071 47.52 326.071 93.1709 T
331.694 97.3372 331.694 47.52 326.071 93.1709 T
337.317 47.52 331.694 47.52 331.694 97.3372 T
337.317 98.6428 337.317 47.52 331.694 97.3372 T
342.94 47.52 337.317 47.52 337.317 98.6428 T
342.94 99.9951 342.94 47.52 337.317 98.6428 T
348.563 47.52 342.94 47.52 342.94 99.9951 T
348.563 101.146 348.563 47.52 342.94 99.9951 T
354.186 47.52 348.563 47.52 348.563 101.146 T
354.186 102.029 354.186 47.52 348.563 101.146 T
0 LC
[] 0 setdash
0 0 0 C
354.186 102.029 LS
348.563 101.146 L
342.94 99.9951 L
337.317 98.6428 L
331.694 97.3372 L
326.071 93.1709 L
320.448 91.1866 L
314.825 91.1025 L
309.202 89.2161 L
303.579 87.9641 L
297.956 86.9954 L
292.333 86.9151 L
286.71 88.7483 L
281.087 88.5777 L
275.465 91.5272 L
269.842 95.5739 L
264.219 101.956 L
258.596 110.26 L
252.973 118.012 L
247.35 120.933 L
247.35 47.52 L
252.973 47.52 L
258.596 47.52 L
264.219 47.52 L
269.842 47.52 L
275.465 47.52 L
281.087 47.52 L
286.71 47.52 L
292.333 47.52 L
297.956 47.52 L
303.579 47.52 L
309.202 47.52 L
314.825 47.52 L
320.448 47.52 L
326.071 47.52 L
331.694 47.52 L
337.317 47.52 L
342.94 47.52 L
348.563 47.52 L
354.186 47.52 L
354.186 102.029 LE
1 1 1 C
292.333 47.52 297.956 47.5346 297.956 47.52 T
303.579 47.52 297.956 47.52 297.956 47.5346 T
303.579 48.7405 303.579 47.52 297.956 47.5346 T
309.202 47.52 303.579 47.52 303.579 48.7405 T
309.202 50.2679 309.202 47.52 303.579 48.7405 T
314.825 47.52 309.202 47.52 309.202 50.2679 T
314.825 52.4455 314.825 47.52 309.202 50.2679 T
320.448 47.52 314.825 47.52 314.825 52.4455 T
320.448 53.1447 320.448 47.52 314.825 52.4455 T
326.071 47.52 320.448 47.52 320.448 53.1447 T
326.071 55.9002 326.071 47.52 320.448 53.1447 T
331.694 47.52 326.071 47.52 326.071 55.9002 T
331.694 60.9208 331.694 47.52 326.071 55.9002 T
337.317 47.52 331.694 47.52 331.694 60.9208 T
337.317 63.3597 337.317 47.52 331.694 60.9208 T
342.94 47.52 337.317 47.52 337.317 63.3597 T
342.94 65.9612 342.94 47.52 337.317 63.3597 T
348.563 47.52 342.94 47.52 342.94 65.9612 T
348.563 68.3685 348.563 47.52 342.94 65.9612 T
354.186 47.52 348.563 47.52 348.563 68.3685 T
354.186 70.0543 354.186 47.52 348.563 68.3685 T
247.35 47.52 247.35 113.117 252.973 47.52 T
252.973 103.006 252.973 47.52 247.35 113.117 T
258.596 47.52 252.973 47.52 252.973 103.006 T
258.596 88.8118 258.596 47.52 252.973 103.006 T
264.219 47.52 258.596 47.52 258.596 88.8118 T
264.219 75.4716 264.219 47.52 258.596 88.8118 T
269.842 47.52 264.219 47.52 264.219 75.4716 T
269.842 64.6666 269.842 47.52 264.219 75.4716 T
275.465 47.52 269.842 47.52 269.842 64.6666 T
275.465 56.5889 275.465 47.52 269.842 64.6666 T
281.087 47.52 275.465 47.52 275.465 56.5889 T
281.087 51.1054 281.087 47.52 275.465 56.5889 T
286.71 47.52 281.087 47.52 281.087 51.1054 T
286.71 49.8879 286.71 47.52 281.087 51.1054 T
292.333 47.52 286.71 47.52 286.71 49.8879 T
0 0 0 C
292.333 47.52 LS
286.71 49.8879 L
281.087 51.1054 L
275.465 56.5889 L
269.842 64.6666 L
264.219 75.4716 L
258.596 88.8118 L
252.973 103.006 L
247.35 113.117 L
247.35 47.52 L
252.973 47.52 L
258.596 47.52 L
264.219 47.52 L
269.842 47.52 L
275.465 47.52 L
281.087 47.52 L
286.71 47.52 L
292.333 47.52 LE
354.186 70.0543 LS
348.563 68.3685 L
342.94 65.9612 L
337.317 63.3597 L
331.694 60.9208 L
326.071 55.9002 L
320.448 53.1447 L
314.825 52.4455 L
309.202 50.2679 L
303.579 48.7405 L
297.956 47.5346 L
292.333 47.52 L
297.956 47.52 L
303.579 47.52 L
309.202 47.52 L
314.825 47.52 L
320.448 47.52 L
326.071 47.52 L
331.694 47.52 L
337.317 47.52 L
342.94 47.52 L
348.563 47.52 L
354.186 47.52 L
354.186 70.0543 LE
3 W
1 LJ
247.35 117.141 LS
252.973 109.985 L
258.596 99.5996 L
264.219 89.2928 L
269.842 80.6016 L
275.465 74.054 L
281.087 69.642 L
286.71 67.1041 L
292.333 66.0862 L
297.956 66.228 L
303.579 67.2055 L
309.202 68.7477 L
314.825 70.6388 L
320.448 72.7142 L
326.071 74.8529 L
331.694 76.9695 L
337.317 79.0065 L
342.94 80.928 L
348.563 82.7136 L
354.186 84.3543 LE
grestore
gsave
1.0 1.0 scale
newpath 0 0 moveto 576 0 lineto 576 432 lineto 0 432 lineto
closepath clip
1 1 1 C
414.443 120.933 521.28 47.52 414.443 47.52 T
414.443 120.933 521.28 120.933 521.28 47.52 T
0.5 W
0.15 0.15 0.15 C
436.935 47.52 LS
436.935 48.5944 LE
436.935 120.933 LS
436.935 119.859 LE
465.05 47.52 LS
465.05 48.5944 LE
465.05 120.933 LS
465.05 119.859 LE
493.165 47.52 LS
493.165 48.5944 LE
493.165 120.933 LS
493.165 119.859 LE
521.28 47.52 LS
521.28 48.5944 LE
521.28 120.933 LS
521.28 119.859 LE
gsave
0.14902 0.14902 0.14902 C
(5) [10] 0 433.935 31.9776 10 /Helvetica SRX
grestore

gsave
0.14902 0.14902 0.14902 C
(10) [6 10] 0 459.05 31.9776 10 /Helvetica SRX
grestore

gsave
0.14902 0.14902 0.14902 C
(15) [6 10] 0 487.165 31.9776 10 /Helvetica SRX
grestore

gsave
0.14902 0.14902 0.14902 C
(20) [6 10] 0 515.28 31.9776 10 /Helvetica SRX
grestore

414.443 54.8801 LS
415.51 54.8801 LE
521.28 54.8801 LS
520.213 54.8801 LE
414.443 70.1802 LS
415.51 70.1802 LE
521.28 70.1802 LS
520.213 70.1802 LE
414.443 85.4804 LS
415.51 85.4804 LE
521.28 85.4804 LS
520.213 85.4804 LE
414.443 100.781 LS
415.51 100.781 LE
521.28 100.781 LS
520.213 100.781 LE
414.443 116.081 LS
415.51 116.081 LE
521.28 116.081 LS
520.213 116.081 LE
gsave
0.14902 0.14902 0.14902 C
(0.001) [6 3 6 6 10] 0 382.451 50.8801 10 /Helvetica SRX
grestore

gsave
0.14902 0.14902 0.14902 C
(0.002) [6 3 6 6 10] 0 382.451 66.1802 10 /Helvetica SRX
grestore

gsave
0.14902 0.14902 0.14902 C
(0.003) [6 3 6 6 10] 0 382.451 81.4804 10 /Helvetica SRX
grestore

gsave
0.14902 0.14902 0.14902 C
(0.004) [6 3 6 6 10] 0 382.451 96.7805 10 /Helvetica SRX
grestore

gsave
0.14902 0.14902 0.14902 C
(0.005) [6 3 6 6 10] 0 382.451 112.081 10 /Helvetica SRX
grestore

2 LC
[16 0] 0 setdash
414.443 47.52 LS
521.28 47.52 LE
414.443 120.933 LS
521.28 120.933 LE
414.443 47.52 LS
414.443 120.933 LE
521.28 47.52 LS
521.28 120.933 LE
gsave
0 0 0 C
(reer_hat) [4 6 6 4 6 7 6 10] 0 446.362 132.933 11 /Helvetica-Bold SRX
grestore

0.9 0.9 0.9 C
414.443 47.52 414.443 102.594 420.066 47.52 T
420.066 110.46 420.066 47.52 414.443 102.594 T
425.689 47.52 420.066 47.52 420.066 110.46 T
425.689 117.888 425.689 47.52 420.066 110.46 T
431.312 47.52 425.689 47.52 425.689 117.888 T
431.312 120.933 431.312 47.52 425.689 117.888 T
436.935 47.52 431.312 47.52 431.312 120.933 T
436.935 118.433 436.935 47.52 431.312 120.933 T
442.558 47.52 436.935 47.52 436.935 118.433 T
442.558 113.063 442.558 47.52 436.935 118.433 T
448.181 47.52 442.558 47.52 442.558 113.063 T
448.181 105.97 448.181 47.52 442.558 113.063 T
453.804 47.52 448.181 47.52 448.181 105.97 T
453.804 98.8434 453.804 47.52 448.181 105.97 T
459.427 47.52 453.804 47.52 453.804 98.8434 T
459.427 91.8631 459.427 47.52 453.804 98.8434 T
465.05 47.52 459.427 47.52 459.427 91.8631 T
465.05 85.8868 465.05 47.52 459.427 91.8631 T
470.673 47.52 465.05 47.52 465.05 85.8868 T
470.673 79.2154 470.673 47.52 465.05 85.8868 T
476.296 47.52 470.673 47.52 470.673 79.2154 T
476.296 74.5721 476.296 47.52 470.673 79.2154 T
481.919 47.52 476.296 47.52 476.296 74.5721 T
481.919 70.996 481.919 47.52 476.296 74.5721 T
487.542 47.52 481.919 47.52 481.919 70.996 T
487.542 66.8815 487.542 47.52 481.919 70.996 T
493.165 47.52 487.542 47.52 487.542 66.8815 T
493.165 63.6346 493.165 47.52 487.542 66.8815 T
498.788 47.52 493.165 47.52 493.165 63.6346 T
498.788 60.7731 498.788 47.52 493.165 63.6346 T
504.411 47.52 498.788 47.52 498.788 60.7731 T
504.411 58.1055 504.411 47.52 498.788 60.7731 T
510.034 47.52 504.411 47.52 504.411 58.1055 T
510.034 56.0663 510.034 47.52 504.411 58.1055 T
515.657 47.52 510.034 47.52 510.034 56.0663 T
515.657 54.5055 515.657 47.52 510.034 56.0663 T
521.28 47.52 515.657 47.52 515.657 54.5055 T
521.28 53.063 521.28 47.52 515.657 54.5055 T
0 LC
[] 0 setdash
0 0 0 C
521.28 53.063 LS
515.657 54.5055 L
510.034 56.0663 L
504.411 58.1055 L
498.788 60.7731 L
493.165 63.6346 L
487.542 66.8815 L
481.919 70.996 L
476.296 74.5721 L
470.673 79.2154 L
465.05 85.8868 L
459.427 91.8631 L
453.804 98.8434 L
448.181 105.97 L
442.558 113.063 L
436.935 118.433 L
431.312 120.933 L
425.689 117.888 L
420.066 110.46 L
414.443 102.594 L
414.443 47.52 L
420.066 47.52 L
425.689 47.52 L
431.312 47.52 L
436.935 47.52 L
442.558 47.52 L
448.181 47.52 L
453.804 47.52 L
459.427 47.52 L
465.05 47.52 L
470.673 47.52 L
476.296 47.52 L
481.919 47.52 L
487.542 47.52 L
493.165 47.52 L
498.788 47.52 L
504.411 47.52 L
510.034 47.52 L
515.657 47.52 L
521.28 47.52 L
521.28 53.063 LE
1 1 1 C
414.443 47.52 414.443 71.2918 420.066 47.52 T
420.066 70.0675 420.066 47.52 414.443 71.2918 T
425.689 47.52 420.066 47.52 420.066 70.0675 T
425.689 73.8952 425.689 47.52 420.066 70.0675 T
431.312 47.52 425.689 47.52 425.689 73.8952 T
431.312 77.5275 431.312 47.52 425.689 73.8952 T
436.935 47.52 431.312 47.52 431.312 77.5275 T
436.935 79.4797 436.935 47.52 431.312 77.5275 T
442.558 47.52 436.935 47.52 436.935 79.4797 T
442.558 79.341 442.558 47.52 436.935 79.4797 T
448.181 47.52 442.558 47.52 442.558 79.341 T
448.181 77.9328 448.181 47.52 442.558 79.341 T
453.804 47.52 448.181 47.52 448.181 77.9328 T
453.804 75.738 453.804 47.52 448.181 77.9328 T
459.427 47.52 453.804 47.52 453.804 75.738 T
459.427 72.2506 459.427 47.52 453.804 75.738 T
465.05 47.52 459.427 47.52 459.427 72.2506 T
465.05 69.0014 465.05 47.52 459.427 72.2506 T
470.673 47.52 465.05 47.52 465.05 69.0014 T
470.673 64.4778 470.673 47.52 465.05 69.0014 T
476.296 47.52 470.673 47.52 470.673 64.4778 T
476.296 61.4134 476.296 47.52 470.673 64.4778 T
481.919 47.52 476.296 47.52 476.296 61.4134 T
481.919 59.2116 481.919 47.52 476.296 61.4134 T
487.542 47.52 481.919 47.52 481.919 59.2116 T
487.542 56.2096 487.542 47.52 481.919 59.2116 T
493.165 47.52 487.542 47.52 487.542 56.2096 T
493.165 54.044 493.165 47.52 487.542 56.2096 T
498.788 47.52 493.165 47.52 493.165 54.044 T
498.788 52.1755 498.788 47.52 493.165 54.044 T
504.411 47.52 498.788 47.52 498.788 52.1755 T
504.411 50.4082 504.411 47.52 498.788 52.1755 T
510.034 47.52 504.411 47.52 504.411 50.4082 T
510.034 49.1537 510.034 47.52 504.411 50.4082 T
515.657 47.52 510.034 47.52 510.034 49.1537 T
515.657 48.3277 515.657 47.52 510.034 49.1537 T
521.28 47.52 515.657 47.52 515.657 48.3277 T
0 0 0 C
521.28 47.52 LS
515.657 48.3277 L
510.034 49.1537 L
504.411 50.4082 L
498.788 52.1755 L
493.165 54.044 L
487.542 56.2096 L
481.919 59.2116 L
476.296 61.4134 L
470.673 64.4778 L
465.05 69.0014 L
459.427 72.2506 L
453.804 75.738 L
448.181 77.9328 L
442.558 79.341 L
436.935 79.4797 L
431.312 77.5275 L
425.689 73.8952 L
420.066 70.0675 L
414.443 71.2918 L
414.443 47.52 L
420.066 47.52 L
425.689 47.52 L
431.312 47.52 L
436.935 47.52 L
442.558 47.52 L
448.181 47.52 L
453.804 47.52 L
459.427 47.52 L
465.05 47.52 L
470.673 47.52 L
476.296 47.52 L
481.919 47.52 L
487.542 47.52 L
493.165 47.52 L
498.788 47.52 L
504.411 47.52 L
510.034 47.52 L
515.657 47.52 L
521.28 47.52 LE
3 W
1 LJ
414.443 85.47 LS
420.066 91.5716 L
425.689 96.4441 L
431.312 98.85 L
436.935 98.4922 L
442.558 95.9383 L
448.181 91.9414 L
453.804 87.1721 L
459.427 82.1427 L
465.05 77.2063 L
470.673 72.5837 L
476.296 68.3951 L
481.919 64.6904 L
487.542 61.4723 L
493.165 58.7151 L
498.788 56.3773 L
504.411 54.4106 L
510.034 52.7654 L
515.657 51.3942 L
521.28 50.254 LE
grestore
grestore
showpage
cleartomark
%%PageTrailer
%%Trailer
end
%%EOF
