%!PS-Adobe-3.0 EPSF-3.0
%%Title: gl2ps_renderer figure
%%Creator: GL2PS 1.4.2, (C) 1999-2020 C. Geuzaine
%%For: Octave
%%CreationDate: Wed Oct  7 07:02:30 2020
%%LanguageLevel: 3
%%DocumentData: Clean7Bit
%%Pages: 1
%%BoundingBox: 0 0 576 432
%%EndComments
%%BeginProlog
/gl2psdict 64 dict def gl2psdict begin
/tryPS3shading false def % set to false to force subdivision
/rThreshold 0.064 def % red component subdivision threshold
/gThreshold 0.034 def % green component subdivision threshold
/bThreshold 0.1 def % blue component subdivision threshold
/BD { bind def } bind def
/C  { setrgbcolor } BD
/G  { 0.082 mul exch 0.6094 mul add exch 0.3086 mul add neg 1.0 add setgray } BD
/W  { setlinewidth } BD
/LC  { setlinecap } BD
/LJ  { setlinejoin } BD
/FC { findfont exch /SH exch def SH scalefont setfont } BD
/SW { dup stringwidth pop } BD
/S  { FC moveto show } BD
/SBC{ FC moveto SW -2 div 0 rmoveto show } BD
/SBR{ FC moveto SW neg 0 rmoveto show } BD
/SCL{ FC moveto 0 SH -2 div rmoveto show } BD
/SCC{ FC moveto SW -2 div SH -2 div rmoveto show } BD
/SCR{ FC moveto SW neg SH -2 div rmoveto show } BD
/STL{ FC moveto 0 SH neg rmoveto show } BD
/STC{ FC moveto SW -2 div SH neg rmoveto show } BD
/STR{ FC moveto SW neg SH neg rmoveto show } BD
/FCT { FC translate 0 0 } BD
/SR  { gsave FCT moveto rotate show grestore } BD
/SRX  { gsave FCT moveto rotate xshow grestore } BD
/SBCR{ gsave FCT moveto rotate SW -2 div 0 rmoveto show grestore } BD
/SBRR{ gsave FCT moveto rotate SW neg 0 rmoveto show grestore } BD
/SCLR{ gsave FCT moveto rotate 0 SH -2 div rmoveto show grestore} BD
/SCCR{ gsave FCT moveto rotate SW -2 div SH -2 div rmoveto show grestore} BD
/SCRR{ gsave FCT moveto rotate SW neg SH -2 div rmoveto show grestore} BD
/STLR{ gsave FCT moveto rotate 0 SH neg rmoveto show grestore } BD
/STCR{ gsave FCT moveto rotate SW -2 div SH neg rmoveto show grestore } BD
/STRR{ gsave FCT moveto rotate SW neg SH neg rmoveto show grestore } BD
/P  { newpath 0.0 360.0 arc closepath fill } BD
/LS { newpath moveto } BD
/L  { lineto } BD
/LE { lineto stroke } BD
/T  { newpath moveto lineto lineto closepath fill } BD
/STshfill {
      /b1 exch def /g1 exch def /r1 exch def /y1 exch def /x1 exch def
      /b2 exch def /g2 exch def /r2 exch def /y2 exch def /x2 exch def
      /b3 exch def /g3 exch def /r3 exch def /y3 exch def /x3 exch def
      gsave << /ShadingType 4 /ColorSpace [/DeviceRGB]
      /DataSource [ 0 x1 y1 r1 g1 b1 0 x2 y2 r2 g2 b2 0 x3 y3 r3 g3 b3 ] >>
      shfill grestore } BD
/Tm { 3 -1 roll 8 -1 roll 13 -1 roll add add 3 div
      3 -1 roll 7 -1 roll 11 -1 roll add add 3 div
      3 -1 roll 6 -1 roll 9 -1 roll add add 3 div C T } BD
/STsplit {
      4 index 15 index add 0.5 mul
      4 index 15 index add 0.5 mul
      4 index 15 index add 0.5 mul
      4 index 15 index add 0.5 mul
      4 index 15 index add 0.5 mul
      5 copy 5 copy 25 15 roll
      9 index 30 index add 0.5 mul
      9 index 30 index add 0.5 mul
      9 index 30 index add 0.5 mul
      9 index 30 index add 0.5 mul
      9 index 30 index add 0.5 mul
      5 copy 5 copy 35 5 roll 25 5 roll 15 5 roll
      4 index 10 index add 0.5 mul
      4 index 10 index add 0.5 mul
      4 index 10 index add 0.5 mul
      4 index 10 index add 0.5 mul
      4 index 10 index add 0.5 mul
      5 copy 5 copy 40 5 roll 25 5 roll 15 5 roll 25 5 roll
      STnoshfill STnoshfill STnoshfill STnoshfill } BD
/STnoshfill {
      2 index 8 index sub abs rThreshold gt
      { STsplit }
      { 1 index 7 index sub abs gThreshold gt
        { STsplit }
        { dup 6 index sub abs bThreshold gt
          { STsplit }
          { 2 index 13 index sub abs rThreshold gt
            { STsplit }
            { 1 index 12 index sub abs gThreshold gt
              { STsplit }
              { dup 11 index sub abs bThreshold gt
                { STsplit }
                { 7 index 13 index sub abs rThreshold gt
                  { STsplit }
                  { 6 index 12 index sub abs gThreshold gt
                    { STsplit }
                    { 5 index 11 index sub abs bThreshold gt
                      { STsplit }
                      { Tm }
                      ifelse }
                    ifelse }
                  ifelse }
                ifelse }
              ifelse }
            ifelse }
          ifelse }
        ifelse }
      ifelse } BD
tryPS3shading
{ /shfill where
  { /ST { STshfill } BD }
  { /ST { STnoshfill } BD }
  ifelse }
{ /ST { STnoshfill } BD }
ifelse
end
%%EndProlog
%%BeginSetup
/DeviceRGB setcolorspace
gl2psdict begin
%%EndSetup
%%Page: 1 1
%%BeginPageSetup
%%EndPageSetup
mark
gsave
1.0 1.0 scale
1 1 1 C
newpath 0 0 moveto 576 0 lineto 576 432 lineto 0 432 lineto
closepath fill
gsave
1.0 1.0 scale
1 1 1 C
newpath 0 0 moveto 576 0 lineto 576 432 lineto 0 432 lineto
closepath fill
newpath 0 0 moveto 576 0 lineto 576 432 lineto 0 432 lineto
closepath clip
1 1 1 C
74.88 386.841 187.093 312.427 74.88 312.427 T
74.88 386.841 187.093 386.841 187.093 312.427 T
0.5 W
0.15 0.15 0.15 C
98.5037 312.427 LS
98.5037 313.556 LE
98.5037 386.841 LS
98.5037 385.712 LE
128.033 312.427 LS
128.033 313.556 LE
128.033 386.841 LS
128.033 385.712 LE
157.563 312.427 LS
157.563 313.556 LE
157.563 386.841 LS
157.563 385.712 LE
187.093 312.427 LS
187.093 313.556 LE
187.093 386.841 LS
187.093 385.712 LE
gsave
0.14902 0.14902 0.14902 C
(5) [10] 0 95.5037 296.886 10 /Helvetica SRX
grestore

gsave
0.14902 0.14902 0.14902 C
(10) [6 10] 0 122.033 296.886 10 /Helvetica SRX
grestore

gsave
0.14902 0.14902 0.14902 C
(15) [6 10] 0 151.563 296.886 10 /Helvetica SRX
grestore

gsave
0.14902 0.14902 0.14902 C
(20) [6 10] 0 181.093 296.886 10 /Helvetica SRX
grestore

74.88 313.958 LS
76.0043 313.958 LE
187.093 313.958 LS
185.968 313.958 LE
74.88 328.233 LS
76.0043 328.233 LE
187.093 328.233 LS
185.968 328.233 LE
74.88 342.507 LS
76.0043 342.507 LE
187.093 342.507 LS
185.968 342.507 LE
74.88 356.782 LS
76.0043 356.782 LE
187.093 356.782 LS
185.968 356.782 LE
74.88 371.056 LS
76.0043 371.056 LE
187.093 371.056 LS
185.968 371.056 LE
74.88 385.331 LS
76.0043 385.331 LE
187.093 385.331 LS
185.968 385.331 LE
gsave
0.14902 0.14902 0.14902 C
(0) [10] 0 63.8705 309.958 10 /Helvetica SRX
grestore

gsave
0.14902 0.14902 0.14902 C
(0.005) [6 3 6 6 10] 0 42.8705 324.233 10 /Helvetica SRX
grestore

gsave
0.14902 0.14902 0.14902 C
(0.01) [6 3 6 10] 0 48.8705 338.507 10 /Helvetica SRX
grestore

gsave
0.14902 0.14902 0.14902 C
(0.015) [6 3 6 6 10] 0 42.8705 352.782 10 /Helvetica SRX
grestore

gsave
0.14902 0.14902 0.14902 C
(0.02) [6 3 6 10] 0 48.8705 367.056 10 /Helvetica SRX
grestore

gsave
0.14902 0.14902 0.14902 C
(0.025) [6 3 6 6 10] 0 42.8705 381.331 10 /Helvetica SRX
grestore

2 LC
[16 0] 0 setdash
74.88 312.427 LS
187.093 312.427 LE
74.88 386.841 LS
187.093 386.841 LE
74.88 312.427 LS
74.88 386.841 LE
187.093 312.427 LS
187.093 386.841 LE
gsave
0 0 0 C
(Y_T_hat) [7 6 7 6 7 6 10] 0 109.486 398.841 11 /Helvetica-Bold SRX
grestore

0.9 0.9 0.9 C
74.88 312.427 74.88 315.141 80.7859 312.427 T
80.7859 320.005 80.7859 312.427 74.88 315.141 T
86.6918 312.427 80.7859 312.427 80.7859 320.005 T
86.6918 386.841 86.6918 312.427 80.7859 320.005 T
92.5978 312.427 86.6918 312.427 86.6918 386.841 T
92.5978 383.604 92.5978 312.427 86.6918 386.841 T
98.5037 312.427 92.5978 312.427 92.5978 383.604 T
98.5037 379.857 98.5037 312.427 92.5978 383.604 T
104.41 312.427 98.5037 312.427 98.5037 379.857 T
104.41 375.082 104.41 312.427 98.5037 379.857 T
110.316 312.427 104.41 312.427 104.41 375.082 T
110.316 371.518 110.316 312.427 104.41 375.082 T
116.221 312.427 110.316 312.427 110.316 371.518 T
116.221 366.43 116.221 312.427 110.316 371.518 T
122.127 312.427 116.221 312.427 116.221 366.43 T
122.127 362.16 122.127 312.427 116.221 366.43 T
128.033 312.427 122.127 312.427 122.127 362.16 T
128.033 358.296 128.033 312.427 122.127 362.16 T
133.939 312.427 128.033 312.427 128.033 358.296 T
133.939 355.086 133.939 312.427 128.033 358.296 T
139.845 312.427 133.939 312.427 133.939 355.086 T
139.845 352.41 139.845 312.427 133.939 355.086 T
145.751 312.427 139.845 312.427 139.845 352.41 T
145.751 350.272 145.751 312.427 139.845 352.41 T
151.657 312.427 145.751 312.427 145.751 350.272 T
151.657 348.133 151.657 312.427 145.751 350.272 T
157.563 312.427 151.657 312.427 151.657 348.133 T
157.563 346.347 157.563 312.427 151.657 348.133 T
163.469 312.427 157.563 312.427 157.563 346.347 T
163.469 344.685 163.469 312.427 157.563 346.347 T
169.375 312.427 163.469 312.427 163.469 344.685 T
169.375 342.775 169.375 312.427 163.469 344.685 T
175.281 312.427 169.375 312.427 169.375 342.775 T
175.281 341.135 175.281 312.427 169.375 342.775 T
181.187 312.427 175.281 312.427 175.281 341.135 T
181.187 339.58 181.187 312.427 175.281 341.135 T
187.093 312.427 181.187 312.427 181.187 339.58 T
187.093 338.275 187.093 312.427 181.187 339.58 T
0 LC
[] 0 setdash
0 0 0 C
187.093 338.275 LS
181.187 339.58 L
175.281 341.135 L
169.375 342.775 L
163.469 344.685 L
157.563 346.347 L
151.657 348.133 L
145.751 350.272 L
139.845 352.41 L
133.939 355.086 L
128.033 358.296 L
122.127 362.16 L
116.221 366.43 L
110.316 371.518 L
104.41 375.082 L
98.5037 379.857 L
92.5978 383.604 L
86.6918 386.841 L
80.7859 320.005 L
74.88 315.141 L
74.88 312.427 L
80.7859 312.427 L
86.6918 312.427 L
92.5978 312.427 L
98.5037 312.427 L
104.41 312.427 L
110.316 312.427 L
116.221 312.427 L
122.127 312.427 L
128.033 312.427 L
133.939 312.427 L
139.845 312.427 L
145.751 312.427 L
151.657 312.427 L
157.563 312.427 L
163.469 312.427 L
169.375 312.427 L
175.281 312.427 L
181.187 312.427 L
187.093 312.427 L
187.093 338.275 LE
1 1 1 C
74.88 312.427 80.7859 315.346 80.7859 312.427 T
86.6918 312.427 80.7859 312.427 80.7859 315.346 T
86.6918 349.943 86.6918 312.427 80.7859 315.346 T
92.5978 312.427 86.6918 312.427 86.6918 349.943 T
92.5978 347.856 92.5978 312.427 86.6918 349.943 T
98.5037 312.427 92.5978 312.427 92.5978 347.856 T
98.5037 346.104 98.5037 312.427 92.5978 347.856 T
104.41 312.427 98.5037 312.427 98.5037 346.104 T
104.41 343.681 104.41 312.427 98.5037 346.104 T
110.316 312.427 104.41 312.427 104.41 343.681 T
110.316 342.096 110.316 312.427 104.41 343.681 T
116.221 312.427 110.316 312.427 110.316 342.096 T
116.221 339.173 116.221 312.427 110.316 342.096 T
122.127 312.427 116.221 312.427 116.221 339.173 T
122.127 337.056 122.127 312.427 116.221 339.173 T
128.033 312.427 122.127 312.427 122.127 337.056 T
128.033 334.9 128.033 312.427 122.127 337.056 T
133.939 312.427 128.033 312.427 128.033 334.9 T
133.939 333.314 133.939 312.427 128.033 334.9 T
139.845 312.427 133.939 312.427 133.939 333.314 T
139.845 331.909 139.845 312.427 133.939 333.314 T
145.751 312.427 139.845 312.427 139.845 331.909 T
145.751 331.001 145.751 312.427 139.845 331.909 T
151.657 312.427 145.751 312.427 145.751 331.001 T
151.657 329.983 151.657 312.427 145.751 331.001 T
157.563 312.427 151.657 312.427 151.657 329.983 T
157.563 329.302 157.563 312.427 151.657 329.983 T
163.469 312.427 157.563 312.427 157.563 329.302 T
163.469 328.639 163.469 312.427 157.563 329.302 T
169.375 312.427 163.469 312.427 163.469 328.639 T
169.375 327.701 169.375 312.427 163.469 328.639 T
175.281 312.427 169.375 312.427 169.375 327.701 T
175.281 326.852 175.281 312.427 169.375 327.701 T
181.187 312.427 175.281 312.427 175.281 326.852 T
181.187 325.995 181.187 312.427 175.281 326.852 T
187.093 312.427 181.187 312.427 181.187 325.995 T
187.093 325.361 187.093 312.427 181.187 325.995 T
0 0 0 C
187.093 325.361 LS
181.187 325.995 L
175.281 326.852 L
169.375 327.701 L
163.469 328.639 L
157.563 329.302 L
151.657 329.983 L
145.751 331.001 L
139.845 331.909 L
133.939 333.314 L
128.033 334.9 L
122.127 337.056 L
116.221 339.173 L
110.316 342.096 L
104.41 343.681 L
98.5037 346.104 L
92.5978 347.856 L
86.6918 349.943 L
80.7859 315.346 L
74.88 312.427 L
80.7859 312.427 L
86.6918 312.427 L
92.5978 312.427 L
98.5037 312.427 L
104.41 312.427 L
110.316 312.427 L
116.221 312.427 L
122.127 312.427 L
128.033 312.427 L
133.939 312.427 L
139.845 312.427 L
145.751 312.427 L
151.657 312.427 L
157.563 312.427 L
163.469 312.427 L
169.375 312.427 L
175.281 312.427 L
181.187 312.427 L
187.093 312.427 L
187.093 325.361 LE
3 W
1 LJ
74.88 313.686 LS
80.7859 317.642 L
86.6918 368.383 L
92.5978 367.023 L
98.5037 363.801 L
104.41 360.282 L
110.316 356.886 L
116.221 353.73 L
122.127 350.843 L
128.033 348.218 L
133.939 345.839 L
139.845 343.686 L
145.751 341.739 L
151.657 339.978 L
157.563 338.384 L
163.469 336.94 L
169.375 335.632 L
175.281 334.445 L
181.187 333.367 L
187.093 332.387 LE
grestore
gsave
1.0 1.0 scale
newpath 0 0 moveto 576 0 lineto 576 432 lineto 0 432 lineto
closepath clip
1 1 1 C
241.974 386.841 354.186 312.427 241.974 312.427 T
241.974 386.841 354.186 386.841 354.186 312.427 T
0.5 W
0.15 0.15 0.15 C
265.597 312.427 LS
265.597 313.556 LE
265.597 386.841 LS
265.597 385.712 LE
295.127 312.427 LS
295.127 313.556 LE
295.127 386.841 LS
295.127 385.712 LE
324.657 312.427 LS
324.657 313.556 LE
324.657 386.841 LS
324.657 385.712 LE
354.186 312.427 LS
354.186 313.556 LE
354.186 386.841 LS
354.186 385.712 LE
gsave
0.14902 0.14902 0.14902 C
(5) [10] 0 262.597 296.886 10 /Helvetica SRX
grestore

gsave
0.14902 0.14902 0.14902 C
(10) [6 10] 0 289.127 296.886 10 /Helvetica SRX
grestore

gsave
0.14902 0.14902 0.14902 C
(15) [6 10] 0 318.657 296.886 10 /Helvetica SRX
grestore

gsave
0.14902 0.14902 0.14902 C
(20) [6 10] 0 348.186 296.886 10 /Helvetica SRX
grestore

241.974 322.851 LS
243.098 322.851 LE
354.186 322.851 LS
353.062 322.851 LE
241.974 342.008 LS
243.098 342.008 LE
354.186 342.008 LS
353.062 342.008 LE
241.974 361.166 LS
243.098 361.166 LE
354.186 361.166 LS
353.062 361.166 LE
241.974 380.323 LS
243.098 380.323 LE
354.186 380.323 LS
353.062 380.323 LE
gsave
0.14902 0.14902 0.14902 C
(0.001) [6 3 6 6 10] 0 209.964 318.851 10 /Helvetica SRX
grestore

gsave
0.14902 0.14902 0.14902 C
(0.002) [6 3 6 6 10] 0 209.964 338.008 10 /Helvetica SRX
grestore

gsave
0.14902 0.14902 0.14902 C
(0.003) [6 3 6 6 10] 0 209.964 357.166 10 /Helvetica SRX
grestore

gsave
0.14902 0.14902 0.14902 C
(0.004) [6 3 6 6 10] 0 209.964 376.323 10 /Helvetica SRX
grestore

2 LC
[16 0] 0 setdash
241.974 312.427 LS
354.186 312.427 LE
241.974 386.841 LS
354.186 386.841 LE
241.974 312.427 LS
241.974 386.841 LE
354.186 312.427 LS
354.186 386.841 LE
gsave
0 0 0 C
(Y_N_hat) [7 6 8 6 7 6 10] 0 276.08 398.841 11 /Helvetica-Bold SRX
grestore

0.9 0.9 0.9 C
241.974 312.427 241.974 322.586 247.88 312.427 T
247.88 340.563 247.88 312.427 241.974 322.586 T
253.786 312.427 247.88 312.427 247.88 340.563 T
253.786 362.829 253.786 312.427 247.88 340.563 T
259.691 312.427 253.786 312.427 253.786 362.829 T
259.691 377.039 259.691 312.427 253.786 362.829 T
265.597 312.427 259.691 312.427 259.691 377.039 T
265.597 382.13 265.597 312.427 259.691 377.039 T
271.503 312.427 265.597 312.427 265.597 382.13 T
271.503 386.185 271.503 312.427 265.597 382.13 T
277.409 312.427 271.503 312.427 271.503 386.185 T
277.409 386.841 277.409 312.427 271.503 386.185 T
283.315 312.427 277.409 312.427 277.409 386.841 T
283.315 386.632 283.315 312.427 277.409 386.841 T
289.221 312.427 283.315 312.427 283.315 386.632 T
289.221 385.902 289.221 312.427 283.315 386.632 T
295.127 312.427 289.221 312.427 289.221 385.902 T
295.127 383.994 295.127 312.427 289.221 385.902 T
301.033 312.427 295.127 312.427 295.127 383.994 T
301.033 382.625 301.033 312.427 295.127 383.994 T
306.939 312.427 301.033 312.427 301.033 382.625 T
306.939 381.545 306.939 312.427 301.033 382.625 T
312.845 312.427 306.939 312.427 306.939 381.545 T
312.845 381.765 312.845 312.427 306.939 381.545 T
318.751 312.427 312.845 312.427 312.845 381.765 T
318.751 381.098 318.751 312.427 312.845 381.765 T
324.657 312.427 318.751 312.427 318.751 381.098 T
324.657 380.011 324.657 312.427 318.751 381.098 T
330.563 312.427 324.657 312.427 324.657 380.011 T
330.563 379.431 330.563 312.427 324.657 380.011 T
336.469 312.427 330.563 312.427 330.563 379.431 T
336.469 378.939 336.469 312.427 330.563 379.431 T
342.374 312.427 336.469 312.427 336.469 378.939 T
342.374 378.159 342.374 312.427 336.469 378.939 T
348.28 312.427 342.374 312.427 342.374 378.159 T
348.28 377.495 348.28 312.427 342.374 378.159 T
354.186 312.427 348.28 312.427 348.28 377.495 T
354.186 376.918 354.186 312.427 348.28 377.495 T
0 LC
[] 0 setdash
0 0 0 C
354.186 376.918 LS
348.28 377.495 L
342.374 378.159 L
336.469 378.939 L
330.563 379.431 L
324.657 380.011 L
318.751 381.098 L
312.845 381.765 L
306.939 381.545 L
301.033 382.625 L
295.127 383.994 L
289.221 385.902 L
283.315 386.632 L
277.409 386.841 L
271.503 386.185 L
265.597 382.13 L
259.691 377.039 L
253.786 362.829 L
247.88 340.563 L
241.974 322.586 L
241.974 312.427 L
247.88 312.427 L
253.786 312.427 L
259.691 312.427 L
265.597 312.427 L
271.503 312.427 L
277.409 312.427 L
283.315 312.427 L
289.221 312.427 L
295.127 312.427 L
301.033 312.427 L
306.939 312.427 L
312.845 312.427 L
318.751 312.427 L
324.657 312.427 L
330.563 312.427 L
336.469 312.427 L
342.374 312.427 L
348.28 312.427 L
354.186 312.427 L
354.186 376.918 LE
1 1 1 C
241.974 312.427 247.88 321.432 247.88 312.427 T
253.786 312.427 247.88 312.427 247.88 321.432 T
253.786 332.298 253.786 312.427 247.88 321.432 T
259.691 312.427 253.786 312.427 253.786 332.298 T
259.691 339.43 259.691 312.427 253.786 332.298 T
265.597 312.427 259.691 312.427 259.691 339.43 T
265.597 341.25 265.597 312.427 259.691 339.43 T
271.503 312.427 265.597 312.427 265.597 341.25 T
271.503 344.131 271.503 312.427 265.597 341.25 T
277.409 312.427 271.503 312.427 271.503 344.131 T
277.409 344.662 277.409 312.427 271.503 344.131 T
283.315 312.427 277.409 312.427 277.409 344.662 T
283.315 344.34 283.315 312.427 277.409 344.662 T
289.221 312.427 283.315 312.427 283.315 344.34 T
289.221 343.944 289.221 312.427 283.315 344.34 T
295.127 312.427 289.221 312.427 289.221 343.944 T
295.127 342.426 295.127 312.427 289.221 343.944 T
301.033 312.427 295.127 312.427 295.127 342.426 T
301.033 341.564 301.033 312.427 295.127 342.426 T
306.939 312.427 301.033 312.427 301.033 341.564 T
306.939 340.85 306.939 312.427 301.033 341.564 T
312.845 312.427 306.939 312.427 306.939 340.85 T
312.845 341.453 312.845 312.427 306.939 340.85 T
318.751 312.427 312.845 312.427 312.845 341.453 T
318.751 341.174 318.751 312.427 312.845 341.453 T
324.657 312.427 318.751 312.427 318.751 341.174 T
324.657 340.528 324.657 312.427 318.751 341.174 T
330.563 312.427 324.657 312.427 324.657 340.528 T
330.563 340.489 330.563 312.427 324.657 340.528 T
336.469 312.427 330.563 312.427 330.563 340.489 T
336.469 340.127 336.469 312.427 330.563 340.489 T
342.374 312.427 336.469 312.427 336.469 340.127 T
342.374 339.73 342.374 312.427 336.469 340.127 T
348.28 312.427 342.374 312.427 342.374 339.73 T
348.28 339.443 348.28 312.427 342.374 339.73 T
354.186 312.427 348.28 312.427 348.28 339.443 T
354.186 339.142 354.186 312.427 348.28 339.443 T
0 0 0 C
354.186 339.142 LS
348.28 339.443 L
342.374 339.73 L
336.469 340.127 L
330.563 340.489 L
324.657 340.528 L
318.751 341.174 L
312.845 341.453 L
306.939 340.85 L
301.033 341.564 L
295.127 342.426 L
289.221 343.944 L
283.315 344.34 L
277.409 344.662 L
271.503 344.131 L
265.597 341.25 L
259.691 339.43 L
253.786 332.298 L
247.88 321.432 L
241.974 312.427 L
247.88 312.427 L
253.786 312.427 L
259.691 312.427 L
265.597 312.427 L
271.503 312.427 L
277.409 312.427 L
283.315 312.427 L
289.221 312.427 L
295.127 312.427 L
301.033 312.427 L
306.939 312.427 L
312.845 312.427 L
318.751 312.427 L
324.657 312.427 L
330.563 312.427 L
336.469 312.427 L
342.374 312.427 L
348.28 312.427 L
354.186 312.427 L
354.186 339.142 LE
3 W
1 LJ
241.974 317.445 LS
247.88 330.8 L
253.786 347.779 L
259.691 358.441 L
265.597 363.743 L
271.503 365.888 L
277.409 366.385 L
283.315 366.088 L
289.221 365.442 L
295.127 364.673 L
301.033 363.889 L
306.939 363.138 L
312.845 362.44 L
318.751 361.798 L
324.657 361.21 L
330.563 360.671 L
336.469 360.174 L
342.374 359.712 L
348.28 359.28 L
354.186 358.873 LE
grestore
gsave
1.0 1.0 scale
newpath 0 0 moveto 576 0 lineto 576 432 lineto 0 432 lineto
closepath clip
1 1 1 C
409.067 386.841 521.28 312.427 409.067 312.427 T
409.067 386.841 521.28 386.841 521.28 312.427 T
0.5 W
0.15 0.15 0.15 C
432.691 312.427 LS
432.691 313.556 LE
432.691 386.841 LS
432.691 385.712 LE
462.221 312.427 LS
462.221 313.556 LE
462.221 386.841 LS
462.221 385.712 LE
491.75 312.427 LS
491.75 313.556 LE
491.75 386.841 LS
491.75 385.712 LE
521.28 312.427 LS
521.28 313.556 LE
521.28 386.841 LS
521.28 385.712 LE
gsave
0.14902 0.14902 0.14902 C
(5) [10] 0 429.691 296.886 10 /Helvetica SRX
grestore

gsave
0.14902 0.14902 0.14902 C
(10) [6 10] 0 456.221 296.886 10 /Helvetica SRX
grestore

gsave
0.14902 0.14902 0.14902 C
(15) [6 10] 0 485.75 296.886 10 /Helvetica SRX
grestore

gsave
0.14902 0.14902 0.14902 C
(20) [6 10] 0 515.28 296.886 10 /Helvetica SRX
grestore

409.067 315.909 LS
410.192 315.909 LE
521.28 315.909 LS
520.156 315.909 LE
409.067 327.136 LS
410.192 327.136 LE
521.28 327.136 LS
520.156 327.136 LE
409.067 338.364 LS
410.192 338.364 LE
521.28 338.364 LS
520.156 338.364 LE
409.067 349.592 LS
410.192 349.592 LE
521.28 349.592 LS
520.156 349.592 LE
409.067 360.82 LS
410.192 360.82 LE
521.28 360.82 LS
520.156 360.82 LE
409.067 372.048 LS
410.192 372.048 LE
521.28 372.048 LS
520.156 372.048 LE
409.067 383.276 LS
410.192 383.276 LE
521.28 383.276 LS
520.156 383.276 LE
gsave
0.14902 0.14902 0.14902 C
(-0.0035) [3 6 3 6 6 6 10] 0 368.058 311.909 10 /Helvetica SRX
grestore

gsave
0.14902 0.14902 0.14902 C
(-0.003) [3 6 3 6 6 10] 0 374.058 323.136 10 /Helvetica SRX
grestore

gsave
0.14902 0.14902 0.14902 C
(-0.0025) [3 6 3 6 6 6 10] 0 368.058 334.364 10 /Helvetica SRX
grestore

gsave
0.14902 0.14902 0.14902 C
(-0.002) [3 6 3 6 6 10] 0 374.058 345.592 10 /Helvetica SRX
grestore

gsave
0.14902 0.14902 0.14902 C
(-0.0015) [3 6 3 6 6 6 10] 0 368.058 356.82 10 /Helvetica SRX
grestore

gsave
0.14902 0.14902 0.14902 C
(-0.001) [3 6 3 6 6 10] 0 374.058 368.048 10 /Helvetica SRX
grestore

gsave
0.14902 0.14902 0.14902 C
(-0.0005) [3 6 3 6 6 6 10] 0 368.058 379.276 10 /Helvetica SRX
grestore

2 LC
[16 0] 0 setdash
409.067 312.427 LS
521.28 312.427 LE
409.067 386.841 LS
521.28 386.841 LE
409.067 312.427 LS
409.067 386.841 LE
521.28 312.427 LS
521.28 386.841 LE
gsave
0 0 0 C
(Y_C_hat) [7 6 8 6 7 6 10] 0 443.174 398.841 11 /Helvetica-Bold SRX
grestore

0.9 0.9 0.9 C
409.067 312.427 409.067 386.841 414.973 312.427 T
414.973 378.722 414.973 312.427 409.067 386.841 T
420.879 312.427 414.973 312.427 414.973 378.722 T
420.879 372.836 420.879 312.427 414.973 378.722 T
426.785 312.427 420.879 312.427 420.879 372.836 T
426.785 365.44 426.785 312.427 420.879 372.836 T
432.691 312.427 426.785 312.427 426.785 365.44 T
432.691 361.897 432.691 312.427 426.785 365.44 T
438.597 312.427 432.691 312.427 432.691 361.897 T
438.597 359.487 438.597 312.427 432.691 361.897 T
444.503 312.427 438.597 312.427 438.597 359.487 T
444.503 360.262 444.503 312.427 438.597 359.487 T
450.409 312.427 444.503 312.427 444.503 360.262 T
450.409 360.395 450.409 312.427 444.503 360.262 T
456.315 312.427 450.409 312.427 450.409 360.395 T
456.315 361.132 456.315 312.427 450.409 360.395 T
462.221 312.427 456.315 312.427 456.315 361.132 T
462.221 362.97 462.221 312.427 456.315 361.132 T
468.127 312.427 462.221 312.427 462.221 362.97 T
468.127 364.494 468.127 312.427 462.221 362.97 T
474.033 312.427 468.127 312.427 468.127 364.494 T
474.033 365.154 474.033 312.427 468.127 364.494 T
479.939 312.427 474.033 312.427 474.033 365.154 T
479.939 366.655 479.939 312.427 474.033 365.154 T
485.844 312.427 479.939 312.427 479.939 366.655 T
485.844 369.557 485.844 312.427 479.939 366.655 T
491.75 312.427 485.844 312.427 485.844 369.557 T
491.75 372.018 491.75 312.427 485.844 369.557 T
497.656 312.427 491.75 312.427 491.75 372.018 T
497.656 373.967 497.656 312.427 491.75 372.018 T
503.562 312.427 497.656 312.427 497.656 373.967 T
503.562 375.853 503.562 312.427 497.656 373.967 T
509.468 312.427 503.562 312.427 503.562 375.853 T
509.468 377.075 509.468 312.427 503.562 375.853 T
515.374 312.427 509.468 312.427 509.468 377.075 T
515.374 378.97 515.374 312.427 509.468 377.075 T
521.28 312.427 515.374 312.427 515.374 378.97 T
521.28 380.528 521.28 312.427 515.374 378.97 T
0 LC
[] 0 setdash
0 0 0 C
521.28 380.528 LS
515.374 378.97 L
509.468 377.075 L
503.562 375.853 L
497.656 373.967 L
491.75 372.018 L
485.844 369.557 L
479.939 366.655 L
474.033 365.154 L
468.127 364.494 L
462.221 362.97 L
456.315 361.132 L
450.409 360.395 L
444.503 360.262 L
438.597 359.487 L
432.691 361.897 L
426.785 365.44 L
420.879 372.836 L
414.973 378.722 L
409.067 386.841 L
409.067 312.427 L
414.973 312.427 L
420.879 312.427 L
426.785 312.427 L
432.691 312.427 L
438.597 312.427 L
444.503 312.427 L
450.409 312.427 L
456.315 312.427 L
462.221 312.427 L
468.127 312.427 L
474.033 312.427 L
479.939 312.427 L
485.844 312.427 L
491.75 312.427 L
497.656 312.427 L
503.562 312.427 L
509.468 312.427 L
515.374 312.427 L
521.28 312.427 L
521.28 380.528 LE
1 1 1 C
438.597 312.427 444.503 314.75 444.503 312.427 T
450.409 312.427 444.503 312.427 444.503 314.75 T
450.409 316.794 450.409 312.427 444.503 314.75 T
456.315 312.427 450.409 312.427 450.409 316.794 T
456.315 319.865 456.315 312.427 450.409 316.794 T
462.221 312.427 456.315 312.427 456.315 319.865 T
462.221 324.299 462.221 312.427 456.315 319.865 T
468.127 312.427 462.221 312.427 462.221 324.299 T
468.127 328.129 468.127 312.427 462.221 324.299 T
474.033 312.427 468.127 312.427 468.127 328.129 T
474.033 331.149 474.033 312.427 468.127 328.129 T
479.939 312.427 474.033 312.427 474.033 331.149 T
479.939 335.019 479.939 312.427 474.033 331.149 T
485.844 312.427 479.939 312.427 479.939 335.019 T
485.844 340.179 485.844 312.427 479.939 335.019 T
491.75 312.427 485.844 312.427 485.844 340.179 T
491.75 344.858 491.75 312.427 485.844 340.179 T
497.656 312.427 491.75 312.427 491.75 344.858 T
497.656 348.816 497.656 312.427 491.75 344.858 T
503.562 312.427 497.656 312.427 497.656 348.816 T
503.562 352.39 503.562 312.427 497.656 348.816 T
509.468 312.427 503.562 312.427 503.562 352.39 T
509.468 355.455 509.468 312.427 503.562 352.39 T
515.374 312.427 509.468 312.427 509.468 355.455 T
515.374 358.95 515.374 312.427 509.468 355.455 T
521.28 312.427 515.374 312.427 515.374 358.95 T
521.28 362.128 521.28 312.427 515.374 358.95 T
409.067 312.427 409.067 373.569 414.973 312.427 T
414.973 353.762 414.973 312.427 409.067 373.569 T
420.879 312.427 414.973 312.427 414.973 353.762 T
420.879 335.895 420.879 312.427 414.973 353.762 T
426.785 312.427 420.879 312.427 420.879 335.895 T
426.785 321.545 426.785 312.427 420.879 335.895 T
432.691 312.427 426.785 312.427 426.785 321.545 T
432.691 315.367 432.691 312.427 426.785 321.545 T
438.597 312.427 432.691 312.427 432.691 315.367 T
0 0 0 C
438.597 312.427 LS
432.691 315.367 L
426.785 321.545 L
420.879 335.895 L
414.973 353.762 L
409.067 373.569 L
409.067 312.427 L
414.973 312.427 L
420.879 312.427 L
426.785 312.427 L
432.691 312.427 L
438.597 312.427 LE
521.28 362.128 LS
515.374 358.95 L
509.468 355.455 L
503.562 352.39 L
497.656 348.816 L
491.75 344.858 L
485.844 340.179 L
479.939 335.019 L
474.033 331.149 L
468.127 328.129 L
462.221 324.299 L
456.315 319.865 L
450.409 316.794 L
444.503 314.75 L
438.597 312.427 L
444.503 312.427 L
450.409 312.427 L
456.315 312.427 L
462.221 312.427 L
468.127 312.427 L
474.033 312.427 L
479.939 312.427 L
485.844 312.427 L
491.75 312.427 L
497.656 312.427 L
503.562 312.427 L
509.468 312.427 L
515.374 312.427 L
521.28 312.427 L
521.28 362.128 LE
3 W
1 LJ
409.067 380.153 LS
414.973 366.254 L
420.879 352.977 L
426.785 343.94 L
432.691 338.821 L
438.597 336.576 L
444.503 336.306 L
450.409 337.357 L
456.315 339.274 L
462.221 341.748 L
468.127 344.562 L
474.033 347.571 L
479.939 350.673 L
485.844 353.799 L
491.75 356.9 L
497.656 359.944 L
503.562 362.911 L
509.468 365.786 L
515.374 368.561 L
521.28 371.231 LE
grestore
gsave
1.0 1.0 scale
newpath 0 0 moveto 576 0 lineto 576 432 lineto 0 432 lineto
closepath clip
1 1 1 C
74.88 254.387 187.093 179.974 74.88 179.974 T
74.88 254.387 187.093 254.387 187.093 179.974 T
0.5 W
0.15 0.15 0.15 C
98.5037 179.974 LS
98.5037 181.102 LE
98.5037 254.387 LS
98.5037 253.258 LE
128.033 179.974 LS
128.033 181.102 LE
128.033 254.387 LS
128.033 253.258 LE
157.563 179.974 LS
157.563 181.102 LE
157.563 254.387 LS
157.563 253.258 LE
187.093 179.974 LS
187.093 181.102 LE
187.093 254.387 LS
187.093 253.258 LE
gsave
0.14902 0.14902 0.14902 C
(5) [10] 0 95.5037 164.432 10 /Helvetica SRX
grestore

gsave
0.14902 0.14902 0.14902 C
(10) [6 10] 0 122.033 164.432 10 /Helvetica SRX
grestore

gsave
0.14902 0.14902 0.14902 C
(15) [6 10] 0 151.563 164.432 10 /Helvetica SRX
grestore

gsave
0.14902 0.14902 0.14902 C
(20) [6 10] 0 181.093 164.432 10 /Helvetica SRX
grestore

74.88 184.872 LS
76.0043 184.872 LE
187.093 184.872 LS
185.968 184.872 LE
74.88 196.41 LS
76.0043 196.41 LE
187.093 196.41 LS
185.968 196.41 LE
74.88 207.949 LS
76.0043 207.949 LE
187.093 207.949 LS
185.968 207.949 LE
74.88 219.487 LS
76.0043 219.487 LE
187.093 219.487 LS
185.968 219.487 LE
74.88 231.026 LS
76.0043 231.026 LE
187.093 231.026 LS
185.968 231.026 LE
74.88 242.564 LS
76.0043 242.564 LE
187.093 242.564 LS
185.968 242.564 LE
74.88 254.102 LS
76.0043 254.102 LE
187.093 254.102 LS
185.968 254.102 LE
gsave
0.14902 0.14902 0.14902 C
(0) [10] 0 63.8705 180.872 10 /Helvetica SRX
grestore

gsave
0.14902 0.14902 0.14902 C
(0.002) [6 3 6 6 10] 0 42.8705 192.41 10 /Helvetica SRX
grestore

gsave
0.14902 0.14902 0.14902 C
(0.004) [6 3 6 6 10] 0 42.8705 203.949 10 /Helvetica SRX
grestore

gsave
0.14902 0.14902 0.14902 C
(0.006) [6 3 6 6 10] 0 42.8705 215.487 10 /Helvetica SRX
grestore

gsave
0.14902 0.14902 0.14902 C
(0.008) [6 3 6 6 10] 0 42.8705 227.026 10 /Helvetica SRX
grestore

gsave
0.14902 0.14902 0.14902 C
(0.01) [6 3 6 10] 0 48.8705 238.564 10 /Helvetica SRX
grestore

gsave
0.14902 0.14902 0.14902 C
(0.012) [6 3 6 6 10] 0 42.8705 250.102 10 /Helvetica SRX
grestore

2 LC
[16 0] 0 setdash
74.88 179.974 LS
187.093 179.974 LE
74.88 254.387 LS
187.093 254.387 LE
74.88 179.974 LS
74.88 254.387 LE
187.093 179.974 LS
187.093 254.387 LE
gsave
0 0 0 C
(L_T_hat) [7 6 7 6 7 6 10] 0 109.486 266.387 11 /Helvetica-Bold SRX
grestore

0.9 0.9 0.9 C
74.88 179.974 74.88 188.656 80.7859 179.974 T
80.7859 200.828 80.7859 179.974 74.88 188.656 T
86.6918 179.974 80.7859 179.974 80.7859 200.828 T
86.6918 244.365 86.6918 179.974 80.7859 200.828 T
92.5978 179.974 86.6918 179.974 86.6918 244.365 T
92.5978 254.387 92.5978 179.974 86.6918 244.365 T
98.5037 179.974 92.5978 179.974 92.5978 254.387 T
98.5037 252.024 98.5037 179.974 92.5978 254.387 T
104.41 179.974 98.5037 179.974 98.5037 252.024 T
104.41 248.903 104.41 179.974 98.5037 252.024 T
110.316 179.974 104.41 179.974 104.41 248.903 T
110.316 244.748 110.316 179.974 104.41 248.903 T
116.221 179.974 110.316 179.974 110.316 244.748 T
116.221 240.93 116.221 179.974 110.316 244.748 T
122.127 179.974 116.221 179.974 116.221 240.93 T
122.127 236.166 122.127 179.974 116.221 240.93 T
128.033 179.974 122.127 179.974 122.127 236.166 T
128.033 232.726 128.033 179.974 122.127 236.166 T
133.939 179.974 128.033 179.974 128.033 232.726 T
133.939 229.729 133.939 179.974 128.033 232.726 T
139.845 179.974 133.939 179.974 133.939 229.729 T
139.845 226.687 139.845 179.974 133.939 229.729 T
145.751 179.974 139.845 179.974 139.845 226.687 T
145.751 224.23 145.751 179.974 139.845 226.687 T
151.657 179.974 145.751 179.974 145.751 224.23 T
151.657 222.005 151.657 179.974 145.751 224.23 T
157.563 179.974 151.657 179.974 151.657 222.005 T
157.563 220.279 157.563 179.974 151.657 222.005 T
163.469 179.974 157.563 179.974 157.563 220.279 T
163.469 218.767 163.469 179.974 157.563 220.279 T
169.375 179.974 163.469 179.974 163.469 218.767 T
169.375 216.953 169.375 179.974 163.469 218.767 T
175.281 179.974 169.375 179.974 169.375 216.953 T
175.281 215.327 175.281 179.974 169.375 216.953 T
181.187 179.974 175.281 179.974 175.281 215.327 T
181.187 213.97 181.187 179.974 175.281 215.327 T
187.093 179.974 181.187 179.974 181.187 213.97 T
187.093 212.739 187.093 179.974 181.187 213.97 T
0 LC
[] 0 setdash
0 0 0 C
187.093 212.739 LS
181.187 213.97 L
175.281 215.327 L
169.375 216.953 L
163.469 218.767 L
157.563 220.279 L
151.657 222.005 L
145.751 224.23 L
139.845 226.687 L
133.939 229.729 L
128.033 232.726 L
122.127 236.166 L
116.221 240.93 L
110.316 244.748 L
104.41 248.903 L
98.5037 252.024 L
92.5978 254.387 L
86.6918 244.365 L
80.7859 200.828 L
74.88 188.656 L
74.88 179.974 L
80.7859 179.974 L
86.6918 179.974 L
92.5978 179.974 L
98.5037 179.974 L
104.41 179.974 L
110.316 179.974 L
116.221 179.974 L
122.127 179.974 L
128.033 179.974 L
133.939 179.974 L
139.845 179.974 L
145.751 179.974 L
151.657 179.974 L
157.563 179.974 L
163.469 179.974 L
169.375 179.974 L
175.281 179.974 L
181.187 179.974 L
187.093 179.974 L
187.093 212.739 LE
1 1 1 C
74.88 179.974 80.7859 186.96 80.7859 179.974 T
86.6918 179.974 80.7859 179.974 80.7859 186.96 T
86.6918 212.992 86.6918 179.974 80.7859 186.96 T
92.5978 179.974 86.6918 179.974 86.6918 212.992 T
92.5978 219.423 92.5978 179.974 86.6918 212.992 T
98.5037 179.974 92.5978 179.974 92.5978 219.423 T
98.5037 217.565 98.5037 179.974 92.5978 219.423 T
104.41 179.974 98.5037 179.974 98.5037 217.565 T
104.41 216.2 104.41 179.974 98.5037 217.565 T
110.316 179.974 104.41 179.974 104.41 216.2 T
110.316 213.912 110.316 179.974 104.41 216.2 T
116.221 179.974 110.316 179.974 110.316 213.912 T
116.221 212.083 116.221 179.974 110.316 213.912 T
122.127 179.974 116.221 179.974 116.221 212.083 T
122.127 209.042 122.127 179.974 116.221 212.083 T
128.033 179.974 122.127 179.974 122.127 209.042 T
128.033 207.451 128.033 179.974 122.127 209.042 T
133.939 179.974 128.033 179.974 128.033 207.451 T
133.939 206.186 133.939 179.974 128.033 207.451 T
139.845 179.974 133.939 179.974 133.939 206.186 T
139.845 204.551 139.845 179.974 133.939 206.186 T
145.751 179.974 139.845 179.974 139.845 204.551 T
145.751 203.331 145.751 179.974 139.845 204.551 T
151.657 179.974 145.751 179.974 145.751 203.331 T
151.657 202.137 151.657 179.974 145.751 203.331 T
157.563 179.974 151.657 179.974 151.657 202.137 T
157.563 201.422 157.563 179.974 151.657 202.137 T
163.469 179.974 157.563 179.974 157.563 201.422 T
163.469 201.045 163.469 179.974 157.563 201.422 T
169.375 179.974 163.469 179.974 163.469 201.045 T
169.375 200.255 169.375 179.974 163.469 201.045 T
175.281 179.974 169.375 179.974 169.375 200.255 T
175.281 199.443 175.281 179.974 169.375 200.255 T
181.187 179.974 175.281 179.974 175.281 199.443 T
181.187 198.738 181.187 179.974 175.281 199.443 T
187.093 179.974 181.187 179.974 181.187 198.738 T
187.093 198.143 187.093 179.974 181.187 198.738 T
0 0 0 C
187.093 198.143 LS
181.187 198.738 L
175.281 199.443 L
169.375 200.255 L
163.469 201.045 L
157.563 201.422 L
151.657 202.137 L
145.751 203.331 L
139.845 204.551 L
133.939 206.186 L
128.033 207.451 L
122.127 209.042 L
116.221 212.083 L
110.316 213.912 L
104.41 216.2 L
98.5037 217.565 L
92.5978 219.423 L
86.6918 212.992 L
80.7859 186.96 L
74.88 179.974 L
80.7859 179.974 L
86.6918 179.974 L
92.5978 179.974 L
98.5037 179.974 L
104.41 179.974 L
110.316 179.974 L
116.221 179.974 L
122.127 179.974 L
128.033 179.974 L
133.939 179.974 L
139.845 179.974 L
145.751 179.974 L
151.657 179.974 L
157.563 179.974 L
163.469 179.974 L
169.375 179.974 L
175.281 179.974 L
181.187 179.974 L
187.093 179.974 L
187.093 198.143 LE
3 W
1 LJ
74.88 184.001 LS
80.7859 193.828 L
86.6918 229.402 L
92.5978 236.002 L
98.5037 235.512 L
104.41 233.072 L
110.316 230.133 L
116.221 227.169 L
122.127 224.352 L
128.033 221.74 L
133.939 219.349 L
139.845 217.173 L
145.751 215.199 L
151.657 213.412 L
157.563 211.795 L
163.469 210.331 L
169.375 209.006 L
175.281 207.805 L
181.187 206.717 L
187.093 205.728 LE
grestore
gsave
1.0 1.0 scale
newpath 0 0 moveto 576 0 lineto 576 432 lineto 0 432 lineto
closepath clip
1 1 1 C
241.974 254.387 354.186 179.974 241.974 179.974 T
241.974 254.387 354.186 254.387 354.186 179.974 T
0.5 W
0.15 0.15 0.15 C
265.597 179.974 LS
265.597 181.102 LE
265.597 254.387 LS
265.597 253.258 LE
295.127 179.974 LS
295.127 181.102 LE
295.127 254.387 LS
295.127 253.258 LE
324.657 179.974 LS
324.657 181.102 LE
324.657 254.387 LS
324.657 253.258 LE
354.186 179.974 LS
354.186 181.102 LE
354.186 254.387 LS
354.186 253.258 LE
gsave
0.14902 0.14902 0.14902 C
(5) [10] 0 262.597 164.432 10 /Helvetica SRX
grestore

gsave
0.14902 0.14902 0.14902 C
(10) [6 10] 0 289.127 164.432 10 /Helvetica SRX
grestore

gsave
0.14902 0.14902 0.14902 C
(15) [6 10] 0 318.657 164.432 10 /Helvetica SRX
grestore

gsave
0.14902 0.14902 0.14902 C
(20) [6 10] 0 348.186 164.432 10 /Helvetica SRX
grestore

241.974 186.635 LS
243.098 186.635 LE
354.186 186.635 LS
353.062 186.635 LE
241.974 203.623 LS
243.098 203.623 LE
354.186 203.623 LS
353.062 203.623 LE
241.974 220.611 LS
243.098 220.611 LE
354.186 220.611 LS
353.062 220.611 LE
241.974 237.599 LS
243.098 237.599 LE
354.186 237.599 LS
353.062 237.599 LE
gsave
0.14902 0.14902 0.14902 C
(0.001) [6 3 6 6 10] 0 209.964 182.635 10 /Helvetica SRX
grestore

gsave
0.14902 0.14902 0.14902 C
(0.002) [6 3 6 6 10] 0 209.964 199.623 10 /Helvetica SRX
grestore

gsave
0.14902 0.14902 0.14902 C
(0.003) [6 3 6 6 10] 0 209.964 216.611 10 /Helvetica SRX
grestore

gsave
0.14902 0.14902 0.14902 C
(0.004) [6 3 6 6 10] 0 209.964 233.599 10 /Helvetica SRX
grestore

2 LC
[16 0] 0 setdash
241.974 179.974 LS
354.186 179.974 LE
241.974 254.387 LS
354.186 254.387 LE
241.974 179.974 LS
241.974 254.387 LE
354.186 179.974 LS
354.186 254.387 LE
gsave
0 0 0 C
(L_N_hat) [7 6 8 6 7 6 10] 0 276.08 266.387 11 /Helvetica-Bold SRX
grestore

0.9 0.9 0.9 C
241.974 179.974 241.974 191.985 247.88 179.974 T
247.88 210.481 247.88 179.974 241.974 191.985 T
253.786 179.974 247.88 179.974 247.88 210.481 T
253.786 234.28 253.786 179.974 247.88 210.481 T
259.691 179.974 253.786 179.974 253.786 234.28 T
259.691 248.558 259.691 179.974 253.786 234.28 T
265.597 179.974 259.691 179.974 259.691 248.558 T
265.597 252.619 265.597 179.974 259.691 248.558 T
271.503 179.974 265.597 179.974 265.597 252.619 T
271.503 254.387 271.503 179.974 265.597 252.619 T
277.409 179.974 271.503 179.974 271.503 254.387 T
277.409 254.021 277.409 179.974 271.503 254.387 T
283.315 179.974 277.409 179.974 277.409 254.021 T
283.315 251.878 283.315 179.974 277.409 254.021 T
289.221 179.974 283.315 179.974 283.315 251.878 T
289.221 249.5 289.221 179.974 283.315 251.878 T
295.127 179.974 289.221 179.974 289.221 249.5 T
295.127 246.057 295.127 179.974 289.221 249.5 T
301.033 179.974 295.127 179.974 295.127 246.057 T
301.033 244.33 301.033 179.974 295.127 246.057 T
306.939 179.974 301.033 179.974 301.033 244.33 T
306.939 240.714 306.939 179.974 301.033 244.33 T
312.845 179.974 306.939 179.974 306.939 240.714 T
312.845 239.325 312.845 179.974 306.939 240.714 T
318.751 179.974 312.845 179.974 312.845 239.325 T
318.751 237.344 318.751 179.974 312.845 239.325 T
324.657 179.974 318.751 179.974 318.751 237.344 T
324.657 235.284 324.657 179.974 318.751 237.344 T
330.563 179.974 324.657 179.974 324.657 235.284 T
330.563 233.275 330.563 179.974 324.657 235.284 T
336.469 179.974 330.563 179.974 330.563 233.275 T
336.469 231.757 336.469 179.974 330.563 233.275 T
342.374 179.974 336.469 179.974 336.469 231.757 T
342.374 230.36 342.374 179.974 336.469 231.757 T
348.28 179.974 342.374 179.974 342.374 230.36 T
348.28 228.941 348.28 179.974 342.374 230.36 T
354.186 179.974 348.28 179.974 348.28 228.941 T
354.186 227.845 354.186 179.974 348.28 228.941 T
0 LC
[] 0 setdash
0 0 0 C
354.186 227.845 LS
348.28 228.941 L
342.374 230.36 L
336.469 231.757 L
330.563 233.275 L
324.657 235.284 L
318.751 237.344 L
312.845 239.325 L
306.939 240.714 L
301.033 244.33 L
295.127 246.057 L
289.221 249.5 L
283.315 251.878 L
277.409 254.021 L
271.503 254.387 L
265.597 252.619 L
259.691 248.558 L
253.786 234.28 L
247.88 210.481 L
241.974 191.985 L
241.974 179.974 L
247.88 179.974 L
253.786 179.974 L
259.691 179.974 L
265.597 179.974 L
271.503 179.974 L
277.409 179.974 L
283.315 179.974 L
289.221 179.974 L
295.127 179.974 L
301.033 179.974 L
306.939 179.974 L
312.845 179.974 L
318.751 179.974 L
324.657 179.974 L
330.563 179.974 L
336.469 179.974 L
342.374 179.974 L
348.28 179.974 L
354.186 179.974 L
354.186 227.845 LE
1 1 1 C
241.974 179.974 247.88 189.192 247.88 179.974 T
253.786 179.974 247.88 179.974 247.88 189.192 T
253.786 200.726 253.786 179.974 247.88 189.192 T
259.691 179.974 253.786 179.974 253.786 200.726 T
259.691 207.811 259.691 179.974 253.786 200.726 T
265.597 179.974 259.691 179.974 259.691 207.811 T
265.597 209.451 265.597 179.974 259.691 207.811 T
271.503 179.974 265.597 179.974 265.597 209.451 T
271.503 210.772 271.503 179.974 265.597 209.451 T
277.409 179.974 271.503 179.974 271.503 210.772 T
277.409 211.125 277.409 179.974 271.503 210.772 T
283.315 179.974 277.409 179.974 277.409 211.125 T
283.315 209.948 283.315 179.974 277.409 211.125 T
289.221 179.974 283.315 179.974 283.315 209.948 T
289.221 208.722 289.221 179.974 283.315 209.948 T
295.127 179.974 289.221 179.974 289.221 208.722 T
295.127 206.421 295.127 179.974 289.221 208.722 T
301.033 179.974 295.127 179.974 295.127 206.421 T
301.033 205.924 301.033 179.974 295.127 206.421 T
306.939 179.974 301.033 179.974 301.033 205.924 T
306.939 203.514 306.939 179.974 301.033 205.924 T
312.845 179.974 306.939 179.974 306.939 203.514 T
312.845 203.362 312.845 179.974 306.939 203.514 T
318.751 179.974 312.845 179.974 312.845 203.362 T
318.751 202.424 318.751 179.974 312.845 203.362 T
324.657 179.974 318.751 179.974 318.751 202.424 T
324.657 201.186 324.657 179.974 318.751 202.424 T
330.563 179.974 324.657 179.974 324.657 201.186 T
330.563 200.115 330.563 179.974 324.657 201.186 T
336.469 179.974 330.563 179.974 330.563 200.115 T
336.469 199.384 336.469 179.974 330.563 200.115 T
342.374 179.974 336.469 179.974 336.469 199.384 T
342.374 198.625 342.374 179.974 336.469 199.384 T
348.28 179.974 342.374 179.974 342.374 198.625 T
348.28 197.926 348.28 179.974 342.374 198.625 T
354.186 179.974 348.28 179.974 348.28 197.926 T
354.186 197.366 354.186 179.974 348.28 197.926 T
0 0 0 C
354.186 197.366 LS
348.28 197.926 L
342.374 198.625 L
336.469 199.384 L
330.563 200.115 L
324.657 201.186 L
318.751 202.424 L
312.845 203.362 L
306.939 203.514 L
301.033 205.924 L
295.127 206.421 L
289.221 208.722 L
283.315 209.948 L
277.409 211.125 L
271.503 210.772 L
265.597 209.451 L
259.691 207.811 L
253.786 200.726 L
247.88 189.192 L
241.974 179.974 L
247.88 179.974 L
253.786 179.974 L
259.691 179.974 L
265.597 179.974 L
271.503 179.974 L
277.409 179.974 L
283.315 179.974 L
289.221 179.974 L
295.127 179.974 L
301.033 179.974 L
306.939 179.974 L
312.845 179.974 L
318.751 179.974 L
324.657 179.974 L
330.563 179.974 L
336.469 179.974 L
342.374 179.974 L
348.28 179.974 L
354.186 179.974 L
354.186 197.366 LE
3 W
1 LJ
241.974 185.906 LS
247.88 199.703 L
253.786 217.845 L
259.691 228.661 L
265.597 233.259 L
271.503 234.243 L
277.409 233.394 L
283.315 231.714 L
289.221 229.724 L
295.127 227.684 L
301.033 225.716 L
306.939 223.873 L
312.845 222.169 L
318.751 220.606 L
324.657 219.176 L
330.563 217.867 L
336.469 216.667 L
342.374 215.565 L
348.28 214.551 L
354.186 213.615 LE
grestore
gsave
1.0 1.0 scale
newpath 0 0 moveto 576 0 lineto 576 432 lineto 0 432 lineto
closepath clip
1 1 1 C
409.067 254.387 521.28 179.974 409.067 179.974 T
409.067 254.387 521.28 254.387 521.28 179.974 T
0.5 W
0.15 0.15 0.15 C
432.691 179.974 LS
432.691 181.102 LE
432.691 254.387 LS
432.691 253.258 LE
462.221 179.974 LS
462.221 181.102 LE
462.221 254.387 LS
462.221 253.258 LE
491.75 179.974 LS
491.75 181.102 LE
491.75 254.387 LS
491.75 253.258 LE
521.28 179.974 LS
521.28 181.102 LE
521.28 254.387 LS
521.28 253.258 LE
gsave
0.14902 0.14902 0.14902 C
(5) [10] 0 429.691 164.432 10 /Helvetica SRX
grestore

gsave
0.14902 0.14902 0.14902 C
(10) [6 10] 0 456.221 164.432 10 /Helvetica SRX
grestore

gsave
0.14902 0.14902 0.14902 C
(15) [6 10] 0 485.75 164.432 10 /Helvetica SRX
grestore

gsave
0.14902 0.14902 0.14902 C
(20) [6 10] 0 515.28 164.432 10 /Helvetica SRX
grestore

409.067 185.118 LS
410.192 185.118 LE
521.28 185.118 LS
520.156 185.118 LE
409.067 200.597 LS
410.192 200.597 LE
521.28 200.597 LS
520.156 200.597 LE
409.067 216.076 LS
410.192 216.076 LE
521.28 216.076 LS
520.156 216.076 LE
409.067 231.555 LS
410.192 231.555 LE
521.28 231.555 LS
520.156 231.555 LE
409.067 247.034 LS
410.192 247.034 LE
521.28 247.034 LS
520.156 247.034 LE
gsave
0.14902 0.14902 0.14902 C
(-0.005) [3 6 3 6 6 10] 0 374.058 181.118 10 /Helvetica SRX
grestore

gsave
0.14902 0.14902 0.14902 C
(-0.004) [3 6 3 6 6 10] 0 374.058 196.597 10 /Helvetica SRX
grestore

gsave
0.14902 0.14902 0.14902 C
(-0.003) [3 6 3 6 6 10] 0 374.058 212.076 10 /Helvetica SRX
grestore

gsave
0.14902 0.14902 0.14902 C
(-0.002) [3 6 3 6 6 10] 0 374.058 227.555 10 /Helvetica SRX
grestore

gsave
0.14902 0.14902 0.14902 C
(-0.001) [3 6 3 6 6 10] 0 374.058 243.034 10 /Helvetica SRX
grestore

2 LC
[16 0] 0 setdash
409.067 179.974 LS
521.28 179.974 LE
409.067 254.387 LS
521.28 254.387 LE
409.067 179.974 LS
409.067 254.387 LE
521.28 179.974 LS
521.28 254.387 LE
gsave
0 0 0 C
(L_C_hat) [7 6 8 6 7 6 10] 0 443.174 266.387 11 /Helvetica-Bold SRX
grestore

0.9 0.9 0.9 C
409.067 179.974 409.067 254.387 414.973 179.974 T
414.973 246.327 414.973 179.974 409.067 254.387 T
420.879 179.974 414.973 179.974 414.973 246.327 T
420.879 239.037 420.879 179.974 414.973 246.327 T
426.785 179.974 420.879 179.974 420.879 239.037 T
426.785 233.638 426.785 179.974 420.879 239.037 T
432.691 179.974 426.785 179.974 426.785 233.638 T
432.691 229.726 432.691 179.974 426.785 233.638 T
438.597 179.974 432.691 179.974 432.691 229.726 T
438.597 227.378 438.597 179.974 432.691 229.726 T
444.503 179.974 438.597 179.974 438.597 227.378 T
444.503 228.912 444.503 179.974 438.597 227.378 T
450.409 179.974 444.503 179.974 444.503 228.912 T
450.409 228.446 450.409 179.974 444.503 228.912 T
456.315 179.974 450.409 179.974 450.409 228.446 T
456.315 229.762 456.315 179.974 450.409 228.446 T
462.221 179.974 456.315 179.974 456.315 229.762 T
462.221 231.129 462.221 179.974 456.315 229.762 T
468.127 179.974 462.221 179.974 462.221 231.129 T
468.127 232.194 468.127 179.974 462.221 231.129 T
474.033 179.974 468.127 179.974 468.127 232.194 T
474.033 233.516 474.033 179.974 468.127 232.194 T
479.939 179.974 474.033 179.974 474.033 233.516 T
479.939 234.801 479.939 179.974 474.033 233.516 T
485.844 179.974 479.939 179.974 479.939 234.801 T
485.844 237.757 485.844 179.974 479.939 234.801 T
491.75 179.974 485.844 179.974 485.844 237.757 T
491.75 239.186 491.75 179.974 485.844 237.757 T
497.656 179.974 491.75 179.974 491.75 239.186 T
497.656 241.185 497.656 179.974 491.75 239.186 T
503.562 179.974 497.656 179.974 497.656 241.185 T
503.562 243.345 503.562 179.974 497.656 241.185 T
509.468 179.974 503.562 179.974 503.562 243.345 T
509.468 243.675 509.468 179.974 503.562 243.345 T
515.374 179.974 509.468 179.974 509.468 243.675 T
515.374 245.121 515.374 179.974 509.468 243.675 T
521.28 179.974 515.374 179.974 515.374 245.121 T
521.28 246.732 521.28 179.974 515.374 245.121 T
0 LC
[] 0 setdash
0 0 0 C
521.28 246.732 LS
515.374 245.121 L
509.468 243.675 L
503.562 243.345 L
497.656 241.185 L
491.75 239.186 L
485.844 237.757 L
479.939 234.801 L
474.033 233.516 L
468.127 232.194 L
462.221 231.129 L
456.315 229.762 L
450.409 228.446 L
444.503 228.912 L
438.597 227.378 L
432.691 229.726 L
426.785 233.638 L
420.879 239.037 L
414.973 246.327 L
409.067 254.387 L
409.067 179.974 L
414.973 179.974 L
420.879 179.974 L
426.785 179.974 L
432.691 179.974 L
438.597 179.974 L
444.503 179.974 L
450.409 179.974 L
456.315 179.974 L
462.221 179.974 L
468.127 179.974 L
474.033 179.974 L
479.939 179.974 L
485.844 179.974 L
491.75 179.974 L
497.656 179.974 L
503.562 179.974 L
509.468 179.974 L
515.374 179.974 L
521.28 179.974 L
521.28 246.732 LE
1 1 1 C
438.597 179.974 444.503 183.046 444.503 179.974 T
450.409 179.974 444.503 179.974 444.503 183.046 T
450.409 185.049 450.409 179.974 444.503 183.046 T
456.315 179.974 450.409 179.974 450.409 185.049 T
456.315 189.087 456.315 179.974 450.409 185.049 T
462.221 179.974 456.315 179.974 456.315 189.087 T
462.221 192.823 462.221 179.974 456.315 189.087 T
468.127 179.974 462.221 179.974 462.221 192.823 T
468.127 196.505 468.127 179.974 462.221 192.823 T
474.033 179.974 468.127 179.974 468.127 196.505 T
474.033 200.375 474.033 179.974 468.127 196.505 T
479.939 179.974 474.033 179.974 474.033 200.375 T
479.939 204.138 479.939 179.974 474.033 200.375 T
485.844 179.974 479.939 179.974 479.939 204.138 T
485.844 209.18 485.844 179.974 479.939 204.138 T
491.75 179.974 485.844 179.974 485.844 209.18 T
491.75 212.64 491.75 179.974 485.844 209.18 T
497.656 179.974 491.75 179.974 491.75 212.64 T
497.656 216.62 497.656 179.974 491.75 212.64 T
503.562 179.974 497.656 179.974 497.656 216.62 T
503.562 220.378 503.562 179.974 497.656 216.62 T
509.468 179.974 503.562 179.974 503.562 220.378 T
509.468 222.449 509.468 179.974 503.562 220.378 T
515.374 179.974 509.468 179.974 509.468 222.449 T
515.374 225.489 515.374 179.974 509.468 222.449 T
521.28 179.974 515.374 179.974 515.374 225.489 T
521.28 228.538 521.28 179.974 515.374 225.489 T
409.067 179.974 409.067 240.312 414.973 179.974 T
414.973 220.443 414.973 179.974 409.067 240.312 T
420.879 179.974 414.973 179.974 414.973 220.443 T
420.879 201.092 420.879 179.974 414.973 220.443 T
426.785 179.974 420.879 179.974 420.879 201.092 T
426.785 188.675 426.785 179.974 420.879 201.092 T
432.691 179.974 426.785 179.974 426.785 188.675 T
432.691 182.781 432.691 179.974 426.785 188.675 T
438.597 179.974 432.691 179.974 432.691 182.781 T
0 0 0 C
438.597 179.974 LS
432.691 182.781 L
426.785 188.675 L
420.879 201.092 L
414.973 220.443 L
409.067 240.312 L
409.067 179.974 L
414.973 179.974 L
420.879 179.974 L
426.785 179.974 L
432.691 179.974 L
438.597 179.974 LE
521.28 228.538 LS
515.374 225.489 L
509.468 222.449 L
503.562 220.378 L
497.656 216.62 L
491.75 212.64 L
485.844 209.18 L
479.939 204.138 L
474.033 200.375 L
468.127 196.505 L
462.221 192.823 L
456.315 189.087 L
450.409 185.049 L
444.503 183.046 L
438.597 179.974 L
444.503 179.974 L
450.409 179.974 L
456.315 179.974 L
462.221 179.974 L
468.127 179.974 L
474.033 179.974 L
479.939 179.974 L
485.844 179.974 L
491.75 179.974 L
497.656 179.974 L
503.562 179.974 L
509.468 179.974 L
515.374 179.974 L
521.28 179.974 L
521.28 228.538 LE
3 W
1 LJ
409.067 247.295 LS
414.973 233.408 L
420.879 220.154 L
426.785 211.303 L
432.691 206.451 L
438.597 204.491 L
444.503 204.481 L
450.409 205.744 L
456.315 207.81 L
462.221 210.364 L
468.127 213.191 L
474.033 216.146 L
479.939 219.133 L
485.844 222.087 L
491.75 224.968 L
497.656 227.747 L
503.562 230.411 L
509.468 232.95 L
515.374 235.361 L
521.28 237.645 LE
grestore
gsave
1.0 1.0 scale
newpath 0 0 moveto 576 0 lineto 576 432 lineto 0 432 lineto
closepath clip
1 1 1 C
74.88 121.933 187.093 47.52 74.88 47.52 T
74.88 121.933 187.093 121.933 187.093 47.52 T
0.5 W
0.15 0.15 0.15 C
98.5037 47.52 LS
98.5037 48.6484 LE
98.5037 121.933 LS
98.5037 120.805 LE
128.033 47.52 LS
128.033 48.6484 LE
128.033 121.933 LS
128.033 120.805 LE
157.563 47.52 LS
157.563 48.6484 LE
157.563 121.933 LS
157.563 120.805 LE
187.093 47.52 LS
187.093 48.6484 LE
187.093 121.933 LS
187.093 120.805 LE
gsave
0.14902 0.14902 0.14902 C
(5) [10] 0 95.5037 31.9781 10 /Helvetica SRX
grestore

gsave
0.14902 0.14902 0.14902 C
(10) [6 10] 0 122.033 31.9781 10 /Helvetica SRX
grestore

gsave
0.14902 0.14902 0.14902 C
(15) [6 10] 0 151.563 31.9781 10 /Helvetica SRX
grestore

gsave
0.14902 0.14902 0.14902 C
(20) [6 10] 0 181.093 31.9781 10 /Helvetica SRX
grestore

74.88 58.3372 LS
76.0043 58.3372 LE
187.093 58.3372 LS
185.968 58.3372 LE
74.88 74.9742 LS
76.0043 74.9742 LE
187.093 74.9742 LS
185.968 74.9742 LE
74.88 91.6112 LS
76.0043 91.6112 LE
187.093 91.6112 LS
185.968 91.6112 LE
74.88 108.248 LS
76.0043 108.248 LE
187.093 108.248 LS
185.968 108.248 LE
gsave
0.14902 0.14902 0.14902 C
(0.01) [6 3 6 10] 0 48.8705 54.3372 10 /Helvetica SRX
grestore

gsave
0.14902 0.14902 0.14902 C
(0.02) [6 3 6 10] 0 48.8705 70.9742 10 /Helvetica SRX
grestore

gsave
0.14902 0.14902 0.14902 C
(0.03) [6 3 6 10] 0 48.8705 87.6112 10 /Helvetica SRX
grestore

gsave
0.14902 0.14902 0.14902 C
(0.04) [6 3 6 10] 0 48.8705 104.248 10 /Helvetica SRX
grestore

2 LC
[16 0] 0 setdash
74.88 47.52 LS
187.093 47.52 LE
74.88 121.933 LS
187.093 121.933 LE
74.88 47.52 LS
74.88 121.933 LE
187.093 47.52 LS
187.093 121.933 LE
gsave
0 0 0 C
(I_T_hat) [3 6 7 6 7 6 10] 0 111.486 133.933 11 /Helvetica-Bold SRX
grestore

0.9 0.9 0.9 C
74.88 47.52 74.88 119.268 80.7859 47.52 T
80.7859 121.933 80.7859 47.52 74.88 119.268 T
86.6918 47.52 80.7859 47.52 80.7859 121.933 T
86.6918 112.407 86.6918 47.52 80.7859 121.933 T
92.5978 47.52 86.6918 47.52 86.6918 112.407 T
92.5978 105.094 92.5978 47.52 86.6918 112.407 T
98.5037 47.52 92.5978 47.52 92.5978 105.094 T
98.5037 95.1576 98.5037 47.52 92.5978 105.094 T
104.41 47.52 98.5037 47.52 98.5037 95.1576 T
104.41 90.2033 104.41 47.52 98.5037 95.1576 T
110.316 47.52 104.41 47.52 104.41 90.2033 T
110.316 86.6457 110.316 47.52 104.41 90.2033 T
116.221 47.52 110.316 47.52 110.316 86.6457 T
116.221 82.1498 116.221 47.52 110.316 86.6457 T
122.127 47.52 116.221 47.52 116.221 82.1498 T
122.127 78.2036 122.127 47.52 116.221 82.1498 T
128.033 47.52 122.127 47.52 122.127 78.2036 T
128.033 74.011 128.033 47.52 122.127 78.2036 T
133.939 47.52 128.033 47.52 128.033 74.011 T
133.939 70.7799 133.939 47.52 128.033 74.011 T
139.845 47.52 133.939 47.52 133.939 70.7799 T
139.845 68.1156 139.845 47.52 133.939 70.7799 T
145.751 47.52 139.845 47.52 139.845 68.1156 T
145.751 65.601 145.751 47.52 139.845 68.1156 T
151.657 47.52 145.751 47.52 145.751 65.601 T
151.657 63.3199 151.657 47.52 145.751 65.601 T
157.563 47.52 151.657 47.52 151.657 63.3199 T
157.563 61.4129 157.563 47.52 151.657 63.3199 T
163.469 47.52 157.563 47.52 157.563 61.4129 T
163.469 59.5131 163.469 47.52 157.563 61.4129 T
169.375 47.52 163.469 47.52 163.469 59.5131 T
169.375 58.0303 169.375 47.52 163.469 59.5131 T
175.281 47.52 169.375 47.52 169.375 58.0303 T
175.281 56.7687 175.281 47.52 169.375 58.0303 T
181.187 47.52 175.281 47.52 175.281 56.7687 T
181.187 55.3775 181.187 47.52 175.281 56.7687 T
187.093 47.52 181.187 47.52 181.187 55.3775 T
187.093 54.5643 187.093 47.52 181.187 55.3775 T
0 LC
[] 0 setdash
0 0 0 C
187.093 54.5643 LS
181.187 55.3775 L
175.281 56.7687 L
169.375 58.0303 L
163.469 59.5131 L
157.563 61.4129 L
151.657 63.3199 L
145.751 65.601 L
139.845 68.1156 L
133.939 70.7799 L
128.033 74.011 L
122.127 78.2036 L
116.221 82.1498 L
110.316 86.6457 L
104.41 90.2033 L
98.5037 95.1576 L
92.5978 105.094 L
86.6918 112.407 L
80.7859 121.933 L
74.88 119.268 L
74.88 47.52 L
80.7859 47.52 L
86.6918 47.52 L
92.5978 47.52 L
98.5037 47.52 L
104.41 47.52 L
110.316 47.52 L
116.221 47.52 L
122.127 47.52 L
128.033 47.52 L
133.939 47.52 L
139.845 47.52 L
145.751 47.52 L
151.657 47.52 L
157.563 47.52 L
163.469 47.52 L
169.375 47.52 L
175.281 47.52 L
181.187 47.52 L
187.093 47.52 L
187.093 54.5643 LE
1 1 1 C
74.88 47.52 74.88 80.2972 80.7859 47.52 T
80.7859 81.6639 80.7859 47.52 74.88 80.2972 T
86.6918 47.52 80.7859 47.52 80.7859 81.6639 T
86.6918 76.6698 86.6918 47.52 80.7859 81.6639 T
92.5978 47.52 86.6918 47.52 86.6918 76.6698 T
92.5978 73.1992 92.5978 47.52 86.6918 76.6698 T
98.5037 47.52 92.5978 47.52 92.5978 73.1992 T
98.5037 66.6075 98.5037 47.52 92.5978 73.1992 T
104.41 47.52 98.5037 47.52 98.5037 66.6075 T
104.41 64.6608 104.41 47.52 98.5037 66.6075 T
110.316 47.52 104.41 47.52 104.41 64.6608 T
110.316 63.6996 110.316 47.52 104.41 64.6608 T
116.221 47.52 110.316 47.52 110.316 63.6996 T
116.221 61.6957 116.221 47.52 110.316 63.6996 T
122.127 47.52 116.221 47.52 116.221 61.6957 T
122.127 59.7132 122.127 47.52 116.221 61.6957 T
128.033 47.52 122.127 47.52 122.127 59.7132 T
128.033 57.2864 128.033 47.52 122.127 59.7132 T
133.939 47.52 128.033 47.52 128.033 57.2864 T
133.939 55.6916 133.939 47.52 128.033 57.2864 T
139.845 47.52 133.939 47.52 133.939 55.6916 T
139.845 54.504 139.845 47.52 133.939 55.6916 T
145.751 47.52 139.845 47.52 139.845 54.504 T
145.751 53.2368 145.751 47.52 139.845 54.504 T
151.657 47.52 145.751 47.52 145.751 53.2368 T
151.657 52.0252 151.657 47.52 145.751 53.2368 T
157.563 47.52 151.657 47.52 151.657 52.0252 T
157.563 50.9985 157.563 47.52 151.657 52.0252 T
163.469 47.52 157.563 47.52 157.563 50.9985 T
163.469 49.9323 163.469 47.52 157.563 50.9985 T
169.375 47.52 163.469 47.52 163.469 49.9323 T
169.375 49.176 169.375 47.52 163.469 49.9323 T
175.281 47.52 169.375 47.52 169.375 49.176 T
175.281 48.5847 175.281 47.52 169.375 49.176 T
181.187 47.52 175.281 47.52 175.281 48.5847 T
181.187 47.8056 181.187 47.52 175.281 48.5847 T
187.093 47.52 181.187 47.52 181.187 47.8056 T
0 0 0 C
187.093 47.52 LS
181.187 47.8056 L
175.281 48.5847 L
169.375 49.176 L
163.469 49.9323 L
157.563 50.9985 L
151.657 52.0252 L
145.751 53.2368 L
139.845 54.504 L
133.939 55.6916 L
128.033 57.2864 L
122.127 59.7132 L
116.221 61.6957 L
110.316 63.6996 L
104.41 64.6608 L
98.5037 66.6075 L
92.5978 73.1992 L
86.6918 76.6698 L
80.7859 81.6639 L
74.88 80.2972 L
74.88 47.52 L
80.7859 47.52 L
86.6918 47.52 L
92.5978 47.52 L
98.5037 47.52 L
104.41 47.52 L
110.316 47.52 L
116.221 47.52 L
122.127 47.52 L
128.033 47.52 L
133.939 47.52 L
139.845 47.52 L
145.751 47.52 L
151.657 47.52 L
157.563 47.52 L
163.469 47.52 L
169.375 47.52 L
175.281 47.52 L
181.187 47.52 L
187.093 47.52 LE
3 W
1 LJ
74.88 98.456 LS
80.7859 100.522 L
86.6918 93.7086 L
92.5978 88.2125 L
98.5037 83.314 L
104.41 78.9175 L
110.316 74.987 L
116.221 71.4866 L
122.127 68.378 L
128.033 65.6226 L
133.939 63.1839 L
139.845 61.0276 L
145.751 59.1228 L
151.657 57.4413 L
157.563 55.9578 L
163.469 54.6499 L
169.375 53.4973 L
175.281 52.4822 L
181.187 51.5885 L
187.093 50.8021 LE
grestore
gsave
1.0 1.0 scale
newpath 0 0 moveto 576 0 lineto 576 432 lineto 0 432 lineto
closepath clip
1 1 1 C
241.974 121.933 354.186 47.52 241.974 47.52 T
241.974 121.933 354.186 121.933 354.186 47.52 T
0.5 W
0.15 0.15 0.15 C
265.597 47.52 LS
265.597 48.6484 LE
265.597 121.933 LS
265.597 120.805 LE
295.127 47.52 LS
295.127 48.6484 LE
295.127 121.933 LS
295.127 120.805 LE
324.657 47.52 LS
324.657 48.6484 LE
324.657 121.933 LS
324.657 120.805 LE
354.186 47.52 LS
354.186 48.6484 LE
354.186 121.933 LS
354.186 120.805 LE
gsave
0.14902 0.14902 0.14902 C
(5) [10] 0 262.597 31.9781 10 /Helvetica SRX
grestore

gsave
0.14902 0.14902 0.14902 C
(10) [6 10] 0 289.127 31.9781 10 /Helvetica SRX
grestore

gsave
0.14902 0.14902 0.14902 C
(15) [6 10] 0 318.657 31.9781 10 /Helvetica SRX
grestore

gsave
0.14902 0.14902 0.14902 C
(20) [6 10] 0 348.186 31.9781 10 /Helvetica SRX
grestore

241.974 56.0455 LS
243.098 56.0455 LE
354.186 56.0455 LS
353.062 56.0455 LE
241.974 65.9368 LS
243.098 65.9368 LE
354.186 65.9368 LS
353.062 65.9368 LE
241.974 75.8281 LS
243.098 75.8281 LE
354.186 75.8281 LS
353.062 75.8281 LE
241.974 85.7194 LS
243.098 85.7194 LE
354.186 85.7194 LS
353.062 85.7194 LE
241.974 95.6107 LS
243.098 95.6107 LE
354.186 95.6107 LS
353.062 95.6107 LE
241.974 105.502 LS
243.098 105.502 LE
354.186 105.502 LS
353.062 105.502 LE
241.974 115.393 LS
243.098 115.393 LE
354.186 115.393 LS
353.062 115.393 LE
gsave
0.14902 0.14902 0.14902 C
(0.006) [6 3 6 6 10] 0 209.964 52.0455 10 /Helvetica SRX
grestore

gsave
0.14902 0.14902 0.14902 C
(0.008) [6 3 6 6 10] 0 209.964 61.9368 10 /Helvetica SRX
grestore

gsave
0.14902 0.14902 0.14902 C
(0.01) [6 3 6 10] 0 215.964 71.8281 10 /Helvetica SRX
grestore

gsave
0.14902 0.14902 0.14902 C
(0.012) [6 3 6 6 10] 0 209.964 81.7194 10 /Helvetica SRX
grestore

gsave
0.14902 0.14902 0.14902 C
(0.014) [6 3 6 6 10] 0 209.964 91.6107 10 /Helvetica SRX
grestore

gsave
0.14902 0.14902 0.14902 C
(0.016) [6 3 6 6 10] 0 209.964 101.502 10 /Helvetica SRX
grestore

gsave
0.14902 0.14902 0.14902 C
(0.018) [6 3 6 6 10] 0 209.964 111.393 10 /Helvetica SRX
grestore

2 LC
[16 0] 0 setdash
241.974 47.52 LS
354.186 47.52 LE
241.974 121.933 LS
354.186 121.933 LE
241.974 47.52 LS
241.974 121.933 LE
354.186 47.52 LS
354.186 121.933 LE
gsave
0 0 0 C
(I_N_hat) [3 6 8 6 7 6 10] 0 278.08 133.933 11 /Helvetica-Bold SRX
grestore

0.9 0.9 0.9 C
241.974 47.52 241.974 121.933 247.88 47.52 T
247.88 121.338 247.88 47.52 241.974 121.933 T
253.786 47.52 247.88 47.52 247.88 121.338 T
253.786 116.813 253.786 47.52 247.88 121.338 T
259.691 47.52 253.786 47.52 253.786 116.813 T
259.691 112.626 259.691 47.52 253.786 116.813 T
265.597 47.52 259.691 47.52 259.691 112.626 T
265.597 108.865 265.597 47.52 259.691 112.626 T
271.503 47.52 265.597 47.52 265.597 108.865 T
271.503 105.445 271.503 47.52 265.597 108.865 T
277.409 47.52 271.503 47.52 271.503 105.445 T
277.409 100.648 277.409 47.52 271.503 105.445 T
283.315 47.52 277.409 47.52 277.409 100.648 T
283.315 97.6554 283.315 47.52 277.409 100.648 T
289.221 47.52 283.315 47.52 283.315 97.6554 T
289.221 94.0702 289.221 47.52 283.315 97.6554 T
295.127 47.52 289.221 47.52 289.221 94.0702 T
295.127 91.2334 295.127 47.52 289.221 94.0702 T
301.033 47.52 295.127 47.52 295.127 91.2334 T
301.033 88.6042 301.033 47.52 295.127 91.2334 T
306.939 47.52 301.033 47.52 301.033 88.6042 T
306.939 86.099 306.939 47.52 301.033 88.6042 T
312.845 47.52 306.939 47.52 306.939 86.099 T
312.845 83.8518 312.845 47.52 306.939 86.099 T
318.751 47.52 312.845 47.52 312.845 83.8518 T
318.751 81.6358 318.751 47.52 312.845 83.8518 T
324.657 47.52 318.751 47.52 318.751 81.6358 T
324.657 79.6934 324.657 47.52 318.751 81.6358 T
330.563 47.52 324.657 47.52 324.657 79.6934 T
330.563 77.6764 330.563 47.52 324.657 79.6934 T
336.469 47.52 330.563 47.52 330.563 77.6764 T
336.469 75.7602 336.469 47.52 330.563 77.6764 T
342.374 47.52 336.469 47.52 336.469 75.7602 T
342.374 73.8513 342.374 47.52 336.469 75.7602 T
348.28 47.52 342.374 47.52 342.374 73.8513 T
348.28 72.0666 348.28 47.52 342.374 73.8513 T
354.186 47.52 348.28 47.52 348.28 72.0666 T
354.186 70.4888 354.186 47.52 348.28 72.0666 T
0 LC
[] 0 setdash
0 0 0 C
354.186 70.4888 LS
348.28 72.0666 L
342.374 73.8513 L
336.469 75.7602 L
330.563 77.6764 L
324.657 79.6934 L
318.751 81.6358 L
312.845 83.8518 L
306.939 86.099 L
301.033 88.6042 L
295.127 91.2334 L
289.221 94.0702 L
283.315 97.6554 L
277.409 100.648 L
271.503 105.445 L
265.597 108.865 L
259.691 112.626 L
253.786 116.813 L
247.88 121.338 L
241.974 121.933 L
241.974 47.52 L
247.88 47.52 L
253.786 47.52 L
259.691 47.52 L
265.597 47.52 L
271.503 47.52 L
277.409 47.52 L
283.315 47.52 L
289.221 47.52 L
295.127 47.52 L
301.033 47.52 L
306.939 47.52 L
312.845 47.52 L
318.751 47.52 L
324.657 47.52 L
330.563 47.52 L
336.469 47.52 L
342.374 47.52 L
348.28 47.52 L
354.186 47.52 L
354.186 70.4888 LE
1 1 1 C
241.974 47.52 241.974 74.322 247.88 47.52 T
247.88 74.0983 247.88 47.52 241.974 74.322 T
253.786 47.52 247.88 47.52 247.88 74.0983 T
253.786 71.819 253.786 47.52 247.88 74.0983 T
259.691 47.52 253.786 47.52 253.786 71.819 T
259.691 69.8968 259.691 47.52 253.786 71.819 T
265.597 47.52 259.691 47.52 259.691 69.8968 T
265.597 67.6608 265.597 47.52 259.691 69.8968 T
271.503 47.52 265.597 47.52 265.597 67.6608 T
271.503 65.842 271.503 47.52 265.597 67.6608 T
277.409 47.52 271.503 47.52 271.503 65.842 T
277.409 62.9757 277.409 47.52 271.503 65.842 T
283.315 47.52 277.409 47.52 277.409 62.9757 T
283.315 61.6539 283.315 47.52 277.409 62.9757 T
289.221 47.52 283.315 47.52 283.315 61.6539 T
289.221 59.3855 289.221 47.52 283.315 61.6539 T
295.127 47.52 289.221 47.52 289.221 59.3855 T
295.127 57.9281 295.127 47.52 289.221 59.3855 T
301.033 47.52 295.127 47.52 295.127 57.9281 T
301.033 56.5263 301.033 47.52 295.127 57.9281 T
306.939 47.52 301.033 47.52 301.033 56.5263 T
306.939 55.2127 306.939 47.52 301.033 56.5263 T
312.845 47.52 306.939 47.52 306.939 55.2127 T
312.845 54.1511 312.845 47.52 306.939 55.2127 T
318.751 47.52 312.845 47.52 312.845 54.1511 T
318.751 53.0386 318.751 47.52 312.845 54.1511 T
324.657 47.52 318.751 47.52 318.751 53.0386 T
324.657 52.2011 324.657 47.52 318.751 53.0386 T
330.563 47.52 324.657 47.52 324.657 52.2011 T
330.563 51.2472 330.563 47.52 324.657 52.2011 T
336.469 47.52 330.563 47.52 330.563 51.2472 T
336.469 50.2887 336.469 47.52 330.563 51.2472 T
342.374 47.52 336.469 47.52 336.469 50.2887 T
342.374 49.2787 342.374 47.52 336.469 50.2887 T
348.28 47.52 342.374 47.52 342.374 49.2787 T
348.28 48.2698 348.28 47.52 342.374 49.2787 T
354.186 47.52 348.28 47.52 348.28 48.2698 T
0 0 0 C
354.186 47.52 LS
348.28 48.2698 L
342.374 49.2787 L
336.469 50.2887 L
330.563 51.2472 L
324.657 52.2011 L
318.751 53.0386 L
312.845 54.1511 L
306.939 55.2127 L
301.033 56.5263 L
295.127 57.9281 L
289.221 59.3855 L
283.315 61.6539 L
277.409 62.9757 L
271.503 65.842 L
265.597 67.6608 L
259.691 69.8968 L
253.786 71.819 L
247.88 74.0983 L
241.974 74.322 L
241.974 47.52 L
247.88 47.52 L
253.786 47.52 L
259.691 47.52 L
265.597 47.52 L
271.503 47.52 L
277.409 47.52 L
283.315 47.52 L
289.221 47.52 L
295.127 47.52 L
301.033 47.52 L
306.939 47.52 L
312.845 47.52 L
318.751 47.52 L
324.657 47.52 L
330.563 47.52 L
336.469 47.52 L
342.374 47.52 L
348.28 47.52 L
354.186 47.52 LE
3 W
1 LJ
241.974 96.0247 LS
247.88 95.6111 L
253.786 92.3867 L
259.691 89.7139 L
265.597 87.0284 L
271.503 84.3887 L
277.409 81.8496 L
283.315 79.4355 L
289.221 77.153 L
295.127 75.0003 L
301.033 72.9722 L
306.939 71.0619 L
312.845 69.2624 L
318.751 67.5666 L
324.657 65.9681 L
330.563 64.4608 L
336.469 63.0388 L
342.374 61.6969 L
348.28 60.43 L
354.186 59.2336 LE
grestore
gsave
1.0 1.0 scale
newpath 0 0 moveto 576 0 lineto 576 432 lineto 0 432 lineto
closepath clip
1 1 1 C
409.067 121.933 521.28 47.52 409.067 47.52 T
409.067 121.933 521.28 121.933 521.28 47.52 T
0.5 W
0.15 0.15 0.15 C
432.691 47.52 LS
432.691 48.6484 LE
432.691 121.933 LS
432.691 120.805 LE
462.221 47.52 LS
462.221 48.6484 LE
462.221 121.933 LS
462.221 120.805 LE
491.75 47.52 LS
491.75 48.6484 LE
491.75 121.933 LS
491.75 120.805 LE
521.28 47.52 LS
521.28 48.6484 LE
521.28 121.933 LS
521.28 120.805 LE
gsave
0.14902 0.14902 0.14902 C
(5) [10] 0 429.691 31.9781 10 /Helvetica SRX
grestore

gsave
0.14902 0.14902 0.14902 C
(10) [6 10] 0 456.221 31.9781 10 /Helvetica SRX
grestore

gsave
0.14902 0.14902 0.14902 C
(15) [6 10] 0 485.75 31.9781 10 /Helvetica SRX
grestore

gsave
0.14902 0.14902 0.14902 C
(20) [6 10] 0 515.28 31.9781 10 /Helvetica SRX
grestore

409.067 62.5088 LS
410.192 62.5088 LE
521.28 62.5088 LS
520.156 62.5088 LE
409.067 77.8331 LS
410.192 77.8331 LE
521.28 77.8331 LS
520.156 77.8331 LE
409.067 93.1574 LS
410.192 93.1574 LE
521.28 93.1574 LS
520.156 93.1574 LE
409.067 108.482 LS
410.192 108.482 LE
521.28 108.482 LS
520.156 108.482 LE
gsave
0.14902 0.14902 0.14902 C
(-0.004) [3 6 3 6 6 10] 0 374.058 58.5089 10 /Helvetica SRX
grestore

gsave
0.14902 0.14902 0.14902 C
(-0.002) [3 6 3 6 6 10] 0 374.058 73.8332 10 /Helvetica SRX
grestore

gsave
0.14902 0.14902 0.14902 C
(0) [10] 0 398.058 89.1575 10 /Helvetica SRX
grestore

gsave
0.14902 0.14902 0.14902 C
(0.002) [6 3 6 6 10] 0 377.058 104.482 10 /Helvetica SRX
grestore

2 LC
[16 0] 0 setdash
409.067 47.52 LS
521.28 47.52 LE
409.067 121.933 LS
521.28 121.933 LE
409.067 47.52 LS
409.067 121.933 LE
521.28 47.52 LS
521.28 121.933 LE
gsave
0 0 0 C
(I_C_hat) [3 6 8 6 7 6 10] 0 445.174 133.933 11 /Helvetica-Bold SRX
grestore

0.9 0.9 0.9 C
409.067 47.52 409.067 73.7574 414.973 47.52 T
414.973 74.1461 414.973 47.52 409.067 73.7574 T
420.879 47.52 414.973 47.52 414.973 74.1461 T
420.879 76.7756 420.879 47.52 414.973 74.1461 T
426.785 47.52 420.879 47.52 420.879 76.7756 T
426.785 80.1523 426.785 47.52 420.879 76.7756 T
432.691 47.52 426.785 47.52 426.785 80.1523 T
432.691 84.0964 432.691 47.52 426.785 80.1523 T
438.597 47.52 432.691 47.52 432.691 84.0964 T
438.597 87.0541 438.597 47.52 432.691 84.0964 T
444.503 47.52 438.597 47.52 438.597 87.0541 T
444.503 89.9519 444.503 47.52 438.597 87.0541 T
450.409 47.52 444.503 47.52 444.503 89.9519 T
450.409 93.4582 450.409 47.52 444.503 89.9519 T
456.315 47.52 450.409 47.52 450.409 93.4582 T
456.315 96.9738 456.315 47.52 450.409 93.4582 T
462.221 47.52 456.315 47.52 456.315 96.9738 T
462.221 100.219 462.221 47.52 456.315 96.9738 T
468.127 47.52 462.221 47.52 462.221 100.219 T
468.127 103.729 468.127 47.52 462.221 100.219 T
474.033 47.52 468.127 47.52 468.127 103.729 T
474.033 106.566 474.033 47.52 468.127 103.729 T
479.939 47.52 474.033 47.52 474.033 106.566 T
479.939 109.405 479.939 47.52 474.033 106.566 T
485.844 47.52 479.939 47.52 479.939 109.405 T
485.844 111.718 485.844 47.52 479.939 109.405 T
491.75 47.52 485.844 47.52 485.844 111.718 T
491.75 114.507 491.75 47.52 485.844 111.718 T
497.656 47.52 491.75 47.52 491.75 114.507 T
497.656 116.303 497.656 47.52 491.75 114.507 T
503.562 47.52 497.656 47.52 497.656 116.303 T
503.562 118.075 503.562 47.52 497.656 116.303 T
509.468 47.52 503.562 47.52 503.562 118.075 T
509.468 118.932 509.468 47.52 503.562 118.075 T
515.374 47.52 509.468 47.52 509.468 118.932 T
515.374 120.86 515.374 47.52 509.468 118.932 T
521.28 47.52 515.374 47.52 515.374 120.86 T
521.28 121.933 521.28 47.52 515.374 120.86 T
0 LC
[] 0 setdash
0 0 0 C
521.28 121.933 LS
515.374 120.86 L
509.468 118.932 L
503.562 118.075 L
497.656 116.303 L
491.75 114.507 L
485.844 111.718 L
479.939 109.405 L
474.033 106.566 L
468.127 103.729 L
462.221 100.219 L
456.315 96.9738 L
450.409 93.4582 L
444.503 89.9519 L
438.597 87.0541 L
432.691 84.0964 L
426.785 80.1523 L
420.879 76.7756 L
414.973 74.1461 L
409.067 73.7574 L
409.067 47.52 L
414.973 47.52 L
420.879 47.52 L
426.785 47.52 L
432.691 47.52 L
438.597 47.52 L
444.503 47.52 L
450.409 47.52 L
456.315 47.52 L
462.221 47.52 L
468.127 47.52 L
474.033 47.52 L
479.939 47.52 L
485.844 47.52 L
491.75 47.52 L
497.656 47.52 L
503.562 47.52 L
509.468 47.52 L
515.374 47.52 L
521.28 47.52 L
521.28 121.933 LE
1 1 1 C
409.067 47.52 414.973 47.7969 414.973 47.52 T
420.879 47.52 414.973 47.52 414.973 47.7969 T
420.879 52.4686 420.879 47.52 414.973 47.7969 T
426.785 47.52 420.879 47.52 420.879 52.4686 T
426.785 60.0542 426.785 47.52 420.879 52.4686 T
432.691 47.52 426.785 47.52 426.785 60.0542 T
432.691 67.141 432.691 47.52 426.785 60.0542 T
438.597 47.52 432.691 47.52 432.691 67.141 T
438.597 72.8027 438.597 47.52 432.691 67.141 T
444.503 47.52 438.597 47.52 438.597 72.8027 T
444.503 78.1356 444.503 47.52 438.597 72.8027 T
450.409 47.52 444.503 47.52 444.503 78.1356 T
450.409 83.3564 450.409 47.52 444.503 78.1356 T
456.315 47.52 450.409 47.52 450.409 83.3564 T
456.315 87.3689 456.315 47.52 450.409 83.3564 T
462.221 47.52 456.315 47.52 456.315 87.3689 T
462.221 90.5309 462.221 47.52 456.315 87.3689 T
468.127 47.52 462.221 47.52 462.221 90.5309 T
468.127 93.4245 468.127 47.52 462.221 90.5309 T
474.033 47.52 468.127 47.52 468.127 93.4245 T
474.033 95.6205 474.033 47.52 468.127 93.4245 T
479.939 47.52 474.033 47.52 474.033 95.6205 T
479.939 97.6718 479.939 47.52 474.033 95.6205 T
485.844 47.52 479.939 47.52 479.939 97.6718 T
485.844 99.225 485.844 47.52 479.939 97.6718 T
491.75 47.52 485.844 47.52 485.844 99.225 T
491.75 101.225 491.75 47.52 485.844 99.225 T
497.656 47.52 491.75 47.52 491.75 101.225 T
497.656 102.327 497.656 47.52 491.75 101.225 T
503.562 47.52 497.656 47.52 497.656 102.327 T
503.562 103.5 503.562 47.52 497.656 102.327 T
509.468 47.52 503.562 47.52 503.562 103.5 T
509.468 103.799 509.468 47.52 503.562 103.5 T
515.374 47.52 509.468 47.52 509.468 103.799 T
515.374 105.286 515.374 47.52 509.468 103.799 T
521.28 47.52 515.374 47.52 515.374 105.286 T
521.28 106.016 521.28 47.52 515.374 105.286 T
0 0 0 C
521.28 106.016 LS
515.374 105.286 L
509.468 103.799 L
503.562 103.5 L
497.656 102.327 L
491.75 101.225 L
485.844 99.225 L
479.939 97.6718 L
474.033 95.6205 L
468.127 93.4245 L
462.221 90.5309 L
456.315 87.3689 L
450.409 83.3564 L
444.503 78.1356 L
438.597 72.8027 L
432.691 67.141 L
426.785 60.0542 L
420.879 52.4686 L
414.973 47.7969 L
409.067 47.52 L
414.973 47.52 L
420.879 47.52 L
426.785 47.52 L
432.691 47.52 L
438.597 47.52 L
444.503 47.52 L
450.409 47.52 L
456.315 47.52 L
462.221 47.52 L
468.127 47.52 L
474.033 47.52 L
479.939 47.52 L
485.844 47.52 L
491.75 47.52 L
497.656 47.52 L
503.562 47.52 L
509.468 47.52 L
515.374 47.52 L
521.28 47.52 L
521.28 106.016 LE
3 W
1 LJ
409.067 61.8009 LS
414.973 62.0143 L
420.879 64.655 L
426.785 69.7475 L
432.691 74.9425 L
438.597 79.8321 L
444.503 84.3321 L
450.409 88.4317 L
456.315 92.1421 L
462.221 95.4837 L
468.127 98.4803 L
474.033 101.158 L
479.939 103.541 L
485.844 105.656 L
491.75 107.526 L
497.656 109.174 L
503.562 110.621 L
509.468 111.885 L
515.374 112.986 L
521.28 113.939 LE
grestore
grestore
showpage
cleartomark
%%PageTrailer
%%Trailer
end
%%EOF
