%!PS-Adobe-3.0 EPSF-3.0
%%Title: gl2ps_renderer figure
%%Creator: GL2PS 1.4.2, (C) 1999-2020 C. Geuzaine
%%For: Octave
%%CreationDate: Wed Oct  7 07:02:22 2020
%%LanguageLevel: 3
%%DocumentData: Clean7Bit
%%Pages: 1
%%BoundingBox: 0 0 576 432
%%EndComments
%%BeginProlog
/gl2psdict 64 dict def gl2psdict begin
/tryPS3shading false def % set to false to force subdivision
/rThreshold 0.064 def % red component subdivision threshold
/gThreshold 0.034 def % green component subdivision threshold
/bThreshold 0.1 def % blue component subdivision threshold
/BD { bind def } bind def
/C  { setrgbcolor } BD
/G  { 0.082 mul exch 0.6094 mul add exch 0.3086 mul add neg 1.0 add setgray } BD
/W  { setlinewidth } BD
/LC  { setlinecap } BD
/LJ  { setlinejoin } BD
/FC { findfont exch /SH exch def SH scalefont setfont } BD
/SW { dup stringwidth pop } BD
/S  { FC moveto show } BD
/SBC{ FC moveto SW -2 div 0 rmoveto show } BD
/SBR{ FC moveto SW neg 0 rmoveto show } BD
/SCL{ FC moveto 0 SH -2 div rmoveto show } BD
/SCC{ FC moveto SW -2 div SH -2 div rmoveto show } BD
/SCR{ FC moveto SW neg SH -2 div rmoveto show } BD
/STL{ FC moveto 0 SH neg rmoveto show } BD
/STC{ FC moveto SW -2 div SH neg rmoveto show } BD
/STR{ FC moveto SW neg SH neg rmoveto show } BD
/FCT { FC translate 0 0 } BD
/SR  { gsave FCT moveto rotate show grestore } BD
/SRX  { gsave FCT moveto rotate xshow grestore } BD
/SBCR{ gsave FCT moveto rotate SW -2 div 0 rmoveto show grestore } BD
/SBRR{ gsave FCT moveto rotate SW neg 0 rmoveto show grestore } BD
/SCLR{ gsave FCT moveto rotate 0 SH -2 div rmoveto show grestore} BD
/SCCR{ gsave FCT moveto rotate SW -2 div SH -2 div rmoveto show grestore} BD
/SCRR{ gsave FCT moveto rotate SW neg SH -2 div rmoveto show grestore} BD
/STLR{ gsave FCT moveto rotate 0 SH neg rmoveto show grestore } BD
/STCR{ gsave FCT moveto rotate SW -2 div SH neg rmoveto show grestore } BD
/STRR{ gsave FCT moveto rotate SW neg SH neg rmoveto show grestore } BD
/P  { newpath 0.0 360.0 arc closepath fill } BD
/LS { newpath moveto } BD
/L  { lineto } BD
/LE { lineto stroke } BD
/T  { newpath moveto lineto lineto closepath fill } BD
/STshfill {
      /b1 exch def /g1 exch def /r1 exch def /y1 exch def /x1 exch def
      /b2 exch def /g2 exch def /r2 exch def /y2 exch def /x2 exch def
      /b3 exch def /g3 exch def /r3 exch def /y3 exch def /x3 exch def
      gsave << /ShadingType 4 /ColorSpace [/DeviceRGB]
      /DataSource [ 0 x1 y1 r1 g1 b1 0 x2 y2 r2 g2 b2 0 x3 y3 r3 g3 b3 ] >>
      shfill grestore } BD
/Tm { 3 -1 roll 8 -1 roll 13 -1 roll add add 3 div
      3 -1 roll 7 -1 roll 11 -1 roll add add 3 div
      3 -1 roll 6 -1 roll 9 -1 roll add add 3 div C T } BD
/STsplit {
      4 index 15 index add 0.5 mul
      4 index 15 index add 0.5 mul
      4 index 15 index add 0.5 mul
      4 index 15 index add 0.5 mul
      4 index 15 index add 0.5 mul
      5 copy 5 copy 25 15 roll
      9 index 30 index add 0.5 mul
      9 index 30 index add 0.5 mul
      9 index 30 index add 0.5 mul
      9 index 30 index add 0.5 mul
      9 index 30 index add 0.5 mul
      5 copy 5 copy 35 5 roll 25 5 roll 15 5 roll
      4 index 10 index add 0.5 mul
      4 index 10 index add 0.5 mul
      4 index 10 index add 0.5 mul
      4 index 10 index add 0.5 mul
      4 index 10 index add 0.5 mul
      5 copy 5 copy 40 5 roll 25 5 roll 15 5 roll 25 5 roll
      STnoshfill STnoshfill STnoshfill STnoshfill } BD
/STnoshfill {
      2 index 8 index sub abs rThreshold gt
      { STsplit }
      { 1 index 7 index sub abs gThreshold gt
        { STsplit }
        { dup 6 index sub abs bThreshold gt
          { STsplit }
          { 2 index 13 index sub abs rThreshold gt
            { STsplit }
            { 1 index 12 index sub abs gThreshold gt
              { STsplit }
              { dup 11 index sub abs bThreshold gt
                { STsplit }
                { 7 index 13 index sub abs rThreshold gt
                  { STsplit }
                  { 6 index 12 index sub abs gThreshold gt
                    { STsplit }
                    { 5 index 11 index sub abs bThreshold gt
                      { STsplit }
                      { Tm }
                      ifelse }
                    ifelse }
                  ifelse }
                ifelse }
              ifelse }
            ifelse }
          ifelse }
        ifelse }
      ifelse } BD
tryPS3shading
{ /shfill where
  { /ST { STshfill } BD }
  { /ST { STnoshfill } BD }
  ifelse }
{ /ST { STnoshfill } BD }
ifelse
end
%%EndProlog
%%BeginSetup
/DeviceRGB setcolorspace
gl2psdict begin
%%EndSetup
%%Page: 1 1
%%BeginPageSetup
%%EndPageSetup
mark
gsave
1.0 1.0 scale
1 1 1 C
newpath 0 0 moveto 576 0 lineto 576 432 lineto 0 432 lineto
closepath fill
gsave
1.0 1.0 scale
1 1 1 C
newpath 0 0 moveto 576 0 lineto 576 432 lineto 0 432 lineto
closepath fill
newpath 0 0 moveto 576 0 lineto 576 432 lineto 0 432 lineto
closepath clip
1 1 1 C
74.88 385.841 187.093 312.427 74.88 312.427 T
74.88 385.841 187.093 385.841 187.093 312.427 T
0.5 W
0.15 0.15 0.15 C
98.5037 312.427 LS
98.5037 313.556 LE
98.5037 385.841 LS
98.5037 384.712 LE
128.033 312.427 LS
128.033 313.556 LE
128.033 385.841 LS
128.033 384.712 LE
157.563 312.427 LS
157.563 313.556 LE
157.563 385.841 LS
157.563 384.712 LE
187.093 312.427 LS
187.093 313.556 LE
187.093 385.841 LS
187.093 384.712 LE
gsave
0.14902 0.14902 0.14902 C
(5) [10] 0 95.5037 296.885 10 /Helvetica SRX
grestore

gsave
0.14902 0.14902 0.14902 C
(10) [6 10] 0 122.033 296.885 10 /Helvetica SRX
grestore

gsave
0.14902 0.14902 0.14902 C
(15) [6 10] 0 151.563 296.885 10 /Helvetica SRX
grestore

gsave
0.14902 0.14902 0.14902 C
(20) [6 10] 0 181.093 296.885 10 /Helvetica SRX
grestore

74.88 312.427 LS
76.0043 312.427 LE
187.093 312.427 LS
185.968 312.427 LE
74.88 325.969 LS
76.0043 325.969 LE
187.093 325.969 LS
185.968 325.969 LE
74.88 339.51 LS
76.0043 339.51 LE
187.093 339.51 LS
185.968 339.51 LE
74.88 353.051 LS
76.0043 353.051 LE
187.093 353.051 LS
185.968 353.051 LE
74.88 366.592 LS
76.0043 366.592 LE
187.093 366.592 LS
185.968 366.592 LE
74.88 380.133 LS
76.0043 380.133 LE
187.093 380.133 LS
185.968 380.133 LE
gsave
0.14902 0.14902 0.14902 C
(0) [10] 0 63.8705 308.427 10 /Helvetica SRX
grestore

gsave
0.14902 0.14902 0.14902 C
(0.01) [6 3 6 10] 0 48.8705 321.969 10 /Helvetica SRX
grestore

gsave
0.14902 0.14902 0.14902 C
(0.02) [6 3 6 10] 0 48.8705 335.51 10 /Helvetica SRX
grestore

gsave
0.14902 0.14902 0.14902 C
(0.03) [6 3 6 10] 0 48.8705 349.051 10 /Helvetica SRX
grestore

gsave
0.14902 0.14902 0.14902 C
(0.04) [6 3 6 10] 0 48.8705 362.592 10 /Helvetica SRX
grestore

gsave
0.14902 0.14902 0.14902 C
(0.05) [6 3 6 10] 0 48.8705 376.133 10 /Helvetica SRX
grestore

2 LC
[16 0] 0 setdash
74.88 312.427 LS
187.093 312.427 LE
74.88 385.841 LS
187.093 385.841 LE
74.88 312.427 LS
74.88 385.841 LE
187.093 312.427 LS
187.093 385.841 LE
gsave
0 0 0 C
(P_C_hat) [7 6 8 6 7 6 10] 0 108.986 397.841 11 /Helvetica-Bold SRX
grestore

0.9 0.9 0.9 C
74.88 312.427 74.88 312.427 80.7859 312.427 T
80.7859 312.427 80.7859 312.427 74.88 312.427 T
86.6918 312.427 80.7859 312.427 80.7859 312.427 T
86.6918 362.368 86.6918 312.427 80.7859 312.427 T
92.5978 312.427 86.6918 312.427 86.6918 362.368 T
92.5978 382.345 92.5978 312.427 86.6918 362.368 T
98.5037 312.427 92.5978 312.427 92.5978 382.345 T
98.5037 385.841 98.5037 312.427 92.5978 382.345 T
104.41 312.427 98.5037 312.427 98.5037 385.841 T
104.41 380.946 104.41 312.427 98.5037 385.841 T
110.316 312.427 104.41 312.427 104.41 380.946 T
110.316 372.381 110.316 312.427 104.41 380.946 T
116.221 312.427 110.316 312.427 110.316 372.381 T
116.221 362.789 116.221 312.427 110.316 372.381 T
122.127 312.427 116.221 312.427 116.221 362.789 T
122.127 353.556 122.127 312.427 116.221 362.789 T
128.033 312.427 122.127 312.427 122.127 353.556 T
128.033 345.33 128.033 312.427 122.127 353.556 T
133.939 312.427 128.033 312.427 128.033 345.33 T
133.939 338.338 133.939 312.427 128.033 345.33 T
139.845 312.427 133.939 312.427 133.939 338.338 T
139.845 332.58 139.845 312.427 133.939 338.338 T
145.751 312.427 139.845 312.427 139.845 332.58 T
145.751 327.945 145.751 312.427 139.845 332.58 T
151.657 312.427 145.751 312.427 145.751 327.945 T
151.657 324.277 151.657 312.427 145.751 327.945 T
157.563 312.427 151.657 312.427 151.657 324.277 T
157.563 321.414 157.563 312.427 151.657 324.277 T
163.469 312.427 157.563 312.427 157.563 321.414 T
163.469 319.202 163.469 312.427 157.563 321.414 T
169.375 312.427 163.469 312.427 163.469 319.202 T
169.375 317.508 169.375 312.427 163.469 319.202 T
175.281 312.427 169.375 312.427 169.375 317.508 T
175.281 316.221 175.281 312.427 169.375 317.508 T
181.187 312.427 175.281 312.427 175.281 316.221 T
181.187 315.249 181.187 312.427 175.281 316.221 T
187.093 312.427 181.187 312.427 181.187 315.249 T
187.093 314.519 187.093 312.427 181.187 315.249 T
0 LC
[] 0 setdash
0 0 0 C
187.093 314.519 LS
181.187 315.249 L
175.281 316.221 L
169.375 317.508 L
163.469 319.202 L
157.563 321.414 L
151.657 324.277 L
145.751 327.945 L
139.845 332.58 L
133.939 338.338 L
128.033 345.33 L
122.127 353.556 L
116.221 362.789 L
110.316 372.381 L
104.41 380.946 L
98.5037 385.841 L
92.5978 382.345 L
86.6918 362.368 L
80.7859 312.427 L
74.88 312.427 L
74.88 312.427 L
80.7859 312.427 L
86.6918 312.427 L
92.5978 312.427 L
98.5037 312.427 L
104.41 312.427 L
110.316 312.427 L
116.221 312.427 L
122.127 312.427 L
128.033 312.427 L
133.939 312.427 L
139.845 312.427 L
145.751 312.427 L
151.657 312.427 L
157.563 312.427 L
163.469 312.427 L
169.375 312.427 L
175.281 312.427 L
181.187 312.427 L
187.093 312.427 L
187.093 314.519 LE
1 1 1 C
80.7859 312.427 86.6918 339.342 86.6918 312.427 T
92.5978 312.427 86.6918 312.427 86.6918 339.342 T
92.5978 350.108 92.5978 312.427 86.6918 339.342 T
98.5037 312.427 92.5978 312.427 92.5978 350.108 T
98.5037 351.992 98.5037 312.427 92.5978 350.108 T
104.41 312.427 98.5037 312.427 98.5037 351.992 T
104.41 349.354 104.41 312.427 98.5037 351.992 T
110.316 312.427 104.41 312.427 104.41 349.354 T
110.316 344.738 110.316 312.427 104.41 349.354 T
116.221 312.427 110.316 312.427 110.316 344.738 T
116.221 339.569 116.221 312.427 110.316 344.738 T
122.127 312.427 116.221 312.427 116.221 339.569 T
122.127 334.593 122.127 312.427 116.221 339.569 T
128.033 312.427 122.127 312.427 122.127 334.593 T
128.033 330.16 128.033 312.427 122.127 334.593 T
133.939 312.427 128.033 312.427 128.033 330.16 T
133.939 326.392 133.939 312.427 128.033 330.16 T
139.845 312.427 133.939 312.427 133.939 326.392 T
139.845 323.288 139.845 312.427 133.939 326.392 T
145.751 312.427 139.845 312.427 139.845 323.288 T
145.751 320.79 145.751 312.427 139.845 323.288 T
151.657 312.427 145.751 312.427 145.751 320.79 T
151.657 318.814 151.657 312.427 145.751 320.79 T
157.563 312.427 151.657 312.427 151.657 318.814 T
157.563 317.27 157.563 312.427 151.657 318.814 T
163.469 312.427 157.563 312.427 157.563 317.27 T
163.469 316.078 163.469 312.427 157.563 317.27 T
169.375 312.427 163.469 312.427 163.469 316.078 T
169.375 315.166 169.375 312.427 163.469 316.078 T
175.281 312.427 169.375 312.427 169.375 315.166 T
175.281 314.472 175.281 312.427 169.375 315.166 T
181.187 312.427 175.281 312.427 175.281 314.472 T
181.187 313.948 181.187 312.427 175.281 314.472 T
187.093 312.427 181.187 312.427 181.187 313.948 T
187.093 313.554 187.093 312.427 181.187 313.948 T
74.88 312.427 74.88 312.427 80.7859 312.427 T
0 0 0 C
80.7859 312.427 LS
74.88 312.427 L
74.88 312.427 L
80.7859 312.427 LE
187.093 313.554 LS
181.187 313.948 L
175.281 314.472 L
169.375 315.166 L
163.469 316.078 L
157.563 317.27 L
151.657 318.814 L
145.751 320.79 L
139.845 323.288 L
133.939 326.392 L
128.033 330.16 L
122.127 334.593 L
116.221 339.569 L
110.316 344.738 L
104.41 349.354 L
98.5037 351.992 L
92.5978 350.108 L
86.6918 339.342 L
80.7859 312.427 L
86.6918 312.427 L
92.5978 312.427 L
98.5037 312.427 L
104.41 312.427 L
110.316 312.427 L
116.221 312.427 L
122.127 312.427 L
128.033 312.427 L
133.939 312.427 L
139.845 312.427 L
145.751 312.427 L
151.657 312.427 L
157.563 312.427 L
163.469 312.427 L
169.375 312.427 L
175.281 312.427 L
181.187 312.427 L
187.093 312.427 L
187.093 313.554 LE
3 W
1 LJ
74.88 312.427 LS
80.7859 312.427 L
86.6918 350.884 L
92.5978 366.267 L
98.5037 368.959 L
104.41 365.19 L
110.316 358.595 L
116.221 351.208 L
122.127 344.098 L
128.033 337.764 L
133.939 332.38 L
139.845 327.946 L
145.751 324.377 L
151.657 321.552 L
157.563 319.347 L
163.469 317.644 L
169.375 316.34 L
175.281 315.349 L
181.187 314.6 L
187.093 314.038 LE
grestore
gsave
1.0 1.0 scale
newpath 0 0 moveto 576 0 lineto 576 432 lineto 0 432 lineto
closepath clip
1 1 1 C
241.974 385.841 354.186 312.427 241.974 312.427 T
241.974 385.841 354.186 385.841 354.186 312.427 T
0.5 W
0.15 0.15 0.15 C
265.597 312.427 LS
265.597 313.556 LE
265.597 385.841 LS
265.597 384.712 LE
295.127 312.427 LS
295.127 313.556 LE
295.127 385.841 LS
295.127 384.712 LE
324.657 312.427 LS
324.657 313.556 LE
324.657 385.841 LS
324.657 384.712 LE
354.186 312.427 LS
354.186 313.556 LE
354.186 385.841 LS
354.186 384.712 LE
gsave
0.14902 0.14902 0.14902 C
(5) [10] 0 262.597 296.885 10 /Helvetica SRX
grestore

gsave
0.14902 0.14902 0.14902 C
(10) [6 10] 0 289.127 296.885 10 /Helvetica SRX
grestore

gsave
0.14902 0.14902 0.14902 C
(15) [6 10] 0 318.657 296.885 10 /Helvetica SRX
grestore

gsave
0.14902 0.14902 0.14902 C
(20) [6 10] 0 348.186 296.885 10 /Helvetica SRX
grestore

241.974 321.086 LS
243.098 321.086 LE
354.186 321.086 LS
353.062 321.086 LE
241.974 337.971 LS
243.098 337.971 LE
354.186 337.971 LS
353.062 337.971 LE
241.974 354.857 LS
243.098 354.857 LE
354.186 354.857 LS
353.062 354.857 LE
241.974 371.742 LS
243.098 371.742 LE
354.186 371.742 LS
353.062 371.742 LE
gsave
0.14902 0.14902 0.14902 C
(-0.0001) [3 6 3 6 6 6 10] 0 200.964 317.086 10 /Helvetica SRX
grestore

gsave
0.14902 0.14902 0.14902 C
(-5e-05) [3 6 5 3 6 10] 0 207.964 333.971 10 /Helvetica SRX
grestore

gsave
0.14902 0.14902 0.14902 C
(0) [10] 0 230.964 350.857 10 /Helvetica SRX
grestore

gsave
0.14902 0.14902 0.14902 C
(5e-05) [6 5 3 6 10] 0 210.964 367.742 10 /Helvetica SRX
grestore

2 LC
[16 0] 0 setdash
241.974 312.427 LS
354.186 312.427 LE
241.974 385.841 LS
354.186 385.841 LE
241.974 312.427 LS
241.974 385.841 LE
354.186 312.427 LS
354.186 385.841 LE
gsave
0 0 0 C
(r_hat) [4 6 7 6 10] 0 284.58 397.841 11 /Helvetica-Bold SRX
grestore

0.9 0.9 0.9 C
241.974 312.427 241.974 354.857 247.88 312.427 T
247.88 371.241 247.88 312.427 241.974 354.857 T
253.786 312.427 247.88 312.427 247.88 371.241 T
253.786 385.841 253.786 312.427 247.88 371.241 T
259.691 312.427 253.786 312.427 253.786 385.841 T
259.691 383.302 259.691 312.427 253.786 385.841 T
265.597 312.427 259.691 312.427 259.691 383.302 T
265.597 374.827 265.597 312.427 259.691 383.302 T
271.503 312.427 265.597 312.427 265.597 374.827 T
271.503 361.317 271.503 312.427 265.597 374.827 T
277.409 312.427 271.503 312.427 271.503 361.317 T
277.409 350.096 277.409 312.427 271.503 361.317 T
283.315 312.427 277.409 312.427 277.409 350.096 T
283.315 344.279 283.315 312.427 277.409 350.096 T
289.221 312.427 283.315 312.427 283.315 344.279 T
289.221 340.131 289.221 312.427 283.315 344.279 T
295.127 312.427 289.221 312.427 289.221 340.131 T
295.127 337.392 295.127 312.427 289.221 340.131 T
301.033 312.427 295.127 312.427 295.127 337.392 T
301.033 336.811 301.033 312.427 295.127 337.392 T
306.939 312.427 301.033 312.427 301.033 336.811 T
306.939 335.607 306.939 312.427 301.033 336.811 T
312.845 312.427 306.939 312.427 306.939 335.607 T
312.845 335.825 312.845 312.427 306.939 335.607 T
318.751 312.427 312.845 312.427 312.845 335.825 T
318.751 336.072 318.751 312.427 312.845 335.825 T
324.657 312.427 318.751 312.427 318.751 336.072 T
324.657 336.517 324.657 312.427 318.751 336.072 T
330.563 312.427 324.657 312.427 324.657 336.517 T
330.563 337.358 330.563 312.427 324.657 336.517 T
336.469 312.427 330.563 312.427 330.563 337.358 T
336.469 338.685 336.469 312.427 330.563 337.358 T
342.374 312.427 336.469 312.427 336.469 338.685 T
342.374 339.426 342.374 312.427 336.469 338.685 T
348.28 312.427 342.374 312.427 342.374 339.426 T
348.28 340.439 348.28 312.427 342.374 339.426 T
354.186 312.427 348.28 312.427 348.28 340.439 T
354.186 340.885 354.186 312.427 348.28 340.439 T
0 LC
[] 0 setdash
0 0 0 C
354.186 340.885 LS
348.28 340.439 L
342.374 339.426 L
336.469 338.685 L
330.563 337.358 L
324.657 336.517 L
318.751 336.072 L
312.845 335.825 L
306.939 335.607 L
301.033 336.811 L
295.127 337.392 L
289.221 340.131 L
283.315 344.279 L
277.409 350.096 L
271.503 361.317 L
265.597 374.827 L
259.691 383.302 L
253.786 385.841 L
247.88 371.241 L
241.974 354.857 L
241.974 312.427 L
247.88 312.427 L
253.786 312.427 L
259.691 312.427 L
265.597 312.427 L
271.503 312.427 L
277.409 312.427 L
283.315 312.427 L
289.221 312.427 L
295.127 312.427 L
301.033 312.427 L
306.939 312.427 L
312.845 312.427 L
318.751 312.427 L
324.657 312.427 L
330.563 312.427 L
336.469 312.427 L
342.374 312.427 L
348.28 312.427 L
354.186 312.427 L
354.186 340.885 LE
1 1 1 C
306.939 312.427 312.845 313.306 312.845 312.427 T
318.751 312.427 312.845 312.427 312.845 313.306 T
318.751 313.887 318.751 312.427 312.845 313.306 T
324.657 312.427 318.751 312.427 318.751 313.887 T
324.657 315.372 324.657 312.427 318.751 313.887 T
330.563 312.427 324.657 312.427 324.657 315.372 T
330.563 317.584 330.563 312.427 324.657 315.372 T
336.469 312.427 330.563 312.427 330.563 317.584 T
336.469 320.048 336.469 312.427 330.563 317.584 T
342.374 312.427 336.469 312.427 336.469 320.048 T
342.374 322.09 342.374 312.427 336.469 320.048 T
348.28 312.427 342.374 312.427 342.374 322.09 T
348.28 324.305 348.28 312.427 342.374 322.09 T
354.186 312.427 348.28 312.427 348.28 324.305 T
354.186 326.079 354.186 312.427 348.28 324.305 T
241.974 312.427 241.974 354.857 247.88 312.427 T
247.88 358.988 247.88 312.427 241.974 354.857 T
253.786 312.427 247.88 312.427 247.88 358.988 T
253.786 343.944 253.786 312.427 247.88 358.988 T
259.691 312.427 253.786 312.427 253.786 343.944 T
259.691 329.528 259.691 312.427 253.786 343.944 T
265.597 312.427 259.691 312.427 259.691 329.528 T
265.597 323.438 265.597 312.427 259.691 329.528 T
271.503 312.427 265.597 312.427 265.597 323.438 T
271.503 319.42 271.503 312.427 265.597 323.438 T
277.409 312.427 271.503 312.427 271.503 319.42 T
277.409 317.753 277.409 312.427 271.503 319.42 T
283.315 312.427 277.409 312.427 277.409 317.753 T
283.315 316.623 283.315 312.427 277.409 317.753 T
289.221 312.427 283.315 312.427 283.315 316.623 T
289.221 315.083 289.221 312.427 283.315 316.623 T
295.127 312.427 289.221 312.427 289.221 315.083 T
295.127 313.343 295.127 312.427 289.221 315.083 T
301.033 312.427 295.127 312.427 295.127 313.343 T
301.033 313.179 301.033 312.427 295.127 313.343 T
306.939 312.427 301.033 312.427 301.033 313.179 T
0 0 0 C
306.939 312.427 LS
301.033 313.179 L
295.127 313.343 L
289.221 315.083 L
283.315 316.623 L
277.409 317.753 L
271.503 319.42 L
265.597 323.438 L
259.691 329.528 L
253.786 343.944 L
247.88 358.988 L
241.974 354.857 L
241.974 312.427 L
247.88 312.427 L
253.786 312.427 L
259.691 312.427 L
265.597 312.427 L
271.503 312.427 L
277.409 312.427 L
283.315 312.427 L
289.221 312.427 L
295.127 312.427 L
301.033 312.427 L
306.939 312.427 LE
354.186 326.079 LS
348.28 324.305 L
342.374 322.09 L
336.469 320.048 L
330.563 317.584 L
324.657 315.372 L
318.751 313.887 L
312.845 313.306 L
306.939 312.427 L
312.845 312.427 L
318.751 312.427 L
324.657 312.427 L
330.563 312.427 L
336.469 312.427 L
342.374 312.427 L
348.28 312.427 L
354.186 312.427 L
354.186 326.079 LE
3 W
1 LJ
241.974 354.857 LS
247.88 365.206 L
253.786 364.811 L
259.691 358.558 L
265.597 350.263 L
271.503 342.17 L
277.409 335.362 L
283.315 330.215 L
289.221 326.712 L
295.127 324.647 L
301.033 323.748 L
306.939 323.735 L
312.845 324.36 L
318.751 325.414 L
324.657 326.731 L
330.563 328.187 L
336.469 329.689 L
342.374 331.173 L
348.28 332.595 L
354.186 333.93 LE
grestore
gsave
1.0 1.0 scale
newpath 0 0 moveto 576 0 lineto 576 432 lineto 0 432 lineto
closepath clip
1 1 1 C
409.067 385.841 521.28 312.427 409.067 312.427 T
409.067 385.841 521.28 385.841 521.28 312.427 T
0.5 W
0.15 0.15 0.15 C
432.691 312.427 LS
432.691 313.556 LE
432.691 385.841 LS
432.691 384.712 LE
462.221 312.427 LS
462.221 313.556 LE
462.221 385.841 LS
462.221 384.712 LE
491.75 312.427 LS
491.75 313.556 LE
491.75 385.841 LS
491.75 384.712 LE
521.28 312.427 LS
521.28 313.556 LE
521.28 385.841 LS
521.28 384.712 LE
gsave
0.14902 0.14902 0.14902 C
(5) [10] 0 429.691 296.885 10 /Helvetica SRX
grestore

gsave
0.14902 0.14902 0.14902 C
(10) [6 10] 0 456.221 296.885 10 /Helvetica SRX
grestore

gsave
0.14902 0.14902 0.14902 C
(15) [6 10] 0 485.75 296.885 10 /Helvetica SRX
grestore

gsave
0.14902 0.14902 0.14902 C
(20) [6 10] 0 515.28 296.885 10 /Helvetica SRX
grestore

409.067 319.533 LS
410.192 319.533 LE
521.28 319.533 LS
520.156 319.533 LE
409.067 334.414 LS
410.192 334.414 LE
521.28 334.414 LS
520.156 334.414 LE
409.067 349.295 LS
410.192 349.295 LE
521.28 349.295 LS
520.156 349.295 LE
409.067 364.176 LS
410.192 364.176 LE
521.28 364.176 LS
520.156 364.176 LE
409.067 379.057 LS
410.192 379.057 LE
521.28 379.057 LS
520.156 379.057 LE
gsave
0.14902 0.14902 0.14902 C
(0.002) [6 3 6 6 10] 0 377.058 315.533 10 /Helvetica SRX
grestore

gsave
0.14902 0.14902 0.14902 C
(0.004) [6 3 6 6 10] 0 377.058 330.414 10 /Helvetica SRX
grestore

gsave
0.14902 0.14902 0.14902 C
(0.006) [6 3 6 6 10] 0 377.058 345.295 10 /Helvetica SRX
grestore

gsave
0.14902 0.14902 0.14902 C
(0.008) [6 3 6 6 10] 0 377.058 360.176 10 /Helvetica SRX
grestore

gsave
0.14902 0.14902 0.14902 C
(0.01) [6 3 6 10] 0 383.058 375.057 10 /Helvetica SRX
grestore

2 LC
[16 0] 0 setdash
409.067 312.427 LS
521.28 312.427 LE
409.067 385.841 LS
521.28 385.841 LE
409.067 312.427 LS
409.067 385.841 LE
521.28 312.427 LS
521.28 385.841 LE
gsave
0 0 0 C
(Y_hat) [7 6 7 6 10] 0 450.174 397.841 11 /Helvetica-Bold SRX
grestore

0.9 0.9 0.9 C
409.067 312.427 409.067 320.247 414.973 312.427 T
414.973 325.993 414.973 312.427 409.067 320.247 T
420.879 312.427 414.973 312.427 414.973 325.993 T
420.879 360.36 420.879 312.427 414.973 325.993 T
426.785 312.427 420.879 312.427 420.879 360.36 T
426.785 378.49 426.785 312.427 420.879 360.36 T
432.691 312.427 426.785 312.427 426.785 378.49 T
432.691 385.841 432.691 312.427 426.785 378.49 T
438.597 312.427 432.691 312.427 432.691 385.841 T
438.597 385.505 438.597 312.427 432.691 385.841 T
444.503 312.427 438.597 312.427 438.597 385.505 T
444.503 382.528 444.503 312.427 438.597 385.505 T
450.409 312.427 444.503 312.427 444.503 382.528 T
450.409 377.022 450.409 312.427 444.503 382.528 T
456.315 312.427 450.409 312.427 450.409 377.022 T
456.315 370.257 456.315 312.427 450.409 377.022 T
462.221 312.427 456.315 312.427 456.315 370.257 T
462.221 362.706 462.221 312.427 456.315 370.257 T
468.127 312.427 462.221 312.427 462.221 362.706 T
468.127 356.342 468.127 312.427 462.221 362.706 T
474.033 312.427 468.127 312.427 468.127 356.342 T
474.033 351.344 474.033 312.427 468.127 356.342 T
479.939 312.427 474.033 312.427 474.033 351.344 T
479.939 346.134 479.939 312.427 474.033 351.344 T
485.844 312.427 479.939 312.427 479.939 346.134 T
485.844 341.913 485.844 312.427 479.939 346.134 T
491.75 312.427 485.844 312.427 485.844 341.913 T
491.75 338.481 491.75 312.427 485.844 341.913 T
497.656 312.427 491.75 312.427 491.75 338.481 T
497.656 335.832 497.656 312.427 491.75 338.481 T
503.562 312.427 497.656 312.427 497.656 335.832 T
503.562 333.352 503.562 312.427 497.656 335.832 T
509.468 312.427 503.562 312.427 503.562 333.352 T
509.468 331.392 509.468 312.427 503.562 333.352 T
515.374 312.427 509.468 312.427 509.468 331.392 T
515.374 329.748 515.374 312.427 509.468 331.392 T
521.28 312.427 515.374 312.427 515.374 329.748 T
521.28 328.399 521.28 312.427 515.374 329.748 T
0 LC
[] 0 setdash
0 0 0 C
521.28 328.399 LS
515.374 329.748 L
509.468 331.392 L
503.562 333.352 L
497.656 335.832 L
491.75 338.481 L
485.844 341.913 L
479.939 346.134 L
474.033 351.344 L
468.127 356.342 L
462.221 362.706 L
456.315 370.257 L
450.409 377.022 L
444.503 382.528 L
438.597 385.505 L
432.691 385.841 L
426.785 378.49 L
420.879 360.36 L
414.973 325.993 L
409.067 320.247 L
409.067 312.427 L
414.973 312.427 L
420.879 312.427 L
426.785 312.427 L
432.691 312.427 L
438.597 312.427 L
444.503 312.427 L
450.409 312.427 L
456.315 312.427 L
462.221 312.427 L
468.127 312.427 L
474.033 312.427 L
479.939 312.427 L
485.844 312.427 L
491.75 312.427 L
497.656 312.427 L
503.562 312.427 L
509.468 312.427 L
515.374 312.427 L
521.28 312.427 L
521.28 328.399 LE
1 1 1 C
409.067 312.427 414.973 314.94 414.973 312.427 T
420.879 312.427 414.973 312.427 414.973 314.94 T
420.879 331.564 420.879 312.427 414.973 314.94 T
426.785 312.427 420.879 312.427 420.879 331.564 T
426.785 339.626 426.785 312.427 420.879 331.564 T
432.691 312.427 426.785 312.427 426.785 339.626 T
432.691 343.024 432.691 312.427 426.785 339.626 T
438.597 312.427 432.691 312.427 432.691 343.024 T
438.597 342.871 438.597 312.427 432.691 343.024 T
444.503 312.427 438.597 312.427 438.597 342.871 T
444.503 342.547 444.503 312.427 438.597 342.871 T
450.409 312.427 444.503 312.427 444.503 342.547 T
450.409 340.699 450.409 312.427 444.503 342.547 T
456.315 312.427 450.409 312.427 450.409 340.699 T
456.315 337.859 456.315 312.427 450.409 340.699 T
462.221 312.427 456.315 312.427 456.315 337.859 T
462.221 334.253 462.221 312.427 456.315 337.859 T
468.127 312.427 462.221 312.427 462.221 334.253 T
468.127 331.267 468.127 312.427 462.221 334.253 T
474.033 312.427 468.127 312.427 468.127 331.267 T
474.033 329.349 474.033 312.427 468.127 331.267 T
479.939 312.427 474.033 312.427 474.033 329.349 T
479.939 326.702 479.939 312.427 474.033 329.349 T
485.844 312.427 479.939 312.427 479.939 326.702 T
485.844 324.546 485.844 312.427 479.939 326.702 T
491.75 312.427 485.844 312.427 485.844 324.546 T
491.75 322.833 491.75 312.427 485.844 324.546 T
497.656 312.427 491.75 312.427 491.75 322.833 T
497.656 321.569 497.656 312.427 491.75 322.833 T
503.562 312.427 497.656 312.427 497.656 321.569 T
503.562 320.191 503.562 312.427 497.656 321.569 T
509.468 312.427 503.562 312.427 503.562 320.191 T
509.468 319.123 509.468 312.427 503.562 320.191 T
515.374 312.427 509.468 312.427 509.468 319.123 T
515.374 318.215 515.374 312.427 509.468 319.123 T
521.28 312.427 515.374 312.427 515.374 318.215 T
521.28 317.454 521.28 312.427 515.374 318.215 T
0 0 0 C
521.28 317.454 LS
515.374 318.215 L
509.468 319.123 L
503.562 320.191 L
497.656 321.569 L
491.75 322.833 L
485.844 324.546 L
479.939 326.702 L
474.033 329.349 L
468.127 331.267 L
462.221 334.253 L
456.315 337.859 L
450.409 340.699 L
444.503 342.547 L
438.597 342.871 L
432.691 343.024 L
426.785 339.626 L
420.879 331.564 L
414.973 314.94 L
409.067 312.427 L
414.973 312.427 L
420.879 312.427 L
426.785 312.427 L
432.691 312.427 L
438.597 312.427 L
444.503 312.427 L
450.409 312.427 L
456.315 312.427 L
462.221 312.427 L
468.127 312.427 L
474.033 312.427 L
479.939 312.427 L
485.844 312.427 L
491.75 312.427 L
497.656 312.427 L
503.562 312.427 L
509.468 312.427 L
515.374 312.427 L
521.28 312.427 L
521.28 317.454 LE
3 W
1 LJ
409.067 316.114 LS
414.973 320.831 L
420.879 346.876 L
426.785 360.297 L
432.691 365.681 L
438.597 366.011 L
444.503 363.347 L
450.409 359.094 L
456.315 354.183 L
462.221 349.198 L
468.127 344.485 L
474.033 340.226 L
479.939 336.494 L
485.844 333.297 L
491.75 330.604 L
497.656 328.365 L
503.562 326.52 L
509.468 325.011 L
515.374 323.782 L
521.28 322.784 LE
grestore
gsave
1.0 1.0 scale
newpath 0 0 moveto 576 0 lineto 576 432 lineto 0 432 lineto
closepath clip
1 1 1 C
74.88 253.387 187.093 179.974 74.88 179.974 T
74.88 253.387 187.093 253.387 187.093 179.974 T
0.5 W
0.15 0.15 0.15 C
98.5037 179.974 LS
98.5037 181.102 LE
98.5037 253.387 LS
98.5037 252.258 LE
128.033 179.974 LS
128.033 181.102 LE
128.033 253.387 LS
128.033 252.258 LE
157.563 179.974 LS
157.563 181.102 LE
157.563 253.387 LS
157.563 252.258 LE
187.093 179.974 LS
187.093 181.102 LE
187.093 253.387 LS
187.093 252.258 LE
gsave
0.14902 0.14902 0.14902 C
(5) [10] 0 95.5037 164.431 10 /Helvetica SRX
grestore

gsave
0.14902 0.14902 0.14902 C
(10) [6 10] 0 122.033 164.431 10 /Helvetica SRX
grestore

gsave
0.14902 0.14902 0.14902 C
(15) [6 10] 0 151.563 164.431 10 /Helvetica SRX
grestore

gsave
0.14902 0.14902 0.14902 C
(20) [6 10] 0 181.093 164.431 10 /Helvetica SRX
grestore

74.88 185.33 LS
76.0043 185.33 LE
187.093 185.33 LS
185.968 185.33 LE
74.88 205.661 LS
76.0043 205.661 LE
187.093 205.661 LS
185.968 205.661 LE
74.88 225.992 LS
76.0043 225.992 LE
187.093 225.992 LS
185.968 225.992 LE
74.88 246.322 LS
76.0043 246.322 LE
187.093 246.322 LS
185.968 246.322 LE
gsave
0.14902 0.14902 0.14902 C
(0.001) [6 3 6 6 10] 0 42.8705 181.33 10 /Helvetica SRX
grestore

gsave
0.14902 0.14902 0.14902 C
(0.002) [6 3 6 6 10] 0 42.8705 201.661 10 /Helvetica SRX
grestore

gsave
0.14902 0.14902 0.14902 C
(0.003) [6 3 6 6 10] 0 42.8705 221.992 10 /Helvetica SRX
grestore

gsave
0.14902 0.14902 0.14902 C
(0.004) [6 3 6 6 10] 0 42.8705 242.322 10 /Helvetica SRX
grestore

2 LC
[16 0] 0 setdash
74.88 179.974 LS
187.093 179.974 LE
74.88 253.387 LS
187.093 253.387 LE
74.88 179.974 LS
74.88 253.387 LE
187.093 179.974 LS
187.093 253.387 LE
gsave
0 0 0 C
(C_hat) [8 6 7 6 10] 0 115.486 265.387 11 /Helvetica-Bold SRX
grestore

0.9 0.9 0.9 C
74.88 179.974 74.88 195.026 80.7859 179.974 T
80.7859 209.012 80.7859 179.974 74.88 195.026 T
86.6918 179.974 80.7859 179.974 80.7859 209.012 T
86.6918 222.701 86.6918 179.974 80.7859 209.012 T
92.5978 179.974 86.6918 179.974 86.6918 222.701 T
92.5978 235.406 92.5978 179.974 86.6918 222.701 T
98.5037 179.974 92.5978 179.974 92.5978 235.406 T
98.5037 243.932 98.5037 179.974 92.5978 235.406 T
104.41 179.974 98.5037 179.974 98.5037 243.932 T
104.41 251.125 104.41 179.974 98.5037 243.932 T
110.316 179.974 104.41 179.974 104.41 251.125 T
110.316 253.387 110.316 179.974 104.41 251.125 T
116.221 179.974 110.316 179.974 110.316 253.387 T
116.221 253.068 116.221 179.974 110.316 253.387 T
122.127 179.974 116.221 179.974 116.221 253.068 T
122.127 252.281 122.127 179.974 116.221 253.068 T
128.033 179.974 122.127 179.974 122.127 252.281 T
128.033 247.764 128.033 179.974 122.127 252.281 T
133.939 179.974 128.033 179.974 128.033 247.764 T
133.939 245.818 133.939 179.974 128.033 247.764 T
139.845 179.974 133.939 179.974 133.939 245.818 T
139.845 241.907 139.845 179.974 133.939 245.818 T
145.751 179.974 139.845 179.974 139.845 241.907 T
145.751 237.546 145.751 179.974 139.845 241.907 T
151.657 179.974 145.751 179.974 145.751 237.546 T
151.657 234.609 151.657 179.974 145.751 237.546 T
157.563 179.974 151.657 179.974 151.657 234.609 T
157.563 231.684 157.563 179.974 151.657 234.609 T
163.469 179.974 157.563 179.974 157.563 231.684 T
163.469 228.713 163.469 179.974 157.563 231.684 T
169.375 179.974 163.469 179.974 163.469 228.713 T
169.375 227.013 169.375 179.974 163.469 228.713 T
175.281 179.974 169.375 179.974 169.375 227.013 T
175.281 224.652 175.281 179.974 169.375 227.013 T
181.187 179.974 175.281 179.974 175.281 224.652 T
181.187 222.678 181.187 179.974 175.281 224.652 T
187.093 179.974 181.187 179.974 181.187 222.678 T
187.093 220.974 187.093 179.974 181.187 222.678 T
0 LC
[] 0 setdash
0 0 0 C
187.093 220.974 LS
181.187 222.678 L
175.281 224.652 L
169.375 227.013 L
163.469 228.713 L
157.563 231.684 L
151.657 234.609 L
145.751 237.546 L
139.845 241.907 L
133.939 245.818 L
128.033 247.764 L
122.127 252.281 L
116.221 253.068 L
110.316 253.387 L
104.41 251.125 L
98.5037 243.932 L
92.5978 235.406 L
86.6918 222.701 L
80.7859 209.012 L
74.88 195.026 L
74.88 179.974 L
80.7859 179.974 L
86.6918 179.974 L
92.5978 179.974 L
98.5037 179.974 L
104.41 179.974 L
110.316 179.974 L
116.221 179.974 L
122.127 179.974 L
128.033 179.974 L
133.939 179.974 L
139.845 179.974 L
145.751 179.974 L
151.657 179.974 L
157.563 179.974 L
163.469 179.974 L
169.375 179.974 L
175.281 179.974 L
181.187 179.974 L
187.093 179.974 L
187.093 220.974 LE
1 1 1 C
74.88 179.974 80.7859 186.411 80.7859 179.974 T
86.6918 179.974 80.7859 179.974 80.7859 186.411 T
86.6918 190.939 86.6918 179.974 80.7859 186.411 T
92.5978 179.974 86.6918 179.974 86.6918 190.939 T
92.5978 195.231 92.5978 179.974 86.6918 190.939 T
98.5037 179.974 92.5978 179.974 92.5978 195.231 T
98.5037 197.982 98.5037 179.974 92.5978 195.231 T
104.41 179.974 98.5037 179.974 98.5037 197.982 T
104.41 202.792 104.41 179.974 98.5037 197.982 T
110.316 179.974 104.41 179.974 104.41 202.792 T
110.316 205.197 110.316 179.974 104.41 202.792 T
116.221 179.974 110.316 179.974 110.316 205.197 T
116.221 206.565 116.221 179.974 110.316 205.197 T
122.127 179.974 116.221 179.974 116.221 206.565 T
122.127 208.051 122.127 179.974 116.221 206.565 T
128.033 179.974 122.127 179.974 122.127 208.051 T
128.033 205.531 128.033 179.974 122.127 208.051 T
133.939 179.974 128.033 179.974 128.033 205.531 T
133.939 206.415 133.939 179.974 128.033 205.531 T
139.845 179.974 133.939 179.974 133.939 206.415 T
139.845 204.917 139.845 179.974 133.939 206.415 T
145.751 179.974 139.845 179.974 139.845 204.917 T
145.751 202.667 145.751 179.974 139.845 204.917 T
151.657 179.974 145.751 179.974 145.751 202.667 T
151.657 201.708 151.657 179.974 145.751 202.667 T
157.563 179.974 151.657 179.974 151.657 201.708 T
157.563 200.542 157.563 179.974 151.657 201.708 T
163.469 179.974 157.563 179.974 157.563 200.542 T
163.469 198.966 163.469 179.974 157.563 200.542 T
169.375 179.974 163.469 179.974 163.469 198.966 T
169.375 198.55 169.375 179.974 163.469 198.966 T
175.281 179.974 169.375 179.974 169.375 198.55 T
175.281 197.282 175.281 179.974 169.375 198.55 T
181.187 179.974 175.281 179.974 175.281 197.282 T
181.187 196.296 181.187 179.974 175.281 197.282 T
187.093 179.974 181.187 179.974 181.187 196.296 T
187.093 195.337 187.093 179.974 181.187 196.296 T
0 0 0 C
187.093 195.337 LS
181.187 196.296 L
175.281 197.282 L
169.375 198.55 L
163.469 198.966 L
157.563 200.542 L
151.657 201.708 L
145.751 202.667 L
139.845 204.917 L
133.939 206.415 L
128.033 205.531 L
122.127 208.051 L
116.221 206.565 L
110.316 205.197 L
104.41 202.792 L
98.5037 197.982 L
92.5978 195.231 L
86.6918 190.939 L
80.7859 186.411 L
74.88 179.974 L
80.7859 179.974 L
86.6918 179.974 L
92.5978 179.974 L
98.5037 179.974 L
104.41 179.974 L
110.316 179.974 L
116.221 179.974 L
122.127 179.974 L
128.033 179.974 L
133.939 179.974 L
139.845 179.974 L
145.751 179.974 L
151.657 179.974 L
157.563 179.974 L
163.469 179.974 L
169.375 179.974 L
175.281 179.974 L
181.187 179.974 L
187.093 179.974 L
187.093 195.337 LE
3 W
1 LJ
74.88 187.047 LS
80.7859 197.822 L
86.6918 207.301 L
92.5978 215.983 L
98.5037 222.96 L
104.41 227.73 L
110.316 230.305 L
116.221 231.012 L
122.127 230.298 L
128.033 228.612 L
133.939 226.342 L
139.845 223.789 L
145.751 221.175 L
151.657 218.644 L
157.563 216.287 L
163.469 214.15 L
169.375 212.248 L
175.281 210.579 L
181.187 209.126 L
187.093 207.87 LE
grestore
gsave
1.0 1.0 scale
newpath 0 0 moveto 576 0 lineto 576 432 lineto 0 432 lineto
closepath clip
1 1 1 C
241.974 253.387 354.186 179.974 241.974 179.974 T
241.974 253.387 354.186 253.387 354.186 179.974 T
0.5 W
0.15 0.15 0.15 C
265.597 179.974 LS
265.597 181.102 LE
265.597 253.387 LS
265.597 252.258 LE
295.127 179.974 LS
295.127 181.102 LE
295.127 253.387 LS
295.127 252.258 LE
324.657 179.974 LS
324.657 181.102 LE
324.657 253.387 LS
324.657 252.258 LE
354.186 179.974 LS
354.186 181.102 LE
354.186 253.387 LS
354.186 252.258 LE
gsave
0.14902 0.14902 0.14902 C
(5) [10] 0 262.597 164.431 10 /Helvetica SRX
grestore

gsave
0.14902 0.14902 0.14902 C
(10) [6 10] 0 289.127 164.431 10 /Helvetica SRX
grestore

gsave
0.14902 0.14902 0.14902 C
(15) [6 10] 0 318.657 164.431 10 /Helvetica SRX
grestore

gsave
0.14902 0.14902 0.14902 C
(20) [6 10] 0 348.186 164.431 10 /Helvetica SRX
grestore

241.974 189.14 LS
243.098 189.14 LE
354.186 189.14 LS
353.062 189.14 LE
241.974 201.405 LS
243.098 201.405 LE
354.186 201.405 LS
353.062 201.405 LE
241.974 213.671 LS
243.098 213.671 LE
354.186 213.671 LS
353.062 213.671 LE
241.974 225.936 LS
243.098 225.936 LE
354.186 225.936 LS
353.062 225.936 LE
241.974 238.202 LS
243.098 238.202 LE
354.186 238.202 LS
353.062 238.202 LE
241.974 250.467 LS
243.098 250.467 LE
354.186 250.467 LS
353.062 250.467 LE
gsave
0.14902 0.14902 0.14902 C
(0.004) [6 3 6 6 10] 0 209.964 185.14 10 /Helvetica SRX
grestore

gsave
0.14902 0.14902 0.14902 C
(0.006) [6 3 6 6 10] 0 209.964 197.405 10 /Helvetica SRX
grestore

gsave
0.14902 0.14902 0.14902 C
(0.008) [6 3 6 6 10] 0 209.964 209.671 10 /Helvetica SRX
grestore

gsave
0.14902 0.14902 0.14902 C
(0.01) [6 3 6 10] 0 215.964 221.936 10 /Helvetica SRX
grestore

gsave
0.14902 0.14902 0.14902 C
(0.012) [6 3 6 6 10] 0 209.964 234.202 10 /Helvetica SRX
grestore

gsave
0.14902 0.14902 0.14902 C
(0.014) [6 3 6 6 10] 0 209.964 246.467 10 /Helvetica SRX
grestore

2 LC
[16 0] 0 setdash
241.974 179.974 LS
354.186 179.974 LE
241.974 253.387 LS
354.186 253.387 LE
241.974 179.974 LS
241.974 253.387 LE
354.186 179.974 LS
354.186 253.387 LE
gsave
0 0 0 C
(I_hat) [3 6 7 6 10] 0 285.08 265.387 11 /Helvetica-Bold SRX
grestore

0.9 0.9 0.9 C
241.974 179.974 241.974 250.113 247.88 179.974 T
247.88 252.432 247.88 179.974 241.974 250.113 T
253.786 179.974 247.88 179.974 247.88 252.432 T
253.786 253.387 253.786 179.974 247.88 252.432 T
259.691 179.974 253.786 179.974 253.786 253.387 T
259.691 250.312 259.691 179.974 253.786 253.387 T
265.597 179.974 259.691 179.974 259.691 250.312 T
265.597 248.239 265.597 179.974 259.691 250.312 T
271.503 179.974 265.597 179.974 265.597 248.239 T
271.503 246.92 271.503 179.974 265.597 248.239 T
277.409 179.974 271.503 179.974 271.503 246.92 T
277.409 242.638 277.409 179.974 271.503 246.92 T
283.315 179.974 277.409 179.974 277.409 242.638 T
283.315 239.02 283.315 179.974 277.409 242.638 T
289.221 179.974 283.315 179.974 283.315 239.02 T
289.221 233.879 289.221 179.974 283.315 239.02 T
295.127 179.974 289.221 179.974 289.221 233.879 T
295.127 230.485 295.127 179.974 289.221 233.879 T
301.033 179.974 295.127 179.974 295.127 230.485 T
301.033 224.789 301.033 179.974 295.127 230.485 T
306.939 179.974 301.033 179.974 301.033 224.789 T
306.939 220.347 306.939 179.974 301.033 224.789 T
312.845 179.974 306.939 179.974 306.939 220.347 T
312.845 216.196 312.845 179.974 306.939 220.347 T
318.751 179.974 312.845 179.974 312.845 216.196 T
318.751 211.841 318.751 179.974 312.845 216.196 T
324.657 179.974 318.751 179.974 318.751 211.841 T
324.657 207.832 324.657 179.974 318.751 211.841 T
330.563 179.974 324.657 179.974 324.657 207.832 T
330.563 204.144 330.563 179.974 324.657 207.832 T
336.469 179.974 330.563 179.974 330.563 204.144 T
336.469 201.141 336.469 179.974 330.563 204.144 T
342.374 179.974 336.469 179.974 336.469 201.141 T
342.374 198.265 342.374 179.974 336.469 201.141 T
348.28 179.974 342.374 179.974 342.374 198.265 T
348.28 196.145 348.28 179.974 342.374 198.265 T
354.186 179.974 348.28 179.974 348.28 196.145 T
354.186 194.458 354.186 179.974 348.28 196.145 T
0 LC
[] 0 setdash
0 0 0 C
354.186 194.458 LS
348.28 196.145 L
342.374 198.265 L
336.469 201.141 L
330.563 204.144 L
324.657 207.832 L
318.751 211.841 L
312.845 216.196 L
306.939 220.347 L
301.033 224.789 L
295.127 230.485 L
289.221 233.879 L
283.315 239.02 L
277.409 242.638 L
271.503 246.92 L
265.597 248.239 L
259.691 250.312 L
253.786 253.387 L
247.88 252.432 L
241.974 250.113 L
241.974 179.974 L
247.88 179.974 L
253.786 179.974 L
259.691 179.974 L
265.597 179.974 L
271.503 179.974 L
277.409 179.974 L
283.315 179.974 L
289.221 179.974 L
295.127 179.974 L
301.033 179.974 L
306.939 179.974 L
312.845 179.974 L
318.751 179.974 L
324.657 179.974 L
330.563 179.974 L
336.469 179.974 L
342.374 179.974 L
348.28 179.974 L
354.186 179.974 L
354.186 194.458 LE
1 1 1 C
241.974 179.974 241.974 205.536 247.88 179.974 T
247.88 206.642 247.88 179.974 241.974 205.536 T
253.786 179.974 247.88 179.974 247.88 206.642 T
253.786 207.192 253.786 179.974 247.88 206.642 T
259.691 179.974 253.786 179.974 253.786 207.192 T
259.691 205.286 259.691 179.974 253.786 207.192 T
265.597 179.974 259.691 179.974 259.691 205.286 T
265.597 205.927 265.597 179.974 259.691 205.286 T
271.503 179.974 265.597 179.974 265.597 205.927 T
271.503 206.402 271.503 179.974 265.597 205.927 T
277.409 179.974 271.503 179.974 271.503 206.402 T
277.409 204.4 277.409 179.974 271.503 206.402 T
283.315 179.974 277.409 179.974 277.409 204.4 T
283.315 203.563 283.315 179.974 277.409 204.4 T
289.221 179.974 283.315 179.974 283.315 203.563 T
289.221 200.068 289.221 179.974 283.315 203.563 T
295.127 179.974 289.221 179.974 289.221 200.068 T
295.127 198.506 295.127 179.974 289.221 200.068 T
301.033 179.974 295.127 179.974 295.127 198.506 T
301.033 194.978 301.033 179.974 295.127 198.506 T
306.939 179.974 301.033 179.974 301.033 194.978 T
306.939 192.609 306.939 179.974 301.033 194.978 T
312.845 179.974 306.939 179.974 306.939 192.609 T
312.845 190.547 312.845 179.974 306.939 192.609 T
318.751 179.974 312.845 179.974 312.845 190.547 T
318.751 188.308 318.751 179.974 312.845 190.547 T
324.657 179.974 318.751 179.974 318.751 188.308 T
324.657 186.403 324.657 179.974 318.751 188.308 T
330.563 179.974 324.657 179.974 324.657 186.403 T
330.563 184.469 330.563 179.974 324.657 186.403 T
336.469 179.974 330.563 179.974 330.563 184.469 T
336.469 182.94 336.469 179.974 330.563 184.469 T
342.374 179.974 336.469 179.974 336.469 182.94 T
342.374 181.476 342.374 179.974 336.469 182.94 T
348.28 179.974 342.374 179.974 342.374 181.476 T
348.28 180.664 348.28 179.974 342.374 181.476 T
354.186 179.974 348.28 179.974 348.28 180.664 T
0 0 0 C
354.186 179.974 LS
348.28 180.664 L
342.374 181.476 L
336.469 182.94 L
330.563 184.469 L
324.657 186.403 L
318.751 188.308 L
312.845 190.547 L
306.939 192.609 L
301.033 194.978 L
295.127 198.506 L
289.221 200.068 L
283.315 203.563 L
277.409 204.4 L
271.503 206.402 L
265.597 205.927 L
259.691 205.286 L
253.786 207.192 L
247.88 206.642 L
241.974 205.536 L
241.974 179.974 L
247.88 179.974 L
253.786 179.974 L
259.691 179.974 L
265.597 179.974 L
271.503 179.974 L
277.409 179.974 L
283.315 179.974 L
289.221 179.974 L
295.127 179.974 L
301.033 179.974 L
306.939 179.974 L
312.845 179.974 L
318.751 179.974 L
324.657 179.974 L
330.563 179.974 L
336.469 179.974 L
342.374 179.974 L
348.28 179.974 L
354.186 179.974 LE
3 W
1 LJ
241.974 228.248 LS
247.88 230.046 L
253.786 230.928 L
259.691 230.745 L
265.597 229.446 L
271.503 227.165 L
277.409 224.136 L
283.315 220.615 L
289.221 216.833 L
295.127 212.981 L
301.033 209.203 L
306.939 205.598 L
312.845 202.232 L
318.751 199.139 L
324.657 196.332 L
330.563 193.811 L
336.469 191.564 L
342.374 189.572 L
348.28 187.815 L
354.186 186.27 LE
grestore
gsave
1.0 1.0 scale
newpath 0 0 moveto 576 0 lineto 576 432 lineto 0 432 lineto
closepath clip
1 1 1 C
409.067 253.387 521.28 179.974 409.067 179.974 T
409.067 253.387 521.28 253.387 521.28 179.974 T
0.5 W
0.15 0.15 0.15 C
432.691 179.974 LS
432.691 181.102 LE
432.691 253.387 LS
432.691 252.258 LE
462.221 179.974 LS
462.221 181.102 LE
462.221 253.387 LS
462.221 252.258 LE
491.75 179.974 LS
491.75 181.102 LE
491.75 253.387 LS
491.75 252.258 LE
521.28 179.974 LS
521.28 181.102 LE
521.28 253.387 LS
521.28 252.258 LE
gsave
0.14902 0.14902 0.14902 C
(5) [10] 0 429.691 164.431 10 /Helvetica SRX
grestore

gsave
0.14902 0.14902 0.14902 C
(10) [6 10] 0 456.221 164.431 10 /Helvetica SRX
grestore

gsave
0.14902 0.14902 0.14902 C
(15) [6 10] 0 485.75 164.431 10 /Helvetica SRX
grestore

gsave
0.14902 0.14902 0.14902 C
(20) [6 10] 0 515.28 164.431 10 /Helvetica SRX
grestore

409.067 188.197 LS
410.192 188.197 LE
521.28 188.197 LS
520.156 188.197 LE
409.067 200.829 LS
410.192 200.829 LE
521.28 200.829 LS
520.156 200.829 LE
409.067 213.461 LS
410.192 213.461 LE
521.28 213.461 LS
520.156 213.461 LE
409.067 226.093 LS
410.192 226.093 LE
521.28 226.093 LS
520.156 226.093 LE
409.067 238.724 LS
410.192 238.724 LE
521.28 238.724 LS
520.156 238.724 LE
409.067 251.356 LS
410.192 251.356 LE
521.28 251.356 LS
520.156 251.356 LE
gsave
0.14902 0.14902 0.14902 C
(0.001) [6 3 6 6 10] 0 377.058 184.197 10 /Helvetica SRX
grestore

gsave
0.14902 0.14902 0.14902 C
(0.002) [6 3 6 6 10] 0 377.058 196.829 10 /Helvetica SRX
grestore

gsave
0.14902 0.14902 0.14902 C
(0.003) [6 3 6 6 10] 0 377.058 209.461 10 /Helvetica SRX
grestore

gsave
0.14902 0.14902 0.14902 C
(0.004) [6 3 6 6 10] 0 377.058 222.093 10 /Helvetica SRX
grestore

gsave
0.14902 0.14902 0.14902 C
(0.005) [6 3 6 6 10] 0 377.058 234.724 10 /Helvetica SRX
grestore

gsave
0.14902 0.14902 0.14902 C
(0.006) [6 3 6 6 10] 0 377.058 247.356 10 /Helvetica SRX
grestore

2 LC
[16 0] 0 setdash
409.067 179.974 LS
521.28 179.974 LE
409.067 253.387 LS
521.28 253.387 LE
409.067 179.974 LS
409.067 253.387 LE
521.28 179.974 LS
521.28 253.387 LE
gsave
0 0 0 C
(L_hat) [7 6 7 6 10] 0 450.174 265.387 11 /Helvetica-Bold SRX
grestore

0.9 0.9 0.9 C
409.067 179.974 409.067 187.202 414.973 179.974 T
414.973 202.533 414.973 179.974 409.067 187.202 T
420.879 179.974 414.973 179.974 414.973 202.533 T
420.879 221.049 420.879 179.974 414.973 202.533 T
426.785 179.974 420.879 179.974 420.879 221.049 T
426.785 236.68 426.785 179.974 420.879 221.049 T
432.691 179.974 426.785 179.974 426.785 236.68 T
432.691 247.216 432.691 179.974 426.785 236.68 T
438.597 179.974 432.691 179.974 432.691 247.216 T
438.597 253.027 438.597 179.974 432.691 247.216 T
444.503 179.974 438.597 179.974 438.597 253.027 T
444.503 253.387 444.503 179.974 438.597 253.027 T
450.409 179.974 444.503 179.974 444.503 253.387 T
450.409 251.304 450.409 179.974 444.503 253.387 T
456.315 179.974 450.409 179.974 450.409 251.304 T
456.315 247.038 456.315 179.974 450.409 251.304 T
462.221 179.974 456.315 179.974 456.315 247.038 T
462.221 240.71 462.221 179.974 456.315 247.038 T
468.127 179.974 462.221 179.974 462.221 240.71 T
468.127 236.239 468.127 179.974 462.221 240.71 T
474.033 179.974 468.127 179.974 468.127 236.239 T
474.033 231.267 474.033 179.974 468.127 236.239 T
479.939 179.974 474.033 179.974 474.033 231.267 T
479.939 226.11 479.939 179.974 474.033 231.267 T
485.844 179.974 479.939 179.974 479.939 226.11 T
485.844 221.053 485.844 179.974 479.939 226.11 T
491.75 179.974 485.844 179.974 485.844 221.053 T
491.75 217.411 491.75 179.974 485.844 221.053 T
497.656 179.974 491.75 179.974 491.75 217.411 T
497.656 213.939 497.656 179.974 491.75 217.411 T
503.562 179.974 497.656 179.974 497.656 213.939 T
503.562 211.123 503.562 179.974 497.656 213.939 T
509.468 179.974 503.562 179.974 503.562 211.123 T
509.468 208.076 509.468 179.974 503.562 211.123 T
515.374 179.974 509.468 179.974 509.468 208.076 T
515.374 206.101 515.374 179.974 509.468 208.076 T
521.28 179.974 515.374 179.974 515.374 206.101 T
521.28 204.337 521.28 179.974 515.374 206.101 T
0 LC
[] 0 setdash
0 0 0 C
521.28 204.337 LS
515.374 206.101 L
509.468 208.076 L
503.562 211.123 L
497.656 213.939 L
491.75 217.411 L
485.844 221.053 L
479.939 226.11 L
474.033 231.267 L
468.127 236.239 L
462.221 240.71 L
456.315 247.038 L
450.409 251.304 L
444.503 253.387 L
438.597 253.027 L
432.691 247.216 L
426.785 236.68 L
420.879 221.049 L
414.973 202.533 L
409.067 187.202 L
409.067 179.974 L
414.973 179.974 L
420.879 179.974 L
426.785 179.974 L
432.691 179.974 L
438.597 179.974 L
444.503 179.974 L
450.409 179.974 L
456.315 179.974 L
462.221 179.974 L
468.127 179.974 L
474.033 179.974 L
479.939 179.974 L
485.844 179.974 L
491.75 179.974 L
497.656 179.974 L
503.562 179.974 L
509.468 179.974 L
515.374 179.974 L
521.28 179.974 L
521.28 204.337 LE
1 1 1 C
409.067 179.974 414.973 186.895 414.973 179.974 T
420.879 179.974 414.973 179.974 414.973 186.895 T
420.879 191.869 420.879 179.974 414.973 186.895 T
426.785 179.974 420.879 179.974 420.879 191.869 T
426.785 196.831 426.785 179.974 420.879 191.869 T
432.691 179.974 426.785 179.974 426.785 196.831 T
432.691 201.551 432.691 179.974 426.785 196.831 T
438.597 179.974 432.691 179.974 432.691 201.551 T
438.597 205.566 438.597 179.974 432.691 201.551 T
444.503 179.974 438.597 179.974 438.597 205.566 T
444.503 207.846 444.503 179.974 438.597 205.566 T
450.409 179.974 444.503 179.974 444.503 207.846 T
450.409 208.942 450.409 179.974 444.503 207.846 T
456.315 179.974 450.409 179.974 450.409 208.942 T
456.315 208.944 456.315 179.974 450.409 208.942 T
462.221 179.974 456.315 179.974 456.315 208.944 T
462.221 206.474 462.221 179.974 456.315 208.944 T
468.127 179.974 462.221 179.974 462.221 206.474 T
468.127 205.794 468.127 179.974 462.221 206.474 T
474.033 179.974 468.127 179.974 468.127 205.794 T
474.033 204.326 474.033 179.974 468.127 205.794 T
479.939 179.974 474.033 179.974 474.033 204.326 T
479.939 202.032 479.939 179.974 474.033 204.326 T
485.844 179.974 479.939 179.974 479.939 202.032 T
485.844 199.514 485.844 179.974 479.939 202.032 T
491.75 179.974 485.844 179.974 485.844 199.514 T
491.75 198.002 491.75 179.974 485.844 199.514 T
497.656 179.974 491.75 179.974 491.75 198.002 T
497.656 196.071 497.656 179.974 491.75 198.002 T
503.562 179.974 497.656 179.974 497.656 196.071 T
503.562 194.677 503.562 179.974 497.656 196.071 T
509.468 179.974 503.562 179.974 503.562 194.677 T
509.468 192.718 509.468 179.974 503.562 194.677 T
515.374 179.974 509.468 179.974 509.468 192.718 T
515.374 191.759 515.374 179.974 509.468 192.718 T
521.28 179.974 515.374 179.974 515.374 191.759 T
521.28 190.841 521.28 179.974 515.374 191.759 T
0 0 0 C
521.28 190.841 LS
515.374 191.759 L
509.468 192.718 L
503.562 194.677 L
497.656 196.071 L
491.75 198.002 L
485.844 199.514 L
479.939 202.032 L
474.033 204.326 L
468.127 205.794 L
462.221 206.474 L
456.315 208.944 L
450.409 208.942 L
444.503 207.846 L
438.597 205.566 L
432.691 201.551 L
426.785 196.831 L
420.879 191.869 L
414.973 186.895 L
409.067 179.974 L
414.973 179.974 L
420.879 179.974 L
426.785 179.974 L
432.691 179.974 L
438.597 179.974 L
444.503 179.974 L
450.409 179.974 L
456.315 179.974 L
462.221 179.974 L
468.127 179.974 L
474.033 179.974 L
479.939 179.974 L
485.844 179.974 L
491.75 179.974 L
497.656 179.974 L
503.562 179.974 L
509.468 179.974 L
515.374 179.974 L
521.28 179.974 L
521.28 190.841 LE
3 W
1 LJ
409.067 184.042 LS
414.973 195.137 L
420.879 207.287 L
426.785 218.054 L
432.691 225.806 L
438.597 230.198 L
444.503 231.627 L
450.409 230.787 L
456.315 228.4 L
462.221 225.095 L
468.127 221.361 L
474.033 217.547 L
479.939 213.885 L
485.844 210.512 L
491.75 207.496 L
497.656 204.858 L
503.562 202.589 L
509.468 200.663 L
515.374 199.042 L
521.28 197.687 LE
grestore
gsave
1.0 1.0 scale
newpath 0 0 moveto 576 0 lineto 576 432 lineto 0 432 lineto
closepath clip
1 1 1 C
74.88 120.933 187.093 47.52 74.88 47.52 T
74.88 120.933 187.093 120.933 187.093 47.52 T
0.5 W
0.15 0.15 0.15 C
98.5037 47.52 LS
98.5037 48.6485 LE
98.5037 120.933 LS
98.5037 119.805 LE
128.033 47.52 LS
128.033 48.6485 LE
128.033 120.933 LS
128.033 119.805 LE
157.563 47.52 LS
157.563 48.6485 LE
157.563 120.933 LS
157.563 119.805 LE
187.093 47.52 LS
187.093 48.6485 LE
187.093 120.933 LS
187.093 119.805 LE
gsave
0.14902 0.14902 0.14902 C
(5) [10] 0 95.5037 31.9776 10 /Helvetica SRX
grestore

gsave
0.14902 0.14902 0.14902 C
(10) [6 10] 0 122.033 31.9776 10 /Helvetica SRX
grestore

gsave
0.14902 0.14902 0.14902 C
(15) [6 10] 0 151.563 31.9776 10 /Helvetica SRX
grestore

gsave
0.14902 0.14902 0.14902 C
(20) [6 10] 0 181.093 31.9776 10 /Helvetica SRX
grestore

74.88 51.7779 LS
76.0043 51.7779 LE
187.093 51.7779 LS
185.968 51.7779 LE
74.88 64.1465 LS
76.0043 64.1465 LE
187.093 64.1465 LS
185.968 64.1465 LE
74.88 76.5151 LS
76.0043 76.5151 LE
187.093 76.5151 LS
185.968 76.5151 LE
74.88 88.8837 LS
76.0043 88.8837 LE
187.093 88.8837 LS
185.968 88.8837 LE
74.88 101.252 LS
76.0043 101.252 LE
187.093 101.252 LS
185.968 101.252 LE
74.88 113.621 LS
76.0043 113.621 LE
187.093 113.621 LS
185.968 113.621 LE
gsave
0.14902 0.14902 0.14902 C
(-0.003) [3 6 3 6 6 10] 0 39.8705 47.7779 10 /Helvetica SRX
grestore

gsave
0.14902 0.14902 0.14902 C
(-0.002) [3 6 3 6 6 10] 0 39.8705 60.1465 10 /Helvetica SRX
grestore

gsave
0.14902 0.14902 0.14902 C
(-0.001) [3 6 3 6 6 10] 0 39.8705 72.5151 10 /Helvetica SRX
grestore

gsave
0.14902 0.14902 0.14902 C
(0) [10] 0 63.8705 84.8837 10 /Helvetica SRX
grestore

gsave
0.14902 0.14902 0.14902 C
(0.001) [6 3 6 6 10] 0 42.8705 97.2523 10 /Helvetica SRX
grestore

gsave
0.14902 0.14902 0.14902 C
(0.002) [6 3 6 6 10] 0 42.8705 109.621 10 /Helvetica SRX
grestore

2 LC
[16 0] 0 setdash
74.88 47.52 LS
187.093 47.52 LE
74.88 120.933 LS
187.093 120.933 LE
74.88 47.52 LS
74.88 120.933 LE
187.093 47.52 LS
187.093 120.933 LE
gsave
0 0 0 C
(tb_y_hat) [4 7 6 6 6 7 6 10] 0 107.986 133.933 11 /Helvetica-Bold SRX
grestore

0.9 0.9 0.9 C
74.88 47.52 74.88 68.5757 80.7859 47.52 T
80.7859 69.7521 80.7859 47.52 74.88 68.5757 T
86.6918 47.52 80.7859 47.52 80.7859 69.7521 T
86.6918 98.0612 86.6918 47.52 80.7859 69.7521 T
92.5978 47.52 86.6918 47.52 86.6918 98.0612 T
92.5978 116.074 92.5978 47.52 86.6918 98.0612 T
98.5037 47.52 92.5978 47.52 92.5978 116.074 T
98.5037 120.933 98.5037 47.52 92.5978 116.074 T
104.41 47.52 98.5037 47.52 98.5037 120.933 T
104.41 117.894 104.41 47.52 98.5037 120.933 T
110.316 47.52 104.41 47.52 104.41 117.894 T
110.316 112.69 110.316 47.52 104.41 117.894 T
116.221 47.52 110.316 47.52 110.316 112.69 T
116.221 107.09 116.221 47.52 110.316 112.69 T
122.127 47.52 116.221 47.52 116.221 107.09 T
122.127 101.301 122.127 47.52 116.221 107.09 T
128.033 47.52 122.127 47.52 122.127 101.301 T
128.033 96.7439 128.033 47.52 122.127 101.301 T
133.939 47.52 128.033 47.52 128.033 96.7439 T
133.939 93.5163 133.939 47.52 128.033 96.7439 T
139.845 47.52 133.939 47.52 133.939 93.5163 T
139.845 90.8987 139.845 47.52 133.939 93.5163 T
145.751 47.52 139.845 47.52 139.845 90.8987 T
145.751 89.1361 145.751 47.52 139.845 90.8987 T
151.657 47.52 145.751 47.52 145.751 89.1361 T
151.657 87.8471 151.657 47.52 145.751 89.1361 T
157.563 47.52 151.657 47.52 151.657 87.8471 T
157.563 87.038 157.563 47.52 151.657 87.8471 T
163.469 47.52 157.563 47.52 157.563 87.038 T
163.469 86.6165 163.469 47.52 157.563 87.038 T
169.375 47.52 163.469 47.52 163.469 86.6165 T
169.375 86.2233 169.375 47.52 163.469 86.6165 T
175.281 47.52 169.375 47.52 169.375 86.2233 T
175.281 86.4476 175.281 47.52 169.375 86.2233 T
181.187 47.52 175.281 47.52 175.281 86.4476 T
181.187 86.4561 181.187 47.52 175.281 86.4476 T
187.093 47.52 181.187 47.52 181.187 86.4561 T
187.093 86.3628 187.093 47.52 181.187 86.4561 T
0 LC
[] 0 setdash
0 0 0 C
187.093 86.3628 LS
181.187 86.4561 L
175.281 86.4476 L
169.375 86.2233 L
163.469 86.6165 L
157.563 87.038 L
151.657 87.8471 L
145.751 89.1361 L
139.845 90.8987 L
133.939 93.5163 L
128.033 96.7439 L
122.127 101.301 L
116.221 107.09 L
110.316 112.69 L
104.41 117.894 L
98.5037 120.933 L
92.5978 116.074 L
86.6918 98.0612 L
80.7859 69.7521 L
74.88 68.5757 L
74.88 47.52 L
80.7859 47.52 L
86.6918 47.52 L
92.5978 47.52 L
98.5037 47.52 L
104.41 47.52 L
110.316 47.52 L
116.221 47.52 L
122.127 47.52 L
128.033 47.52 L
133.939 47.52 L
139.845 47.52 L
145.751 47.52 L
151.657 47.52 L
157.563 47.52 L
163.469 47.52 L
169.375 47.52 L
175.281 47.52 L
181.187 47.52 L
187.093 47.52 L
187.093 86.3628 LE
1 1 1 C
74.88 47.52 80.7859 48.6758 80.7859 47.52 T
86.6918 47.52 80.7859 47.52 80.7859 48.6758 T
86.6918 88.1165 86.6918 47.52 80.7859 48.6758 T
92.5978 47.52 86.6918 47.52 86.6918 88.1165 T
92.5978 100.834 92.5978 47.52 86.6918 88.1165 T
98.5037 47.52 92.5978 47.52 92.5978 100.834 T
98.5037 104.545 98.5037 47.52 92.5978 100.834 T
104.41 47.52 98.5037 47.52 98.5037 104.545 T
104.41 103.081 104.41 47.52 98.5037 104.545 T
110.316 47.52 104.41 47.52 104.41 103.081 T
110.316 100.633 110.316 47.52 104.41 103.081 T
116.221 47.52 110.316 47.52 110.316 100.633 T
116.221 97.6483 116.221 47.52 110.316 100.633 T
122.127 47.52 116.221 47.52 116.221 97.6483 T
122.127 93.8873 122.127 47.52 116.221 97.6483 T
128.033 47.52 122.127 47.52 122.127 93.8873 T
128.033 90.8686 128.033 47.52 122.127 93.8873 T
133.939 47.52 128.033 47.52 128.033 90.8686 T
133.939 88.334 133.939 47.52 128.033 90.8686 T
139.845 47.52 133.939 47.52 133.939 88.334 T
139.845 85.9981 139.845 47.52 133.939 88.334 T
145.751 47.52 139.845 47.52 139.845 85.9981 T
145.751 84.3168 145.751 47.52 139.845 85.9981 T
151.657 47.52 145.751 47.52 145.751 84.3168 T
151.657 83.0475 151.657 47.52 145.751 84.3168 T
157.563 47.52 151.657 47.52 151.657 83.0475 T
157.563 82.314 157.563 47.52 151.657 83.0475 T
163.469 47.52 157.563 47.52 157.563 82.314 T
163.469 82.0353 163.469 47.52 157.563 82.314 T
169.375 47.52 163.469 47.52 163.469 82.0353 T
169.375 81.8148 169.375 47.52 163.469 82.0353 T
175.281 47.52 169.375 47.52 169.375 81.8148 T
175.281 82.2645 175.281 47.52 169.375 81.8148 T
181.187 47.52 175.281 47.52 175.281 82.2645 T
181.187 82.5164 181.187 47.52 175.281 82.2645 T
187.093 47.52 181.187 47.52 181.187 82.5164 T
187.093 82.6826 187.093 47.52 181.187 82.5164 T
0 0 0 C
187.093 82.6826 LS
181.187 82.5164 L
175.281 82.2645 L
169.375 81.8148 L
163.469 82.0353 L
157.563 82.314 L
151.657 83.0475 L
145.751 84.3168 L
139.845 85.9981 L
133.939 88.334 L
128.033 90.8686 L
122.127 93.8873 L
116.221 97.6483 L
110.316 100.633 L
104.41 103.081 L
98.5037 104.545 L
92.5978 100.834 L
86.6918 88.1165 L
80.7859 48.6758 L
74.88 47.52 L
80.7859 47.52 L
86.6918 47.52 L
92.5978 47.52 L
98.5037 47.52 L
104.41 47.52 L
110.316 47.52 L
116.221 47.52 L
122.127 47.52 L
128.033 47.52 L
133.939 47.52 L
139.845 47.52 L
145.751 47.52 L
151.657 47.52 L
157.563 47.52 L
163.469 47.52 L
169.375 47.52 L
175.281 47.52 L
181.187 47.52 L
187.093 47.52 L
187.093 82.6826 LE
3 W
1 LJ
74.88 57.5941 LS
80.7859 57.6927 L
86.6918 93.2898 L
92.5978 108.602 L
98.5037 112.725 L
104.41 111.154 L
110.316 107.099 L
116.221 102.345 L
122.127 97.817 L
128.033 93.9289 L
133.939 90.8113 L
139.845 88.444 L
145.751 86.7369 L
151.657 85.5753 L
157.563 84.8444 L
163.469 84.4407 L
169.375 84.277 L
175.281 84.283 L
181.187 84.4035 L
187.093 84.5969 LE
grestore
gsave
1.0 1.0 scale
newpath 0 0 moveto 576 0 lineto 576 432 lineto 0 432 lineto
closepath clip
1 1 1 C
241.974 120.933 354.186 47.52 241.974 47.52 T
241.974 120.933 354.186 120.933 354.186 47.52 T
0.5 W
0.15 0.15 0.15 C
265.597 47.52 LS
265.597 48.6485 LE
265.597 120.933 LS
265.597 119.805 LE
295.127 47.52 LS
295.127 48.6485 LE
295.127 120.933 LS
295.127 119.805 LE
324.657 47.52 LS
324.657 48.6485 LE
324.657 120.933 LS
324.657 119.805 LE
354.186 47.52 LS
354.186 48.6485 LE
354.186 120.933 LS
354.186 119.805 LE
gsave
0.14902 0.14902 0.14902 C
(5) [10] 0 262.597 31.9776 10 /Helvetica SRX
grestore

gsave
0.14902 0.14902 0.14902 C
(10) [6 10] 0 289.127 31.9776 10 /Helvetica SRX
grestore

gsave
0.14902 0.14902 0.14902 C
(15) [6 10] 0 318.657 31.9776 10 /Helvetica SRX
grestore

gsave
0.14902 0.14902 0.14902 C
(20) [6 10] 0 348.186 31.9776 10 /Helvetica SRX
grestore

241.974 51.5095 LS
243.098 51.5095 LE
354.186 51.5095 LS
353.062 51.5095 LE
241.974 69.5443 LS
243.098 69.5443 LE
354.186 69.5443 LS
353.062 69.5443 LE
241.974 87.5791 LS
243.098 87.5791 LE
354.186 87.5791 LS
353.062 87.5791 LE
241.974 105.614 LS
243.098 105.614 LE
354.186 105.614 LS
353.062 105.614 LE
gsave
0.14902 0.14902 0.14902 C
(-0.02) [3 6 3 6 10] 0 212.964 47.5096 10 /Helvetica SRX
grestore

gsave
0.14902 0.14902 0.14902 C
(-0.01) [3 6 3 6 10] 0 212.964 65.5443 10 /Helvetica SRX
grestore

gsave
0.14902 0.14902 0.14902 C
(0) [10] 0 230.964 83.5791 10 /Helvetica SRX
grestore

gsave
0.14902 0.14902 0.14902 C
(0.01) [6 3 6 10] 0 215.964 101.614 10 /Helvetica SRX
grestore

2 LC
[16 0] 0 setdash
241.974 47.52 LS
354.186 47.52 LE
241.974 120.933 LS
354.186 120.933 LE
241.974 47.52 LS
241.974 120.933 LE
354.186 47.52 LS
354.186 120.933 LE
gsave
0 0 0 C
(D_hat) [8 6 7 6 10] 0 282.58 132.933 11 /Helvetica-Bold SRX
grestore

0.9 0.9 0.9 C
241.974 47.52 241.974 104.3 247.88 47.52 T
247.88 120.933 247.88 47.52 241.974 104.3 T
253.786 47.52 247.88 47.52 247.88 120.933 T
253.786 119.749 253.786 47.52 247.88 120.933 T
259.691 47.52 253.786 47.52 253.786 119.749 T
259.691 112.164 259.691 47.52 253.786 119.749 T
265.597 47.52 259.691 47.52 259.691 112.164 T
265.597 102.634 265.597 47.52 259.691 112.164 T
271.503 47.52 265.597 47.52 265.597 102.634 T
271.503 93.385 271.503 47.52 265.597 102.634 T
277.409 47.52 271.503 47.52 271.503 93.385 T
277.409 87.2971 277.409 47.52 271.503 93.385 T
283.315 47.52 277.409 47.52 277.409 87.2971 T
283.315 80.1209 283.315 47.52 277.409 87.2971 T
289.221 47.52 283.315 47.52 283.315 80.1209 T
289.221 80.5981 289.221 47.52 283.315 80.1209 T
295.127 47.52 289.221 47.52 289.221 80.5981 T
295.127 77.3396 295.127 47.52 289.221 80.5981 T
301.033 47.52 295.127 47.52 295.127 77.3396 T
301.033 74.4559 301.033 47.52 295.127 77.3396 T
306.939 47.52 301.033 47.52 301.033 74.4559 T
306.939 74.2436 306.939 47.52 301.033 74.4559 T
312.845 47.52 306.939 47.52 306.939 74.2436 T
312.845 73.9194 312.845 47.52 306.939 74.2436 T
318.751 47.52 312.845 47.52 312.845 73.9194 T
318.751 73.7314 318.751 47.52 312.845 73.9194 T
324.657 47.52 318.751 47.52 318.751 73.7314 T
324.657 74.0641 324.657 47.52 318.751 73.7314 T
330.563 47.52 324.657 47.52 324.657 74.0641 T
330.563 74.5965 330.563 47.52 324.657 74.0641 T
336.469 47.52 330.563 47.52 330.563 74.5965 T
336.469 75.2599 336.469 47.52 330.563 74.5965 T
342.374 47.52 336.469 47.52 336.469 75.2599 T
342.374 76.3311 342.374 47.52 336.469 75.2599 T
348.28 47.52 342.374 47.52 342.374 76.3311 T
348.28 77.058 348.28 47.52 342.374 76.3311 T
354.186 47.52 348.28 47.52 348.28 77.058 T
354.186 77.9816 354.186 47.52 348.28 77.058 T
0 LC
[] 0 setdash
0 0 0 C
354.186 77.9816 LS
348.28 77.058 L
342.374 76.3311 L
336.469 75.2599 L
330.563 74.5965 L
324.657 74.0641 L
318.751 73.7314 L
312.845 73.9194 L
306.939 74.2436 L
301.033 74.4559 L
295.127 77.3396 L
289.221 80.5981 L
283.315 80.1209 L
277.409 87.2971 L
271.503 93.385 L
265.597 102.634 L
259.691 112.164 L
253.786 119.749 L
247.88 120.933 L
241.974 104.3 L
241.974 47.52 L
247.88 47.52 L
253.786 47.52 L
259.691 47.52 L
265.597 47.52 L
271.503 47.52 L
277.409 47.52 L
283.315 47.52 L
289.221 47.52 L
295.127 47.52 L
301.033 47.52 L
306.939 47.52 L
312.845 47.52 L
318.751 47.52 L
324.657 47.52 L
330.563 47.52 L
336.469 47.52 L
342.374 47.52 L
348.28 47.52 L
354.186 47.52 L
354.186 77.9816 LE
1 1 1 C
312.845 47.52 318.751 47.8357 318.751 47.52 T
324.657 47.52 318.751 47.52 318.751 47.8357 T
324.657 48.6112 324.657 47.52 318.751 47.8357 T
330.563 47.52 324.657 47.52 324.657 48.6112 T
330.563 49.6916 330.563 47.52 324.657 48.6112 T
336.469 47.52 330.563 47.52 330.563 49.6916 T
336.469 51.1003 336.469 47.52 330.563 49.6916 T
342.374 47.52 336.469 47.52 336.469 51.1003 T
342.374 53.0647 342.374 47.52 336.469 51.1003 T
348.28 47.52 342.374 47.52 342.374 53.0647 T
348.28 54.7006 348.28 47.52 342.374 53.0647 T
354.186 47.52 348.28 47.52 348.28 54.7006 T
354.186 56.2401 354.186 47.52 348.28 54.7006 T
241.974 47.52 241.974 95.8817 247.88 47.52 T
247.88 104.08 247.88 47.52 241.974 95.8817 T
253.786 47.52 247.88 47.52 247.88 104.08 T
253.786 101.985 253.786 47.52 247.88 104.08 T
259.691 47.52 253.786 47.52 253.786 101.985 T
259.691 95.9614 259.691 47.52 253.786 101.985 T
265.597 47.52 259.691 47.52 259.691 95.9614 T
265.597 86.4338 265.597 47.52 259.691 95.9614 T
271.503 47.52 265.597 47.52 265.597 86.4338 T
271.503 74.6092 271.503 47.52 265.597 86.4338 T
277.409 47.52 271.503 47.52 271.503 74.6092 T
277.409 65.4168 277.409 47.52 271.503 74.6092 T
283.315 47.52 277.409 47.52 277.409 65.4168 T
283.315 55.8243 283.315 47.52 277.409 65.4168 T
289.221 47.52 283.315 47.52 283.315 55.8243 T
289.221 54.6855 289.221 47.52 283.315 55.8243 T
295.127 47.52 289.221 47.52 289.221 54.6855 T
295.127 51.095 295.127 47.52 289.221 54.6855 T
301.033 47.52 295.127 47.52 295.127 51.095 T
301.033 47.9094 301.033 47.52 295.127 51.095 T
306.939 47.52 301.033 47.52 301.033 47.9094 T
306.939 47.7066 306.939 47.52 301.033 47.9094 T
312.845 47.52 306.939 47.52 306.939 47.7066 T
0 0 0 C
312.845 47.52 LS
306.939 47.7066 L
301.033 47.9094 L
295.127 51.095 L
289.221 54.6855 L
283.315 55.8243 L
277.409 65.4168 L
271.503 74.6092 L
265.597 86.4338 L
259.691 95.9614 L
253.786 101.985 L
247.88 104.08 L
241.974 95.8817 L
241.974 47.52 L
247.88 47.52 L
253.786 47.52 L
259.691 47.52 L
265.597 47.52 L
271.503 47.52 L
277.409 47.52 L
283.315 47.52 L
289.221 47.52 L
295.127 47.52 L
301.033 47.52 L
306.939 47.52 L
312.845 47.52 LE
354.186 56.2401 LS
348.28 54.7006 L
342.374 53.0647 L
336.469 51.1003 L
330.563 49.6916 L
324.657 48.6112 L
318.751 47.8357 L
312.845 47.52 L
318.751 47.52 L
324.657 47.52 L
330.563 47.52 L
336.469 47.52 L
342.374 47.52 L
348.28 47.52 L
354.186 47.52 L
354.186 56.2401 LE
3 W
1 LJ
241.974 100.022 LS
247.88 112.579 L
253.786 111.009 L
259.691 103.194 L
265.597 93.5155 L
271.503 84.2368 L
277.409 76.3802 L
283.315 70.2696 L
289.221 65.8621 L
295.127 62.9436 L
301.033 61.2406 L
306.939 60.4794 L
312.845 60.4151 L
318.751 60.8426 L
324.657 61.5975 L
330.563 62.5535 L
336.469 63.6161 L
342.374 64.7172 L
348.28 65.8095 L
354.186 66.8614 LE
grestore
gsave
1.0 1.0 scale
newpath 0 0 moveto 576 0 lineto 576 432 lineto 0 432 lineto
closepath clip
1 1 1 C
409.067 120.933 521.28 47.52 409.067 47.52 T
409.067 120.933 521.28 120.933 521.28 47.52 T
0.5 W
0.15 0.15 0.15 C
432.691 47.52 LS
432.691 48.6485 LE
432.691 120.933 LS
432.691 119.805 LE
462.221 47.52 LS
462.221 48.6485 LE
462.221 120.933 LS
462.221 119.805 LE
491.75 47.52 LS
491.75 48.6485 LE
491.75 120.933 LS
491.75 119.805 LE
521.28 47.52 LS
521.28 48.6485 LE
521.28 120.933 LS
521.28 119.805 LE
gsave
0.14902 0.14902 0.14902 C
(5) [10] 0 429.691 31.9776 10 /Helvetica SRX
grestore

gsave
0.14902 0.14902 0.14902 C
(10) [6 10] 0 456.221 31.9776 10 /Helvetica SRX
grestore

gsave
0.14902 0.14902 0.14902 C
(15) [6 10] 0 485.75 31.9776 10 /Helvetica SRX
grestore

gsave
0.14902 0.14902 0.14902 C
(20) [6 10] 0 515.28 31.9776 10 /Helvetica SRX
grestore

409.067 51.4197 LS
410.192 51.4197 LE
521.28 51.4197 LS
520.156 51.4197 LE
409.067 63.491 LS
410.192 63.491 LE
521.28 63.491 LS
520.156 63.491 LE
409.067 75.5622 LS
410.192 75.5622 LE
521.28 75.5622 LS
520.156 75.5622 LE
409.067 87.6335 LS
410.192 87.6335 LE
521.28 87.6335 LS
520.156 87.6335 LE
409.067 99.7047 LS
410.192 99.7047 LE
521.28 99.7047 LS
520.156 99.7047 LE
409.067 111.776 LS
410.192 111.776 LE
521.28 111.776 LS
520.156 111.776 LE
gsave
0.14902 0.14902 0.14902 C
(0.0005) [6 3 6 6 6 10] 0 371.058 47.4197 10 /Helvetica SRX
grestore

gsave
0.14902 0.14902 0.14902 C
(0.001) [6 3 6 6 10] 0 377.058 59.491 10 /Helvetica SRX
grestore

gsave
0.14902 0.14902 0.14902 C
(0.0015) [6 3 6 6 6 10] 0 371.058 71.5622 10 /Helvetica SRX
grestore

gsave
0.14902 0.14902 0.14902 C
(0.002) [6 3 6 6 10] 0 377.058 83.6335 10 /Helvetica SRX
grestore

gsave
0.14902 0.14902 0.14902 C
(0.0025) [6 3 6 6 6 10] 0 371.058 95.7047 10 /Helvetica SRX
grestore

gsave
0.14902 0.14902 0.14902 C
(0.003) [6 3 6 6 10] 0 377.058 107.776 10 /Helvetica SRX
grestore

2 LC
[16 0] 0 setdash
409.067 47.52 LS
521.28 47.52 LE
409.067 120.933 LS
521.28 120.933 LE
409.067 47.52 LS
409.067 120.933 LE
521.28 47.52 LS
521.28 120.933 LE
gsave
0 0 0 C
(reer_hat) [4 6 6 4 6 7 6 10] 0 443.674 132.933 11 /Helvetica-Bold SRX
grestore

0.9 0.9 0.9 C
409.067 47.52 409.067 88.0663 414.973 47.52 T
414.973 92.9046 414.973 47.52 409.067 88.0663 T
420.879 47.52 414.973 47.52 414.973 92.9046 T
420.879 102.298 420.879 47.52 414.973 92.9046 T
426.785 47.52 420.879 47.52 420.879 102.298 T
426.785 113.357 426.785 47.52 420.879 102.298 T
432.691 47.52 426.785 47.52 426.785 113.357 T
432.691 118.924 432.691 47.52 426.785 113.357 T
438.597 47.52 432.691 47.52 432.691 118.924 T
438.597 120.782 438.597 47.52 432.691 118.924 T
444.503 47.52 438.597 47.52 438.597 120.782 T
444.503 120.933 444.503 47.52 438.597 120.782 T
450.409 47.52 444.503 47.52 444.503 120.933 T
450.409 116.536 450.409 47.52 444.503 120.933 T
456.315 47.52 450.409 47.52 450.409 116.536 T
456.315 107.141 456.315 47.52 450.409 116.536 T
462.221 47.52 456.315 47.52 456.315 107.141 T
462.221 99.8627 462.221 47.52 456.315 107.141 T
468.127 47.52 462.221 47.52 462.221 99.8627 T
468.127 93.2634 468.127 47.52 462.221 99.8627 T
474.033 47.52 468.127 47.52 468.127 93.2634 T
474.033 86.1598 474.033 47.52 468.127 93.2634 T
479.939 47.52 474.033 47.52 474.033 86.1598 T
479.939 80.1227 479.939 47.52 474.033 86.1598 T
485.844 47.52 479.939 47.52 479.939 80.1227 T
485.844 75.6687 485.844 47.52 479.939 80.1227 T
491.75 47.52 485.844 47.52 485.844 75.6687 T
491.75 70.7614 491.75 47.52 485.844 75.6687 T
497.656 47.52 491.75 47.52 491.75 70.7614 T
497.656 66.5852 497.656 47.52 491.75 70.7614 T
503.562 47.52 497.656 47.52 497.656 66.5852 T
503.562 62.9251 503.562 47.52 497.656 66.5852 T
509.468 47.52 503.562 47.52 503.562 62.9251 T
509.468 59.7402 509.468 47.52 503.562 62.9251 T
515.374 47.52 509.468 47.52 509.468 59.7402 T
515.374 57.3045 515.374 47.52 509.468 59.7402 T
521.28 47.52 515.374 47.52 515.374 57.3045 T
521.28 55.1259 521.28 47.52 515.374 57.3045 T
0 LC
[] 0 setdash
0 0 0 C
521.28 55.1259 LS
515.374 57.3045 L
509.468 59.7402 L
503.562 62.9251 L
497.656 66.5852 L
491.75 70.7614 L
485.844 75.6687 L
479.939 80.1227 L
474.033 86.1598 L
468.127 93.2634 L
462.221 99.8627 L
456.315 107.141 L
450.409 116.536 L
444.503 120.933 L
438.597 120.782 L
432.691 118.924 L
426.785 113.357 L
420.879 102.298 L
414.973 92.9046 L
409.067 88.0663 L
409.067 47.52 L
414.973 47.52 L
420.879 47.52 L
426.785 47.52 L
432.691 47.52 L
438.597 47.52 L
444.503 47.52 L
450.409 47.52 L
456.315 47.52 L
462.221 47.52 L
468.127 47.52 L
474.033 47.52 L
479.939 47.52 L
485.844 47.52 L
491.75 47.52 L
497.656 47.52 L
503.562 47.52 L
509.468 47.52 L
515.374 47.52 L
521.28 47.52 L
521.28 55.1259 LE
1 1 1 C
409.067 47.52 409.067 63.9606 414.973 47.52 T
414.973 66.5315 414.973 47.52 409.067 63.9606 T
420.879 47.52 414.973 47.52 414.973 66.5315 T
420.879 65.7133 420.879 47.52 414.973 66.5315 T
426.785 47.52 420.879 47.52 420.879 65.7133 T
426.785 67.1016 426.785 47.52 420.879 65.7133 T
432.691 47.52 426.785 47.52 426.785 67.1016 T
432.691 68.696 432.691 47.52 426.785 67.1016 T
438.597 47.52 432.691 47.52 432.691 68.696 T
438.597 70.4472 438.597 47.52 432.691 68.696 T
444.503 47.52 438.597 47.52 438.597 70.4472 T
444.503 74.419 444.503 47.52 438.597 70.4472 T
450.409 47.52 444.503 47.52 444.503 74.419 T
450.409 74.7724 450.409 47.52 444.503 74.419 T
456.315 47.52 450.409 47.52 450.409 74.7724 T
456.315 71.1156 456.315 47.52 450.409 74.7724 T
462.221 47.52 456.315 47.52 456.315 71.1156 T
462.221 68.9868 462.221 47.52 456.315 71.1156 T
468.127 47.52 462.221 47.52 462.221 68.9868 T
468.127 67.0318 468.127 47.52 462.221 68.9868 T
474.033 47.52 468.127 47.52 468.127 67.0318 T
474.033 63.393 474.033 47.52 468.127 67.0318 T
479.939 47.52 474.033 47.52 474.033 63.393 T
479.939 60.4021 479.939 47.52 474.033 63.393 T
485.844 47.52 479.939 47.52 479.939 60.4021 T
485.844 58.6847 485.844 47.52 479.939 60.4021 T
491.75 47.52 485.844 47.52 485.844 58.6847 T
491.75 56.1282 491.75 47.52 485.844 58.6847 T
497.656 47.52 491.75 47.52 491.75 56.1282 T
497.656 53.6917 497.656 47.52 491.75 56.1282 T
503.562 47.52 497.656 47.52 497.656 53.6917 T
503.562 51.7158 503.562 47.52 497.656 53.6917 T
509.468 47.52 503.562 47.52 503.562 51.7158 T
509.468 49.9461 509.468 47.52 503.562 51.7158 T
515.374 47.52 509.468 47.52 509.468 49.9461 T
515.374 48.699 515.374 47.52 509.468 49.9461 T
521.28 47.52 515.374 47.52 515.374 48.699 T
0 0 0 C
521.28 47.52 LS
515.374 48.699 L
509.468 49.9461 L
503.562 51.7158 L
497.656 53.6917 L
491.75 56.1282 L
485.844 58.6847 L
479.939 60.4021 L
474.033 63.393 L
468.127 67.0318 L
462.221 68.9868 L
456.315 71.1156 L
450.409 74.7724 L
444.503 74.419 L
438.597 70.4472 L
432.691 68.696 L
426.785 67.1016 L
420.879 65.7133 L
414.973 66.5315 L
409.067 63.9606 L
409.067 47.52 L
414.973 47.52 L
420.879 47.52 L
426.785 47.52 L
432.691 47.52 L
438.597 47.52 L
444.503 47.52 L
450.409 47.52 L
456.315 47.52 L
462.221 47.52 L
468.127 47.52 L
474.033 47.52 L
479.939 47.52 L
485.844 47.52 L
491.75 47.52 L
497.656 47.52 L
503.562 47.52 L
509.468 47.52 L
515.374 47.52 L
521.28 47.52 LE
3 W
1 LJ
409.067 76.283 LS
414.973 80.4967 L
420.879 86.1187 L
426.785 92.4841 L
432.691 96.9468 L
438.597 98.5537 L
444.503 97.5062 L
450.409 94.4663 L
456.315 90.1647 L
462.221 85.2292 L
468.127 80.1329 L
474.033 75.1981 L
479.939 70.6227 L
485.844 66.5104 L
491.75 62.8989 L
497.656 59.7827 L
503.562 57.1305 L
509.468 54.8968 L
515.374 53.0307 L
521.28 51.4812 LE
grestore
grestore
showpage
cleartomark
%%PageTrailer
%%Trailer
end
%%EOF
