%!PS-Adobe-3.0 EPSF-3.0
%%Title: gl2ps_renderer figure
%%Creator: GL2PS 1.4.0, (C) 1999-2017 C. Geuzaine
%%For: Octave
%%CreationDate: Sat Oct  6 16:42:43 2018
%%LanguageLevel: 3
%%DocumentData: Clean7Bit
%%Pages: 1
%%BoundingBox: 0 0 576 432
%%EndComments
%%BeginProlog
/gl2psdict 64 dict def gl2psdict begin
/tryPS3shading false def % set to false to force subdivision
/rThreshold 0.064 def % red component subdivision threshold
/gThreshold 0.034 def % green component subdivision threshold
/bThreshold 0.1 def % blue component subdivision threshold
/BD { bind def } bind def
/C  { setrgbcolor } BD
/G  { 0.082 mul exch 0.6094 mul add exch 0.3086 mul add neg 1.0 add setgray } BD
/W  { setlinewidth } BD
/LC  { setlinecap } BD
/LJ  { setlinejoin } BD
/FC { findfont exch /SH exch def SH scalefont setfont } BD
/SW { dup stringwidth pop } BD
/S  { FC moveto show } BD
/SBC{ FC moveto SW -2 div 0 rmoveto show } BD
/SBR{ FC moveto SW neg 0 rmoveto show } BD
/SCL{ FC moveto 0 SH -2 div rmoveto show } BD
/SCC{ FC moveto SW -2 div SH -2 div rmoveto show } BD
/SCR{ FC moveto SW neg SH -2 div rmoveto show } BD
/STL{ FC moveto 0 SH neg rmoveto show } BD
/STC{ FC moveto SW -2 div SH neg rmoveto show } BD
/STR{ FC moveto SW neg SH neg rmoveto show } BD
/FCT { FC translate 0 0 } BD
/SR  { gsave FCT moveto rotate show grestore } BD
/SBCR{ gsave FCT moveto rotate SW -2 div 0 rmoveto show grestore } BD
/SBRR{ gsave FCT moveto rotate SW neg 0 rmoveto show grestore } BD
/SCLR{ gsave FCT moveto rotate 0 SH -2 div rmoveto show grestore} BD
/SCCR{ gsave FCT moveto rotate SW -2 div SH -2 div rmoveto show grestore} BD
/SCRR{ gsave FCT moveto rotate SW neg SH -2 div rmoveto show grestore} BD
/STLR{ gsave FCT moveto rotate 0 SH neg rmoveto show grestore } BD
/STCR{ gsave FCT moveto rotate SW -2 div SH neg rmoveto show grestore } BD
/STRR{ gsave FCT moveto rotate SW neg SH neg rmoveto show grestore } BD
/P  { newpath 0.0 360.0 arc closepath fill } BD
/LS { newpath moveto } BD
/L  { lineto } BD
/LE { lineto stroke } BD
/T  { newpath moveto lineto lineto closepath fill } BD
/STshfill {
      /b1 exch def /g1 exch def /r1 exch def /y1 exch def /x1 exch def
      /b2 exch def /g2 exch def /r2 exch def /y2 exch def /x2 exch def
      /b3 exch def /g3 exch def /r3 exch def /y3 exch def /x3 exch def
      gsave << /ShadingType 4 /ColorSpace [/DeviceRGB]
      /DataSource [ 0 x1 y1 r1 g1 b1 0 x2 y2 r2 g2 b2 0 x3 y3 r3 g3 b3 ] >>
      shfill grestore } BD
/Tm { 3 -1 roll 8 -1 roll 13 -1 roll add add 3 div
      3 -1 roll 7 -1 roll 11 -1 roll add add 3 div
      3 -1 roll 6 -1 roll 9 -1 roll add add 3 div C T } BD
/STsplit {
      4 index 15 index add 0.5 mul
      4 index 15 index add 0.5 mul
      4 index 15 index add 0.5 mul
      4 index 15 index add 0.5 mul
      4 index 15 index add 0.5 mul
      5 copy 5 copy 25 15 roll
      9 index 30 index add 0.5 mul
      9 index 30 index add 0.5 mul
      9 index 30 index add 0.5 mul
      9 index 30 index add 0.5 mul
      9 index 30 index add 0.5 mul
      5 copy 5 copy 35 5 roll 25 5 roll 15 5 roll
      4 index 10 index add 0.5 mul
      4 index 10 index add 0.5 mul
      4 index 10 index add 0.5 mul
      4 index 10 index add 0.5 mul
      4 index 10 index add 0.5 mul
      5 copy 5 copy 40 5 roll 25 5 roll 15 5 roll 25 5 roll
      STnoshfill STnoshfill STnoshfill STnoshfill } BD
/STnoshfill {
      2 index 8 index sub abs rThreshold gt
      { STsplit }
      { 1 index 7 index sub abs gThreshold gt
        { STsplit }
        { dup 6 index sub abs bThreshold gt
          { STsplit }
          { 2 index 13 index sub abs rThreshold gt
            { STsplit }
            { 1 index 12 index sub abs gThreshold gt
              { STsplit }
              { dup 11 index sub abs bThreshold gt
                { STsplit }
                { 7 index 13 index sub abs rThreshold gt
                  { STsplit }
                  { 6 index 12 index sub abs gThreshold gt
                    { STsplit }
                    { 5 index 11 index sub abs bThreshold gt
                      { STsplit }
                      { Tm }
                      ifelse }
                    ifelse }
                  ifelse }
                ifelse }
              ifelse }
            ifelse }
          ifelse }
        ifelse }
      ifelse } BD
tryPS3shading
{ /shfill where
  { /ST { STshfill } BD }
  { /ST { STnoshfill } BD }
  ifelse }
{ /ST { STnoshfill } BD }
ifelse
end
%%EndProlog
%%BeginSetup
/DeviceRGB setcolorspace
gl2psdict begin
%%EndSetup
%%Page: 1 1
%%BeginPageSetup
%%EndPageSetup
mark
gsave
1.0 1.0 scale
1 1 1 C
newpath 0 0 moveto 576 0 lineto 576 432 lineto 0 432 lineto
closepath fill
gsave
1.0 1.0 scale
1 1 1 C
newpath 0 0 moveto 576 0 lineto 576 432 lineto 0 432 lineto
closepath fill
newpath 0 0 moveto 576 0 lineto 576 432 lineto 0 432 lineto
closepath clip
1 1 1 C
76.2638 383.837 187.097 253.397 76.2638 253.397 T
76.2638 383.837 187.097 383.837 187.097 253.397 T
0.5 W
0.15 0.15 0.15 C
91.5511 253.397 LS
91.5511 254.706 LE
91.5511 383.837 LS
91.5511 382.529 LE
110.66 253.397 LS
110.66 254.706 LE
110.66 383.837 LS
110.66 382.529 LE
129.769 253.397 LS
129.769 254.706 LE
129.769 383.837 LS
129.769 382.529 LE
148.879 253.397 LS
148.879 254.706 LE
148.879 383.837 LS
148.879 382.529 LE
167.988 253.397 LS
167.988 254.706 LE
167.988 383.837 LS
167.988 382.529 LE
187.097 253.397 LS
187.097 254.706 LE
187.097 383.837 LS
187.097 382.529 LE
0.14902 0.14902 0.14902 C
(5000) 91.5511 248.38 10 /Helvetica STC
(10000) 110.66 248.38 10 /Helvetica STC
(15000) 129.769 248.38 10 /Helvetica STC
(20000) 148.878 248.38 10 /Helvetica STC
(25000) 167.988 248.38 10 /Helvetica STC
(30000) 187.097 248.38 10 /Helvetica STC
0.15 0.15 0.15 C
76.2638 253.397 LS
77.5662 253.397 LE
187.097 253.397 LS
185.794 253.397 LE
76.2638 269.702 LS
77.5662 269.702 LE
187.097 269.702 LS
185.794 269.702 LE
76.2638 286.007 LS
77.5662 286.007 LE
187.097 286.007 LS
185.794 286.007 LE
76.2638 302.312 LS
77.5662 302.312 LE
187.097 302.312 LS
185.794 302.312 LE
76.2638 318.617 LS
77.5662 318.617 LE
187.097 318.617 LS
185.794 318.617 LE
76.2638 334.922 LS
77.5662 334.922 LE
187.097 334.922 LS
185.794 334.922 LE
76.2638 351.227 LS
77.5662 351.227 LE
187.097 351.227 LS
185.794 351.227 LE
76.2638 367.532 LS
77.5662 367.532 LE
187.097 367.532 LS
185.794 367.532 LE
76.2638 383.837 LS
77.5662 383.837 LE
187.097 383.837 LS
185.794 383.837 LE
0.14902 0.14902 0.14902 C
(0) 71.2713 253.397 10 /Helvetica SCR
(0.005) 71.2713 269.702 10 /Helvetica SCR
(0.01) 71.2713 286.007 10 /Helvetica SCR
(0.015) 71.2713 302.312 10 /Helvetica SCR
(0.02) 71.2713 318.617 10 /Helvetica SCR
(0.025) 71.2713 334.922 10 /Helvetica SCR
(0.03) 71.2713 351.227 10 /Helvetica SCR
(0.035) 71.2713 367.532 10 /Helvetica SCR
(0.04) 71.2713 383.837 10 /Helvetica SCR
[16 0] 0 setdash
0.15 0.15 0.15 C
76.2638 253.397 LS
187.097 253.397 LE
76.2638 383.837 LS
187.097 383.837 LE
76.2638 253.397 LS
76.2638 383.837 LE
187.097 253.397 LS
187.097 383.837 LE
[] 0 setdash
0 0 1 C
76.2638 354.351 LS
77.3721 354.351 L
78.4804 354.351 L
79.5888 354.351 L
80.6971 354.351 L
81.8054 354.351 L
82.9138 354.351 L
84.0221 354.351 L
85.1304 354.351 L
86.2388 354.351 L
87.3471 354.351 L
88.4554 354.351 L
89.5637 354.351 L
90.6721 354.351 L
91.7804 354.351 L
92.8887 354.351 L
93.9971 354.351 L
95.1054 354.351 L
96.2137 354.351 L
97.3221 354.351 L
98.4304 354.351 L
99.5387 354.351 L
100.647 354.351 L
101.755 354.351 L
102.864 354.351 L
103.972 354.351 L
105.08 354.351 L
106.189 354.351 L
107.297 354.351 L
108.405 354.351 L
109.514 354.351 L
110.622 354.351 L
111.73 354.351 L
112.839 354.351 L
113.947 354.351 L
115.055 354.351 L
116.164 354.351 L
117.272 354.351 L
118.38 354.351 L
119.489 354.351 L
120.597 354.351 L
121.705 354.351 L
122.814 354.351 L
123.922 354.351 L
125.03 354.351 L
126.139 354.351 L
127.247 354.351 L
128.355 354.351 L
129.464 354.351 L
130.572 354.351 L
131.68 354.351 L
132.789 354.351 L
133.897 354.351 L
135.005 354.351 L
136.114 354.351 L
137.222 354.351 L
138.33 354.351 L
139.439 354.351 L
140.547 354.351 L
141.655 354.351 L
142.764 354.351 L
143.872 354.351 L
144.98 354.351 L
146.089 354.351 L
147.197 354.351 L
148.305 354.351 L
149.414 354.351 L
150.522 354.351 L
151.63 354.351 L
152.739 354.351 L
153.847 354.351 L
154.955 354.351 L
156.064 354.351 L
157.172 354.351 L
158.28 354.351 L
159.389 354.351 L
160.497 354.351 L
161.605 354.351 L
162.714 354.351 L
163.822 354.351 L
164.93 354.351 L
166.039 354.351 L
167.147 354.351 L
168.255 354.351 L
169.363 354.351 L
170.472 354.351 L
171.58 354.351 L
172.688 354.351 L
173.797 354.351 L
174.905 354.351 L
176.013 354.351 L
177.122 354.351 L
178.23 354.351 L
179.338 354.351 L
180.447 354.351 L
181.555 354.351 L
182.663 354.351 L
183.772 354.351 L
184.88 354.351 L
185.988 354.351 L
187.097 354.351 LE
1 0 0 C
76.2638 253.397 LS
77.3721 253.397 L
78.4804 253.397 L
79.5888 253.397 L
80.6971 253.397 L
81.8054 253.397 L
82.9138 253.397 L
84.0221 253.397 L
85.1304 253.397 L
86.2388 253.397 L
87.3471 253.397 L
88.4554 253.397 L
89.5637 253.397 L
90.6721 253.397 L
91.7804 253.397 L
92.8887 253.397 L
93.9971 253.397 L
95.1054 253.397 L
96.2137 253.397 L
97.3221 253.397 L
98.4304 253.397 L
99.5387 253.397 L
100.647 253.397 L
101.755 253.397 L
102.864 253.397 L
103.972 253.397 L
105.08 253.397 L
106.189 253.397 L
107.297 253.397 L
108.405 253.397 L
109.514 253.397 L
110.622 253.397 L
111.73 253.397 L
112.839 253.397 L
113.947 253.397 L
115.055 253.397 L
116.164 253.397 L
117.272 253.397 L
118.38 253.397 L
119.489 253.397 L
120.597 253.397 L
121.705 253.397 L
122.814 253.397 L
123.922 253.397 L
125.03 253.397 L
126.139 253.397 L
127.247 253.397 L
128.355 253.397 L
129.464 253.397 L
130.572 253.397 L
131.68 253.397 L
132.789 253.397 L
133.897 253.397 L
135.005 253.397 L
136.114 253.397 L
137.222 253.397 L
138.33 253.397 L
139.439 253.397 L
140.547 253.397 L
141.655 253.397 L
142.764 253.397 L
143.872 253.397 L
144.98 253.397 L
146.089 253.397 L
147.197 253.397 L
148.305 253.397 L
149.414 253.397 L
150.522 253.397 L
151.63 253.397 L
152.739 253.397 L
153.847 253.397 L
154.955 253.397 L
156.064 253.397 L
157.172 253.397 L
158.28 253.397 L
159.389 253.397 L
160.497 253.397 L
161.605 253.397 L
162.714 253.397 L
163.822 253.397 L
164.93 253.397 L
166.039 253.397 L
167.147 253.397 L
168.255 253.397 L
169.363 253.397 L
170.472 253.397 L
171.58 253.397 L
172.688 253.397 L
173.797 253.397 L
174.905 253.397 L
176.013 253.397 L
177.122 253.397 L
178.23 253.397 L
179.338 253.397 L
180.447 253.397 L
181.555 253.397 L
182.663 253.397 L
183.772 253.397 L
184.88 253.397 L
185.988 253.397 L
187.097 253.397 LE
0 0 0 C
(iiota_N \(Interval\)) 131.68 393.837 11 /Helvetica-Bold SBC
grestore
gsave
1.0 1.0 scale
newpath 0 0 moveto 576 0 lineto 576 432 lineto 0 432 lineto
closepath clip
1 1 1 C
243.355 383.837 354.188 253.397 243.355 253.397 T
243.355 383.837 354.188 383.837 354.188 253.397 T
0.5 W
0.15 0.15 0.15 C
258.643 253.397 LS
258.643 254.706 LE
258.643 383.837 LS
258.643 382.529 LE
277.752 253.397 LS
277.752 254.706 LE
277.752 383.837 LS
277.752 382.529 LE
296.861 253.397 LS
296.861 254.706 LE
296.861 383.837 LS
296.861 382.529 LE
315.97 253.397 LS
315.97 254.706 LE
315.97 383.837 LS
315.97 382.529 LE
335.079 253.397 LS
335.079 254.706 LE
335.079 383.837 LS
335.079 382.529 LE
354.188 253.397 LS
354.188 254.706 LE
354.188 383.837 LS
354.188 382.529 LE
0.14902 0.14902 0.14902 C
(5000) 258.643 248.38 10 /Helvetica STC
(10000) 277.752 248.38 10 /Helvetica STC
(15000) 296.861 248.38 10 /Helvetica STC
(20000) 315.97 248.38 10 /Helvetica STC
(25000) 335.079 248.38 10 /Helvetica STC
(30000) 354.188 248.38 10 /Helvetica STC
0.15 0.15 0.15 C
243.355 253.397 LS
244.658 253.397 LE
354.188 253.397 LS
352.886 253.397 LE
243.355 279.485 LS
244.658 279.485 LE
354.188 279.485 LS
352.886 279.485 LE
243.355 305.573 LS
244.658 305.573 LE
354.188 305.573 LS
352.886 305.573 LE
243.355 331.661 LS
244.658 331.661 LE
354.188 331.661 LS
352.886 331.661 LE
243.355 357.749 LS
244.658 357.749 LE
354.188 357.749 LS
352.886 357.749 LE
243.355 383.837 LS
244.658 383.837 LE
354.188 383.837 LS
352.886 383.837 LE
0.14902 0.14902 0.14902 C
(0) 238.363 253.397 10 /Helvetica SCR
(5e-05) 238.363 279.485 10 /Helvetica SCR
(0.0001) 238.363 305.573 10 /Helvetica SCR
(0.00015) 238.363 331.661 10 /Helvetica SCR
(0.0002) 238.363 357.749 10 /Helvetica SCR
(0.00025) 238.363 383.837 10 /Helvetica SCR
[16 0] 0 setdash
0.15 0.15 0.15 C
243.355 253.397 LS
354.188 253.397 LE
243.355 383.837 LS
354.188 383.837 LE
243.355 253.397 LS
243.355 383.837 LE
354.188 253.397 LS
354.188 383.837 LE
[] 0 setdash
0 0 1 C
243.355 378.536 LS
244.464 378.508 L
245.572 378.49 L
246.68 378.478 L
247.789 378.469 L
248.897 378.462 L
250.005 378.456 L
251.114 378.452 L
252.222 378.448 L
253.33 378.445 L
254.439 378.443 L
255.547 378.441 L
256.655 378.439 L
257.764 378.437 L
258.872 378.436 L
259.98 378.434 L
261.089 378.433 L
262.197 378.432 L
263.305 378.431 L
264.414 378.43 L
265.522 378.429 L
266.63 378.428 L
267.739 378.428 L
268.847 378.427 L
269.955 378.427 L
271.064 378.426 L
272.172 378.425 L
273.28 378.425 L
274.389 378.425 L
275.497 378.424 L
276.605 378.424 L
277.714 378.423 L
278.822 378.423 L
279.93 378.423 L
281.039 378.422 L
282.147 378.422 L
283.255 378.422 L
284.364 378.422 L
285.472 378.421 L
286.58 378.421 L
287.689 378.421 L
288.797 378.421 L
289.905 378.42 L
291.014 378.42 L
292.122 378.42 L
293.23 378.42 L
294.339 378.42 L
295.447 378.419 L
296.555 378.419 L
297.664 378.419 L
298.772 378.419 L
299.88 378.419 L
300.989 378.419 L
302.097 378.418 L
303.205 378.418 L
304.314 378.418 L
305.422 378.418 L
306.53 378.418 L
307.639 378.418 L
308.747 378.418 L
309.855 378.418 L
310.964 378.417 L
312.072 378.417 L
313.18 378.417 L
314.289 378.417 L
315.397 378.417 L
316.505 378.417 L
317.613 378.417 L
318.722 378.417 L
319.83 378.417 L
320.938 378.417 L
322.047 378.417 L
323.155 378.417 L
324.263 378.416 L
325.372 378.416 L
326.48 378.416 L
327.588 378.416 L
328.697 378.416 L
329.805 378.416 L
330.913 378.416 L
332.022 378.416 L
333.13 378.416 L
334.238 378.416 L
335.347 378.416 L
336.455 378.416 L
337.563 378.416 L
338.672 378.416 L
339.78 378.416 L
340.888 378.416 L
341.997 378.415 L
343.105 378.415 L
344.213 378.415 L
345.322 378.415 L
346.43 378.415 L
347.538 378.415 L
348.647 378.415 L
349.755 378.415 L
350.863 378.415 L
351.972 378.415 L
353.08 378.415 L
354.188 378.415 LE
1 0 0 C
243.355 253.397 LS
244.464 253.397 L
245.572 253.397 L
246.68 253.397 L
247.789 253.397 L
248.897 253.397 L
250.005 253.397 L
251.114 253.397 L
252.222 253.397 L
253.33 253.397 L
254.439 253.397 L
255.547 253.397 L
256.655 253.397 L
257.764 253.397 L
258.872 253.397 L
259.98 253.397 L
261.089 253.397 L
262.197 253.397 L
263.305 253.397 L
264.414 253.397 L
265.522 253.397 L
266.63 253.397 L
267.739 253.397 L
268.847 253.397 L
269.955 253.397 L
271.064 253.397 L
272.172 253.397 L
273.28 253.397 L
274.389 253.397 L
275.497 253.397 L
276.605 253.397 L
277.714 253.397 L
278.822 253.397 L
279.93 253.397 L
281.039 253.397 L
282.147 253.397 L
283.255 253.397 L
284.364 253.397 L
285.472 253.397 L
286.58 253.397 L
287.689 253.397 L
288.797 253.397 L
289.905 253.397 L
291.014 253.397 L
292.122 253.397 L
293.23 253.397 L
294.339 253.397 L
295.447 253.397 L
296.555 253.397 L
297.664 253.397 L
298.772 253.397 L
299.88 253.397 L
300.989 253.397 L
302.097 253.397 L
303.205 253.397 L
304.314 253.397 L
305.422 253.397 L
306.53 253.397 L
307.639 253.397 L
308.747 253.397 L
309.855 253.397 L
310.964 253.397 L
312.072 253.397 L
313.18 253.397 L
314.289 253.397 L
315.397 253.397 L
316.505 253.397 L
317.613 253.397 L
318.722 253.397 L
319.83 253.397 L
320.938 253.397 L
322.047 253.397 L
323.155 253.397 L
324.263 253.397 L
325.372 253.397 L
326.48 253.397 L
327.588 253.397 L
328.697 253.397 L
329.805 253.397 L
330.913 253.397 L
332.022 253.397 L
333.13 253.397 L
334.238 253.397 L
335.347 253.397 L
336.455 253.397 L
337.563 253.397 L
338.672 253.397 L
339.78 253.397 L
340.888 253.397 L
341.997 253.397 L
343.105 253.397 L
344.213 253.397 L
345.322 253.397 L
346.43 253.397 L
347.538 253.397 L
348.647 253.397 L
349.755 253.397 L
350.863 253.397 L
351.972 253.397 L
353.08 253.397 L
354.188 253.397 LE
0 0 0 C
(iiota_N \(m2\)) 298.772 393.837 11 /Helvetica-Bold SBC
grestore
gsave
1.0 1.0 scale
newpath 0 0 moveto 576 0 lineto 576 432 lineto 0 432 lineto
closepath clip
1 1 1 C
410.447 383.837 521.28 253.397 410.447 253.397 T
410.447 383.837 521.28 383.837 521.28 253.397 T
0.5 W
0.15 0.15 0.15 C
425.734 253.397 LS
425.734 254.706 LE
425.734 383.837 LS
425.734 382.529 LE
444.843 253.397 LS
444.843 254.706 LE
444.843 383.837 LS
444.843 382.529 LE
463.953 253.397 LS
463.953 254.706 LE
463.953 383.837 LS
463.953 382.529 LE
483.062 253.397 LS
483.062 254.706 LE
483.062 383.837 LS
483.062 382.529 LE
502.171 253.397 LS
502.171 254.706 LE
502.171 383.837 LS
502.171 382.529 LE
521.28 253.397 LS
521.28 254.706 LE
521.28 383.837 LS
521.28 382.529 LE
0.14902 0.14902 0.14902 C
(5000) 425.734 248.38 10 /Helvetica STC
(10000) 444.843 248.38 10 /Helvetica STC
(15000) 463.953 248.38 10 /Helvetica STC
(20000) 483.062 248.38 10 /Helvetica STC
(25000) 502.171 248.38 10 /Helvetica STC
(30000) 521.28 248.38 10 /Helvetica STC
0.15 0.15 0.15 C
410.447 253.397 LS
411.749 253.397 LE
521.28 253.397 LS
519.978 253.397 LE
410.447 286.007 LS
411.749 286.007 LE
521.28 286.007 LS
519.978 286.007 LE
410.447 318.617 LS
411.749 318.617 LE
521.28 318.617 LS
519.978 318.617 LE
410.447 351.227 LS
411.749 351.227 LE
521.28 351.227 LS
519.978 351.227 LE
410.447 383.837 LS
411.749 383.837 LE
521.28 383.837 LS
519.978 383.837 LE
0.14902 0.14902 0.14902 C
(0) 405.455 253.397 10 /Helvetica SCR
(1e-06) 405.455 286.007 10 /Helvetica SCR
(2e-06) 405.455 318.617 10 /Helvetica SCR
(3e-06) 405.455 351.227 10 /Helvetica SCR
(4e-06) 405.455 383.837 10 /Helvetica SCR
[16 0] 0 setdash
0.15 0.15 0.15 C
410.447 253.397 LS
521.28 253.397 LE
410.447 383.837 LS
521.28 383.837 LE
410.447 253.397 LS
410.447 383.837 LE
521.28 253.397 LS
521.28 383.837 LE
[] 0 setdash
0 0 1 C
410.447 374.461 LS
411.555 374.434 L
412.664 374.417 L
413.772 374.405 L
414.88 374.396 L
415.989 374.389 L
417.097 374.384 L
418.205 374.38 L
419.314 374.376 L
420.422 374.374 L
421.53 374.371 L
422.639 374.369 L
423.747 374.367 L
424.855 374.365 L
425.964 374.364 L
427.072 374.363 L
428.18 374.362 L
429.289 374.36 L
430.397 374.36 L
431.505 374.359 L
432.614 374.358 L
433.722 374.357 L
434.83 374.356 L
435.939 374.356 L
437.047 374.355 L
438.155 374.355 L
439.264 374.354 L
440.372 374.354 L
441.48 374.353 L
442.589 374.353 L
443.697 374.353 L
444.805 374.352 L
445.914 374.352 L
447.022 374.352 L
448.13 374.351 L
449.239 374.351 L
450.347 374.351 L
451.455 374.35 L
452.564 374.35 L
453.672 374.35 L
454.78 374.35 L
455.889 374.349 L
456.997 374.349 L
458.105 374.349 L
459.214 374.349 L
460.322 374.349 L
461.43 374.349 L
462.539 374.348 L
463.647 374.348 L
464.755 374.348 L
465.863 374.348 L
466.972 374.348 L
468.08 374.348 L
469.188 374.347 L
470.297 374.347 L
471.405 374.347 L
472.513 374.347 L
473.622 374.347 L
474.73 374.347 L
475.838 374.347 L
476.947 374.347 L
478.055 374.347 L
479.163 374.346 L
480.272 374.346 L
481.38 374.346 L
482.488 374.346 L
483.597 374.346 L
484.705 374.346 L
485.813 374.346 L
486.922 374.346 L
488.03 374.346 L
489.138 374.346 L
490.247 374.346 L
491.355 374.346 L
492.463 374.345 L
493.572 374.345 L
494.68 374.345 L
495.788 374.345 L
496.897 374.345 L
498.005 374.345 L
499.113 374.345 L
500.222 374.345 L
501.33 374.345 L
502.438 374.345 L
503.547 374.345 L
504.655 374.345 L
505.763 374.345 L
506.872 374.345 L
507.98 374.345 L
509.088 374.345 L
510.197 374.345 L
511.305 374.344 L
512.413 374.344 L
513.522 374.344 L
514.63 374.344 L
515.738 374.344 L
516.847 374.344 L
517.955 374.344 L
519.063 374.344 L
520.172 374.344 L
521.28 374.344 LE
1 0 0 C
410.447 253.397 LS
411.555 253.397 L
412.664 253.397 L
413.772 253.397 L
414.88 253.397 L
415.989 253.397 L
417.097 253.397 L
418.205 253.397 L
419.314 253.397 L
420.422 253.397 L
421.53 253.397 L
422.639 253.397 L
423.747 253.397 L
424.855 253.397 L
425.964 253.397 L
427.072 253.397 L
428.18 253.397 L
429.289 253.397 L
430.397 253.397 L
431.505 253.397 L
432.614 253.397 L
433.722 253.397 L
434.83 253.397 L
435.939 253.397 L
437.047 253.397 L
438.155 253.397 L
439.264 253.397 L
440.372 253.397 L
441.48 253.397 L
442.589 253.397 L
443.697 253.397 L
444.805 253.397 L
445.914 253.397 L
447.022 253.397 L
448.13 253.397 L
449.239 253.397 L
450.347 253.397 L
451.455 253.397 L
452.564 253.397 L
453.672 253.397 L
454.78 253.397 L
455.889 253.397 L
456.997 253.397 L
458.105 253.397 L
459.214 253.397 L
460.322 253.397 L
461.43 253.397 L
462.539 253.397 L
463.647 253.397 L
464.755 253.397 L
465.863 253.397 L
466.972 253.397 L
468.08 253.397 L
469.188 253.397 L
470.297 253.397 L
471.405 253.397 L
472.513 253.397 L
473.622 253.397 L
474.73 253.397 L
475.838 253.397 L
476.947 253.397 L
478.055 253.397 L
479.163 253.397 L
480.272 253.397 L
481.38 253.397 L
482.488 253.397 L
483.597 253.397 L
484.705 253.397 L
485.813 253.397 L
486.922 253.397 L
488.03 253.397 L
489.138 253.397 L
490.247 253.397 L
491.355 253.397 L
492.463 253.397 L
493.572 253.397 L
494.68 253.397 L
495.788 253.397 L
496.897 253.397 L
498.005 253.397 L
499.113 253.397 L
500.222 253.397 L
501.33 253.397 L
502.438 253.397 L
503.547 253.397 L
504.655 253.397 L
505.763 253.397 L
506.872 253.397 L
507.98 253.397 L
509.088 253.397 L
510.197 253.397 L
511.305 253.397 L
512.413 253.397 L
513.522 253.397 L
514.63 253.397 L
515.738 253.397 L
516.847 253.397 L
517.955 253.397 L
519.063 253.397 L
520.172 253.397 L
521.28 253.397 LE
0 0 0 C
(iiota_N \(m3\)) 465.863 393.837 11 /Helvetica-Bold SBC
grestore
gsave
1.0 1.0 scale
newpath 0 0 moveto 576 0 lineto 576 432 lineto 0 432 lineto
closepath clip
1 1 1 C
76.2638 177.96 187.097 47.52 76.2638 47.52 T
76.2638 177.96 187.097 177.96 187.097 47.52 T
0.5 W
0.15 0.15 0.15 C
91.5511 47.52 LS
91.5511 48.8288 LE
91.5511 177.96 LS
91.5511 176.651 LE
110.66 47.52 LS
110.66 48.8288 LE
110.66 177.96 LS
110.66 176.651 LE
129.769 47.52 LS
129.769 48.8288 LE
129.769 177.96 LS
129.769 176.651 LE
148.879 47.52 LS
148.879 48.8288 LE
148.879 177.96 LS
148.879 176.651 LE
167.988 47.52 LS
167.988 48.8288 LE
167.988 177.96 LS
167.988 176.651 LE
187.097 47.52 LS
187.097 48.8288 LE
187.097 177.96 LS
187.097 176.651 LE
0.14902 0.14902 0.14902 C
(5000) 91.5511 42.5031 10 /Helvetica STC
(10000) 110.66 42.5031 10 /Helvetica STC
(15000) 129.769 42.5031 10 /Helvetica STC
(20000) 148.878 42.5031 10 /Helvetica STC
(25000) 167.988 42.5031 10 /Helvetica STC
(30000) 187.097 42.5031 10 /Helvetica STC
0.15 0.15 0.15 C
76.2638 47.52 LS
77.5662 47.52 LE
187.097 47.52 LS
185.794 47.52 LE
76.2638 66.1543 LS
77.5662 66.1543 LE
187.097 66.1543 LS
185.794 66.1543 LE
76.2638 84.7886 LS
77.5662 84.7886 LE
187.097 84.7886 LS
185.794 84.7886 LE
76.2638 103.423 LS
77.5662 103.423 LE
187.097 103.423 LS
185.794 103.423 LE
76.2638 122.057 LS
77.5662 122.057 LE
187.097 122.057 LS
185.794 122.057 LE
76.2638 140.691 LS
77.5662 140.691 LE
187.097 140.691 LS
185.794 140.691 LE
76.2638 159.326 LS
77.5662 159.326 LE
187.097 159.326 LS
185.794 159.326 LE
76.2638 177.96 LS
77.5662 177.96 LE
187.097 177.96 LS
185.794 177.96 LE
0.14902 0.14902 0.14902 C
(0) 71.2713 47.52 10 /Helvetica SCR
(0.05) 71.2713 66.1543 10 /Helvetica SCR
(0.1) 71.2713 84.7886 10 /Helvetica SCR
(0.15) 71.2713 103.423 10 /Helvetica SCR
(0.2) 71.2713 122.057 10 /Helvetica SCR
(0.25) 71.2713 140.691 10 /Helvetica SCR
(0.3) 71.2713 159.326 10 /Helvetica SCR
(0.35) 71.2713 177.96 10 /Helvetica SCR
[16 0] 0 setdash
0.15 0.15 0.15 C
76.2638 47.52 LS
187.097 47.52 LE
76.2638 177.96 LS
187.097 177.96 LE
76.2638 47.52 LS
76.2638 177.96 LE
187.097 47.52 LS
187.097 177.96 LE
[] 0 setdash
0 0 1 C
76.2638 173.933 LS
77.3721 173.933 L
78.4804 173.933 L
79.5888 173.933 L
80.6971 173.933 L
81.8054 173.933 L
82.9138 173.933 L
84.0221 173.933 L
85.1304 173.933 L
86.2388 173.933 L
87.3471 173.933 L
88.4554 173.933 L
89.5637 173.933 L
90.6721 173.933 L
91.7804 173.933 L
92.8887 173.933 L
93.9971 173.933 L
95.1054 173.933 L
96.2137 173.933 L
97.3221 173.933 L
98.4304 173.933 L
99.5387 173.933 L
100.647 173.933 L
101.755 173.933 L
102.864 173.933 L
103.972 173.933 L
105.08 173.933 L
106.189 173.933 L
107.297 173.933 L
108.405 173.933 L
109.514 173.933 L
110.622 173.933 L
111.73 173.933 L
112.839 173.933 L
113.947 173.933 L
115.055 173.933 L
116.164 173.933 L
117.272 173.933 L
118.38 173.933 L
119.489 173.933 L
120.597 173.933 L
121.705 173.933 L
122.814 173.933 L
123.922 173.933 L
125.03 173.933 L
126.139 173.933 L
127.247 173.933 L
128.355 173.933 L
129.464 173.933 L
130.572 173.933 L
131.68 173.933 L
132.789 173.933 L
133.897 173.933 L
135.005 173.933 L
136.114 173.933 L
137.222 173.933 L
138.33 173.933 L
139.439 173.933 L
140.547 173.933 L
141.655 173.933 L
142.764 173.933 L
143.872 173.933 L
144.98 173.933 L
146.089 173.933 L
147.197 173.933 L
148.305 173.933 L
149.414 173.933 L
150.522 173.933 L
151.63 173.933 L
152.739 173.933 L
153.847 173.933 L
154.955 173.933 L
156.064 173.933 L
157.172 173.933 L
158.28 173.933 L
159.389 173.933 L
160.497 173.933 L
161.605 173.933 L
162.714 173.933 L
163.822 173.933 L
164.93 173.933 L
166.039 173.933 L
167.147 173.933 L
168.255 173.933 L
169.363 173.933 L
170.472 173.933 L
171.58 173.933 L
172.688 173.933 L
173.797 173.933 L
174.905 173.933 L
176.013 173.933 L
177.122 173.933 L
178.23 173.933 L
179.338 173.933 L
180.447 173.933 L
181.555 173.933 L
182.663 173.933 L
183.772 173.933 L
184.88 173.933 L
185.988 173.933 L
187.097 173.933 LE
1 0 0 C
76.2638 47.52 LS
77.3721 47.52 L
78.4804 47.52 L
79.5888 47.52 L
80.6971 47.52 L
81.8054 47.52 L
82.9138 47.52 L
84.0221 47.52 L
85.1304 47.52 L
86.2388 47.52 L
87.3471 47.52 L
88.4554 47.52 L
89.5637 47.52 L
90.6721 47.52 L
91.7804 47.52 L
92.8887 47.52 L
93.9971 47.52 L
95.1054 47.52 L
96.2137 47.52 L
97.3221 47.52 L
98.4304 47.52 L
99.5387 47.52 L
100.647 47.52 L
101.755 47.52 L
102.864 47.52 L
103.972 47.52 L
105.08 47.52 L
106.189 47.52 L
107.297 47.52 L
108.405 47.52 L
109.514 47.52 L
110.622 47.52 L
111.73 47.52 L
112.839 47.52 L
113.947 47.52 L
115.055 47.52 L
116.164 47.52 L
117.272 47.52 L
118.38 47.52 L
119.489 47.52 L
120.597 47.52 L
121.705 47.52 L
122.814 47.52 L
123.922 47.52 L
125.03 47.52 L
126.139 47.52 L
127.247 47.52 L
128.355 47.52 L
129.464 47.52 L
130.572 47.52 L
131.68 47.52 L
132.789 47.52 L
133.897 47.52 L
135.005 47.52 L
136.114 47.52 L
137.222 47.52 L
138.33 47.52 L
139.439 47.52 L
140.547 47.52 L
141.655 47.52 L
142.764 47.52 L
143.872 47.52 L
144.98 47.52 L
146.089 47.52 L
147.197 47.52 L
148.305 47.52 L
149.414 47.52 L
150.522 47.52 L
151.63 47.52 L
152.739 47.52 L
153.847 47.52 L
154.955 47.52 L
156.064 47.52 L
157.172 47.52 L
158.28 47.52 L
159.389 47.52 L
160.497 47.52 L
161.605 47.52 L
162.714 47.52 L
163.822 47.52 L
164.93 47.52 L
166.039 47.52 L
167.147 47.52 L
168.255 47.52 L
169.363 47.52 L
170.472 47.52 L
171.58 47.52 L
172.688 47.52 L
173.797 47.52 L
174.905 47.52 L
176.013 47.52 L
177.122 47.52 L
178.23 47.52 L
179.338 47.52 L
180.447 47.52 L
181.555 47.52 L
182.663 47.52 L
183.772 47.52 L
184.88 47.52 L
185.988 47.52 L
187.097 47.52 LE
0 0 0 C
(iiota_C \(Interval\)) 131.68 187.96 11 /Helvetica-Bold SBC
grestore
gsave
1.0 1.0 scale
newpath 0 0 moveto 576 0 lineto 576 432 lineto 0 432 lineto
closepath clip
1 1 1 C
243.355 177.96 354.188 47.52 243.355 47.52 T
243.355 177.96 354.188 177.96 354.188 47.52 T
0.5 W
0.15 0.15 0.15 C
258.643 47.52 LS
258.643 48.8288 LE
258.643 177.96 LS
258.643 176.651 LE
277.752 47.52 LS
277.752 48.8288 LE
277.752 177.96 LS
277.752 176.651 LE
296.861 47.52 LS
296.861 48.8288 LE
296.861 177.96 LS
296.861 176.651 LE
315.97 47.52 LS
315.97 48.8288 LE
315.97 177.96 LS
315.97 176.651 LE
335.079 47.52 LS
335.079 48.8288 LE
335.079 177.96 LS
335.079 176.651 LE
354.188 47.52 LS
354.188 48.8288 LE
354.188 177.96 LS
354.188 176.651 LE
0.14902 0.14902 0.14902 C
(5000) 258.643 42.5031 10 /Helvetica STC
(10000) 277.752 42.5031 10 /Helvetica STC
(15000) 296.861 42.5031 10 /Helvetica STC
(20000) 315.97 42.5031 10 /Helvetica STC
(25000) 335.079 42.5031 10 /Helvetica STC
(30000) 354.188 42.5031 10 /Helvetica STC
0.15 0.15 0.15 C
243.355 47.52 LS
244.658 47.52 LE
354.188 47.52 LS
352.886 47.52 LE
243.355 69.26 LS
244.658 69.26 LE
354.188 69.26 LS
352.886 69.26 LE
243.355 91 LS
244.658 91 LE
354.188 91 LS
352.886 91 LE
243.355 112.74 LS
244.658 112.74 LE
354.188 112.74 LS
352.886 112.74 LE
243.355 134.48 LS
244.658 134.48 LE
354.188 134.48 LS
352.886 134.48 LE
243.355 156.22 LS
244.658 156.22 LE
354.188 156.22 LS
352.886 156.22 LE
243.355 177.96 LS
244.658 177.96 LE
354.188 177.96 LS
352.886 177.96 LE
0.14902 0.14902 0.14902 C
(0) 238.363 47.52 10 /Helvetica SCR
(0.005) 238.363 69.26 10 /Helvetica SCR
(0.01) 238.363 91 10 /Helvetica SCR
(0.015) 238.363 112.74 10 /Helvetica SCR
(0.02) 238.363 134.48 10 /Helvetica SCR
(0.025) 238.363 156.22 10 /Helvetica SCR
(0.03) 238.363 177.96 10 /Helvetica SCR
[16 0] 0 setdash
0.15 0.15 0.15 C
243.355 47.52 LS
354.188 47.52 LE
243.355 177.96 LS
354.188 177.96 LE
243.355 47.52 LS
243.355 177.96 LE
354.188 47.52 LS
354.188 177.96 LE
[] 0 setdash
0 0 1 C
243.355 172.708 LS
244.464 172.68 L
245.572 172.662 L
246.68 172.65 L
247.789 172.641 L
248.897 172.634 L
250.005 172.629 L
251.114 172.625 L
252.222 172.621 L
253.33 172.618 L
254.439 172.615 L
255.547 172.613 L
256.655 172.611 L
257.764 172.61 L
258.872 172.608 L
259.98 172.607 L
261.089 172.605 L
262.197 172.604 L
263.305 172.603 L
264.414 172.603 L
265.522 172.602 L
266.63 172.601 L
267.739 172.6 L
268.847 172.6 L
269.955 172.599 L
271.064 172.598 L
272.172 172.598 L
273.28 172.597 L
274.389 172.597 L
275.497 172.597 L
276.605 172.596 L
277.714 172.596 L
278.822 172.595 L
279.93 172.595 L
281.039 172.595 L
282.147 172.595 L
283.255 172.594 L
284.364 172.594 L
285.472 172.594 L
286.58 172.593 L
287.689 172.593 L
288.797 172.593 L
289.905 172.593 L
291.014 172.593 L
292.122 172.592 L
293.23 172.592 L
294.339 172.592 L
295.447 172.592 L
296.555 172.592 L
297.664 172.592 L
298.772 172.591 L
299.88 172.591 L
300.989 172.591 L
302.097 172.591 L
303.205 172.591 L
304.314 172.591 L
305.422 172.591 L
306.53 172.59 L
307.639 172.59 L
308.747 172.59 L
309.855 172.59 L
310.964 172.59 L
312.072 172.59 L
313.18 172.59 L
314.289 172.59 L
315.397 172.59 L
316.505 172.59 L
317.613 172.589 L
318.722 172.589 L
319.83 172.589 L
320.938 172.589 L
322.047 172.589 L
323.155 172.589 L
324.263 172.589 L
325.372 172.589 L
326.48 172.589 L
327.588 172.589 L
328.697 172.589 L
329.805 172.589 L
330.913 172.589 L
332.022 172.588 L
333.13 172.588 L
334.238 172.588 L
335.347 172.588 L
336.455 172.588 L
337.563 172.588 L
338.672 172.588 L
339.78 172.588 L
340.888 172.588 L
341.997 172.588 L
343.105 172.588 L
344.213 172.588 L
345.322 172.588 L
346.43 172.588 L
347.538 172.588 L
348.647 172.588 L
349.755 172.588 L
350.863 172.588 L
351.972 172.588 L
353.08 172.588 L
354.188 172.587 LE
1 0 0 C
243.355 47.52 LS
244.464 47.52 L
245.572 47.52 L
246.68 47.52 L
247.789 47.52 L
248.897 47.52 L
250.005 47.52 L
251.114 47.52 L
252.222 47.52 L
253.33 47.52 L
254.439 47.52 L
255.547 47.52 L
256.655 47.52 L
257.764 47.52 L
258.872 47.52 L
259.98 47.52 L
261.089 47.52 L
262.197 47.52 L
263.305 47.52 L
264.414 47.52 L
265.522 47.52 L
266.63 47.52 L
267.739 47.52 L
268.847 47.52 L
269.955 47.52 L
271.064 47.52 L
272.172 47.52 L
273.28 47.52 L
274.389 47.52 L
275.497 47.52 L
276.605 47.52 L
277.714 47.52 L
278.822 47.52 L
279.93 47.52 L
281.039 47.52 L
282.147 47.52 L
283.255 47.52 L
284.364 47.52 L
285.472 47.52 L
286.58 47.52 L
287.689 47.52 L
288.797 47.52 L
289.905 47.52 L
291.014 47.52 L
292.122 47.52 L
293.23 47.52 L
294.339 47.52 L
295.447 47.52 L
296.555 47.52 L
297.664 47.52 L
298.772 47.52 L
299.88 47.52 L
300.989 47.52 L
302.097 47.52 L
303.205 47.52 L
304.314 47.52 L
305.422 47.52 L
306.53 47.52 L
307.639 47.52 L
308.747 47.52 L
309.855 47.52 L
310.964 47.52 L
312.072 47.52 L
313.18 47.52 L
314.289 47.52 L
315.397 47.52 L
316.505 47.52 L
317.613 47.52 L
318.722 47.52 L
319.83 47.52 L
320.938 47.52 L
322.047 47.52 L
323.155 47.52 L
324.263 47.52 L
325.372 47.52 L
326.48 47.52 L
327.588 47.52 L
328.697 47.52 L
329.805 47.52 L
330.913 47.52 L
332.022 47.52 L
333.13 47.52 L
334.238 47.52 L
335.347 47.52 L
336.455 47.52 L
337.563 47.52 L
338.672 47.52 L
339.78 47.52 L
340.888 47.52 L
341.997 47.52 L
343.105 47.52 L
344.213 47.52 L
345.322 47.52 L
346.43 47.52 L
347.538 47.52 L
348.647 47.52 L
349.755 47.52 L
350.863 47.52 L
351.972 47.52 L
353.08 47.52 L
354.188 47.52 LE
0 0 0 C
(iiota_C \(m2\)) 298.772 187.96 11 /Helvetica-Bold SBC
grestore
gsave
1.0 1.0 scale
newpath 0 0 moveto 576 0 lineto 576 432 lineto 0 432 lineto
closepath clip
1 1 1 C
410.447 177.96 521.28 47.52 410.447 47.52 T
410.447 177.96 521.28 177.96 521.28 47.52 T
0.5 W
0.15 0.15 0.15 C
425.734 47.52 LS
425.734 48.8288 LE
425.734 177.96 LS
425.734 176.651 LE
444.843 47.52 LS
444.843 48.8288 LE
444.843 177.96 LS
444.843 176.651 LE
463.953 47.52 LS
463.953 48.8288 LE
463.953 177.96 LS
463.953 176.651 LE
483.062 47.52 LS
483.062 48.8288 LE
483.062 177.96 LS
483.062 176.651 LE
502.171 47.52 LS
502.171 48.8288 LE
502.171 177.96 LS
502.171 176.651 LE
521.28 47.52 LS
521.28 48.8288 LE
521.28 177.96 LS
521.28 176.651 LE
0.14902 0.14902 0.14902 C
(5000) 425.734 42.5031 10 /Helvetica STC
(10000) 444.843 42.5031 10 /Helvetica STC
(15000) 463.953 42.5031 10 /Helvetica STC
(20000) 483.062 42.5031 10 /Helvetica STC
(25000) 502.171 42.5031 10 /Helvetica STC
(30000) 521.28 42.5031 10 /Helvetica STC
0.15 0.15 0.15 C
410.447 47.52 LS
411.749 47.52 LE
521.28 47.52 LS
519.978 47.52 LE
410.447 73.608 LS
411.749 73.608 LE
521.28 73.608 LS
519.978 73.608 LE
410.447 99.696 LS
411.749 99.696 LE
521.28 99.696 LS
519.978 99.696 LE
410.447 125.784 LS
411.749 125.784 LE
521.28 125.784 LS
519.978 125.784 LE
410.447 151.872 LS
411.749 151.872 LE
521.28 151.872 LS
519.978 151.872 LE
410.447 177.96 LS
411.749 177.96 LE
521.28 177.96 LS
519.978 177.96 LE
0.14902 0.14902 0.14902 C
(0) 405.455 47.52 10 /Helvetica SCR
(0.001) 405.455 73.608 10 /Helvetica SCR
(0.002) 405.455 99.696 10 /Helvetica SCR
(0.003) 405.455 125.784 10 /Helvetica SCR
(0.004) 405.455 151.872 10 /Helvetica SCR
(0.005) 405.455 177.96 10 /Helvetica SCR
[16 0] 0 setdash
0.15 0.15 0.15 C
410.447 47.52 LS
521.28 47.52 LE
410.447 177.96 LS
521.28 177.96 LE
410.447 47.52 LS
410.447 177.96 LE
521.28 47.52 LS
521.28 177.96 LE
[] 0 setdash
0 0 1 C
410.447 174.91 LS
411.555 174.881 L
412.664 174.863 L
413.772 174.851 L
414.88 174.842 L
415.989 174.835 L
417.097 174.829 L
418.205 174.825 L
419.314 174.821 L
420.422 174.818 L
421.53 174.815 L
422.639 174.813 L
423.747 174.811 L
424.855 174.809 L
425.964 174.808 L
427.072 174.807 L
428.18 174.805 L
429.289 174.804 L
430.397 174.803 L
431.505 174.802 L
432.614 174.801 L
433.722 174.801 L
434.83 174.8 L
435.939 174.799 L
437.047 174.799 L
438.155 174.798 L
439.264 174.798 L
440.372 174.797 L
441.48 174.797 L
442.589 174.796 L
443.697 174.796 L
444.805 174.796 L
445.914 174.795 L
447.022 174.795 L
448.13 174.794 L
449.239 174.794 L
450.347 174.794 L
451.455 174.794 L
452.564 174.793 L
453.672 174.793 L
454.78 174.793 L
455.889 174.793 L
456.997 174.792 L
458.105 174.792 L
459.214 174.792 L
460.322 174.792 L
461.43 174.792 L
462.539 174.791 L
463.647 174.791 L
464.755 174.791 L
465.863 174.791 L
466.972 174.791 L
468.08 174.791 L
469.188 174.791 L
470.297 174.79 L
471.405 174.79 L
472.513 174.79 L
473.622 174.79 L
474.73 174.79 L
475.838 174.79 L
476.947 174.79 L
478.055 174.79 L
479.163 174.789 L
480.272 174.789 L
481.38 174.789 L
482.488 174.789 L
483.597 174.789 L
484.705 174.789 L
485.813 174.789 L
486.922 174.789 L
488.03 174.789 L
489.138 174.789 L
490.247 174.789 L
491.355 174.789 L
492.463 174.788 L
493.572 174.788 L
494.68 174.788 L
495.788 174.788 L
496.897 174.788 L
498.005 174.788 L
499.113 174.788 L
500.222 174.788 L
501.33 174.788 L
502.438 174.788 L
503.547 174.788 L
504.655 174.788 L
505.763 174.788 L
506.872 174.788 L
507.98 174.788 L
509.088 174.788 L
510.197 174.787 L
511.305 174.787 L
512.413 174.787 L
513.522 174.787 L
514.63 174.787 L
515.738 174.787 L
516.847 174.787 L
517.955 174.787 L
519.063 174.787 L
520.172 174.787 L
521.28 174.787 LE
1 0 0 C
410.447 47.52 LS
411.555 47.52 L
412.664 47.52 L
413.772 47.52 L
414.88 47.52 L
415.989 47.52 L
417.097 47.52 L
418.205 47.52 L
419.314 47.52 L
420.422 47.52 L
421.53 47.52 L
422.639 47.52 L
423.747 47.52 L
424.855 47.52 L
425.964 47.52 L
427.072 47.52 L
428.18 47.52 L
429.289 47.52 L
430.397 47.52 L
431.505 47.52 L
432.614 47.52 L
433.722 47.52 L
434.83 47.52 L
435.939 47.52 L
437.047 47.52 L
438.155 47.52 L
439.264 47.52 L
440.372 47.52 L
441.48 47.52 L
442.589 47.52 L
443.697 47.52 L
444.805 47.52 L
445.914 47.52 L
447.022 47.52 L
448.13 47.52 L
449.239 47.52 L
450.347 47.52 L
451.455 47.52 L
452.564 47.52 L
453.672 47.52 L
454.78 47.52 L
455.889 47.52 L
456.997 47.52 L
458.105 47.52 L
459.214 47.52 L
460.322 47.52 L
461.43 47.52 L
462.539 47.52 L
463.647 47.52 L
464.755 47.52 L
465.863 47.52 L
466.972 47.52 L
468.08 47.52 L
469.188 47.52 L
470.297 47.52 L
471.405 47.52 L
472.513 47.52 L
473.622 47.52 L
474.73 47.52 L
475.838 47.52 L
476.947 47.52 L
478.055 47.52 L
479.163 47.52 L
480.272 47.52 L
481.38 47.52 L
482.488 47.52 L
483.597 47.52 L
484.705 47.52 L
485.813 47.52 L
486.922 47.52 L
488.03 47.52 L
489.138 47.52 L
490.247 47.52 L
491.355 47.52 L
492.463 47.52 L
493.572 47.52 L
494.68 47.52 L
495.788 47.52 L
496.897 47.52 L
498.005 47.52 L
499.113 47.52 L
500.222 47.52 L
501.33 47.52 L
502.438 47.52 L
503.547 47.52 L
504.655 47.52 L
505.763 47.52 L
506.872 47.52 L
507.98 47.52 L
509.088 47.52 L
510.197 47.52 L
511.305 47.52 L
512.413 47.52 L
513.522 47.52 L
514.63 47.52 L
515.738 47.52 L
516.847 47.52 L
517.955 47.52 L
519.063 47.52 L
520.172 47.52 L
521.28 47.52 LE
0 0 0 C
(iiota_C \(m3\)) 465.863 187.96 11 /Helvetica-Bold SBC
grestore
grestore
showpage
cleartomark
%%PageTrailer
%%Trailer
end
%%EOF
