%!PS-Adobe-3.0 EPSF-3.0
%%Title: gl2ps_renderer figure
%%Creator: GL2PS 1.4.2, (C) 1999-2020 C. Geuzaine
%%For: Octave
%%CreationDate: Wed Oct  7 04:42:24 2020
%%LanguageLevel: 3
%%DocumentData: Clean7Bit
%%Pages: 1
%%BoundingBox: 0 0 576 432
%%EndComments
%%BeginProlog
/gl2psdict 64 dict def gl2psdict begin
/tryPS3shading false def % set to false to force subdivision
/rThreshold 0.064 def % red component subdivision threshold
/gThreshold 0.034 def % green component subdivision threshold
/bThreshold 0.1 def % blue component subdivision threshold
/BD { bind def } bind def
/C  { setrgbcolor } BD
/G  { 0.082 mul exch 0.6094 mul add exch 0.3086 mul add neg 1.0 add setgray } BD
/W  { setlinewidth } BD
/LC  { setlinecap } BD
/LJ  { setlinejoin } BD
/FC { findfont exch /SH exch def SH scalefont setfont } BD
/SW { dup stringwidth pop } BD
/S  { FC moveto show } BD
/SBC{ FC moveto SW -2 div 0 rmoveto show } BD
/SBR{ FC moveto SW neg 0 rmoveto show } BD
/SCL{ FC moveto 0 SH -2 div rmoveto show } BD
/SCC{ FC moveto SW -2 div SH -2 div rmoveto show } BD
/SCR{ FC moveto SW neg SH -2 div rmoveto show } BD
/STL{ FC moveto 0 SH neg rmoveto show } BD
/STC{ FC moveto SW -2 div SH neg rmoveto show } BD
/STR{ FC moveto SW neg SH neg rmoveto show } BD
/FCT { FC translate 0 0 } BD
/SR  { gsave FCT moveto rotate show grestore } BD
/SRX  { gsave FCT moveto rotate xshow grestore } BD
/SBCR{ gsave FCT moveto rotate SW -2 div 0 rmoveto show grestore } BD
/SBRR{ gsave FCT moveto rotate SW neg 0 rmoveto show grestore } BD
/SCLR{ gsave FCT moveto rotate 0 SH -2 div rmoveto show grestore} BD
/SCCR{ gsave FCT moveto rotate SW -2 div SH -2 div rmoveto show grestore} BD
/SCRR{ gsave FCT moveto rotate SW neg SH -2 div rmoveto show grestore} BD
/STLR{ gsave FCT moveto rotate 0 SH neg rmoveto show grestore } BD
/STCR{ gsave FCT moveto rotate SW -2 div SH neg rmoveto show grestore } BD
/STRR{ gsave FCT moveto rotate SW neg SH neg rmoveto show grestore } BD
/P  { newpath 0.0 360.0 arc closepath fill } BD
/LS { newpath moveto } BD
/L  { lineto } BD
/LE { lineto stroke } BD
/T  { newpath moveto lineto lineto closepath fill } BD
/STshfill {
      /b1 exch def /g1 exch def /r1 exch def /y1 exch def /x1 exch def
      /b2 exch def /g2 exch def /r2 exch def /y2 exch def /x2 exch def
      /b3 exch def /g3 exch def /r3 exch def /y3 exch def /x3 exch def
      gsave << /ShadingType 4 /ColorSpace [/DeviceRGB]
      /DataSource [ 0 x1 y1 r1 g1 b1 0 x2 y2 r2 g2 b2 0 x3 y3 r3 g3 b3 ] >>
      shfill grestore } BD
/Tm { 3 -1 roll 8 -1 roll 13 -1 roll add add 3 div
      3 -1 roll 7 -1 roll 11 -1 roll add add 3 div
      3 -1 roll 6 -1 roll 9 -1 roll add add 3 div C T } BD
/STsplit {
      4 index 15 index add 0.5 mul
      4 index 15 index add 0.5 mul
      4 index 15 index add 0.5 mul
      4 index 15 index add 0.5 mul
      4 index 15 index add 0.5 mul
      5 copy 5 copy 25 15 roll
      9 index 30 index add 0.5 mul
      9 index 30 index add 0.5 mul
      9 index 30 index add 0.5 mul
      9 index 30 index add 0.5 mul
      9 index 30 index add 0.5 mul
      5 copy 5 copy 35 5 roll 25 5 roll 15 5 roll
      4 index 10 index add 0.5 mul
      4 index 10 index add 0.5 mul
      4 index 10 index add 0.5 mul
      4 index 10 index add 0.5 mul
      4 index 10 index add 0.5 mul
      5 copy 5 copy 40 5 roll 25 5 roll 15 5 roll 25 5 roll
      STnoshfill STnoshfill STnoshfill STnoshfill } BD
/STnoshfill {
      2 index 8 index sub abs rThreshold gt
      { STsplit }
      { 1 index 7 index sub abs gThreshold gt
        { STsplit }
        { dup 6 index sub abs bThreshold gt
          { STsplit }
          { 2 index 13 index sub abs rThreshold gt
            { STsplit }
            { 1 index 12 index sub abs gThreshold gt
              { STsplit }
              { dup 11 index sub abs bThreshold gt
                { STsplit }
                { 7 index 13 index sub abs rThreshold gt
                  { STsplit }
                  { 6 index 12 index sub abs gThreshold gt
                    { STsplit }
                    { 5 index 11 index sub abs bThreshold gt
                      { STsplit }
                      { Tm }
                      ifelse }
                    ifelse }
                  ifelse }
                ifelse }
              ifelse }
            ifelse }
          ifelse }
        ifelse }
      ifelse } BD
tryPS3shading
{ /shfill where
  { /ST { STshfill } BD }
  { /ST { STnoshfill } BD }
  ifelse }
{ /ST { STnoshfill } BD }
ifelse
end
%%EndProlog
%%BeginSetup
/DeviceRGB setcolorspace
gl2psdict begin
%%EndSetup
%%Page: 1 1
%%BeginPageSetup
%%EndPageSetup
mark
gsave
1.0 1.0 scale
1 1 1 C
newpath 0 0 moveto 576 0 lineto 576 432 lineto 0 432 lineto
closepath fill
gsave
1.0 1.0 scale
1 1 1 C
newpath 0 0 moveto 576 0 lineto 576 432 lineto 0 432 lineto
closepath fill
newpath 0 0 moveto 576 0 lineto 576 432 lineto 0 432 lineto
closepath clip
1 1 1 C
77.2594 385.841 187.093 312.427 77.2594 312.427 T
77.2594 385.841 187.093 385.841 187.093 312.427 T
0.5 W
0.15 0.15 0.15 C
99.2173 312.427 LS
99.2173 313.532 LE
99.2173 385.841 LS
99.2173 384.736 LE
121.186 312.427 LS
121.186 313.532 LE
121.186 385.841 LS
121.186 384.736 LE
143.155 312.427 LS
143.155 313.532 LE
143.155 385.841 LS
143.155 384.736 LE
165.124 312.427 LS
165.124 313.532 LE
165.124 385.841 LS
165.124 384.736 LE
187.093 312.427 LS
187.093 313.532 LE
187.093 385.841 LS
187.093 384.736 LE
gsave
0.14902 0.14902 0.14902 C
(2e+06) [6 5 6 6 10] 0 84.7173 296.885 10 /Helvetica SRX
grestore

gsave
0.14902 0.14902 0.14902 C
(4e+06) [6 5 6 6 10] 0 106.686 296.885 10 /Helvetica SRX
grestore

gsave
0.14902 0.14902 0.14902 C
(6e+06) [6 5 6 6 10] 0 128.655 296.885 10 /Helvetica SRX
grestore

gsave
0.14902 0.14902 0.14902 C
(8e+06) [6 5 6 6 10] 0 150.624 296.885 10 /Helvetica SRX
grestore

gsave
0.14902 0.14902 0.14902 C
(1e+07) [6 5 6 6 10] 0 172.593 296.885 10 /Helvetica SRX
grestore

77.2594 312.427 LS
78.3561 312.427 LE
187.093 312.427 LS
185.996 312.427 LE
77.2594 327.11 LS
78.3561 327.11 LE
187.093 327.11 LS
185.996 327.11 LE
77.2594 341.793 LS
78.3561 341.793 LE
187.093 341.793 LS
185.996 341.793 LE
77.2594 356.475 LS
78.3561 356.475 LE
187.093 356.475 LS
185.996 356.475 LE
77.2594 371.158 LS
78.3561 371.158 LE
187.093 371.158 LS
185.996 371.158 LE
77.2594 385.841 LS
78.3561 385.841 LE
187.093 385.841 LS
185.996 385.841 LE
gsave
0.14902 0.14902 0.14902 C
(0.008) [6 3 6 6 10] 0 45.267 308.427 10 /Helvetica SRX
grestore

gsave
0.14902 0.14902 0.14902 C
(0.01) [6 3 6 10] 0 51.267 323.11 10 /Helvetica SRX
grestore

gsave
0.14902 0.14902 0.14902 C
(0.012) [6 3 6 6 10] 0 45.267 337.793 10 /Helvetica SRX
grestore

gsave
0.14902 0.14902 0.14902 C
(0.014) [6 3 6 6 10] 0 45.267 352.475 10 /Helvetica SRX
grestore

gsave
0.14902 0.14902 0.14902 C
(0.016) [6 3 6 6 10] 0 45.267 367.158 10 /Helvetica SRX
grestore

gsave
0.14902 0.14902 0.14902 C
(0.018) [6 3 6 6 10] 0 45.267 381.841 10 /Helvetica SRX
grestore

2 LC
[16 0] 0 setdash
77.2594 312.427 LS
187.093 312.427 LE
77.2594 385.841 LS
187.093 385.841 LE
77.2594 312.427 LS
77.2594 385.841 LE
187.093 312.427 LS
187.093 385.841 LE
gsave
0 0 0 C
(rrho_AT \(Interval\)) [4 4 7 7 6 8 7 3 4 3 7 4 6 4 6 6 3 10] 0 85.676 398.841 11 /Helvetica-Bold SRX
grestore

0 LC
1 LJ
[] 0 setdash
0 0 1 C
77.2594 325.82 LS
78.3577 342.18 L
79.4561 368.909 L
80.5544 368.115 L
81.6527 368.484 L
82.7511 366.364 L
83.8494 360.61 L
84.9477 360.12 L
86.0461 363.058 L
87.1444 382.207 L
88.2427 385.125 L
89.3411 379.087 L
90.4394 378.414 L
91.5377 363.997 L
92.636 364.816 L
93.7344 363.453 L
94.8327 364.462 L
95.9311 360.2 L
97.0294 355.017 L
98.1277 356.246 L
99.226 359.315 L
100.324 356.947 L
101.423 361.172 L
102.521 363.186 L
103.619 363.734 L
104.718 363.751 L
105.816 363.218 L
106.914 362.27 L
108.013 360.967 L
109.111 361.206 L
110.209 361.136 L
111.308 359.493 L
112.406 358.711 L
113.504 359.829 L
114.603 358.647 L
115.701 356.128 L
116.799 353.685 L
117.898 352.519 L
118.996 349.974 L
120.094 348.707 L
121.193 348.627 L
122.291 349.816 L
123.389 353.364 L
124.488 356.431 L
125.586 356.593 L
126.684 357.372 L
127.783 359.013 L
128.881 359.829 L
129.979 358.761 L
131.078 360.071 L
132.176 361.017 L
133.274 360.536 L
134.373 359.863 L
135.471 359.94 L
136.569 358.033 L
137.668 359.544 L
138.766 359.763 L
139.864 361.009 L
140.963 360.003 L
142.061 361.651 L
143.159 364.685 L
144.258 365.371 L
145.356 365.091 L
146.454 363.986 L
147.553 363.625 L
148.651 362.586 L
149.749 360.802 L
150.848 360.428 L
151.946 358.728 L
153.044 357.545 L
154.143 356.663 L
155.241 356.178 L
156.339 356.509 L
157.438 357.535 L
158.536 358.958 L
159.634 356.818 L
160.733 355.225 L
161.831 355.726 L
162.929 357.508 L
164.028 357.624 L
165.126 357.69 L
166.224 359.133 L
167.323 358.924 L
168.421 358.903 L
169.519 360.672 L
170.618 361.609 L
171.716 362.284 L
172.814 362.991 L
173.913 364.921 L
175.011 363.841 L
176.109 363.283 L
177.208 362.548 L
178.306 361.809 L
179.404 361.133 L
180.503 361.446 L
181.601 361.423 L
182.699 361.329 L
183.798 361.003 L
184.896 362.419 L
185.994 362.853 L
187.093 362.732 LE
1 0 0 C
77.2594 314.108 LS
78.3577 342.263 L
79.4561 367.082 L
80.5544 367.365 L
81.6527 368.627 L
82.7511 365.836 L
83.8494 360.614 L
84.9477 359.618 L
86.0461 362.413 L
87.1444 378.276 L
88.2427 381.315 L
89.3411 378.239 L
90.4394 378.332 L
91.5377 363.252 L
92.636 363.834 L
93.7344 362.459 L
94.8327 363.546 L
95.9311 359.538 L
97.0294 355.115 L
98.1277 356.241 L
99.226 359.243 L
100.324 356.994 L
101.423 361.152 L
102.521 363.193 L
103.619 363.713 L
104.718 363.899 L
105.816 363.374 L
106.914 362.383 L
108.013 360.942 L
109.111 361.246 L
110.209 360.898 L
111.308 359.534 L
112.406 358.741 L
113.504 359.613 L
114.603 358.466 L
115.701 355.974 L
116.799 353.693 L
117.898 352.528 L
118.996 349.977 L
120.094 348.808 L
121.193 348.73 L
122.291 349.791 L
123.389 353.393 L
124.488 356.4 L
125.586 356.625 L
126.684 357.43 L
127.783 359.054 L
128.881 359.832 L
129.979 358.845 L
131.078 360.179 L
132.176 361.125 L
133.274 360.515 L
134.373 359.884 L
135.471 359.903 L
136.569 358.076 L
137.668 359.519 L
138.766 359.742 L
139.864 361.023 L
140.963 360.057 L
142.061 361.664 L
143.159 364.684 L
144.258 365.33 L
145.356 364.977 L
146.454 363.861 L
147.553 363.512 L
148.651 362.402 L
149.749 360.732 L
150.848 360.413 L
151.946 358.741 L
153.044 357.546 L
154.143 356.684 L
155.241 356.191 L
156.339 356.487 L
157.438 357.511 L
158.536 358.992 L
159.634 356.837 L
160.733 355.248 L
161.831 355.723 L
162.929 357.476 L
164.028 357.599 L
165.126 357.657 L
166.224 359.121 L
167.323 358.905 L
168.421 358.852 L
169.519 360.665 L
170.618 361.583 L
171.716 362.236 L
172.814 362.948 L
173.913 364.864 L
175.011 363.76 L
176.109 363.162 L
177.208 362.412 L
178.306 361.689 L
179.404 361.083 L
180.503 361.376 L
181.601 361.403 L
182.699 361.288 L
183.798 360.976 L
184.896 362.392 L
185.994 362.835 L
187.093 362.684 LE
grestore
gsave
1.0 1.0 scale
newpath 0 0 moveto 576 0 lineto 576 432 lineto 0 432 lineto
closepath clip
1 1 1 C
244.353 385.841 354.186 312.427 244.353 312.427 T
244.353 385.841 354.186 385.841 354.186 312.427 T
0.5 W
0.15 0.15 0.15 C
266.311 312.427 LS
266.311 313.532 LE
266.311 385.841 LS
266.311 384.736 LE
288.28 312.427 LS
288.28 313.532 LE
288.28 385.841 LS
288.28 384.736 LE
310.249 312.427 LS
310.249 313.532 LE
310.249 385.841 LS
310.249 384.736 LE
332.217 312.427 LS
332.217 313.532 LE
332.217 385.841 LS
332.217 384.736 LE
354.186 312.427 LS
354.186 313.532 LE
354.186 385.841 LS
354.186 384.736 LE
gsave
0.14902 0.14902 0.14902 C
(2e+06) [6 5 6 6 10] 0 251.811 296.885 10 /Helvetica SRX
grestore

gsave
0.14902 0.14902 0.14902 C
(4e+06) [6 5 6 6 10] 0 273.78 296.885 10 /Helvetica SRX
grestore

gsave
0.14902 0.14902 0.14902 C
(6e+06) [6 5 6 6 10] 0 295.749 296.885 10 /Helvetica SRX
grestore

gsave
0.14902 0.14902 0.14902 C
(8e+06) [6 5 6 6 10] 0 317.717 296.885 10 /Helvetica SRX
grestore

gsave
0.14902 0.14902 0.14902 C
(1e+07) [6 5 6 6 10] 0 339.686 296.885 10 /Helvetica SRX
grestore

244.353 312.427 LS
245.45 312.427 LE
354.186 312.427 LS
353.09 312.427 LE
244.353 324.663 LS
245.45 324.663 LE
354.186 324.663 LS
353.09 324.663 LE
244.353 336.898 LS
245.45 336.898 LE
354.186 336.898 LS
353.09 336.898 LE
244.353 349.134 LS
245.45 349.134 LE
354.186 349.134 LS
353.09 349.134 LE
244.353 361.37 LS
245.45 361.37 LE
354.186 361.37 LS
353.09 361.37 LE
244.353 373.605 LS
245.45 373.605 LE
354.186 373.605 LS
353.09 373.605 LE
244.353 385.841 LS
245.45 385.841 LE
354.186 385.841 LS
353.09 385.841 LE
gsave
0.14902 0.14902 0.14902 C
(0) [10] 0 233.361 308.427 10 /Helvetica SRX
grestore

gsave
0.14902 0.14902 0.14902 C
(1e-05) [6 5 3 6 10] 0 213.361 320.663 10 /Helvetica SRX
grestore

gsave
0.14902 0.14902 0.14902 C
(2e-05) [6 5 3 6 10] 0 213.361 332.898 10 /Helvetica SRX
grestore

gsave
0.14902 0.14902 0.14902 C
(3e-05) [6 5 3 6 10] 0 213.361 345.134 10 /Helvetica SRX
grestore

gsave
0.14902 0.14902 0.14902 C
(4e-05) [6 5 3 6 10] 0 213.361 357.37 10 /Helvetica SRX
grestore

gsave
0.14902 0.14902 0.14902 C
(5e-05) [6 5 3 6 10] 0 213.361 369.605 10 /Helvetica SRX
grestore

gsave
0.14902 0.14902 0.14902 C
(6e-05) [6 5 3 6 10] 0 213.361 381.841 10 /Helvetica SRX
grestore

2 LC
[16 0] 0 setdash
244.353 312.427 LS
354.186 312.427 LE
244.353 385.841 LS
354.186 385.841 LE
244.353 312.427 LS
244.353 385.841 LE
354.186 312.427 LS
354.186 385.841 LE
gsave
0 0 0 C
(rrho_AT \(m2\)) [4 4 7 7 6 8 7 3 4 10 6 10] 0 264.27 398.841 11 /Helvetica-Bold SRX
grestore

0 LC
1 LJ
[] 0 setdash
0 0 1 C
244.353 329.883 LS
245.451 343.184 L
246.55 361.682 L
247.648 365.378 L
248.746 369.257 L
249.845 358.799 L
250.943 356.65 L
252.041 356.81 L
253.14 367.366 L
254.238 382.15 L
255.336 380.408 L
256.435 382.159 L
257.533 380.961 L
258.631 362.599 L
259.73 365.258 L
260.828 364.569 L
261.926 364.715 L
263.025 358.066 L
264.123 355.074 L
265.221 354.842 L
266.32 359.13 L
267.418 357.804 L
268.516 362.473 L
269.615 363.906 L
270.713 364.251 L
271.811 362.03 L
272.91 362.043 L
274.008 360.695 L
275.106 360.809 L
276.205 360.795 L
277.303 360.653 L
278.401 359.158 L
279.5 358.223 L
280.598 359.316 L
281.696 357.879 L
282.795 355.033 L
283.893 353.023 L
284.991 352.003 L
286.09 349.968 L
287.188 348.491 L
288.286 348.434 L
289.385 351.768 L
290.483 355.654 L
291.581 358.02 L
292.68 357.764 L
293.778 358.152 L
294.876 359.44 L
295.975 359.91 L
297.073 359.024 L
298.171 360.387 L
299.27 360.91 L
300.368 359.137 L
301.466 358.157 L
302.565 357.946 L
303.663 356.377 L
304.761 357.996 L
305.86 357.991 L
306.958 358.815 L
308.056 358.381 L
309.155 360.312 L
310.253 362.749 L
311.351 363.924 L
312.45 363.514 L
313.548 362.53 L
314.646 362.047 L
315.745 361.067 L
316.843 359.781 L
317.941 359.605 L
319.04 358.23 L
320.138 357.204 L
321.236 356.667 L
322.335 356.238 L
323.433 356.544 L
324.531 357.197 L
325.63 357.655 L
326.728 355.651 L
327.826 353.499 L
328.925 353.661 L
330.023 355.423 L
331.121 355.517 L
332.22 355.593 L
333.318 357.089 L
334.416 357.185 L
335.515 357.198 L
336.613 358.815 L
337.711 359.733 L
338.81 360.241 L
339.908 361.089 L
341.006 363.296 L
342.105 362.612 L
343.203 361.955 L
344.301 361.561 L
345.4 360.924 L
346.498 360.744 L
347.596 360.971 L
348.695 360.955 L
349.793 360.885 L
350.891 360.602 L
351.99 361.889 L
353.088 362.318 L
354.186 361.973 LE
1 0 0 C
244.353 323.937 LS
245.451 343.181 L
246.55 360.914 L
247.648 364.997 L
248.746 368.881 L
249.845 358.459 L
250.943 356.647 L
252.041 356.326 L
253.14 366.083 L
254.238 379.3 L
255.336 376.066 L
256.435 379.455 L
257.533 379.263 L
258.631 362.339 L
259.73 365.06 L
260.828 364.108 L
261.926 364.111 L
263.025 357.775 L
264.123 354.982 L
265.221 354.814 L
266.32 359.13 L
267.418 357.779 L
268.516 362.464 L
269.615 363.893 L
270.713 364.237 L
271.811 362.026 L
272.91 362.043 L
274.008 360.674 L
275.106 360.799 L
276.205 360.786 L
277.303 360.576 L
278.401 359.028 L
279.5 358.144 L
280.598 359.132 L
281.696 357.74 L
282.795 354.997 L
283.893 352.996 L
284.991 352.002 L
286.09 349.967 L
287.188 348.45 L
288.286 348.403 L
289.385 351.761 L
290.483 355.653 L
291.581 358.02 L
292.68 357.762 L
293.778 358.144 L
294.876 359.411 L
295.975 359.889 L
297.073 358.909 L
298.171 360.251 L
299.27 360.84 L
300.368 359.127 L
301.466 358.157 L
302.565 357.924 L
303.663 356.362 L
304.761 357.985 L
305.86 357.988 L
306.958 358.806 L
308.056 358.37 L
309.155 360.311 L
310.253 362.748 L
311.351 363.922 L
312.45 363.488 L
313.548 362.496 L
314.646 362.022 L
315.745 361.017 L
316.843 359.768 L
317.941 359.603 L
319.04 358.226 L
320.138 357.202 L
321.236 356.666 L
322.335 356.238 L
323.433 356.544 L
324.531 357.196 L
325.63 357.654 L
326.728 355.651 L
327.826 353.499 L
328.925 353.661 L
330.023 355.421 L
331.121 355.514 L
332.22 355.589 L
333.318 357.086 L
334.416 357.185 L
335.515 357.187 L
336.613 358.786 L
337.711 359.699 L
338.81 360.207 L
339.908 361.034 L
341.006 363.273 L
342.105 362.589 L
343.203 361.895 L
344.301 361.519 L
345.4 360.9 L
346.498 360.728 L
347.596 360.956 L
348.695 360.947 L
349.793 360.881 L
350.891 360.6 L
351.99 361.887 L
353.088 362.316 L
354.186 361.971 LE
grestore
gsave
1.0 1.0 scale
newpath 0 0 moveto 576 0 lineto 576 432 lineto 0 432 lineto
closepath clip
1 1 1 C
411.447 385.841 521.28 312.427 411.447 312.427 T
411.447 385.841 521.28 385.841 521.28 312.427 T
0.5 W
0.15 0.15 0.15 C
433.405 312.427 LS
433.405 313.532 LE
433.405 385.841 LS
433.405 384.736 LE
455.374 312.427 LS
455.374 313.532 LE
455.374 385.841 LS
455.374 384.736 LE
477.342 312.427 LS
477.342 313.532 LE
477.342 385.841 LS
477.342 384.736 LE
499.311 312.427 LS
499.311 313.532 LE
499.311 385.841 LS
499.311 384.736 LE
521.28 312.427 LS
521.28 313.532 LE
521.28 385.841 LS
521.28 384.736 LE
gsave
0.14902 0.14902 0.14902 C
(2e+06) [6 5 6 6 10] 0 418.905 296.885 10 /Helvetica SRX
grestore

gsave
0.14902 0.14902 0.14902 C
(4e+06) [6 5 6 6 10] 0 440.874 296.885 10 /Helvetica SRX
grestore

gsave
0.14902 0.14902 0.14902 C
(6e+06) [6 5 6 6 10] 0 462.842 296.885 10 /Helvetica SRX
grestore

gsave
0.14902 0.14902 0.14902 C
(8e+06) [6 5 6 6 10] 0 484.811 296.885 10 /Helvetica SRX
grestore

gsave
0.14902 0.14902 0.14902 C
(1e+07) [6 5 6 6 10] 0 506.78 296.885 10 /Helvetica SRX
grestore

411.447 312.427 LS
412.544 312.427 LE
521.28 312.427 LS
520.183 312.427 LE
411.447 324.663 LS
412.544 324.663 LE
521.28 324.663 LS
520.183 324.663 LE
411.447 336.898 LS
412.544 336.898 LE
521.28 336.898 LS
520.183 336.898 LE
411.447 349.134 LS
412.544 349.134 LE
521.28 349.134 LS
520.183 349.134 LE
411.447 361.37 LS
412.544 361.37 LE
521.28 361.37 LS
520.183 361.37 LE
411.447 373.605 LS
412.544 373.605 LE
521.28 373.605 LS
520.183 373.605 LE
411.447 385.841 LS
412.544 385.841 LE
521.28 385.841 LS
520.183 385.841 LE
gsave
0.14902 0.14902 0.14902 C
(0) [10] 0 400.454 308.427 10 /Helvetica SRX
grestore

gsave
0.14902 0.14902 0.14902 C
(2e-07) [6 5 3 6 10] 0 380.454 320.663 10 /Helvetica SRX
grestore

gsave
0.14902 0.14902 0.14902 C
(4e-07) [6 5 3 6 10] 0 380.454 332.898 10 /Helvetica SRX
grestore

gsave
0.14902 0.14902 0.14902 C
(6e-07) [6 5 3 6 10] 0 380.454 345.134 10 /Helvetica SRX
grestore

gsave
0.14902 0.14902 0.14902 C
(8e-07) [6 5 3 6 10] 0 380.454 357.37 10 /Helvetica SRX
grestore

gsave
0.14902 0.14902 0.14902 C
(1e-06) [6 5 3 6 10] 0 380.454 369.605 10 /Helvetica SRX
grestore

gsave
0.14902 0.14902 0.14902 C
(1.2e-06) [6 3 6 5 3 6 10] 0 371.454 381.841 10 /Helvetica SRX
grestore

2 LC
[16 0] 0 setdash
411.447 312.427 LS
521.28 312.427 LE
411.447 385.841 LS
521.28 385.841 LE
411.447 312.427 LS
411.447 385.841 LE
521.28 312.427 LS
521.28 385.841 LE
gsave
0 0 0 C
(rrho_AT \(m3\)) [4 4 7 7 6 8 7 3 4 10 6 10] 0 431.363 398.841 11 /Helvetica-Bold SRX
grestore

0 LC
1 LJ
[] 0 setdash
0 0 1 C
411.447 316.83 LS
412.545 327.29 L
413.644 341.713 L
414.742 347.037 L
415.84 353.736 L
416.939 337.506 L
418.037 338.215 L
419.135 338.486 L
420.234 358.396 L
421.332 369.713 L
422.43 361.143 L
423.529 375.161 L
424.627 372.671 L
425.725 345.715 L
426.823 350.034 L
427.922 349.653 L
429.02 348.409 L
430.118 340.379 L
431.217 338.42 L
432.315 337.636 L
433.413 345.574 L
434.512 344.399 L
435.61 349.016 L
436.708 350.119 L
437.807 350.272 L
438.905 344.567 L
440.003 345.083 L
441.102 343.597 L
442.2 345.621 L
443.298 345.399 L
444.397 345.057 L
445.495 343.67 L
446.593 342.477 L
447.692 343.901 L
448.79 342.103 L
449.888 338.36 L
450.987 336.457 L
452.085 335.444 L
453.183 333.85 L
454.282 332.233 L
455.38 332.243 L
456.478 337.351 L
457.577 341.413 L
458.675 343.246 L
459.773 342.737 L
460.872 342.878 L
461.97 343.896 L
463.068 344.179 L
464.167 343.345 L
465.265 344.795 L
466.363 345.111 L
467.462 342.032 L
468.56 340.814 L
469.658 340.333 L
470.757 339.045 L
471.855 340.588 L
472.953 340.484 L
474.052 340.986 L
475.15 341.03 L
476.248 343.378 L
477.347 345.508 L
478.445 347.31 L
479.543 346.816 L
480.642 345.909 L
481.74 345.23 L
482.838 344.357 L
483.937 343.453 L
485.035 343.364 L
486.133 342.267 L
487.232 341.408 L
488.33 341.082 L
489.428 340.689 L
490.527 340.944 L
491.625 341.202 L
492.723 340.879 L
493.822 338.911 L
494.92 336.085 L
496.018 336.087 L
497.117 337.802 L
498.215 337.897 L
499.313 338.01 L
500.412 339.443 L
501.51 339.684 L
502.608 339.713 L
503.707 341.307 L
504.805 342.287 L
505.903 342.706 L
507.002 343.745 L
508.1 346.331 L
509.198 345.904 L
510.297 345.102 L
511.395 344.969 L
512.493 344.457 L
513.592 344.518 L
514.69 344.671 L
515.788 344.631 L
516.887 344.558 L
517.985 344.254 L
519.083 345.461 L
520.182 345.85 L
521.28 345.392 LE
1 0 0 C
411.447 314.999 LS
412.545 327.278 L
413.644 341.293 L
414.742 346.653 L
415.84 353.09 L
416.939 337.272 L
418.037 338.227 L
419.135 338.013 L
420.234 357.075 L
421.332 367.06 L
422.43 356.647 L
423.529 370.622 L
424.627 369.806 L
425.725 345.652 L
426.823 350.055 L
427.922 349.429 L
429.02 347.873 L
430.118 340.077 L
431.217 338.32 L
432.315 337.601 L
433.413 345.577 L
434.512 344.344 L
435.61 348.984 L
436.708 350.073 L
437.807 350.228 L
438.905 344.563 L
440.003 345.086 L
441.102 343.573 L
442.2 345.593 L
443.298 345.379 L
444.397 344.957 L
445.495 343.47 L
446.593 342.38 L
447.692 343.661 L
448.79 341.889 L
449.888 338.311 L
450.987 336.416 L
452.085 335.441 L
453.183 333.848 L
454.282 332.193 L
455.38 332.21 L
456.478 337.368 L
457.577 341.403 L
458.675 343.242 L
459.773 342.721 L
460.872 342.839 L
461.97 343.808 L
463.068 344.112 L
464.167 343.135 L
465.265 344.566 L
466.363 344.973 L
467.462 342.023 L
468.56 340.814 L
469.658 340.317 L
470.757 339.036 L
471.855 340.582 L
472.953 340.482 L
474.052 340.976 L
475.15 341.006 L
476.248 343.373 L
477.347 345.505 L
478.445 347.309 L
479.543 346.795 L
480.642 345.88 L
481.74 345.209 L
482.838 344.317 L
483.937 343.442 L
485.035 343.363 L
486.133 342.262 L
487.232 341.406 L
488.33 341.08 L
489.428 340.689 L
490.527 340.943 L
491.625 341.198 L
492.723 340.875 L
493.822 338.909 L
494.92 336.085 L
496.018 336.087 L
497.117 337.8 L
498.215 337.894 L
499.313 338.005 L
500.412 339.439 L
501.51 339.684 L
502.608 339.703 L
503.707 341.269 L
504.805 342.25 L
505.903 342.668 L
507.002 343.673 L
508.1 346.318 L
509.198 345.896 L
510.297 345.061 L
511.395 344.947 L
512.493 344.451 L
513.592 344.521 L
514.69 344.672 L
515.788 344.635 L
516.887 344.561 L
517.985 344.258 L
519.083 345.465 L
520.182 345.853 L
521.28 345.395 LE
grestore
gsave
1.0 1.0 scale
newpath 0 0 moveto 576 0 lineto 576 432 lineto 0 432 lineto
closepath clip
1 1 1 C
77.2594 253.387 187.093 179.974 77.2594 179.974 T
77.2594 253.387 187.093 253.387 187.093 179.974 T
0.5 W
0.15 0.15 0.15 C
99.2173 179.974 LS
99.2173 181.078 LE
99.2173 253.387 LS
99.2173 252.282 LE
121.186 179.974 LS
121.186 181.078 LE
121.186 253.387 LS
121.186 252.282 LE
143.155 179.974 LS
143.155 181.078 LE
143.155 253.387 LS
143.155 252.282 LE
165.124 179.974 LS
165.124 181.078 LE
165.124 253.387 LS
165.124 252.282 LE
187.093 179.974 LS
187.093 181.078 LE
187.093 253.387 LS
187.093 252.282 LE
gsave
0.14902 0.14902 0.14902 C
(2e+06) [6 5 6 6 10] 0 84.7173 164.431 10 /Helvetica SRX
grestore

gsave
0.14902 0.14902 0.14902 C
(4e+06) [6 5 6 6 10] 0 106.686 164.431 10 /Helvetica SRX
grestore

gsave
0.14902 0.14902 0.14902 C
(6e+06) [6 5 6 6 10] 0 128.655 164.431 10 /Helvetica SRX
grestore

gsave
0.14902 0.14902 0.14902 C
(8e+06) [6 5 6 6 10] 0 150.624 164.431 10 /Helvetica SRX
grestore

gsave
0.14902 0.14902 0.14902 C
(1e+07) [6 5 6 6 10] 0 172.593 164.431 10 /Helvetica SRX
grestore

77.2594 179.974 LS
78.3561 179.974 LE
187.093 179.974 LS
185.996 179.974 LE
77.2594 192.209 LS
78.3561 192.209 LE
187.093 192.209 LS
185.996 192.209 LE
77.2594 204.445 LS
78.3561 204.445 LE
187.093 204.445 LS
185.996 204.445 LE
77.2594 216.68 LS
78.3561 216.68 LE
187.093 216.68 LS
185.996 216.68 LE
77.2594 228.916 LS
78.3561 228.916 LE
187.093 228.916 LS
185.996 228.916 LE
77.2594 241.151 LS
78.3561 241.151 LE
187.093 241.151 LS
185.996 241.151 LE
77.2594 253.387 LS
78.3561 253.387 LE
187.093 253.387 LS
185.996 253.387 LE
gsave
0.14902 0.14902 0.14902 C
(0.04) [6 3 6 10] 0 51.267 175.974 10 /Helvetica SRX
grestore

gsave
0.14902 0.14902 0.14902 C
(0.06) [6 3 6 10] 0 51.267 188.209 10 /Helvetica SRX
grestore

gsave
0.14902 0.14902 0.14902 C
(0.08) [6 3 6 10] 0 51.267 200.445 10 /Helvetica SRX
grestore

gsave
0.14902 0.14902 0.14902 C
(0.1) [6 3 10] 0 57.267 212.68 10 /Helvetica SRX
grestore

gsave
0.14902 0.14902 0.14902 C
(0.12) [6 3 6 10] 0 51.267 224.916 10 /Helvetica SRX
grestore

gsave
0.14902 0.14902 0.14902 C
(0.14) [6 3 6 10] 0 51.267 237.151 10 /Helvetica SRX
grestore

gsave
0.14902 0.14902 0.14902 C
(0.16) [6 3 6 10] 0 51.267 249.387 10 /Helvetica SRX
grestore

2 LC
[16 0] 0 setdash
77.2594 179.974 LS
187.093 179.974 LE
77.2594 253.387 LS
187.093 253.387 LE
77.2594 179.974 LS
77.2594 253.387 LE
187.093 179.974 LS
187.093 253.387 LE
gsave
0 0 0 C
(rrho_AN \(Interval\)) [4 4 7 7 6 8 8 3 4 3 7 4 6 4 6 6 3 10] 0 85.176 266.387 11 /Helvetica-Bold SRX
grestore

0 LC
1 LJ
[] 0 setdash
0 0 1 C
77.2594 234.917 LS
78.3577 202.448 L
79.4561 211.967 L
80.5544 183.059 L
81.6527 189.878 L
82.7511 210.672 L
83.8494 187.787 L
84.9477 200.898 L
86.0461 194.822 L
87.1444 191.335 L
88.2427 194.267 L
89.3411 191.535 L
90.4394 190.412 L
91.5377 192.564 L
92.636 193.306 L
93.7344 192.417 L
94.8327 195.667 L
95.9311 196.107 L
97.0294 209.613 L
98.1277 211.154 L
99.226 204.885 L
100.324 200.173 L
101.423 189.699 L
102.521 190.114 L
103.619 188.929 L
104.718 188.284 L
105.816 190.337 L
106.914 189.232 L
108.013 190.2 L
109.111 186.008 L
110.209 185.453 L
111.308 189.266 L
112.406 199.038 L
113.504 196.846 L
114.603 196.701 L
115.701 196.897 L
116.799 196.254 L
117.898 195.397 L
118.996 193.861 L
120.094 191.61 L
121.193 186.823 L
122.291 186.962 L
123.389 186.655 L
124.488 184.327 L
125.586 186.101 L
126.684 186.746 L
127.783 188 L
128.881 188.374 L
129.979 187.48 L
131.078 187.05 L
132.176 186.378 L
133.274 187.675 L
134.373 190.296 L
135.471 191.886 L
136.569 194.582 L
137.668 193.452 L
138.766 193.22 L
139.864 191.534 L
140.963 191.416 L
142.061 191.105 L
143.159 190.774 L
144.258 192.297 L
145.356 191.728 L
146.454 191.535 L
147.553 190.176 L
148.651 190.106 L
149.749 190.057 L
150.848 186.551 L
151.946 185.87 L
153.044 185.565 L
154.143 185.18 L
155.241 185.048 L
156.339 184.698 L
157.438 184.428 L
158.536 184.61 L
159.634 184.841 L
160.733 183.281 L
161.831 183.193 L
162.929 183.887 L
164.028 185.163 L
165.126 185.073 L
166.224 184.393 L
167.323 185.9 L
168.421 186.582 L
169.519 187.326 L
170.618 187.692 L
171.716 188.559 L
172.814 188.879 L
173.913 188.492 L
175.011 189.924 L
176.109 190.122 L
177.208 190.22 L
178.306 190.613 L
179.404 190.634 L
180.503 190.212 L
181.601 190.168 L
182.699 190.217 L
183.798 190.261 L
184.896 189.661 L
185.994 188.915 L
187.093 188.091 LE
1 0 0 C
77.2594 192.141 LS
78.3577 197.765 L
79.4561 211.31 L
80.5544 182.92 L
81.6527 188.543 L
82.7511 205.686 L
83.8494 188.519 L
84.9477 198.984 L
86.0461 194.852 L
87.1444 190.882 L
88.2427 194.24 L
89.3411 191.438 L
90.4394 190.337 L
91.5377 192.574 L
92.636 193.327 L
93.7344 192.347 L
94.8327 195.709 L
95.9311 194.39 L
97.0294 202.06 L
98.1277 200.135 L
99.226 198.393 L
100.324 198.705 L
101.423 188.878 L
102.521 189.416 L
103.619 188.849 L
104.718 188.23 L
105.816 190.26 L
106.914 189.201 L
108.013 190.204 L
109.111 185.901 L
110.209 185.39 L
111.308 189.217 L
112.406 202.229 L
113.504 200.012 L
114.603 199.424 L
115.701 199.869 L
116.799 198.932 L
117.898 197.801 L
118.996 196.545 L
120.094 192.629 L
121.193 186.803 L
122.291 186.963 L
123.389 186.601 L
124.488 184.348 L
125.586 186.122 L
126.684 186.748 L
127.783 188.02 L
128.881 188.269 L
129.979 187.446 L
131.078 187.026 L
132.176 186.364 L
133.274 187.705 L
134.373 190.486 L
135.471 192.033 L
136.569 194.77 L
137.668 193.669 L
138.766 193.439 L
139.864 191.714 L
140.963 191.591 L
142.061 191.32 L
143.159 190.974 L
144.258 192.765 L
145.356 192.267 L
146.454 192.03 L
147.553 190.264 L
148.651 190.16 L
149.749 190.119 L
150.848 186.594 L
151.946 185.867 L
153.044 185.526 L
154.143 185.137 L
155.241 185.032 L
156.339 184.705 L
157.438 184.404 L
158.536 184.551 L
159.634 184.861 L
160.733 183.306 L
161.831 183.21 L
162.929 183.902 L
164.028 185.156 L
165.126 185.32 L
166.224 184.645 L
167.323 185.849 L
168.421 186.522 L
169.519 187.233 L
170.618 187.635 L
171.716 188.515 L
172.814 188.823 L
173.913 188.421 L
175.011 189.934 L
176.109 190.083 L
177.208 190.192 L
178.306 190.561 L
179.404 190.598 L
180.503 190.204 L
181.601 190.171 L
182.699 190.23 L
183.798 190.266 L
184.896 189.67 L
185.994 189.016 L
187.093 188.253 LE
grestore
gsave
1.0 1.0 scale
newpath 0 0 moveto 576 0 lineto 576 432 lineto 0 432 lineto
closepath clip
1 1 1 C
244.353 253.387 354.186 179.974 244.353 179.974 T
244.353 253.387 354.186 253.387 354.186 179.974 T
0.5 W
0.15 0.15 0.15 C
266.311 179.974 LS
266.311 181.078 LE
266.311 253.387 LS
266.311 252.282 LE
288.28 179.974 LS
288.28 181.078 LE
288.28 253.387 LS
288.28 252.282 LE
310.249 179.974 LS
310.249 181.078 LE
310.249 253.387 LS
310.249 252.282 LE
332.217 179.974 LS
332.217 181.078 LE
332.217 253.387 LS
332.217 252.282 LE
354.186 179.974 LS
354.186 181.078 LE
354.186 253.387 LS
354.186 252.282 LE
gsave
0.14902 0.14902 0.14902 C
(2e+06) [6 5 6 6 10] 0 251.811 164.431 10 /Helvetica SRX
grestore

gsave
0.14902 0.14902 0.14902 C
(4e+06) [6 5 6 6 10] 0 273.78 164.431 10 /Helvetica SRX
grestore

gsave
0.14902 0.14902 0.14902 C
(6e+06) [6 5 6 6 10] 0 295.749 164.431 10 /Helvetica SRX
grestore

gsave
0.14902 0.14902 0.14902 C
(8e+06) [6 5 6 6 10] 0 317.717 164.431 10 /Helvetica SRX
grestore

gsave
0.14902 0.14902 0.14902 C
(1e+07) [6 5 6 6 10] 0 339.686 164.431 10 /Helvetica SRX
grestore

244.353 179.974 LS
245.45 179.974 LE
354.186 179.974 LS
353.09 179.974 LE
244.353 194.656 LS
245.45 194.656 LE
354.186 194.656 LS
353.09 194.656 LE
244.353 209.339 LS
245.45 209.339 LE
354.186 209.339 LS
353.09 209.339 LE
244.353 224.022 LS
245.45 224.022 LE
354.186 224.022 LS
353.09 224.022 LE
244.353 238.704 LS
245.45 238.704 LE
354.186 238.704 LS
353.09 238.704 LE
244.353 253.387 LS
245.45 253.387 LE
354.186 253.387 LS
353.09 253.387 LE
gsave
0.14902 0.14902 0.14902 C
(0) [10] 0 233.361 175.974 10 /Helvetica SRX
grestore

gsave
0.14902 0.14902 0.14902 C
(0.0005) [6 3 6 6 6 10] 0 206.361 190.656 10 /Helvetica SRX
grestore

gsave
0.14902 0.14902 0.14902 C
(0.001) [6 3 6 6 10] 0 212.361 205.339 10 /Helvetica SRX
grestore

gsave
0.14902 0.14902 0.14902 C
(0.0015) [6 3 6 6 6 10] 0 206.361 220.022 10 /Helvetica SRX
grestore

gsave
0.14902 0.14902 0.14902 C
(0.002) [6 3 6 6 10] 0 212.361 234.704 10 /Helvetica SRX
grestore

gsave
0.14902 0.14902 0.14902 C
(0.0025) [6 3 6 6 6 10] 0 206.361 249.387 10 /Helvetica SRX
grestore

2 LC
[16 0] 0 setdash
244.353 179.974 LS
354.186 179.974 LE
244.353 253.387 LS
354.186 253.387 LE
244.353 179.974 LS
244.353 253.387 LE
354.186 179.974 LS
354.186 253.387 LE
gsave
0 0 0 C
(rrho_AN \(m2\)) [4 4 7 7 6 8 8 3 4 10 6 10] 0 263.77 266.387 11 /Helvetica-Bold SRX
grestore

0 LC
1 LJ
[] 0 setdash
0 0 1 C
244.353 241.434 LS
245.451 208.108 L
246.55 218.647 L
247.648 191.465 L
248.746 199.685 L
249.845 218.287 L
250.943 199.45 L
252.041 208.363 L
253.14 200.331 L
254.238 197.986 L
255.336 200.721 L
256.435 198.482 L
257.533 196.416 L
258.631 199.439 L
259.73 200.829 L
260.828 199.852 L
261.926 204.288 L
263.025 204.526 L
264.123 218.449 L
265.221 219.963 L
266.32 213.645 L
267.418 210.415 L
268.516 197.162 L
269.615 197.123 L
270.713 195.302 L
271.811 194.964 L
272.91 197.139 L
274.008 196.449 L
275.106 197.57 L
276.205 194.345 L
277.303 193.928 L
278.401 197.288 L
279.5 215.52 L
280.598 213.914 L
281.696 213.092 L
282.795 213.16 L
283.893 212.584 L
284.991 211.982 L
286.09 210.905 L
287.188 206.072 L
288.286 194.137 L
289.385 194.203 L
290.483 193.75 L
291.581 191.697 L
292.68 193.294 L
293.778 193.694 L
294.876 195.028 L
295.975 195.135 L
297.073 194.785 L
298.171 194.37 L
299.27 193.697 L
300.368 197.568 L
301.466 201.751 L
302.565 202.689 L
303.663 205.047 L
304.761 204.071 L
305.86 203.869 L
306.958 202.525 L
308.056 202.379 L
309.155 202.207 L
310.253 201.846 L
311.351 203.47 L
312.45 203.149 L
313.548 202.944 L
314.646 198.326 L
315.745 197.913 L
316.843 197.831 L
317.941 194.497 L
319.04 194.151 L
320.138 193.933 L
321.236 193.684 L
322.335 193.664 L
323.433 193.452 L
324.531 193.313 L
325.63 193.355 L
326.728 193.39 L
327.826 191.367 L
328.925 191.301 L
330.023 191.769 L
331.121 193.999 L
332.22 194.658 L
333.318 194.534 L
334.416 197.513 L
335.515 197.946 L
336.613 198.367 L
337.711 198.4 L
338.81 198.992 L
339.908 199.079 L
341.006 198.833 L
342.105 200.466 L
343.203 200.465 L
344.301 200.462 L
345.4 200.756 L
346.498 200.711 L
347.596 200.431 L
348.695 200.355 L
349.793 200.311 L
350.891 200.259 L
351.99 199.726 L
353.088 198.261 L
354.186 197.507 LE
1 0 0 C
244.353 197.301 LS
245.451 202.653 L
246.55 217.8 L
247.648 190.802 L
248.746 196.744 L
249.845 211.147 L
250.943 198.919 L
252.041 204.773 L
253.14 200.04 L
254.238 197.637 L
255.336 200.387 L
256.435 198.332 L
257.533 196.347 L
258.631 199.329 L
259.73 200.815 L
260.828 199.834 L
261.926 203.992 L
263.025 202.016 L
264.123 209.764 L
265.221 208.417 L
266.32 206.583 L
267.418 206.523 L
268.516 195.875 L
269.615 196.035 L
270.713 195.021 L
271.811 194.695 L
272.91 197.114 L
274.008 196.439 L
275.106 197.57 L
276.205 194.285 L
277.303 193.894 L
278.401 197.285 L
279.5 214.881 L
280.598 213.58 L
281.696 212.705 L
282.795 212.605 L
283.893 211.944 L
284.991 211.307 L
286.09 210.113 L
287.188 205.609 L
288.286 194.12 L
289.385 194.178 L
290.483 193.674 L
291.581 191.688 L
292.68 193.28 L
293.778 193.689 L
294.876 195.008 L
295.975 195.065 L
297.073 194.765 L
298.171 194.355 L
299.27 193.689 L
300.368 197.553 L
301.466 201.667 L
302.565 202.591 L
303.663 204.965 L
304.761 203.959 L
305.86 203.826 L
306.958 202.468 L
308.056 202.321 L
309.155 202.159 L
310.253 201.781 L
311.351 203.289 L
312.45 203.012 L
313.548 202.784 L
314.646 198.308 L
315.745 197.902 L
316.843 197.814 L
317.941 194.463 L
319.04 194.099 L
320.138 193.839 L
321.236 193.568 L
322.335 193.583 L
323.433 193.39 L
324.531 193.237 L
325.63 193.272 L
326.728 193.366 L
327.826 191.364 L
328.925 191.292 L
330.023 191.742 L
331.121 193.794 L
332.22 194.269 L
333.318 194.219 L
334.416 197.369 L
335.515 197.851 L
336.613 198.3 L
337.711 198.345 L
338.81 198.964 L
339.908 199.053 L
341.006 198.801 L
342.105 200.463 L
343.203 200.455 L
344.301 200.452 L
345.4 200.738 L
346.498 200.699 L
347.596 200.429 L
348.695 200.354 L
349.793 200.311 L
350.891 200.255 L
351.99 199.707 L
353.088 198.159 L
354.186 197.354 LE
grestore
gsave
1.0 1.0 scale
newpath 0 0 moveto 576 0 lineto 576 432 lineto 0 432 lineto
closepath clip
1 1 1 C
411.447 253.387 521.28 179.974 411.447 179.974 T
411.447 253.387 521.28 253.387 521.28 179.974 T
0.5 W
0.15 0.15 0.15 C
433.405 179.974 LS
433.405 181.078 LE
433.405 253.387 LS
433.405 252.282 LE
455.374 179.974 LS
455.374 181.078 LE
455.374 253.387 LS
455.374 252.282 LE
477.342 179.974 LS
477.342 181.078 LE
477.342 253.387 LS
477.342 252.282 LE
499.311 179.974 LS
499.311 181.078 LE
499.311 253.387 LS
499.311 252.282 LE
521.28 179.974 LS
521.28 181.078 LE
521.28 253.387 LS
521.28 252.282 LE
gsave
0.14902 0.14902 0.14902 C
(2e+06) [6 5 6 6 10] 0 418.905 164.431 10 /Helvetica SRX
grestore

gsave
0.14902 0.14902 0.14902 C
(4e+06) [6 5 6 6 10] 0 440.874 164.431 10 /Helvetica SRX
grestore

gsave
0.14902 0.14902 0.14902 C
(6e+06) [6 5 6 6 10] 0 462.842 164.431 10 /Helvetica SRX
grestore

gsave
0.14902 0.14902 0.14902 C
(8e+06) [6 5 6 6 10] 0 484.811 164.431 10 /Helvetica SRX
grestore

gsave
0.14902 0.14902 0.14902 C
(1e+07) [6 5 6 6 10] 0 506.78 164.431 10 /Helvetica SRX
grestore

411.447 179.974 LS
412.544 179.974 LE
521.28 179.974 LS
520.183 179.974 LE
411.447 198.327 LS
412.544 198.327 LE
521.28 198.327 LS
520.183 198.327 LE
411.447 216.68 LS
412.544 216.68 LE
521.28 216.68 LS
520.183 216.68 LE
411.447 235.034 LS
412.544 235.034 LE
521.28 235.034 LS
520.183 235.034 LE
411.447 253.387 LS
412.544 253.387 LE
521.28 253.387 LS
520.183 253.387 LE
gsave
0.14902 0.14902 0.14902 C
(0) [10] 0 400.454 175.974 10 /Helvetica SRX
grestore

gsave
0.14902 0.14902 0.14902 C
(5e-05) [6 5 3 6 10] 0 380.454 194.327 10 /Helvetica SRX
grestore

gsave
0.14902 0.14902 0.14902 C
(0.0001) [6 3 6 6 6 10] 0 373.454 212.68 10 /Helvetica SRX
grestore

gsave
0.14902 0.14902 0.14902 C
(0.00015) [6 3 6 6 6 6 10] 0 367.454 231.034 10 /Helvetica SRX
grestore

gsave
0.14902 0.14902 0.14902 C
(0.0002) [6 3 6 6 6 10] 0 373.454 249.387 10 /Helvetica SRX
grestore

2 LC
[16 0] 0 setdash
411.447 179.974 LS
521.28 179.974 LE
411.447 253.387 LS
521.28 253.387 LE
411.447 179.974 LS
411.447 253.387 LE
521.28 179.974 LS
521.28 253.387 LE
gsave
0 0 0 C
(rrho_AN \(m3\)) [4 4 7 7 6 8 8 3 4 10 6 10] 0 430.863 266.387 11 /Helvetica-Bold SRX
grestore

0 LC
1 LJ
[] 0 setdash
0 0 1 C
411.447 231.577 LS
412.545 199.045 L
413.644 208.557 L
414.742 186.245 L
415.84 194.961 L
416.939 209.67 L
418.037 196.897 L
419.135 201.482 L
420.234 192.348 L
421.332 191.062 L
422.43 193.905 L
423.529 192.141 L
424.627 189.474 L
425.725 192.51 L
426.823 194.378 L
427.922 193.354 L
429.02 198.881 L
430.118 199.001 L
431.217 212.738 L
432.315 214.141 L
433.413 208.58 L
434.512 206.303 L
435.61 190.927 L
436.708 190.58 L
437.807 188.536 L
438.905 188.409 L
440.003 190.509 L
441.102 190.083 L
442.2 191.338 L
443.298 188.876 L
444.397 188.592 L
445.495 191.499 L
446.593 218.059 L
447.692 216.926 L
448.79 215.502 L
449.888 215.421 L
450.987 214.939 L
452.085 214.544 L
453.183 213.769 L
454.282 206.692 L
455.38 188.087 L
456.478 188.101 L
457.577 187.63 L
458.675 185.901 L
459.773 187.264 L
460.872 187.476 L
461.97 188.657 L
463.068 188.648 L
464.167 188.663 L
465.265 188.317 L
466.363 187.731 L
467.462 194.313 L
468.56 199.468 L
469.658 199.821 L
470.757 201.673 L
471.855 200.943 L
472.953 200.754 L
474.052 199.763 L
475.15 199.58 L
476.248 199.503 L
477.347 199.127 L
478.445 200.694 L
479.543 200.594 L
480.642 200.362 L
481.74 192.532 L
482.838 191.934 L
483.937 191.861 L
485.035 188.802 L
486.133 188.675 L
487.232 188.506 L
488.33 188.344 L
489.428 188.37 L
490.527 188.25 L
491.625 188.176 L
492.723 188.148 L
493.822 188.087 L
494.92 185.944 L
496.018 185.901 L
497.117 186.206 L
498.215 188.938 L
499.313 189.948 L
500.412 190.255 L
501.51 194.924 L
502.608 195.139 L
503.707 195.321 L
504.805 195.132 L
505.903 195.519 L
507.002 195.447 L
508.1 195.282 L
509.198 197.076 L
510.297 196.934 L
511.395 196.845 L
512.493 197.033 L
513.592 196.928 L
514.69 196.751 L
515.788 196.657 L
516.887 196.55 L
517.985 196.43 L
519.083 195.964 L
520.182 194.043 L
521.28 193.404 LE
1 0 0 C
411.447 189.041 LS
412.545 193.959 L
413.644 207.836 L
414.742 185.494 L
415.84 191.254 L
416.939 201.988 L
418.037 195.659 L
419.135 196.838 L
420.234 191.864 L
421.332 190.733 L
422.43 193.397 L
423.529 191.975 L
424.627 189.402 L
425.725 192.348 L
426.823 194.398 L
427.922 193.308 L
429.02 198.367 L
430.118 195.653 L
431.217 201.998 L
432.315 200.807 L
433.413 199.568 L
434.512 200.269 L
435.61 189.413 L
436.708 189.333 L
437.807 188.251 L
438.905 188.133 L
440.003 190.504 L
441.102 190.085 L
442.2 191.337 L
443.298 188.803 L
444.397 188.544 L
445.495 191.495 L
446.593 215.776 L
447.692 215.371 L
448.79 213.828 L
449.888 213.369 L
450.987 212.747 L
452.085 212.313 L
453.183 211.25 L
454.282 205.201 L
455.38 188.062 L
456.478 188.068 L
457.577 187.548 L
458.675 185.893 L
459.773 187.242 L
460.872 187.467 L
461.97 188.63 L
463.068 188.581 L
464.167 188.646 L
465.265 188.307 L
466.363 187.722 L
467.462 194.235 L
468.56 199.184 L
469.658 199.503 L
470.757 201.416 L
471.855 200.606 L
472.953 200.564 L
474.052 199.537 L
475.15 199.355 L
476.248 199.297 L
477.347 198.895 L
478.445 200.185 L
479.543 200.158 L
480.642 199.893 L
481.74 192.492 L
482.838 191.903 L
483.937 191.822 L
485.035 188.743 L
486.133 188.594 L
487.232 188.38 L
488.33 188.188 L
489.428 188.255 L
490.527 188.155 L
491.625 188.067 L
492.723 188.036 L
493.822 188.044 L
494.92 185.939 L
496.018 185.889 L
497.117 186.172 L
498.215 188.634 L
499.313 189.333 L
500.412 189.71 L
501.51 194.792 L
502.608 195.065 L
503.707 195.278 L
504.805 195.098 L
505.903 195.514 L
507.002 195.445 L
508.1 195.28 L
509.198 197.092 L
510.297 196.959 L
511.395 196.869 L
512.493 197.06 L
513.592 196.952 L
514.69 196.764 L
515.788 196.66 L
516.887 196.546 L
517.985 196.412 L
519.083 195.91 L
520.182 193.806 L
521.28 193.066 LE
grestore
gsave
1.0 1.0 scale
newpath 0 0 moveto 576 0 lineto 576 432 lineto 0 432 lineto
closepath clip
1 1 1 C
77.2594 120.933 187.093 47.52 77.2594 47.52 T
77.2594 120.933 187.093 120.933 187.093 47.52 T
0.5 W
0.15 0.15 0.15 C
99.2173 47.52 LS
99.2173 48.6245 LE
99.2173 120.933 LS
99.2173 119.829 LE
121.186 47.52 LS
121.186 48.6245 LE
121.186 120.933 LS
121.186 119.829 LE
143.155 47.52 LS
143.155 48.6245 LE
143.155 120.933 LS
143.155 119.829 LE
165.124 47.52 LS
165.124 48.6245 LE
165.124 120.933 LS
165.124 119.829 LE
187.093 47.52 LS
187.093 48.6245 LE
187.093 120.933 LS
187.093 119.829 LE
gsave
0.14902 0.14902 0.14902 C
(2e+06) [6 5 6 6 10] 0 84.7173 31.9776 10 /Helvetica SRX
grestore

gsave
0.14902 0.14902 0.14902 C
(4e+06) [6 5 6 6 10] 0 106.686 31.9776 10 /Helvetica SRX
grestore

gsave
0.14902 0.14902 0.14902 C
(6e+06) [6 5 6 6 10] 0 128.655 31.9776 10 /Helvetica SRX
grestore

gsave
0.14902 0.14902 0.14902 C
(8e+06) [6 5 6 6 10] 0 150.624 31.9776 10 /Helvetica SRX
grestore

gsave
0.14902 0.14902 0.14902 C
(1e+07) [6 5 6 6 10] 0 172.593 31.9776 10 /Helvetica SRX
grestore

77.2594 47.52 LS
78.3561 47.52 LE
187.093 47.52 LS
185.996 47.52 LE
77.2594 62.2026 LS
78.3561 62.2026 LE
187.093 62.2026 LS
185.996 62.2026 LE
77.2594 76.8852 LS
78.3561 76.8852 LE
187.093 76.8852 LS
185.996 76.8852 LE
77.2594 91.5679 LS
78.3561 91.5679 LE
187.093 91.5679 LS
185.996 91.5679 LE
77.2594 106.25 LS
78.3561 106.25 LE
187.093 106.25 LS
185.996 106.25 LE
77.2594 120.933 LS
78.3561 120.933 LE
187.093 120.933 LS
185.996 120.933 LE
gsave
0.14902 0.14902 0.14902 C
(0) [10] 0 66.267 43.52 10 /Helvetica SRX
grestore

gsave
0.14902 0.14902 0.14902 C
(0.1) [6 3 10] 0 57.267 58.2026 10 /Helvetica SRX
grestore

gsave
0.14902 0.14902 0.14902 C
(0.2) [6 3 10] 0 57.267 72.8853 10 /Helvetica SRX
grestore

gsave
0.14902 0.14902 0.14902 C
(0.3) [6 3 10] 0 57.267 87.5679 10 /Helvetica SRX
grestore

gsave
0.14902 0.14902 0.14902 C
(0.4) [6 3 10] 0 57.267 102.251 10 /Helvetica SRX
grestore

gsave
0.14902 0.14902 0.14902 C
(0.5) [6 3 10] 0 57.267 116.933 10 /Helvetica SRX
grestore

2 LC
[16 0] 0 setdash
77.2594 47.52 LS
187.093 47.52 LE
77.2594 120.933 LS
187.093 120.933 LE
77.2594 47.52 LS
77.2594 120.933 LE
187.093 47.52 LS
187.093 120.933 LE
gsave
0 0 0 C
(rrho_AC \(Interval\)) [4 4 7 7 6 8 8 3 4 3 7 4 6 4 6 6 3 10] 0 85.176 133.933 11 /Helvetica-Bold SRX
grestore

0 LC
1 LJ
[] 0 setdash
0 0 1 C
77.2594 62.1736 LS
78.3577 68.0087 L
79.4561 68.2158 L
80.5544 78.6458 L
81.6527 72.3209 L
82.7511 71.2389 L
83.8494 81.9093 L
84.9477 94.7349 L
86.0461 105.29 L
87.1444 114.867 L
88.2427 116.16 L
89.3411 111.635 L
90.4394 99.9856 L
91.5377 96.9805 L
92.636 98.8255 L
93.7344 92.1159 L
94.8327 88.9418 L
95.9311 85.3933 L
97.0294 75.793 L
98.1277 67.9398 L
99.226 66.9341 L
100.324 68.6453 L
101.423 71.4382 L
102.521 70.5737 L
103.619 69.1489 L
104.718 68.4467 L
105.816 67.418 L
106.914 66.9363 L
108.013 66.6792 L
109.111 67.6775 L
110.209 68.2295 L
111.308 66.9553 L
112.406 66.9363 L
113.504 66.7607 L
114.603 67.0479 L
115.701 66.3459 L
116.799 65.6911 L
117.898 65.3674 L
118.996 66.0411 L
120.094 65.8704 L
121.193 66.5358 L
122.291 69.9808 L
123.389 72.0446 L
124.488 71.6845 L
125.586 71.613 L
126.684 71.6827 L
127.783 72.0866 L
128.881 71.83 L
129.979 72.8158 L
131.078 72.7658 L
132.176 73.2491 L
133.274 70.8835 L
134.373 68.8095 L
135.471 68.4219 L
136.569 67.6618 L
137.668 68.2337 L
138.766 68.3444 L
139.864 68.0918 L
140.963 67.4981 L
142.061 67.6091 L
143.159 66.9805 L
144.258 66.6403 L
145.356 66.4408 L
146.454 66.3998 L
147.553 66.0375 L
148.651 66.1631 L
149.749 65.6643 L
150.848 66.0414 L
151.946 65.2558 L
153.044 64.6181 L
154.143 64.457 L
155.241 64.2946 L
156.339 64.1875 L
157.438 64.5605 L
158.536 65.4761 L
159.634 65.5177 L
160.733 64.9715 L
161.831 64.9844 L
162.929 65.0608 L
164.028 65.2961 L
165.126 65.954 L
166.224 66.6051 L
167.323 66.6296 L
168.421 66.2239 L
169.519 66.4451 L
170.618 66.5243 L
171.716 66.8242 L
172.814 67.1666 L
173.913 68.3794 L
175.011 68.6542 L
176.109 68.8149 L
177.208 68.65 L
178.306 68.3078 L
179.404 67.8065 L
180.503 68.179 L
181.601 68.0982 L
182.699 67.9344 L
183.798 68.4201 L
184.896 69.2895 L
185.994 69.9005 L
187.093 71.4722 LE
1 0 0 C
77.2594 59.0977 LS
78.3577 67.3708 L
79.4561 67.1681 L
80.5544 76.1669 L
81.6527 71.555 L
82.7511 69.8296 L
83.8494 77.558 L
84.9477 67.3519 L
86.0461 74.8112 L
87.1444 75.9181 L
88.2427 75.8489 L
89.3411 76.9014 L
90.4394 71.9927 L
91.5377 72.9838 L
92.636 72.6321 L
93.7344 69.2751 L
94.8327 71.3751 L
95.9311 74.9636 L
97.0294 71.7561 L
98.1277 66.4865 L
99.226 64.6541 L
100.324 65.5644 L
101.423 70.3244 L
102.521 70.0069 L
103.619 68.567 L
104.718 68.2471 L
105.816 67.3391 L
106.914 66.8491 L
108.013 66.6159 L
109.111 67.1966 L
110.209 67.8369 L
111.308 66.5309 L
112.406 66.6649 L
113.504 66.2467 L
114.603 66.7626 L
115.701 66.1642 L
116.799 65.6334 L
117.898 65.2464 L
118.996 65.9086 L
120.094 65.7002 L
121.193 66.0462 L
122.291 69.2768 L
123.389 69.3183 L
124.488 68.5457 L
125.586 68.3652 L
126.684 68.1886 L
127.783 68.0588 L
128.881 68.1003 L
129.979 69.2189 L
131.078 70.8643 L
132.176 71.8529 L
133.274 70.5679 L
134.373 68.8048 L
135.471 68.4814 L
136.569 67.7672 L
137.668 68.3197 L
138.766 68.4056 L
139.864 68.1265 L
140.963 67.5358 L
142.061 67.6765 L
143.159 66.9754 L
144.258 66.4373 L
145.356 66.1198 L
146.454 65.9235 L
147.553 65.4987 L
148.651 65.5091 L
149.749 65.139 L
150.848 65.599 L
151.946 64.8916 L
153.044 64.3933 L
154.143 64.3294 L
155.241 64.1624 L
156.339 64.0814 L
157.438 64.4137 L
158.536 65.2611 L
159.634 65.3198 L
160.733 64.9326 L
161.831 64.9701 L
162.929 65.0678 L
164.028 65.3095 L
165.126 65.9207 L
166.224 66.5355 L
167.323 66.4903 L
168.421 66.0942 L
169.519 66.2526 L
170.618 66.415 L
171.716 66.6179 L
172.814 66.8853 L
173.913 68.0055 L
175.011 68.2696 L
176.109 68.3607 L
177.208 68.2375 L
178.306 68.0726 L
179.404 67.6878 L
180.503 68.1544 L
181.601 68.1012 L
182.699 67.934 L
183.798 68.4363 L
184.896 69.3777 L
185.994 69.9704 L
187.093 71.7157 LE
grestore
gsave
1.0 1.0 scale
newpath 0 0 moveto 576 0 lineto 576 432 lineto 0 432 lineto
closepath clip
1 1 1 C
244.353 120.933 354.186 47.52 244.353 47.52 T
244.353 120.933 354.186 120.933 354.186 47.52 T
0.5 W
0.15 0.15 0.15 C
266.311 47.52 LS
266.311 48.6245 LE
266.311 120.933 LS
266.311 119.829 LE
288.28 47.52 LS
288.28 48.6245 LE
288.28 120.933 LS
288.28 119.829 LE
310.249 47.52 LS
310.249 48.6245 LE
310.249 120.933 LS
310.249 119.829 LE
332.217 47.52 LS
332.217 48.6245 LE
332.217 120.933 LS
332.217 119.829 LE
354.186 47.52 LS
354.186 48.6245 LE
354.186 120.933 LS
354.186 119.829 LE
gsave
0.14902 0.14902 0.14902 C
(2e+06) [6 5 6 6 10] 0 251.811 31.9776 10 /Helvetica SRX
grestore

gsave
0.14902 0.14902 0.14902 C
(4e+06) [6 5 6 6 10] 0 273.78 31.9776 10 /Helvetica SRX
grestore

gsave
0.14902 0.14902 0.14902 C
(6e+06) [6 5 6 6 10] 0 295.749 31.9776 10 /Helvetica SRX
grestore

gsave
0.14902 0.14902 0.14902 C
(8e+06) [6 5 6 6 10] 0 317.717 31.9776 10 /Helvetica SRX
grestore

gsave
0.14902 0.14902 0.14902 C
(1e+07) [6 5 6 6 10] 0 339.686 31.9776 10 /Helvetica SRX
grestore

244.353 47.52 LS
245.45 47.52 LE
354.186 47.52 LS
353.09 47.52 LE
244.353 65.8733 LS
245.45 65.8733 LE
354.186 65.8733 LS
353.09 65.8733 LE
244.353 84.2266 LS
245.45 84.2266 LE
354.186 84.2266 LS
353.09 84.2266 LE
244.353 102.58 LS
245.45 102.58 LE
354.186 102.58 LS
353.09 102.58 LE
244.353 120.933 LS
245.45 120.933 LE
354.186 120.933 LS
353.09 120.933 LE
gsave
0.14902 0.14902 0.14902 C
(0) [10] 0 233.361 43.52 10 /Helvetica SRX
grestore

gsave
0.14902 0.14902 0.14902 C
(0.01) [6 3 6 10] 0 218.361 61.8733 10 /Helvetica SRX
grestore

gsave
0.14902 0.14902 0.14902 C
(0.02) [6 3 6 10] 0 218.361 80.2266 10 /Helvetica SRX
grestore

gsave
0.14902 0.14902 0.14902 C
(0.03) [6 3 6 10] 0 218.361 98.5799 10 /Helvetica SRX
grestore

gsave
0.14902 0.14902 0.14902 C
(0.04) [6 3 6 10] 0 218.361 116.933 10 /Helvetica SRX
grestore

2 LC
[16 0] 0 setdash
244.353 47.52 LS
354.186 47.52 LE
244.353 120.933 LS
354.186 120.933 LE
244.353 47.52 LS
244.353 120.933 LE
354.186 47.52 LS
354.186 120.933 LE
gsave
0 0 0 C
(rrho_AC \(m2\)) [4 4 7 7 6 8 8 3 4 10 6 10] 0 263.77 133.933 11 /Helvetica-Bold SRX
grestore

0 LC
1 LJ
[] 0 setdash
0 0 1 C
244.353 49.819 LS
245.451 52.8074 L
246.55 52.9338 L
247.648 59.0979 L
248.746 55.1393 L
249.845 54.3319 L
250.943 61.7154 L
252.041 76.3575 L
253.14 98.0717 L
254.238 111.5 L
255.336 113.732 L
256.435 98.7572 L
257.533 81.9402 L
258.631 77.7113 L
259.73 80.144 L
260.828 73.1466 L
261.926 69.1097 L
263.025 65.034 L
264.123 57.8325 L
265.221 53.6359 L
266.32 52.3561 L
267.418 53.2765 L
268.516 54.6219 L
269.615 54.1572 L
270.713 53.4647 L
271.811 53.1304 L
272.91 52.6893 L
274.008 52.5023 L
275.106 52.4357 L
276.205 52.8674 L
277.303 53.2226 L
278.401 52.7134 L
279.5 52.814 L
280.598 52.784 L
281.696 52.9248 L
282.795 52.4291 L
283.893 52.1398 L
284.991 51.7347 L
286.09 51.8939 L
287.188 51.874 L
288.286 52.1141 L
289.385 54.4067 L
290.483 55.1949 L
291.581 54.9308 L
292.68 54.9038 L
293.778 54.9625 L
294.876 55.1288 L
295.975 54.9952 L
297.073 55.5625 L
298.171 55.5226 L
299.27 55.7847 L
300.368 54.6531 L
301.466 53.6128 L
302.565 53.4183 L
303.663 53.1313 L
304.761 53.312 L
305.86 53.3522 L
306.958 53.2548 L
308.056 53.0388 L
309.155 53.0717 L
310.253 52.5298 L
311.351 52.307 L
312.45 52.1519 L
313.548 52.1249 L
314.646 51.9587 L
315.745 52.0186 L
316.843 51.7817 L
317.941 51.9796 L
319.04 51.6773 L
320.138 51.396 L
321.236 51.3338 L
322.335 51.2969 L
323.433 51.2657 L
324.531 51.3924 L
325.63 51.8134 L
326.728 51.807 L
327.826 51.611 L
328.925 51.5929 L
330.023 51.6008 L
331.121 51.6774 L
332.22 51.9547 L
333.318 52.3063 L
334.416 52.3029 L
335.515 52.124 L
336.613 52.2149 L
337.711 52.2429 L
338.81 52.3284 L
339.908 52.5019 L
341.006 53.405 L
342.105 53.529 L
343.203 53.6043 L
344.301 53.5383 L
345.4 53.4282 L
346.498 53.2381 L
347.596 53.3711 L
348.695 53.3241 L
349.793 53.2557 L
350.891 53.4754 L
351.99 54.0118 L
353.088 54.497 L
354.186 55.5078 LE
1 0 0 C
244.353 49.1764 LS
245.451 52.5091 L
246.55 52.4693 L
247.648 57.5287 L
248.746 54.8134 L
249.845 53.5521 L
250.943 58.6416 L
252.041 52.3999 L
253.14 59.2054 L
254.238 58.6202 L
255.336 57.5535 L
256.435 60.5216 L
257.533 55.2516 L
258.631 55.9282 L
259.73 55.6032 L
260.828 53.6955 L
261.926 55.4566 L
263.025 58.3773 L
264.123 55.4495 L
265.221 52.8009 L
266.32 51.4923 L
267.418 51.9518 L
268.516 54.0116 L
269.615 53.8754 L
270.713 53.2052 L
271.811 53.0531 L
272.91 52.6883 L
274.008 52.4757 L
275.106 52.3588 L
276.205 52.567 L
277.303 52.8944 L
278.401 52.3784 L
279.5 52.5357 L
280.598 52.4117 L
281.696 52.5722 L
282.795 52.2338 L
283.893 52.0363 L
284.991 51.6743 L
286.09 51.8536 L
287.188 51.7996 L
288.286 51.9184 L
289.385 53.6201 L
290.483 53.6434 L
291.581 53.2482 L
292.68 53.1519 L
293.778 53.0744 L
294.876 53.0487 L
295.975 53.1246 L
297.073 54.2524 L
298.171 54.866 L
299.27 55.4343 L
300.368 54.5997 L
301.466 53.6126 L
302.565 53.4076 L
303.663 53.0994 L
304.761 53.2933 L
305.86 53.341 L
306.958 53.2206 L
308.056 52.9881 L
309.155 53.0561 L
310.253 52.5286 L
311.351 52.224 L
312.45 52.001 L
313.548 51.9067 L
314.646 51.7225 L
315.745 51.7434 L
316.843 51.5751 L
317.941 51.8232 L
319.04 51.5392 L
320.138 51.3152 L
321.236 51.2864 L
322.335 51.2378 L
323.433 51.2175 L
324.531 51.3288 L
325.63 51.7073 L
326.728 51.6941 L
327.826 51.5459 L
328.925 51.5411 L
330.023 51.5649 L
331.121 51.6471 L
332.22 51.9366 L
333.318 52.2894 L
334.416 52.2651 L
335.515 52.0657 L
336.613 52.1321 L
337.711 52.1865 L
338.81 52.2468 L
339.908 52.3829 L
341.006 53.3264 L
342.105 53.4482 L
343.203 53.5044 L
344.301 53.4557 L
345.4 53.3941 L
346.498 53.2235 L
347.596 53.3666 L
348.695 53.3241 L
349.793 53.2546 L
350.891 53.4589 L
351.99 53.9402 L
353.088 54.3316 L
354.186 55.1509 LE
grestore
gsave
1.0 1.0 scale
newpath 0 0 moveto 576 0 lineto 576 432 lineto 0 432 lineto
closepath clip
1 1 1 C
411.447 120.933 521.28 47.52 411.447 47.52 T
411.447 120.933 521.28 120.933 521.28 47.52 T
0.5 W
0.15 0.15 0.15 C
433.405 47.52 LS
433.405 48.6245 LE
433.405 120.933 LS
433.405 119.829 LE
455.374 47.52 LS
455.374 48.6245 LE
455.374 120.933 LS
455.374 119.829 LE
477.342 47.52 LS
477.342 48.6245 LE
477.342 120.933 LS
477.342 119.829 LE
499.311 47.52 LS
499.311 48.6245 LE
499.311 120.933 LS
499.311 119.829 LE
521.28 47.52 LS
521.28 48.6245 LE
521.28 120.933 LS
521.28 119.829 LE
gsave
0.14902 0.14902 0.14902 C
(2e+06) [6 5 6 6 10] 0 418.905 31.9776 10 /Helvetica SRX
grestore

gsave
0.14902 0.14902 0.14902 C
(4e+06) [6 5 6 6 10] 0 440.874 31.9776 10 /Helvetica SRX
grestore

gsave
0.14902 0.14902 0.14902 C
(6e+06) [6 5 6 6 10] 0 462.842 31.9776 10 /Helvetica SRX
grestore

gsave
0.14902 0.14902 0.14902 C
(8e+06) [6 5 6 6 10] 0 484.811 31.9776 10 /Helvetica SRX
grestore

gsave
0.14902 0.14902 0.14902 C
(1e+07) [6 5 6 6 10] 0 506.78 31.9776 10 /Helvetica SRX
grestore

411.447 47.52 LS
412.544 47.52 LE
521.28 47.52 LS
520.183 47.52 LE
411.447 62.2026 LS
412.544 62.2026 LE
521.28 62.2026 LS
520.183 62.2026 LE
411.447 76.8852 LS
412.544 76.8852 LE
521.28 76.8852 LS
520.183 76.8852 LE
411.447 91.5679 LS
412.544 91.5679 LE
521.28 91.5679 LS
520.183 91.5679 LE
411.447 106.25 LS
412.544 106.25 LE
521.28 106.25 LS
520.183 106.25 LE
411.447 120.933 LS
412.544 120.933 LE
521.28 120.933 LS
520.183 120.933 LE
gsave
0.14902 0.14902 0.14902 C
(0) [10] 0 400.454 43.52 10 /Helvetica SRX
grestore

gsave
0.14902 0.14902 0.14902 C
(0.002) [6 3 6 6 10] 0 379.454 58.2026 10 /Helvetica SRX
grestore

gsave
0.14902 0.14902 0.14902 C
(0.004) [6 3 6 6 10] 0 379.454 72.8853 10 /Helvetica SRX
grestore

gsave
0.14902 0.14902 0.14902 C
(0.006) [6 3 6 6 10] 0 379.454 87.5679 10 /Helvetica SRX
grestore

gsave
0.14902 0.14902 0.14902 C
(0.008) [6 3 6 6 10] 0 379.454 102.251 10 /Helvetica SRX
grestore

gsave
0.14902 0.14902 0.14902 C
(0.01) [6 3 6 10] 0 385.454 116.933 10 /Helvetica SRX
grestore

2 LC
[16 0] 0 setdash
411.447 47.52 LS
521.28 47.52 LE
411.447 120.933 LS
521.28 120.933 LE
411.447 47.52 LS
411.447 120.933 LE
521.28 47.52 LS
521.28 120.933 LE
gsave
0 0 0 C
(rrho_AC \(m3\)) [4 4 7 7 6 8 8 3 4 10 6 10] 0 430.863 133.933 11 /Helvetica-Bold SRX
grestore

0 LC
1 LJ
[] 0 setdash
0 0 1 C
411.447 47.971 LS
412.545 49.3188 L
413.644 49.3748 L
414.742 53.3304 L
415.84 50.6098 L
416.939 49.9377 L
418.037 55.2295 L
419.135 65.0458 L
420.234 95.5337 L
421.332 106.84 L
422.43 106.799 L
423.529 93.5879 L
424.627 71.6547 L
425.725 67.9973 L
426.823 69.8971 L
427.922 63.057 L
429.02 60.4869 L
430.118 58.4489 L
431.217 53.0003 L
432.315 50.2239 L
433.413 49.128 L
434.512 49.6126 L
435.61 50.2399 L
436.708 50.0031 L
437.807 49.6677 L
438.905 49.5221 L
440.003 49.3197 L
441.102 49.2396 L
442.2 49.2241 L
443.298 49.4093 L
444.397 49.6423 L
445.495 49.4151 L
446.593 49.4947 L
447.692 49.5189 L
448.79 49.6035 L
449.888 49.2959 L
450.987 49.1622 L
452.085 48.8729 L
453.183 48.8988 L
454.282 48.9139 L
455.38 49.0012 L
456.478 50.4485 L
457.577 50.7887 L
458.675 50.5804 L
459.773 50.5624 L
460.872 50.5655 L
461.97 50.6465 L
463.068 50.6618 L
464.167 51.0162 L
465.265 50.9578 L
466.363 51.1394 L
467.462 50.5024 L
468.56 49.9113 L
469.658 49.7991 L
470.757 49.6828 L
471.855 49.7278 L
472.953 49.7549 L
474.052 49.7042 L
475.15 49.6187 L
476.248 49.6319 L
477.347 49.2494 L
478.445 49.1125 L
479.543 49.0171 L
480.642 49.0047 L
481.74 48.9345 L
482.838 48.9667 L
483.937 48.862 L
485.035 48.9662 L
486.133 48.8524 L
487.232 48.7321 L
488.33 48.7067 L
489.428 48.6972 L
490.527 48.6842 L
491.625 48.732 L
492.723 48.9381 L
493.822 48.923 L
494.92 48.8486 L
496.018 48.8317 L
497.117 48.8207 L
498.215 48.8441 L
499.313 48.9652 L
500.412 49.1464 L
501.51 49.14 L
502.608 49.0559 L
503.707 49.0937 L
504.805 49.0955 L
505.903 49.1213 L
507.002 49.1998 L
508.1 49.8022 L
509.198 49.8575 L
510.297 49.8875 L
511.395 49.8695 L
512.493 49.841 L
513.592 49.7592 L
514.69 49.8074 L
515.788 49.7725 L
516.887 49.7429 L
517.985 49.8446 L
519.083 50.1746 L
520.182 50.5318 L
521.28 51.259 LE
1 0 0 C
411.447 47.7748 LS
412.545 49.1964 L
413.644 49.115 L
414.742 52.0143 L
415.84 50.3949 L
416.939 49.6024 L
418.037 52.5653 L
419.135 49.0722 L
420.234 55.9447 L
421.332 53.6386 L
422.43 52.5353 L
423.529 54.7361 L
424.627 50.6287 L
425.725 51.1422 L
426.823 50.9413 L
427.922 49.8865 L
429.02 51.1167 L
430.118 53.0444 L
431.217 51.0348 L
432.315 49.6775 L
433.413 48.7935 L
434.512 49.0112 L
435.61 50.0998 L
436.708 49.9314 L
437.807 49.6032 L
438.905 49.4908 L
440.003 49.3184 L
441.102 49.2256 L
442.2 49.1662 L
443.298 49.2406 L
444.397 49.4228 L
445.495 49.212 L
446.593 49.3157 L
447.692 49.292 L
448.79 49.3654 L
449.888 49.1665 L
450.987 49.0858 L
452.085 48.8392 L
453.183 48.8813 L
454.282 48.8743 L
455.38 48.9077 L
456.478 49.8873 L
457.577 49.8016 L
458.675 49.5693 L
459.773 49.5265 L
460.872 49.4871 L
461.97 49.4813 L
463.068 49.5515 L
464.167 50.3468 L
465.265 50.6159 L
466.363 50.9513 L
467.462 50.4829 L
468.56 49.9097 L
469.658 49.7828 L
470.757 49.6461 L
471.855 49.7039 L
472.953 49.7389 L
474.052 49.673 L
475.15 49.572 L
476.248 49.6113 L
477.347 49.25 L
478.445 49.0815 L
479.543 48.9453 L
480.642 48.9038 L
481.74 48.8235 L
482.838 48.8407 L
483.937 48.7665 L
485.035 48.9016 L
486.133 48.7929 L
487.232 48.7017 L
488.33 48.6888 L
489.428 48.6744 L
490.527 48.6671 L
491.625 48.7073 L
492.723 48.8841 L
493.822 48.8615 L
494.92 48.8099 L
496.018 48.7991 L
497.117 48.7965 L
498.215 48.8217 L
499.313 48.9534 L
500.412 49.1338 L
501.51 49.1173 L
502.608 49.0192 L
503.707 49.0436 L
504.805 49.0599 L
505.903 49.0768 L
507.002 49.137 L
508.1 49.7913 L
509.198 49.8495 L
510.297 49.8741 L
511.395 49.8593 L
512.493 49.8427 L
513.592 49.7642 L
514.69 49.8124 L
515.788 49.773 L
516.887 49.7397 L
517.985 49.8267 L
519.083 50.1071 L
520.182 50.3842 L
521.28 50.9197 LE
grestore
grestore
showpage
cleartomark
%%PageTrailer
%%Trailer
end
%%EOF
