%!PS-Adobe-3.0 EPSF-3.0
%%Title: gl2ps_renderer figure
%%Creator: GL2PS 1.4.2, (C) 1999-2020 C. Geuzaine
%%For: Octave
%%CreationDate: Wed Oct  7 07:02:39 2020
%%LanguageLevel: 3
%%DocumentData: Clean7Bit
%%Pages: 1
%%BoundingBox: 0 0 576 432
%%EndComments
%%BeginProlog
/gl2psdict 64 dict def gl2psdict begin
/tryPS3shading false def % set to false to force subdivision
/rThreshold 0.064 def % red component subdivision threshold
/gThreshold 0.034 def % green component subdivision threshold
/bThreshold 0.1 def % blue component subdivision threshold
/BD { bind def } bind def
/C  { setrgbcolor } BD
/G  { 0.082 mul exch 0.6094 mul add exch 0.3086 mul add neg 1.0 add setgray } BD
/W  { setlinewidth } BD
/LC  { setlinecap } BD
/LJ  { setlinejoin } BD
/FC { findfont exch /SH exch def SH scalefont setfont } BD
/SW { dup stringwidth pop } BD
/S  { FC moveto show } BD
/SBC{ FC moveto SW -2 div 0 rmoveto show } BD
/SBR{ FC moveto SW neg 0 rmoveto show } BD
/SCL{ FC moveto 0 SH -2 div rmoveto show } BD
/SCC{ FC moveto SW -2 div SH -2 div rmoveto show } BD
/SCR{ FC moveto SW neg SH -2 div rmoveto show } BD
/STL{ FC moveto 0 SH neg rmoveto show } BD
/STC{ FC moveto SW -2 div SH neg rmoveto show } BD
/STR{ FC moveto SW neg SH neg rmoveto show } BD
/FCT { FC translate 0 0 } BD
/SR  { gsave FCT moveto rotate show grestore } BD
/SRX  { gsave FCT moveto rotate xshow grestore } BD
/SBCR{ gsave FCT moveto rotate SW -2 div 0 rmoveto show grestore } BD
/SBRR{ gsave FCT moveto rotate SW neg 0 rmoveto show grestore } BD
/SCLR{ gsave FCT moveto rotate 0 SH -2 div rmoveto show grestore} BD
/SCCR{ gsave FCT moveto rotate SW -2 div SH -2 div rmoveto show grestore} BD
/SCRR{ gsave FCT moveto rotate SW neg SH -2 div rmoveto show grestore} BD
/STLR{ gsave FCT moveto rotate 0 SH neg rmoveto show grestore } BD
/STCR{ gsave FCT moveto rotate SW -2 div SH neg rmoveto show grestore } BD
/STRR{ gsave FCT moveto rotate SW neg SH neg rmoveto show grestore } BD
/P  { newpath 0.0 360.0 arc closepath fill } BD
/LS { newpath moveto } BD
/L  { lineto } BD
/LE { lineto stroke } BD
/T  { newpath moveto lineto lineto closepath fill } BD
/STshfill {
      /b1 exch def /g1 exch def /r1 exch def /y1 exch def /x1 exch def
      /b2 exch def /g2 exch def /r2 exch def /y2 exch def /x2 exch def
      /b3 exch def /g3 exch def /r3 exch def /y3 exch def /x3 exch def
      gsave << /ShadingType 4 /ColorSpace [/DeviceRGB]
      /DataSource [ 0 x1 y1 r1 g1 b1 0 x2 y2 r2 g2 b2 0 x3 y3 r3 g3 b3 ] >>
      shfill grestore } BD
/Tm { 3 -1 roll 8 -1 roll 13 -1 roll add add 3 div
      3 -1 roll 7 -1 roll 11 -1 roll add add 3 div
      3 -1 roll 6 -1 roll 9 -1 roll add add 3 div C T } BD
/STsplit {
      4 index 15 index add 0.5 mul
      4 index 15 index add 0.5 mul
      4 index 15 index add 0.5 mul
      4 index 15 index add 0.5 mul
      4 index 15 index add 0.5 mul
      5 copy 5 copy 25 15 roll
      9 index 30 index add 0.5 mul
      9 index 30 index add 0.5 mul
      9 index 30 index add 0.5 mul
      9 index 30 index add 0.5 mul
      9 index 30 index add 0.5 mul
      5 copy 5 copy 35 5 roll 25 5 roll 15 5 roll
      4 index 10 index add 0.5 mul
      4 index 10 index add 0.5 mul
      4 index 10 index add 0.5 mul
      4 index 10 index add 0.5 mul
      4 index 10 index add 0.5 mul
      5 copy 5 copy 40 5 roll 25 5 roll 15 5 roll 25 5 roll
      STnoshfill STnoshfill STnoshfill STnoshfill } BD
/STnoshfill {
      2 index 8 index sub abs rThreshold gt
      { STsplit }
      { 1 index 7 index sub abs gThreshold gt
        { STsplit }
        { dup 6 index sub abs bThreshold gt
          { STsplit }
          { 2 index 13 index sub abs rThreshold gt
            { STsplit }
            { 1 index 12 index sub abs gThreshold gt
              { STsplit }
              { dup 11 index sub abs bThreshold gt
                { STsplit }
                { 7 index 13 index sub abs rThreshold gt
                  { STsplit }
                  { 6 index 12 index sub abs gThreshold gt
                    { STsplit }
                    { 5 index 11 index sub abs bThreshold gt
                      { STsplit }
                      { Tm }
                      ifelse }
                    ifelse }
                  ifelse }
                ifelse }
              ifelse }
            ifelse }
          ifelse }
        ifelse }
      ifelse } BD
tryPS3shading
{ /shfill where
  { /ST { STshfill } BD }
  { /ST { STnoshfill } BD }
  ifelse }
{ /ST { STnoshfill } BD }
ifelse
end
%%EndProlog
%%BeginSetup
/DeviceRGB setcolorspace
gl2psdict begin
%%EndSetup
%%Page: 1 1
%%BeginPageSetup
%%EndPageSetup
mark
gsave
1.0 1.0 scale
1 1 1 C
newpath 0 0 moveto 576 0 lineto 576 432 lineto 0 432 lineto
closepath fill
gsave
1.0 1.0 scale
1 1 1 C
newpath 0 0 moveto 576 0 lineto 576 432 lineto 0 432 lineto
closepath fill
newpath 0 0 moveto 576 0 lineto 576 432 lineto 0 432 lineto
closepath clip
1 1 1 C
74.88 386.841 187.093 312.427 74.88 312.427 T
74.88 386.841 187.093 386.841 187.093 312.427 T
0.5 W
0.15 0.15 0.15 C
98.5037 312.427 LS
98.5037 313.556 LE
98.5037 386.841 LS
98.5037 385.712 LE
128.033 312.427 LS
128.033 313.556 LE
128.033 386.841 LS
128.033 385.712 LE
157.563 312.427 LS
157.563 313.556 LE
157.563 386.841 LS
157.563 385.712 LE
187.093 312.427 LS
187.093 313.556 LE
187.093 386.841 LS
187.093 385.712 LE
gsave
0.14902 0.14902 0.14902 C
(5) [10] 0 95.5037 296.886 10 /Helvetica SRX
grestore

gsave
0.14902 0.14902 0.14902 C
(10) [6 10] 0 122.033 296.886 10 /Helvetica SRX
grestore

gsave
0.14902 0.14902 0.14902 C
(15) [6 10] 0 151.563 296.886 10 /Helvetica SRX
grestore

gsave
0.14902 0.14902 0.14902 C
(20) [6 10] 0 181.093 296.886 10 /Helvetica SRX
grestore

74.88 314.321 LS
76.0043 314.321 LE
187.093 314.321 LS
185.968 314.321 LE
74.88 328.033 LS
76.0043 328.033 LE
187.093 328.033 LS
185.968 328.033 LE
74.88 341.745 LS
76.0043 341.745 LE
187.093 341.745 LS
185.968 341.745 LE
74.88 355.458 LS
76.0043 355.458 LE
187.093 355.458 LS
185.968 355.458 LE
74.88 369.17 LS
76.0043 369.17 LE
187.093 369.17 LS
185.968 369.17 LE
74.88 382.882 LS
76.0043 382.882 LE
187.093 382.882 LS
185.968 382.882 LE
gsave
0.14902 0.14902 0.14902 C
(0) [10] 0 63.8705 310.321 10 /Helvetica SRX
grestore

gsave
0.14902 0.14902 0.14902 C
(0.002) [6 3 6 6 10] 0 42.8705 324.033 10 /Helvetica SRX
grestore

gsave
0.14902 0.14902 0.14902 C
(0.004) [6 3 6 6 10] 0 42.8705 337.745 10 /Helvetica SRX
grestore

gsave
0.14902 0.14902 0.14902 C
(0.006) [6 3 6 6 10] 0 42.8705 351.458 10 /Helvetica SRX
grestore

gsave
0.14902 0.14902 0.14902 C
(0.008) [6 3 6 6 10] 0 42.8705 365.17 10 /Helvetica SRX
grestore

gsave
0.14902 0.14902 0.14902 C
(0.01) [6 3 6 10] 0 48.8705 378.882 10 /Helvetica SRX
grestore

2 LC
[16 0] 0 setdash
74.88 312.427 LS
187.093 312.427 LE
74.88 386.841 LS
187.093 386.841 LE
74.88 312.427 LS
74.88 386.841 LE
187.093 312.427 LS
187.093 386.841 LE
gsave
0 0 0 C
(Y_T_hat) [7 6 7 6 7 6 10] 0 109.486 398.841 11 /Helvetica-Bold SRX
grestore

0.9 0.9 0.9 C
74.88 312.427 74.88 320.381 80.7859 312.427 T
80.7859 336.774 80.7859 312.427 74.88 320.381 T
86.6918 312.427 80.7859 312.427 80.7859 336.774 T
86.6918 384.826 86.6918 312.427 80.7859 336.774 T
92.5978 312.427 86.6918 312.427 86.6918 384.826 T
92.5978 386.841 92.5978 312.427 86.6918 384.826 T
98.5037 312.427 92.5978 312.427 92.5978 386.841 T
98.5037 385.004 98.5037 312.427 92.5978 386.841 T
104.41 312.427 98.5037 312.427 98.5037 385.004 T
104.41 379.796 104.41 312.427 98.5037 385.004 T
110.316 312.427 104.41 312.427 104.41 379.796 T
110.316 372.022 110.316 312.427 104.41 379.796 T
116.221 312.427 110.316 312.427 110.316 372.022 T
116.221 367.338 116.221 312.427 110.316 372.022 T
122.127 312.427 116.221 312.427 116.221 367.338 T
122.127 363.447 122.127 312.427 116.221 367.338 T
128.033 312.427 122.127 312.427 122.127 363.447 T
128.033 360.523 128.033 312.427 122.127 363.447 T
133.939 312.427 128.033 312.427 128.033 360.523 T
133.939 356.932 133.939 312.427 128.033 360.523 T
139.845 312.427 133.939 312.427 133.939 356.932 T
139.845 354.675 139.845 312.427 133.939 356.932 T
145.751 312.427 139.845 312.427 139.845 354.675 T
145.751 351.743 145.751 312.427 139.845 354.675 T
151.657 312.427 145.751 312.427 145.751 351.743 T
151.657 349.244 151.657 312.427 145.751 351.743 T
157.563 312.427 151.657 312.427 151.657 349.244 T
157.563 347.088 157.563 312.427 151.657 349.244 T
163.469 312.427 157.563 312.427 157.563 347.088 T
163.469 345.264 163.469 312.427 157.563 347.088 T
169.375 312.427 163.469 312.427 163.469 345.264 T
169.375 343.698 169.375 312.427 163.469 345.264 T
175.281 312.427 169.375 312.427 169.375 343.698 T
175.281 342.255 175.281 312.427 169.375 343.698 T
181.187 312.427 175.281 312.427 175.281 342.255 T
181.187 341.019 181.187 312.427 175.281 342.255 T
187.093 312.427 181.187 312.427 181.187 341.019 T
187.093 339.289 187.093 312.427 181.187 341.019 T
0 LC
[] 0 setdash
0 0 0 C
187.093 339.289 LS
181.187 341.019 L
175.281 342.255 L
169.375 343.698 L
163.469 345.264 L
157.563 347.088 L
151.657 349.244 L
145.751 351.743 L
139.845 354.675 L
133.939 356.932 L
128.033 360.523 L
122.127 363.447 L
116.221 367.338 L
110.316 372.022 L
104.41 379.796 L
98.5037 385.004 L
92.5978 386.841 L
86.6918 384.826 L
80.7859 336.774 L
74.88 320.381 L
74.88 312.427 L
80.7859 312.427 L
86.6918 312.427 L
92.5978 312.427 L
98.5037 312.427 L
104.41 312.427 L
110.316 312.427 L
116.221 312.427 L
122.127 312.427 L
128.033 312.427 L
133.939 312.427 L
139.845 312.427 L
145.751 312.427 L
151.657 312.427 L
157.563 312.427 L
163.469 312.427 L
169.375 312.427 L
175.281 312.427 L
181.187 312.427 L
187.093 312.427 L
187.093 339.289 LE
1 1 1 C
74.88 312.427 80.7859 321.846 80.7859 312.427 T
86.6918 312.427 80.7859 312.427 80.7859 321.846 T
86.6918 346.71 86.6918 312.427 80.7859 321.846 T
92.5978 312.427 86.6918 312.427 86.6918 346.71 T
92.5978 348.886 92.5978 312.427 86.6918 346.71 T
98.5037 312.427 92.5978 312.427 92.5978 348.886 T
98.5037 349.865 98.5037 312.427 92.5978 348.886 T
104.41 312.427 98.5037 312.427 98.5037 349.865 T
104.41 346.84 104.41 312.427 98.5037 349.865 T
110.316 312.427 104.41 312.427 104.41 346.84 T
110.316 341.182 110.316 312.427 104.41 346.84 T
116.221 312.427 110.316 312.427 110.316 341.182 T
116.221 338.318 116.221 312.427 110.316 341.182 T
122.127 312.427 116.221 312.427 116.221 338.318 T
122.127 335.849 122.127 312.427 116.221 338.318 T
128.033 312.427 122.127 312.427 122.127 335.849 T
128.033 334.204 128.033 312.427 122.127 335.849 T
133.939 312.427 128.033 312.427 128.033 334.204 T
133.939 332.004 133.939 312.427 128.033 334.204 T
139.845 312.427 133.939 312.427 133.939 332.004 T
139.845 331.082 139.845 312.427 133.939 332.004 T
145.751 312.427 139.845 312.427 139.845 331.082 T
145.751 329.301 145.751 312.427 139.845 331.082 T
151.657 312.427 145.751 312.427 145.751 329.301 T
151.657 327.933 151.657 312.427 145.751 329.301 T
157.563 312.427 151.657 312.427 151.657 327.933 T
157.563 326.794 157.563 312.427 151.657 327.933 T
163.469 312.427 157.563 312.427 157.563 326.794 T
163.469 325.935 163.469 312.427 157.563 326.794 T
169.375 312.427 163.469 312.427 163.469 325.935 T
169.375 325.301 169.375 312.427 163.469 325.935 T
175.281 312.427 169.375 312.427 169.375 325.301 T
175.281 324.684 175.281 312.427 169.375 325.301 T
181.187 312.427 175.281 312.427 175.281 324.684 T
181.187 324.23 181.187 312.427 175.281 324.684 T
187.093 312.427 181.187 312.427 181.187 324.23 T
187.093 323.281 187.093 312.427 181.187 324.23 T
0 0 0 C
187.093 323.281 LS
181.187 324.23 L
175.281 324.684 L
169.375 325.301 L
163.469 325.935 L
157.563 326.794 L
151.657 327.933 L
145.751 329.301 L
139.845 331.082 L
133.939 332.004 L
128.033 334.204 L
122.127 335.849 L
116.221 338.318 L
110.316 341.182 L
104.41 346.84 L
98.5037 349.865 L
92.5978 348.886 L
86.6918 346.71 L
80.7859 321.846 L
74.88 312.427 L
80.7859 312.427 L
86.6918 312.427 L
92.5978 312.427 L
98.5037 312.427 L
104.41 312.427 L
110.316 312.427 L
116.221 312.427 L
122.127 312.427 L
128.033 312.427 L
133.939 312.427 L
139.845 312.427 L
145.751 312.427 L
151.657 312.427 L
157.563 312.427 L
163.469 312.427 L
169.375 312.427 L
175.281 312.427 L
181.187 312.427 L
187.093 312.427 L
187.093 323.281 LE
3 W
1 LJ
74.88 316.449 LS
80.7859 329.01 L
86.6918 366.895 L
92.5978 369.891 L
98.5037 366.531 L
104.41 362.01 L
110.316 357.585 L
116.221 353.579 L
122.127 350.047 L
128.033 346.964 L
133.939 344.281 L
139.845 341.947 L
145.751 339.914 L
151.657 338.139 L
157.563 336.585 L
163.469 335.222 L
169.375 334.023 L
175.281 332.964 L
181.187 332.027 L
187.093 331.195 LE
grestore
gsave
1.0 1.0 scale
newpath 0 0 moveto 576 0 lineto 576 432 lineto 0 432 lineto
closepath clip
1 1 1 C
241.974 386.841 354.186 312.427 241.974 312.427 T
241.974 386.841 354.186 386.841 354.186 312.427 T
0.5 W
0.15 0.15 0.15 C
265.597 312.427 LS
265.597 313.556 LE
265.597 386.841 LS
265.597 385.712 LE
295.127 312.427 LS
295.127 313.556 LE
295.127 386.841 LS
295.127 385.712 LE
324.657 312.427 LS
324.657 313.556 LE
324.657 386.841 LS
324.657 385.712 LE
354.186 312.427 LS
354.186 313.556 LE
354.186 386.841 LS
354.186 385.712 LE
gsave
0.14902 0.14902 0.14902 C
(5) [10] 0 262.597 296.886 10 /Helvetica SRX
grestore

gsave
0.14902 0.14902 0.14902 C
(10) [6 10] 0 289.127 296.886 10 /Helvetica SRX
grestore

gsave
0.14902 0.14902 0.14902 C
(15) [6 10] 0 318.657 296.886 10 /Helvetica SRX
grestore

gsave
0.14902 0.14902 0.14902 C
(20) [6 10] 0 348.186 296.886 10 /Helvetica SRX
grestore

241.974 331.02 LS
243.098 331.02 LE
354.186 331.02 LS
353.062 331.02 LE
241.974 351.912 LS
243.098 351.912 LE
354.186 351.912 LS
353.062 351.912 LE
241.974 372.804 LS
243.098 372.804 LE
354.186 372.804 LS
353.062 372.804 LE
gsave
0.14902 0.14902 0.14902 C
(0.005) [6 3 6 6 10] 0 209.964 327.02 10 /Helvetica SRX
grestore

gsave
0.14902 0.14902 0.14902 C
(0.01) [6 3 6 10] 0 215.964 347.912 10 /Helvetica SRX
grestore

gsave
0.14902 0.14902 0.14902 C
(0.015) [6 3 6 6 10] 0 209.964 368.804 10 /Helvetica SRX
grestore

2 LC
[16 0] 0 setdash
241.974 312.427 LS
354.186 312.427 LE
241.974 386.841 LS
354.186 386.841 LE
241.974 312.427 LS
241.974 386.841 LE
354.186 312.427 LS
354.186 386.841 LE
gsave
0 0 0 C
(Y_N_hat) [7 6 8 6 7 6 10] 0 276.08 398.841 11 /Helvetica-Bold SRX
grestore

0.9 0.9 0.9 C
241.974 312.427 241.974 315.311 247.88 312.427 T
247.88 320.905 247.88 312.427 241.974 315.311 T
253.786 312.427 247.88 312.427 247.88 320.905 T
253.786 386.841 253.786 312.427 247.88 320.905 T
259.691 312.427 253.786 312.427 253.786 386.841 T
259.691 379.973 259.691 312.427 253.786 386.841 T
265.597 312.427 259.691 312.427 259.691 379.973 T
265.597 374.633 265.597 312.427 259.691 379.973 T
271.503 312.427 265.597 312.427 265.597 374.633 T
271.503 369.066 271.503 312.427 265.597 374.633 T
277.409 312.427 271.503 312.427 271.503 369.066 T
277.409 363.322 277.409 312.427 271.503 369.066 T
283.315 312.427 277.409 312.427 277.409 363.322 T
283.315 357.889 283.315 312.427 277.409 363.322 T
289.221 312.427 283.315 312.427 283.315 357.889 T
289.221 353.516 289.221 312.427 283.315 357.889 T
295.127 312.427 289.221 312.427 289.221 353.516 T
295.127 350.333 295.127 312.427 289.221 353.516 T
301.033 312.427 295.127 312.427 295.127 350.333 T
301.033 347.188 301.033 312.427 295.127 350.333 T
306.939 312.427 301.033 312.427 301.033 347.188 T
306.939 343.164 306.939 312.427 301.033 347.188 T
312.845 312.427 306.939 312.427 306.939 343.164 T
312.845 340.317 312.845 312.427 306.939 343.164 T
318.751 312.427 312.845 312.427 312.845 340.317 T
318.751 337.899 318.751 312.427 312.845 340.317 T
324.657 312.427 318.751 312.427 318.751 337.899 T
324.657 335.607 324.657 312.427 318.751 337.899 T
330.563 312.427 324.657 312.427 324.657 335.607 T
330.563 333.675 330.563 312.427 324.657 335.607 T
336.469 312.427 330.563 312.427 330.563 333.675 T
336.469 331.921 336.469 312.427 330.563 333.675 T
342.374 312.427 336.469 312.427 336.469 331.921 T
342.374 330.376 342.374 312.427 336.469 331.921 T
348.28 312.427 342.374 312.427 342.374 330.376 T
348.28 329.005 348.28 312.427 342.374 330.376 T
354.186 312.427 348.28 312.427 348.28 329.005 T
354.186 327.153 354.186 312.427 348.28 329.005 T
0 LC
[] 0 setdash
0 0 0 C
354.186 327.153 LS
348.28 329.005 L
342.374 330.376 L
336.469 331.921 L
330.563 333.675 L
324.657 335.607 L
318.751 337.899 L
312.845 340.317 L
306.939 343.164 L
301.033 347.188 L
295.127 350.333 L
289.221 353.516 L
283.315 357.889 L
277.409 363.322 L
271.503 369.066 L
265.597 374.633 L
259.691 379.973 L
253.786 386.841 L
247.88 320.905 L
241.974 315.311 L
241.974 312.427 L
247.88 312.427 L
253.786 312.427 L
259.691 312.427 L
265.597 312.427 L
271.503 312.427 L
277.409 312.427 L
283.315 312.427 L
289.221 312.427 L
295.127 312.427 L
301.033 312.427 L
306.939 312.427 L
312.845 312.427 L
318.751 312.427 L
324.657 312.427 L
330.563 312.427 L
336.469 312.427 L
342.374 312.427 L
348.28 312.427 L
354.186 312.427 L
354.186 327.153 LE
1 1 1 C
241.974 312.427 247.88 314.966 247.88 312.427 T
253.786 312.427 247.88 312.427 247.88 314.966 T
253.786 349.33 253.786 312.427 247.88 314.966 T
259.691 312.427 253.786 312.427 253.786 349.33 T
259.691 345.094 259.691 312.427 253.786 349.33 T
265.597 312.427 259.691 312.427 259.691 345.094 T
265.597 342.411 265.597 312.427 259.691 345.094 T
271.503 312.427 265.597 312.427 265.597 342.411 T
271.503 339.492 271.503 312.427 265.597 342.411 T
277.409 312.427 271.503 312.427 271.503 339.492 T
277.409 335.387 277.409 312.427 271.503 339.492 T
283.315 312.427 277.409 312.427 277.409 335.387 T
283.315 331.754 283.315 312.427 277.409 335.387 T
289.221 312.427 283.315 312.427 283.315 331.754 T
289.221 329.046 289.221 312.427 283.315 331.754 T
295.127 312.427 289.221 312.427 289.221 329.046 T
295.127 327.144 295.127 312.427 289.221 329.046 T
301.033 312.427 295.127 312.427 295.127 327.144 T
301.033 325.553 301.033 312.427 295.127 327.144 T
306.939 312.427 301.033 312.427 301.033 325.553 T
306.939 322.934 306.939 312.427 301.033 325.553 T
312.845 312.427 306.939 312.427 306.939 322.934 T
312.845 321.456 312.845 312.427 306.939 322.934 T
318.751 312.427 312.845 312.427 312.845 321.456 T
318.751 320.266 318.751 312.427 312.845 321.456 T
324.657 312.427 318.751 312.427 318.751 320.266 T
324.657 319.135 324.657 312.427 318.751 320.266 T
330.563 312.427 324.657 312.427 324.657 319.135 T
330.563 318.21 330.563 312.427 324.657 319.135 T
336.469 312.427 330.563 312.427 330.563 318.21 T
336.469 317.451 336.469 312.427 330.563 318.21 T
342.374 312.427 336.469 312.427 336.469 317.451 T
342.374 316.796 342.374 312.427 336.469 317.451 T
348.28 312.427 342.374 312.427 342.374 316.796 T
348.28 316.252 348.28 312.427 342.374 316.796 T
354.186 312.427 348.28 312.427 348.28 316.252 T
354.186 315.227 354.186 312.427 348.28 316.252 T
0 0 0 C
354.186 315.227 LS
348.28 316.252 L
342.374 316.796 L
336.469 317.451 L
330.563 318.21 L
324.657 319.135 L
318.751 320.266 L
312.845 321.456 L
306.939 322.934 L
301.033 325.553 L
295.127 327.144 L
289.221 329.046 L
283.315 331.754 L
277.409 335.387 L
271.503 339.492 L
265.597 342.411 L
259.691 345.094 L
253.786 349.33 L
247.88 314.966 L
241.974 312.427 L
247.88 312.427 L
253.786 312.427 L
259.691 312.427 L
265.597 312.427 L
271.503 312.427 L
277.409 312.427 L
283.315 312.427 L
289.221 312.427 L
295.127 312.427 L
301.033 312.427 L
306.939 312.427 L
312.845 312.427 L
318.751 312.427 L
324.657 312.427 L
330.563 312.427 L
336.469 312.427 L
342.374 312.427 L
348.28 312.427 L
354.186 312.427 L
354.186 315.227 LE
3 W
1 LJ
241.974 313.847 LS
247.88 317.793 L
253.786 367.102 L
259.691 362.463 L
265.597 357.816 L
271.503 353.234 L
277.409 348.91 L
283.315 344.952 L
289.221 341.396 L
295.127 338.236 L
301.033 335.447 L
306.939 332.997 L
312.845 330.848 L
318.751 328.967 L
324.657 327.322 L
330.563 325.884 L
336.469 324.625 L
342.374 323.525 L
348.28 322.562 L
354.186 321.718 LE
grestore
gsave
1.0 1.0 scale
newpath 0 0 moveto 576 0 lineto 576 432 lineto 0 432 lineto
closepath clip
1 1 1 C
409.067 386.841 521.28 312.427 409.067 312.427 T
409.067 386.841 521.28 386.841 521.28 312.427 T
0.5 W
0.15 0.15 0.15 C
432.691 312.427 LS
432.691 313.556 LE
432.691 386.841 LS
432.691 385.712 LE
462.221 312.427 LS
462.221 313.556 LE
462.221 386.841 LS
462.221 385.712 LE
491.75 312.427 LS
491.75 313.556 LE
491.75 386.841 LS
491.75 385.712 LE
521.28 312.427 LS
521.28 313.556 LE
521.28 386.841 LS
521.28 385.712 LE
gsave
0.14902 0.14902 0.14902 C
(5) [10] 0 429.691 296.886 10 /Helvetica SRX
grestore

gsave
0.14902 0.14902 0.14902 C
(10) [6 10] 0 456.221 296.886 10 /Helvetica SRX
grestore

gsave
0.14902 0.14902 0.14902 C
(15) [6 10] 0 485.75 296.886 10 /Helvetica SRX
grestore

gsave
0.14902 0.14902 0.14902 C
(20) [6 10] 0 515.28 296.886 10 /Helvetica SRX
grestore

409.067 316.979 LS
410.192 316.979 LE
521.28 316.979 LS
520.156 316.979 LE
409.067 328.502 LS
410.192 328.502 LE
521.28 328.502 LS
520.156 328.502 LE
409.067 340.026 LS
410.192 340.026 LE
521.28 340.026 LS
520.156 340.026 LE
409.067 351.55 LS
410.192 351.55 LE
521.28 351.55 LS
520.156 351.55 LE
409.067 363.073 LS
410.192 363.073 LE
521.28 363.073 LS
520.156 363.073 LE
409.067 374.597 LS
410.192 374.597 LE
521.28 374.597 LS
520.156 374.597 LE
409.067 386.121 LS
410.192 386.121 LE
521.28 386.121 LS
520.156 386.121 LE
gsave
0.14902 0.14902 0.14902 C
(0.001) [6 3 6 6 10] 0 377.058 312.979 10 /Helvetica SRX
grestore

gsave
0.14902 0.14902 0.14902 C
(0.002) [6 3 6 6 10] 0 377.058 324.502 10 /Helvetica SRX
grestore

gsave
0.14902 0.14902 0.14902 C
(0.003) [6 3 6 6 10] 0 377.058 336.026 10 /Helvetica SRX
grestore

gsave
0.14902 0.14902 0.14902 C
(0.004) [6 3 6 6 10] 0 377.058 347.55 10 /Helvetica SRX
grestore

gsave
0.14902 0.14902 0.14902 C
(0.005) [6 3 6 6 10] 0 377.058 359.073 10 /Helvetica SRX
grestore

gsave
0.14902 0.14902 0.14902 C
(0.006) [6 3 6 6 10] 0 377.058 370.597 10 /Helvetica SRX
grestore

gsave
0.14902 0.14902 0.14902 C
(0.007) [6 3 6 6 10] 0 377.058 382.121 10 /Helvetica SRX
grestore

2 LC
[16 0] 0 setdash
409.067 312.427 LS
521.28 312.427 LE
409.067 386.841 LS
521.28 386.841 LE
409.067 312.427 LS
409.067 386.841 LE
521.28 312.427 LS
521.28 386.841 LE
gsave
0 0 0 C
(Y_C_hat) [7 6 8 6 7 6 10] 0 443.174 398.841 11 /Helvetica-Bold SRX
grestore

0.9 0.9 0.9 C
409.067 312.427 409.067 320.285 414.973 312.427 T
414.973 341.267 414.973 312.427 409.067 320.285 T
420.879 312.427 414.973 312.427 414.973 341.267 T
420.879 372.32 420.879 312.427 414.973 341.267 T
426.785 312.427 420.879 312.427 420.879 372.32 T
426.785 384.17 426.785 312.427 420.879 372.32 T
432.691 312.427 426.785 312.427 426.785 384.17 T
432.691 386.841 432.691 312.427 426.785 384.17 T
438.597 312.427 432.691 312.427 432.691 386.841 T
438.597 386.579 438.597 312.427 432.691 386.841 T
444.503 312.427 438.597 312.427 438.597 386.579 T
444.503 384.502 444.503 312.427 438.597 386.579 T
450.409 312.427 444.503 312.427 444.503 384.502 T
450.409 380.227 450.409 312.427 444.503 384.502 T
456.315 312.427 450.409 312.427 450.409 380.227 T
456.315 377.057 456.315 312.427 450.409 380.227 T
462.221 312.427 456.315 312.427 456.315 377.057 T
462.221 372.263 462.221 312.427 456.315 377.057 T
468.127 312.427 462.221 312.427 462.221 372.263 T
468.127 366.515 468.127 312.427 462.221 372.263 T
474.033 312.427 468.127 312.427 468.127 366.515 T
474.033 364.085 474.033 312.427 468.127 366.515 T
479.939 312.427 474.033 312.427 474.033 364.085 T
479.939 360.756 479.939 312.427 474.033 364.085 T
485.844 312.427 479.939 312.427 479.939 360.756 T
485.844 357.281 485.844 312.427 479.939 360.756 T
491.75 312.427 485.844 312.427 485.844 357.281 T
491.75 353.639 491.75 312.427 485.844 357.281 T
497.656 312.427 491.75 312.427 491.75 353.639 T
497.656 348.532 497.656 312.427 491.75 353.639 T
503.562 312.427 497.656 312.427 497.656 348.532 T
503.562 345.835 503.562 312.427 497.656 348.532 T
509.468 312.427 503.562 312.427 503.562 345.835 T
509.468 343.109 509.468 312.427 503.562 345.835 T
515.374 312.427 509.468 312.427 509.468 343.109 T
515.374 341.383 515.374 312.427 509.468 343.109 T
521.28 312.427 515.374 312.427 515.374 341.383 T
521.28 339.228 521.28 312.427 515.374 341.383 T
0 LC
[] 0 setdash
0 0 0 C
521.28 339.228 LS
515.374 341.383 L
509.468 343.109 L
503.562 345.835 L
497.656 348.532 L
491.75 353.639 L
485.844 357.281 L
479.939 360.756 L
474.033 364.085 L
468.127 366.515 L
462.221 372.263 L
456.315 377.057 L
450.409 380.227 L
444.503 384.502 L
438.597 386.579 L
432.691 386.841 L
426.785 384.17 L
420.879 372.32 L
414.973 341.267 L
409.067 320.285 L
409.067 312.427 L
414.973 312.427 L
420.879 312.427 L
426.785 312.427 L
432.691 312.427 L
438.597 312.427 L
444.503 312.427 L
450.409 312.427 L
456.315 312.427 L
462.221 312.427 L
468.127 312.427 L
474.033 312.427 L
479.939 312.427 L
485.844 312.427 L
491.75 312.427 L
497.656 312.427 L
503.562 312.427 L
509.468 312.427 L
515.374 312.427 L
521.28 312.427 L
521.28 339.228 LE
1 1 1 C
409.067 312.427 414.973 320.763 414.973 312.427 T
420.879 312.427 414.973 312.427 414.973 320.763 T
420.879 330.027 420.879 312.427 414.973 320.763 T
426.785 312.427 420.879 312.427 420.879 330.027 T
426.785 335.717 426.785 312.427 420.879 330.027 T
432.691 312.427 426.785 312.427 426.785 335.717 T
432.691 338.781 432.691 312.427 426.785 335.717 T
438.597 312.427 432.691 312.427 432.691 338.781 T
438.597 339.381 438.597 312.427 432.691 338.781 T
444.503 312.427 438.597 312.427 438.597 339.381 T
444.503 339.75 444.503 312.427 438.597 339.381 T
450.409 312.427 444.503 312.427 444.503 339.75 T
450.409 338.084 450.409 312.427 444.503 339.75 T
456.315 312.427 450.409 312.427 450.409 338.084 T
456.315 337.601 456.315 312.427 450.409 338.084 T
462.221 312.427 456.315 312.427 456.315 337.601 T
462.221 334.538 462.221 312.427 456.315 337.601 T
468.127 312.427 462.221 312.427 462.221 334.538 T
468.127 330.245 468.127 312.427 462.221 334.538 T
474.033 312.427 468.127 312.427 468.127 330.245 T
474.033 329.565 474.033 312.427 468.127 330.245 T
479.939 312.427 474.033 312.427 474.033 329.565 T
479.939 328.023 479.939 312.427 474.033 329.565 T
485.844 312.427 479.939 312.427 479.939 328.023 T
485.844 326.318 485.844 312.427 479.939 328.023 T
491.75 312.427 485.844 312.427 485.844 326.318 T
491.75 324.165 491.75 312.427 485.844 326.318 T
497.656 312.427 491.75 312.427 491.75 324.165 T
497.656 320.729 497.656 312.427 491.75 324.165 T
503.562 312.427 497.656 312.427 497.656 320.729 T
503.562 319.498 503.562 312.427 497.656 320.729 T
509.468 312.427 503.562 312.427 503.562 319.498 T
509.468 318.249 509.468 312.427 503.562 319.498 T
515.374 312.427 509.468 312.427 509.468 318.249 T
515.374 317.791 515.374 312.427 509.468 318.249 T
521.28 312.427 515.374 312.427 515.374 317.791 T
521.28 316.975 521.28 312.427 515.374 317.791 T
0 0 0 C
521.28 316.975 LS
515.374 317.791 L
509.468 318.249 L
503.562 319.498 L
497.656 320.729 L
491.75 324.165 L
485.844 326.318 L
479.939 328.023 L
474.033 329.565 L
468.127 330.245 L
462.221 334.538 L
456.315 337.601 L
450.409 338.084 L
444.503 339.75 L
438.597 339.381 L
432.691 338.781 L
426.785 335.717 L
420.879 330.027 L
414.973 320.763 L
409.067 312.427 L
414.973 312.427 L
420.879 312.427 L
426.785 312.427 L
432.691 312.427 L
438.597 312.427 L
444.503 312.427 L
450.409 312.427 L
456.315 312.427 L
462.221 312.427 L
468.127 312.427 L
474.033 312.427 L
479.939 312.427 L
485.844 312.427 L
491.75 312.427 L
497.656 312.427 L
503.562 312.427 L
509.468 312.427 L
515.374 312.427 L
521.28 312.427 L
521.28 316.975 LE
3 W
1 LJ
409.067 316.375 LS
414.973 331.017 L
420.879 350.665 L
426.785 359.506 L
432.691 362.909 L
438.597 363.169 L
444.503 361.584 L
450.409 358.958 L
456.315 355.799 L
462.221 352.434 L
468.127 349.067 L
474.033 345.821 L
479.939 342.77 L
485.844 339.951 L
491.75 337.378 L
497.656 335.051 L
503.562 332.962 L
509.468 331.097 L
515.374 329.439 L
521.28 327.97 LE
grestore
gsave
1.0 1.0 scale
newpath 0 0 moveto 576 0 lineto 576 432 lineto 0 432 lineto
closepath clip
1 1 1 C
74.88 254.387 187.093 179.974 74.88 179.974 T
74.88 254.387 187.093 254.387 187.093 179.974 T
0.5 W
0.15 0.15 0.15 C
98.5037 179.974 LS
98.5037 181.102 LE
98.5037 254.387 LS
98.5037 253.258 LE
128.033 179.974 LS
128.033 181.102 LE
128.033 254.387 LS
128.033 253.258 LE
157.563 179.974 LS
157.563 181.102 LE
157.563 254.387 LS
157.563 253.258 LE
187.093 179.974 LS
187.093 181.102 LE
187.093 254.387 LS
187.093 253.258 LE
gsave
0.14902 0.14902 0.14902 C
(5) [10] 0 95.5037 164.432 10 /Helvetica SRX
grestore

gsave
0.14902 0.14902 0.14902 C
(10) [6 10] 0 122.033 164.432 10 /Helvetica SRX
grestore

gsave
0.14902 0.14902 0.14902 C
(15) [6 10] 0 151.563 164.432 10 /Helvetica SRX
grestore

gsave
0.14902 0.14902 0.14902 C
(20) [6 10] 0 181.093 164.432 10 /Helvetica SRX
grestore

74.88 181.964 LS
76.0043 181.964 LE
187.093 181.964 LS
185.968 181.964 LE
74.88 204.729 LS
76.0043 204.729 LE
187.093 204.729 LS
185.968 204.729 LE
74.88 227.495 LS
76.0043 227.495 LE
187.093 227.495 LS
185.968 227.495 LE
74.88 250.26 LS
76.0043 250.26 LE
187.093 250.26 LS
185.968 250.26 LE
gsave
0.14902 0.14902 0.14902 C
(0) [10] 0 63.8705 177.964 10 /Helvetica SRX
grestore

gsave
0.14902 0.14902 0.14902 C
(0.005) [6 3 6 6 10] 0 42.8705 200.729 10 /Helvetica SRX
grestore

gsave
0.14902 0.14902 0.14902 C
(0.01) [6 3 6 10] 0 48.8705 223.495 10 /Helvetica SRX
grestore

gsave
0.14902 0.14902 0.14902 C
(0.015) [6 3 6 6 10] 0 42.8705 246.26 10 /Helvetica SRX
grestore

2 LC
[16 0] 0 setdash
74.88 179.974 LS
187.093 179.974 LE
74.88 254.387 LS
187.093 254.387 LE
74.88 179.974 LS
74.88 254.387 LE
187.093 179.974 LS
187.093 254.387 LE
gsave
0 0 0 C
(L_T_hat) [7 6 7 6 7 6 10] 0 109.486 266.387 11 /Helvetica-Bold SRX
grestore

0.9 0.9 0.9 C
74.88 179.974 74.88 188.337 80.7859 179.974 T
80.7859 204.118 80.7859 179.974 74.88 188.337 T
86.6918 179.974 80.7859 179.974 80.7859 204.118 T
86.6918 253.284 86.6918 179.974 80.7859 204.118 T
92.5978 179.974 86.6918 179.974 86.6918 253.284 T
92.5978 254.387 92.5978 179.974 86.6918 253.284 T
98.5037 179.974 92.5978 179.974 92.5978 254.387 T
98.5037 251.083 98.5037 179.974 92.5978 254.387 T
104.41 179.974 98.5037 179.974 98.5037 251.083 T
104.41 244.303 104.41 179.974 98.5037 251.083 T
110.316 179.974 104.41 179.974 104.41 244.303 T
110.316 235.797 110.316 179.974 104.41 244.303 T
116.221 179.974 110.316 179.974 110.316 235.797 T
116.221 230.577 116.221 179.974 110.316 235.797 T
122.127 179.974 116.221 179.974 116.221 230.577 T
122.127 225.606 122.127 179.974 116.221 230.577 T
128.033 179.974 122.127 179.974 122.127 225.606 T
128.033 221.142 128.033 179.974 122.127 225.606 T
133.939 179.974 128.033 179.974 128.033 221.142 T
133.939 217.607 133.939 179.974 128.033 221.142 T
139.845 179.974 133.939 179.974 133.939 217.607 T
139.845 214.447 139.845 179.974 133.939 217.607 T
145.751 179.974 139.845 179.974 139.845 214.447 T
145.751 211.062 145.751 179.974 139.845 214.447 T
151.657 179.974 145.751 179.974 145.751 211.062 T
151.657 208.261 151.657 179.974 145.751 211.062 T
157.563 179.974 151.657 179.974 151.657 208.261 T
157.563 205.799 157.563 179.974 151.657 208.261 T
163.469 179.974 157.563 179.974 157.563 205.799 T
163.469 203.817 163.469 179.974 157.563 205.799 T
169.375 179.974 163.469 179.974 163.469 203.817 T
169.375 201.598 169.375 179.974 163.469 203.817 T
175.281 179.974 169.375 179.974 169.375 201.598 T
175.281 199.9 175.281 179.974 169.375 201.598 T
181.187 179.974 175.281 179.974 175.281 199.9 T
181.187 198.449 181.187 179.974 175.281 199.9 T
187.093 179.974 181.187 179.974 181.187 198.449 T
187.093 197.278 187.093 179.974 181.187 198.449 T
0 LC
[] 0 setdash
0 0 0 C
187.093 197.278 LS
181.187 198.449 L
175.281 199.9 L
169.375 201.598 L
163.469 203.817 L
157.563 205.799 L
151.657 208.261 L
145.751 211.062 L
139.845 214.447 L
133.939 217.607 L
128.033 221.142 L
122.127 225.606 L
116.221 230.577 L
110.316 235.797 L
104.41 244.303 L
98.5037 251.083 L
92.5978 254.387 L
86.6918 253.284 L
80.7859 204.118 L
74.88 188.337 L
74.88 179.974 L
80.7859 179.974 L
86.6918 179.974 L
92.5978 179.974 L
98.5037 179.974 L
104.41 179.974 L
110.316 179.974 L
116.221 179.974 L
122.127 179.974 L
128.033 179.974 L
133.939 179.974 L
139.845 179.974 L
145.751 179.974 L
151.657 179.974 L
157.563 179.974 L
163.469 179.974 L
169.375 179.974 L
175.281 179.974 L
181.187 179.974 L
187.093 179.974 L
187.093 197.278 LE
1 1 1 C
74.88 179.974 80.7859 188.942 80.7859 179.974 T
86.6918 179.974 80.7859 179.974 80.7859 188.942 T
86.6918 214.433 86.6918 179.974 80.7859 188.942 T
92.5978 179.974 86.6918 179.974 86.6918 214.433 T
92.5978 216.628 92.5978 179.974 86.6918 214.433 T
98.5037 179.974 92.5978 179.974 92.5978 216.628 T
98.5037 216.643 98.5037 179.974 92.5978 216.628 T
104.41 179.974 98.5037 179.974 98.5037 216.643 T
104.41 212.807 104.41 179.974 98.5037 216.643 T
110.316 179.974 104.41 179.974 104.41 212.807 T
110.316 206.9 110.316 179.974 104.41 212.807 T
116.221 179.974 110.316 179.974 110.316 206.9 T
116.221 203.906 116.221 179.974 110.316 206.9 T
122.127 179.974 116.221 179.974 116.221 203.906 T
122.127 200.881 122.127 179.974 116.221 203.906 T
128.033 179.974 122.127 179.974 122.127 200.881 T
128.033 198.077 128.033 179.974 122.127 200.881 T
133.939 179.974 128.033 179.974 128.033 198.077 T
133.939 196.202 133.939 179.974 128.033 198.077 T
139.845 179.974 133.939 179.974 133.939 196.202 T
139.845 194.526 139.845 179.974 133.939 196.202 T
145.751 179.974 139.845 179.974 139.845 194.526 T
145.751 192.585 145.751 179.974 139.845 194.526 T
151.657 179.974 145.751 179.974 145.751 192.585 T
151.657 191.058 151.657 179.974 145.751 192.585 T
157.563 179.974 151.657 179.974 151.657 191.058 T
157.563 189.758 157.563 179.974 151.657 191.058 T
163.469 179.974 157.563 179.974 157.563 189.758 T
163.469 188.875 163.469 179.974 157.563 189.758 T
169.375 179.974 163.469 179.974 163.469 188.875 T
169.375 187.778 169.375 179.974 163.469 188.875 T
175.281 179.974 169.375 179.974 169.375 187.778 T
175.281 187.114 175.281 179.974 169.375 187.778 T
181.187 179.974 175.281 179.974 175.281 187.114 T
181.187 186.619 181.187 179.974 175.281 187.114 T
187.093 179.974 181.187 179.974 181.187 186.619 T
187.093 186.318 187.093 179.974 181.187 186.619 T
0 0 0 C
187.093 186.318 LS
181.187 186.619 L
175.281 187.114 L
169.375 187.778 L
163.469 188.875 L
157.563 189.758 L
151.657 191.058 L
145.751 192.585 L
139.845 194.526 L
133.939 196.202 L
128.033 198.077 L
122.127 200.881 L
116.221 203.906 L
110.316 206.9 L
104.41 212.807 L
98.5037 216.643 L
92.5978 216.628 L
86.6918 214.433 L
80.7859 188.942 L
74.88 179.974 L
80.7859 179.974 L
86.6918 179.974 L
92.5978 179.974 L
98.5037 179.974 L
104.41 179.974 L
110.316 179.974 L
116.221 179.974 L
122.127 179.974 L
128.033 179.974 L
133.939 179.974 L
139.845 179.974 L
145.751 179.974 L
151.657 179.974 L
157.563 179.974 L
163.469 179.974 L
169.375 179.974 L
175.281 179.974 L
181.187 179.974 L
187.093 179.974 L
187.093 186.318 LE
3 W
1 LJ
74.88 184.202 LS
80.7859 196.348 L
86.6918 235.145 L
92.5978 237.362 L
98.5037 233.012 L
104.41 227.553 L
110.316 222.297 L
116.221 217.571 L
122.127 213.425 L
128.033 209.822 L
133.939 206.703 L
139.845 204.006 L
145.751 201.672 L
151.657 199.653 L
157.563 197.903 L
163.469 196.384 L
169.375 195.066 L
175.281 193.919 L
181.187 192.92 L
187.093 192.05 LE
grestore
gsave
1.0 1.0 scale
newpath 0 0 moveto 576 0 lineto 576 432 lineto 0 432 lineto
closepath clip
1 1 1 C
241.974 254.387 354.186 179.974 241.974 179.974 T
241.974 254.387 354.186 254.387 354.186 179.974 T
0.5 W
0.15 0.15 0.15 C
265.597 179.974 LS
265.597 181.102 LE
265.597 254.387 LS
265.597 253.258 LE
295.127 179.974 LS
295.127 181.102 LE
295.127 254.387 LS
295.127 253.258 LE
324.657 179.974 LS
324.657 181.102 LE
324.657 254.387 LS
324.657 253.258 LE
354.186 179.974 LS
354.186 181.102 LE
354.186 254.387 LS
354.186 253.258 LE
gsave
0.14902 0.14902 0.14902 C
(5) [10] 0 262.597 164.432 10 /Helvetica SRX
grestore

gsave
0.14902 0.14902 0.14902 C
(10) [6 10] 0 289.127 164.432 10 /Helvetica SRX
grestore

gsave
0.14902 0.14902 0.14902 C
(15) [6 10] 0 318.657 164.432 10 /Helvetica SRX
grestore

gsave
0.14902 0.14902 0.14902 C
(20) [6 10] 0 348.186 164.432 10 /Helvetica SRX
grestore

241.974 184.979 LS
243.098 184.979 LE
354.186 184.979 LS
353.062 184.979 LE
241.974 203.767 LS
243.098 203.767 LE
354.186 203.767 LS
353.062 203.767 LE
241.974 222.555 LS
243.098 222.555 LE
354.186 222.555 LS
353.062 222.555 LE
241.974 241.342 LS
243.098 241.342 LE
354.186 241.342 LS
353.062 241.342 LE
gsave
0.14902 0.14902 0.14902 C
(0.001) [6 3 6 6 10] 0 209.964 180.979 10 /Helvetica SRX
grestore

gsave
0.14902 0.14902 0.14902 C
(0.002) [6 3 6 6 10] 0 209.964 199.767 10 /Helvetica SRX
grestore

gsave
0.14902 0.14902 0.14902 C
(0.003) [6 3 6 6 10] 0 209.964 218.555 10 /Helvetica SRX
grestore

gsave
0.14902 0.14902 0.14902 C
(0.004) [6 3 6 6 10] 0 209.964 237.342 10 /Helvetica SRX
grestore

2 LC
[16 0] 0 setdash
241.974 179.974 LS
354.186 179.974 LE
241.974 254.387 LS
354.186 254.387 LE
241.974 179.974 LS
241.974 254.387 LE
354.186 179.974 LS
354.186 254.387 LE
gsave
0 0 0 C
(L_N_hat) [7 6 8 6 7 6 10] 0 276.08 266.387 11 /Helvetica-Bold SRX
grestore

0.9 0.9 0.9 C
241.974 179.974 241.974 197.262 247.88 179.974 T
247.88 230.861 247.88 179.974 241.974 197.262 T
253.786 179.974 247.88 179.974 247.88 230.861 T
253.786 233.51 253.786 179.974 247.88 230.861 T
259.691 179.974 253.786 179.974 253.786 233.51 T
259.691 244.563 259.691 179.974 253.786 233.51 T
265.597 179.974 259.691 179.974 259.691 244.563 T
265.597 254.387 265.597 179.974 259.691 244.563 T
271.503 179.974 265.597 179.974 265.597 254.387 T
271.503 253.329 271.503 179.974 265.597 254.387 T
277.409 179.974 271.503 179.974 271.503 253.329 T
277.409 251.774 277.409 179.974 271.503 253.329 T
283.315 179.974 277.409 179.974 277.409 251.774 T
283.315 248.001 283.315 179.974 277.409 251.774 T
289.221 179.974 283.315 179.974 283.315 248.001 T
289.221 244.555 289.221 179.974 283.315 248.001 T
295.127 179.974 289.221 179.974 289.221 244.555 T
295.127 239.573 295.127 179.974 289.221 244.555 T
301.033 179.974 295.127 179.974 295.127 239.573 T
301.033 235.104 301.033 179.974 295.127 239.573 T
306.939 179.974 301.033 179.974 301.033 235.104 T
306.939 232.576 306.939 179.974 301.033 235.104 T
312.845 179.974 306.939 179.974 306.939 232.576 T
312.845 228.942 312.845 179.974 306.939 232.576 T
318.751 179.974 312.845 179.974 312.845 228.942 T
318.751 225.589 318.751 179.974 312.845 228.942 T
324.657 179.974 318.751 179.974 318.751 225.589 T
324.657 222.282 324.657 179.974 318.751 225.589 T
330.563 179.974 324.657 179.974 324.657 222.282 T
330.563 219.746 330.563 179.974 324.657 222.282 T
336.469 179.974 330.563 179.974 330.563 219.746 T
336.469 217.565 336.469 179.974 330.563 219.746 T
342.374 179.974 336.469 179.974 336.469 217.565 T
342.374 215.068 342.374 179.974 336.469 217.565 T
348.28 179.974 342.374 179.974 342.374 215.068 T
348.28 213.116 348.28 179.974 342.374 215.068 T
354.186 179.974 348.28 179.974 348.28 213.116 T
354.186 211.396 354.186 179.974 348.28 213.116 T
0 LC
[] 0 setdash
0 0 0 C
354.186 211.396 LS
348.28 213.116 L
342.374 215.068 L
336.469 217.565 L
330.563 219.746 L
324.657 222.282 L
318.751 225.589 L
312.845 228.942 L
306.939 232.576 L
301.033 235.104 L
295.127 239.573 L
289.221 244.555 L
283.315 248.001 L
277.409 251.774 L
271.503 253.329 L
265.597 254.387 L
259.691 244.563 L
253.786 233.51 L
247.88 230.861 L
241.974 197.262 L
241.974 179.974 L
247.88 179.974 L
253.786 179.974 L
259.691 179.974 L
265.597 179.974 L
271.503 179.974 L
277.409 179.974 L
283.315 179.974 L
289.221 179.974 L
295.127 179.974 L
301.033 179.974 L
306.939 179.974 L
312.845 179.974 L
318.751 179.974 L
324.657 179.974 L
330.563 179.974 L
336.469 179.974 L
342.374 179.974 L
348.28 179.974 L
354.186 179.974 L
354.186 211.396 LE
1 1 1 C
241.974 179.974 247.88 195.222 247.88 179.974 T
253.786 179.974 247.88 179.974 247.88 195.222 T
253.786 198.954 253.786 179.974 247.88 195.222 T
259.691 179.974 253.786 179.974 253.786 198.954 T
259.691 202.829 259.691 179.974 253.786 198.954 T
265.597 179.974 259.691 179.974 259.691 202.829 T
265.597 209.463 265.597 179.974 259.691 202.829 T
271.503 179.974 265.597 179.974 265.597 209.463 T
271.503 208.11 271.503 179.974 265.597 209.463 T
277.409 179.974 271.503 179.974 271.503 208.11 T
277.409 207.481 277.409 179.974 271.503 208.11 T
283.315 179.974 277.409 179.974 277.409 207.481 T
283.315 204.618 283.315 179.974 277.409 207.481 T
289.221 179.974 283.315 179.974 283.315 204.618 T
289.221 202.59 289.221 179.974 283.315 204.618 T
295.127 179.974 289.221 179.974 289.221 202.59 T
295.127 199.008 295.127 179.974 289.221 202.59 T
301.033 179.974 295.127 179.974 295.127 199.008 T
301.033 196.131 301.033 179.974 295.127 199.008 T
306.939 179.974 301.033 179.974 301.033 196.131 T
306.939 195.226 306.939 179.974 301.033 196.131 T
312.845 179.974 306.939 179.974 306.939 195.226 T
312.845 193.092 312.845 179.974 306.939 195.226 T
318.751 179.974 312.845 179.974 312.845 193.092 T
318.751 191.16 318.751 179.974 312.845 193.092 T
324.657 179.974 318.751 179.974 318.751 191.16 T
324.657 189.134 324.657 179.974 318.751 191.16 T
330.563 179.974 324.657 179.974 324.657 189.134 T
330.563 188.008 330.563 179.974 324.657 189.134 T
336.469 179.974 330.563 179.974 330.563 188.008 T
336.469 187.025 336.469 179.974 330.563 188.008 T
342.374 179.974 336.469 179.974 336.469 187.025 T
342.374 185.731 342.374 179.974 336.469 187.025 T
348.28 179.974 342.374 179.974 342.374 185.731 T
348.28 184.953 348.28 179.974 342.374 185.731 T
354.186 179.974 348.28 179.974 348.28 184.953 T
354.186 184.3 354.186 179.974 348.28 184.953 T
0 0 0 C
354.186 184.3 LS
348.28 184.953 L
342.374 185.731 L
336.469 187.025 L
330.563 188.008 L
324.657 189.134 L
318.751 191.16 L
312.845 193.092 L
306.939 195.226 L
301.033 196.131 L
295.127 199.008 L
289.221 202.59 L
283.315 204.618 L
277.409 207.481 L
271.503 208.11 L
265.597 209.463 L
259.691 202.829 L
253.786 198.954 L
247.88 195.222 L
241.974 179.974 L
247.88 179.974 L
253.786 179.974 L
259.691 179.974 L
265.597 179.974 L
271.503 179.974 L
277.409 179.974 L
283.315 179.974 L
289.221 179.974 L
295.127 179.974 L
301.033 179.974 L
306.939 179.974 L
312.845 179.974 L
318.751 179.974 L
324.657 179.974 L
330.563 179.974 L
336.469 179.974 L
342.374 179.974 L
348.28 179.974 L
354.186 179.974 L
354.186 184.3 LE
3 W
1 LJ
241.974 188.485 LS
247.88 212.183 L
253.786 214.438 L
259.691 224.474 L
265.597 229.17 L
271.503 229.748 L
277.409 228.02 L
283.315 225.178 L
289.221 221.906 L
295.127 218.571 L
301.033 215.361 L
306.939 212.366 L
312.845 209.619 L
318.751 207.126 L
324.657 204.879 L
330.563 202.861 L
336.469 201.053 L
342.374 199.433 L
348.28 197.984 L
354.186 196.685 LE
grestore
gsave
1.0 1.0 scale
newpath 0 0 moveto 576 0 lineto 576 432 lineto 0 432 lineto
closepath clip
1 1 1 C
409.067 254.387 521.28 179.974 409.067 179.974 T
409.067 254.387 521.28 254.387 521.28 179.974 T
0.5 W
0.15 0.15 0.15 C
432.691 179.974 LS
432.691 181.102 LE
432.691 254.387 LS
432.691 253.258 LE
462.221 179.974 LS
462.221 181.102 LE
462.221 254.387 LS
462.221 253.258 LE
491.75 179.974 LS
491.75 181.102 LE
491.75 254.387 LS
491.75 253.258 LE
521.28 179.974 LS
521.28 181.102 LE
521.28 254.387 LS
521.28 253.258 LE
gsave
0.14902 0.14902 0.14902 C
(5) [10] 0 429.691 164.432 10 /Helvetica SRX
grestore

gsave
0.14902 0.14902 0.14902 C
(10) [6 10] 0 456.221 164.432 10 /Helvetica SRX
grestore

gsave
0.14902 0.14902 0.14902 C
(15) [6 10] 0 485.75 164.432 10 /Helvetica SRX
grestore

gsave
0.14902 0.14902 0.14902 C
(20) [6 10] 0 515.28 164.432 10 /Helvetica SRX
grestore

409.067 188.413 LS
410.192 188.413 LE
521.28 188.413 LS
520.156 188.413 LE
409.067 204.201 LS
410.192 204.201 LE
521.28 204.201 LS
520.156 204.201 LE
409.067 219.988 LS
410.192 219.988 LE
521.28 219.988 LS
520.156 219.988 LE
409.067 235.776 LS
410.192 235.776 LE
521.28 235.776 LS
520.156 235.776 LE
409.067 251.564 LS
410.192 251.564 LE
521.28 251.564 LS
520.156 251.564 LE
gsave
0.14902 0.14902 0.14902 C
(0.002) [6 3 6 6 10] 0 377.058 184.413 10 /Helvetica SRX
grestore

gsave
0.14902 0.14902 0.14902 C
(0.004) [6 3 6 6 10] 0 377.058 200.201 10 /Helvetica SRX
grestore

gsave
0.14902 0.14902 0.14902 C
(0.006) [6 3 6 6 10] 0 377.058 215.988 10 /Helvetica SRX
grestore

gsave
0.14902 0.14902 0.14902 C
(0.008) [6 3 6 6 10] 0 377.058 231.776 10 /Helvetica SRX
grestore

gsave
0.14902 0.14902 0.14902 C
(0.01) [6 3 6 10] 0 383.058 247.564 10 /Helvetica SRX
grestore

2 LC
[16 0] 0 setdash
409.067 179.974 LS
521.28 179.974 LE
409.067 254.387 LS
521.28 254.387 LE
409.067 179.974 LS
409.067 254.387 LE
521.28 179.974 LS
521.28 254.387 LE
gsave
0 0 0 C
(L_C_hat) [7 6 8 6 7 6 10] 0 443.174 266.387 11 /Helvetica-Bold SRX
grestore

0.9 0.9 0.9 C
409.067 179.974 409.067 188.255 414.973 179.974 T
414.973 209.289 414.973 179.974 409.067 188.255 T
420.879 179.974 414.973 179.974 414.973 209.289 T
420.879 241.219 420.879 179.974 414.973 209.289 T
426.785 179.974 420.879 179.974 420.879 241.219 T
426.785 252.349 426.785 179.974 420.879 241.219 T
432.691 179.974 426.785 179.974 426.785 252.349 T
432.691 254.387 432.691 179.974 426.785 252.349 T
438.597 179.974 432.691 179.974 432.691 254.387 T
438.597 253.428 438.597 179.974 432.691 254.387 T
444.503 179.974 438.597 179.974 438.597 253.428 T
444.503 250.203 444.503 179.974 438.597 253.428 T
450.409 179.974 444.503 179.974 444.503 250.203 T
450.409 245.204 450.409 179.974 444.503 250.203 T
456.315 179.974 450.409 179.974 450.409 245.204 T
456.315 240.736 456.315 179.974 450.409 245.204 T
462.221 179.974 456.315 179.974 456.315 240.736 T
462.221 235.462 462.221 179.974 456.315 240.736 T
468.127 179.974 462.221 179.974 462.221 235.462 T
468.127 229.834 468.127 179.974 462.221 235.462 T
474.033 179.974 468.127 179.974 468.127 229.834 T
474.033 225.117 474.033 179.974 468.127 229.834 T
479.939 179.974 474.033 179.974 474.033 225.117 T
479.939 220.044 479.939 179.974 474.033 225.117 T
485.844 179.974 479.939 179.974 479.939 220.044 T
485.844 215.654 485.844 179.974 479.939 220.044 T
491.75 179.974 485.844 179.974 485.844 215.654 T
491.75 211.344 491.75 179.974 485.844 215.654 T
497.656 179.974 491.75 179.974 491.75 211.344 T
497.656 207.954 497.656 179.974 491.75 211.344 T
503.562 179.974 497.656 179.974 497.656 207.954 T
503.562 204.926 503.562 179.974 497.656 207.954 T
509.468 179.974 503.562 179.974 503.562 204.926 T
509.468 202.408 509.468 179.974 503.562 204.926 T
515.374 179.974 509.468 179.974 509.468 202.408 T
515.374 199.83 515.374 179.974 509.468 202.408 T
521.28 179.974 515.374 179.974 515.374 199.83 T
521.28 197.448 521.28 179.974 515.374 199.83 T
0 LC
[] 0 setdash
0 0 0 C
521.28 197.448 LS
515.374 199.83 L
509.468 202.408 L
503.562 204.926 L
497.656 207.954 L
491.75 211.344 L
485.844 215.654 L
479.939 220.044 L
474.033 225.117 L
468.127 229.834 L
462.221 235.462 L
456.315 240.736 L
450.409 245.204 L
444.503 250.203 L
438.597 253.428 L
432.691 254.387 L
426.785 252.349 L
420.879 241.219 L
414.973 209.289 L
409.067 188.255 L
409.067 179.974 L
414.973 179.974 L
420.879 179.974 L
426.785 179.974 L
432.691 179.974 L
438.597 179.974 L
444.503 179.974 L
450.409 179.974 L
456.315 179.974 L
462.221 179.974 L
468.127 179.974 L
474.033 179.974 L
479.939 179.974 L
485.844 179.974 L
491.75 179.974 L
497.656 179.974 L
503.562 179.974 L
509.468 179.974 L
515.374 179.974 L
521.28 179.974 L
521.28 197.448 LE
1 1 1 C
409.067 179.974 414.973 188.273 414.973 179.974 T
420.879 179.974 414.973 179.974 414.973 188.273 T
420.879 197.691 420.879 179.974 414.973 188.273 T
426.785 179.974 420.879 179.974 420.879 197.691 T
426.785 202.943 426.785 179.974 420.879 197.691 T
432.691 179.974 426.785 179.974 426.785 202.943 T
432.691 205.839 432.691 179.974 426.785 202.943 T
438.597 179.974 432.691 179.974 432.691 205.839 T
438.597 206.368 438.597 179.974 432.691 205.839 T
444.503 179.974 438.597 179.974 438.597 206.368 T
444.503 205.913 444.503 179.974 438.597 206.368 T
450.409 179.974 444.503 179.974 444.503 205.913 T
450.409 204.269 450.409 179.974 444.503 205.913 T
456.315 179.974 450.409 179.974 450.409 204.269 T
456.315 202.792 456.315 179.974 450.409 204.269 T
462.221 179.974 456.315 179.974 456.315 202.792 T
462.221 199.559 462.221 179.974 456.315 202.792 T
468.127 179.974 462.221 179.974 462.221 199.559 T
468.127 196.103 468.127 179.974 462.221 199.559 T
474.033 179.974 468.127 179.974 468.127 196.103 T
474.033 193.477 474.033 179.974 468.127 196.103 T
479.939 179.974 474.033 179.974 474.033 193.477 T
479.939 190.603 479.939 179.974 474.033 193.477 T
485.844 179.974 479.939 179.974 479.939 190.603 T
485.844 188.196 485.844 179.974 479.939 190.603 T
491.75 179.974 485.844 179.974 485.844 188.196 T
491.75 185.703 491.75 179.974 485.844 188.196 T
497.656 179.974 491.75 179.974 491.75 185.703 T
497.656 184.153 497.656 179.974 491.75 185.703 T
503.562 179.974 497.656 179.974 497.656 184.153 T
503.562 182.865 503.562 179.974 497.656 184.153 T
509.468 179.974 503.562 179.974 503.562 182.865 T
509.468 181.962 509.468 179.974 503.562 182.865 T
515.374 179.974 509.468 179.974 509.468 181.962 T
515.374 180.984 515.374 179.974 509.468 181.962 T
521.28 179.974 515.374 179.974 515.374 180.984 T
521.28 180.03 521.28 179.974 515.374 180.984 T
0 0 0 C
521.28 180.03 LS
515.374 180.984 L
509.468 181.962 L
503.562 182.865 L
497.656 184.153 L
491.75 185.703 L
485.844 188.196 L
479.939 190.603 L
474.033 193.477 L
468.127 196.103 L
462.221 199.559 L
456.315 202.792 L
450.409 204.269 L
444.503 205.913 L
438.597 206.368 L
432.691 205.839 L
426.785 202.943 L
420.879 197.691 L
414.973 188.273 L
409.067 179.974 L
414.973 179.974 L
420.879 179.974 L
426.785 179.974 L
432.691 179.974 L
438.597 179.974 L
444.503 179.974 L
450.409 179.974 L
456.315 179.974 L
462.221 179.974 L
468.127 179.974 L
474.033 179.974 L
479.939 179.974 L
485.844 179.974 L
491.75 179.974 L
497.656 179.974 L
503.562 179.974 L
509.468 179.974 L
515.374 179.974 L
521.28 179.974 L
521.28 180.03 LE
3 W
1 LJ
409.067 184.134 LS
414.973 198.783 L
420.879 218.729 L
426.785 227.322 L
432.691 230.222 L
438.597 229.854 L
444.503 227.595 L
450.409 224.291 L
456.315 220.48 L
462.221 216.503 L
468.127 212.571 L
474.033 208.813 L
479.939 205.302 L
485.844 202.073 L
491.75 199.137 L
497.656 196.493 L
503.562 194.127 L
509.468 192.022 L
515.374 190.157 L
521.28 188.511 LE
grestore
gsave
1.0 1.0 scale
newpath 0 0 moveto 576 0 lineto 576 432 lineto 0 432 lineto
closepath clip
1 1 1 C
74.88 121.933 187.093 47.52 74.88 47.52 T
74.88 121.933 187.093 121.933 187.093 47.52 T
0.5 W
0.15 0.15 0.15 C
98.5037 47.52 LS
98.5037 48.6484 LE
98.5037 121.933 LS
98.5037 120.805 LE
128.033 47.52 LS
128.033 48.6484 LE
128.033 121.933 LS
128.033 120.805 LE
157.563 47.52 LS
157.563 48.6484 LE
157.563 121.933 LS
157.563 120.805 LE
187.093 47.52 LS
187.093 48.6484 LE
187.093 121.933 LS
187.093 120.805 LE
gsave
0.14902 0.14902 0.14902 C
(5) [10] 0 95.5037 31.9781 10 /Helvetica SRX
grestore

gsave
0.14902 0.14902 0.14902 C
(10) [6 10] 0 122.033 31.9781 10 /Helvetica SRX
grestore

gsave
0.14902 0.14902 0.14902 C
(15) [6 10] 0 151.563 31.9781 10 /Helvetica SRX
grestore

gsave
0.14902 0.14902 0.14902 C
(20) [6 10] 0 181.093 31.9781 10 /Helvetica SRX
grestore

74.88 60.8364 LS
76.0043 60.8364 LE
187.093 60.8364 LS
185.968 60.8364 LE
74.88 78.9484 LS
76.0043 78.9484 LE
187.093 78.9484 LS
185.968 78.9484 LE
74.88 97.0604 LS
76.0043 97.0604 LE
187.093 97.0604 LS
185.968 97.0604 LE
74.88 115.172 LS
76.0043 115.172 LE
187.093 115.172 LS
185.968 115.172 LE
gsave
0.14902 0.14902 0.14902 C
(0.005) [6 3 6 6 10] 0 42.8705 56.8364 10 /Helvetica SRX
grestore

gsave
0.14902 0.14902 0.14902 C
(0.01) [6 3 6 10] 0 48.8705 74.9485 10 /Helvetica SRX
grestore

gsave
0.14902 0.14902 0.14902 C
(0.015) [6 3 6 6 10] 0 42.8705 93.0605 10 /Helvetica SRX
grestore

gsave
0.14902 0.14902 0.14902 C
(0.02) [6 3 6 10] 0 48.8705 111.173 10 /Helvetica SRX
grestore

2 LC
[16 0] 0 setdash
74.88 47.52 LS
187.093 47.52 LE
74.88 121.933 LS
187.093 121.933 LE
74.88 47.52 LS
74.88 121.933 LE
187.093 47.52 LS
187.093 121.933 LE
gsave
0 0 0 C
(I_T_hat) [3 6 7 6 7 6 10] 0 111.486 133.933 11 /Helvetica-Bold SRX
grestore

0.9 0.9 0.9 C
74.88 47.52 74.88 121.933 80.7859 47.52 T
80.7859 121.34 80.7859 47.52 74.88 121.933 T
86.6918 47.52 80.7859 47.52 80.7859 121.34 T
86.6918 114.59 86.6918 47.52 80.7859 121.34 T
92.5978 47.52 86.6918 47.52 86.6918 114.59 T
92.5978 106.95 92.5978 47.52 86.6918 114.59 T
98.5037 47.52 92.5978 47.52 92.5978 106.95 T
98.5037 102.318 98.5037 47.52 92.5978 106.95 T
104.41 47.52 98.5037 47.52 98.5037 102.318 T
104.41 96.2066 104.41 47.52 98.5037 102.318 T
110.316 47.52 104.41 47.52 104.41 96.2066 T
110.316 91.9818 110.316 47.52 104.41 96.2066 T
116.221 47.52 110.316 47.52 110.316 91.9818 T
116.221 86.2057 116.221 47.52 110.316 91.9818 T
122.127 47.52 116.221 47.52 116.221 86.2057 T
122.127 81.564 122.127 47.52 116.221 86.2057 T
128.033 47.52 122.127 47.52 122.127 81.564 T
128.033 77.8104 128.033 47.52 122.127 81.564 T
133.939 47.52 128.033 47.52 128.033 77.8104 T
133.939 74.1997 133.939 47.52 128.033 77.8104 T
139.845 47.52 133.939 47.52 133.939 74.1997 T
139.845 72.3195 139.845 47.52 133.939 74.1997 T
145.751 47.52 139.845 47.52 139.845 72.3195 T
145.751 69.3972 145.751 47.52 139.845 72.3195 T
151.657 47.52 145.751 47.52 145.751 69.3972 T
151.657 66.9218 151.657 47.52 145.751 69.3972 T
157.563 47.52 151.657 47.52 151.657 66.9218 T
157.563 64.7213 157.563 47.52 151.657 66.9218 T
163.469 47.52 157.563 47.52 157.563 64.7213 T
163.469 62.8774 163.469 47.52 157.563 64.7213 T
169.375 47.52 163.469 47.52 163.469 62.8774 T
169.375 61.169 169.375 47.52 163.469 62.8774 T
175.281 47.52 169.375 47.52 169.375 61.169 T
175.281 59.4401 175.281 47.52 169.375 61.169 T
181.187 47.52 175.281 47.52 175.281 59.4401 T
181.187 58.127 181.187 47.52 175.281 59.4401 T
187.093 47.52 181.187 47.52 181.187 58.127 T
187.093 56.8998 187.093 47.52 181.187 58.127 T
0 LC
[] 0 setdash
0 0 0 C
187.093 56.8998 LS
181.187 58.127 L
175.281 59.4401 L
169.375 61.169 L
163.469 62.8774 L
157.563 64.7213 L
151.657 66.9218 L
145.751 69.3972 L
139.845 72.3195 L
133.939 74.1997 L
128.033 77.8104 L
122.127 81.564 L
116.221 86.2057 L
110.316 91.9818 L
104.41 96.2066 L
98.5037 102.318 L
92.5978 106.95 L
86.6918 114.59 L
80.7859 121.34 L
74.88 121.933 L
74.88 47.52 L
80.7859 47.52 L
86.6918 47.52 L
92.5978 47.52 L
98.5037 47.52 L
104.41 47.52 L
110.316 47.52 L
116.221 47.52 L
122.127 47.52 L
128.033 47.52 L
133.939 47.52 L
139.845 47.52 L
145.751 47.52 L
151.657 47.52 L
157.563 47.52 L
163.469 47.52 L
169.375 47.52 L
175.281 47.52 L
181.187 47.52 L
187.093 47.52 L
187.093 56.8998 LE
1 1 1 C
74.88 47.52 74.88 82.0714 80.7859 47.52 T
80.7859 81.2518 80.7859 47.52 74.88 82.0714 T
86.6918 47.52 80.7859 47.52 80.7859 81.2518 T
86.6918 77.4502 86.6918 47.52 80.7859 81.2518 T
92.5978 47.52 86.6918 47.52 86.6918 77.4502 T
92.5978 73.0028 92.5978 47.52 86.6918 77.4502 T
98.5037 47.52 92.5978 47.52 92.5978 73.0028 T
98.5037 71.0029 98.5037 47.52 92.5978 73.0028 T
104.41 47.52 98.5037 47.52 98.5037 71.0029 T
104.41 67.4346 104.41 47.52 98.5037 71.0029 T
110.316 47.52 104.41 47.52 104.41 67.4346 T
110.316 65.5185 110.316 47.52 104.41 67.4346 T
116.221 47.52 110.316 47.52 110.316 65.5185 T
116.221 61.7316 116.221 47.52 110.316 65.5185 T
122.127 47.52 116.221 47.52 116.221 61.7316 T
122.127 59.1361 122.127 47.52 116.221 61.7316 T
128.033 47.52 122.127 47.52 122.127 59.1361 T
128.033 57.1641 128.033 47.52 122.127 59.1361 T
133.939 47.52 128.033 47.52 128.033 57.1641 T
133.939 55.1776 133.939 47.52 128.033 57.1641 T
139.845 47.52 133.939 47.52 133.939 55.1776 T
139.845 54.6646 139.845 47.52 133.939 55.1776 T
145.751 47.52 139.845 47.52 139.845 54.6646 T
145.751 53.2341 145.751 47.52 139.845 54.6646 T
151.657 47.52 145.751 47.52 145.751 53.2341 T
151.657 52.0504 151.657 47.52 145.751 53.2341 T
157.563 47.52 151.657 47.52 151.657 52.0504 T
157.563 51.0207 157.563 47.52 151.657 52.0504 T
163.469 47.52 157.563 47.52 157.563 51.0207 T
163.469 50.1564 163.469 47.52 157.563 51.0207 T
169.375 47.52 163.469 47.52 163.469 50.1564 T
169.375 49.3863 169.375 47.52 163.469 50.1564 T
175.281 47.52 169.375 47.52 169.375 49.3863 T
175.281 48.4847 175.281 47.52 169.375 49.3863 T
181.187 47.52 175.281 47.52 175.281 48.4847 T
181.187 48.0055 181.187 47.52 175.281 48.4847 T
187.093 47.52 181.187 47.52 181.187 48.0055 T
0 0 0 C
187.093 47.52 LS
181.187 48.0055 L
175.281 48.4847 L
169.375 49.3863 L
163.469 50.1564 L
157.563 51.0207 L
151.657 52.0504 L
145.751 53.2341 L
139.845 54.6646 L
133.939 55.1776 L
128.033 57.1641 L
122.127 59.1361 L
116.221 61.7316 L
110.316 65.5185 L
104.41 67.4346 L
98.5037 71.0029 L
92.5978 73.0028 L
86.6918 77.4502 L
80.7859 81.2518 L
74.88 82.0714 L
74.88 47.52 L
80.7859 47.52 L
86.6918 47.52 L
92.5978 47.52 L
98.5037 47.52 L
104.41 47.52 L
110.316 47.52 L
116.221 47.52 L
122.127 47.52 L
128.033 47.52 L
133.939 47.52 L
139.845 47.52 L
145.751 47.52 L
151.657 47.52 L
157.563 47.52 L
163.469 47.52 L
169.375 47.52 L
175.281 47.52 L
181.187 47.52 L
187.093 47.52 LE
3 W
1 LJ
74.88 101.381 LS
80.7859 101.583 L
86.6918 96.0718 L
92.5978 90.947 L
98.5037 86.0585 L
104.41 81.5555 L
110.316 77.4807 L
116.221 73.8276 L
122.127 70.57 L
128.033 67.675 L
133.939 65.1083 L
139.845 62.837 L
145.751 60.83 L
151.657 59.059 L
157.563 57.4984 L
163.469 56.1247 L
169.375 54.9171 L
175.281 53.8568 L
181.187 52.9269 L
187.093 52.1124 LE
grestore
gsave
1.0 1.0 scale
newpath 0 0 moveto 576 0 lineto 576 432 lineto 0 432 lineto
closepath clip
1 1 1 C
241.974 121.933 354.186 47.52 241.974 47.52 T
241.974 121.933 354.186 121.933 354.186 47.52 T
0.5 W
0.15 0.15 0.15 C
265.597 47.52 LS
265.597 48.6484 LE
265.597 121.933 LS
265.597 120.805 LE
295.127 47.52 LS
295.127 48.6484 LE
295.127 121.933 LS
295.127 120.805 LE
324.657 47.52 LS
324.657 48.6484 LE
324.657 121.933 LS
324.657 120.805 LE
354.186 47.52 LS
354.186 48.6484 LE
354.186 121.933 LS
354.186 120.805 LE
gsave
0.14902 0.14902 0.14902 C
(5) [10] 0 262.597 31.9781 10 /Helvetica SRX
grestore

gsave
0.14902 0.14902 0.14902 C
(10) [6 10] 0 289.127 31.9781 10 /Helvetica SRX
grestore

gsave
0.14902 0.14902 0.14902 C
(15) [6 10] 0 318.657 31.9781 10 /Helvetica SRX
grestore

gsave
0.14902 0.14902 0.14902 C
(20) [6 10] 0 348.186 31.9781 10 /Helvetica SRX
grestore

241.974 48.4306 LS
243.098 48.4306 LE
354.186 48.4306 LS
353.062 48.4306 LE
241.974 66.3496 LS
243.098 66.3496 LE
354.186 66.3496 LS
353.062 66.3496 LE
241.974 84.2685 LS
243.098 84.2685 LE
354.186 84.2685 LS
353.062 84.2685 LE
241.974 102.187 LS
243.098 102.187 LE
354.186 102.187 LS
353.062 102.187 LE
241.974 120.106 LS
243.098 120.106 LE
354.186 120.106 LS
353.062 120.106 LE
gsave
0.14902 0.14902 0.14902 C
(-0.002) [3 6 3 6 6 10] 0 206.964 44.4306 10 /Helvetica SRX
grestore

gsave
0.14902 0.14902 0.14902 C
(0) [10] 0 230.964 62.3496 10 /Helvetica SRX
grestore

gsave
0.14902 0.14902 0.14902 C
(0.002) [6 3 6 6 10] 0 209.964 80.2685 10 /Helvetica SRX
grestore

gsave
0.14902 0.14902 0.14902 C
(0.004) [6 3 6 6 10] 0 209.964 98.1875 10 /Helvetica SRX
grestore

gsave
0.14902 0.14902 0.14902 C
(0.006) [6 3 6 6 10] 0 209.964 116.106 10 /Helvetica SRX
grestore

2 LC
[16 0] 0 setdash
241.974 47.52 LS
354.186 47.52 LE
241.974 121.933 LS
354.186 121.933 LE
241.974 47.52 LS
241.974 121.933 LE
354.186 47.52 LS
354.186 121.933 LE
gsave
0 0 0 C
(I_N_hat) [3 6 8 6 7 6 10] 0 278.08 133.933 11 /Helvetica-Bold SRX
grestore

0.9 0.9 0.9 C
241.974 47.52 241.974 67.4897 247.88 47.52 T
247.88 60.3073 247.88 47.52 241.974 67.4897 T
253.786 47.52 247.88 47.52 247.88 60.3073 T
253.786 76.3164 253.786 47.52 247.88 60.3073 T
259.691 47.52 253.786 47.52 253.786 76.3164 T
259.691 90.0074 259.691 47.52 253.786 76.3164 T
265.597 47.52 259.691 47.52 259.691 90.0074 T
265.597 99.4593 265.597 47.52 259.691 90.0074 T
271.503 47.52 265.597 47.52 265.597 99.4593 T
271.503 107.366 271.503 47.52 265.597 99.4593 T
277.409 47.52 271.503 47.52 271.503 107.366 T
277.409 112.944 277.409 47.52 271.503 107.366 T
283.315 47.52 277.409 47.52 277.409 112.944 T
283.315 116.56 283.315 47.52 277.409 112.944 T
289.221 47.52 283.315 47.52 283.315 116.56 T
289.221 118.96 289.221 47.52 283.315 116.56 T
295.127 47.52 289.221 47.52 289.221 118.96 T
295.127 120.797 295.127 47.52 289.221 118.96 T
301.033 47.52 295.127 47.52 295.127 120.797 T
301.033 121.933 301.033 47.52 295.127 120.797 T
306.939 47.52 301.033 47.52 301.033 121.933 T
306.939 121.704 306.939 47.52 301.033 121.933 T
312.845 47.52 306.939 47.52 306.939 121.704 T
312.845 121.715 312.845 47.52 306.939 121.704 T
318.751 47.52 312.845 47.52 312.845 121.715 T
318.751 121.892 318.751 47.52 312.845 121.715 T
324.657 47.52 318.751 47.52 318.751 121.892 T
324.657 121.283 324.657 47.52 318.751 121.892 T
330.563 47.52 324.657 47.52 324.657 121.283 T
330.563 121.022 330.563 47.52 324.657 121.283 T
336.469 47.52 330.563 47.52 330.563 121.022 T
336.469 119.622 336.469 47.52 330.563 121.022 T
342.374 47.52 336.469 47.52 336.469 119.622 T
342.374 118.703 342.374 47.52 336.469 119.622 T
348.28 47.52 342.374 47.52 342.374 118.703 T
348.28 117.234 348.28 47.52 342.374 118.703 T
354.186 47.52 348.28 47.52 348.28 117.234 T
354.186 116.789 354.186 47.52 348.28 117.234 T
0 LC
[] 0 setdash
0 0 0 C
354.186 116.789 LS
348.28 117.234 L
342.374 118.703 L
336.469 119.622 L
330.563 121.022 L
324.657 121.283 L
318.751 121.892 L
312.845 121.715 L
306.939 121.704 L
301.033 121.933 L
295.127 120.797 L
289.221 118.96 L
283.315 116.56 L
277.409 112.944 L
271.503 107.366 L
265.597 99.4593 L
259.691 90.0074 L
253.786 76.3164 L
247.88 60.3073 L
241.974 67.4897 L
241.974 47.52 L
247.88 47.52 L
253.786 47.52 L
259.691 47.52 L
265.597 47.52 L
271.503 47.52 L
277.409 47.52 L
283.315 47.52 L
289.221 47.52 L
295.127 47.52 L
301.033 47.52 L
306.939 47.52 L
312.845 47.52 L
318.751 47.52 L
324.657 47.52 L
330.563 47.52 L
336.469 47.52 L
342.374 47.52 L
348.28 47.52 L
354.186 47.52 L
354.186 116.789 LE
1 1 1 C
247.88 47.52 253.786 67.6689 253.786 47.52 T
259.691 47.52 253.786 47.52 253.786 67.6689 T
259.691 76.5152 259.691 47.52 253.786 67.6689 T
265.597 47.52 259.691 47.52 259.691 76.5152 T
265.597 81.1084 265.597 47.52 259.691 76.5152 T
271.503 47.52 265.597 47.52 265.597 81.1084 T
271.503 85.9807 271.503 47.52 265.597 81.1084 T
277.409 47.52 271.503 47.52 271.503 85.9807 T
277.409 89.1585 277.409 47.52 271.503 85.9807 T
283.315 47.52 277.409 47.52 277.409 89.1585 T
283.315 91.194 283.315 47.52 277.409 89.1585 T
289.221 47.52 283.315 47.52 283.315 91.194 T
289.221 92.5703 289.221 47.52 283.315 91.194 T
295.127 47.52 289.221 47.52 289.221 92.5703 T
295.127 93.6035 295.127 47.52 289.221 92.5703 T
301.033 47.52 295.127 47.52 295.127 93.6035 T
301.033 94.141 301.033 47.52 295.127 93.6035 T
306.939 47.52 301.033 47.52 301.033 94.141 T
306.939 93.5999 306.939 47.52 301.033 94.141 T
312.845 47.52 306.939 47.52 306.939 93.5999 T
312.845 93.4849 312.845 47.52 306.939 93.5999 T
318.751 47.52 312.845 47.52 312.845 93.4849 T
318.751 93.4383 318.751 47.52 312.845 93.4849 T
324.657 47.52 318.751 47.52 318.751 93.4383 T
324.657 92.7408 324.657 47.52 318.751 93.4383 T
330.563 47.52 324.657 47.52 324.657 92.7408 T
330.563 92.4158 330.563 47.52 324.657 92.7408 T
336.469 47.52 330.563 47.52 330.563 92.4158 T
336.469 91.1139 336.469 47.52 330.563 92.4158 T
342.374 47.52 336.469 47.52 336.469 91.1139 T
342.374 90.2328 342.374 47.52 336.469 91.1139 T
348.28 47.52 342.374 47.52 342.374 90.2328 T
348.28 89.0963 348.28 47.52 342.374 90.2328 T
354.186 47.52 348.28 47.52 348.28 89.0963 T
354.186 88.8422 354.186 47.52 348.28 89.0963 T
241.974 47.52 241.974 60.2504 247.88 47.52 T
0 0 0 C
247.88 47.52 LS
241.974 60.2504 L
241.974 47.52 L
247.88 47.52 LE
354.186 88.8422 LS
348.28 89.0963 L
342.374 90.2328 L
336.469 91.1139 L
330.563 92.4158 L
324.657 92.7408 L
318.751 93.4383 L
312.845 93.4849 L
306.939 93.5999 L
301.033 94.141 L
295.127 93.6035 L
289.221 92.5703 L
283.315 91.194 L
277.409 89.1585 L
271.503 85.9807 L
265.597 81.1084 L
259.691 76.5152 L
253.786 67.6689 L
247.88 47.52 L
253.786 47.52 L
259.691 47.52 L
265.597 47.52 L
271.503 47.52 L
277.409 47.52 L
283.315 47.52 L
289.221 47.52 L
295.127 47.52 L
301.033 47.52 L
306.939 47.52 L
312.845 47.52 L
318.751 47.52 L
324.657 47.52 L
330.563 47.52 L
336.469 47.52 L
342.374 47.52 L
348.28 47.52 L
354.186 47.52 L
354.186 88.8422 LE
3 W
1 LJ
241.974 63.8947 LS
247.88 53.489 L
253.786 71.9492 L
259.691 83.234 L
265.597 91.0869 L
271.503 96.7327 L
277.409 100.796 L
283.315 103.67 L
289.221 105.632 L
295.127 106.884 L
301.033 107.58 L
306.939 107.843 L
312.845 107.767 L
318.751 107.427 L
324.657 106.886 L
330.563 106.191 L
336.469 105.383 L
342.374 104.493 L
348.28 103.546 L
354.186 102.563 LE
grestore
gsave
1.0 1.0 scale
newpath 0 0 moveto 576 0 lineto 576 432 lineto 0 432 lineto
closepath clip
1 1 1 C
409.067 121.933 521.28 47.52 409.067 47.52 T
409.067 121.933 521.28 121.933 521.28 47.52 T
0.5 W
0.15 0.15 0.15 C
432.691 47.52 LS
432.691 48.6484 LE
432.691 121.933 LS
432.691 120.805 LE
462.221 47.52 LS
462.221 48.6484 LE
462.221 121.933 LS
462.221 120.805 LE
491.75 47.52 LS
491.75 48.6484 LE
491.75 121.933 LS
491.75 120.805 LE
521.28 47.52 LS
521.28 48.6484 LE
521.28 121.933 LS
521.28 120.805 LE
gsave
0.14902 0.14902 0.14902 C
(5) [10] 0 429.691 31.9781 10 /Helvetica SRX
grestore

gsave
0.14902 0.14902 0.14902 C
(10) [6 10] 0 456.221 31.9781 10 /Helvetica SRX
grestore

gsave
0.14902 0.14902 0.14902 C
(15) [6 10] 0 485.75 31.9781 10 /Helvetica SRX
grestore

gsave
0.14902 0.14902 0.14902 C
(20) [6 10] 0 515.28 31.9781 10 /Helvetica SRX
grestore

409.067 52.6211 LS
410.192 52.6211 LE
521.28 52.6211 LS
520.156 52.6211 LE
409.067 69.6 LS
410.192 69.6 LE
521.28 69.6 LS
520.156 69.6 LE
409.067 86.5788 LS
410.192 86.5788 LE
521.28 86.5788 LS
520.156 86.5788 LE
409.067 103.558 LS
410.192 103.558 LE
521.28 103.558 LS
520.156 103.558 LE
409.067 120.537 LS
410.192 120.537 LE
521.28 120.537 LS
520.156 120.537 LE
gsave
0.14902 0.14902 0.14902 C
(0.002) [6 3 6 6 10] 0 377.058 48.6211 10 /Helvetica SRX
grestore

gsave
0.14902 0.14902 0.14902 C
(0.004) [6 3 6 6 10] 0 377.058 65.6 10 /Helvetica SRX
grestore

gsave
0.14902 0.14902 0.14902 C
(0.006) [6 3 6 6 10] 0 377.058 82.5789 10 /Helvetica SRX
grestore

gsave
0.14902 0.14902 0.14902 C
(0.008) [6 3 6 6 10] 0 377.058 99.5577 10 /Helvetica SRX
grestore

gsave
0.14902 0.14902 0.14902 C
(0.01) [6 3 6 10] 0 383.058 116.537 10 /Helvetica SRX
grestore

2 LC
[16 0] 0 setdash
409.067 47.52 LS
521.28 47.52 LE
409.067 121.933 LS
521.28 121.933 LE
409.067 47.52 LS
409.067 121.933 LE
521.28 47.52 LS
521.28 121.933 LE
gsave
0 0 0 C
(I_C_hat) [3 6 8 6 7 6 10] 0 445.174 133.933 11 /Helvetica-Bold SRX
grestore

0.9 0.9 0.9 C
409.067 47.52 409.067 121.933 414.973 47.52 T
414.973 121.702 414.973 47.52 409.067 121.933 T
420.879 47.52 414.973 47.52 414.973 121.702 T
420.879 119.907 420.879 47.52 414.973 121.702 T
426.785 47.52 420.879 47.52 420.879 119.907 T
426.785 117.569 426.785 47.52 420.879 119.907 T
432.691 47.52 426.785 47.52 426.785 117.569 T
432.691 114.482 432.691 47.52 426.785 117.569 T
438.597 47.52 432.691 47.52 432.691 114.482 T
438.597 111.452 438.597 47.52 432.691 114.482 T
444.503 47.52 438.597 47.52 438.597 111.452 T
444.503 106.449 444.503 47.52 438.597 111.452 T
450.409 47.52 444.503 47.52 444.503 106.449 T
450.409 102.555 450.409 47.52 444.503 106.449 T
456.315 47.52 450.409 47.52 450.409 102.555 T
456.315 99.1663 456.315 47.52 450.409 102.555 T
462.221 47.52 456.315 47.52 456.315 99.1663 T
462.221 93.3641 462.221 47.52 456.315 99.1663 T
468.127 47.52 462.221 47.52 462.221 93.3641 T
468.127 90.0229 468.127 47.52 462.221 93.3641 T
474.033 47.52 468.127 47.52 468.127 90.0229 T
474.033 86.2044 474.033 47.52 468.127 90.0229 T
479.939 47.52 474.033 47.52 474.033 86.2044 T
479.939 83.1504 479.939 47.52 474.033 86.2044 T
485.844 47.52 479.939 47.52 479.939 83.1504 T
485.844 79.9925 485.844 47.52 479.939 83.1504 T
491.75 47.52 485.844 47.52 485.844 79.9925 T
491.75 77.1454 491.75 47.52 485.844 79.9925 T
497.656 47.52 491.75 47.52 491.75 77.1454 T
497.656 74.7636 497.656 47.52 491.75 77.1454 T
503.562 47.52 497.656 47.52 497.656 74.7636 T
503.562 72.6999 503.562 47.52 497.656 74.7636 T
509.468 47.52 503.562 47.52 503.562 72.6999 T
509.468 70.614 509.468 47.52 503.562 72.6999 T
515.374 47.52 509.468 47.52 509.468 70.614 T
515.374 68.8178 515.374 47.52 509.468 70.614 T
521.28 47.52 515.374 47.52 515.374 68.8178 T
521.28 67.1633 521.28 47.52 515.374 68.8178 T
0 LC
[] 0 setdash
0 0 0 C
521.28 67.1633 LS
515.374 68.8178 L
509.468 70.614 L
503.562 72.6999 L
497.656 74.7636 L
491.75 77.1454 L
485.844 79.9925 L
479.939 83.1504 L
474.033 86.2044 L
468.127 90.0229 L
462.221 93.3641 L
456.315 99.1663 L
450.409 102.555 L
444.503 106.449 L
438.597 111.452 L
432.691 114.482 L
426.785 117.569 L
420.879 119.907 L
414.973 121.702 L
409.067 121.933 L
409.067 47.52 L
414.973 47.52 L
420.879 47.52 L
426.785 47.52 L
432.691 47.52 L
438.597 47.52 L
444.503 47.52 L
450.409 47.52 L
456.315 47.52 L
462.221 47.52 L
468.127 47.52 L
474.033 47.52 L
479.939 47.52 L
485.844 47.52 L
491.75 47.52 L
497.656 47.52 L
503.562 47.52 L
509.468 47.52 L
515.374 47.52 L
521.28 47.52 L
521.28 67.1633 LE
1 1 1 C
409.067 47.52 409.067 75.3478 414.973 47.52 T
414.973 75.3045 414.973 47.52 409.067 75.3478 T
420.879 47.52 414.973 47.52 414.973 75.3045 T
420.879 75.3283 420.879 47.52 414.973 75.3045 T
426.785 47.52 420.879 47.52 420.879 75.3283 T
426.785 74.5398 426.785 47.52 420.879 75.3283 T
432.691 47.52 426.785 47.52 426.785 74.5398 T
432.691 73.3843 432.691 47.52 426.785 74.5398 T
438.597 47.52 432.691 47.52 432.691 73.3843 T
438.597 72.1477 438.597 47.52 432.691 73.3843 T
444.503 47.52 438.597 47.52 438.597 72.1477 T
444.503 68.6027 444.503 47.52 438.597 72.1477 T
450.409 47.52 444.503 47.52 444.503 68.6027 T
450.409 66.1059 450.409 47.52 444.503 68.6027 T
456.315 47.52 450.409 47.52 450.409 66.1059 T
456.315 64.2354 456.315 47.52 450.409 66.1059 T
462.221 47.52 456.315 47.52 456.315 64.2354 T
462.221 60.2222 462.221 47.52 456.315 64.2354 T
468.127 47.52 462.221 47.52 462.221 60.2222 T
468.127 58.4287 468.127 47.52 462.221 60.2222 T
474.033 47.52 468.127 47.52 468.127 58.4287 T
474.033 56.2462 474.033 47.52 468.127 58.4287 T
479.939 47.52 474.033 47.52 474.033 56.2462 T
479.939 54.7191 479.939 47.52 474.033 56.2462 T
485.844 47.52 479.939 47.52 479.939 54.7191 T
485.844 53.0587 485.844 47.52 479.939 54.7191 T
491.75 47.52 485.844 47.52 485.844 53.0587 T
491.75 51.7572 491.75 47.52 485.844 53.0587 T
497.656 47.52 491.75 47.52 491.75 51.7572 T
497.656 50.6847 497.656 47.52 491.75 51.7572 T
503.562 47.52 497.656 47.52 497.656 50.6847 T
503.562 49.8919 503.562 47.52 497.656 50.6847 T
509.468 47.52 503.562 47.52 503.562 49.8919 T
509.468 48.97 509.468 47.52 503.562 49.8919 T
515.374 47.52 509.468 47.52 509.468 48.97 T
515.374 48.2148 515.374 47.52 509.468 48.97 T
521.28 47.52 515.374 47.52 515.374 48.2148 T
0 0 0 C
521.28 47.52 LS
515.374 48.2148 L
509.468 48.97 L
503.562 49.8919 L
497.656 50.6847 L
491.75 51.7572 L
485.844 53.0587 L
479.939 54.7191 L
474.033 56.2462 L
468.127 58.4287 L
462.221 60.2222 L
456.315 64.2354 L
450.409 66.1059 L
444.503 68.6027 L
438.597 72.1477 L
432.691 73.3843 L
426.785 74.5398 L
420.879 75.3283 L
414.973 75.3045 L
409.067 75.3478 L
409.067 47.52 L
414.973 47.52 L
420.879 47.52 L
426.785 47.52 L
432.691 47.52 L
438.597 47.52 L
444.503 47.52 L
450.409 47.52 L
456.315 47.52 L
462.221 47.52 L
468.127 47.52 L
474.033 47.52 L
479.939 47.52 L
485.844 47.52 L
491.75 47.52 L
497.656 47.52 L
503.562 47.52 L
509.468 47.52 L
515.374 47.52 L
521.28 47.52 LE
3 W
1 LJ
409.067 98.0726 LS
414.973 97.9297 L
420.879 96.5392 L
426.785 95.0597 L
432.691 92.7574 L
438.597 89.9184 L
444.503 86.8099 L
450.409 83.6218 L
456.315 80.4798 L
462.221 77.4631 L
468.127 74.6186 L
474.033 71.9709 L
479.939 69.53 L
485.844 67.2958 L
491.75 65.2622 L
497.656 63.4191 L
503.562 61.754 L
509.468 60.2536 L
515.374 58.9042 L
521.28 57.6921 LE
grestore
grestore
showpage
cleartomark
%%PageTrailer
%%Trailer
end
%%EOF
