%!PS-Adobe-3.0 EPSF-3.0
%%Title: gl2ps_renderer figure
%%Creator: GL2PS 1.4.2, (C) 1999-2020 C. Geuzaine
%%For: Octave
%%CreationDate: Wed Oct  7 07:02:48 2020
%%LanguageLevel: 3
%%DocumentData: Clean7Bit
%%Pages: 1
%%BoundingBox: 0 0 576 432
%%EndComments
%%BeginProlog
/gl2psdict 64 dict def gl2psdict begin
/tryPS3shading false def % set to false to force subdivision
/rThreshold 0.064 def % red component subdivision threshold
/gThreshold 0.034 def % green component subdivision threshold
/bThreshold 0.1 def % blue component subdivision threshold
/BD { bind def } bind def
/C  { setrgbcolor } BD
/G  { 0.082 mul exch 0.6094 mul add exch 0.3086 mul add neg 1.0 add setgray } BD
/W  { setlinewidth } BD
/LC  { setlinecap } BD
/LJ  { setlinejoin } BD
/FC { findfont exch /SH exch def SH scalefont setfont } BD
/SW { dup stringwidth pop } BD
/S  { FC moveto show } BD
/SBC{ FC moveto SW -2 div 0 rmoveto show } BD
/SBR{ FC moveto SW neg 0 rmoveto show } BD
/SCL{ FC moveto 0 SH -2 div rmoveto show } BD
/SCC{ FC moveto SW -2 div SH -2 div rmoveto show } BD
/SCR{ FC moveto SW neg SH -2 div rmoveto show } BD
/STL{ FC moveto 0 SH neg rmoveto show } BD
/STC{ FC moveto SW -2 div SH neg rmoveto show } BD
/STR{ FC moveto SW neg SH neg rmoveto show } BD
/FCT { FC translate 0 0 } BD
/SR  { gsave FCT moveto rotate show grestore } BD
/SRX  { gsave FCT moveto rotate xshow grestore } BD
/SBCR{ gsave FCT moveto rotate SW -2 div 0 rmoveto show grestore } BD
/SBRR{ gsave FCT moveto rotate SW neg 0 rmoveto show grestore } BD
/SCLR{ gsave FCT moveto rotate 0 SH -2 div rmoveto show grestore} BD
/SCCR{ gsave FCT moveto rotate SW -2 div SH -2 div rmoveto show grestore} BD
/SCRR{ gsave FCT moveto rotate SW neg SH -2 div rmoveto show grestore} BD
/STLR{ gsave FCT moveto rotate 0 SH neg rmoveto show grestore } BD
/STCR{ gsave FCT moveto rotate SW -2 div SH neg rmoveto show grestore } BD
/STRR{ gsave FCT moveto rotate SW neg SH neg rmoveto show grestore } BD
/P  { newpath 0.0 360.0 arc closepath fill } BD
/LS { newpath moveto } BD
/L  { lineto } BD
/LE { lineto stroke } BD
/T  { newpath moveto lineto lineto closepath fill } BD
/STshfill {
      /b1 exch def /g1 exch def /r1 exch def /y1 exch def /x1 exch def
      /b2 exch def /g2 exch def /r2 exch def /y2 exch def /x2 exch def
      /b3 exch def /g3 exch def /r3 exch def /y3 exch def /x3 exch def
      gsave << /ShadingType 4 /ColorSpace [/DeviceRGB]
      /DataSource [ 0 x1 y1 r1 g1 b1 0 x2 y2 r2 g2 b2 0 x3 y3 r3 g3 b3 ] >>
      shfill grestore } BD
/Tm { 3 -1 roll 8 -1 roll 13 -1 roll add add 3 div
      3 -1 roll 7 -1 roll 11 -1 roll add add 3 div
      3 -1 roll 6 -1 roll 9 -1 roll add add 3 div C T } BD
/STsplit {
      4 index 15 index add 0.5 mul
      4 index 15 index add 0.5 mul
      4 index 15 index add 0.5 mul
      4 index 15 index add 0.5 mul
      4 index 15 index add 0.5 mul
      5 copy 5 copy 25 15 roll
      9 index 30 index add 0.5 mul
      9 index 30 index add 0.5 mul
      9 index 30 index add 0.5 mul
      9 index 30 index add 0.5 mul
      9 index 30 index add 0.5 mul
      5 copy 5 copy 35 5 roll 25 5 roll 15 5 roll
      4 index 10 index add 0.5 mul
      4 index 10 index add 0.5 mul
      4 index 10 index add 0.5 mul
      4 index 10 index add 0.5 mul
      4 index 10 index add 0.5 mul
      5 copy 5 copy 40 5 roll 25 5 roll 15 5 roll 25 5 roll
      STnoshfill STnoshfill STnoshfill STnoshfill } BD
/STnoshfill {
      2 index 8 index sub abs rThreshold gt
      { STsplit }
      { 1 index 7 index sub abs gThreshold gt
        { STsplit }
        { dup 6 index sub abs bThreshold gt
          { STsplit }
          { 2 index 13 index sub abs rThreshold gt
            { STsplit }
            { 1 index 12 index sub abs gThreshold gt
              { STsplit }
              { dup 11 index sub abs bThreshold gt
                { STsplit }
                { 7 index 13 index sub abs rThreshold gt
                  { STsplit }
                  { 6 index 12 index sub abs gThreshold gt
                    { STsplit }
                    { 5 index 11 index sub abs bThreshold gt
                      { STsplit }
                      { Tm }
                      ifelse }
                    ifelse }
                  ifelse }
                ifelse }
              ifelse }
            ifelse }
          ifelse }
        ifelse }
      ifelse } BD
tryPS3shading
{ /shfill where
  { /ST { STshfill } BD }
  { /ST { STnoshfill } BD }
  ifelse }
{ /ST { STnoshfill } BD }
ifelse
end
%%EndProlog
%%BeginSetup
/DeviceRGB setcolorspace
gl2psdict begin
%%EndSetup
%%Page: 1 1
%%BeginPageSetup
%%EndPageSetup
mark
gsave
1.0 1.0 scale
1 1 1 C
newpath 0 0 moveto 576 0 lineto 576 432 lineto 0 432 lineto
closepath fill
gsave
1.0 1.0 scale
1 1 1 C
newpath 0 0 moveto 576 0 lineto 576 432 lineto 0 432 lineto
closepath fill
newpath 0 0 moveto 576 0 lineto 576 432 lineto 0 432 lineto
closepath clip
1 1 1 C
74.88 386.841 187.093 312.427 74.88 312.427 T
74.88 386.841 187.093 386.841 187.093 312.427 T
0.5 W
0.15 0.15 0.15 C
98.5037 312.427 LS
98.5037 313.556 LE
98.5037 386.841 LS
98.5037 385.712 LE
128.033 312.427 LS
128.033 313.556 LE
128.033 386.841 LS
128.033 385.712 LE
157.563 312.427 LS
157.563 313.556 LE
157.563 386.841 LS
157.563 385.712 LE
187.093 312.427 LS
187.093 313.556 LE
187.093 386.841 LS
187.093 385.712 LE
gsave
0.14902 0.14902 0.14902 C
(5) [10] 0 95.5037 296.886 10 /Helvetica SRX
grestore

gsave
0.14902 0.14902 0.14902 C
(10) [6 10] 0 122.033 296.886 10 /Helvetica SRX
grestore

gsave
0.14902 0.14902 0.14902 C
(15) [6 10] 0 151.563 296.886 10 /Helvetica SRX
grestore

gsave
0.14902 0.14902 0.14902 C
(20) [6 10] 0 181.093 296.886 10 /Helvetica SRX
grestore

74.88 318.421 LS
76.0043 318.421 LE
187.093 318.421 LS
185.968 318.421 LE
74.88 334.313 LS
76.0043 334.313 LE
187.093 334.313 LS
185.968 334.313 LE
74.88 350.206 LS
76.0043 350.206 LE
187.093 350.206 LS
185.968 350.206 LE
74.88 366.098 LS
76.0043 366.098 LE
187.093 366.098 LS
185.968 366.098 LE
74.88 381.991 LS
76.0043 381.991 LE
187.093 381.991 LS
185.968 381.991 LE
gsave
0.14902 0.14902 0.14902 C
(-0.0015) [3 6 3 6 6 6 10] 0 33.8705 314.421 10 /Helvetica SRX
grestore

gsave
0.14902 0.14902 0.14902 C
(-0.001) [3 6 3 6 6 10] 0 39.8705 330.313 10 /Helvetica SRX
grestore

gsave
0.14902 0.14902 0.14902 C
(-0.0005) [3 6 3 6 6 6 10] 0 33.8705 346.206 10 /Helvetica SRX
grestore

gsave
0.14902 0.14902 0.14902 C
(0) [10] 0 63.8705 362.098 10 /Helvetica SRX
grestore

gsave
0.14902 0.14902 0.14902 C
(0.0005) [6 3 6 6 6 10] 0 36.8705 377.991 10 /Helvetica SRX
grestore

2 LC
[16 0] 0 setdash
74.88 312.427 LS
187.093 312.427 LE
74.88 386.841 LS
187.093 386.841 LE
74.88 312.427 LS
74.88 386.841 LE
187.093 312.427 LS
187.093 386.841 LE
gsave
0 0 0 C
(Y_T_hat) [7 6 7 6 7 6 10] 0 109.486 398.841 11 /Helvetica-Bold SRX
grestore

0.9 0.9 0.9 C
74.88 312.427 74.88 357.093 80.7859 312.427 T
80.7859 352.951 80.7859 312.427 74.88 357.093 T
86.6918 312.427 80.7859 312.427 80.7859 352.951 T
86.6918 352.455 86.6918 312.427 80.7859 352.951 T
92.5978 312.427 86.6918 312.427 86.6918 352.455 T
92.5978 350.411 92.5978 312.427 86.6918 352.455 T
98.5037 312.427 92.5978 312.427 92.5978 350.411 T
98.5037 353.719 98.5037 312.427 92.5978 350.411 T
104.41 312.427 98.5037 312.427 98.5037 353.719 T
104.41 353.978 104.41 312.427 98.5037 353.719 T
110.316 312.427 104.41 312.427 104.41 353.978 T
110.316 358.572 110.316 312.427 104.41 353.978 T
116.221 312.427 110.316 312.427 110.316 358.572 T
116.221 362.687 116.221 312.427 110.316 358.572 T
122.127 312.427 116.221 312.427 116.221 362.687 T
122.127 366.285 122.127 312.427 116.221 362.687 T
128.033 312.427 122.127 312.427 122.127 366.285 T
128.033 368.546 128.033 312.427 122.127 366.285 T
133.939 312.427 128.033 312.427 128.033 368.546 T
133.939 371.197 133.939 312.427 128.033 368.546 T
139.845 312.427 133.939 312.427 133.939 371.197 T
139.845 373.502 139.845 312.427 133.939 371.197 T
145.751 312.427 139.845 312.427 139.845 373.502 T
145.751 375.446 145.751 312.427 139.845 373.502 T
151.657 312.427 145.751 312.427 145.751 375.446 T
151.657 376.989 151.657 312.427 145.751 375.446 T
157.563 312.427 151.657 312.427 151.657 376.989 T
157.563 379.067 157.563 312.427 151.657 376.989 T
163.469 312.427 157.563 312.427 157.563 379.067 T
163.469 381.108 163.469 312.427 157.563 379.067 T
169.375 312.427 163.469 312.427 163.469 381.108 T
169.375 383.295 169.375 312.427 163.469 381.108 T
175.281 312.427 169.375 312.427 169.375 383.295 T
175.281 385.042 175.281 312.427 169.375 383.295 T
181.187 312.427 175.281 312.427 175.281 385.042 T
181.187 385.877 181.187 312.427 175.281 385.042 T
187.093 312.427 181.187 312.427 181.187 385.877 T
187.093 386.841 187.093 312.427 181.187 385.877 T
0 LC
[] 0 setdash
0 0 0 C
187.093 386.841 LS
181.187 385.877 L
175.281 385.042 L
169.375 383.295 L
163.469 381.108 L
157.563 379.067 L
151.657 376.989 L
145.751 375.446 L
139.845 373.502 L
133.939 371.197 L
128.033 368.546 L
122.127 366.285 L
116.221 362.687 L
110.316 358.572 L
104.41 353.978 L
98.5037 353.719 L
92.5978 350.411 L
86.6918 352.455 L
80.7859 352.951 L
74.88 357.093 L
74.88 312.427 L
80.7859 312.427 L
86.6918 312.427 L
92.5978 312.427 L
98.5037 312.427 L
104.41 312.427 L
110.316 312.427 L
116.221 312.427 L
122.127 312.427 L
128.033 312.427 L
133.939 312.427 L
139.845 312.427 L
145.751 312.427 L
151.657 312.427 L
157.563 312.427 L
163.469 312.427 L
169.375 312.427 L
175.281 312.427 L
181.187 312.427 L
187.093 312.427 L
187.093 386.841 LE
1 1 1 C
92.5978 312.427 98.5037 315.046 98.5037 312.427 T
104.41 312.427 98.5037 312.427 98.5037 315.046 T
104.41 315.502 104.41 312.427 98.5037 315.046 T
110.316 312.427 104.41 312.427 104.41 315.502 T
110.316 321.907 110.316 312.427 104.41 315.502 T
116.221 312.427 110.316 312.427 110.316 321.907 T
116.221 329.025 116.221 312.427 110.316 321.907 T
122.127 312.427 116.221 312.427 116.221 329.025 T
122.127 335.347 122.127 312.427 116.221 329.025 T
128.033 312.427 122.127 312.427 122.127 335.347 T
128.033 340.309 128.033 312.427 122.127 335.347 T
133.939 312.427 128.033 312.427 128.033 340.309 T
133.939 345.404 133.939 312.427 128.033 340.309 T
139.845 312.427 133.939 312.427 133.939 345.404 T
139.845 349.38 139.845 312.427 133.939 345.404 T
145.751 312.427 139.845 312.427 139.845 349.38 T
145.751 352.999 145.751 312.427 139.845 349.38 T
151.657 312.427 145.751 312.427 145.751 352.999 T
151.657 356.249 151.657 312.427 145.751 352.999 T
157.563 312.427 151.657 312.427 151.657 356.249 T
157.563 359.513 157.563 312.427 151.657 356.249 T
163.469 312.427 157.563 312.427 157.563 359.513 T
163.469 362.747 163.469 312.427 157.563 359.513 T
169.375 312.427 163.469 312.427 163.469 362.747 T
169.375 365.946 169.375 312.427 163.469 362.747 T
175.281 312.427 169.375 312.427 169.375 365.946 T
175.281 368.664 175.281 312.427 169.375 365.946 T
181.187 312.427 175.281 312.427 175.281 368.664 T
181.187 370.401 181.187 312.427 175.281 368.664 T
187.093 312.427 181.187 312.427 181.187 370.401 T
187.093 371.892 187.093 312.427 181.187 370.401 T
74.88 312.427 74.88 342.13 80.7859 312.427 T
80.7859 328.928 80.7859 312.427 74.88 342.13 T
86.6918 312.427 80.7859 312.427 80.7859 328.928 T
86.6918 319.125 86.6918 312.427 80.7859 328.928 T
92.5978 312.427 86.6918 312.427 86.6918 319.125 T
0 0 0 C
92.5978 312.427 LS
86.6918 319.125 L
80.7859 328.928 L
74.88 342.13 L
74.88 312.427 L
80.7859 312.427 L
86.6918 312.427 L
92.5978 312.427 LE
187.093 371.892 LS
181.187 370.401 L
175.281 368.664 L
169.375 365.946 L
163.469 362.747 L
157.563 359.513 L
151.657 356.249 L
145.751 352.999 L
139.845 349.38 L
133.939 345.404 L
128.033 340.309 L
122.127 335.347 L
116.221 329.025 L
110.316 321.907 L
104.41 315.502 L
98.5037 315.046 L
92.5978 312.427 L
98.5037 312.427 L
104.41 312.427 L
110.316 312.427 L
116.221 312.427 L
122.127 312.427 L
128.033 312.427 L
133.939 312.427 L
139.845 312.427 L
145.751 312.427 L
151.657 312.427 L
157.563 312.427 L
163.469 312.427 L
169.375 312.427 L
175.281 312.427 L
181.187 312.427 L
187.093 312.427 L
187.093 371.892 LE
3 W
1 LJ
74.88 350.166 LS
80.7859 341.01 L
86.6918 333.619 L
92.5978 331.207 L
98.5037 332.429 L
104.41 335.737 L
110.316 340.053 L
116.221 344.713 L
122.127 349.332 L
128.033 353.704 L
133.939 357.727 L
139.845 361.364 L
145.751 364.612 L
151.657 367.491 L
157.563 370.028 L
163.469 372.255 L
169.375 374.205 L
175.281 375.909 L
181.187 377.398 L
187.093 378.696 LE
grestore
gsave
1.0 1.0 scale
newpath 0 0 moveto 576 0 lineto 576 432 lineto 0 432 lineto
closepath clip
1 1 1 C
241.974 386.841 354.186 312.427 241.974 312.427 T
241.974 386.841 354.186 386.841 354.186 312.427 T
0.5 W
0.15 0.15 0.15 C
265.597 312.427 LS
265.597 313.556 LE
265.597 386.841 LS
265.597 385.712 LE
295.127 312.427 LS
295.127 313.556 LE
295.127 386.841 LS
295.127 385.712 LE
324.657 312.427 LS
324.657 313.556 LE
324.657 386.841 LS
324.657 385.712 LE
354.186 312.427 LS
354.186 313.556 LE
354.186 386.841 LS
354.186 385.712 LE
gsave
0.14902 0.14902 0.14902 C
(5) [10] 0 262.597 296.886 10 /Helvetica SRX
grestore

gsave
0.14902 0.14902 0.14902 C
(10) [6 10] 0 289.127 296.886 10 /Helvetica SRX
grestore

gsave
0.14902 0.14902 0.14902 C
(15) [6 10] 0 318.657 296.886 10 /Helvetica SRX
grestore

gsave
0.14902 0.14902 0.14902 C
(20) [6 10] 0 348.186 296.886 10 /Helvetica SRX
grestore

241.974 325.241 LS
243.098 325.241 LE
354.186 325.241 LS
353.062 325.241 LE
241.974 344.677 LS
243.098 344.677 LE
354.186 344.677 LS
353.062 344.677 LE
241.974 364.114 LS
243.098 364.114 LE
354.186 364.114 LS
353.062 364.114 LE
241.974 383.55 LS
243.098 383.55 LE
354.186 383.55 LS
353.062 383.55 LE
gsave
0.14902 0.14902 0.14902 C
(0.0005) [6 3 6 6 6 10] 0 203.964 321.241 10 /Helvetica SRX
grestore

gsave
0.14902 0.14902 0.14902 C
(0.001) [6 3 6 6 10] 0 209.964 340.677 10 /Helvetica SRX
grestore

gsave
0.14902 0.14902 0.14902 C
(0.0015) [6 3 6 6 6 10] 0 203.964 360.114 10 /Helvetica SRX
grestore

gsave
0.14902 0.14902 0.14902 C
(0.002) [6 3 6 6 10] 0 209.964 379.55 10 /Helvetica SRX
grestore

2 LC
[16 0] 0 setdash
241.974 312.427 LS
354.186 312.427 LE
241.974 386.841 LS
354.186 386.841 LE
241.974 312.427 LS
241.974 386.841 LE
354.186 312.427 LS
354.186 386.841 LE
gsave
0 0 0 C
(Y_N_hat) [7 6 8 6 7 6 10] 0 276.08 398.841 11 /Helvetica-Bold SRX
grestore

0.9 0.9 0.9 C
241.974 312.427 241.974 326.155 247.88 312.427 T
247.88 343.633 247.88 312.427 241.974 326.155 T
253.786 312.427 247.88 312.427 247.88 343.633 T
253.786 359.007 253.786 312.427 247.88 343.633 T
259.691 312.427 253.786 312.427 253.786 359.007 T
259.691 370.189 259.691 312.427 253.786 359.007 T
265.597 312.427 259.691 312.427 259.691 370.189 T
265.597 377.202 265.597 312.427 259.691 370.189 T
271.503 312.427 265.597 312.427 265.597 377.202 T
271.503 380.953 271.503 312.427 265.597 377.202 T
277.409 312.427 271.503 312.427 271.503 380.953 T
277.409 382.016 277.409 312.427 271.503 380.953 T
283.315 312.427 277.409 312.427 277.409 382.016 T
283.315 386.841 283.315 312.427 277.409 382.016 T
289.221 312.427 283.315 312.427 283.315 386.841 T
289.221 382.781 289.221 312.427 283.315 386.841 T
295.127 312.427 289.221 312.427 289.221 382.781 T
295.127 381.469 295.127 312.427 289.221 382.781 T
301.033 312.427 295.127 312.427 295.127 381.469 T
301.033 380.108 301.033 312.427 295.127 381.469 T
306.939 312.427 301.033 312.427 301.033 380.108 T
306.939 378.677 306.939 312.427 301.033 380.108 T
312.845 312.427 306.939 312.427 306.939 378.677 T
312.845 377.607 312.845 312.427 306.939 378.677 T
318.751 312.427 312.845 312.427 312.845 377.607 T
318.751 379.024 318.751 312.427 312.845 377.607 T
324.657 312.427 318.751 312.427 318.751 379.024 T
324.657 377.983 324.657 312.427 318.751 379.024 T
330.563 312.427 324.657 312.427 324.657 377.983 T
330.563 374.239 330.563 312.427 324.657 377.983 T
336.469 312.427 330.563 312.427 330.563 374.239 T
336.469 371.993 336.469 312.427 330.563 374.239 T
342.374 312.427 336.469 312.427 336.469 371.993 T
342.374 370.99 342.374 312.427 336.469 371.993 T
348.28 312.427 342.374 312.427 342.374 370.99 T
348.28 369.875 348.28 312.427 342.374 370.99 T
354.186 312.427 348.28 312.427 348.28 369.875 T
354.186 369.016 354.186 312.427 348.28 369.875 T
0 LC
[] 0 setdash
0 0 0 C
354.186 369.016 LS
348.28 369.875 L
342.374 370.99 L
336.469 371.993 L
330.563 374.239 L
324.657 377.983 L
318.751 379.024 L
312.845 377.607 L
306.939 378.677 L
301.033 380.108 L
295.127 381.469 L
289.221 382.781 L
283.315 386.841 L
277.409 382.016 L
271.503 380.953 L
265.597 377.202 L
259.691 370.189 L
253.786 359.007 L
247.88 343.633 L
241.974 326.155 L
241.974 312.427 L
247.88 312.427 L
253.786 312.427 L
259.691 312.427 L
265.597 312.427 L
271.503 312.427 L
277.409 312.427 L
283.315 312.427 L
289.221 312.427 L
295.127 312.427 L
301.033 312.427 L
306.939 312.427 L
312.845 312.427 L
318.751 312.427 L
324.657 312.427 L
330.563 312.427 L
336.469 312.427 L
342.374 312.427 L
348.28 312.427 L
354.186 312.427 L
354.186 369.016 LE
1 1 1 C
241.974 312.427 247.88 318.54 247.88 312.427 T
253.786 312.427 247.88 312.427 247.88 318.54 T
253.786 323.609 253.786 312.427 247.88 318.54 T
259.691 312.427 253.786 312.427 253.786 323.609 T
259.691 326.899 259.691 312.427 253.786 323.609 T
265.597 312.427 259.691 312.427 259.691 326.899 T
265.597 329.139 265.597 312.427 259.691 326.899 T
271.503 312.427 265.597 312.427 265.597 329.139 T
271.503 329.787 271.503 312.427 265.597 329.139 T
277.409 312.427 271.503 312.427 271.503 329.787 T
277.409 328.805 277.409 312.427 271.503 329.787 T
283.315 312.427 277.409 312.427 277.409 328.805 T
283.315 332.866 283.315 312.427 277.409 328.805 T
289.221 312.427 283.315 312.427 283.315 332.866 T
289.221 328.438 289.221 312.427 283.315 332.866 T
295.127 312.427 289.221 312.427 289.221 328.438 T
295.127 327.044 295.127 312.427 289.221 328.438 T
301.033 312.427 295.127 312.427 295.127 327.044 T
301.033 326.319 301.033 312.427 295.127 327.044 T
306.939 312.427 301.033 312.427 301.033 326.319 T
306.939 325.065 306.939 312.427 301.033 326.319 T
312.845 312.427 306.939 312.427 306.939 325.065 T
312.845 324.413 312.845 312.427 306.939 325.065 T
318.751 312.427 312.845 312.427 312.845 324.413 T
318.751 326.579 318.751 312.427 312.845 324.413 T
324.657 312.427 318.751 312.427 318.751 326.579 T
324.657 326.13 324.657 312.427 318.751 326.579 T
330.563 312.427 324.657 312.427 324.657 326.13 T
330.563 323.198 330.563 312.427 324.657 326.13 T
336.469 312.427 330.563 312.427 330.563 323.198 T
336.469 321.783 336.469 312.427 330.563 323.198 T
342.374 312.427 336.469 312.427 336.469 321.783 T
342.374 321.743 342.374 312.427 336.469 321.783 T
348.28 312.427 342.374 312.427 342.374 321.743 T
348.28 321.468 348.28 312.427 342.374 321.743 T
354.186 312.427 348.28 312.427 348.28 321.468 T
354.186 321.314 354.186 312.427 348.28 321.468 T
0 0 0 C
354.186 321.314 LS
348.28 321.468 L
342.374 321.743 L
336.469 321.783 L
330.563 323.198 L
324.657 326.13 L
318.751 326.579 L
312.845 324.413 L
306.939 325.065 L
301.033 326.319 L
295.127 327.044 L
289.221 328.438 L
283.315 332.866 L
277.409 328.805 L
271.503 329.787 L
265.597 329.139 L
259.691 326.899 L
253.786 323.609 L
247.88 318.54 L
241.974 312.427 L
247.88 312.427 L
253.786 312.427 L
259.691 312.427 L
265.597 312.427 L
271.503 312.427 L
277.409 312.427 L
283.315 312.427 L
289.221 312.427 L
295.127 312.427 L
301.033 312.427 L
306.939 312.427 L
312.845 312.427 L
318.751 312.427 L
324.657 312.427 L
330.563 312.427 L
336.469 312.427 L
342.374 312.427 L
348.28 312.427 L
354.186 312.427 L
354.186 321.314 LE
3 W
1 LJ
241.974 319.784 LS
247.88 331.693 L
253.786 342.407 L
259.691 350.245 L
265.597 355.122 L
271.503 357.67 L
277.409 358.603 L
283.315 358.508 L
289.221 357.811 L
295.127 356.799 L
301.033 355.657 L
306.939 354.497 L
312.845 353.38 L
318.751 352.341 L
324.657 351.391 L
330.563 350.532 L
336.469 349.759 L
342.374 349.063 L
348.28 348.437 L
354.186 347.869 LE
grestore
gsave
1.0 1.0 scale
newpath 0 0 moveto 576 0 lineto 576 432 lineto 0 432 lineto
closepath clip
1 1 1 C
409.067 386.841 521.28 312.427 409.067 312.427 T
409.067 386.841 521.28 386.841 521.28 312.427 T
0.5 W
0.15 0.15 0.15 C
432.691 312.427 LS
432.691 313.556 LE
432.691 386.841 LS
432.691 385.712 LE
462.221 312.427 LS
462.221 313.556 LE
462.221 386.841 LS
462.221 385.712 LE
491.75 312.427 LS
491.75 313.556 LE
491.75 386.841 LS
491.75 385.712 LE
521.28 312.427 LS
521.28 313.556 LE
521.28 386.841 LS
521.28 385.712 LE
gsave
0.14902 0.14902 0.14902 C
(5) [10] 0 429.691 296.886 10 /Helvetica SRX
grestore

gsave
0.14902 0.14902 0.14902 C
(10) [6 10] 0 456.221 296.886 10 /Helvetica SRX
grestore

gsave
0.14902 0.14902 0.14902 C
(15) [6 10] 0 485.75 296.886 10 /Helvetica SRX
grestore

gsave
0.14902 0.14902 0.14902 C
(20) [6 10] 0 515.28 296.886 10 /Helvetica SRX
grestore

409.067 325.996 LS
410.192 325.996 LE
521.28 325.996 LS
520.156 325.996 LE
409.067 340.525 LS
410.192 340.525 LE
521.28 340.525 LS
520.156 340.525 LE
409.067 355.053 LS
410.192 355.053 LE
521.28 355.053 LS
520.156 355.053 LE
409.067 369.581 LS
410.192 369.581 LE
521.28 369.581 LS
520.156 369.581 LE
409.067 384.109 LS
410.192 384.109 LE
521.28 384.109 LS
520.156 384.109 LE
gsave
0.14902 0.14902 0.14902 C
(0.01) [6 3 6 10] 0 383.058 321.996 10 /Helvetica SRX
grestore

gsave
0.14902 0.14902 0.14902 C
(0.02) [6 3 6 10] 0 383.058 336.525 10 /Helvetica SRX
grestore

gsave
0.14902 0.14902 0.14902 C
(0.03) [6 3 6 10] 0 383.058 351.053 10 /Helvetica SRX
grestore

gsave
0.14902 0.14902 0.14902 C
(0.04) [6 3 6 10] 0 383.058 365.581 10 /Helvetica SRX
grestore

gsave
0.14902 0.14902 0.14902 C
(0.05) [6 3 6 10] 0 383.058 380.109 10 /Helvetica SRX
grestore

2 LC
[16 0] 0 setdash
409.067 312.427 LS
521.28 312.427 LE
409.067 386.841 LS
521.28 386.841 LE
409.067 312.427 LS
409.067 386.841 LE
521.28 312.427 LS
521.28 386.841 LE
gsave
0 0 0 C
(Y_C_hat) [7 6 8 6 7 6 10] 0 443.174 398.841 11 /Helvetica-Bold SRX
grestore

0.9 0.9 0.9 C
409.067 312.427 409.067 315.673 414.973 312.427 T
414.973 321.475 414.973 312.427 409.067 315.673 T
420.879 312.427 414.973 312.427 414.973 321.475 T
420.879 386.841 420.879 312.427 414.973 321.475 T
426.785 312.427 420.879 312.427 420.879 386.841 T
426.785 377.881 426.785 312.427 420.879 386.841 T
432.691 312.427 426.785 312.427 426.785 377.881 T
432.691 370.503 432.691 312.427 426.785 377.881 T
438.597 312.427 432.691 312.427 432.691 370.503 T
438.597 365.823 438.597 312.427 432.691 370.503 T
444.503 312.427 438.597 312.427 438.597 365.823 T
444.503 358.543 444.503 312.427 438.597 365.823 T
450.409 312.427 444.503 312.427 444.503 358.543 T
450.409 351.89 450.409 312.427 444.503 358.543 T
456.315 312.427 450.409 312.427 450.409 351.89 T
456.315 346.045 456.315 312.427 450.409 351.89 T
462.221 312.427 456.315 312.427 456.315 346.045 T
462.221 342.412 462.221 312.427 456.315 346.045 T
468.127 312.427 462.221 312.427 462.221 342.412 T
468.127 338.972 468.127 312.427 462.221 342.412 T
474.033 312.427 468.127 312.427 468.127 338.972 T
474.033 335.844 474.033 312.427 468.127 338.972 T
479.939 312.427 474.033 312.427 474.033 335.844 T
479.939 333.115 479.939 312.427 474.033 335.844 T
485.844 312.427 479.939 312.427 479.939 333.115 T
485.844 330.747 485.844 312.427 479.939 333.115 T
491.75 312.427 485.844 312.427 485.844 330.747 T
491.75 328.876 491.75 312.427 485.844 330.747 T
497.656 312.427 491.75 312.427 491.75 328.876 T
497.656 327.238 497.656 312.427 491.75 328.876 T
503.562 312.427 497.656 312.427 497.656 327.238 T
503.562 325.727 503.562 312.427 497.656 327.238 T
509.468 312.427 503.562 312.427 503.562 325.727 T
509.468 324.474 509.468 312.427 503.562 325.727 T
515.374 312.427 509.468 312.427 509.468 324.474 T
515.374 323.401 515.374 312.427 509.468 324.474 T
521.28 312.427 515.374 312.427 515.374 323.401 T
521.28 322.445 521.28 312.427 515.374 323.401 T
0 LC
[] 0 setdash
0 0 0 C
521.28 322.445 LS
515.374 323.401 L
509.468 324.474 L
503.562 325.727 L
497.656 327.238 L
491.75 328.876 L
485.844 330.747 L
479.939 333.115 L
474.033 335.844 L
468.127 338.972 L
462.221 342.412 L
456.315 346.045 L
450.409 351.89 L
444.503 358.543 L
438.597 365.823 L
432.691 370.503 L
426.785 377.881 L
420.879 386.841 L
414.973 321.475 L
409.067 315.673 L
409.067 312.427 L
414.973 312.427 L
420.879 312.427 L
426.785 312.427 L
432.691 312.427 L
438.597 312.427 L
444.503 312.427 L
450.409 312.427 L
456.315 312.427 L
462.221 312.427 L
468.127 312.427 L
474.033 312.427 L
479.939 312.427 L
485.844 312.427 L
491.75 312.427 L
497.656 312.427 L
503.562 312.427 L
509.468 312.427 L
515.374 312.427 L
521.28 312.427 L
521.28 322.445 LE
1 1 1 C
409.067 312.427 409.067 313.022 414.973 312.427 T
414.973 314.883 414.973 312.427 409.067 313.022 T
420.879 312.427 414.973 312.427 414.973 314.883 T
420.879 345.81 420.879 312.427 414.973 314.883 T
426.785 312.427 420.879 312.427 420.879 345.81 T
426.785 339.813 426.785 312.427 420.879 345.81 T
432.691 312.427 426.785 312.427 426.785 339.813 T
432.691 332.56 432.691 312.427 426.785 339.813 T
438.597 312.427 432.691 312.427 432.691 332.56 T
438.597 328.894 438.597 312.427 432.691 332.56 T
444.503 312.427 438.597 312.427 438.597 328.894 T
444.503 323.245 444.503 312.427 438.597 328.894 T
450.409 312.427 444.503 312.427 444.503 323.245 T
450.409 318.793 450.409 312.427 444.503 323.245 T
456.315 312.427 450.409 312.427 450.409 318.793 T
456.315 315.889 456.315 312.427 450.409 318.793 T
462.221 312.427 456.315 312.427 456.315 315.889 T
462.221 314.992 462.221 312.427 456.315 315.889 T
468.127 312.427 462.221 312.427 462.221 314.992 T
468.127 314.271 468.127 312.427 462.221 314.992 T
474.033 312.427 468.127 312.427 468.127 314.271 T
474.033 313.59 474.033 312.427 468.127 314.271 T
479.939 312.427 474.033 312.427 474.033 313.59 T
479.939 313.23 479.939 312.427 474.033 313.59 T
485.844 312.427 479.939 312.427 479.939 313.23 T
485.844 312.927 485.844 312.427 479.939 313.23 T
491.75 312.427 485.844 312.427 485.844 312.927 T
491.75 312.747 491.75 312.427 485.844 312.927 T
497.656 312.427 491.75 312.427 491.75 312.747 T
497.656 312.667 497.656 312.427 491.75 312.747 T
503.562 312.427 497.656 312.427 497.656 312.667 T
503.562 312.541 503.562 312.427 497.656 312.667 T
509.468 312.427 503.562 312.427 503.562 312.541 T
509.468 312.482 509.468 312.427 503.562 312.541 T
515.374 312.427 509.468 312.427 509.468 312.482 T
515.374 312.438 515.374 312.427 509.468 312.482 T
521.28 312.427 515.374 312.427 515.374 312.438 T
0 0 0 C
521.28 312.427 LS
515.374 312.438 L
509.468 312.482 L
503.562 312.541 L
497.656 312.667 L
491.75 312.747 L
485.844 312.927 L
479.939 313.23 L
474.033 313.59 L
468.127 314.271 L
462.221 314.992 L
456.315 315.889 L
450.409 318.793 L
444.503 323.245 L
438.597 328.894 L
432.691 332.56 L
426.785 339.813 L
420.879 345.81 L
414.973 314.883 L
409.067 313.022 L
409.067 312.427 L
414.973 312.427 L
420.879 312.427 L
426.785 312.427 L
432.691 312.427 L
438.597 312.427 L
444.503 312.427 L
450.409 312.427 L
456.315 312.427 L
462.221 312.427 L
468.127 312.427 L
474.033 312.427 L
479.939 312.427 L
485.844 312.427 L
491.75 312.427 L
497.656 312.427 L
503.562 312.427 L
509.468 312.427 L
515.374 312.427 L
521.28 312.427 LE
3 W
1 LJ
409.067 314.377 LS
414.973 318.214 L
420.879 367.915 L
426.785 359.914 L
432.691 352.812 L
438.597 346.662 L
444.503 341.417 L
450.409 336.992 L
456.315 333.282 L
462.221 330.187 L
468.127 327.611 L
474.033 325.47 L
479.939 323.691 L
485.844 322.211 L
491.75 320.979 L
497.656 319.951 L
503.562 319.091 L
509.468 318.37 L
515.374 317.762 L
521.28 317.248 LE
grestore
gsave
1.0 1.0 scale
newpath 0 0 moveto 576 0 lineto 576 432 lineto 0 432 lineto
closepath clip
1 1 1 C
74.88 254.387 187.093 179.974 74.88 179.974 T
74.88 254.387 187.093 254.387 187.093 179.974 T
0.5 W
0.15 0.15 0.15 C
98.5037 179.974 LS
98.5037 181.102 LE
98.5037 254.387 LS
98.5037 253.258 LE
128.033 179.974 LS
128.033 181.102 LE
128.033 254.387 LS
128.033 253.258 LE
157.563 179.974 LS
157.563 181.102 LE
157.563 254.387 LS
157.563 253.258 LE
187.093 179.974 LS
187.093 181.102 LE
187.093 254.387 LS
187.093 253.258 LE
gsave
0.14902 0.14902 0.14902 C
(5) [10] 0 95.5037 164.432 10 /Helvetica SRX
grestore

gsave
0.14902 0.14902 0.14902 C
(10) [6 10] 0 122.033 164.432 10 /Helvetica SRX
grestore

gsave
0.14902 0.14902 0.14902 C
(15) [6 10] 0 151.563 164.432 10 /Helvetica SRX
grestore

gsave
0.14902 0.14902 0.14902 C
(20) [6 10] 0 181.093 164.432 10 /Helvetica SRX
grestore

74.88 183.792 LS
76.0043 183.792 LE
187.093 183.792 LS
185.968 183.792 LE
74.88 196.26 LS
76.0043 196.26 LE
187.093 196.26 LS
185.968 196.26 LE
74.88 208.727 LS
76.0043 208.727 LE
187.093 208.727 LS
185.968 208.727 LE
74.88 221.195 LS
76.0043 221.195 LE
187.093 221.195 LS
185.968 221.195 LE
74.88 233.663 LS
76.0043 233.663 LE
187.093 233.663 LS
185.968 233.663 LE
74.88 246.131 LS
76.0043 246.131 LE
187.093 246.131 LS
185.968 246.131 LE
gsave
0.14902 0.14902 0.14902 C
(-0.0025) [3 6 3 6 6 6 10] 0 33.8705 179.792 10 /Helvetica SRX
grestore

gsave
0.14902 0.14902 0.14902 C
(-0.002) [3 6 3 6 6 10] 0 39.8705 192.26 10 /Helvetica SRX
grestore

gsave
0.14902 0.14902 0.14902 C
(-0.0015) [3 6 3 6 6 6 10] 0 33.8705 204.727 10 /Helvetica SRX
grestore

gsave
0.14902 0.14902 0.14902 C
(-0.001) [3 6 3 6 6 10] 0 39.8705 217.195 10 /Helvetica SRX
grestore

gsave
0.14902 0.14902 0.14902 C
(-0.0005) [3 6 3 6 6 6 10] 0 33.8705 229.663 10 /Helvetica SRX
grestore

gsave
0.14902 0.14902 0.14902 C
(0) [10] 0 63.8705 242.131 10 /Helvetica SRX
grestore

2 LC
[16 0] 0 setdash
74.88 179.974 LS
187.093 179.974 LE
74.88 254.387 LS
187.093 254.387 LE
74.88 179.974 LS
74.88 254.387 LE
187.093 179.974 LS
187.093 254.387 LE
gsave
0 0 0 C
(L_T_hat) [7 6 7 6 7 6 10] 0 109.486 266.387 11 /Helvetica-Bold SRX
grestore

0.9 0.9 0.9 C
74.88 179.974 74.88 234.945 80.7859 179.974 T
80.7859 228.788 80.7859 179.974 74.88 234.945 T
86.6918 179.974 80.7859 179.974 80.7859 228.788 T
86.6918 227.73 86.6918 179.974 80.7859 228.788 T
92.5978 179.974 86.6918 179.974 86.6918 227.73 T
92.5978 225.451 92.5978 179.974 86.6918 227.73 T
98.5037 179.974 92.5978 179.974 92.5978 225.451 T
98.5037 228.877 98.5037 179.974 92.5978 225.451 T
104.41 179.974 98.5037 179.974 98.5037 228.877 T
104.41 230.907 104.41 179.974 98.5037 228.877 T
110.316 179.974 104.41 179.974 104.41 230.907 T
110.316 234.473 110.316 179.974 104.41 230.907 T
116.221 179.974 110.316 179.974 110.316 234.473 T
116.221 237.613 116.221 179.974 110.316 234.473 T
122.127 179.974 116.221 179.974 116.221 237.613 T
122.127 240.846 122.127 179.974 116.221 237.613 T
128.033 179.974 122.127 179.974 122.127 240.846 T
128.033 243.085 128.033 179.974 122.127 240.846 T
133.939 179.974 128.033 179.974 128.033 243.085 T
133.939 244.212 133.939 179.974 128.033 243.085 T
139.845 179.974 133.939 179.974 133.939 244.212 T
139.845 246.874 139.845 179.974 133.939 244.212 T
145.751 179.974 139.845 179.974 139.845 246.874 T
145.751 248.291 145.751 179.974 139.845 246.874 T
151.657 179.974 145.751 179.974 145.751 248.291 T
151.657 248.916 151.657 179.974 145.751 248.291 T
157.563 179.974 151.657 179.974 151.657 248.916 T
157.563 249.805 157.563 179.974 151.657 248.916 T
163.469 179.974 157.563 179.974 157.563 249.805 T
163.469 251.119 163.469 179.974 157.563 249.805 T
169.375 179.974 163.469 179.974 163.469 251.119 T
169.375 251.952 169.375 179.974 163.469 251.119 T
175.281 179.974 169.375 179.974 169.375 251.952 T
175.281 252.94 175.281 179.974 169.375 251.952 T
181.187 179.974 175.281 179.974 175.281 252.94 T
181.187 253.696 181.187 179.974 175.281 252.94 T
187.093 179.974 181.187 179.974 181.187 253.696 T
187.093 254.387 187.093 179.974 181.187 253.696 T
0 LC
[] 0 setdash
0 0 0 C
187.093 254.387 LS
181.187 253.696 L
175.281 252.94 L
169.375 251.952 L
163.469 251.119 L
157.563 249.805 L
151.657 248.916 L
145.751 248.291 L
139.845 246.874 L
133.939 244.212 L
128.033 243.085 L
122.127 240.846 L
116.221 237.613 L
110.316 234.473 L
104.41 230.907 L
98.5037 228.877 L
92.5978 225.451 L
86.6918 227.73 L
80.7859 228.788 L
74.88 234.945 L
74.88 179.974 L
80.7859 179.974 L
86.6918 179.974 L
92.5978 179.974 L
98.5037 179.974 L
104.41 179.974 L
110.316 179.974 L
116.221 179.974 L
122.127 179.974 L
128.033 179.974 L
133.939 179.974 L
139.845 179.974 L
145.751 179.974 L
151.657 179.974 L
157.563 179.974 L
163.469 179.974 L
169.375 179.974 L
175.281 179.974 L
181.187 179.974 L
187.093 179.974 L
187.093 254.387 LE
1 1 1 C
92.5978 179.974 98.5037 182.388 98.5037 179.974 T
104.41 179.974 98.5037 179.974 98.5037 182.388 T
104.41 185.734 104.41 179.974 98.5037 182.388 T
110.316 179.974 104.41 179.974 104.41 185.734 T
110.316 191.379 110.316 179.974 104.41 185.734 T
116.221 179.974 110.316 179.974 110.316 191.379 T
116.221 197.089 116.221 179.974 110.316 191.379 T
122.127 179.974 116.221 179.974 116.221 197.089 T
122.127 203.763 122.127 179.974 116.221 197.089 T
128.033 179.974 122.127 179.974 122.127 203.763 T
128.033 209.433 128.033 179.974 122.127 203.763 T
133.939 179.974 128.033 179.974 128.033 209.433 T
133.939 213.592 133.939 179.974 128.033 209.433 T
139.845 179.974 133.939 179.974 133.939 213.592 T
139.845 219.724 139.845 179.974 133.939 213.592 T
145.751 179.974 139.845 179.974 139.845 219.724 T
145.751 224.024 145.751 179.974 139.845 219.724 T
151.657 179.974 145.751 179.974 145.751 224.024 T
151.657 227.278 151.657 179.974 145.751 224.024 T
157.563 179.974 151.657 179.974 151.657 227.278 T
157.563 230.361 157.563 179.974 151.657 227.278 T
163.469 179.974 157.563 179.974 157.563 230.361 T
163.469 233.726 163.469 179.974 157.563 230.361 T
169.375 179.974 163.469 179.974 163.469 233.726 T
169.375 235.996 169.375 179.974 163.469 233.726 T
175.281 179.974 169.375 179.974 169.375 235.996 T
175.281 238.581 175.281 179.974 169.375 235.996 T
181.187 179.974 175.281 179.974 175.281 238.581 T
181.187 240.666 181.187 179.974 175.281 238.581 T
187.093 179.974 181.187 179.974 181.187 240.666 T
187.093 242.541 187.093 179.974 181.187 240.666 T
74.88 179.974 74.88 216.36 80.7859 179.974 T
80.7859 199.428 80.7859 179.974 74.88 216.36 T
86.6918 179.974 80.7859 179.974 80.7859 199.428 T
86.6918 187.709 86.6918 179.974 80.7859 199.428 T
92.5978 179.974 86.6918 179.974 86.6918 187.709 T
0 0 0 C
92.5978 179.974 LS
86.6918 187.709 L
80.7859 199.428 L
74.88 216.36 L
74.88 179.974 L
80.7859 179.974 L
86.6918 179.974 L
92.5978 179.974 LE
187.093 242.541 LS
181.187 240.666 L
175.281 238.581 L
169.375 235.996 L
163.469 233.726 L
157.563 230.361 L
151.657 227.278 L
145.751 224.024 L
139.845 219.724 L
133.939 213.592 L
128.033 209.433 L
122.127 203.763 L
116.221 197.089 L
110.316 191.379 L
104.41 185.734 L
98.5037 182.388 L
92.5978 179.974 L
98.5037 179.974 L
104.41 179.974 L
110.316 179.974 L
116.221 179.974 L
122.127 179.974 L
128.033 179.974 L
133.939 179.974 L
139.845 179.974 L
145.751 179.974 L
151.657 179.974 L
157.563 179.974 L
163.469 179.974 L
169.375 179.974 L
175.281 179.974 L
181.187 179.974 L
187.093 179.974 L
187.093 242.541 LE
3 W
1 LJ
74.88 226.341 LS
80.7859 215.001 L
86.6918 205.758 L
92.5978 202.355 L
98.5037 203.188 L
104.41 206.426 L
110.316 210.806 L
116.221 215.561 L
122.127 220.256 L
128.033 224.664 L
133.939 228.679 L
139.845 232.266 L
145.751 235.433 L
151.657 238.204 L
157.563 240.616 L
163.469 242.708 L
169.375 244.518 L
175.281 246.083 L
181.187 247.435 L
187.093 248.603 LE
grestore
gsave
1.0 1.0 scale
newpath 0 0 moveto 576 0 lineto 576 432 lineto 0 432 lineto
closepath clip
1 1 1 C
241.974 254.387 354.186 179.974 241.974 179.974 T
241.974 254.387 354.186 254.387 354.186 179.974 T
0.5 W
0.15 0.15 0.15 C
265.597 179.974 LS
265.597 181.102 LE
265.597 254.387 LS
265.597 253.258 LE
295.127 179.974 LS
295.127 181.102 LE
295.127 254.387 LS
295.127 253.258 LE
324.657 179.974 LS
324.657 181.102 LE
324.657 254.387 LS
324.657 253.258 LE
354.186 179.974 LS
354.186 181.102 LE
354.186 254.387 LS
354.186 253.258 LE
gsave
0.14902 0.14902 0.14902 C
(5) [10] 0 262.597 164.432 10 /Helvetica SRX
grestore

gsave
0.14902 0.14902 0.14902 C
(10) [6 10] 0 289.127 164.432 10 /Helvetica SRX
grestore

gsave
0.14902 0.14902 0.14902 C
(15) [6 10] 0 318.657 164.432 10 /Helvetica SRX
grestore

gsave
0.14902 0.14902 0.14902 C
(20) [6 10] 0 348.186 164.432 10 /Helvetica SRX
grestore

241.974 190.033 LS
243.098 190.033 LE
354.186 190.033 LS
353.062 190.033 LE
241.974 208.468 LS
243.098 208.468 LE
354.186 208.468 LS
353.062 208.468 LE
241.974 226.903 LS
243.098 226.903 LE
354.186 226.903 LS
353.062 226.903 LE
241.974 245.338 LS
243.098 245.338 LE
354.186 245.338 LS
353.062 245.338 LE
gsave
0.14902 0.14902 0.14902 C
(0.0005) [6 3 6 6 6 10] 0 203.964 186.033 10 /Helvetica SRX
grestore

gsave
0.14902 0.14902 0.14902 C
(0.001) [6 3 6 6 10] 0 209.964 204.468 10 /Helvetica SRX
grestore

gsave
0.14902 0.14902 0.14902 C
(0.0015) [6 3 6 6 6 10] 0 203.964 222.903 10 /Helvetica SRX
grestore

gsave
0.14902 0.14902 0.14902 C
(0.002) [6 3 6 6 10] 0 209.964 241.338 10 /Helvetica SRX
grestore

2 LC
[16 0] 0 setdash
241.974 179.974 LS
354.186 179.974 LE
241.974 254.387 LS
354.186 254.387 LE
241.974 179.974 LS
241.974 254.387 LE
354.186 179.974 LS
354.186 254.387 LE
gsave
0 0 0 C
(L_N_hat) [7 6 8 6 7 6 10] 0 276.08 266.387 11 /Helvetica-Bold SRX
grestore

0.9 0.9 0.9 C
241.974 179.974 241.974 197.334 247.88 179.974 T
247.88 216.437 247.88 179.974 241.974 197.334 T
253.786 179.974 247.88 179.974 247.88 216.437 T
253.786 233.758 253.786 179.974 247.88 216.437 T
259.691 179.974 253.786 179.974 253.786 233.758 T
259.691 244.932 259.691 179.974 253.786 233.758 T
265.597 179.974 259.691 179.974 259.691 244.932 T
265.597 250.931 265.597 179.974 259.691 244.932 T
271.503 179.974 265.597 179.974 265.597 250.931 T
271.503 253.31 271.503 179.974 265.597 250.931 T
277.409 179.974 271.503 179.974 271.503 253.31 T
277.409 252.523 277.409 179.974 271.503 253.31 T
283.315 179.974 277.409 179.974 277.409 252.523 T
283.315 254.387 283.315 179.974 277.409 252.523 T
289.221 179.974 283.315 179.974 283.315 254.387 T
289.221 253.943 289.221 179.974 283.315 254.387 T
295.127 179.974 289.221 179.974 289.221 253.943 T
295.127 247.443 295.127 179.974 289.221 253.943 T
301.033 179.974 295.127 179.974 295.127 247.443 T
301.033 243.556 301.033 179.974 295.127 247.443 T
306.939 179.974 301.033 179.974 301.033 243.556 T
306.939 239.198 306.939 179.974 301.033 243.556 T
312.845 179.974 306.939 179.974 306.939 239.198 T
312.845 236.72 312.845 179.974 306.939 239.198 T
318.751 179.974 312.845 179.974 312.845 236.72 T
318.751 233.908 318.751 179.974 312.845 236.72 T
324.657 179.974 318.751 179.974 318.751 233.908 T
324.657 231.648 324.657 179.974 318.751 233.908 T
330.563 179.974 324.657 179.974 324.657 231.648 T
330.563 229.727 330.563 179.974 324.657 231.648 T
336.469 179.974 330.563 179.974 330.563 229.727 T
336.469 227.734 336.469 179.974 330.563 229.727 T
342.374 179.974 336.469 179.974 336.469 227.734 T
342.374 224.836 342.374 179.974 336.469 227.734 T
348.28 179.974 342.374 179.974 342.374 224.836 T
348.28 223.166 348.28 179.974 342.374 224.836 T
354.186 179.974 348.28 179.974 348.28 223.166 T
354.186 221.667 354.186 179.974 348.28 223.166 T
0 LC
[] 0 setdash
0 0 0 C
354.186 221.667 LS
348.28 223.166 L
342.374 224.836 L
336.469 227.734 L
330.563 229.727 L
324.657 231.648 L
318.751 233.908 L
312.845 236.72 L
306.939 239.198 L
301.033 243.556 L
295.127 247.443 L
289.221 253.943 L
283.315 254.387 L
277.409 252.523 L
271.503 253.31 L
265.597 250.931 L
259.691 244.932 L
253.786 233.758 L
247.88 216.437 L
241.974 197.334 L
241.974 179.974 L
247.88 179.974 L
253.786 179.974 L
259.691 179.974 L
265.597 179.974 L
271.503 179.974 L
277.409 179.974 L
283.315 179.974 L
289.221 179.974 L
295.127 179.974 L
301.033 179.974 L
306.939 179.974 L
312.845 179.974 L
318.751 179.974 L
324.657 179.974 L
330.563 179.974 L
336.469 179.974 L
342.374 179.974 L
348.28 179.974 L
354.186 179.974 L
354.186 221.667 LE
1 1 1 C
241.974 179.974 247.88 186.65 247.88 179.974 T
253.786 179.974 247.88 179.974 247.88 186.65 T
253.786 192.528 253.786 179.974 247.88 186.65 T
259.691 179.974 253.786 179.974 253.786 192.528 T
259.691 195.48 259.691 179.974 253.786 192.528 T
265.597 179.974 259.691 179.974 259.691 195.48 T
265.597 197.105 265.597 179.974 259.691 195.48 T
271.503 179.974 265.597 179.974 265.597 197.105 T
271.503 197.719 271.503 179.974 265.597 197.105 T
277.409 179.974 271.503 179.974 271.503 197.719 T
277.409 195.93 277.409 179.974 271.503 197.719 T
283.315 179.974 277.409 179.974 277.409 195.93 T
283.315 197.75 283.315 179.974 277.409 195.93 T
289.221 179.974 283.315 179.974 283.315 197.75 T
289.221 198.229 289.221 179.974 283.315 197.75 T
295.127 179.974 289.221 179.974 289.221 198.229 T
295.127 192.919 295.127 179.974 289.221 198.229 T
301.033 179.974 295.127 179.974 295.127 192.919 T
301.033 190.503 301.033 179.974 295.127 192.919 T
306.939 179.974 301.033 179.974 301.033 190.503 T
306.939 187.672 306.939 179.974 301.033 190.503 T
312.845 179.974 306.939 179.974 306.939 187.672 T
312.845 186.687 312.845 179.974 306.939 187.672 T
318.751 179.974 312.845 179.974 312.845 186.687 T
318.751 185.897 318.751 179.974 312.845 186.687 T
324.657 179.974 318.751 179.974 318.751 185.897 T
324.657 185.307 324.657 179.974 318.751 185.897 T
330.563 179.974 324.657 179.974 324.657 185.307 T
330.563 184.799 330.563 179.974 324.657 185.307 T
336.469 179.974 330.563 179.974 330.563 184.799 T
336.469 184.272 336.469 179.974 330.563 184.799 T
342.374 179.974 336.469 179.974 336.469 184.272 T
342.374 182.888 342.374 179.974 336.469 184.272 T
348.28 179.974 342.374 179.974 342.374 182.888 T
348.28 182.718 348.28 179.974 342.374 182.888 T
354.186 179.974 348.28 179.974 348.28 182.718 T
354.186 182.574 354.186 179.974 348.28 182.718 T
0 0 0 C
354.186 182.574 LS
348.28 182.718 L
342.374 182.888 L
336.469 184.272 L
330.563 184.799 L
324.657 185.307 L
318.751 185.897 L
312.845 186.687 L
306.939 187.672 L
301.033 190.503 L
295.127 192.919 L
289.221 198.229 L
283.315 197.75 L
277.409 195.93 L
271.503 197.719 L
265.597 197.105 L
259.691 195.48 L
253.786 192.528 L
247.88 186.65 L
241.974 179.974 L
247.88 179.974 L
253.786 179.974 L
259.691 179.974 L
265.597 179.974 L
271.503 179.974 L
277.409 179.974 L
283.315 179.974 L
289.221 179.974 L
295.127 179.974 L
301.033 179.974 L
306.939 179.974 L
312.845 179.974 L
318.751 179.974 L
324.657 179.974 L
330.563 179.974 L
336.469 179.974 L
342.374 179.974 L
348.28 179.974 L
354.186 179.974 L
354.186 182.574 LE
3 W
1 LJ
241.974 189.277 LS
247.88 202.273 L
253.786 213.844 L
259.691 221.879 L
265.597 226.26 L
271.503 227.816 L
277.409 227.47 L
283.315 225.973 L
289.221 223.863 L
295.127 221.498 L
301.033 219.102 L
306.939 216.804 L
312.845 214.675 L
318.751 212.743 L
324.657 211.015 L
330.563 209.482 L
336.469 208.13 L
342.374 206.939 L
348.28 205.891 L
354.186 204.967 LE
grestore
gsave
1.0 1.0 scale
newpath 0 0 moveto 576 0 lineto 576 432 lineto 0 432 lineto
closepath clip
1 1 1 C
409.067 254.387 521.28 179.974 409.067 179.974 T
409.067 254.387 521.28 254.387 521.28 179.974 T
0.5 W
0.15 0.15 0.15 C
432.691 179.974 LS
432.691 181.102 LE
432.691 254.387 LS
432.691 253.258 LE
462.221 179.974 LS
462.221 181.102 LE
462.221 254.387 LS
462.221 253.258 LE
491.75 179.974 LS
491.75 181.102 LE
491.75 254.387 LS
491.75 253.258 LE
521.28 179.974 LS
521.28 181.102 LE
521.28 254.387 LS
521.28 253.258 LE
gsave
0.14902 0.14902 0.14902 C
(5) [10] 0 429.691 164.432 10 /Helvetica SRX
grestore

gsave
0.14902 0.14902 0.14902 C
(10) [6 10] 0 456.221 164.432 10 /Helvetica SRX
grestore

gsave
0.14902 0.14902 0.14902 C
(15) [6 10] 0 485.75 164.432 10 /Helvetica SRX
grestore

gsave
0.14902 0.14902 0.14902 C
(20) [6 10] 0 515.28 164.432 10 /Helvetica SRX
grestore

409.067 196.066 LS
410.192 196.066 LE
521.28 196.066 LS
520.156 196.066 LE
409.067 213.512 LS
410.192 213.512 LE
521.28 213.512 LS
520.156 213.512 LE
409.067 230.958 LS
410.192 230.958 LE
521.28 230.958 LS
520.156 230.958 LE
409.067 248.405 LS
410.192 248.405 LE
521.28 248.405 LS
520.156 248.405 LE
gsave
0.14902 0.14902 0.14902 C
(0.005) [6 3 6 6 10] 0 377.058 192.066 10 /Helvetica SRX
grestore

gsave
0.14902 0.14902 0.14902 C
(0.01) [6 3 6 10] 0 383.058 209.512 10 /Helvetica SRX
grestore

gsave
0.14902 0.14902 0.14902 C
(0.015) [6 3 6 6 10] 0 377.058 226.958 10 /Helvetica SRX
grestore

gsave
0.14902 0.14902 0.14902 C
(0.02) [6 3 6 10] 0 383.058 244.405 10 /Helvetica SRX
grestore

2 LC
[16 0] 0 setdash
409.067 179.974 LS
521.28 179.974 LE
409.067 254.387 LS
521.28 254.387 LE
409.067 179.974 LS
409.067 254.387 LE
521.28 179.974 LS
521.28 254.387 LE
gsave
0 0 0 C
(L_C_hat) [7 6 8 6 7 6 10] 0 443.174 266.387 11 /Helvetica-Bold SRX
grestore

0.9 0.9 0.9 C
409.067 179.974 409.067 194.159 414.973 179.974 T
414.973 214.209 414.973 179.974 409.067 194.159 T
420.879 179.974 414.973 179.974 414.973 214.209 T
420.879 241.233 420.879 179.974 414.973 214.209 T
426.785 179.974 420.879 179.974 420.879 241.233 T
426.785 252.197 426.785 179.974 420.879 241.233 T
432.691 179.974 426.785 179.974 426.785 252.197 T
432.691 254.387 432.691 179.974 426.785 252.197 T
438.597 179.974 432.691 179.974 432.691 254.387 T
438.597 250.635 438.597 179.974 432.691 254.387 T
444.503 179.974 438.597 179.974 438.597 250.635 T
444.503 244.371 444.503 179.974 438.597 250.635 T
450.409 179.974 444.503 179.974 444.503 244.371 T
450.409 237.373 450.409 179.974 444.503 244.371 T
456.315 179.974 450.409 179.974 450.409 237.373 T
456.315 233.674 456.315 179.974 450.409 237.373 T
462.221 179.974 456.315 179.974 456.315 233.674 T
462.221 227.9 462.221 179.974 456.315 233.674 T
468.127 179.974 462.221 179.974 462.221 227.9 T
468.127 222.809 468.127 179.974 462.221 227.9 T
474.033 179.974 468.127 179.974 468.127 222.809 T
474.033 218.406 474.033 179.974 468.127 222.809 T
479.939 179.974 474.033 179.974 474.033 218.406 T
479.939 214.614 479.939 179.974 474.033 218.406 T
485.844 179.974 479.939 179.974 479.939 214.614 T
485.844 210.294 485.844 179.974 479.939 214.614 T
491.75 179.974 485.844 179.974 485.844 210.294 T
491.75 207.326 491.75 179.974 485.844 210.294 T
497.656 179.974 491.75 179.974 491.75 207.326 T
497.656 205.073 497.656 179.974 491.75 207.326 T
503.562 179.974 497.656 179.974 497.656 205.073 T
503.562 202.992 503.562 179.974 497.656 205.073 T
509.468 179.974 503.562 179.974 503.562 202.992 T
509.468 200.813 509.468 179.974 503.562 202.992 T
515.374 179.974 509.468 179.974 509.468 200.813 T
515.374 198.399 515.374 179.974 509.468 200.813 T
521.28 179.974 515.374 179.974 515.374 198.399 T
521.28 196.815 521.28 179.974 515.374 198.399 T
0 LC
[] 0 setdash
0 0 0 C
521.28 196.815 LS
515.374 198.399 L
509.468 200.813 L
503.562 202.992 L
497.656 205.073 L
491.75 207.326 L
485.844 210.294 L
479.939 214.614 L
474.033 218.406 L
468.127 222.809 L
462.221 227.9 L
456.315 233.674 L
450.409 237.373 L
444.503 244.371 L
438.597 250.635 L
432.691 254.387 L
426.785 252.197 L
420.879 241.233 L
414.973 214.209 L
409.067 194.159 L
409.067 179.974 L
414.973 179.974 L
420.879 179.974 L
426.785 179.974 L
432.691 179.974 L
438.597 179.974 L
444.503 179.974 L
450.409 179.974 L
456.315 179.974 L
462.221 179.974 L
468.127 179.974 L
474.033 179.974 L
479.939 179.974 L
485.844 179.974 L
491.75 179.974 L
497.656 179.974 L
503.562 179.974 L
509.468 179.974 L
515.374 179.974 L
521.28 179.974 L
521.28 196.815 LE
1 1 1 C
521.28 179.974 515.374 179.974 521.28 180.053 T
409.067 179.974 409.067 184.361 414.973 179.974 T
414.973 191.007 414.973 179.974 409.067 184.361 T
420.879 179.974 414.973 179.974 414.973 191.007 T
420.879 197.618 420.879 179.974 414.973 191.007 T
426.785 179.974 420.879 179.974 420.879 197.618 T
426.785 200.368 426.785 179.974 420.879 197.618 T
432.691 179.974 426.785 179.974 426.785 200.368 T
432.691 201.493 432.691 179.974 426.785 200.368 T
438.597 179.974 432.691 179.974 432.691 201.493 T
438.597 199.379 438.597 179.974 432.691 201.493 T
444.503 179.974 438.597 179.974 438.597 199.379 T
444.503 195.894 444.503 179.974 438.597 199.379 T
450.409 179.974 444.503 179.974 444.503 195.894 T
450.409 191.594 450.409 179.974 444.503 195.894 T
456.315 179.974 450.409 179.974 450.409 191.594 T
456.315 190.502 456.315 179.974 450.409 191.594 T
462.221 179.974 456.315 179.974 456.315 190.502 T
462.221 187.272 462.221 179.974 456.315 190.502 T
468.127 179.974 462.221 179.974 462.221 187.272 T
468.127 185.753 468.127 179.974 462.221 187.272 T
474.033 179.974 468.127 179.974 468.127 185.753 T
474.033 183.751 474.033 179.974 468.127 185.753 T
479.939 179.974 474.033 179.974 474.033 183.751 T
479.939 182.801 479.939 179.974 474.033 183.751 T
485.844 179.974 479.939 179.974 479.939 182.801 T
485.844 181.279 485.844 179.974 479.939 182.801 T
491.75 179.974 485.844 179.974 485.844 181.279 T
491.75 180.863 491.75 179.974 485.844 181.279 T
497.656 179.974 491.75 179.974 491.75 180.863 T
497.656 181.017 497.656 179.974 491.75 180.863 T
503.562 179.974 497.656 179.974 497.656 181.017 T
503.562 180.928 503.562 179.974 497.656 181.017 T
509.468 179.974 503.562 179.974 503.562 180.928 T
509.468 180.685 509.468 179.974 503.562 180.928 T
515.374 179.974 509.468 179.974 509.468 180.685 T
0 0 0 C
515.374 179.974 LS
509.468 180.685 L
503.562 180.928 L
497.656 181.017 L
491.75 180.863 L
485.844 181.279 L
479.939 182.801 L
474.033 183.751 L
468.127 185.753 L
462.221 187.272 L
456.315 190.502 L
450.409 191.594 L
444.503 195.894 L
438.597 199.379 L
432.691 201.493 L
426.785 200.368 L
420.879 197.618 L
414.973 191.007 L
409.067 184.361 L
409.067 179.974 L
414.973 179.974 L
420.879 179.974 L
426.785 179.974 L
432.691 179.974 L
438.597 179.974 L
444.503 179.974 L
450.409 179.974 L
456.315 179.974 L
462.221 179.974 L
468.127 179.974 L
474.033 179.974 L
479.939 179.974 L
485.844 179.974 L
491.75 179.974 L
497.656 179.974 L
503.562 179.974 L
509.468 179.974 L
515.374 179.974 LE
521.28 180.053 LS
515.374 179.974 L
521.28 179.974 L
521.28 180.053 LE
3 W
1 LJ
409.067 189.367 LS
414.973 202.191 L
420.879 218.898 L
426.785 225.584 L
432.691 226.617 L
438.597 224.611 L
444.503 221.121 L
450.409 217.056 L
456.315 212.928 L
462.221 209.013 L
468.127 205.445 L
474.033 202.271 L
479.939 199.495 L
485.844 197.092 L
491.75 195.029 L
497.656 193.264 L
503.562 191.759 L
509.468 190.478 L
515.374 189.386 L
521.28 188.456 LE
grestore
gsave
1.0 1.0 scale
newpath 0 0 moveto 576 0 lineto 576 432 lineto 0 432 lineto
closepath clip
1 1 1 C
74.88 121.933 187.093 47.52 74.88 47.52 T
74.88 121.933 187.093 121.933 187.093 47.52 T
0.5 W
0.15 0.15 0.15 C
98.5037 47.52 LS
98.5037 48.6484 LE
98.5037 121.933 LS
98.5037 120.805 LE
128.033 47.52 LS
128.033 48.6484 LE
128.033 121.933 LS
128.033 120.805 LE
157.563 47.52 LS
157.563 48.6484 LE
157.563 121.933 LS
157.563 120.805 LE
187.093 47.52 LS
187.093 48.6484 LE
187.093 121.933 LS
187.093 120.805 LE
gsave
0.14902 0.14902 0.14902 C
(5) [10] 0 95.5037 31.9781 10 /Helvetica SRX
grestore

gsave
0.14902 0.14902 0.14902 C
(10) [6 10] 0 122.033 31.9781 10 /Helvetica SRX
grestore

gsave
0.14902 0.14902 0.14902 C
(15) [6 10] 0 151.563 31.9781 10 /Helvetica SRX
grestore

gsave
0.14902 0.14902 0.14902 C
(20) [6 10] 0 181.093 31.9781 10 /Helvetica SRX
grestore

74.88 50.4499 LS
76.0043 50.4499 LE
187.093 50.4499 LS
185.968 50.4499 LE
74.88 63.5797 LS
76.0043 63.5797 LE
187.093 63.5797 LS
185.968 63.5797 LE
74.88 76.7095 LS
76.0043 76.7095 LE
187.093 76.7095 LS
185.968 76.7095 LE
74.88 89.8393 LS
76.0043 89.8393 LE
187.093 89.8393 LS
185.968 89.8393 LE
74.88 102.969 LS
76.0043 102.969 LE
187.093 102.969 LS
185.968 102.969 LE
74.88 116.099 LS
76.0043 116.099 LE
187.093 116.099 LS
185.968 116.099 LE
gsave
0.14902 0.14902 0.14902 C
(-0.001) [3 6 3 6 6 10] 0 39.8705 46.45 10 /Helvetica SRX
grestore

gsave
0.14902 0.14902 0.14902 C
(0) [10] 0 63.8705 59.5798 10 /Helvetica SRX
grestore

gsave
0.14902 0.14902 0.14902 C
(0.001) [6 3 6 6 10] 0 42.8705 72.7096 10 /Helvetica SRX
grestore

gsave
0.14902 0.14902 0.14902 C
(0.002) [6 3 6 6 10] 0 42.8705 85.8394 10 /Helvetica SRX
grestore

gsave
0.14902 0.14902 0.14902 C
(0.003) [6 3 6 6 10] 0 42.8705 98.9692 10 /Helvetica SRX
grestore

gsave
0.14902 0.14902 0.14902 C
(0.004) [6 3 6 6 10] 0 42.8705 112.099 10 /Helvetica SRX
grestore

2 LC
[16 0] 0 setdash
74.88 47.52 LS
187.093 47.52 LE
74.88 121.933 LS
187.093 121.933 LE
74.88 47.52 LS
74.88 121.933 LE
187.093 47.52 LS
187.093 121.933 LE
gsave
0 0 0 C
(I_T_hat) [3 6 7 6 7 6 10] 0 111.486 133.933 11 /Helvetica-Bold SRX
grestore

0.9 0.9 0.9 C
74.88 47.52 74.88 82.5064 80.7859 47.52 T
80.7859 88.1377 80.7859 47.52 74.88 82.5064 T
86.6918 47.52 80.7859 47.52 80.7859 88.1377 T
86.6918 94.7483 86.6918 47.52 80.7859 88.1377 T
92.5978 47.52 86.6918 47.52 86.6918 94.7483 T
92.5978 106.926 92.5978 47.52 86.6918 94.7483 T
98.5037 47.52 92.5978 47.52 92.5978 106.926 T
98.5037 114.432 98.5037 47.52 92.5978 106.926 T
104.41 47.52 98.5037 47.52 98.5037 114.432 T
104.41 119.965 104.41 47.52 98.5037 114.432 T
110.316 47.52 104.41 47.52 104.41 119.965 T
110.316 121.933 110.316 47.52 104.41 119.965 T
116.221 47.52 110.316 47.52 110.316 121.933 T
116.221 121.418 116.221 47.52 110.316 121.933 T
122.127 47.52 116.221 47.52 116.221 121.418 T
122.127 121.441 122.127 47.52 116.221 121.418 T
128.033 47.52 122.127 47.52 122.127 121.441 T
128.033 119.874 128.033 47.52 122.127 121.441 T
133.939 47.52 128.033 47.52 128.033 119.874 T
133.939 120.149 133.939 47.52 128.033 119.874 T
139.845 47.52 133.939 47.52 133.939 120.149 T
139.845 118.743 139.845 47.52 133.939 120.149 T
145.751 47.52 139.845 47.52 139.845 118.743 T
145.751 116.577 145.751 47.52 139.845 118.743 T
151.657 47.52 145.751 47.52 145.751 116.577 T
151.657 114.727 151.657 47.52 145.751 116.577 T
157.563 47.52 151.657 47.52 151.657 114.727 T
157.563 114.782 157.563 47.52 151.657 114.727 T
163.469 47.52 157.563 47.52 157.563 114.782 T
163.469 112.607 163.469 47.52 157.563 114.782 T
169.375 47.52 163.469 47.52 163.469 112.607 T
169.375 109.592 169.375 47.52 163.469 112.607 T
175.281 47.52 169.375 47.52 169.375 109.592 T
175.281 108.567 175.281 47.52 169.375 109.592 T
181.187 47.52 175.281 47.52 175.281 108.567 T
181.187 106.383 181.187 47.52 175.281 108.567 T
187.093 47.52 181.187 47.52 181.187 106.383 T
187.093 104.936 187.093 47.52 181.187 106.383 T
0 LC
[] 0 setdash
0 0 0 C
187.093 104.936 LS
181.187 106.383 L
175.281 108.567 L
169.375 109.592 L
163.469 112.607 L
157.563 114.782 L
151.657 114.727 L
145.751 116.577 L
139.845 118.743 L
133.939 120.149 L
128.033 119.874 L
122.127 121.441 L
116.221 121.418 L
110.316 121.933 L
104.41 119.965 L
98.5037 114.432 L
92.5978 106.926 L
86.6918 94.7483 L
80.7859 88.1377 L
74.88 82.5064 L
74.88 47.52 L
80.7859 47.52 L
86.6918 47.52 L
92.5978 47.52 L
98.5037 47.52 L
104.41 47.52 L
110.316 47.52 L
116.221 47.52 L
122.127 47.52 L
128.033 47.52 L
133.939 47.52 L
139.845 47.52 L
145.751 47.52 L
151.657 47.52 L
157.563 47.52 L
163.469 47.52 L
169.375 47.52 L
175.281 47.52 L
181.187 47.52 L
187.093 47.52 L
187.093 104.936 LE
1 1 1 C
74.88 47.52 80.7859 52.8441 80.7859 47.52 T
86.6918 47.52 80.7859 47.52 80.7859 52.8441 T
86.6918 59.0372 86.6918 47.52 80.7859 52.8441 T
92.5978 47.52 86.6918 47.52 86.6918 59.0372 T
92.5978 69.6695 92.5978 47.52 86.6918 59.0372 T
98.5037 47.52 92.5978 47.52 92.5978 69.6695 T
98.5037 76.7801 98.5037 47.52 92.5978 69.6695 T
104.41 47.52 98.5037 47.52 98.5037 76.7801 T
104.41 82.5321 104.41 47.52 98.5037 76.7801 T
110.316 47.52 104.41 47.52 104.41 82.5321 T
110.316 85.7462 110.316 47.52 104.41 82.5321 T
116.221 47.52 110.316 47.52 110.316 85.7462 T
116.221 86.119 116.221 47.52 110.316 85.7462 T
122.127 47.52 116.221 47.52 116.221 86.119 T
122.127 86.4077 122.127 47.52 116.221 86.119 T
128.033 47.52 122.127 47.52 122.127 86.4077 T
128.033 85.3242 128.033 47.52 122.127 86.4077 T
133.939 47.52 128.033 47.52 128.033 85.3242 T
133.939 85.4627 133.939 47.52 128.033 85.3242 T
139.845 47.52 133.939 47.52 133.939 85.4627 T
139.845 84.1148 139.845 47.52 133.939 85.4627 T
145.751 47.52 139.845 47.52 139.845 84.1148 T
145.751 82.4965 145.751 47.52 139.845 84.1148 T
151.657 47.52 145.751 47.52 145.751 82.4965 T
151.657 80.647 151.657 47.52 145.751 82.4965 T
157.563 47.52 151.657 47.52 151.657 80.647 T
157.563 81.258 157.563 47.52 151.657 80.647 T
163.469 47.52 157.563 47.52 157.563 81.258 T
163.469 79.8178 163.469 47.52 157.563 81.258 T
169.375 47.52 163.469 47.52 163.469 79.8178 T
169.375 77.4557 169.375 47.52 163.469 79.8178 T
175.281 47.52 169.375 47.52 169.375 77.4557 T
175.281 77.3004 175.281 47.52 169.375 77.4557 T
181.187 47.52 175.281 47.52 175.281 77.3004 T
181.187 75.812 181.187 47.52 175.281 77.3004 T
187.093 47.52 181.187 47.52 181.187 75.812 T
187.093 75.2273 187.093 47.52 181.187 75.812 T
0 0 0 C
187.093 75.2273 LS
181.187 75.812 L
175.281 77.3004 L
169.375 77.4557 L
163.469 79.8178 L
157.563 81.258 L
151.657 80.647 L
145.751 82.4965 L
139.845 84.1148 L
133.939 85.4627 L
128.033 85.3242 L
122.127 86.4077 L
116.221 86.119 L
110.316 85.7462 L
104.41 82.5321 L
98.5037 76.7801 L
92.5978 69.6695 L
86.6918 59.0372 L
80.7859 52.8441 L
74.88 47.52 L
80.7859 47.52 L
86.6918 47.52 L
92.5978 47.52 L
98.5037 47.52 L
104.41 47.52 L
110.316 47.52 L
116.221 47.52 L
122.127 47.52 L
128.033 47.52 L
133.939 47.52 L
139.845 47.52 L
145.751 47.52 L
151.657 47.52 L
157.563 47.52 L
163.469 47.52 L
169.375 47.52 L
175.281 47.52 L
181.187 47.52 L
187.093 47.52 L
187.093 75.2273 LE
3 W
1 LJ
74.88 64.5506 LS
80.7859 68.3337 L
86.6918 75.7098 L
92.5978 86.1922 L
98.5037 94.1518 L
104.41 99.4604 L
110.316 102.65 L
116.221 104.253 L
122.127 104.705 L
128.033 104.343 L
133.939 103.427 L
139.845 102.149 L
145.751 100.653 L
151.657 99.0432 L
157.563 97.3941 L
163.469 95.7585 L
169.375 94.172 L
175.281 92.6579 L
181.187 91.2302 L
187.093 89.8963 LE
grestore
gsave
1.0 1.0 scale
newpath 0 0 moveto 576 0 lineto 576 432 lineto 0 432 lineto
closepath clip
1 1 1 C
241.974 121.933 354.186 47.52 241.974 47.52 T
241.974 121.933 354.186 121.933 354.186 47.52 T
0.5 W
0.15 0.15 0.15 C
265.597 47.52 LS
265.597 48.6484 LE
265.597 121.933 LS
265.597 120.805 LE
295.127 47.52 LS
295.127 48.6484 LE
295.127 121.933 LS
295.127 120.805 LE
324.657 47.52 LS
324.657 48.6484 LE
324.657 121.933 LS
324.657 120.805 LE
354.186 47.52 LS
354.186 48.6484 LE
354.186 121.933 LS
354.186 120.805 LE
gsave
0.14902 0.14902 0.14902 C
(5) [10] 0 262.597 31.9781 10 /Helvetica SRX
grestore

gsave
0.14902 0.14902 0.14902 C
(10) [6 10] 0 289.127 31.9781 10 /Helvetica SRX
grestore

gsave
0.14902 0.14902 0.14902 C
(15) [6 10] 0 318.657 31.9781 10 /Helvetica SRX
grestore

gsave
0.14902 0.14902 0.14902 C
(20) [6 10] 0 348.186 31.9781 10 /Helvetica SRX
grestore

241.974 57.463 LS
243.098 57.463 LE
354.186 57.463 LS
353.062 57.463 LE
241.974 73.7371 LS
243.098 73.7371 LE
354.186 73.7371 LS
353.062 73.7371 LE
241.974 90.0112 LS
243.098 90.0112 LE
354.186 90.0112 LS
353.062 90.0112 LE
241.974 106.285 LS
243.098 106.285 LE
354.186 106.285 LS
353.062 106.285 LE
gsave
0.14902 0.14902 0.14902 C
(0.002) [6 3 6 6 10] 0 209.964 53.463 10 /Helvetica SRX
grestore

gsave
0.14902 0.14902 0.14902 C
(0.004) [6 3 6 6 10] 0 209.964 69.7371 10 /Helvetica SRX
grestore

gsave
0.14902 0.14902 0.14902 C
(0.006) [6 3 6 6 10] 0 209.964 86.0112 10 /Helvetica SRX
grestore

gsave
0.14902 0.14902 0.14902 C
(0.008) [6 3 6 6 10] 0 209.964 102.285 10 /Helvetica SRX
grestore

2 LC
[16 0] 0 setdash
241.974 47.52 LS
354.186 47.52 LE
241.974 121.933 LS
354.186 121.933 LE
241.974 47.52 LS
241.974 121.933 LE
354.186 47.52 LS
354.186 121.933 LE
gsave
0 0 0 C
(I_N_hat) [3 6 8 6 7 6 10] 0 278.08 133.933 11 /Helvetica-Bold SRX
grestore

0.9 0.9 0.9 C
241.974 47.52 241.974 121.933 247.88 47.52 T
247.88 119.967 247.88 47.52 241.974 121.933 T
253.786 47.52 247.88 47.52 247.88 119.967 T
253.786 116.863 253.786 47.52 247.88 119.967 T
259.691 47.52 253.786 47.52 253.786 116.863 T
259.691 116.376 259.691 47.52 253.786 116.863 T
265.597 47.52 259.691 47.52 259.691 116.376 T
265.597 112.936 265.597 47.52 259.691 116.376 T
271.503 47.52 265.597 47.52 265.597 112.936 T
271.503 110.864 271.503 47.52 265.597 112.936 T
277.409 47.52 271.503 47.52 271.503 110.864 T
277.409 106.3 277.409 47.52 271.503 110.864 T
283.315 47.52 277.409 47.52 277.409 106.3 T
283.315 102.054 283.315 47.52 277.409 106.3 T
289.221 47.52 283.315 47.52 283.315 102.054 T
289.221 98.6538 289.221 47.52 283.315 102.054 T
295.127 47.52 289.221 47.52 289.221 98.6538 T
295.127 95.879 295.127 47.52 289.221 98.6538 T
301.033 47.52 295.127 47.52 295.127 95.879 T
301.033 89.1575 301.033 47.52 295.127 95.879 T
306.939 47.52 301.033 47.52 301.033 89.1575 T
306.939 85.7923 306.939 47.52 301.033 89.1575 T
312.845 47.52 306.939 47.52 306.939 85.7923 T
312.845 82.6086 312.845 47.52 306.939 85.7923 T
318.751 47.52 312.845 47.52 312.845 82.6086 T
318.751 79.7807 318.751 47.52 312.845 82.6086 T
324.657 47.52 318.751 47.52 318.751 79.7807 T
324.657 77.3001 324.657 47.52 318.751 79.7807 T
330.563 47.52 324.657 47.52 324.657 77.3001 T
330.563 74.8666 330.563 47.52 324.657 77.3001 T
336.469 47.52 330.563 47.52 330.563 74.8666 T
336.469 72.9992 336.469 47.52 330.563 74.8666 T
342.374 47.52 336.469 47.52 336.469 72.9992 T
342.374 70.908 342.374 47.52 336.469 72.9992 T
348.28 47.52 342.374 47.52 342.374 70.908 T
348.28 69.5683 348.28 47.52 342.374 70.908 T
354.186 47.52 348.28 47.52 348.28 69.5683 T
354.186 68.0112 354.186 47.52 348.28 69.5683 T
0 LC
[] 0 setdash
0 0 0 C
354.186 68.0112 LS
348.28 69.5683 L
342.374 70.908 L
336.469 72.9992 L
330.563 74.8666 L
324.657 77.3001 L
318.751 79.7807 L
312.845 82.6086 L
306.939 85.7923 L
301.033 89.1575 L
295.127 95.879 L
289.221 98.6538 L
283.315 102.054 L
277.409 106.3 L
271.503 110.864 L
265.597 112.936 L
259.691 116.376 L
253.786 116.863 L
247.88 119.967 L
241.974 121.933 L
241.974 47.52 L
247.88 47.52 L
253.786 47.52 L
259.691 47.52 L
265.597 47.52 L
271.503 47.52 L
277.409 47.52 L
283.315 47.52 L
289.221 47.52 L
295.127 47.52 L
301.033 47.52 L
306.939 47.52 L
312.845 47.52 L
318.751 47.52 L
324.657 47.52 L
330.563 47.52 L
336.469 47.52 L
342.374 47.52 L
348.28 47.52 L
354.186 47.52 L
354.186 68.0112 LE
1 1 1 C
241.974 47.52 241.974 69.8845 247.88 47.52 T
247.88 68.6158 247.88 47.52 241.974 69.8845 T
253.786 47.52 247.88 47.52 247.88 68.6158 T
253.786 66.8316 253.786 47.52 247.88 68.6158 T
259.691 47.52 253.786 47.52 253.786 66.8316 T
259.691 67.1873 259.691 47.52 253.786 66.8316 T
265.597 47.52 259.691 47.52 259.691 67.1873 T
265.597 65.1929 265.597 47.52 259.691 67.1873 T
271.503 47.52 265.597 47.52 265.597 65.1929 T
271.503 64.5532 271.503 47.52 265.597 65.1929 T
277.409 47.52 271.503 47.52 271.503 64.5532 T
277.409 61.753 277.409 47.52 271.503 64.5532 T
283.315 47.52 277.409 47.52 277.409 61.753 T
283.315 59.141 283.315 47.52 277.409 61.753 T
289.221 47.52 283.315 47.52 283.315 59.141 T
289.221 57.7327 289.221 47.52 283.315 59.141 T
295.127 47.52 289.221 47.52 289.221 57.7327 T
295.127 57.2402 295.127 47.52 289.221 57.7327 T
301.033 47.52 295.127 47.52 295.127 57.2402 T
301.033 52.6779 301.033 47.52 295.127 57.2402 T
306.939 47.52 301.033 47.52 301.033 52.6779 T
306.939 51.6685 306.939 47.52 301.033 52.6779 T
312.845 47.52 306.939 47.52 306.939 51.6685 T
312.845 50.575 312.845 47.52 306.939 51.6685 T
318.751 47.52 312.845 47.52 312.845 50.575 T
318.751 49.9576 318.751 47.52 312.845 50.575 T
324.657 47.52 318.751 47.52 318.751 49.9576 T
324.657 49.2739 324.657 47.52 318.751 49.9576 T
330.563 47.52 324.657 47.52 324.657 49.2739 T
330.563 48.6517 330.563 47.52 324.657 49.2739 T
336.469 47.52 330.563 47.52 330.563 48.6517 T
336.469 48.4543 336.469 47.52 330.563 48.6517 T
342.374 47.52 336.469 47.52 336.469 48.4543 T
342.374 47.8085 342.374 47.52 336.469 48.4543 T
348.28 47.52 342.374 47.52 342.374 47.8085 T
348.28 47.8187 348.28 47.52 342.374 47.8085 T
354.186 47.52 348.28 47.52 348.28 47.8187 T
0 0 0 C
354.186 47.52 LS
348.28 47.8187 L
342.374 47.8085 L
336.469 48.4543 L
330.563 48.6517 L
324.657 49.2739 L
318.751 49.9576 L
312.845 50.575 L
306.939 51.6685 L
301.033 52.6779 L
295.127 57.2402 L
289.221 57.7327 L
283.315 59.141 L
277.409 61.753 L
271.503 64.5532 L
265.597 65.1929 L
259.691 67.1873 L
253.786 66.8316 L
247.88 68.6158 L
241.974 69.8845 L
241.974 47.52 L
247.88 47.52 L
253.786 47.52 L
259.691 47.52 L
265.597 47.52 L
271.503 47.52 L
277.409 47.52 L
283.315 47.52 L
289.221 47.52 L
295.127 47.52 L
301.033 47.52 L
306.939 47.52 L
312.845 47.52 L
318.751 47.52 L
324.657 47.52 L
330.563 47.52 L
336.469 47.52 L
342.374 47.52 L
348.28 47.52 L
354.186 47.52 LE
3 W
1 LJ
241.974 95.8785 LS
247.88 94.9579 L
253.786 93.5577 L
259.691 92.4349 L
265.597 90.426 L
271.503 87.7968 L
277.409 84.8616 L
283.315 81.8438 L
289.221 78.886 L
295.127 76.073 L
301.033 73.4507 L
306.939 71.04 L
312.845 68.8455 L
318.751 66.8619 L
324.657 65.0779 L
330.563 63.4792 L
336.469 62.0502 L
342.374 60.7748 L
348.28 59.6377 L
354.186 58.6241 LE
grestore
gsave
1.0 1.0 scale
newpath 0 0 moveto 576 0 lineto 576 432 lineto 0 432 lineto
closepath clip
1 1 1 C
409.067 121.933 521.28 47.52 409.067 47.52 T
409.067 121.933 521.28 121.933 521.28 47.52 T
0.5 W
0.15 0.15 0.15 C
432.691 47.52 LS
432.691 48.6484 LE
432.691 121.933 LS
432.691 120.805 LE
462.221 47.52 LS
462.221 48.6484 LE
462.221 121.933 LS
462.221 120.805 LE
491.75 47.52 LS
491.75 48.6484 LE
491.75 121.933 LS
491.75 120.805 LE
521.28 47.52 LS
521.28 48.6484 LE
521.28 121.933 LS
521.28 120.805 LE
gsave
0.14902 0.14902 0.14902 C
(5) [10] 0 429.691 31.9781 10 /Helvetica SRX
grestore

gsave
0.14902 0.14902 0.14902 C
(10) [6 10] 0 456.221 31.9781 10 /Helvetica SRX
grestore

gsave
0.14902 0.14902 0.14902 C
(15) [6 10] 0 485.75 31.9781 10 /Helvetica SRX
grestore

gsave
0.14902 0.14902 0.14902 C
(20) [6 10] 0 515.28 31.9781 10 /Helvetica SRX
grestore

409.067 64.0289 LS
410.192 64.0289 LE
521.28 64.0289 LS
520.156 64.0289 LE
409.067 81.1684 LS
410.192 81.1684 LE
521.28 81.1684 LS
520.156 81.1684 LE
409.067 98.3078 LS
410.192 98.3078 LE
521.28 98.3078 LS
520.156 98.3078 LE
409.067 115.447 LS
410.192 115.447 LE
521.28 115.447 LS
520.156 115.447 LE
gsave
0.14902 0.14902 0.14902 C
(0.01) [6 3 6 10] 0 383.058 60.0289 10 /Helvetica SRX
grestore

gsave
0.14902 0.14902 0.14902 C
(0.02) [6 3 6 10] 0 383.058 77.1684 10 /Helvetica SRX
grestore

gsave
0.14902 0.14902 0.14902 C
(0.03) [6 3 6 10] 0 383.058 94.3078 10 /Helvetica SRX
grestore

gsave
0.14902 0.14902 0.14902 C
(0.04) [6 3 6 10] 0 383.058 111.447 10 /Helvetica SRX
grestore

2 LC
[16 0] 0 setdash
409.067 47.52 LS
521.28 47.52 LE
409.067 121.933 LS
521.28 121.933 LE
409.067 47.52 LS
409.067 121.933 LE
521.28 47.52 LS
521.28 121.933 LE
gsave
0 0 0 C
(I_C_hat) [3 6 8 6 7 6 10] 0 445.174 133.933 11 /Helvetica-Bold SRX
grestore

0.9 0.9 0.9 C
409.067 47.52 409.067 121.933 414.973 47.52 T
414.973 121.792 414.973 47.52 409.067 121.933 T
420.879 47.52 414.973 47.52 414.973 121.792 T
420.879 110.934 420.879 47.52 414.973 121.792 T
426.785 47.52 420.879 47.52 420.879 110.934 T
426.785 102.99 426.785 47.52 420.879 110.934 T
432.691 47.52 426.785 47.52 426.785 102.99 T
432.691 95.1633 432.691 47.52 426.785 102.99 T
438.597 47.52 432.691 47.52 432.691 95.1633 T
438.597 89.0928 438.597 47.52 432.691 95.1633 T
444.503 47.52 438.597 47.52 438.597 89.0928 T
444.503 83.284 444.503 47.52 438.597 89.0928 T
450.409 47.52 444.503 47.52 444.503 83.284 T
450.409 78.7809 450.409 47.52 444.503 83.284 T
456.315 47.52 450.409 47.52 450.409 78.7809 T
456.315 74.6798 456.315 47.52 450.409 78.7809 T
462.221 47.52 456.315 47.52 456.315 74.6798 T
462.221 70.5195 462.221 47.52 456.315 74.6798 T
468.127 47.52 462.221 47.52 462.221 70.5195 T
468.127 67.6932 468.127 47.52 462.221 70.5195 T
474.033 47.52 468.127 47.52 468.127 67.6932 T
474.033 64.9042 474.033 47.52 468.127 67.6932 T
479.939 47.52 474.033 47.52 474.033 64.9042 T
479.939 62.6542 479.939 47.52 474.033 64.9042 T
485.844 47.52 479.939 47.52 479.939 62.6542 T
485.844 60.7635 485.844 47.52 479.939 62.6542 T
491.75 47.52 485.844 47.52 485.844 60.7635 T
491.75 58.9219 491.75 47.52 485.844 60.7635 T
497.656 47.52 491.75 47.52 491.75 58.9219 T
497.656 57.2436 497.656 47.52 491.75 58.9219 T
503.562 47.52 497.656 47.52 497.656 57.2436 T
503.562 55.9158 503.562 47.52 497.656 57.2436 T
509.468 47.52 503.562 47.52 503.562 55.9158 T
509.468 54.7496 509.468 47.52 503.562 55.9158 T
515.374 47.52 509.468 47.52 509.468 54.7496 T
515.374 53.8154 515.374 47.52 509.468 54.7496 T
521.28 47.52 515.374 47.52 515.374 53.8154 T
521.28 52.9703 521.28 47.52 515.374 53.8154 T
0 LC
[] 0 setdash
0 0 0 C
521.28 52.9703 LS
515.374 53.8154 L
509.468 54.7496 L
503.562 55.9158 L
497.656 57.2436 L
491.75 58.9219 L
485.844 60.7635 L
479.939 62.6542 L
474.033 64.9042 L
468.127 67.6932 L
462.221 70.5195 L
456.315 74.6798 L
450.409 78.7809 L
444.503 83.284 L
438.597 89.0928 L
432.691 95.1633 L
426.785 102.99 L
420.879 110.934 L
414.973 121.792 L
409.067 121.933 L
409.067 47.52 L
414.973 47.52 L
420.879 47.52 L
426.785 47.52 L
432.691 47.52 L
438.597 47.52 L
444.503 47.52 L
450.409 47.52 L
456.315 47.52 L
462.221 47.52 L
468.127 47.52 L
474.033 47.52 L
479.939 47.52 L
485.844 47.52 L
491.75 47.52 L
497.656 47.52 L
503.562 47.52 L
509.468 47.52 L
515.374 47.52 L
521.28 47.52 L
521.28 52.9703 LE
1 1 1 C
409.067 47.52 409.067 71.4027 414.973 47.52 T
414.973 70.2252 414.973 47.52 409.067 71.4027 T
420.879 47.52 414.973 47.52 414.973 70.2252 T
420.879 62.255 420.879 47.52 414.973 70.2252 T
426.785 47.52 420.879 47.52 420.879 62.255 T
426.785 57.9066 426.785 47.52 420.879 62.255 T
432.691 47.52 426.785 47.52 426.785 57.9066 T
432.691 54.218 432.691 47.52 426.785 57.9066 T
438.597 47.52 432.691 47.52 432.691 54.218 T
438.597 52.3725 438.597 47.52 432.691 54.218 T
444.503 47.52 438.597 47.52 438.597 52.3725 T
444.503 50.9293 444.503 47.52 438.597 52.3725 T
450.409 47.52 444.503 47.52 444.503 50.9293 T
450.409 50.3192 450.409 47.52 444.503 50.9293 T
456.315 47.52 450.409 47.52 450.409 50.3192 T
456.315 49.6617 456.315 47.52 450.409 50.3192 T
462.221 47.52 456.315 47.52 456.315 49.6617 T
462.221 48.7641 462.221 47.52 456.315 49.6617 T
468.127 47.52 462.221 47.52 462.221 48.7641 T
468.127 48.6043 468.127 47.52 462.221 48.7641 T
474.033 47.52 468.127 47.52 468.127 48.6043 T
474.033 48.184 474.033 47.52 468.127 48.6043 T
479.939 47.52 474.033 47.52 474.033 48.184 T
479.939 48.0079 479.939 47.52 474.033 48.184 T
485.844 47.52 479.939 47.52 479.939 48.0079 T
485.844 48.0636 485.844 47.52 479.939 48.0079 T
491.75 47.52 485.844 47.52 485.844 48.0636 T
491.75 47.8551 491.75 47.52 485.844 48.0636 T
497.656 47.52 491.75 47.52 491.75 47.8551 T
497.656 47.6995 497.656 47.52 491.75 47.8551 T
503.562 47.52 497.656 47.52 497.656 47.6995 T
503.562 47.6338 503.562 47.52 497.656 47.6995 T
509.468 47.52 503.562 47.52 503.562 47.6338 T
509.468 47.5818 509.468 47.52 503.562 47.6338 T
515.374 47.52 509.468 47.52 509.468 47.5818 T
515.374 47.5735 515.374 47.52 509.468 47.5818 T
521.28 47.52 515.374 47.52 515.374 47.5735 T
0 0 0 C
521.28 47.52 LS
515.374 47.5735 L
509.468 47.5818 L
503.562 47.6338 L
497.656 47.6995 L
491.75 47.8551 L
485.844 48.0636 L
479.939 48.0079 L
474.033 48.184 L
468.127 48.6043 L
462.221 48.7641 L
456.315 49.6617 L
450.409 50.3192 L
444.503 50.9293 L
438.597 52.3725 L
432.691 54.218 L
426.785 57.9066 L
420.879 62.255 L
414.973 70.2252 L
409.067 71.4027 L
409.067 47.52 L
414.973 47.52 L
420.879 47.52 L
426.785 47.52 L
432.691 47.52 L
438.597 47.52 L
444.503 47.52 L
450.409 47.52 L
456.315 47.52 L
462.221 47.52 L
468.127 47.52 L
474.033 47.52 L
479.939 47.52 L
485.844 47.52 L
491.75 47.52 L
497.656 47.52 L
503.562 47.52 L
509.468 47.52 L
515.374 47.52 L
521.28 47.52 LE
3 W
1 LJ
409.067 96.3016 LS
414.973 97.2407 L
420.879 89.3861 L
426.785 82.9284 L
432.691 77.4292 L
438.597 72.7482 L
444.503 68.7811 L
450.409 65.4323 L
456.315 62.6133 L
462.221 60.245 L
468.127 58.2579 L
474.033 56.5918 L
479.939 55.1954 L
485.844 54.0252 L
491.75 53.0443 L
497.656 52.222 L
503.562 51.5324 L
509.468 50.9538 L
515.374 50.4683 L
521.28 50.0606 LE
grestore
grestore
showpage
cleartomark
%%PageTrailer
%%Trailer
end
%%EOF
