%!PS-Adobe-3.0 EPSF-3.0
%%Title: gl2ps_renderer figure
%%Creator: GL2PS 1.4.2, (C) 1999-2020 C. Geuzaine
%%For: Octave
%%CreationDate: Wed Oct  7 04:42:21 2020
%%LanguageLevel: 3
%%DocumentData: Clean7Bit
%%Pages: 1
%%BoundingBox: 0 0 576 432
%%EndComments
%%BeginProlog
/gl2psdict 64 dict def gl2psdict begin
/tryPS3shading false def % set to false to force subdivision
/rThreshold 0.064 def % red component subdivision threshold
/gThreshold 0.034 def % green component subdivision threshold
/bThreshold 0.1 def % blue component subdivision threshold
/BD { bind def } bind def
/C  { setrgbcolor } BD
/G  { 0.082 mul exch 0.6094 mul add exch 0.3086 mul add neg 1.0 add setgray } BD
/W  { setlinewidth } BD
/LC  { setlinecap } BD
/LJ  { setlinejoin } BD
/FC { findfont exch /SH exch def SH scalefont setfont } BD
/SW { dup stringwidth pop } BD
/S  { FC moveto show } BD
/SBC{ FC moveto SW -2 div 0 rmoveto show } BD
/SBR{ FC moveto SW neg 0 rmoveto show } BD
/SCL{ FC moveto 0 SH -2 div rmoveto show } BD
/SCC{ FC moveto SW -2 div SH -2 div rmoveto show } BD
/SCR{ FC moveto SW neg SH -2 div rmoveto show } BD
/STL{ FC moveto 0 SH neg rmoveto show } BD
/STC{ FC moveto SW -2 div SH neg rmoveto show } BD
/STR{ FC moveto SW neg SH neg rmoveto show } BD
/FCT { FC translate 0 0 } BD
/SR  { gsave FCT moveto rotate show grestore } BD
/SRX  { gsave FCT moveto rotate xshow grestore } BD
/SBCR{ gsave FCT moveto rotate SW -2 div 0 rmoveto show grestore } BD
/SBRR{ gsave FCT moveto rotate SW neg 0 rmoveto show grestore } BD
/SCLR{ gsave FCT moveto rotate 0 SH -2 div rmoveto show grestore} BD
/SCCR{ gsave FCT moveto rotate SW -2 div SH -2 div rmoveto show grestore} BD
/SCRR{ gsave FCT moveto rotate SW neg SH -2 div rmoveto show grestore} BD
/STLR{ gsave FCT moveto rotate 0 SH neg rmoveto show grestore } BD
/STCR{ gsave FCT moveto rotate SW -2 div SH neg rmoveto show grestore } BD
/STRR{ gsave FCT moveto rotate SW neg SH neg rmoveto show grestore } BD
/P  { newpath 0.0 360.0 arc closepath fill } BD
/LS { newpath moveto } BD
/L  { lineto } BD
/LE { lineto stroke } BD
/T  { newpath moveto lineto lineto closepath fill } BD
/STshfill {
      /b1 exch def /g1 exch def /r1 exch def /y1 exch def /x1 exch def
      /b2 exch def /g2 exch def /r2 exch def /y2 exch def /x2 exch def
      /b3 exch def /g3 exch def /r3 exch def /y3 exch def /x3 exch def
      gsave << /ShadingType 4 /ColorSpace [/DeviceRGB]
      /DataSource [ 0 x1 y1 r1 g1 b1 0 x2 y2 r2 g2 b2 0 x3 y3 r3 g3 b3 ] >>
      shfill grestore } BD
/Tm { 3 -1 roll 8 -1 roll 13 -1 roll add add 3 div
      3 -1 roll 7 -1 roll 11 -1 roll add add 3 div
      3 -1 roll 6 -1 roll 9 -1 roll add add 3 div C T } BD
/STsplit {
      4 index 15 index add 0.5 mul
      4 index 15 index add 0.5 mul
      4 index 15 index add 0.5 mul
      4 index 15 index add 0.5 mul
      4 index 15 index add 0.5 mul
      5 copy 5 copy 25 15 roll
      9 index 30 index add 0.5 mul
      9 index 30 index add 0.5 mul
      9 index 30 index add 0.5 mul
      9 index 30 index add 0.5 mul
      9 index 30 index add 0.5 mul
      5 copy 5 copy 35 5 roll 25 5 roll 15 5 roll
      4 index 10 index add 0.5 mul
      4 index 10 index add 0.5 mul
      4 index 10 index add 0.5 mul
      4 index 10 index add 0.5 mul
      4 index 10 index add 0.5 mul
      5 copy 5 copy 40 5 roll 25 5 roll 15 5 roll 25 5 roll
      STnoshfill STnoshfill STnoshfill STnoshfill } BD
/STnoshfill {
      2 index 8 index sub abs rThreshold gt
      { STsplit }
      { 1 index 7 index sub abs gThreshold gt
        { STsplit }
        { dup 6 index sub abs bThreshold gt
          { STsplit }
          { 2 index 13 index sub abs rThreshold gt
            { STsplit }
            { 1 index 12 index sub abs gThreshold gt
              { STsplit }
              { dup 11 index sub abs bThreshold gt
                { STsplit }
                { 7 index 13 index sub abs rThreshold gt
                  { STsplit }
                  { 6 index 12 index sub abs gThreshold gt
                    { STsplit }
                    { 5 index 11 index sub abs bThreshold gt
                      { STsplit }
                      { Tm }
                      ifelse }
                    ifelse }
                  ifelse }
                ifelse }
              ifelse }
            ifelse }
          ifelse }
        ifelse }
      ifelse } BD
tryPS3shading
{ /shfill where
  { /ST { STshfill } BD }
  { /ST { STnoshfill } BD }
  ifelse }
{ /ST { STnoshfill } BD }
ifelse
end
%%EndProlog
%%BeginSetup
/DeviceRGB setcolorspace
gl2psdict begin
%%EndSetup
%%Page: 1 1
%%BeginPageSetup
%%EndPageSetup
mark
gsave
1.0 1.0 scale
1 1 1 C
newpath 0 0 moveto 576 0 lineto 576 432 lineto 0 432 lineto
closepath fill
gsave
1.0 1.0 scale
1 1 1 C
newpath 0 0 moveto 576 0 lineto 576 432 lineto 0 432 lineto
closepath fill
newpath 0 0 moveto 576 0 lineto 576 432 lineto 0 432 lineto
closepath clip
1 1 1 C
77.2594 385.841 187.093 312.427 77.2594 312.427 T
77.2594 385.841 187.093 385.841 187.093 312.427 T
0.5 W
0.15 0.15 0.15 C
99.2173 312.427 LS
99.2173 313.532 LE
99.2173 385.841 LS
99.2173 384.736 LE
121.186 312.427 LS
121.186 313.532 LE
121.186 385.841 LS
121.186 384.736 LE
143.155 312.427 LS
143.155 313.532 LE
143.155 385.841 LS
143.155 384.736 LE
165.124 312.427 LS
165.124 313.532 LE
165.124 385.841 LS
165.124 384.736 LE
187.093 312.427 LS
187.093 313.532 LE
187.093 385.841 LS
187.093 384.736 LE
gsave
0.14902 0.14902 0.14902 C
(2e+06) [6 5 6 6 10] 0 84.7173 296.885 10 /Helvetica SRX
grestore

gsave
0.14902 0.14902 0.14902 C
(4e+06) [6 5 6 6 10] 0 106.686 296.885 10 /Helvetica SRX
grestore

gsave
0.14902 0.14902 0.14902 C
(6e+06) [6 5 6 6 10] 0 128.655 296.885 10 /Helvetica SRX
grestore

gsave
0.14902 0.14902 0.14902 C
(8e+06) [6 5 6 6 10] 0 150.624 296.885 10 /Helvetica SRX
grestore

gsave
0.14902 0.14902 0.14902 C
(1e+07) [6 5 6 6 10] 0 172.593 296.885 10 /Helvetica SRX
grestore

77.2594 312.427 LS
78.3561 312.427 LE
187.093 312.427 LS
185.996 312.427 LE
77.2594 327.11 LS
78.3561 327.11 LE
187.093 327.11 LS
185.996 327.11 LE
77.2594 341.793 LS
78.3561 341.793 LE
187.093 341.793 LS
185.996 341.793 LE
77.2594 356.475 LS
78.3561 356.475 LE
187.093 356.475 LS
185.996 356.475 LE
77.2594 371.158 LS
78.3561 371.158 LE
187.093 371.158 LS
185.996 371.158 LE
77.2594 385.841 LS
78.3561 385.841 LE
187.093 385.841 LS
185.996 385.841 LE
gsave
0.14902 0.14902 0.14902 C
(0.005) [6 3 6 6 10] 0 45.267 308.427 10 /Helvetica SRX
grestore

gsave
0.14902 0.14902 0.14902 C
(0.01) [6 3 6 10] 0 51.267 323.11 10 /Helvetica SRX
grestore

gsave
0.14902 0.14902 0.14902 C
(0.015) [6 3 6 6 10] 0 45.267 337.793 10 /Helvetica SRX
grestore

gsave
0.14902 0.14902 0.14902 C
(0.02) [6 3 6 10] 0 51.267 352.475 10 /Helvetica SRX
grestore

gsave
0.14902 0.14902 0.14902 C
(0.025) [6 3 6 6 10] 0 45.267 367.158 10 /Helvetica SRX
grestore

gsave
0.14902 0.14902 0.14902 C
(0.03) [6 3 6 10] 0 51.267 381.841 10 /Helvetica SRX
grestore

2 LC
[16 0] 0 setdash
77.2594 312.427 LS
187.093 312.427 LE
77.2594 385.841 LS
187.093 385.841 LE
77.2594 312.427 LS
77.2594 385.841 LE
187.093 312.427 LS
187.093 385.841 LE
gsave
0 0 0 C
(SE_eps_AC_news4 \(Interval\)) [7 7 6 6 7 6 6 8 8 6 7 6 9 6 6 3 4 3 7 4 6 4 6 6 3 10] 0 56.676 398.841 11 /Helvetica-Bold SRX
grestore

0 LC
1 LJ
[] 0 setdash
0 0 1 C
77.2594 323.506 LS
78.3577 333.884 L
79.4561 333.173 L
80.5544 336.435 L
81.6527 343.244 L
82.7511 335.97 L
83.8494 339.768 L
84.9477 339.947 L
86.0461 340.413 L
87.1444 353.516 L
88.2427 365.235 L
89.3411 377.475 L
90.4394 376.882 L
91.5377 372.14 L
92.636 365.17 L
93.7344 365.159 L
94.8327 358.943 L
95.9311 349.972 L
97.0294 349.405 L
98.1277 344.146 L
99.226 341.351 L
100.324 338.564 L
101.423 340.743 L
102.521 339.988 L
103.619 339.974 L
104.718 337.618 L
105.816 336.714 L
106.914 338.991 L
108.013 340.484 L
109.111 340.443 L
110.209 340.402 L
111.308 341.642 L
112.406 344.984 L
113.504 346.186 L
114.603 347.589 L
115.701 348.016 L
116.799 353.98 L
117.898 355.989 L
118.996 355.987 L
120.094 353.832 L
121.193 354.162 L
122.291 353.964 L
123.389 354.329 L
124.488 354.209 L
125.586 352.59 L
126.684 348.005 L
127.783 345.647 L
128.881 344.875 L
129.979 345.617 L
131.078 346.536 L
132.176 348.193 L
133.274 348.612 L
134.373 349.497 L
135.471 349.252 L
136.569 349.259 L
137.668 349.953 L
138.766 349.611 L
139.864 349.345 L
140.963 349.455 L
142.061 350.337 L
143.159 350.448 L
144.258 350.533 L
145.356 350.771 L
146.454 350.065 L
147.553 351.128 L
148.651 352.16 L
149.749 353.744 L
150.848 354.928 L
151.946 354.906 L
153.044 353.904 L
154.143 352.706 L
155.241 352.681 L
156.339 352.863 L
157.438 353.712 L
158.536 355.312 L
159.634 355.69 L
160.733 355.272 L
161.831 354.664 L
162.929 354.721 L
164.028 354.561 L
165.126 354.17 L
166.224 352.744 L
167.323 351.068 L
168.421 349.824 L
169.519 348.965 L
170.618 348.294 L
171.716 347.885 L
172.814 349.312 L
173.913 349.966 L
175.011 349.896 L
176.109 349.45 L
177.208 348.927 L
178.306 347.882 L
179.404 348.445 L
180.503 349.394 L
181.601 350.079 L
182.699 350.335 L
183.798 350.856 L
184.896 352.288 L
185.994 353.482 L
187.093 354.403 LE
1 0 0 C
77.2594 319.553 LS
78.3577 333.885 L
79.4561 332.542 L
80.5544 333.214 L
81.6527 335.955 L
82.7511 332.223 L
83.8494 332.402 L
84.9477 330.416 L
86.0461 329.339 L
87.1444 336.159 L
88.2427 333.392 L
89.3411 336.994 L
90.4394 338.305 L
91.5377 336.36 L
92.636 335.357 L
93.7344 334.996 L
94.8327 341.214 L
95.9311 341.31 L
97.0294 347.466 L
98.1277 344.062 L
99.226 341.124 L
100.324 337.751 L
101.423 340.082 L
102.521 338.808 L
103.619 339.636 L
104.718 337.572 L
105.816 336.643 L
106.914 338.298 L
108.013 338.885 L
109.111 338.435 L
110.209 336.351 L
111.308 334.513 L
112.406 336.847 L
113.504 336.886 L
114.603 337.851 L
115.701 337.97 L
116.799 339.499 L
117.898 338.705 L
118.996 338.078 L
120.094 340.473 L
121.193 346.522 L
122.291 350.036 L
123.389 353.513 L
124.488 354.085 L
125.586 352.444 L
126.684 345.904 L
127.783 342.099 L
128.881 341.715 L
129.979 342.75 L
131.078 345.287 L
132.176 347.997 L
133.274 348.314 L
134.373 347.973 L
135.471 345.285 L
136.569 343.44 L
137.668 343.574 L
138.766 342.697 L
139.864 342.276 L
140.963 343.471 L
142.061 346.274 L
143.159 347.424 L
144.258 349.164 L
145.356 350.351 L
146.454 349.935 L
147.553 350.389 L
148.651 350.296 L
149.749 349.354 L
150.848 347.659 L
151.946 345.566 L
153.044 343.35 L
154.143 342.237 L
155.241 341.496 L
156.339 341.001 L
157.438 340.845 L
158.536 341.251 L
159.634 341.155 L
160.733 342.007 L
161.831 344.019 L
162.929 346.389 L
164.028 349.377 L
165.126 350.867 L
166.224 349.766 L
167.323 348.596 L
168.421 348.147 L
169.519 348.394 L
170.618 348.135 L
171.716 347.888 L
172.814 349.327 L
173.913 350.003 L
175.011 349.941 L
176.109 349.484 L
177.208 348.677 L
178.306 347.111 L
179.404 346.573 L
180.503 346.635 L
181.601 346.629 L
182.699 346.547 L
183.798 346.63 L
184.896 347.65 L
185.994 348.077 L
187.093 348.13 LE
grestore
gsave
1.0 1.0 scale
newpath 0 0 moveto 576 0 lineto 576 432 lineto 0 432 lineto
closepath clip
1 1 1 C
244.353 385.841 354.186 312.427 244.353 312.427 T
244.353 385.841 354.186 385.841 354.186 312.427 T
0.5 W
0.15 0.15 0.15 C
266.311 312.427 LS
266.311 313.532 LE
266.311 385.841 LS
266.311 384.736 LE
288.28 312.427 LS
288.28 313.532 LE
288.28 385.841 LS
288.28 384.736 LE
310.249 312.427 LS
310.249 313.532 LE
310.249 385.841 LS
310.249 384.736 LE
332.217 312.427 LS
332.217 313.532 LE
332.217 385.841 LS
332.217 384.736 LE
354.186 312.427 LS
354.186 313.532 LE
354.186 385.841 LS
354.186 384.736 LE
gsave
0.14902 0.14902 0.14902 C
(2e+06) [6 5 6 6 10] 0 251.811 296.885 10 /Helvetica SRX
grestore

gsave
0.14902 0.14902 0.14902 C
(4e+06) [6 5 6 6 10] 0 273.78 296.885 10 /Helvetica SRX
grestore

gsave
0.14902 0.14902 0.14902 C
(6e+06) [6 5 6 6 10] 0 295.749 296.885 10 /Helvetica SRX
grestore

gsave
0.14902 0.14902 0.14902 C
(8e+06) [6 5 6 6 10] 0 317.717 296.885 10 /Helvetica SRX
grestore

gsave
0.14902 0.14902 0.14902 C
(1e+07) [6 5 6 6 10] 0 339.686 296.885 10 /Helvetica SRX
grestore

244.353 312.427 LS
245.45 312.427 LE
354.186 312.427 LS
353.09 312.427 LE
244.353 324.663 LS
245.45 324.663 LE
354.186 324.663 LS
353.09 324.663 LE
244.353 336.898 LS
245.45 336.898 LE
354.186 336.898 LS
353.09 336.898 LE
244.353 349.134 LS
245.45 349.134 LE
354.186 349.134 LS
353.09 349.134 LE
244.353 361.37 LS
245.45 361.37 LE
354.186 361.37 LS
353.09 361.37 LE
244.353 373.605 LS
245.45 373.605 LE
354.186 373.605 LS
353.09 373.605 LE
244.353 385.841 LS
245.45 385.841 LE
354.186 385.841 LS
353.09 385.841 LE
gsave
0.14902 0.14902 0.14902 C
(0) [10] 0 233.361 308.427 10 /Helvetica SRX
grestore

gsave
0.14902 0.14902 0.14902 C
(2e-05) [6 5 3 6 10] 0 213.361 320.663 10 /Helvetica SRX
grestore

gsave
0.14902 0.14902 0.14902 C
(4e-05) [6 5 3 6 10] 0 213.361 332.898 10 /Helvetica SRX
grestore

gsave
0.14902 0.14902 0.14902 C
(6e-05) [6 5 3 6 10] 0 213.361 345.134 10 /Helvetica SRX
grestore

gsave
0.14902 0.14902 0.14902 C
(8e-05) [6 5 3 6 10] 0 213.361 357.37 10 /Helvetica SRX
grestore

gsave
0.14902 0.14902 0.14902 C
(0.0001) [6 3 6 6 6 10] 0 206.361 369.605 10 /Helvetica SRX
grestore

gsave
0.14902 0.14902 0.14902 C
(0.00012) [6 3 6 6 6 6 10] 0 200.361 381.841 10 /Helvetica SRX
grestore

2 LC
[16 0] 0 setdash
244.353 312.427 LS
354.186 312.427 LE
244.353 385.841 LS
354.186 385.841 LE
244.353 312.427 LS
244.353 385.841 LE
354.186 312.427 LS
354.186 385.841 LE
gsave
0 0 0 C
(SE_eps_AC_news4 \(m2\)) [7 7 6 6 7 6 6 8 8 6 7 6 9 6 6 3 4 10 6 10] 0 235.27 398.841 11 /Helvetica-Bold SRX
grestore

0 LC
1 LJ
[] 0 setdash
0 0 1 C
244.353 319.34 LS
245.451 326.082 L
246.55 325.701 L
247.648 328.138 L
248.746 333.898 L
249.845 327.701 L
250.943 331.276 L
252.041 331.208 L
253.14 331.222 L
254.238 344.246 L
255.336 360.357 L
256.435 379.689 L
257.533 378.039 L
258.631 370.553 L
259.73 360.263 L
260.828 360.473 L
261.926 351.881 L
263.025 340.749 L
264.123 340.524 L
265.221 335.466 L
266.32 332.9 L
267.418 330.277 L
268.516 332.045 L
269.615 331.381 L
270.713 331.365 L
271.811 329.364 L
272.91 328.513 L
274.008 330.479 L
275.106 331.768 L
276.205 331.823 L
277.303 331.876 L
278.401 333.319 L
279.5 336.306 L
280.598 337.239 L
281.696 338.457 L
282.795 338.929 L
283.893 344.866 L
284.991 347.031 L
286.09 346.986 L
287.188 344.581 L
288.286 345.159 L
289.385 344.848 L
290.483 345.256 L
291.581 345.18 L
292.68 343.419 L
293.778 338.984 L
294.876 336.898 L
295.975 336.136 L
297.073 336.879 L
298.171 337.734 L
299.27 339.401 L
300.368 339.705 L
301.466 340.752 L
302.565 340.341 L
303.663 340.285 L
304.761 341.087 L
305.86 340.703 L
306.958 340.44 L
308.056 340.477 L
309.155 341.232 L
310.253 341.306 L
311.351 341.514 L
312.45 341.808 L
313.548 341.301 L
314.646 342.51 L
315.745 343.971 L
316.843 345.63 L
317.941 346.719 L
319.04 346.697 L
320.138 345.374 L
321.236 344.111 L
322.335 344.07 L
323.433 344.236 L
324.531 345.21 L
325.63 347.046 L
326.728 347.461 L
327.826 346.976 L
328.925 346.313 L
330.023 346.362 L
331.121 346.226 L
332.22 345.764 L
333.318 344.208 L
334.416 342.418 L
335.515 341.086 L
336.613 340.333 L
337.711 339.671 L
338.81 339.274 L
339.908 340.683 L
341.006 341.424 L
342.105 341.371 L
343.203 341.011 L
344.301 340.473 L
345.4 339.421 L
346.498 339.918 L
347.596 340.789 L
348.695 341.417 L
349.793 341.618 L
350.891 342.1 L
351.99 344.057 L
353.088 345.255 L
354.186 346.452 LE
1 0 0 C
244.353 317.301 LS
245.451 326.048 L
246.55 325.255 L
247.648 325.869 L
248.746 328.356 L
249.845 325.133 L
250.943 325.514 L
252.041 324.224 L
253.14 323.316 L
254.238 328.194 L
255.336 326.074 L
256.435 329.033 L
257.533 329.817 L
258.631 328.413 L
259.73 327.834 L
260.828 327.651 L
261.926 332.956 L
263.025 332.439 L
264.123 338.698 L
265.221 335.396 L
266.32 332.74 L
267.418 329.7 L
268.516 331.53 L
269.615 330.38 L
270.713 331.178 L
271.811 329.361 L
272.91 328.471 L
274.008 329.968 L
275.106 330.526 L
276.205 330.224 L
277.303 328.69 L
278.401 327.424 L
279.5 329.203 L
280.598 329.264 L
281.696 329.919 L
282.795 330.035 L
283.893 331.166 L
284.991 330.509 L
286.09 329.79 L
287.188 332.14 L
288.286 337.946 L
289.385 341.055 L
290.483 344.506 L
291.581 345.104 L
292.68 343.173 L
293.778 337.135 L
294.876 333.829 L
295.975 333.198 L
297.073 334.34 L
298.171 336.81 L
299.27 339.385 L
300.368 339.554 L
301.466 339.322 L
302.565 336.554 L
303.663 334.62 L
304.761 334.994 L
305.86 334.303 L
306.958 333.987 L
308.056 335.018 L
309.155 337.726 L
310.253 338.656 L
311.351 340.408 L
312.45 341.568 L
313.548 341.236 L
314.646 341.909 L
315.745 341.892 L
316.843 341.07 L
317.941 339.31 L
319.04 337.137 L
320.138 334.876 L
321.236 333.717 L
322.335 332.976 L
323.433 332.578 L
324.531 332.46 L
325.63 332.852 L
326.728 332.787 L
327.826 333.573 L
328.925 335.699 L
330.023 338.145 L
331.121 341.024 L
332.22 342.191 L
333.318 341.147 L
334.416 340.013 L
335.515 339.486 L
336.613 339.725 L
337.711 339.477 L
338.81 339.218 L
339.908 340.655 L
341.006 341.424 L
342.105 341.351 L
343.203 340.923 L
344.301 340.111 L
345.4 338.47 L
346.498 337.917 L
347.596 337.976 L
348.695 337.993 L
349.793 337.918 L
350.891 337.999 L
351.99 339.282 L
353.088 339.674 L
354.186 339.796 LE
grestore
gsave
1.0 1.0 scale
newpath 0 0 moveto 576 0 lineto 576 432 lineto 0 432 lineto
closepath clip
1 1 1 C
411.447 385.841 521.28 312.427 411.447 312.427 T
411.447 385.841 521.28 385.841 521.28 312.427 T
0.5 W
0.15 0.15 0.15 C
433.405 312.427 LS
433.405 313.532 LE
433.405 385.841 LS
433.405 384.736 LE
455.374 312.427 LS
455.374 313.532 LE
455.374 385.841 LS
455.374 384.736 LE
477.342 312.427 LS
477.342 313.532 LE
477.342 385.841 LS
477.342 384.736 LE
499.311 312.427 LS
499.311 313.532 LE
499.311 385.841 LS
499.311 384.736 LE
521.28 312.427 LS
521.28 313.532 LE
521.28 385.841 LS
521.28 384.736 LE
gsave
0.14902 0.14902 0.14902 C
(2e+06) [6 5 6 6 10] 0 418.905 296.885 10 /Helvetica SRX
grestore

gsave
0.14902 0.14902 0.14902 C
(4e+06) [6 5 6 6 10] 0 440.874 296.885 10 /Helvetica SRX
grestore

gsave
0.14902 0.14902 0.14902 C
(6e+06) [6 5 6 6 10] 0 462.842 296.885 10 /Helvetica SRX
grestore

gsave
0.14902 0.14902 0.14902 C
(8e+06) [6 5 6 6 10] 0 484.811 296.885 10 /Helvetica SRX
grestore

gsave
0.14902 0.14902 0.14902 C
(1e+07) [6 5 6 6 10] 0 506.78 296.885 10 /Helvetica SRX
grestore

411.447 312.427 LS
412.544 312.427 LE
521.28 312.427 LS
520.183 312.427 LE
411.447 330.781 LS
412.544 330.781 LE
521.28 330.781 LS
520.183 330.781 LE
411.447 349.134 LS
412.544 349.134 LE
521.28 349.134 LS
520.183 349.134 LE
411.447 367.487 LS
412.544 367.487 LE
521.28 367.487 LS
520.183 367.487 LE
411.447 385.841 LS
412.544 385.841 LE
521.28 385.841 LS
520.183 385.841 LE
gsave
0.14902 0.14902 0.14902 C
(0) [10] 0 400.454 308.427 10 /Helvetica SRX
grestore

gsave
0.14902 0.14902 0.14902 C
(5e-07) [6 5 3 6 10] 0 380.454 326.781 10 /Helvetica SRX
grestore

gsave
0.14902 0.14902 0.14902 C
(1e-06) [6 5 3 6 10] 0 380.454 345.134 10 /Helvetica SRX
grestore

gsave
0.14902 0.14902 0.14902 C
(1.5e-06) [6 3 6 5 3 6 10] 0 371.454 363.487 10 /Helvetica SRX
grestore

gsave
0.14902 0.14902 0.14902 C
(2e-06) [6 5 3 6 10] 0 380.454 381.841 10 /Helvetica SRX
grestore

2 LC
[16 0] 0 setdash
411.447 312.427 LS
521.28 312.427 LE
411.447 385.841 LS
521.28 385.841 LE
411.447 312.427 LS
411.447 385.841 LE
521.28 312.427 LS
521.28 385.841 LE
gsave
0 0 0 C
(SE_eps_AC_news4 \(m3\)) [7 7 6 6 7 6 6 8 8 6 7 6 9 6 6 3 4 10 6 10] 0 402.363 398.841 11 /Helvetica-Bold SRX
grestore

0 LC
1 LJ
[] 0 setdash
0 0 1 C
411.447 314.43 LS
412.545 318.44 L
413.644 318.315 L
414.742 319.953 L
415.84 324.348 L
416.939 319.481 L
418.037 322.353 L
419.135 322.05 L
420.234 321.895 L
421.332 332.646 L
422.43 346.463 L
423.529 367.768 L
424.627 365.733 L
425.725 357.6 L
426.823 347.336 L
427.922 347.424 L
429.02 340.192 L
430.118 329.8 L
431.217 330.023 L
432.315 325.778 L
433.413 323.737 L
434.512 321.61 L
435.61 322.929 L
436.708 322.393 L
437.807 322.42 L
438.905 320.832 L
440.003 320.177 L
441.102 321.653 L
442.2 322.586 L
443.298 322.714 L
444.397 322.813 L
445.495 324.148 L
446.593 326.546 L
447.692 327.123 L
448.79 328.009 L
449.888 328.503 L
450.987 333.489 L
452.085 335.208 L
453.183 335.314 L
454.282 333.208 L
455.38 333.701 L
456.478 333.503 L
457.577 333.84 L
458.675 333.667 L
459.773 332.273 L
460.872 328.598 L
461.97 327.039 L
463.068 326.322 L
464.167 326.932 L
465.265 327.649 L
466.363 329.238 L
467.462 329.339 L
468.56 330.411 L
469.658 329.922 L
470.757 329.775 L
471.855 330.503 L
472.953 330.232 L
474.052 329.963 L
475.15 329.891 L
476.248 330.526 L
477.347 330.593 L
478.445 330.949 L
479.543 331.172 L
480.642 330.861 L
481.74 332.133 L
482.838 333.883 L
483.937 335.592 L
485.035 336.376 L
486.133 336.191 L
487.232 334.741 L
488.33 333.619 L
489.428 333.476 L
490.527 333.55 L
491.625 334.337 L
492.723 336.21 L
493.822 336.634 L
494.92 336.271 L
496.018 335.797 L
497.117 335.748 L
498.215 335.641 L
499.313 335.106 L
500.412 333.628 L
501.51 331.984 L
502.608 330.771 L
503.707 330.172 L
504.805 329.641 L
505.903 329.304 L
507.002 330.592 L
508.1 331.378 L
509.198 331.406 L
510.297 331.129 L
511.395 330.622 L
512.493 329.649 L
513.592 330.006 L
514.69 330.699 L
515.788 331.17 L
516.887 331.231 L
517.985 331.609 L
519.083 333.899 L
520.182 335.005 L
521.28 336.182 LE
1 0 0 C
411.447 313.677 LS
412.545 318.414 L
413.644 318.037 L
414.742 318.406 L
415.84 320.321 L
416.939 317.911 L
418.037 318.312 L
419.135 317.507 L
420.234 316.917 L
421.332 319.974 L
422.43 318.609 L
423.529 320.796 L
424.627 321.214 L
425.725 320.257 L
426.823 320.006 L
427.922 319.914 L
429.02 324.155 L
430.118 323.102 L
431.217 328.585 L
432.315 325.713 L
433.413 323.659 L
434.512 321.227 L
435.61 322.584 L
436.708 321.652 L
437.807 322.259 L
438.905 320.834 L
440.003 320.135 L
441.102 321.244 L
442.2 321.718 L
443.298 321.615 L
444.397 320.708 L
445.495 319.769 L
446.593 321.036 L
447.692 321.04 L
448.79 321.481 L
449.888 321.566 L
450.987 322.32 L
452.085 321.829 L
453.183 321.195 L
454.282 323.083 L
455.38 328.28 L
456.478 330.543 L
457.577 333.196 L
458.675 333.548 L
459.773 332.281 L
460.872 327.471 L
461.97 324.908 L
463.068 324.122 L
464.167 325.115 L
465.265 327.021 L
466.363 329.255 L
467.462 329.171 L
468.56 329.113 L
469.658 326.708 L
470.757 325.081 L
471.855 325.624 L
472.953 325.121 L
474.052 324.88 L
475.15 325.661 L
476.248 327.901 L
477.347 328.631 L
478.445 330.203 L
479.543 331.03 L
480.642 330.773 L
481.74 331.498 L
482.838 331.708 L
483.937 331.109 L
485.035 329.539 L
486.133 327.522 L
487.232 325.506 L
488.33 324.453 L
489.428 323.801 L
490.527 323.509 L
491.625 323.457 L
492.723 323.745 L
493.822 323.719 L
494.92 324.365 L
496.018 326.375 L
497.117 328.578 L
498.215 331.211 L
499.313 332.118 L
500.412 331.174 L
501.51 330.14 L
502.608 329.605 L
503.707 329.762 L
504.805 329.535 L
505.903 329.289 L
507.002 330.595 L
508.1 331.375 L
509.198 331.36 L
510.297 330.988 L
511.395 330.196 L
512.493 328.654 L
513.592 328.076 L
514.69 328.111 L
515.788 328.121 L
516.887 328.028 L
517.985 328.086 L
519.083 329.483 L
520.182 329.803 L
521.28 329.972 LE
grestore
gsave
1.0 1.0 scale
newpath 0 0 moveto 576 0 lineto 576 432 lineto 0 432 lineto
closepath clip
1 1 1 C
77.2594 253.387 187.093 179.974 77.2594 179.974 T
77.2594 253.387 187.093 253.387 187.093 179.974 T
0.5 W
0.15 0.15 0.15 C
99.2173 179.974 LS
99.2173 181.078 LE
99.2173 253.387 LS
99.2173 252.282 LE
121.186 179.974 LS
121.186 181.078 LE
121.186 253.387 LS
121.186 252.282 LE
143.155 179.974 LS
143.155 181.078 LE
143.155 253.387 LS
143.155 252.282 LE
165.124 179.974 LS
165.124 181.078 LE
165.124 253.387 LS
165.124 252.282 LE
187.093 179.974 LS
187.093 181.078 LE
187.093 253.387 LS
187.093 252.282 LE
gsave
0.14902 0.14902 0.14902 C
(2e+06) [6 5 6 6 10] 0 84.7173 164.431 10 /Helvetica SRX
grestore

gsave
0.14902 0.14902 0.14902 C
(4e+06) [6 5 6 6 10] 0 106.686 164.431 10 /Helvetica SRX
grestore

gsave
0.14902 0.14902 0.14902 C
(6e+06) [6 5 6 6 10] 0 128.655 164.431 10 /Helvetica SRX
grestore

gsave
0.14902 0.14902 0.14902 C
(8e+06) [6 5 6 6 10] 0 150.624 164.431 10 /Helvetica SRX
grestore

gsave
0.14902 0.14902 0.14902 C
(1e+07) [6 5 6 6 10] 0 172.593 164.431 10 /Helvetica SRX
grestore

77.2594 179.974 LS
78.3561 179.974 LE
187.093 179.974 LS
185.996 179.974 LE
77.2594 194.656 LS
78.3561 194.656 LE
187.093 194.656 LS
185.996 194.656 LE
77.2594 209.339 LS
78.3561 209.339 LE
187.093 209.339 LS
185.996 209.339 LE
77.2594 224.022 LS
78.3561 224.022 LE
187.093 224.022 LS
185.996 224.022 LE
77.2594 238.704 LS
78.3561 238.704 LE
187.093 238.704 LS
185.996 238.704 LE
77.2594 253.387 LS
78.3561 253.387 LE
187.093 253.387 LS
185.996 253.387 LE
gsave
0.14902 0.14902 0.14902 C
(0.012) [6 3 6 6 10] 0 45.267 175.974 10 /Helvetica SRX
grestore

gsave
0.14902 0.14902 0.14902 C
(0.014) [6 3 6 6 10] 0 45.267 190.656 10 /Helvetica SRX
grestore

gsave
0.14902 0.14902 0.14902 C
(0.016) [6 3 6 6 10] 0 45.267 205.339 10 /Helvetica SRX
grestore

gsave
0.14902 0.14902 0.14902 C
(0.018) [6 3 6 6 10] 0 45.267 220.022 10 /Helvetica SRX
grestore

gsave
0.14902 0.14902 0.14902 C
(0.02) [6 3 6 10] 0 51.267 234.704 10 /Helvetica SRX
grestore

gsave
0.14902 0.14902 0.14902 C
(0.022) [6 3 6 6 10] 0 45.267 249.387 10 /Helvetica SRX
grestore

2 LC
[16 0] 0 setdash
77.2594 179.974 LS
187.093 179.974 LE
77.2594 253.387 LS
187.093 253.387 LE
77.2594 179.974 LS
77.2594 253.387 LE
187.093 179.974 LS
187.093 253.387 LE
gsave
0 0 0 C
(SE_eps_C_news0 \(Interval\)) [7 7 6 6 7 6 6 8 6 7 6 9 6 6 3 4 3 7 4 6 4 6 6 3 10] 0 60.676 266.387 11 /Helvetica-Bold SRX
grestore

0 LC
1 LJ
[] 0 setdash
0 0 1 C
77.2594 248.584 LS
78.3577 223.982 L
79.4561 232.269 L
80.5544 230.753 L
81.6527 219.65 L
82.7511 204.462 L
83.8494 211.019 L
84.9477 212.803 L
86.0461 212.411 L
87.1444 210.248 L
88.2427 212.364 L
89.3411 211.344 L
90.4394 209.654 L
91.5377 210.276 L
92.636 211.776 L
93.7344 210.819 L
94.8327 207.661 L
95.9311 208.611 L
97.0294 208.559 L
98.1277 209.123 L
99.226 208.774 L
100.324 208.456 L
101.423 208.119 L
102.521 207.019 L
103.619 208.041 L
104.718 207.421 L
105.816 208.159 L
106.914 208.626 L
108.013 209.959 L
109.111 211.219 L
110.209 210.129 L
111.308 210.471 L
112.406 209.799 L
113.504 209.908 L
114.603 209.465 L
115.701 209.393 L
116.799 209.68 L
117.898 210.175 L
118.996 209.508 L
120.094 210.067 L
121.193 210.091 L
122.291 210.842 L
123.389 210.966 L
124.488 211.783 L
125.586 211.592 L
126.684 210.702 L
127.783 210.49 L
128.881 210.636 L
129.979 210.219 L
131.078 211.07 L
132.176 211.867 L
133.274 211.613 L
134.373 211.245 L
135.471 210.823 L
136.569 210.138 L
137.668 211.785 L
138.766 213.027 L
139.864 213.501 L
140.963 213.4 L
142.061 213.3 L
143.159 213.285 L
144.258 213.132 L
145.356 212.304 L
146.454 212.407 L
147.553 212.22 L
148.651 212.063 L
149.749 212.546 L
150.848 212.618 L
151.946 212.028 L
153.044 210.157 L
154.143 209.079 L
155.241 208.568 L
156.339 207.752 L
157.438 208.718 L
158.536 209.527 L
159.634 209.332 L
160.733 209.101 L
161.831 208.929 L
162.929 208.581 L
164.028 208.508 L
165.126 208.674 L
166.224 209.032 L
167.323 209.409 L
168.421 209.523 L
169.519 210.5 L
170.618 210.392 L
171.716 210.143 L
172.814 209.944 L
173.913 209.807 L
175.011 209.699 L
176.109 209.78 L
177.208 209.11 L
178.306 208.354 L
179.404 208.524 L
180.503 208.546 L
181.601 208.542 L
182.699 208.574 L
183.798 208.991 L
184.896 209.214 L
185.994 209.49 L
187.093 209.357 LE
1 0 0 C
77.2594 188.428 LS
78.3577 221.917 L
79.4561 220.731 L
80.5544 221.666 L
81.6527 215.172 L
82.7511 204.035 L
83.8494 209.12 L
84.9477 208.548 L
86.0461 209.234 L
87.1444 208.978 L
88.2427 212.46 L
89.3411 211.537 L
90.4394 209.073 L
91.5377 209.322 L
92.636 210.974 L
93.7344 210.202 L
94.8327 206.912 L
95.9311 207.746 L
97.0294 207.351 L
98.1277 207.686 L
99.226 207.552 L
100.324 207.976 L
101.423 207.877 L
102.521 206.836 L
103.619 207.561 L
104.718 207.083 L
105.816 208.01 L
106.914 208.624 L
108.013 209.327 L
109.111 210.572 L
110.209 209.847 L
111.308 210.334 L
112.406 209.606 L
113.504 209.823 L
114.603 209.434 L
115.701 209.194 L
116.799 209.149 L
117.898 209.557 L
118.996 209.046 L
120.094 209.634 L
121.193 209.562 L
122.291 210.271 L
123.389 210.501 L
124.488 211.18 L
125.586 211.008 L
126.684 210.092 L
127.783 209.773 L
128.881 210.072 L
129.979 210.022 L
131.078 211.057 L
132.176 211.909 L
133.274 211.586 L
134.373 211.127 L
135.471 210.614 L
136.569 209.87 L
137.668 211.359 L
138.766 212.486 L
139.864 212.85 L
140.963 212.831 L
142.061 212.725 L
143.159 212.65 L
144.258 212.576 L
145.356 211.81 L
146.454 211.948 L
147.553 211.953 L
148.651 212.001 L
149.749 212.549 L
150.848 212.625 L
151.946 212.044 L
153.044 210.127 L
154.143 209.028 L
155.241 208.515 L
156.339 207.687 L
157.438 208.734 L
158.536 209.509 L
159.634 209.288 L
160.733 209.015 L
161.831 208.836 L
162.929 208.55 L
164.028 208.498 L
165.126 208.625 L
166.224 208.893 L
167.323 209.271 L
168.421 209.216 L
169.519 210.155 L
170.618 209.869 L
171.716 209.501 L
172.814 209.399 L
173.913 209.361 L
175.011 209.281 L
176.109 209.38 L
177.208 208.854 L
178.306 208.282 L
179.404 208.501 L
180.503 208.547 L
181.601 208.448 L
182.699 208.389 L
183.798 208.768 L
184.896 208.987 L
185.994 209.367 L
187.093 209.201 LE
grestore
gsave
1.0 1.0 scale
newpath 0 0 moveto 576 0 lineto 576 432 lineto 0 432 lineto
closepath clip
1 1 1 C
244.353 253.387 354.186 179.974 244.353 179.974 T
244.353 253.387 354.186 253.387 354.186 179.974 T
0.5 W
0.15 0.15 0.15 C
266.311 179.974 LS
266.311 181.078 LE
266.311 253.387 LS
266.311 252.282 LE
288.28 179.974 LS
288.28 181.078 LE
288.28 253.387 LS
288.28 252.282 LE
310.249 179.974 LS
310.249 181.078 LE
310.249 253.387 LS
310.249 252.282 LE
332.217 179.974 LS
332.217 181.078 LE
332.217 253.387 LS
332.217 252.282 LE
354.186 179.974 LS
354.186 181.078 LE
354.186 253.387 LS
354.186 252.282 LE
gsave
0.14902 0.14902 0.14902 C
(2e+06) [6 5 6 6 10] 0 251.811 164.431 10 /Helvetica SRX
grestore

gsave
0.14902 0.14902 0.14902 C
(4e+06) [6 5 6 6 10] 0 273.78 164.431 10 /Helvetica SRX
grestore

gsave
0.14902 0.14902 0.14902 C
(6e+06) [6 5 6 6 10] 0 295.749 164.431 10 /Helvetica SRX
grestore

gsave
0.14902 0.14902 0.14902 C
(8e+06) [6 5 6 6 10] 0 317.717 164.431 10 /Helvetica SRX
grestore

gsave
0.14902 0.14902 0.14902 C
(1e+07) [6 5 6 6 10] 0 339.686 164.431 10 /Helvetica SRX
grestore

244.353 179.974 LS
245.45 179.974 LE
354.186 179.974 LS
353.09 179.974 LE
244.353 190.461 LS
245.45 190.461 LE
354.186 190.461 LS
353.09 190.461 LE
244.353 200.949 LS
245.45 200.949 LE
354.186 200.949 LS
353.09 200.949 LE
244.353 211.436 LS
245.45 211.436 LE
354.186 211.436 LS
353.09 211.436 LE
244.353 221.924 LS
245.45 221.924 LE
354.186 221.924 LS
353.09 221.924 LE
244.353 232.412 LS
245.45 232.412 LE
354.186 232.412 LS
353.09 232.412 LE
244.353 242.899 LS
245.45 242.899 LE
354.186 242.899 LS
353.09 242.899 LE
244.353 253.387 LS
245.45 253.387 LE
354.186 253.387 LS
353.09 253.387 LE
gsave
0.14902 0.14902 0.14902 C
(2.5e-05) [6 3 6 5 3 6 10] 0 204.361 175.974 10 /Helvetica SRX
grestore

gsave
0.14902 0.14902 0.14902 C
(3e-05) [6 5 3 6 10] 0 213.361 186.461 10 /Helvetica SRX
grestore

gsave
0.14902 0.14902 0.14902 C
(3.5e-05) [6 3 6 5 3 6 10] 0 204.361 196.949 10 /Helvetica SRX
grestore

gsave
0.14902 0.14902 0.14902 C
(4e-05) [6 5 3 6 10] 0 213.361 207.436 10 /Helvetica SRX
grestore

gsave
0.14902 0.14902 0.14902 C
(4.5e-05) [6 3 6 5 3 6 10] 0 204.361 217.924 10 /Helvetica SRX
grestore

gsave
0.14902 0.14902 0.14902 C
(5e-05) [6 5 3 6 10] 0 213.361 228.412 10 /Helvetica SRX
grestore

gsave
0.14902 0.14902 0.14902 C
(5.5e-05) [6 3 6 5 3 6 10] 0 204.361 238.899 10 /Helvetica SRX
grestore

gsave
0.14902 0.14902 0.14902 C
(6e-05) [6 5 3 6 10] 0 213.361 249.387 10 /Helvetica SRX
grestore

2 LC
[16 0] 0 setdash
244.353 179.974 LS
354.186 179.974 LE
244.353 253.387 LS
354.186 253.387 LE
244.353 179.974 LS
244.353 253.387 LE
354.186 179.974 LS
354.186 253.387 LE
gsave
0 0 0 C
(SE_eps_C_news0 \(m2\)) [7 7 6 6 7 6 6 8 6 7 6 9 6 6 3 4 10 6 10] 0 239.27 266.387 11 /Helvetica-Bold SRX
grestore

0 LC
1 LJ
[] 0 setdash
0 0 1 C
244.353 249.303 LS
245.451 233.492 L
246.55 241.809 L
247.648 242.86 L
248.746 226.163 L
249.845 204.147 L
250.943 213.652 L
252.041 215.337 L
253.14 214.266 L
254.238 211.541 L
255.336 214.255 L
256.435 213.721 L
257.533 211.861 L
258.631 212.081 L
259.73 213.243 L
260.828 211.503 L
261.926 207.15 L
263.025 208.382 L
264.123 207.961 L
265.221 209.139 L
266.32 208.376 L
267.418 208.39 L
268.516 208.366 L
269.615 206.894 L
270.713 208.561 L
271.811 208.509 L
272.91 209.373 L
274.008 209.592 L
275.106 211.249 L
276.205 213.256 L
277.303 211.513 L
278.401 211.907 L
279.5 210.82 L
280.598 211.077 L
281.696 210.57 L
282.795 210.524 L
283.893 210.746 L
284.991 211.731 L
286.09 210.675 L
287.188 211.085 L
288.286 211.317 L
289.385 212.648 L
290.483 212.745 L
291.581 213.91 L
292.68 213.778 L
293.778 212.628 L
294.876 212.082 L
295.975 212.553 L
297.073 211.844 L
298.171 212.992 L
299.27 214.086 L
300.368 213.257 L
301.466 212.877 L
302.565 212.227 L
303.663 211.308 L
304.761 213.344 L
305.86 215.136 L
306.958 215.852 L
308.056 215.739 L
309.155 215.623 L
310.253 215.699 L
311.351 215.661 L
312.45 214.551 L
313.548 214.907 L
314.646 214.76 L
315.745 214.359 L
316.843 215.203 L
317.941 215.171 L
319.04 214.493 L
320.138 211.755 L
321.236 210.354 L
322.335 209.574 L
323.433 208.366 L
324.531 209.81 L
325.63 210.918 L
326.728 210.712 L
327.826 210.368 L
328.925 210.218 L
330.023 209.78 L
331.121 209.608 L
332.22 209.687 L
333.318 210.114 L
334.416 210.611 L
335.515 210.601 L
336.613 211.916 L
337.711 211.78 L
338.81 211.424 L
339.908 211.155 L
341.006 210.993 L
342.105 210.735 L
343.203 210.91 L
344.301 210.213 L
345.4 209.177 L
346.498 209.276 L
347.596 209.355 L
348.695 209.219 L
349.793 209.148 L
350.891 209.667 L
351.99 209.995 L
353.088 210.383 L
354.186 210.202 LE
1 0 0 C
244.353 182.077 LS
245.451 232.276 L
246.55 226.256 L
247.648 228.131 L
248.746 218.927 L
249.845 203.756 L
250.943 210.78 L
252.041 209.59 L
253.14 209.308 L
254.238 209.764 L
255.336 214.203 L
256.435 213.621 L
257.533 211.181 L
258.631 210.424 L
259.73 212.085 L
260.828 210.754 L
261.926 205.951 L
263.025 207.04 L
264.123 206.292 L
265.221 207.134 L
266.32 207.191 L
267.418 207.913 L
268.516 208.15 L
269.615 206.772 L
270.713 208.157 L
271.811 208.243 L
272.91 209.213 L
274.008 209.566 L
275.106 210.719 L
276.205 212.362 L
277.303 211.186 L
278.401 211.816 L
279.5 210.707 L
280.598 211 L
281.696 210.565 L
282.795 210.311 L
283.893 209.999 L
284.991 211.069 L
286.09 209.99 L
287.188 210.551 L
288.286 210.641 L
289.385 211.912 L
290.483 212.272 L
291.581 213.272 L
292.68 213.181 L
293.778 211.868 L
294.876 211.079 L
295.975 211.681 L
297.073 211.47 L
298.171 212.894 L
299.27 214.086 L
300.368 213.23 L
301.466 212.797 L
302.565 212.04 L
303.663 210.992 L
304.761 212.785 L
305.86 214.451 L
306.958 214.908 L
308.056 214.92 L
309.155 214.731 L
310.253 214.815 L
311.351 214.915 L
312.45 213.929 L
313.548 214.272 L
314.646 214.331 L
315.745 214.176 L
316.843 215.181 L
317.941 215.171 L
319.04 214.481 L
320.138 211.686 L
321.236 210.318 L
322.335 209.542 L
323.433 208.342 L
324.531 209.794 L
325.63 210.863 L
326.728 210.624 L
327.826 210.186 L
328.925 210.06 L
330.023 209.61 L
331.121 209.475 L
332.22 209.533 L
333.318 209.927 L
334.416 210.447 L
335.515 210.33 L
336.613 211.609 L
337.711 211.233 L
338.81 210.749 L
339.908 210.542 L
341.006 210.494 L
342.105 210.312 L
343.203 210.448 L
344.301 209.867 L
345.4 209.063 L
346.498 209.254 L
347.596 209.353 L
348.695 209.175 L
349.793 209.068 L
350.891 209.508 L
351.99 209.828 L
353.088 210.288 L
354.186 210.113 LE
grestore
gsave
1.0 1.0 scale
newpath 0 0 moveto 576 0 lineto 576 432 lineto 0 432 lineto
closepath clip
1 1 1 C
411.447 253.387 521.28 179.974 411.447 179.974 T
411.447 253.387 521.28 253.387 521.28 179.974 T
0.5 W
0.15 0.15 0.15 C
433.405 179.974 LS
433.405 181.078 LE
433.405 253.387 LS
433.405 252.282 LE
455.374 179.974 LS
455.374 181.078 LE
455.374 253.387 LS
455.374 252.282 LE
477.342 179.974 LS
477.342 181.078 LE
477.342 253.387 LS
477.342 252.282 LE
499.311 179.974 LS
499.311 181.078 LE
499.311 253.387 LS
499.311 252.282 LE
521.28 179.974 LS
521.28 181.078 LE
521.28 253.387 LS
521.28 252.282 LE
gsave
0.14902 0.14902 0.14902 C
(2e+06) [6 5 6 6 10] 0 418.905 164.431 10 /Helvetica SRX
grestore

gsave
0.14902 0.14902 0.14902 C
(4e+06) [6 5 6 6 10] 0 440.874 164.431 10 /Helvetica SRX
grestore

gsave
0.14902 0.14902 0.14902 C
(6e+06) [6 5 6 6 10] 0 462.842 164.431 10 /Helvetica SRX
grestore

gsave
0.14902 0.14902 0.14902 C
(8e+06) [6 5 6 6 10] 0 484.811 164.431 10 /Helvetica SRX
grestore

gsave
0.14902 0.14902 0.14902 C
(1e+07) [6 5 6 6 10] 0 506.78 164.431 10 /Helvetica SRX
grestore

411.447 179.974 LS
412.544 179.974 LE
521.28 179.974 LS
520.183 179.974 LE
411.447 194.656 LS
412.544 194.656 LE
521.28 194.656 LS
520.183 194.656 LE
411.447 209.339 LS
412.544 209.339 LE
521.28 209.339 LS
520.183 209.339 LE
411.447 224.022 LS
412.544 224.022 LE
521.28 224.022 LS
520.183 224.022 LE
411.447 238.704 LS
412.544 238.704 LE
521.28 238.704 LS
520.183 238.704 LE
411.447 253.387 LS
412.544 253.387 LE
521.28 253.387 LS
520.183 253.387 LE
gsave
0.14902 0.14902 0.14902 C
(2e-07) [6 5 3 6 10] 0 380.454 175.974 10 /Helvetica SRX
grestore

gsave
0.14902 0.14902 0.14902 C
(3e-07) [6 5 3 6 10] 0 380.454 190.656 10 /Helvetica SRX
grestore

gsave
0.14902 0.14902 0.14902 C
(4e-07) [6 5 3 6 10] 0 380.454 205.339 10 /Helvetica SRX
grestore

gsave
0.14902 0.14902 0.14902 C
(5e-07) [6 5 3 6 10] 0 380.454 220.022 10 /Helvetica SRX
grestore

gsave
0.14902 0.14902 0.14902 C
(6e-07) [6 5 3 6 10] 0 380.454 234.704 10 /Helvetica SRX
grestore

gsave
0.14902 0.14902 0.14902 C
(7e-07) [6 5 3 6 10] 0 380.454 249.387 10 /Helvetica SRX
grestore

2 LC
[16 0] 0 setdash
411.447 179.974 LS
521.28 179.974 LE
411.447 253.387 LS
521.28 253.387 LE
411.447 179.974 LS
411.447 253.387 LE
521.28 179.974 LS
521.28 253.387 LE
gsave
0 0 0 C
(SE_eps_C_news0 \(m3\)) [7 7 6 6 7 6 6 8 6 7 6 9 6 6 3 4 10 6 10] 0 406.363 266.387 11 /Helvetica-Bold SRX
grestore

0 LC
1 LJ
[] 0 setdash
0 0 1 C
411.447 246.22 LS
412.545 236.02 L
413.644 244.353 L
414.742 246.207 L
415.84 228.355 L
416.939 203.301 L
418.037 214.114 L
419.135 215.561 L
420.234 213.693 L
421.332 211.083 L
422.43 213.622 L
423.529 213.469 L
424.627 211.571 L
425.725 211.311 L
426.823 212.295 L
427.922 210.161 L
429.02 205.766 L
430.118 206.873 L
431.217 206.377 L
432.315 208.019 L
433.413 207.093 L
434.512 207.309 L
435.61 207.637 L
436.708 205.896 L
437.807 207.682 L
438.905 208.085 L
440.003 208.899 L
441.102 208.692 L
442.2 210.351 L
443.298 212.621 L
444.397 210.73 L
445.495 211.099 L
446.593 209.874 L
447.692 210.258 L
448.79 209.839 L
449.888 209.807 L
450.987 209.96 L
452.085 211.242 L
453.183 209.977 L
454.282 210.284 L
455.38 210.652 L
456.478 212.258 L
457.577 212.316 L
458.675 213.68 L
459.773 213.659 L
460.872 212.354 L
461.97 211.61 L
463.068 212.08 L
464.167 211.332 L
465.265 212.529 L
466.363 213.624 L
467.462 212.513 L
468.56 212.197 L
469.658 211.484 L
470.757 210.498 L
471.855 212.531 L
472.953 214.57 L
474.052 215.306 L
475.15 215.166 L
476.248 215.072 L
477.347 215.157 L
478.445 215.213 L
479.543 214.085 L
480.642 214.584 L
481.74 214.433 L
482.838 213.992 L
483.937 214.994 L
485.035 214.94 L
486.133 214.371 L
487.232 211.39 L
488.33 210.013 L
489.428 209.132 L
490.527 207.841 L
491.625 209.383 L
492.723 210.595 L
493.822 210.445 L
494.92 210.007 L
496.018 209.932 L
497.117 209.417 L
498.215 209.195 L
499.313 209.218 L
500.412 209.564 L
501.51 210.016 L
502.608 209.88 L
503.707 211.215 L
504.805 211.093 L
505.903 210.69 L
507.002 210.301 L
508.1 210.156 L
509.198 209.85 L
510.297 210.043 L
511.395 209.38 L
512.493 208.264 L
513.592 208.294 L
514.69 208.482 L
515.788 208.31 L
516.887 208.204 L
517.985 208.711 L
519.083 209.063 L
520.182 209.474 L
521.28 209.309 LE
1 0 0 C
411.447 180.387 LS
412.545 235.69 L
413.644 227.567 L
414.742 230.404 L
415.84 221.249 L
416.939 202.891 L
418.037 210.483 L
419.135 209.133 L
420.234 208.422 L
421.332 209.416 L
422.43 213.504 L
423.529 213.311 L
424.627 210.918 L
425.725 209.689 L
426.823 211.178 L
427.922 209.374 L
429.02 204.548 L
430.118 205.565 L
431.217 204.828 L
432.315 206.058 L
433.413 205.974 L
434.512 206.786 L
435.61 207.367 L
436.708 205.736 L
437.807 207.2 L
438.905 207.734 L
440.003 208.723 L
441.102 208.669 L
442.2 209.821 L
443.298 211.676 L
444.397 210.379 L
445.495 211.018 L
446.593 209.741 L
447.692 210.163 L
448.79 209.827 L
449.888 209.627 L
450.987 209.238 L
452.085 210.639 L
453.183 209.345 L
454.282 209.799 L
455.38 210.024 L
456.478 211.531 L
457.577 211.841 L
458.675 213.018 L
459.773 213.032 L
460.872 211.554 L
461.97 210.5 L
463.068 211.142 L
464.167 210.895 L
465.265 212.409 L
466.363 213.622 L
467.462 212.492 L
468.56 212.12 L
469.658 211.293 L
470.757 210.179 L
471.855 211.933 L
472.953 213.838 L
474.052 214.309 L
475.15 214.29 L
476.248 214.128 L
477.347 214.222 L
478.445 214.441 L
479.543 213.445 L
480.642 213.901 L
481.74 213.966 L
482.838 213.791 L
483.937 214.968 L
485.035 214.94 L
486.133 214.363 L
487.232 211.313 L
488.33 209.97 L
489.428 209.091 L
490.527 207.811 L
491.625 209.368 L
492.723 210.532 L
493.822 210.349 L
494.92 209.825 L
496.018 209.779 L
497.117 209.258 L
498.215 209.073 L
499.313 209.075 L
500.412 209.396 L
501.51 209.874 L
502.608 209.646 L
503.707 210.963 L
504.805 210.62 L
505.903 210.085 L
507.002 209.748 L
508.1 209.707 L
509.198 209.475 L
510.297 209.635 L
511.395 209.073 L
512.493 208.181 L
513.592 208.281 L
514.69 208.479 L
515.788 208.265 L
516.887 208.125 L
517.985 208.554 L
519.083 208.904 L
520.182 209.385 L
521.28 209.224 LE
grestore
gsave
1.0 1.0 scale
newpath 0 0 moveto 576 0 lineto 576 432 lineto 0 432 lineto
closepath clip
1 1 1 C
77.2594 120.933 187.093 47.52 77.2594 47.52 T
77.2594 120.933 187.093 120.933 187.093 47.52 T
0.5 W
0.15 0.15 0.15 C
99.2173 47.52 LS
99.2173 48.6245 LE
99.2173 120.933 LS
99.2173 119.829 LE
121.186 47.52 LS
121.186 48.6245 LE
121.186 120.933 LS
121.186 119.829 LE
143.155 47.52 LS
143.155 48.6245 LE
143.155 120.933 LS
143.155 119.829 LE
165.124 47.52 LS
165.124 48.6245 LE
165.124 120.933 LS
165.124 119.829 LE
187.093 47.52 LS
187.093 48.6245 LE
187.093 120.933 LS
187.093 119.829 LE
gsave
0.14902 0.14902 0.14902 C
(2e+06) [6 5 6 6 10] 0 84.7173 31.9776 10 /Helvetica SRX
grestore

gsave
0.14902 0.14902 0.14902 C
(4e+06) [6 5 6 6 10] 0 106.686 31.9776 10 /Helvetica SRX
grestore

gsave
0.14902 0.14902 0.14902 C
(6e+06) [6 5 6 6 10] 0 128.655 31.9776 10 /Helvetica SRX
grestore

gsave
0.14902 0.14902 0.14902 C
(8e+06) [6 5 6 6 10] 0 150.624 31.9776 10 /Helvetica SRX
grestore

gsave
0.14902 0.14902 0.14902 C
(1e+07) [6 5 6 6 10] 0 172.593 31.9776 10 /Helvetica SRX
grestore

77.2594 47.52 LS
78.3561 47.52 LE
187.093 47.52 LS
185.996 47.52 LE
77.2594 59.7555 LS
78.3561 59.7555 LE
187.093 59.7555 LS
185.996 59.7555 LE
77.2594 71.991 LS
78.3561 71.991 LE
187.093 71.991 LS
185.996 71.991 LE
77.2594 84.2266 LS
78.3561 84.2266 LE
187.093 84.2266 LS
185.996 84.2266 LE
77.2594 96.4621 LS
78.3561 96.4621 LE
187.093 96.4621 LS
185.996 96.4621 LE
77.2594 108.698 LS
78.3561 108.698 LE
187.093 108.698 LS
185.996 108.698 LE
77.2594 120.933 LS
78.3561 120.933 LE
187.093 120.933 LS
185.996 120.933 LE
gsave
0.14902 0.14902 0.14902 C
(0.004) [6 3 6 6 10] 0 45.267 43.52 10 /Helvetica SRX
grestore

gsave
0.14902 0.14902 0.14902 C
(0.006) [6 3 6 6 10] 0 45.267 55.7555 10 /Helvetica SRX
grestore

gsave
0.14902 0.14902 0.14902 C
(0.008) [6 3 6 6 10] 0 45.267 67.991 10 /Helvetica SRX
grestore

gsave
0.14902 0.14902 0.14902 C
(0.01) [6 3 6 10] 0 51.267 80.2266 10 /Helvetica SRX
grestore

gsave
0.14902 0.14902 0.14902 C
(0.012) [6 3 6 6 10] 0 45.267 92.4621 10 /Helvetica SRX
grestore

gsave
0.14902 0.14902 0.14902 C
(0.014) [6 3 6 6 10] 0 45.267 104.698 10 /Helvetica SRX
grestore

gsave
0.14902 0.14902 0.14902 C
(0.016) [6 3 6 6 10] 0 45.267 116.933 10 /Helvetica SRX
grestore

2 LC
[16 0] 0 setdash
77.2594 47.52 LS
187.093 47.52 LE
77.2594 120.933 LS
187.093 120.933 LE
77.2594 47.52 LS
77.2594 120.933 LE
187.093 47.52 LS
187.093 120.933 LE
gsave
0 0 0 C
(SE_eps_C_news2 \(Interval\)) [7 7 6 6 7 6 6 8 6 7 6 9 6 6 3 4 3 7 4 6 4 6 6 3 10] 0 60.676 133.933 11 /Helvetica-Bold SRX
grestore

0 LC
1 LJ
[] 0 setdash
0 0 1 C
77.2594 50.9152 LS
78.3577 85.53 L
79.4561 118.688 L
80.5544 88.1732 L
81.6527 119.03 L
82.7511 100.725 L
83.8494 100.366 L
84.9477 94.9135 L
86.0461 116.667 L
87.1444 101.313 L
88.2427 91.6389 L
89.3411 86.0621 L
90.4394 83.6439 L
91.5377 107.002 L
92.636 104.922 L
93.7344 100.779 L
94.8327 90.5738 L
95.9311 98.6848 L
97.0294 103.572 L
98.1277 110.857 L
99.226 109.421 L
100.324 113.976 L
101.423 109.469 L
102.521 104.542 L
103.619 108.907 L
104.718 109.192 L
105.816 109.889 L
106.914 108.457 L
108.013 115.71 L
109.111 119.005 L
110.209 113.193 L
111.308 115.85 L
112.406 113.159 L
113.504 114.77 L
114.603 112.154 L
115.701 110.708 L
116.799 107.633 L
117.898 106.285 L
118.996 105.25 L
120.094 106.01 L
121.193 106.576 L
122.291 101.173 L
123.389 98.4031 L
124.488 100.162 L
125.586 97.806 L
126.684 96.8758 L
127.783 94.1492 L
128.881 92.558 L
129.979 92.0701 L
131.078 92.1772 L
132.176 96.2353 L
133.274 96.3107 L
134.373 95.4811 L
135.471 95.1697 L
136.569 95.8121 L
137.668 105.904 L
138.766 109.471 L
139.864 111.833 L
140.963 110.74 L
142.061 113.473 L
143.159 116.606 L
144.258 117.023 L
145.356 111.618 L
146.454 111.85 L
147.553 113.541 L
148.651 115.547 L
149.749 118.284 L
150.848 117.6 L
151.946 114.523 L
153.044 107.671 L
154.143 105.189 L
155.241 102.492 L
156.339 100.793 L
157.438 101.231 L
158.536 100.708 L
159.634 101.279 L
160.733 102.627 L
161.831 101.186 L
162.929 100.076 L
164.028 100.189 L
165.126 99.1554 L
166.224 96.9852 L
167.323 98.0744 L
168.421 96.164 L
169.519 96.6862 L
170.618 96.9315 L
171.716 97.5774 L
172.814 98.4759 L
173.913 99.5175 L
175.011 101.55 L
176.109 102.124 L
177.208 102.005 L
178.306 100.407 L
179.404 99.9413 L
180.503 100.185 L
181.601 100.841 L
182.699 100.571 L
183.798 103.77 L
184.896 106.268 L
185.994 106.988 L
187.093 106.963 LE
1 0 0 C
77.2594 54.7751 LS
78.3577 83.4747 L
79.4561 80.8181 L
80.5544 79.4379 L
81.6527 75.8685 L
82.7511 95.9145 L
83.8494 84.8616 L
84.9477 82.5237 L
86.0461 98.6268 L
87.1444 96.9829 L
88.2427 91.7835 L
89.3411 86.1369 L
90.4394 83.5335 L
91.5377 107.022 L
92.636 104.913 L
93.7344 100.68 L
94.8327 89.2104 L
95.9311 91.9266 L
97.0294 87.6066 L
98.1277 90.0325 L
99.226 95.3439 L
100.324 106.858 L
101.423 105.128 L
102.521 103.738 L
103.619 106.381 L
104.718 105.439 L
105.816 108.592 L
106.914 108.285 L
108.013 111.965 L
109.111 110.19 L
110.209 107.84 L
111.308 110.73 L
112.406 107.2 L
113.504 110.634 L
114.603 108.603 L
115.701 110.128 L
116.799 107.849 L
117.898 106.648 L
118.996 104.771 L
120.094 105.878 L
121.193 106.37 L
122.291 101.217 L
123.389 98.3533 L
124.488 99.656 L
125.586 97.6396 L
126.684 96.7116 L
127.783 94.1282 L
128.881 92.6724 L
129.979 92.1596 L
131.078 92.1085 L
132.176 97.4227 L
133.274 97.3489 L
134.373 96.3436 L
135.471 95.3305 L
136.569 94.5072 L
137.668 103.495 L
138.766 103.385 L
139.864 102.125 L
140.963 102.875 L
142.061 104.592 L
143.159 107.041 L
144.258 107.436 L
145.356 102.803 L
146.454 102.586 L
147.553 106.075 L
148.651 111.192 L
149.749 115.882 L
150.848 116.676 L
151.946 114.88 L
153.044 107.985 L
154.143 105.295 L
155.241 102.395 L
156.339 100.634 L
157.438 101.264 L
158.536 100.765 L
159.634 101.298 L
160.733 102.485 L
161.831 101.185 L
162.929 100.087 L
164.028 100.188 L
165.126 99.1901 L
166.224 96.9706 L
167.323 98.13 L
168.421 96.1957 L
169.519 96.5303 L
170.618 96.4081 L
171.716 96.2439 L
172.814 97.1216 L
173.913 98.352 L
175.011 100.271 L
176.109 100.588 L
177.208 100.51 L
178.306 99.3407 L
179.404 99.1978 L
180.503 99.7738 L
181.601 100.747 L
182.699 100.523 L
183.798 103.946 L
184.896 106.229 L
185.994 106.736 L
187.093 106.495 LE
grestore
gsave
1.0 1.0 scale
newpath 0 0 moveto 576 0 lineto 576 432 lineto 0 432 lineto
closepath clip
1 1 1 C
244.353 120.933 354.186 47.52 244.353 47.52 T
244.353 120.933 354.186 120.933 354.186 47.52 T
0.5 W
0.15 0.15 0.15 C
266.311 47.52 LS
266.311 48.6245 LE
266.311 120.933 LS
266.311 119.829 LE
288.28 47.52 LS
288.28 48.6245 LE
288.28 120.933 LS
288.28 119.829 LE
310.249 47.52 LS
310.249 48.6245 LE
310.249 120.933 LS
310.249 119.829 LE
332.217 47.52 LS
332.217 48.6245 LE
332.217 120.933 LS
332.217 119.829 LE
354.186 47.52 LS
354.186 48.6245 LE
354.186 120.933 LS
354.186 119.829 LE
gsave
0.14902 0.14902 0.14902 C
(2e+06) [6 5 6 6 10] 0 251.811 31.9776 10 /Helvetica SRX
grestore

gsave
0.14902 0.14902 0.14902 C
(4e+06) [6 5 6 6 10] 0 273.78 31.9776 10 /Helvetica SRX
grestore

gsave
0.14902 0.14902 0.14902 C
(6e+06) [6 5 6 6 10] 0 295.749 31.9776 10 /Helvetica SRX
grestore

gsave
0.14902 0.14902 0.14902 C
(8e+06) [6 5 6 6 10] 0 317.717 31.9776 10 /Helvetica SRX
grestore

gsave
0.14902 0.14902 0.14902 C
(1e+07) [6 5 6 6 10] 0 339.686 31.9776 10 /Helvetica SRX
grestore

244.353 47.52 LS
245.45 47.52 LE
354.186 47.52 LS
353.09 47.52 LE
244.353 65.8733 LS
245.45 65.8733 LE
354.186 65.8733 LS
353.09 65.8733 LE
244.353 84.2266 LS
245.45 84.2266 LE
354.186 84.2266 LS
353.09 84.2266 LE
244.353 102.58 LS
245.45 102.58 LE
354.186 102.58 LS
353.09 102.58 LE
244.353 120.933 LS
245.45 120.933 LE
354.186 120.933 LS
353.09 120.933 LE
gsave
0.14902 0.14902 0.14902 C
(0) [10] 0 233.361 43.52 10 /Helvetica SRX
grestore

gsave
0.14902 0.14902 0.14902 C
(1e-05) [6 5 3 6 10] 0 213.361 61.8733 10 /Helvetica SRX
grestore

gsave
0.14902 0.14902 0.14902 C
(2e-05) [6 5 3 6 10] 0 213.361 80.2266 10 /Helvetica SRX
grestore

gsave
0.14902 0.14902 0.14902 C
(3e-05) [6 5 3 6 10] 0 213.361 98.5799 10 /Helvetica SRX
grestore

gsave
0.14902 0.14902 0.14902 C
(4e-05) [6 5 3 6 10] 0 213.361 116.933 10 /Helvetica SRX
grestore

2 LC
[16 0] 0 setdash
244.353 47.52 LS
354.186 47.52 LE
244.353 120.933 LS
354.186 120.933 LE
244.353 47.52 LS
244.353 120.933 LE
354.186 47.52 LS
354.186 120.933 LE
gsave
0 0 0 C
(SE_eps_C_news2 \(m2\)) [7 7 6 6 7 6 6 8 6 7 6 9 6 6 3 4 10 6 10] 0 239.27 133.933 11 /Helvetica-Bold SRX
grestore

0 LC
1 LJ
[] 0 setdash
0 0 1 C
244.353 54.5986 LS
245.451 75.5291 L
246.55 111.584 L
247.648 78.6013 L
248.746 115.87 L
249.845 89.9957 L
250.943 91.7201 L
252.041 86.0342 L
253.14 109.009 L
254.238 90.4648 L
255.336 81.598 L
256.435 76.0477 L
257.533 76.8793 L
258.631 97.9949 L
259.73 95.4606 L
260.828 90.5872 L
261.926 81.0287 L
263.025 90.4282 L
264.123 95.1386 L
265.221 103.154 L
266.32 101.367 L
267.418 105.422 L
268.516 100.056 L
269.615 95.1228 L
270.713 101.792 L
271.811 102.521 L
272.91 104.108 L
274.008 102.41 L
275.106 109.591 L
276.205 112.338 L
277.303 105.823 L
278.401 108.797 L
279.5 105.522 L
280.598 107.727 L
281.696 104.995 L
282.795 102.944 L
283.893 99.2684 L
284.991 98.0248 L
286.09 96.4504 L
287.188 97.3866 L
288.286 98.0582 L
289.385 91.4264 L
290.483 88.8264 L
291.581 90.1289 L
292.68 88.0408 L
293.778 87.2684 L
294.876 84.6172 L
295.975 83.6194 L
297.073 82.7464 L
298.171 84.2448 L
299.27 91.2643 L
300.368 91.3292 L
301.466 91.2791 L
302.565 90.9617 L
303.663 91.4429 L
304.761 101.653 L
305.86 104.178 L
306.958 106.425 L
308.056 104.957 L
309.155 108.97 L
310.253 112.284 L
311.351 112.582 L
312.45 106.139 L
313.548 106.366 L
314.646 107.978 L
315.745 110.107 L
316.843 113.214 L
317.941 112.627 L
319.04 109.215 L
320.138 99.8343 L
321.236 97.2352 L
322.335 93.4924 L
323.433 91.7282 L
324.531 92.1801 L
325.63 91.6162 L
326.728 92.1508 L
327.826 93.3398 L
328.925 92.0419 L
330.023 90.9166 L
331.121 91.0973 L
332.22 90.2718 L
333.318 88.174 L
334.416 89.5105 L
335.515 86.9818 L
336.613 87.3789 L
337.711 87.3763 L
338.81 88.139 L
339.908 89.0809 L
341.006 90.1217 L
342.105 91.9693 L
343.203 93.0568 L
344.301 93.3823 L
345.4 91.6988 L
346.498 91.256 L
347.596 91.2885 L
348.695 92.3252 L
349.793 92.0189 L
350.891 95.9878 L
351.99 98.7265 L
353.088 99.3327 L
354.186 99.3091 LE
1 0 0 C
244.353 52.9519 LS
245.451 74.3254 L
246.55 72.6529 L
247.648 71.9321 L
248.746 69.552 L
249.845 84.1414 L
250.943 77.4969 L
252.041 74.3523 L
253.14 91.8062 L
254.238 86.203 L
255.336 81.348 L
256.435 75.9676 L
257.533 76.6364 L
258.631 97.9765 L
259.73 95.4564 L
260.828 90.3661 L
261.926 79.4139 L
263.025 82.6567 L
264.123 78.7695 L
265.221 81.8723 L
266.32 86.6952 L
267.418 98.6975 L
268.516 96.1703 L
269.615 94.2687 L
270.713 98.1109 L
271.811 97.3454 L
272.91 101.988 L
274.008 101.575 L
275.106 105.588 L
276.205 103.139 L
277.303 100.72 L
278.401 104.343 L
279.5 99.2186 L
280.598 103.283 L
281.696 100.673 L
282.795 102.198 L
283.893 99.1786 L
284.991 97.8579 L
286.09 95.8014 L
287.188 97.1898 L
288.286 97.9339 L
289.385 91.4064 L
290.483 88.8264 L
291.581 90.0317 L
292.68 88.0287 L
293.778 87.2323 L
294.876 84.4999 L
295.975 83.6079 L
297.073 82.7402 L
298.171 84.2387 L
299.27 90.9428 L
300.368 90.6952 L
301.466 90.4256 L
302.565 89.4326 L
303.663 87.4447 L
304.761 95.1123 L
305.86 94.8777 L
306.958 93.9855 L
308.056 94.3909 L
309.155 96.4761 L
310.253 99.0044 L
311.351 99.3339 L
312.45 94.6122 L
313.548 94.3742 L
314.646 98.5571 L
315.745 103.615 L
316.843 109.331 L
317.941 110.855 L
319.04 108.697 L
320.138 99.8183 L
321.236 97.2352 L
322.335 93.3993 L
323.433 91.4916 L
324.531 92.154 L
325.63 91.6147 L
326.728 92.1388 L
327.826 93.246 L
328.925 92.0327 L
330.023 90.9115 L
331.121 91.0538 L
332.22 90.2606 L
333.318 88.1671 L
334.416 89.4775 L
335.515 86.981 L
336.613 87.2575 L
337.711 86.9753 L
338.81 87.0998 L
339.908 87.9272 L
341.006 89.0934 L
342.105 90.8637 L
343.203 91.5892 L
344.301 91.892 L
345.4 90.7143 L
346.498 90.6552 L
347.596 90.9963 L
348.695 92.2182 L
349.793 91.9832 L
350.891 95.928 L
351.99 98.2613 L
353.088 98.619 L
354.186 98.509 LE
grestore
gsave
1.0 1.0 scale
newpath 0 0 moveto 576 0 lineto 576 432 lineto 0 432 lineto
closepath clip
1 1 1 C
411.447 120.933 521.28 47.52 411.447 47.52 T
411.447 120.933 521.28 120.933 521.28 47.52 T
0.5 W
0.15 0.15 0.15 C
433.405 47.52 LS
433.405 48.6245 LE
433.405 120.933 LS
433.405 119.829 LE
455.374 47.52 LS
455.374 48.6245 LE
455.374 120.933 LS
455.374 119.829 LE
477.342 47.52 LS
477.342 48.6245 LE
477.342 120.933 LS
477.342 119.829 LE
499.311 47.52 LS
499.311 48.6245 LE
499.311 120.933 LS
499.311 119.829 LE
521.28 47.52 LS
521.28 48.6245 LE
521.28 120.933 LS
521.28 119.829 LE
gsave
0.14902 0.14902 0.14902 C
(2e+06) [6 5 6 6 10] 0 418.905 31.9776 10 /Helvetica SRX
grestore

gsave
0.14902 0.14902 0.14902 C
(4e+06) [6 5 6 6 10] 0 440.874 31.9776 10 /Helvetica SRX
grestore

gsave
0.14902 0.14902 0.14902 C
(6e+06) [6 5 6 6 10] 0 462.842 31.9776 10 /Helvetica SRX
grestore

gsave
0.14902 0.14902 0.14902 C
(8e+06) [6 5 6 6 10] 0 484.811 31.9776 10 /Helvetica SRX
grestore

gsave
0.14902 0.14902 0.14902 C
(1e+07) [6 5 6 6 10] 0 506.78 31.9776 10 /Helvetica SRX
grestore

411.447 47.52 LS
412.544 47.52 LE
521.28 47.52 LS
520.183 47.52 LE
411.447 58.0076 LS
412.544 58.0076 LE
521.28 58.0076 LS
520.183 58.0076 LE
411.447 68.4952 LS
412.544 68.4952 LE
521.28 68.4952 LS
520.183 68.4952 LE
411.447 78.9828 LS
412.544 78.9828 LE
521.28 78.9828 LS
520.183 78.9828 LE
411.447 89.4704 LS
412.544 89.4704 LE
521.28 89.4704 LS
520.183 89.4704 LE
411.447 99.9579 LS
412.544 99.9579 LE
521.28 99.9579 LS
520.183 99.9579 LE
411.447 110.446 LS
412.544 110.446 LE
521.28 110.446 LS
520.183 110.446 LE
411.447 120.933 LS
412.544 120.933 LE
521.28 120.933 LS
520.183 120.933 LE
gsave
0.14902 0.14902 0.14902 C
(0) [10] 0 400.454 43.52 10 /Helvetica SRX
grestore

gsave
0.14902 0.14902 0.14902 C
(5e-08) [6 5 3 6 10] 0 380.454 54.0076 10 /Helvetica SRX
grestore

gsave
0.14902 0.14902 0.14902 C
(1e-07) [6 5 3 6 10] 0 380.454 64.4952 10 /Helvetica SRX
grestore

gsave
0.14902 0.14902 0.14902 C
(1.5e-07) [6 3 6 5 3 6 10] 0 371.454 74.9828 10 /Helvetica SRX
grestore

gsave
0.14902 0.14902 0.14902 C
(2e-07) [6 5 3 6 10] 0 380.454 85.4704 10 /Helvetica SRX
grestore

gsave
0.14902 0.14902 0.14902 C
(2.5e-07) [6 3 6 5 3 6 10] 0 371.454 95.958 10 /Helvetica SRX
grestore

gsave
0.14902 0.14902 0.14902 C
(3e-07) [6 5 3 6 10] 0 380.454 106.446 10 /Helvetica SRX
grestore

gsave
0.14902 0.14902 0.14902 C
(3.5e-07) [6 3 6 5 3 6 10] 0 371.454 116.933 10 /Helvetica SRX
grestore

2 LC
[16 0] 0 setdash
411.447 47.52 LS
521.28 47.52 LE
411.447 120.933 LS
521.28 120.933 LE
411.447 47.52 LS
411.447 120.933 LE
521.28 47.52 LS
521.28 120.933 LE
gsave
0 0 0 C
(SE_eps_C_news2 \(m3\)) [7 7 6 6 7 6 6 8 6 7 6 9 6 6 3 4 10 6 10] 0 406.363 133.933 11 /Helvetica-Bold SRX
grestore

0 LC
1 LJ
[] 0 setdash
0 0 1 C
411.447 50.073 LS
412.545 66.0277 L
413.644 107.508 L
414.742 71.2176 L
415.84 110.051 L
416.939 81.9979 L
418.037 86.4505 L
419.135 79.5672 L
420.234 107.7 L
421.332 83.4273 L
422.43 73.665 L
423.529 67.4505 L
424.627 71.2107 L
425.725 92.3892 L
426.823 89.7029 L
427.922 84.061 L
429.02 72.9335 L
430.118 85.4278 L
431.217 90.8919 L
432.315 100.677 L
433.413 98.612 L
434.512 103.723 L
435.61 97.6643 L
436.708 90.894 L
437.807 100.223 L
438.905 101.881 L
440.003 104.38 L
441.102 102.303 L
442.2 111.837 L
443.298 114.245 L
444.397 105.702 L
445.495 108.571 L
446.593 103.594 L
447.692 107.02 L
448.79 103.475 L
449.888 99.9604 L
450.987 95.3107 L
452.085 94.3206 L
453.183 92.2596 L
454.282 93.1765 L
455.38 94.0711 L
456.478 85.0802 L
457.577 82.6626 L
458.675 83.7468 L
459.773 81.386 L
460.872 80.4317 L
461.97 77.4555 L
463.068 76.6347 L
464.167 75.3561 L
465.265 78.6882 L
466.363 90.0429 L
467.462 90.1648 L
468.56 90.85 L
469.658 90.4845 L
470.757 90.8434 L
471.855 105.641 L
472.953 108.047 L
474.052 110.447 L
475.15 107.687 L
476.248 114.382 L
477.347 118.96 L
478.445 119.932 L
479.543 109.625 L
480.642 109.834 L
481.74 112.114 L
482.838 114.458 L
483.937 118.3 L
485.035 117.864 L
486.133 112.972 L
487.232 97.6099 L
488.33 94.2789 L
489.428 88.4338 L
490.527 86.3266 L
491.625 86.7747 L
492.723 85.8603 L
493.822 86.5225 L
494.92 87.5924 L
496.018 86.1852 L
497.117 85.0457 L
498.215 85.1427 L
499.313 84.2787 L
500.412 81.9316 L
501.51 83.7464 L
502.608 80.1619 L
503.707 80.4758 L
504.805 80.2871 L
505.903 81.4563 L
507.002 82.6461 L
508.1 83.8037 L
509.198 85.8052 L
510.297 87.6164 L
511.395 88.5815 L
512.493 86.5923 L
513.592 86.0552 L
514.69 85.9553 L
515.788 87.8451 L
516.887 87.6892 L
517.985 92.8931 L
519.083 96.4731 L
520.182 97.198 L
521.28 97.2687 LE
1 0 0 C
411.447 49.1151 LS
412.545 65.0883 L
413.644 64.178 L
414.742 63.5595 L
415.84 62.6523 L
416.939 75.8341 L
418.037 70.141 L
419.135 66.6937 L
420.234 89.37 L
421.332 78.2875 L
422.43 73.603 L
423.529 67.3521 L
424.627 70.764 L
425.725 92.4132 L
426.823 89.6893 L
427.922 84.0024 L
429.02 70.9691 L
430.118 75.523 L
431.217 71.0696 L
432.315 75.1332 L
433.413 80.3434 L
434.512 95.5515 L
435.61 92.002 L
436.708 89.3392 L
437.807 94.5018 L
438.905 93.7973 L
440.003 100.782 L
441.102 100.588 L
442.2 105.204 L
443.298 102.495 L
444.397 99.3234 L
445.495 103.069 L
446.593 95.6688 L
447.692 102.372 L
448.79 98.4754 L
449.888 99.5056 L
450.987 95.0321 L
452.085 93.8799 L
453.183 91.2108 L
454.282 92.7573 L
455.38 93.804 L
456.478 85.0457 L
457.577 82.6623 L
458.675 83.6552 L
459.773 81.396 L
460.872 80.4546 L
461.97 77.3812 L
463.068 76.6197 L
464.167 75.3535 L
465.265 78.7153 L
466.363 88.9763 L
467.462 88.5162 L
468.56 88.789 L
469.658 87.3665 L
470.757 83.887 L
471.855 93.1318 L
472.953 91.9301 L
474.052 90.1446 L
475.15 90.6198 L
476.248 93.509 L
477.347 96.683 L
478.445 97.2667 L
479.543 91.2008 L
480.642 90.8109 L
481.74 96.9768 L
482.838 103.434 L
483.937 111.412 L
485.035 114 L
486.133 111.439 L
487.232 97.526 L
488.33 94.2804 L
489.428 88.3227 L
490.527 85.9774 L
491.625 86.7087 L
492.723 85.8471 L
493.822 86.54 L
494.92 87.5912 L
496.018 86.2062 L
497.117 85.0122 L
498.215 85.0178 L
499.313 84.2351 L
500.412 81.9452 L
501.51 83.6342 L
502.608 80.1657 L
503.707 80.4143 L
504.805 79.9842 L
505.903 80.4745 L
507.002 81.4536 L
508.1 82.7569 L
509.198 84.6265 L
510.297 85.8997 L
511.395 86.695 L
512.493 85.2993 L
513.592 85.2628 L
514.69 85.5366 L
515.788 87.656 L
516.887 87.5993 L
517.985 92.8398 L
519.083 95.9719 L
520.182 96.4089 L
521.28 96.3691 LE
grestore
grestore
showpage
cleartomark
%%PageTrailer
%%Trailer
end
%%EOF
