%!PS-Adobe-3.0 EPSF-3.0
%%Title: gl2ps_renderer figure
%%Creator: GL2PS 1.4.2, (C) 1999-2020 C. Geuzaine
%%For: Octave
%%CreationDate: Wed Oct  7 07:02:24 2020
%%LanguageLevel: 3
%%DocumentData: Clean7Bit
%%Pages: 1
%%BoundingBox: 0 0 576 432
%%EndComments
%%BeginProlog
/gl2psdict 64 dict def gl2psdict begin
/tryPS3shading false def % set to false to force subdivision
/rThreshold 0.064 def % red component subdivision threshold
/gThreshold 0.034 def % green component subdivision threshold
/bThreshold 0.1 def % blue component subdivision threshold
/BD { bind def } bind def
/C  { setrgbcolor } BD
/G  { 0.082 mul exch 0.6094 mul add exch 0.3086 mul add neg 1.0 add setgray } BD
/W  { setlinewidth } BD
/LC  { setlinecap } BD
/LJ  { setlinejoin } BD
/FC { findfont exch /SH exch def SH scalefont setfont } BD
/SW { dup stringwidth pop } BD
/S  { FC moveto show } BD
/SBC{ FC moveto SW -2 div 0 rmoveto show } BD
/SBR{ FC moveto SW neg 0 rmoveto show } BD
/SCL{ FC moveto 0 SH -2 div rmoveto show } BD
/SCC{ FC moveto SW -2 div SH -2 div rmoveto show } BD
/SCR{ FC moveto SW neg SH -2 div rmoveto show } BD
/STL{ FC moveto 0 SH neg rmoveto show } BD
/STC{ FC moveto SW -2 div SH neg rmoveto show } BD
/STR{ FC moveto SW neg SH neg rmoveto show } BD
/FCT { FC translate 0 0 } BD
/SR  { gsave FCT moveto rotate show grestore } BD
/SRX  { gsave FCT moveto rotate xshow grestore } BD
/SBCR{ gsave FCT moveto rotate SW -2 div 0 rmoveto show grestore } BD
/SBRR{ gsave FCT moveto rotate SW neg 0 rmoveto show grestore } BD
/SCLR{ gsave FCT moveto rotate 0 SH -2 div rmoveto show grestore} BD
/SCCR{ gsave FCT moveto rotate SW -2 div SH -2 div rmoveto show grestore} BD
/SCRR{ gsave FCT moveto rotate SW neg SH -2 div rmoveto show grestore} BD
/STLR{ gsave FCT moveto rotate 0 SH neg rmoveto show grestore } BD
/STCR{ gsave FCT moveto rotate SW -2 div SH neg rmoveto show grestore } BD
/STRR{ gsave FCT moveto rotate SW neg SH neg rmoveto show grestore } BD
/P  { newpath 0.0 360.0 arc closepath fill } BD
/LS { newpath moveto } BD
/L  { lineto } BD
/LE { lineto stroke } BD
/T  { newpath moveto lineto lineto closepath fill } BD
/STshfill {
      /b1 exch def /g1 exch def /r1 exch def /y1 exch def /x1 exch def
      /b2 exch def /g2 exch def /r2 exch def /y2 exch def /x2 exch def
      /b3 exch def /g3 exch def /r3 exch def /y3 exch def /x3 exch def
      gsave << /ShadingType 4 /ColorSpace [/DeviceRGB]
      /DataSource [ 0 x1 y1 r1 g1 b1 0 x2 y2 r2 g2 b2 0 x3 y3 r3 g3 b3 ] >>
      shfill grestore } BD
/Tm { 3 -1 roll 8 -1 roll 13 -1 roll add add 3 div
      3 -1 roll 7 -1 roll 11 -1 roll add add 3 div
      3 -1 roll 6 -1 roll 9 -1 roll add add 3 div C T } BD
/STsplit {
      4 index 15 index add 0.5 mul
      4 index 15 index add 0.5 mul
      4 index 15 index add 0.5 mul
      4 index 15 index add 0.5 mul
      4 index 15 index add 0.5 mul
      5 copy 5 copy 25 15 roll
      9 index 30 index add 0.5 mul
      9 index 30 index add 0.5 mul
      9 index 30 index add 0.5 mul
      9 index 30 index add 0.5 mul
      9 index 30 index add 0.5 mul
      5 copy 5 copy 35 5 roll 25 5 roll 15 5 roll
      4 index 10 index add 0.5 mul
      4 index 10 index add 0.5 mul
      4 index 10 index add 0.5 mul
      4 index 10 index add 0.5 mul
      4 index 10 index add 0.5 mul
      5 copy 5 copy 40 5 roll 25 5 roll 15 5 roll 25 5 roll
      STnoshfill STnoshfill STnoshfill STnoshfill } BD
/STnoshfill {
      2 index 8 index sub abs rThreshold gt
      { STsplit }
      { 1 index 7 index sub abs gThreshold gt
        { STsplit }
        { dup 6 index sub abs bThreshold gt
          { STsplit }
          { 2 index 13 index sub abs rThreshold gt
            { STsplit }
            { 1 index 12 index sub abs gThreshold gt
              { STsplit }
              { dup 11 index sub abs bThreshold gt
                { STsplit }
                { 7 index 13 index sub abs rThreshold gt
                  { STsplit }
                  { 6 index 12 index sub abs gThreshold gt
                    { STsplit }
                    { 5 index 11 index sub abs bThreshold gt
                      { STsplit }
                      { Tm }
                      ifelse }
                    ifelse }
                  ifelse }
                ifelse }
              ifelse }
            ifelse }
          ifelse }
        ifelse }
      ifelse } BD
tryPS3shading
{ /shfill where
  { /ST { STshfill } BD }
  { /ST { STnoshfill } BD }
  ifelse }
{ /ST { STnoshfill } BD }
ifelse
end
%%EndProlog
%%BeginSetup
/DeviceRGB setcolorspace
gl2psdict begin
%%EndSetup
%%Page: 1 1
%%BeginPageSetup
%%EndPageSetup
mark
gsave
1.0 1.0 scale
1 1 1 C
newpath 0 0 moveto 576 0 lineto 576 432 lineto 0 432 lineto
closepath fill
gsave
1.0 1.0 scale
1 1 1 C
newpath 0 0 moveto 576 0 lineto 576 432 lineto 0 432 lineto
closepath fill
newpath 0 0 moveto 576 0 lineto 576 432 lineto 0 432 lineto
closepath clip
1 1 1 C
74.88 386.841 187.093 312.427 74.88 312.427 T
74.88 386.841 187.093 386.841 187.093 312.427 T
0.5 W
0.15 0.15 0.15 C
98.5037 312.427 LS
98.5037 313.556 LE
98.5037 386.841 LS
98.5037 385.712 LE
128.033 312.427 LS
128.033 313.556 LE
128.033 386.841 LS
128.033 385.712 LE
157.563 312.427 LS
157.563 313.556 LE
157.563 386.841 LS
157.563 385.712 LE
187.093 312.427 LS
187.093 313.556 LE
187.093 386.841 LS
187.093 385.712 LE
gsave
0.14902 0.14902 0.14902 C
(5) [10] 0 95.5037 296.886 10 /Helvetica SRX
grestore

gsave
0.14902 0.14902 0.14902 C
(10) [6 10] 0 122.033 296.886 10 /Helvetica SRX
grestore

gsave
0.14902 0.14902 0.14902 C
(15) [6 10] 0 151.563 296.886 10 /Helvetica SRX
grestore

gsave
0.14902 0.14902 0.14902 C
(20) [6 10] 0 181.093 296.886 10 /Helvetica SRX
grestore

74.88 319.266 LS
76.0043 319.266 LE
187.093 319.266 LS
185.968 319.266 LE
74.88 336.621 LS
76.0043 336.621 LE
187.093 336.621 LS
185.968 336.621 LE
74.88 353.975 LS
76.0043 353.975 LE
187.093 353.975 LS
185.968 353.975 LE
74.88 371.33 LS
76.0043 371.33 LE
187.093 371.33 LS
185.968 371.33 LE
gsave
0.14902 0.14902 0.14902 C
(-0.008) [3 6 3 6 6 10] 0 39.8705 315.266 10 /Helvetica SRX
grestore

gsave
0.14902 0.14902 0.14902 C
(-0.006) [3 6 3 6 6 10] 0 39.8705 332.621 10 /Helvetica SRX
grestore

gsave
0.14902 0.14902 0.14902 C
(-0.004) [3 6 3 6 6 10] 0 39.8705 349.975 10 /Helvetica SRX
grestore

gsave
0.14902 0.14902 0.14902 C
(-0.002) [3 6 3 6 6 10] 0 39.8705 367.33 10 /Helvetica SRX
grestore

2 LC
[16 0] 0 setdash
74.88 312.427 LS
187.093 312.427 LE
74.88 386.841 LS
187.093 386.841 LE
74.88 312.427 LS
74.88 386.841 LE
187.093 312.427 LS
187.093 386.841 LE
gsave
0 0 0 C
(Y_T_hat) [7 6 7 6 7 6 10] 0 109.486 398.841 11 /Helvetica-Bold SRX
grestore

0.9 0.9 0.9 C
74.88 312.427 74.88 384.536 80.7859 312.427 T
80.7859 381.555 80.7859 312.427 74.88 384.536 T
86.6918 312.427 80.7859 312.427 80.7859 381.555 T
86.6918 379.042 86.6918 312.427 80.7859 381.555 T
92.5978 312.427 86.6918 312.427 86.6918 379.042 T
92.5978 375.58 92.5978 312.427 86.6918 379.042 T
98.5037 312.427 92.5978 312.427 92.5978 375.58 T
98.5037 360.392 98.5037 312.427 92.5978 375.58 T
104.41 312.427 98.5037 312.427 98.5037 360.392 T
104.41 351.512 104.41 312.427 98.5037 360.392 T
110.316 312.427 104.41 312.427 104.41 351.512 T
110.316 348.911 110.316 312.427 104.41 351.512 T
116.221 312.427 110.316 312.427 110.316 348.911 T
116.221 350 116.221 312.427 110.316 348.911 T
122.127 312.427 116.221 312.427 116.221 350 T
122.127 352.996 122.127 312.427 116.221 350 T
128.033 312.427 122.127 312.427 122.127 352.996 T
128.033 357.283 128.033 312.427 122.127 352.996 T
133.939 312.427 128.033 312.427 128.033 357.283 T
133.939 361.377 133.939 312.427 128.033 357.283 T
139.845 312.427 133.939 312.427 133.939 361.377 T
139.845 365.356 139.845 312.427 133.939 361.377 T
145.751 312.427 139.845 312.427 139.845 365.356 T
145.751 369.134 145.751 312.427 139.845 365.356 T
151.657 312.427 145.751 312.427 145.751 369.134 T
151.657 373.643 151.657 312.427 145.751 369.134 T
157.563 312.427 151.657 312.427 151.657 373.643 T
157.563 376.597 157.563 312.427 151.657 373.643 T
163.469 312.427 157.563 312.427 157.563 376.597 T
163.469 378.987 163.469 312.427 157.563 376.597 T
169.375 312.427 163.469 312.427 163.469 378.987 T
169.375 381.268 169.375 312.427 163.469 378.987 T
175.281 312.427 169.375 312.427 169.375 381.268 T
175.281 383.634 175.281 312.427 169.375 381.268 T
181.187 312.427 175.281 312.427 175.281 383.634 T
181.187 385.389 181.187 312.427 175.281 383.634 T
187.093 312.427 181.187 312.427 181.187 385.389 T
187.093 386.841 187.093 312.427 181.187 385.389 T
0 LC
[] 0 setdash
0 0 0 C
187.093 386.841 LS
181.187 385.389 L
175.281 383.634 L
169.375 381.268 L
163.469 378.987 L
157.563 376.597 L
151.657 373.643 L
145.751 369.134 L
139.845 365.356 L
133.939 361.377 L
128.033 357.283 L
122.127 352.996 L
116.221 350 L
110.316 348.911 L
104.41 351.512 L
98.5037 360.392 L
92.5978 375.58 L
86.6918 379.042 L
80.7859 381.555 L
74.88 384.536 L
74.88 312.427 L
80.7859 312.427 L
86.6918 312.427 L
92.5978 312.427 L
98.5037 312.427 L
104.41 312.427 L
110.316 312.427 L
116.221 312.427 L
122.127 312.427 L
128.033 312.427 L
133.939 312.427 L
139.845 312.427 L
145.751 312.427 L
151.657 312.427 L
157.563 312.427 L
163.469 312.427 L
169.375 312.427 L
175.281 312.427 L
181.187 312.427 L
187.093 312.427 L
187.093 386.841 LE
1 1 1 C
110.316 312.427 116.221 314.574 116.221 312.427 T
122.127 312.427 116.221 312.427 116.221 314.574 T
122.127 320.501 122.127 312.427 116.221 314.574 T
128.033 312.427 122.127 312.427 122.127 320.501 T
128.033 328.68 128.033 312.427 122.127 320.501 T
133.939 312.427 128.033 312.427 128.033 328.68 T
133.939 336.719 133.939 312.427 128.033 328.68 T
139.845 312.427 133.939 312.427 133.939 336.719 T
139.845 344.637 139.845 312.427 133.939 336.719 T
145.751 312.427 139.845 312.427 139.845 344.637 T
145.751 351.854 145.751 312.427 139.845 344.637 T
151.657 312.427 145.751 312.427 145.751 351.854 T
151.657 359.61 151.657 312.427 145.751 351.854 T
157.563 312.427 151.657 312.427 151.657 359.61 T
157.563 365.475 157.563 312.427 151.657 359.61 T
163.469 312.427 157.563 312.427 157.563 365.475 T
163.469 370.118 163.469 312.427 157.563 365.475 T
169.375 312.427 163.469 312.427 163.469 370.118 T
169.375 374.159 169.375 312.427 163.469 370.118 T
175.281 312.427 169.375 312.427 169.375 374.159 T
175.281 377.866 175.281 312.427 169.375 374.159 T
181.187 312.427 175.281 312.427 175.281 377.866 T
181.187 380.509 181.187 312.427 175.281 377.866 T
187.093 312.427 181.187 312.427 181.187 380.509 T
187.093 382.681 187.093 312.427 181.187 380.509 T
74.88 312.427 74.88 380.143 80.7859 312.427 T
80.7859 375.075 80.7859 312.427 74.88 380.143 T
86.6918 312.427 80.7859 312.427 80.7859 375.075 T
86.6918 370.222 86.6918 312.427 80.7859 375.075 T
92.5978 312.427 86.6918 312.427 86.6918 370.222 T
92.5978 363.468 92.5978 312.427 86.6918 370.222 T
98.5037 312.427 92.5978 312.427 92.5978 363.468 T
98.5037 333.698 98.5037 312.427 92.5978 363.468 T
104.41 312.427 98.5037 312.427 98.5037 333.698 T
104.41 317.501 104.41 312.427 98.5037 333.698 T
110.316 312.427 104.41 312.427 104.41 317.501 T
0 0 0 C
110.316 312.427 LS
104.41 317.501 L
98.5037 333.698 L
92.5978 363.468 L
86.6918 370.222 L
80.7859 375.075 L
74.88 380.143 L
74.88 312.427 L
80.7859 312.427 L
86.6918 312.427 L
92.5978 312.427 L
98.5037 312.427 L
104.41 312.427 L
110.316 312.427 LE
187.093 382.681 LS
181.187 380.509 L
175.281 377.866 L
169.375 374.159 L
163.469 370.118 L
157.563 365.475 L
151.657 359.61 L
145.751 351.854 L
139.845 344.637 L
133.939 336.719 L
128.033 328.68 L
122.127 320.501 L
116.221 314.574 L
110.316 312.427 L
116.221 312.427 L
122.127 312.427 L
128.033 312.427 L
133.939 312.427 L
139.845 312.427 L
145.751 312.427 L
151.657 312.427 L
157.563 312.427 L
163.469 312.427 L
169.375 312.427 L
175.281 312.427 L
181.187 312.427 L
187.093 312.427 L
187.093 382.681 LE
3 W
1 LJ
74.88 382.373 LS
80.7859 378.35 L
86.6918 374.489 L
92.5978 369.431 L
98.5037 346.767 L
104.41 335.22 L
110.316 331.652 L
116.221 333.148 L
122.127 337.535 L
128.033 343.323 L
133.939 349.558 L
139.845 355.663 L
145.751 361.322 L
151.657 366.388 L
157.563 370.815 L
163.469 374.623 L
169.375 377.861 L
175.281 380.594 L
181.187 382.892 L
187.093 384.819 LE
grestore
gsave
1.0 1.0 scale
newpath 0 0 moveto 576 0 lineto 576 432 lineto 0 432 lineto
closepath clip
1 1 1 C
241.974 386.841 354.186 312.427 241.974 312.427 T
241.974 386.841 354.186 386.841 354.186 312.427 T
0.5 W
0.15 0.15 0.15 C
265.597 312.427 LS
265.597 313.556 LE
265.597 386.841 LS
265.597 385.712 LE
295.127 312.427 LS
295.127 313.556 LE
295.127 386.841 LS
295.127 385.712 LE
324.657 312.427 LS
324.657 313.556 LE
324.657 386.841 LS
324.657 385.712 LE
354.186 312.427 LS
354.186 313.556 LE
354.186 386.841 LS
354.186 385.712 LE
gsave
0.14902 0.14902 0.14902 C
(5) [10] 0 262.597 296.886 10 /Helvetica SRX
grestore

gsave
0.14902 0.14902 0.14902 C
(10) [6 10] 0 289.127 296.886 10 /Helvetica SRX
grestore

gsave
0.14902 0.14902 0.14902 C
(15) [6 10] 0 318.657 296.886 10 /Helvetica SRX
grestore

gsave
0.14902 0.14902 0.14902 C
(20) [6 10] 0 348.186 296.886 10 /Helvetica SRX
grestore

241.974 316.192 LS
243.098 316.192 LE
354.186 316.192 LS
353.062 316.192 LE
241.974 327.366 LS
243.098 327.366 LE
354.186 327.366 LS
353.062 327.366 LE
241.974 338.54 LS
243.098 338.54 LE
354.186 338.54 LS
353.062 338.54 LE
241.974 349.714 LS
243.098 349.714 LE
354.186 349.714 LS
353.062 349.714 LE
241.974 360.888 LS
243.098 360.888 LE
354.186 360.888 LS
353.062 360.888 LE
241.974 372.062 LS
243.098 372.062 LE
354.186 372.062 LS
353.062 372.062 LE
241.974 383.236 LS
243.098 383.236 LE
354.186 383.236 LS
353.062 383.236 LE
gsave
0.14902 0.14902 0.14902 C
(0.0005) [6 3 6 6 6 10] 0 203.964 312.192 10 /Helvetica SRX
grestore

gsave
0.14902 0.14902 0.14902 C
(0.001) [6 3 6 6 10] 0 209.964 323.366 10 /Helvetica SRX
grestore

gsave
0.14902 0.14902 0.14902 C
(0.0015) [6 3 6 6 6 10] 0 203.964 334.54 10 /Helvetica SRX
grestore

gsave
0.14902 0.14902 0.14902 C
(0.002) [6 3 6 6 10] 0 209.964 345.714 10 /Helvetica SRX
grestore

gsave
0.14902 0.14902 0.14902 C
(0.0025) [6 3 6 6 6 10] 0 203.964 356.888 10 /Helvetica SRX
grestore

gsave
0.14902 0.14902 0.14902 C
(0.003) [6 3 6 6 10] 0 209.964 368.062 10 /Helvetica SRX
grestore

gsave
0.14902 0.14902 0.14902 C
(0.0035) [6 3 6 6 6 10] 0 203.964 379.236 10 /Helvetica SRX
grestore

2 LC
[16 0] 0 setdash
241.974 312.427 LS
354.186 312.427 LE
241.974 386.841 LS
354.186 386.841 LE
241.974 312.427 LS
241.974 386.841 LE
354.186 312.427 LS
354.186 386.841 LE
gsave
0 0 0 C
(Y_N_hat) [7 6 8 6 7 6 10] 0 276.08 398.841 11 /Helvetica-Bold SRX
grestore

0.9 0.9 0.9 C
241.974 312.427 241.974 319.008 247.88 312.427 T
247.88 329.443 247.88 312.427 241.974 319.008 T
253.786 312.427 247.88 312.427 247.88 329.443 T
253.786 338.895 253.786 312.427 247.88 329.443 T
259.691 312.427 253.786 312.427 253.786 338.895 T
259.691 347.869 259.691 312.427 253.786 338.895 T
265.597 312.427 259.691 312.427 259.691 347.869 T
265.597 358.364 265.597 312.427 259.691 347.869 T
271.503 312.427 265.597 312.427 265.597 358.364 T
271.503 367.99 271.503 312.427 265.597 358.364 T
277.409 312.427 271.503 312.427 271.503 367.99 T
277.409 375.295 277.409 312.427 271.503 367.99 T
283.315 312.427 277.409 312.427 277.409 375.295 T
283.315 380.498 283.315 312.427 277.409 375.295 T
289.221 312.427 283.315 312.427 283.315 380.498 T
289.221 384.093 289.221 312.427 283.315 380.498 T
295.127 312.427 289.221 312.427 289.221 384.093 T
295.127 383.886 295.127 312.427 289.221 384.093 T
301.033 312.427 295.127 312.427 295.127 383.886 T
301.033 386.193 301.033 312.427 295.127 383.886 T
306.939 312.427 301.033 312.427 301.033 386.193 T
306.939 386.841 306.939 312.427 301.033 386.193 T
312.845 312.427 306.939 312.427 306.939 386.841 T
312.845 383.438 312.845 312.427 306.939 386.841 T
318.751 312.427 312.845 312.427 312.845 383.438 T
318.751 382.968 318.751 312.427 312.845 383.438 T
324.657 312.427 318.751 312.427 318.751 382.968 T
324.657 379.049 324.657 312.427 318.751 382.968 T
330.563 312.427 324.657 312.427 324.657 379.049 T
330.563 375.993 330.563 312.427 324.657 379.049 T
336.469 312.427 330.563 312.427 330.563 375.993 T
336.469 374.034 336.469 312.427 330.563 375.993 T
342.374 312.427 336.469 312.427 336.469 374.034 T
342.374 371.408 342.374 312.427 336.469 374.034 T
348.28 312.427 342.374 312.427 342.374 371.408 T
348.28 369.371 348.28 312.427 342.374 371.408 T
354.186 312.427 348.28 312.427 348.28 369.371 T
354.186 367.409 354.186 312.427 348.28 369.371 T
0 LC
[] 0 setdash
0 0 0 C
354.186 367.409 LS
348.28 369.371 L
342.374 371.408 L
336.469 374.034 L
330.563 375.993 L
324.657 379.049 L
318.751 382.968 L
312.845 383.438 L
306.939 386.841 L
301.033 386.193 L
295.127 383.886 L
289.221 384.093 L
283.315 380.498 L
277.409 375.295 L
271.503 367.99 L
265.597 358.364 L
259.691 347.869 L
253.786 338.895 L
247.88 329.443 L
241.974 319.008 L
241.974 312.427 L
247.88 312.427 L
253.786 312.427 L
259.691 312.427 L
265.597 312.427 L
271.503 312.427 L
277.409 312.427 L
283.315 312.427 L
289.221 312.427 L
295.127 312.427 L
301.033 312.427 L
306.939 312.427 L
312.845 312.427 L
318.751 312.427 L
324.657 312.427 L
330.563 312.427 L
336.469 312.427 L
342.374 312.427 L
348.28 312.427 L
354.186 312.427 L
354.186 367.409 LE
1 1 1 C
241.974 312.427 247.88 318.252 247.88 312.427 T
253.786 312.427 247.88 312.427 247.88 318.252 T
253.786 323.446 253.786 312.427 247.88 318.252 T
259.691 312.427 253.786 312.427 253.786 323.446 T
259.691 327.71 259.691 312.427 253.786 323.446 T
265.597 312.427 259.691 312.427 259.691 327.71 T
265.597 332.002 265.597 312.427 259.691 327.71 T
271.503 312.427 265.597 312.427 265.597 332.002 T
271.503 335.364 271.503 312.427 265.597 332.002 T
277.409 312.427 271.503 312.427 271.503 335.364 T
277.409 338.143 277.409 312.427 271.503 335.364 T
283.315 312.427 277.409 312.427 277.409 338.143 T
283.315 340.778 283.315 312.427 277.409 338.143 T
289.221 312.427 283.315 312.427 283.315 340.778 T
289.221 343.445 289.221 312.427 283.315 340.778 T
295.127 312.427 289.221 312.427 289.221 343.445 T
295.127 343.686 295.127 312.427 289.221 343.445 T
301.033 312.427 295.127 312.427 295.127 343.686 T
301.033 346.884 301.033 312.427 295.127 343.686 T
306.939 312.427 301.033 312.427 301.033 346.884 T
306.939 348.542 306.939 312.427 301.033 346.884 T
312.845 312.427 306.939 312.427 306.939 348.542 T
312.845 346.361 312.845 312.427 306.939 348.542 T
318.751 312.427 312.845 312.427 312.845 346.361 T
318.751 346.839 318.751 312.427 312.845 346.361 T
324.657 312.427 318.751 312.427 318.751 346.839 T
324.657 343.77 324.657 312.427 318.751 346.839 T
330.563 312.427 324.657 312.427 324.657 343.77 T
330.563 342.027 330.563 312.427 324.657 343.77 T
336.469 312.427 330.563 312.427 330.563 342.027 T
336.469 340.633 336.469 312.427 330.563 342.027 T
342.374 312.427 336.469 312.427 336.469 340.633 T
342.374 339.149 342.374 312.427 336.469 340.633 T
348.28 312.427 342.374 312.427 342.374 339.149 T
348.28 338.093 348.28 312.427 342.374 339.149 T
354.186 312.427 348.28 312.427 348.28 338.093 T
354.186 336.992 354.186 312.427 348.28 338.093 T
0 0 0 C
354.186 336.992 LS
348.28 338.093 L
342.374 339.149 L
336.469 340.633 L
330.563 342.027 L
324.657 343.77 L
318.751 346.839 L
312.845 346.361 L
306.939 348.542 L
301.033 346.884 L
295.127 343.686 L
289.221 343.445 L
283.315 340.778 L
277.409 338.143 L
271.503 335.364 L
265.597 332.002 L
259.691 327.71 L
253.786 323.446 L
247.88 318.252 L
241.974 312.427 L
247.88 312.427 L
253.786 312.427 L
259.691 312.427 L
265.597 312.427 L
271.503 312.427 L
277.409 312.427 L
283.315 312.427 L
289.221 312.427 L
295.127 312.427 L
301.033 312.427 L
306.939 312.427 L
312.845 312.427 L
318.751 312.427 L
324.657 312.427 L
330.563 312.427 L
336.469 312.427 L
342.374 312.427 L
348.28 312.427 L
354.186 312.427 L
354.186 336.992 LE
3 W
1 LJ
241.974 315.812 LS
247.88 324.133 L
253.786 331.099 L
259.691 337.92 L
265.597 344.829 L
271.503 351.531 L
277.409 357.35 L
283.315 361.787 L
289.221 364.679 L
295.127 366.132 L
301.033 366.398 L
306.939 365.781 L
312.845 364.567 L
318.751 362.999 L
324.657 361.265 L
330.563 359.498 L
336.469 357.788 L
342.374 356.189 L
348.28 354.728 L
354.186 353.414 LE
grestore
gsave
1.0 1.0 scale
newpath 0 0 moveto 576 0 lineto 576 432 lineto 0 432 lineto
closepath clip
1 1 1 C
409.067 386.841 521.28 312.427 409.067 312.427 T
409.067 386.841 521.28 386.841 521.28 312.427 T
0.5 W
0.15 0.15 0.15 C
432.691 312.427 LS
432.691 313.556 LE
432.691 386.841 LS
432.691 385.712 LE
462.221 312.427 LS
462.221 313.556 LE
462.221 386.841 LS
462.221 385.712 LE
491.75 312.427 LS
491.75 313.556 LE
491.75 386.841 LS
491.75 385.712 LE
521.28 312.427 LS
521.28 313.556 LE
521.28 386.841 LS
521.28 385.712 LE
gsave
0.14902 0.14902 0.14902 C
(5) [10] 0 429.691 296.886 10 /Helvetica SRX
grestore

gsave
0.14902 0.14902 0.14902 C
(10) [6 10] 0 456.221 296.886 10 /Helvetica SRX
grestore

gsave
0.14902 0.14902 0.14902 C
(15) [6 10] 0 485.75 296.886 10 /Helvetica SRX
grestore

gsave
0.14902 0.14902 0.14902 C
(20) [6 10] 0 515.28 296.886 10 /Helvetica SRX
grestore

409.067 320.831 LS
410.192 320.831 LE
521.28 320.831 LS
520.156 320.831 LE
409.067 331.584 LS
410.192 331.584 LE
521.28 331.584 LS
520.156 331.584 LE
409.067 342.337 LS
410.192 342.337 LE
521.28 342.337 LS
520.156 342.337 LE
409.067 353.09 LS
410.192 353.09 LE
521.28 353.09 LS
520.156 353.09 LE
409.067 363.843 LS
410.192 363.843 LE
521.28 363.843 LS
520.156 363.843 LE
409.067 374.596 LS
410.192 374.596 LE
521.28 374.596 LS
520.156 374.596 LE
409.067 385.349 LS
410.192 385.349 LE
521.28 385.349 LS
520.156 385.349 LE
gsave
0.14902 0.14902 0.14902 C
(0.005) [6 3 6 6 10] 0 377.058 316.831 10 /Helvetica SRX
grestore

gsave
0.14902 0.14902 0.14902 C
(0.01) [6 3 6 10] 0 383.058 327.584 10 /Helvetica SRX
grestore

gsave
0.14902 0.14902 0.14902 C
(0.015) [6 3 6 6 10] 0 377.058 338.337 10 /Helvetica SRX
grestore

gsave
0.14902 0.14902 0.14902 C
(0.02) [6 3 6 10] 0 383.058 349.09 10 /Helvetica SRX
grestore

gsave
0.14902 0.14902 0.14902 C
(0.025) [6 3 6 6 10] 0 377.058 359.843 10 /Helvetica SRX
grestore

gsave
0.14902 0.14902 0.14902 C
(0.03) [6 3 6 10] 0 383.058 370.596 10 /Helvetica SRX
grestore

gsave
0.14902 0.14902 0.14902 C
(0.035) [6 3 6 6 10] 0 377.058 381.349 10 /Helvetica SRX
grestore

2 LC
[16 0] 0 setdash
409.067 312.427 LS
521.28 312.427 LE
409.067 386.841 LS
521.28 386.841 LE
409.067 312.427 LS
409.067 386.841 LE
521.28 312.427 LS
521.28 386.841 LE
gsave
0 0 0 C
(Y_C_hat) [7 6 8 6 7 6 10] 0 443.174 398.841 11 /Helvetica-Bold SRX
grestore

0.9 0.9 0.9 C
409.067 312.427 409.067 315.501 414.973 312.427 T
414.973 322.826 414.973 312.427 409.067 315.501 T
420.879 312.427 414.973 312.427 414.973 322.826 T
420.879 331.805 420.879 312.427 414.973 322.826 T
426.785 312.427 420.879 312.427 420.879 331.805 T
426.785 343.958 426.785 312.427 420.879 331.805 T
432.691 312.427 426.785 312.427 426.785 343.958 T
432.691 360.818 432.691 312.427 426.785 343.958 T
438.597 312.427 432.691 312.427 432.691 360.818 T
438.597 375.684 438.597 312.427 432.691 360.818 T
444.503 312.427 438.597 312.427 438.597 375.684 T
444.503 384.37 444.503 312.427 438.597 375.684 T
450.409 312.427 444.503 312.427 444.503 384.37 T
450.409 386.841 450.409 312.427 444.503 384.37 T
456.315 312.427 450.409 312.427 450.409 386.841 T
456.315 385.768 456.315 312.427 450.409 386.841 T
462.221 312.427 456.315 312.427 456.315 385.768 T
462.221 382.657 462.221 312.427 456.315 385.768 T
468.127 312.427 462.221 312.427 462.221 382.657 T
468.127 377.384 468.127 312.427 462.221 382.657 T
474.033 312.427 468.127 312.427 468.127 377.384 T
474.033 372.117 474.033 312.427 468.127 377.384 T
479.939 312.427 474.033 312.427 474.033 372.117 T
479.939 365.829 479.939 312.427 474.033 372.117 T
485.844 312.427 479.939 312.427 479.939 365.829 T
485.844 361.226 485.844 312.427 479.939 365.829 T
491.75 312.427 485.844 312.427 485.844 361.226 T
491.75 355.162 491.75 312.427 485.844 361.226 T
497.656 312.427 491.75 312.427 491.75 355.162 T
497.656 351.457 497.656 312.427 491.75 355.162 T
503.562 312.427 497.656 312.427 497.656 351.457 T
503.562 347.78 503.562 312.427 497.656 351.457 T
509.468 312.427 503.562 312.427 503.562 347.78 T
509.468 344.652 509.468 312.427 503.562 347.78 T
515.374 312.427 509.468 312.427 509.468 344.652 T
515.374 341.613 515.374 312.427 509.468 344.652 T
521.28 312.427 515.374 312.427 515.374 341.613 T
521.28 338.85 521.28 312.427 515.374 341.613 T
0 LC
[] 0 setdash
0 0 0 C
521.28 338.85 LS
515.374 341.613 L
509.468 344.652 L
503.562 347.78 L
497.656 351.457 L
491.75 355.162 L
485.844 361.226 L
479.939 365.829 L
474.033 372.117 L
468.127 377.384 L
462.221 382.657 L
456.315 385.768 L
450.409 386.841 L
444.503 384.37 L
438.597 375.684 L
432.691 360.818 L
426.785 343.958 L
420.879 331.805 L
414.973 322.826 L
409.067 315.501 L
409.067 312.427 L
414.973 312.427 L
420.879 312.427 L
426.785 312.427 L
432.691 312.427 L
438.597 312.427 L
444.503 312.427 L
450.409 312.427 L
456.315 312.427 L
462.221 312.427 L
468.127 312.427 L
474.033 312.427 L
479.939 312.427 L
485.844 312.427 L
491.75 312.427 L
497.656 312.427 L
503.562 312.427 L
509.468 312.427 L
515.374 312.427 L
521.28 312.427 L
521.28 338.85 LE
1 1 1 C
409.067 312.427 414.973 316.56 414.973 312.427 T
420.879 312.427 414.973 312.427 414.973 316.56 T
420.879 321.659 420.879 312.427 414.973 316.56 T
426.785 312.427 420.879 312.427 420.879 321.659 T
426.785 328.185 426.785 312.427 420.879 321.659 T
432.691 312.427 426.785 312.427 426.785 328.185 T
432.691 334.751 432.691 312.427 426.785 328.185 T
438.597 312.427 432.691 312.427 432.691 334.751 T
438.597 340.763 438.597 312.427 432.691 334.751 T
444.503 312.427 438.597 312.427 438.597 340.763 T
444.503 344.633 444.503 312.427 438.597 340.763 T
450.409 312.427 444.503 312.427 444.503 344.633 T
450.409 346.314 450.409 312.427 444.503 344.633 T
456.315 312.427 450.409 312.427 450.409 346.314 T
456.315 346.789 456.315 312.427 450.409 346.314 T
462.221 312.427 456.315 312.427 456.315 346.789 T
462.221 346.707 462.221 312.427 456.315 346.789 T
468.127 312.427 462.221 312.427 462.221 346.707 T
468.127 345.055 468.127 312.427 462.221 346.707 T
474.033 312.427 468.127 312.427 468.127 345.055 T
474.033 343.241 474.033 312.427 468.127 345.055 T
479.939 312.427 474.033 312.427 474.033 343.241 T
479.939 339.562 479.939 312.427 474.033 343.241 T
485.844 312.427 479.939 312.427 479.939 339.562 T
485.844 337.52 485.844 312.427 479.939 339.562 T
491.75 312.427 485.844 312.427 485.844 337.52 T
491.75 333.602 491.75 312.427 485.844 337.52 T
497.656 312.427 491.75 312.427 491.75 333.602 T
497.656 331.975 497.656 312.427 491.75 333.602 T
503.562 312.427 497.656 312.427 497.656 331.975 T
503.562 330.179 503.562 312.427 497.656 331.975 T
509.468 312.427 503.562 312.427 503.562 330.179 T
509.468 328.655 509.468 312.427 503.562 330.179 T
515.374 312.427 509.468 312.427 509.468 328.655 T
515.374 327.032 515.374 312.427 509.468 328.655 T
521.28 312.427 515.374 312.427 515.374 327.032 T
521.28 325.374 521.28 312.427 515.374 327.032 T
0 0 0 C
521.28 325.374 LS
515.374 327.032 L
509.468 328.655 L
503.562 330.179 L
497.656 331.975 L
491.75 333.602 L
485.844 337.52 L
479.939 339.562 L
474.033 343.241 L
468.127 345.055 L
462.221 346.707 L
456.315 346.789 L
450.409 346.314 L
444.503 344.633 L
438.597 340.763 L
432.691 334.751 L
426.785 328.185 L
420.879 321.659 L
414.973 316.56 L
409.067 312.427 L
414.973 312.427 L
420.879 312.427 L
426.785 312.427 L
432.691 312.427 L
438.597 312.427 L
444.503 312.427 L
450.409 312.427 L
456.315 312.427 L
462.221 312.427 L
468.127 312.427 L
474.033 312.427 L
479.939 312.427 L
485.844 312.427 L
491.75 312.427 L
497.656 312.427 L
503.562 312.427 L
509.468 312.427 L
515.374 312.427 L
521.28 312.427 L
521.28 325.374 LE
3 W
1 LJ
409.067 313.987 LS
414.973 319.825 L
420.879 326.904 L
426.785 335.911 L
432.691 347.889 L
438.597 357.708 L
444.503 363.865 L
450.409 366.487 L
456.315 366.311 L
462.221 364.189 L
468.127 360.879 L
474.033 356.971 L
479.939 352.886 L
485.844 348.903 L
491.75 345.189 L
497.656 341.828 L
503.562 338.853 L
509.468 336.259 L
515.374 334.022 L
521.28 332.105 LE
grestore
gsave
1.0 1.0 scale
newpath 0 0 moveto 576 0 lineto 576 432 lineto 0 432 lineto
closepath clip
1 1 1 C
74.88 254.387 187.093 179.974 74.88 179.974 T
74.88 254.387 187.093 254.387 187.093 179.974 T
0.5 W
0.15 0.15 0.15 C
98.5037 179.974 LS
98.5037 181.102 LE
98.5037 254.387 LS
98.5037 253.258 LE
128.033 179.974 LS
128.033 181.102 LE
128.033 254.387 LS
128.033 253.258 LE
157.563 179.974 LS
157.563 181.102 LE
157.563 254.387 LS
157.563 253.258 LE
187.093 179.974 LS
187.093 181.102 LE
187.093 254.387 LS
187.093 253.258 LE
gsave
0.14902 0.14902 0.14902 C
(5) [10] 0 95.5037 164.432 10 /Helvetica SRX
grestore

gsave
0.14902 0.14902 0.14902 C
(10) [6 10] 0 122.033 164.432 10 /Helvetica SRX
grestore

gsave
0.14902 0.14902 0.14902 C
(15) [6 10] 0 151.563 164.432 10 /Helvetica SRX
grestore

gsave
0.14902 0.14902 0.14902 C
(20) [6 10] 0 181.093 164.432 10 /Helvetica SRX
grestore

74.88 180.335 LS
76.0043 180.335 LE
187.093 180.335 LS
185.968 180.335 LE
74.88 199.952 LS
76.0043 199.952 LE
187.093 199.952 LS
185.968 199.952 LE
74.88 219.57 LS
76.0043 219.57 LE
187.093 219.57 LS
185.968 219.57 LE
74.88 239.188 LS
76.0043 239.188 LE
187.093 239.188 LS
185.968 239.188 LE
gsave
0.14902 0.14902 0.14902 C
(-0.008) [3 6 3 6 6 10] 0 39.8705 176.335 10 /Helvetica SRX
grestore

gsave
0.14902 0.14902 0.14902 C
(-0.006) [3 6 3 6 6 10] 0 39.8705 195.952 10 /Helvetica SRX
grestore

gsave
0.14902 0.14902 0.14902 C
(-0.004) [3 6 3 6 6 10] 0 39.8705 215.57 10 /Helvetica SRX
grestore

gsave
0.14902 0.14902 0.14902 C
(-0.002) [3 6 3 6 6 10] 0 39.8705 235.188 10 /Helvetica SRX
grestore

2 LC
[16 0] 0 setdash
74.88 179.974 LS
187.093 179.974 LE
74.88 254.387 LS
187.093 254.387 LE
74.88 179.974 LS
74.88 254.387 LE
187.093 179.974 LS
187.093 254.387 LE
gsave
0 0 0 C
(L_T_hat) [7 6 7 6 7 6 10] 0 109.486 266.387 11 /Helvetica-Bold SRX
grestore

0.9 0.9 0.9 C
74.88 179.974 74.88 251.379 80.7859 179.974 T
80.7859 247.682 80.7859 179.974 74.88 251.379 T
86.6918 179.974 80.7859 179.974 80.7859 247.682 T
86.6918 243.313 86.6918 179.974 80.7859 247.682 T
92.5978 179.974 86.6918 179.974 86.6918 243.313 T
92.5978 238.338 92.5978 179.974 86.6918 243.313 T
98.5037 179.974 92.5978 179.974 92.5978 238.338 T
98.5037 228.056 98.5037 179.974 92.5978 238.338 T
104.41 179.974 98.5037 179.974 98.5037 228.056 T
104.41 221.468 104.41 179.974 98.5037 228.056 T
110.316 179.974 104.41 179.974 104.41 221.468 T
110.316 218.78 110.316 179.974 104.41 221.468 T
116.221 179.974 110.316 179.974 110.316 218.78 T
116.221 218.593 116.221 179.974 110.316 218.78 T
122.127 179.974 116.221 179.974 116.221 218.593 T
122.127 220.88 122.127 179.974 116.221 218.593 T
128.033 179.974 122.127 179.974 122.127 220.88 T
128.033 225.911 128.033 179.974 122.127 220.88 T
133.939 179.974 128.033 179.974 128.033 225.911 T
133.939 228.053 133.939 179.974 128.033 225.911 T
139.845 179.974 133.939 179.974 133.939 228.053 T
139.845 232.078 139.845 179.974 133.939 228.053 T
145.751 179.974 139.845 179.974 139.845 232.078 T
145.751 235.641 145.751 179.974 139.845 232.078 T
151.657 179.974 145.751 179.974 145.751 235.641 T
151.657 239.308 151.657 179.974 145.751 235.641 T
157.563 179.974 151.657 179.974 151.657 239.308 T
157.563 243.308 157.563 179.974 151.657 239.308 T
163.469 179.974 157.563 179.974 157.563 243.308 T
163.469 245.976 163.469 179.974 157.563 243.308 T
169.375 179.974 163.469 179.974 163.469 245.976 T
169.375 248.343 169.375 179.974 163.469 245.976 T
175.281 179.974 169.375 179.974 169.375 248.343 T
175.281 251.063 175.281 179.974 169.375 248.343 T
181.187 179.974 175.281 179.974 175.281 251.063 T
181.187 252.806 181.187 179.974 175.281 251.063 T
187.093 179.974 181.187 179.974 181.187 252.806 T
187.093 254.387 187.093 179.974 181.187 252.806 T
0 LC
[] 0 setdash
0 0 0 C
187.093 254.387 LS
181.187 252.806 L
175.281 251.063 L
169.375 248.343 L
163.469 245.976 L
157.563 243.308 L
151.657 239.308 L
145.751 235.641 L
139.845 232.078 L
133.939 228.053 L
128.033 225.911 L
122.127 220.88 L
116.221 218.593 L
110.316 218.78 L
104.41 221.468 L
98.5037 228.056 L
92.5978 238.338 L
86.6918 243.313 L
80.7859 247.682 L
74.88 251.379 L
74.88 179.974 L
80.7859 179.974 L
86.6918 179.974 L
92.5978 179.974 L
98.5037 179.974 L
104.41 179.974 L
110.316 179.974 L
116.221 179.974 L
122.127 179.974 L
128.033 179.974 L
133.939 179.974 L
139.845 179.974 L
145.751 179.974 L
151.657 179.974 L
157.563 179.974 L
163.469 179.974 L
169.375 179.974 L
175.281 179.974 L
181.187 179.974 L
187.093 179.974 L
187.093 254.387 LE
1 1 1 C
110.316 179.974 116.221 180.04 116.221 179.974 T
122.127 179.974 116.221 179.974 116.221 180.04 T
122.127 184.504 122.127 179.974 116.221 180.04 T
128.033 179.974 122.127 179.974 122.127 184.504 T
128.033 193.525 128.033 179.974 122.127 184.504 T
133.939 179.974 128.033 179.974 128.033 193.525 T
133.939 199.948 133.939 179.974 128.033 193.525 T
139.845 179.974 133.939 179.974 133.939 199.948 T
139.845 208.295 139.845 179.974 133.939 199.948 T
145.751 179.974 139.845 179.974 139.845 208.295 T
145.751 215.561 145.751 179.974 139.845 208.295 T
151.657 179.974 145.751 179.974 145.751 215.561 T
151.657 222.515 151.657 179.974 145.751 215.561 T
157.563 179.974 151.657 179.974 151.657 222.515 T
157.563 229.55 157.563 179.974 151.657 222.515 T
163.469 179.974 157.563 179.974 157.563 229.55 T
163.469 234.751 163.469 179.974 157.563 229.55 T
169.375 179.974 163.469 179.974 163.469 234.751 T
169.375 238.971 169.375 179.974 163.469 234.751 T
175.281 179.974 169.375 179.974 169.375 238.971 T
175.281 243.254 175.281 179.974 169.375 238.971 T
181.187 179.974 175.281 179.974 175.281 243.254 T
181.187 246.256 181.187 179.974 175.281 243.254 T
187.093 179.974 181.187 179.974 181.187 246.256 T
187.093 248.774 187.093 179.974 181.187 246.256 T
74.88 179.974 74.88 243.517 80.7859 179.974 T
80.7859 236.915 80.7859 179.974 74.88 243.517 T
86.6918 179.974 80.7859 179.974 80.7859 236.915 T
86.6918 229.199 86.6918 179.974 80.7859 236.915 T
92.5978 179.974 86.6918 179.974 86.6918 229.199 T
92.5978 218.894 92.5978 179.974 86.6918 229.199 T
98.5037 179.974 92.5978 179.974 92.5978 218.894 T
98.5037 199.336 98.5037 179.974 92.5978 218.894 T
104.41 179.974 98.5037 179.974 98.5037 199.336 T
104.41 185.695 104.41 179.974 98.5037 199.336 T
110.316 179.974 104.41 179.974 104.41 185.695 T
0 0 0 C
110.316 179.974 LS
104.41 185.695 L
98.5037 199.336 L
92.5978 218.894 L
86.6918 229.199 L
80.7859 236.915 L
74.88 243.517 L
74.88 179.974 L
80.7859 179.974 L
86.6918 179.974 L
92.5978 179.974 L
98.5037 179.974 L
104.41 179.974 L
110.316 179.974 LE
187.093 248.774 LS
181.187 246.256 L
175.281 243.254 L
169.375 238.971 L
163.469 234.751 L
157.563 229.55 L
151.657 222.515 L
145.751 215.561 L
139.845 208.295 L
133.939 199.948 L
128.033 193.525 L
122.127 184.504 L
116.221 180.04 L
110.316 179.974 L
116.221 179.974 L
122.127 179.974 L
128.033 179.974 L
133.939 179.974 L
139.845 179.974 L
145.751 179.974 L
151.657 179.974 L
157.563 179.974 L
163.469 179.974 L
169.375 179.974 L
175.281 179.974 L
181.187 179.974 L
187.093 179.974 L
187.093 248.774 LE
3 W
1 LJ
74.88 247.508 LS
80.7859 241.657 L
86.6918 236.071 L
92.5978 228.268 L
98.5037 213.968 L
104.41 204.128 L
110.316 199.894 L
116.221 200.157 L
122.127 203.458 L
128.033 208.526 L
133.939 214.411 L
139.845 220.463 L
145.751 226.272 L
151.657 231.61 L
157.563 236.368 L
163.469 240.519 L
169.375 244.086 L
175.281 247.116 L
181.187 249.669 L
187.093 251.81 LE
grestore
gsave
1.0 1.0 scale
newpath 0 0 moveto 576 0 lineto 576 432 lineto 0 432 lineto
closepath clip
1 1 1 C
241.974 254.387 354.186 179.974 241.974 179.974 T
241.974 254.387 354.186 254.387 354.186 179.974 T
0.5 W
0.15 0.15 0.15 C
265.597 179.974 LS
265.597 181.102 LE
265.597 254.387 LS
265.597 253.258 LE
295.127 179.974 LS
295.127 181.102 LE
295.127 254.387 LS
295.127 253.258 LE
324.657 179.974 LS
324.657 181.102 LE
324.657 254.387 LS
324.657 253.258 LE
354.186 179.974 LS
354.186 181.102 LE
354.186 254.387 LS
354.186 253.258 LE
gsave
0.14902 0.14902 0.14902 C
(5) [10] 0 262.597 164.432 10 /Helvetica SRX
grestore

gsave
0.14902 0.14902 0.14902 C
(10) [6 10] 0 289.127 164.432 10 /Helvetica SRX
grestore

gsave
0.14902 0.14902 0.14902 C
(15) [6 10] 0 318.657 164.432 10 /Helvetica SRX
grestore

gsave
0.14902 0.14902 0.14902 C
(20) [6 10] 0 348.186 164.432 10 /Helvetica SRX
grestore

241.974 181.238 LS
243.098 181.238 LE
354.186 181.238 LS
353.062 181.238 LE
241.974 192.142 LS
243.098 192.142 LE
354.186 192.142 LS
353.062 192.142 LE
241.974 203.047 LS
243.098 203.047 LE
354.186 203.047 LS
353.062 203.047 LE
241.974 213.951 LS
243.098 213.951 LE
354.186 213.951 LS
353.062 213.951 LE
241.974 224.856 LS
243.098 224.856 LE
354.186 224.856 LS
353.062 224.856 LE
241.974 235.76 LS
243.098 235.76 LE
354.186 235.76 LS
353.062 235.76 LE
241.974 246.665 LS
243.098 246.665 LE
354.186 246.665 LS
353.062 246.665 LE
gsave
0.14902 0.14902 0.14902 C
(0.0005) [6 3 6 6 6 10] 0 203.964 177.238 10 /Helvetica SRX
grestore

gsave
0.14902 0.14902 0.14902 C
(0.001) [6 3 6 6 10] 0 209.964 188.142 10 /Helvetica SRX
grestore

gsave
0.14902 0.14902 0.14902 C
(0.0015) [6 3 6 6 6 10] 0 203.964 199.047 10 /Helvetica SRX
grestore

gsave
0.14902 0.14902 0.14902 C
(0.002) [6 3 6 6 10] 0 209.964 209.951 10 /Helvetica SRX
grestore

gsave
0.14902 0.14902 0.14902 C
(0.0025) [6 3 6 6 6 10] 0 203.964 220.856 10 /Helvetica SRX
grestore

gsave
0.14902 0.14902 0.14902 C
(0.003) [6 3 6 6 10] 0 209.964 231.76 10 /Helvetica SRX
grestore

gsave
0.14902 0.14902 0.14902 C
(0.0035) [6 3 6 6 6 10] 0 203.964 242.665 10 /Helvetica SRX
grestore

2 LC
[16 0] 0 setdash
241.974 179.974 LS
354.186 179.974 LE
241.974 254.387 LS
354.186 254.387 LE
241.974 179.974 LS
241.974 254.387 LE
354.186 179.974 LS
354.186 254.387 LE
gsave
0 0 0 C
(L_N_hat) [7 6 8 6 7 6 10] 0 276.08 266.387 11 /Helvetica-Bold SRX
grestore

0.9 0.9 0.9 C
241.974 179.974 241.974 188.536 247.88 179.974 T
247.88 200.383 247.88 179.974 241.974 188.536 T
253.786 179.974 247.88 179.974 247.88 200.383 T
253.786 209.246 253.786 179.974 247.88 200.383 T
259.691 179.974 253.786 179.974 253.786 209.246 T
259.691 219.384 259.691 179.974 253.786 209.246 T
265.597 179.974 259.691 179.974 259.691 219.384 T
265.597 228.911 265.597 179.974 259.691 219.384 T
271.503 179.974 265.597 179.974 265.597 228.911 T
271.503 238.624 271.503 179.974 265.597 228.911 T
277.409 179.974 271.503 179.974 271.503 238.624 T
277.409 246.835 277.409 179.974 271.503 238.624 T
283.315 179.974 277.409 179.974 277.409 246.835 T
283.315 252.769 283.315 179.974 277.409 246.835 T
289.221 179.974 283.315 179.974 283.315 252.769 T
289.221 254.387 289.221 179.974 283.315 252.769 T
295.127 179.974 289.221 179.974 289.221 254.387 T
295.127 253.552 295.127 179.974 289.221 254.387 T
301.033 179.974 295.127 179.974 295.127 253.552 T
301.033 252.867 301.033 179.974 295.127 253.552 T
306.939 179.974 301.033 179.974 301.033 252.867 T
306.939 249.429 306.939 179.974 301.033 252.867 T
312.845 179.974 306.939 179.974 306.939 249.429 T
312.845 246.805 312.845 179.974 306.939 249.429 T
318.751 179.974 312.845 179.974 312.845 246.805 T
318.751 245.131 318.751 179.974 312.845 246.805 T
324.657 179.974 318.751 179.974 318.751 245.131 T
324.657 238.99 324.657 179.974 318.751 245.131 T
330.563 179.974 324.657 179.974 324.657 238.99 T
330.563 234.842 330.563 179.974 324.657 238.99 T
336.469 179.974 330.563 179.974 330.563 234.842 T
336.469 231.192 336.469 179.974 330.563 234.842 T
342.374 179.974 336.469 179.974 336.469 231.192 T
342.374 227.908 342.374 179.974 336.469 231.192 T
348.28 179.974 342.374 179.974 342.374 227.908 T
348.28 225.074 348.28 179.974 342.374 227.908 T
354.186 179.974 348.28 179.974 348.28 225.074 T
354.186 222.095 354.186 179.974 348.28 225.074 T
0 LC
[] 0 setdash
0 0 0 C
354.186 222.095 LS
348.28 225.074 L
342.374 227.908 L
336.469 231.192 L
330.563 234.842 L
324.657 238.99 L
318.751 245.131 L
312.845 246.805 L
306.939 249.429 L
301.033 252.867 L
295.127 253.552 L
289.221 254.387 L
283.315 252.769 L
277.409 246.835 L
271.503 238.624 L
265.597 228.911 L
259.691 219.384 L
253.786 209.246 L
247.88 200.383 L
241.974 188.536 L
241.974 179.974 L
247.88 179.974 L
253.786 179.974 L
259.691 179.974 L
265.597 179.974 L
271.503 179.974 L
277.409 179.974 L
283.315 179.974 L
289.221 179.974 L
295.127 179.974 L
301.033 179.974 L
306.939 179.974 L
312.845 179.974 L
318.751 179.974 L
324.657 179.974 L
330.563 179.974 L
336.469 179.974 L
342.374 179.974 L
348.28 179.974 L
354.186 179.974 L
354.186 222.095 LE
1 1 1 C
241.974 179.974 247.88 187.048 247.88 179.974 T
253.786 179.974 247.88 179.974 247.88 187.048 T
253.786 191.506 253.786 179.974 247.88 187.048 T
259.691 179.974 253.786 179.974 253.786 191.506 T
259.691 196.868 259.691 179.974 253.786 191.506 T
265.597 179.974 259.691 179.974 259.691 196.868 T
265.597 199.54 265.597 179.974 259.691 196.868 T
271.503 179.974 265.597 179.974 265.597 199.54 T
271.503 201.942 271.503 179.974 265.597 199.54 T
277.409 179.974 271.503 179.974 271.503 201.942 T
277.409 205.112 277.409 179.974 271.503 201.942 T
283.315 179.974 277.409 179.974 277.409 205.112 T
283.315 208.767 283.315 179.974 277.409 205.112 T
289.221 179.974 283.315 179.974 283.315 208.767 T
289.221 210.382 289.221 179.974 283.315 208.767 T
295.127 179.974 289.221 179.974 289.221 210.382 T
295.127 210.858 295.127 179.974 289.221 210.382 T
301.033 179.974 295.127 179.974 295.127 210.858 T
301.033 212.635 301.033 179.974 295.127 210.858 T
306.939 179.974 301.033 179.974 301.033 212.635 T
306.939 210.973 306.939 179.974 301.033 212.635 T
312.845 179.974 306.939 179.974 306.939 210.973 T
312.845 210.279 312.845 179.974 306.939 210.973 T
318.751 179.974 312.845 179.974 312.845 210.279 T
318.751 210.269 318.751 179.974 312.845 210.279 T
324.657 179.974 318.751 179.974 318.751 210.269 T
324.657 206.152 324.657 179.974 318.751 210.269 T
330.563 179.974 324.657 179.974 324.657 206.152 T
330.563 203.423 330.563 179.974 324.657 206.152 T
336.469 179.974 330.563 179.974 330.563 203.423 T
336.469 201.368 336.469 179.974 330.563 203.423 T
342.374 179.974 336.469 179.974 336.469 201.368 T
342.374 199.555 342.374 179.974 336.469 201.368 T
348.28 179.974 342.374 179.974 342.374 199.555 T
348.28 198.237 348.28 179.974 342.374 199.555 T
354.186 179.974 348.28 179.974 348.28 198.237 T
354.186 196.412 354.186 179.974 348.28 198.237 T
0 0 0 C
354.186 196.412 LS
348.28 198.237 L
342.374 199.555 L
336.469 201.368 L
330.563 203.423 L
324.657 206.152 L
318.751 210.269 L
312.845 210.279 L
306.939 210.973 L
301.033 212.635 L
295.127 210.858 L
289.221 210.382 L
283.315 208.767 L
277.409 205.112 L
271.503 201.942 L
265.597 199.54 L
259.691 196.868 L
253.786 191.506 L
247.88 187.048 L
241.974 179.974 L
247.88 179.974 L
253.786 179.974 L
259.691 179.974 L
265.597 179.974 L
271.503 179.974 L
277.409 179.974 L
283.315 179.974 L
289.221 179.974 L
295.127 179.974 L
301.033 179.974 L
306.939 179.974 L
312.845 179.974 L
318.751 179.974 L
324.657 179.974 L
330.563 179.974 L
336.469 179.974 L
342.374 179.974 L
348.28 179.974 L
354.186 179.974 L
354.186 196.412 LE
3 W
1 LJ
241.974 184.378 LS
247.88 193.235 L
253.786 200.386 L
259.691 207.393 L
265.597 214.549 L
271.503 221.465 L
277.409 227.284 L
283.315 231.39 L
289.221 233.602 L
295.127 234.079 L
301.033 233.162 L
306.939 231.247 L
312.845 228.706 L
318.751 225.846 L
324.657 222.901 L
330.563 220.032 L
336.469 217.343 L
342.374 214.891 L
348.28 212.7 L
354.186 210.771 LE
grestore
gsave
1.0 1.0 scale
newpath 0 0 moveto 576 0 lineto 576 432 lineto 0 432 lineto
closepath clip
1 1 1 C
409.067 254.387 521.28 179.974 409.067 179.974 T
409.067 254.387 521.28 254.387 521.28 179.974 T
0.5 W
0.15 0.15 0.15 C
432.691 179.974 LS
432.691 181.102 LE
432.691 254.387 LS
432.691 253.258 LE
462.221 179.974 LS
462.221 181.102 LE
462.221 254.387 LS
462.221 253.258 LE
491.75 179.974 LS
491.75 181.102 LE
491.75 254.387 LS
491.75 253.258 LE
521.28 179.974 LS
521.28 181.102 LE
521.28 254.387 LS
521.28 253.258 LE
gsave
0.14902 0.14902 0.14902 C
(5) [10] 0 429.691 164.432 10 /Helvetica SRX
grestore

gsave
0.14902 0.14902 0.14902 C
(10) [6 10] 0 456.221 164.432 10 /Helvetica SRX
grestore

gsave
0.14902 0.14902 0.14902 C
(15) [6 10] 0 485.75 164.432 10 /Helvetica SRX
grestore

gsave
0.14902 0.14902 0.14902 C
(20) [6 10] 0 515.28 164.432 10 /Helvetica SRX
grestore

409.067 193.338 LS
410.192 193.338 LE
521.28 193.338 LS
520.156 193.338 LE
409.067 209.402 LS
410.192 209.402 LE
521.28 209.402 LS
520.156 209.402 LE
409.067 225.466 LS
410.192 225.466 LE
521.28 225.466 LS
520.156 225.466 LE
409.067 241.53 LS
410.192 241.53 LE
521.28 241.53 LS
520.156 241.53 LE
gsave
0.14902 0.14902 0.14902 C
(0.01) [6 3 6 10] 0 383.058 189.338 10 /Helvetica SRX
grestore

gsave
0.14902 0.14902 0.14902 C
(0.02) [6 3 6 10] 0 383.058 205.402 10 /Helvetica SRX
grestore

gsave
0.14902 0.14902 0.14902 C
(0.03) [6 3 6 10] 0 383.058 221.466 10 /Helvetica SRX
grestore

gsave
0.14902 0.14902 0.14902 C
(0.04) [6 3 6 10] 0 383.058 237.53 10 /Helvetica SRX
grestore

2 LC
[16 0] 0 setdash
409.067 179.974 LS
521.28 179.974 LE
409.067 254.387 LS
521.28 254.387 LE
409.067 179.974 LS
409.067 254.387 LE
521.28 179.974 LS
521.28 254.387 LE
gsave
0 0 0 C
(L_C_hat) [7 6 8 6 7 6 10] 0 443.174 266.387 11 /Helvetica-Bold SRX
grestore

0.9 0.9 0.9 C
409.067 179.974 409.067 183.506 414.973 179.974 T
414.973 190.316 414.973 179.974 409.067 183.506 T
420.879 179.974 414.973 179.974 414.973 190.316 T
420.879 198.98 420.879 179.974 414.973 190.316 T
426.785 179.974 420.879 179.974 420.879 198.98 T
426.785 211.037 426.785 179.974 420.879 198.98 T
432.691 179.974 426.785 179.974 426.785 211.037 T
432.691 229.168 432.691 179.974 426.785 211.037 T
438.597 179.974 432.691 179.974 432.691 229.168 T
438.597 244.421 438.597 179.974 432.691 229.168 T
444.503 179.974 438.597 179.974 438.597 244.421 T
444.503 253.298 444.503 179.974 438.597 244.421 T
450.409 179.974 444.503 179.974 444.503 253.298 T
450.409 254.387 450.409 179.974 444.503 253.298 T
456.315 179.974 450.409 179.974 450.409 254.387 T
456.315 252.468 456.315 179.974 450.409 254.387 T
462.221 179.974 456.315 179.974 456.315 252.468 T
462.221 247.271 462.221 179.974 456.315 252.468 T
468.127 179.974 462.221 179.974 462.221 247.271 T
468.127 241.482 468.127 179.974 462.221 247.271 T
474.033 179.974 468.127 179.974 468.127 241.482 T
474.033 234.977 474.033 179.974 468.127 241.482 T
479.939 179.974 474.033 179.974 474.033 234.977 T
479.939 228.277 479.939 179.974 474.033 234.977 T
485.844 179.974 479.939 179.974 479.939 228.277 T
485.844 222.068 485.844 179.974 479.939 228.277 T
491.75 179.974 485.844 179.974 485.844 222.068 T
491.75 216.858 491.75 179.974 485.844 222.068 T
497.656 179.974 491.75 179.974 491.75 216.858 T
497.656 211.842 497.656 179.974 491.75 216.858 T
503.562 179.974 497.656 179.974 497.656 211.842 T
503.562 207.075 503.562 179.974 497.656 211.842 T
509.468 179.974 503.562 179.974 503.562 207.075 T
509.468 203.136 509.468 179.974 503.562 207.075 T
515.374 179.974 509.468 179.974 509.468 203.136 T
515.374 200.316 515.374 179.974 509.468 203.136 T
521.28 179.974 515.374 179.974 515.374 200.316 T
521.28 197.416 521.28 179.974 515.374 200.316 T
0 LC
[] 0 setdash
0 0 0 C
521.28 197.416 LS
515.374 200.316 L
509.468 203.136 L
503.562 207.075 L
497.656 211.842 L
491.75 216.858 L
485.844 222.068 L
479.939 228.277 L
474.033 234.977 L
468.127 241.482 L
462.221 247.271 L
456.315 252.468 L
450.409 254.387 L
444.503 253.298 L
438.597 244.421 L
432.691 229.168 L
426.785 211.037 L
420.879 198.98 L
414.973 190.316 L
409.067 183.506 L
409.067 179.974 L
414.973 179.974 L
420.879 179.974 L
426.785 179.974 L
432.691 179.974 L
438.597 179.974 L
444.503 179.974 L
450.409 179.974 L
456.315 179.974 L
462.221 179.974 L
468.127 179.974 L
474.033 179.974 L
479.939 179.974 L
485.844 179.974 L
491.75 179.974 L
497.656 179.974 L
503.562 179.974 L
509.468 179.974 L
515.374 179.974 L
521.28 179.974 L
521.28 197.416 LE
1 1 1 C
409.067 179.974 414.973 183.676 414.973 179.974 T
420.879 179.974 414.973 179.974 414.973 183.676 T
420.879 188.861 420.879 179.974 414.973 183.676 T
426.785 179.974 420.879 179.974 420.879 188.861 T
426.785 195.344 426.785 179.974 420.879 188.861 T
432.691 179.974 426.785 179.974 426.785 195.344 T
432.691 202.212 432.691 179.974 426.785 195.344 T
438.597 179.974 432.691 179.974 432.691 202.212 T
438.597 207.734 438.597 179.974 432.691 202.212 T
444.503 179.974 438.597 179.974 438.597 207.734 T
444.503 211.624 444.503 179.974 438.597 207.734 T
450.409 179.974 444.503 179.974 444.503 211.624 T
450.409 212.345 450.409 179.974 444.503 211.624 T
456.315 179.974 450.409 179.974 450.409 212.345 T
456.315 212.73 456.315 179.974 450.409 212.345 T
462.221 179.974 456.315 179.974 456.315 212.73 T
462.221 211.629 462.221 179.974 456.315 212.73 T
468.127 179.974 462.221 179.974 462.221 211.629 T
468.127 210.018 468.127 179.974 462.221 211.629 T
474.033 179.974 468.127 179.974 468.127 210.018 T
474.033 207.82 474.033 179.974 468.127 210.018 T
479.939 179.974 474.033 179.974 474.033 207.82 T
479.939 204.616 479.939 179.974 474.033 207.82 T
485.844 179.974 479.939 179.974 479.939 204.616 T
485.844 201.321 485.844 179.974 479.939 204.616 T
491.75 179.974 485.844 179.974 485.844 201.321 T
491.75 198.626 491.75 179.974 485.844 201.321 T
497.656 179.974 491.75 179.974 491.75 198.626 T
497.656 195.966 497.656 179.974 491.75 198.626 T
503.562 179.974 497.656 179.974 497.656 195.966 T
503.562 193.27 503.562 179.974 497.656 195.966 T
509.468 179.974 503.562 179.974 503.562 193.27 T
509.468 191.048 509.468 179.974 503.562 193.27 T
515.374 179.974 509.468 179.974 509.468 191.048 T
515.374 189.394 515.374 179.974 509.468 191.048 T
521.28 179.974 515.374 179.974 515.374 189.394 T
521.28 187.685 521.28 179.974 515.374 189.394 T
0 0 0 C
521.28 187.685 LS
515.374 189.394 L
509.468 191.048 L
503.562 193.27 L
497.656 195.966 L
491.75 198.626 L
485.844 201.321 L
479.939 204.616 L
474.033 207.82 L
468.127 210.018 L
462.221 211.629 L
456.315 212.73 L
450.409 212.345 L
444.503 211.624 L
438.597 207.734 L
432.691 202.212 L
426.785 195.344 L
420.879 188.861 L
414.973 183.676 L
409.067 179.974 L
414.973 179.974 L
420.879 179.974 L
426.785 179.974 L
432.691 179.974 L
438.597 179.974 L
444.503 179.974 L
450.409 179.974 L
456.315 179.974 L
462.221 179.974 L
468.127 179.974 L
474.033 179.974 L
479.939 179.974 L
485.844 179.974 L
491.75 179.974 L
497.656 179.974 L
503.562 179.974 L
509.468 179.974 L
515.374 179.974 L
521.28 179.974 L
521.28 187.685 LE
3 W
1 LJ
409.067 181.766 LS
414.973 187.15 L
420.879 193.95 L
426.785 202.959 L
432.691 215.382 L
438.597 225.438 L
444.503 231.454 L
450.409 233.594 L
456.315 232.701 L
462.221 229.739 L
468.127 225.558 L
474.033 220.815 L
479.939 215.972 L
485.844 211.33 L
491.75 207.065 L
497.656 203.26 L
503.562 199.94 L
509.468 197.09 L
515.374 194.673 L
521.28 192.643 LE
grestore
gsave
1.0 1.0 scale
newpath 0 0 moveto 576 0 lineto 576 432 lineto 0 432 lineto
closepath clip
1 1 1 C
74.88 121.933 187.093 47.52 74.88 47.52 T
74.88 121.933 187.093 121.933 187.093 47.52 T
0.5 W
0.15 0.15 0.15 C
98.5037 47.52 LS
98.5037 48.6484 LE
98.5037 121.933 LS
98.5037 120.805 LE
128.033 47.52 LS
128.033 48.6484 LE
128.033 121.933 LS
128.033 120.805 LE
157.563 47.52 LS
157.563 48.6484 LE
157.563 121.933 LS
157.563 120.805 LE
187.093 47.52 LS
187.093 48.6484 LE
187.093 121.933 LS
187.093 120.805 LE
gsave
0.14902 0.14902 0.14902 C
(5) [10] 0 95.5037 31.9781 10 /Helvetica SRX
grestore

gsave
0.14902 0.14902 0.14902 C
(10) [6 10] 0 122.033 31.9781 10 /Helvetica SRX
grestore

gsave
0.14902 0.14902 0.14902 C
(15) [6 10] 0 151.563 31.9781 10 /Helvetica SRX
grestore

gsave
0.14902 0.14902 0.14902 C
(20) [6 10] 0 181.093 31.9781 10 /Helvetica SRX
grestore

74.88 58.5959 LS
76.0043 58.5959 LE
187.093 58.5959 LS
185.968 58.5959 LE
74.88 76.613 LS
76.0043 76.613 LE
187.093 76.613 LS
185.968 76.613 LE
74.88 94.6301 LS
76.0043 94.6301 LE
187.093 94.6301 LS
185.968 94.6301 LE
74.88 112.647 LS
76.0043 112.647 LE
187.093 112.647 LS
185.968 112.647 LE
gsave
0.14902 0.14902 0.14902 C
(-0.01) [3 6 3 6 10] 0 45.8705 54.5959 10 /Helvetica SRX
grestore

gsave
0.14902 0.14902 0.14902 C
(-0.005) [3 6 3 6 6 10] 0 39.8705 72.613 10 /Helvetica SRX
grestore

gsave
0.14902 0.14902 0.14902 C
(0) [10] 0 63.8705 90.6301 10 /Helvetica SRX
grestore

gsave
0.14902 0.14902 0.14902 C
(0.005) [6 3 6 6 10] 0 42.8705 108.647 10 /Helvetica SRX
grestore

2 LC
[16 0] 0 setdash
74.88 47.52 LS
187.093 47.52 LE
74.88 121.933 LS
187.093 121.933 LE
74.88 47.52 LS
74.88 121.933 LE
187.093 47.52 LS
187.093 121.933 LE
gsave
0 0 0 C
(I_T_hat) [3 6 7 6 7 6 10] 0 111.486 133.933 11 /Helvetica-Bold SRX
grestore

0.9 0.9 0.9 C
74.88 47.52 74.88 74.9856 80.7859 47.52 T
80.7859 75.3778 80.7859 47.52 74.88 74.9856 T
86.6918 47.52 80.7859 47.52 80.7859 75.3778 T
86.6918 76.2395 86.6918 47.52 80.7859 75.3778 T
92.5978 47.52 86.6918 47.52 86.6918 76.2395 T
92.5978 77.5401 92.5978 47.52 86.6918 76.2395 T
98.5037 47.52 92.5978 47.52 92.5978 77.5401 T
98.5037 83.2632 98.5037 47.52 92.5978 77.5401 T
104.41 47.52 98.5037 47.52 98.5037 83.2632 T
104.41 91.3779 104.41 47.52 98.5037 83.2632 T
110.316 47.52 104.41 47.52 104.41 91.3779 T
110.316 95.971 110.316 47.52 104.41 91.3779 T
116.221 47.52 110.316 47.52 110.316 95.971 T
116.221 102.095 116.221 47.52 110.316 95.971 T
122.127 47.52 116.221 47.52 116.221 102.095 T
122.127 106.634 122.127 47.52 116.221 102.095 T
128.033 47.52 122.127 47.52 122.127 106.634 T
128.033 111.831 128.033 47.52 122.127 106.634 T
133.939 47.52 128.033 47.52 128.033 111.831 T
133.939 116.536 133.939 47.52 128.033 111.831 T
139.845 47.52 133.939 47.52 133.939 116.536 T
139.845 119.112 139.845 47.52 133.939 116.536 T
145.751 47.52 139.845 47.52 139.845 119.112 T
145.751 120.394 145.751 47.52 139.845 119.112 T
151.657 47.52 145.751 47.52 145.751 120.394 T
151.657 121.265 151.657 47.52 145.751 120.394 T
157.563 47.52 151.657 47.52 151.657 121.265 T
157.563 121.933 157.563 47.52 151.657 121.265 T
163.469 47.52 157.563 47.52 157.563 121.933 T
163.469 121.03 163.469 47.52 157.563 121.933 T
169.375 47.52 163.469 47.52 163.469 121.03 T
169.375 120.249 169.375 47.52 163.469 121.03 T
175.281 47.52 169.375 47.52 169.375 120.249 T
175.281 119.681 175.281 47.52 169.375 120.249 T
181.187 47.52 175.281 47.52 175.281 119.681 T
181.187 118.684 181.187 47.52 175.281 119.681 T
187.093 47.52 181.187 47.52 181.187 118.684 T
187.093 116.883 187.093 47.52 181.187 118.684 T
0 LC
[] 0 setdash
0 0 0 C
187.093 116.883 LS
181.187 118.684 L
175.281 119.681 L
169.375 120.249 L
163.469 121.03 L
157.563 121.933 L
151.657 121.265 L
145.751 120.394 L
139.845 119.112 L
133.939 116.536 L
128.033 111.831 L
122.127 106.634 L
116.221 102.095 L
110.316 95.971 L
104.41 91.3779 L
98.5037 83.2632 L
92.5978 77.5401 L
86.6918 76.2395 L
80.7859 75.3778 L
74.88 74.9856 L
74.88 47.52 L
80.7859 47.52 L
86.6918 47.52 L
92.5978 47.52 L
98.5037 47.52 L
104.41 47.52 L
110.316 47.52 L
116.221 47.52 L
122.127 47.52 L
128.033 47.52 L
133.939 47.52 L
139.845 47.52 L
145.751 47.52 L
151.657 47.52 L
157.563 47.52 L
163.469 47.52 L
169.375 47.52 L
175.281 47.52 L
181.187 47.52 L
187.093 47.52 L
187.093 116.883 LE
1 1 1 C
80.7859 47.52 86.6918 48.2562 86.6918 47.52 T
92.5978 47.52 86.6918 47.52 86.6918 48.2562 T
92.5978 50.017 92.5978 47.52 86.6918 48.2562 T
98.5037 47.52 92.5978 47.52 92.5978 50.017 T
98.5037 58.1704 98.5037 47.52 92.5978 50.017 T
104.41 47.52 98.5037 47.52 98.5037 58.1704 T
104.41 71.0991 104.41 47.52 98.5037 58.1704 T
110.316 47.52 104.41 47.52 104.41 71.0991 T
110.316 81.0023 110.316 47.52 104.41 71.0991 T
116.221 47.52 110.316 47.52 110.316 81.0023 T
116.221 90.3649 116.221 47.52 110.316 81.0023 T
122.127 47.52 116.221 47.52 116.221 90.3649 T
122.127 95.4325 122.127 47.52 116.221 90.3649 T
128.033 47.52 122.127 47.52 122.127 95.4325 T
128.033 99.4168 128.033 47.52 122.127 95.4325 T
133.939 47.52 128.033 47.52 128.033 99.4168 T
133.939 102.619 133.939 47.52 128.033 99.4168 T
139.845 47.52 133.939 47.52 133.939 102.619 T
139.845 104.309 139.845 47.52 133.939 102.619 T
145.751 47.52 139.845 47.52 139.845 104.309 T
145.751 104.985 145.751 47.52 139.845 104.309 T
151.657 47.52 145.751 47.52 145.751 104.985 T
151.657 105.66 151.657 47.52 145.751 104.985 T
157.563 47.52 151.657 47.52 151.657 105.66 T
157.563 106.433 157.563 47.52 151.657 105.66 T
163.469 47.52 157.563 47.52 157.563 106.433 T
163.469 106.133 163.469 47.52 157.563 106.433 T
169.375 47.52 163.469 47.52 163.469 106.133 T
169.375 106.103 169.375 47.52 163.469 106.133 T
175.281 47.52 169.375 47.52 169.375 106.103 T
175.281 106.467 175.281 47.52 169.375 106.103 T
181.187 47.52 175.281 47.52 175.281 106.467 T
181.187 106.274 181.187 47.52 175.281 106.467 T
187.093 47.52 181.187 47.52 181.187 106.274 T
187.093 105.296 187.093 47.52 181.187 106.274 T
74.88 47.52 74.88 47.7183 80.7859 47.52 T
0 0 0 C
80.7859 47.52 LS
74.88 47.7183 L
74.88 47.52 L
80.7859 47.52 LE
187.093 105.296 LS
181.187 106.274 L
175.281 106.467 L
169.375 106.103 L
163.469 106.133 L
157.563 106.433 L
151.657 105.66 L
145.751 104.985 L
139.845 104.309 L
133.939 102.619 L
128.033 99.4168 L
122.127 95.4325 L
116.221 90.3649 L
110.316 81.0023 L
104.41 71.0991 L
98.5037 58.1704 L
92.5978 50.017 L
86.6918 48.2562 L
80.7859 47.52 L
86.6918 47.52 L
92.5978 47.52 L
98.5037 47.52 L
104.41 47.52 L
110.316 47.52 L
116.221 47.52 L
122.127 47.52 L
128.033 47.52 L
133.939 47.52 L
139.845 47.52 L
145.751 47.52 L
151.657 47.52 L
157.563 47.52 L
163.469 47.52 L
169.375 47.52 L
175.281 47.52 L
181.187 47.52 L
187.093 47.52 L
187.093 105.296 LE
3 W
1 LJ
74.88 61.4661 LS
80.7859 61.3926 L
86.6918 62.4886 L
92.5978 65.1412 L
98.5037 71.9546 L
104.41 80.2657 L
110.316 88.4578 L
116.221 95.6857 L
122.127 101.605 L
128.033 106.168 L
133.939 109.483 L
139.845 111.732 L
145.751 113.113 L
151.657 113.817 L
157.563 114.013 L
163.469 113.841 L
169.375 113.415 L
175.281 112.824 L
181.187 112.135 L
187.093 111.397 LE
grestore
gsave
1.0 1.0 scale
newpath 0 0 moveto 576 0 lineto 576 432 lineto 0 432 lineto
closepath clip
1 1 1 C
241.974 121.933 354.186 47.52 241.974 47.52 T
241.974 121.933 354.186 121.933 354.186 47.52 T
0.5 W
0.15 0.15 0.15 C
265.597 47.52 LS
265.597 48.6484 LE
265.597 121.933 LS
265.597 120.805 LE
295.127 47.52 LS
295.127 48.6484 LE
295.127 121.933 LS
295.127 120.805 LE
324.657 47.52 LS
324.657 48.6484 LE
324.657 121.933 LS
324.657 120.805 LE
354.186 47.52 LS
354.186 48.6484 LE
354.186 121.933 LS
354.186 120.805 LE
gsave
0.14902 0.14902 0.14902 C
(5) [10] 0 262.597 31.9781 10 /Helvetica SRX
grestore

gsave
0.14902 0.14902 0.14902 C
(10) [6 10] 0 289.127 31.9781 10 /Helvetica SRX
grestore

gsave
0.14902 0.14902 0.14902 C
(15) [6 10] 0 318.657 31.9781 10 /Helvetica SRX
grestore

gsave
0.14902 0.14902 0.14902 C
(20) [6 10] 0 348.186 31.9781 10 /Helvetica SRX
grestore

241.974 55.7146 LS
243.098 55.7146 LE
354.186 55.7146 LS
353.062 55.7146 LE
241.974 68.1005 LS
243.098 68.1005 LE
354.186 68.1005 LS
353.062 68.1005 LE
241.974 80.4864 LS
243.098 80.4864 LE
354.186 80.4864 LS
353.062 80.4864 LE
241.974 92.8723 LS
243.098 92.8723 LE
354.186 92.8723 LS
353.062 92.8723 LE
241.974 105.258 LS
243.098 105.258 LE
354.186 105.258 LS
353.062 105.258 LE
241.974 117.644 LS
243.098 117.644 LE
354.186 117.644 LS
353.062 117.644 LE
gsave
0.14902 0.14902 0.14902 C
(0.004) [6 3 6 6 10] 0 209.964 51.7146 10 /Helvetica SRX
grestore

gsave
0.14902 0.14902 0.14902 C
(0.006) [6 3 6 6 10] 0 209.964 64.1005 10 /Helvetica SRX
grestore

gsave
0.14902 0.14902 0.14902 C
(0.008) [6 3 6 6 10] 0 209.964 76.4864 10 /Helvetica SRX
grestore

gsave
0.14902 0.14902 0.14902 C
(0.01) [6 3 6 10] 0 215.964 88.8723 10 /Helvetica SRX
grestore

gsave
0.14902 0.14902 0.14902 C
(0.012) [6 3 6 6 10] 0 209.964 101.258 10 /Helvetica SRX
grestore

gsave
0.14902 0.14902 0.14902 C
(0.014) [6 3 6 6 10] 0 209.964 113.644 10 /Helvetica SRX
grestore

2 LC
[16 0] 0 setdash
241.974 47.52 LS
354.186 47.52 LE
241.974 121.933 LS
354.186 121.933 LE
241.974 47.52 LS
241.974 121.933 LE
354.186 47.52 LS
354.186 121.933 LE
gsave
0 0 0 C
(I_N_hat) [3 6 8 6 7 6 10] 0 278.08 133.933 11 /Helvetica-Bold SRX
grestore

0.9 0.9 0.9 C
241.974 47.52 241.974 120.594 247.88 47.52 T
247.88 120.224 247.88 47.52 241.974 120.594 T
253.786 47.52 247.88 47.52 247.88 120.224 T
253.786 119.943 253.786 47.52 247.88 120.224 T
259.691 47.52 253.786 47.52 253.786 119.943 T
259.691 120.3 259.691 47.52 253.786 119.943 T
265.597 47.52 259.691 47.52 259.691 120.3 T
265.597 121.809 265.597 47.52 259.691 120.3 T
271.503 47.52 265.597 47.52 265.597 121.809 T
271.503 121.933 271.503 47.52 265.597 121.809 T
277.409 47.52 271.503 47.52 271.503 121.933 T
277.409 119.573 277.409 47.52 271.503 121.933 T
283.315 47.52 277.409 47.52 277.409 119.573 T
283.315 114.696 283.315 47.52 277.409 119.573 T
289.221 47.52 283.315 47.52 283.315 114.696 T
289.221 109.805 289.221 47.52 283.315 114.696 T
295.127 47.52 289.221 47.52 289.221 109.805 T
295.127 103.789 295.127 47.52 289.221 109.805 T
301.033 47.52 295.127 47.52 295.127 103.789 T
301.033 99.0552 301.033 47.52 295.127 103.789 T
306.939 47.52 301.033 47.52 301.033 99.0552 T
306.939 93.3839 306.939 47.52 301.033 99.0552 T
312.845 47.52 306.939 47.52 306.939 93.3839 T
312.845 87.9446 312.845 47.52 306.939 93.3839 T
318.751 47.52 312.845 47.52 312.845 87.9446 T
318.751 82.9482 318.751 47.52 312.845 87.9446 T
324.657 47.52 318.751 47.52 318.751 82.9482 T
324.657 79.0735 324.657 47.52 318.751 82.9482 T
330.563 47.52 324.657 47.52 324.657 79.0735 T
330.563 75.0017 330.563 47.52 324.657 79.0735 T
336.469 47.52 330.563 47.52 330.563 75.0017 T
336.469 71.4952 336.469 47.52 330.563 75.0017 T
342.374 47.52 336.469 47.52 336.469 71.4952 T
342.374 68.5009 342.374 47.52 336.469 71.4952 T
348.28 47.52 342.374 47.52 342.374 68.5009 T
348.28 65.4511 348.28 47.52 342.374 68.5009 T
354.186 47.52 348.28 47.52 348.28 65.4511 T
354.186 63.0762 354.186 47.52 348.28 65.4511 T
0 LC
[] 0 setdash
0 0 0 C
354.186 63.0762 LS
348.28 65.4511 L
342.374 68.5009 L
336.469 71.4952 L
330.563 75.0017 L
324.657 79.0735 L
318.751 82.9482 L
312.845 87.9446 L
306.939 93.3839 L
301.033 99.0552 L
295.127 103.789 L
289.221 109.805 L
283.315 114.696 L
277.409 119.573 L
271.503 121.933 L
265.597 121.809 L
259.691 120.3 L
253.786 119.943 L
247.88 120.224 L
241.974 120.594 L
241.974 47.52 L
247.88 47.52 L
253.786 47.52 L
259.691 47.52 L
265.597 47.52 L
271.503 47.52 L
277.409 47.52 L
283.315 47.52 L
289.221 47.52 L
295.127 47.52 L
301.033 47.52 L
306.939 47.52 L
312.845 47.52 L
318.751 47.52 L
324.657 47.52 L
330.563 47.52 L
336.469 47.52 L
342.374 47.52 L
348.28 47.52 L
354.186 47.52 L
354.186 63.0762 LE
1 1 1 C
241.974 47.52 241.974 76.5871 247.88 47.52 T
247.88 75.9105 247.88 47.52 241.974 76.5871 T
253.786 47.52 247.88 47.52 247.88 75.9105 T
253.786 75.3673 253.786 47.52 247.88 75.9105 T
259.691 47.52 253.786 47.52 253.786 75.3673 T
259.691 75.3394 259.691 47.52 253.786 75.3673 T
265.597 47.52 259.691 47.52 259.691 75.3394 T
265.597 76.8509 265.597 47.52 259.691 75.3394 T
271.503 47.52 265.597 47.52 265.597 76.8509 T
271.503 77.8779 271.503 47.52 265.597 76.8509 T
277.409 47.52 271.503 47.52 271.503 77.8779 T
277.409 77.4164 277.409 47.52 271.503 77.8779 T
283.315 47.52 277.409 47.52 277.409 77.4164 T
283.315 75.0893 283.315 47.52 277.409 77.4164 T
289.221 47.52 283.315 47.52 283.315 75.0893 T
289.221 72.2188 289.221 47.52 283.315 75.0893 T
295.127 47.52 289.221 47.52 289.221 72.2188 T
295.127 68.496 295.127 47.52 289.221 72.2188 T
301.033 47.52 295.127 47.52 295.127 68.496 T
301.033 66.6974 301.033 47.52 295.127 68.496 T
306.939 47.52 301.033 47.52 301.033 66.6974 T
306.939 63.5136 306.939 47.52 301.033 66.6974 T
312.845 47.52 306.939 47.52 306.939 63.5136 T
312.845 60.4009 312.845 47.52 306.939 63.5136 T
318.751 47.52 312.845 47.52 312.845 60.4009 T
318.751 57.6847 318.751 47.52 312.845 60.4009 T
324.657 47.52 318.751 47.52 318.751 57.6847 T
324.657 55.7705 324.657 47.52 318.751 57.6847 T
330.563 47.52 324.657 47.52 324.657 55.7705 T
330.563 53.5835 330.563 47.52 324.657 55.7705 T
336.469 47.52 330.563 47.52 330.563 53.5835 T
336.469 51.6746 336.469 47.52 330.563 53.5835 T
342.374 47.52 336.469 47.52 336.469 51.6746 T
342.374 50.0808 342.374 47.52 336.469 51.6746 T
348.28 47.52 342.374 47.52 342.374 50.0808 T
348.28 48.4979 348.28 47.52 342.374 50.0808 T
354.186 47.52 348.28 47.52 348.28 48.4979 T
0 0 0 C
354.186 47.52 LS
348.28 48.4979 L
342.374 50.0808 L
336.469 51.6746 L
330.563 53.5835 L
324.657 55.7705 L
318.751 57.6847 L
312.845 60.4009 L
306.939 63.5136 L
301.033 66.6974 L
295.127 68.496 L
289.221 72.2188 L
283.315 75.0893 L
277.409 77.4164 L
271.503 77.8779 L
265.597 76.8509 L
259.691 75.3394 L
253.786 75.3673 L
247.88 75.9105 L
241.974 76.5871 L
241.974 47.52 L
247.88 47.52 L
253.786 47.52 L
259.691 47.52 L
265.597 47.52 L
271.503 47.52 L
277.409 47.52 L
283.315 47.52 L
289.221 47.52 L
295.127 47.52 L
301.033 47.52 L
306.939 47.52 L
312.845 47.52 L
318.751 47.52 L
324.657 47.52 L
330.563 47.52 L
336.469 47.52 L
342.374 47.52 L
348.28 47.52 L
354.186 47.52 LE
3 W
1 LJ
241.974 98.0734 LS
247.88 97.8246 L
253.786 97.9285 L
259.691 98.3016 L
265.597 98.9059 L
271.503 98.6642 L
277.409 97.2363 L
283.315 94.7059 L
289.221 91.3413 L
295.127 87.4525 L
301.033 83.3198 L
306.939 79.1667 L
312.845 75.1546 L
318.751 71.3899 L
324.657 67.9337 L
330.563 64.8139 L
336.469 62.0338 L
342.374 59.5814 L
348.28 57.4345 L
354.186 55.5658 LE
grestore
gsave
1.0 1.0 scale
newpath 0 0 moveto 576 0 lineto 576 432 lineto 0 432 lineto
closepath clip
1 1 1 C
409.067 121.933 521.28 47.52 409.067 47.52 T
409.067 121.933 521.28 121.933 521.28 47.52 T
0.5 W
0.15 0.15 0.15 C
432.691 47.52 LS
432.691 48.6484 LE
432.691 121.933 LS
432.691 120.805 LE
462.221 47.52 LS
462.221 48.6484 LE
462.221 121.933 LS
462.221 120.805 LE
491.75 47.52 LS
491.75 48.6484 LE
491.75 121.933 LS
491.75 120.805 LE
521.28 47.52 LS
521.28 48.6484 LE
521.28 121.933 LS
521.28 120.805 LE
gsave
0.14902 0.14902 0.14902 C
(5) [10] 0 429.691 31.9781 10 /Helvetica SRX
grestore

gsave
0.14902 0.14902 0.14902 C
(10) [6 10] 0 456.221 31.9781 10 /Helvetica SRX
grestore

gsave
0.14902 0.14902 0.14902 C
(15) [6 10] 0 485.75 31.9781 10 /Helvetica SRX
grestore

gsave
0.14902 0.14902 0.14902 C
(20) [6 10] 0 515.28 31.9781 10 /Helvetica SRX
grestore

409.067 63.513 LS
410.192 63.513 LE
521.28 63.513 LS
520.156 63.513 LE
409.067 80.925 LS
410.192 80.925 LE
521.28 80.925 LS
520.156 80.925 LE
409.067 98.3369 LS
410.192 98.3369 LE
521.28 98.3369 LS
520.156 98.3369 LE
409.067 115.749 LS
410.192 115.749 LE
521.28 115.749 LS
520.156 115.749 LE
gsave
0.14902 0.14902 0.14902 C
(0.02) [6 3 6 10] 0 383.058 59.5131 10 /Helvetica SRX
grestore

gsave
0.14902 0.14902 0.14902 C
(0.04) [6 3 6 10] 0 383.058 76.925 10 /Helvetica SRX
grestore

gsave
0.14902 0.14902 0.14902 C
(0.06) [6 3 6 10] 0 383.058 94.3369 10 /Helvetica SRX
grestore

gsave
0.14902 0.14902 0.14902 C
(0.08) [6 3 6 10] 0 383.058 111.749 10 /Helvetica SRX
grestore

2 LC
[16 0] 0 setdash
409.067 47.52 LS
521.28 47.52 LE
409.067 121.933 LS
521.28 121.933 LE
409.067 47.52 LS
409.067 121.933 LE
521.28 47.52 LS
521.28 121.933 LE
gsave
0 0 0 C
(I_C_hat) [3 6 8 6 7 6 10] 0 445.174 133.933 11 /Helvetica-Bold SRX
grestore

0.9 0.9 0.9 C
409.067 47.52 409.067 115.724 414.973 47.52 T
414.973 117.936 414.973 47.52 409.067 115.724 T
420.879 47.52 414.973 47.52 414.973 117.936 T
420.879 120.017 420.879 47.52 414.973 117.936 T
426.785 47.52 420.879 47.52 420.879 120.017 T
426.785 121.933 426.785 47.52 420.879 120.017 T
432.691 47.52 426.785 47.52 426.785 121.933 T
432.691 117.602 432.691 47.52 426.785 121.933 T
438.597 47.52 432.691 47.52 432.691 117.602 T
438.597 109.902 438.597 47.52 432.691 117.602 T
444.503 47.52 438.597 47.52 438.597 109.902 T
444.503 102.031 444.503 47.52 438.597 109.902 T
450.409 47.52 444.503 47.52 444.503 102.031 T
450.409 94.5419 450.409 47.52 444.503 102.031 T
456.315 47.52 450.409 47.52 450.409 94.5419 T
456.315 85.6411 456.315 47.52 450.409 94.5419 T
462.221 47.52 456.315 47.52 456.315 85.6411 T
462.221 78.9638 462.221 47.52 456.315 85.6411 T
468.127 47.52 462.221 47.52 462.221 78.9638 T
468.127 72.5565 468.127 47.52 462.221 78.9638 T
474.033 47.52 468.127 47.52 468.127 72.5565 T
474.033 67.316 474.033 47.52 468.127 72.5565 T
479.939 47.52 474.033 47.52 474.033 67.316 T
479.939 63.2109 479.939 47.52 474.033 67.316 T
485.844 47.52 479.939 47.52 479.939 63.2109 T
485.844 59.6873 485.844 47.52 479.939 63.2109 T
491.75 47.52 485.844 47.52 485.844 59.6873 T
491.75 56.9245 491.75 47.52 485.844 59.6873 T
497.656 47.52 491.75 47.52 491.75 56.9245 T
497.656 54.7858 497.656 47.52 491.75 56.9245 T
503.562 47.52 497.656 47.52 497.656 54.7858 T
503.562 52.9091 503.562 47.52 497.656 54.7858 T
509.468 47.52 503.562 47.52 503.562 52.9091 T
509.468 51.5271 509.468 47.52 503.562 52.9091 T
515.374 47.52 509.468 47.52 509.468 51.5271 T
515.374 50.4571 515.374 47.52 509.468 51.5271 T
521.28 47.52 515.374 47.52 515.374 50.4571 T
521.28 49.5492 521.28 47.52 515.374 50.4571 T
0 LC
[] 0 setdash
0 0 0 C
521.28 49.5492 LS
515.374 50.4571 L
509.468 51.5271 L
503.562 52.9091 L
497.656 54.7858 L
491.75 56.9245 L
485.844 59.6873 L
479.939 63.2109 L
474.033 67.316 L
468.127 72.5565 L
462.221 78.9638 L
456.315 85.6411 L
450.409 94.5419 L
444.503 102.031 L
438.597 109.902 L
432.691 117.602 L
426.785 121.933 L
420.879 120.017 L
414.973 117.936 L
409.067 115.724 L
409.067 47.52 L
414.973 47.52 L
420.879 47.52 L
426.785 47.52 L
432.691 47.52 L
438.597 47.52 L
444.503 47.52 L
450.409 47.52 L
456.315 47.52 L
462.221 47.52 L
468.127 47.52 L
474.033 47.52 L
479.939 47.52 L
485.844 47.52 L
491.75 47.52 L
497.656 47.52 L
503.562 47.52 L
509.468 47.52 L
515.374 47.52 L
521.28 47.52 L
521.28 49.5492 LE
1 1 1 C
409.067 47.52 409.067 83.1451 414.973 47.52 T
414.973 84.2918 414.973 47.52 409.067 83.1451 T
420.879 47.52 414.973 47.52 414.973 84.2918 T
420.879 85.4329 420.879 47.52 414.973 84.2918 T
426.785 47.52 420.879 47.52 420.879 85.4329 T
426.785 86.4341 426.785 47.52 420.879 85.4329 T
432.691 47.52 426.785 47.52 426.785 86.4341 T
432.691 83.9768 432.691 47.52 426.785 86.4341 T
438.597 47.52 432.691 47.52 432.691 83.9768 T
438.597 79.4489 438.597 47.52 432.691 83.9768 T
444.503 47.52 438.597 47.52 438.597 79.4489 T
444.503 75.381 444.503 47.52 438.597 79.4489 T
450.409 47.52 444.503 47.52 444.503 75.381 T
450.409 71.8721 450.409 47.52 444.503 75.381 T
456.315 47.52 450.409 47.52 450.409 71.8721 T
456.315 66.8495 456.315 47.52 450.409 71.8721 T
462.221 47.52 456.315 47.52 456.315 66.8495 T
462.221 63.5381 462.221 47.52 456.315 66.8495 T
468.127 47.52 462.221 47.52 462.221 63.5381 T
468.127 60.1306 468.127 47.52 462.221 63.5381 T
474.033 47.52 468.127 47.52 468.127 60.1306 T
474.033 57.3929 474.033 47.52 468.127 60.1306 T
479.939 47.52 474.033 47.52 474.033 57.3929 T
479.939 55.2197 479.939 47.52 474.033 57.3929 T
485.844 47.52 479.939 47.52 479.939 55.2197 T
485.844 53.1519 485.844 47.52 479.939 55.2197 T
491.75 47.52 485.844 47.52 485.844 53.1519 T
491.75 51.6669 491.75 47.52 485.844 53.1519 T
497.656 47.52 491.75 47.52 491.75 51.6669 T
497.656 50.471 497.656 47.52 491.75 51.6669 T
503.562 47.52 497.656 47.52 497.656 50.471 T
503.562 49.3415 503.562 47.52 497.656 50.471 T
509.468 47.52 503.562 47.52 503.562 49.3415 T
509.468 48.5747 509.468 47.52 503.562 49.3415 T
515.374 47.52 509.468 47.52 509.468 48.5747 T
515.374 48.0113 515.374 47.52 509.468 48.5747 T
521.28 47.52 515.374 47.52 515.374 48.0113 T
0 0 0 C
521.28 47.52 LS
515.374 48.0113 L
509.468 48.5747 L
503.562 49.3415 L
497.656 50.471 L
491.75 51.6669 L
485.844 53.1519 L
479.939 55.2197 L
474.033 57.3929 L
468.127 60.1306 L
462.221 63.5381 L
456.315 66.8495 L
450.409 71.8721 L
444.503 75.381 L
438.597 79.4489 L
432.691 83.9768 L
426.785 86.4341 L
420.879 85.4329 L
414.973 84.2918 L
409.067 83.1451 L
409.067 47.52 L
414.973 47.52 L
420.879 47.52 L
426.785 47.52 L
432.691 47.52 L
438.597 47.52 L
444.503 47.52 L
450.409 47.52 L
456.315 47.52 L
462.221 47.52 L
468.127 47.52 L
474.033 47.52 L
479.939 47.52 L
485.844 47.52 L
491.75 47.52 L
497.656 47.52 L
503.562 47.52 L
509.468 47.52 L
515.374 47.52 L
521.28 47.52 LE
3 W
1 LJ
409.067 99.44 LS
414.973 101.172 L
420.879 102.777 L
426.785 104.143 L
432.691 100.904 L
438.597 95.357 L
444.503 88.9296 L
450.409 82.4684 L
456.315 76.4395 L
462.221 71.067 L
468.127 66.4268 L
474.033 62.5084 L
479.939 59.2554 L
485.844 56.5903 L
491.75 54.4297 L
497.656 52.6932 L
503.562 51.3076 L
509.468 50.2088 L
515.374 49.3421 L
521.28 48.6619 LE
grestore
grestore
showpage
cleartomark
%%PageTrailer
%%Trailer
end
%%EOF
