%!PS-Adobe-3.0 EPSF-3.0
%%Title: gl2ps_renderer figure
%%Creator: GL2PS 1.4.2, (C) 1999-2020 C. Geuzaine
%%For: Octave
%%CreationDate: Wed Oct  7 07:02:35 2020
%%LanguageLevel: 3
%%DocumentData: Clean7Bit
%%Pages: 1
%%BoundingBox: 0 0 576 432
%%EndComments
%%BeginProlog
/gl2psdict 64 dict def gl2psdict begin
/tryPS3shading false def % set to false to force subdivision
/rThreshold 0.064 def % red component subdivision threshold
/gThreshold 0.034 def % green component subdivision threshold
/bThreshold 0.1 def % blue component subdivision threshold
/BD { bind def } bind def
/C  { setrgbcolor } BD
/G  { 0.082 mul exch 0.6094 mul add exch 0.3086 mul add neg 1.0 add setgray } BD
/W  { setlinewidth } BD
/LC  { setlinecap } BD
/LJ  { setlinejoin } BD
/FC { findfont exch /SH exch def SH scalefont setfont } BD
/SW { dup stringwidth pop } BD
/S  { FC moveto show } BD
/SBC{ FC moveto SW -2 div 0 rmoveto show } BD
/SBR{ FC moveto SW neg 0 rmoveto show } BD
/SCL{ FC moveto 0 SH -2 div rmoveto show } BD
/SCC{ FC moveto SW -2 div SH -2 div rmoveto show } BD
/SCR{ FC moveto SW neg SH -2 div rmoveto show } BD
/STL{ FC moveto 0 SH neg rmoveto show } BD
/STC{ FC moveto SW -2 div SH neg rmoveto show } BD
/STR{ FC moveto SW neg SH neg rmoveto show } BD
/FCT { FC translate 0 0 } BD
/SR  { gsave FCT moveto rotate show grestore } BD
/SRX  { gsave FCT moveto rotate xshow grestore } BD
/SBCR{ gsave FCT moveto rotate SW -2 div 0 rmoveto show grestore } BD
/SBRR{ gsave FCT moveto rotate SW neg 0 rmoveto show grestore } BD
/SCLR{ gsave FCT moveto rotate 0 SH -2 div rmoveto show grestore} BD
/SCCR{ gsave FCT moveto rotate SW -2 div SH -2 div rmoveto show grestore} BD
/SCRR{ gsave FCT moveto rotate SW neg SH -2 div rmoveto show grestore} BD
/STLR{ gsave FCT moveto rotate 0 SH neg rmoveto show grestore } BD
/STCR{ gsave FCT moveto rotate SW -2 div SH neg rmoveto show grestore } BD
/STRR{ gsave FCT moveto rotate SW neg SH neg rmoveto show grestore } BD
/P  { newpath 0.0 360.0 arc closepath fill } BD
/LS { newpath moveto } BD
/L  { lineto } BD
/LE { lineto stroke } BD
/T  { newpath moveto lineto lineto closepath fill } BD
/STshfill {
      /b1 exch def /g1 exch def /r1 exch def /y1 exch def /x1 exch def
      /b2 exch def /g2 exch def /r2 exch def /y2 exch def /x2 exch def
      /b3 exch def /g3 exch def /r3 exch def /y3 exch def /x3 exch def
      gsave << /ShadingType 4 /ColorSpace [/DeviceRGB]
      /DataSource [ 0 x1 y1 r1 g1 b1 0 x2 y2 r2 g2 b2 0 x3 y3 r3 g3 b3 ] >>
      shfill grestore } BD
/Tm { 3 -1 roll 8 -1 roll 13 -1 roll add add 3 div
      3 -1 roll 7 -1 roll 11 -1 roll add add 3 div
      3 -1 roll 6 -1 roll 9 -1 roll add add 3 div C T } BD
/STsplit {
      4 index 15 index add 0.5 mul
      4 index 15 index add 0.5 mul
      4 index 15 index add 0.5 mul
      4 index 15 index add 0.5 mul
      4 index 15 index add 0.5 mul
      5 copy 5 copy 25 15 roll
      9 index 30 index add 0.5 mul
      9 index 30 index add 0.5 mul
      9 index 30 index add 0.5 mul
      9 index 30 index add 0.5 mul
      9 index 30 index add 0.5 mul
      5 copy 5 copy 35 5 roll 25 5 roll 15 5 roll
      4 index 10 index add 0.5 mul
      4 index 10 index add 0.5 mul
      4 index 10 index add 0.5 mul
      4 index 10 index add 0.5 mul
      4 index 10 index add 0.5 mul
      5 copy 5 copy 40 5 roll 25 5 roll 15 5 roll 25 5 roll
      STnoshfill STnoshfill STnoshfill STnoshfill } BD
/STnoshfill {
      2 index 8 index sub abs rThreshold gt
      { STsplit }
      { 1 index 7 index sub abs gThreshold gt
        { STsplit }
        { dup 6 index sub abs bThreshold gt
          { STsplit }
          { 2 index 13 index sub abs rThreshold gt
            { STsplit }
            { 1 index 12 index sub abs gThreshold gt
              { STsplit }
              { dup 11 index sub abs bThreshold gt
                { STsplit }
                { 7 index 13 index sub abs rThreshold gt
                  { STsplit }
                  { 6 index 12 index sub abs gThreshold gt
                    { STsplit }
                    { 5 index 11 index sub abs bThreshold gt
                      { STsplit }
                      { Tm }
                      ifelse }
                    ifelse }
                  ifelse }
                ifelse }
              ifelse }
            ifelse }
          ifelse }
        ifelse }
      ifelse } BD
tryPS3shading
{ /shfill where
  { /ST { STshfill } BD }
  { /ST { STnoshfill } BD }
  ifelse }
{ /ST { STnoshfill } BD }
ifelse
end
%%EndProlog
%%BeginSetup
/DeviceRGB setcolorspace
gl2psdict begin
%%EndSetup
%%Page: 1 1
%%BeginPageSetup
%%EndPageSetup
mark
gsave
1.0 1.0 scale
1 1 1 C
newpath 0 0 moveto 576 0 lineto 576 432 lineto 0 432 lineto
closepath fill
gsave
1.0 1.0 scale
1 1 1 C
newpath 0 0 moveto 576 0 lineto 576 432 lineto 0 432 lineto
closepath fill
newpath 0 0 moveto 576 0 lineto 576 432 lineto 0 432 lineto
closepath clip
1 1 1 C
74.88 385.841 187.093 312.427 74.88 312.427 T
74.88 385.841 187.093 385.841 187.093 312.427 T
0.5 W
0.15 0.15 0.15 C
98.5037 312.427 LS
98.5037 313.556 LE
98.5037 385.841 LS
98.5037 384.712 LE
128.033 312.427 LS
128.033 313.556 LE
128.033 385.841 LS
128.033 384.712 LE
157.563 312.427 LS
157.563 313.556 LE
157.563 385.841 LS
157.563 384.712 LE
187.093 312.427 LS
187.093 313.556 LE
187.093 385.841 LS
187.093 384.712 LE
gsave
0.14902 0.14902 0.14902 C
(5) [10] 0 95.5037 296.885 10 /Helvetica SRX
grestore

gsave
0.14902 0.14902 0.14902 C
(10) [6 10] 0 122.033 296.885 10 /Helvetica SRX
grestore

gsave
0.14902 0.14902 0.14902 C
(15) [6 10] 0 151.563 296.885 10 /Helvetica SRX
grestore

gsave
0.14902 0.14902 0.14902 C
(20) [6 10] 0 181.093 296.885 10 /Helvetica SRX
grestore

74.88 320.04 LS
76.0043 320.04 LE
187.093 320.04 LS
185.968 320.04 LE
74.88 334.345 LS
76.0043 334.345 LE
187.093 334.345 LS
185.968 334.345 LE
74.88 348.649 LS
76.0043 348.649 LE
187.093 348.649 LS
185.968 348.649 LE
74.88 362.954 LS
76.0043 362.954 LE
187.093 362.954 LS
185.968 362.954 LE
74.88 377.258 LS
76.0043 377.258 LE
187.093 377.258 LS
185.968 377.258 LE
gsave
0.14902 0.14902 0.14902 C
(0) [10] 0 63.8705 316.04 10 /Helvetica SRX
grestore

gsave
0.14902 0.14902 0.14902 C
(0.0001) [6 3 6 6 6 10] 0 36.8705 330.345 10 /Helvetica SRX
grestore

gsave
0.14902 0.14902 0.14902 C
(0.0002) [6 3 6 6 6 10] 0 36.8705 344.649 10 /Helvetica SRX
grestore

gsave
0.14902 0.14902 0.14902 C
(0.0003) [6 3 6 6 6 10] 0 36.8705 358.954 10 /Helvetica SRX
grestore

gsave
0.14902 0.14902 0.14902 C
(0.0004) [6 3 6 6 6 10] 0 36.8705 373.258 10 /Helvetica SRX
grestore

2 LC
[16 0] 0 setdash
74.88 312.427 LS
187.093 312.427 LE
74.88 385.841 LS
187.093 385.841 LE
74.88 312.427 LS
74.88 385.841 LE
187.093 312.427 LS
187.093 385.841 LE
gsave
0 0 0 C
(r_hat) [4 6 7 6 10] 0 117.486 397.841 11 /Helvetica-Bold SRX
grestore

0.9 0.9 0.9 C
74.88 312.427 74.88 320.04 80.7859 312.427 T
80.7859 333.343 80.7859 312.427 74.88 320.04 T
86.6918 312.427 80.7859 312.427 80.7859 333.343 T
86.6918 349.414 86.6918 312.427 80.7859 333.343 T
92.5978 312.427 86.6918 312.427 86.6918 349.414 T
92.5978 366.706 92.5978 312.427 86.6918 349.414 T
98.5037 312.427 92.5978 312.427 92.5978 366.706 T
98.5037 385.841 98.5037 312.427 92.5978 366.706 T
104.41 312.427 98.5037 312.427 98.5037 385.841 T
104.41 378.755 104.41 312.427 98.5037 385.841 T
110.316 312.427 104.41 312.427 104.41 378.755 T
110.316 368.886 110.316 312.427 104.41 378.755 T
116.221 312.427 110.316 312.427 110.316 368.886 T
116.221 358.637 116.221 312.427 110.316 368.886 T
122.127 312.427 116.221 312.427 116.221 358.637 T
122.127 351.712 122.127 312.427 116.221 358.637 T
128.033 312.427 122.127 312.427 122.127 351.712 T
128.033 345.256 128.033 312.427 122.127 351.712 T
133.939 312.427 128.033 312.427 128.033 345.256 T
133.939 339.332 133.939 312.427 128.033 345.256 T
139.845 312.427 133.939 312.427 133.939 339.332 T
139.845 334.494 139.845 312.427 133.939 339.332 T
145.751 312.427 139.845 312.427 139.845 334.494 T
145.751 331.072 145.751 312.427 139.845 334.494 T
151.657 312.427 145.751 312.427 145.751 331.072 T
151.657 327.445 151.657 312.427 145.751 331.072 T
157.563 312.427 151.657 312.427 151.657 327.445 T
157.563 324.86 157.563 312.427 151.657 327.445 T
163.469 312.427 157.563 312.427 157.563 324.86 T
163.469 322.957 163.469 312.427 157.563 324.86 T
169.375 312.427 163.469 312.427 163.469 322.957 T
169.375 321.438 169.375 312.427 163.469 322.957 T
175.281 312.427 169.375 312.427 169.375 321.438 T
175.281 320.137 175.281 312.427 169.375 321.438 T
181.187 312.427 175.281 312.427 175.281 320.137 T
181.187 319.044 181.187 312.427 175.281 320.137 T
187.093 312.427 181.187 312.427 181.187 319.044 T
187.093 318.103 187.093 312.427 181.187 319.044 T
0 LC
[] 0 setdash
0 0 0 C
187.093 318.103 LS
181.187 319.044 L
175.281 320.137 L
169.375 321.438 L
163.469 322.957 L
157.563 324.86 L
151.657 327.445 L
145.751 331.072 L
139.845 334.494 L
133.939 339.332 L
128.033 345.256 L
122.127 351.712 L
116.221 358.637 L
110.316 368.886 L
104.41 378.755 L
98.5037 385.841 L
92.5978 366.706 L
86.6918 349.414 L
80.7859 333.343 L
74.88 320.04 L
74.88 312.427 L
80.7859 312.427 L
86.6918 312.427 L
92.5978 312.427 L
98.5037 312.427 L
104.41 312.427 L
110.316 312.427 L
116.221 312.427 L
122.127 312.427 L
128.033 312.427 L
133.939 312.427 L
139.845 312.427 L
145.751 312.427 L
151.657 312.427 L
157.563 312.427 L
163.469 312.427 L
169.375 312.427 L
175.281 312.427 L
181.187 312.427 L
187.093 312.427 L
187.093 318.103 LE
1 1 1 C
74.88 312.427 74.88 320.04 80.7859 312.427 T
80.7859 323.758 80.7859 312.427 74.88 320.04 T
86.6918 312.427 80.7859 312.427 80.7859 323.758 T
86.6918 328.405 86.6918 312.427 80.7859 323.758 T
92.5978 312.427 86.6918 312.427 86.6918 328.405 T
92.5978 333.474 92.5978 312.427 86.6918 328.405 T
98.5037 312.427 92.5978 312.427 92.5978 333.474 T
98.5037 339.627 98.5037 312.427 92.5978 333.474 T
104.41 312.427 98.5037 312.427 98.5037 339.627 T
104.41 339.073 104.41 312.427 98.5037 339.627 T
110.316 312.427 104.41 312.427 104.41 339.073 T
110.316 336.988 110.316 312.427 104.41 339.073 T
116.221 312.427 110.316 312.427 110.316 336.988 T
116.221 333.436 116.221 312.427 110.316 336.988 T
122.127 312.427 116.221 312.427 116.221 333.436 T
122.127 332.303 122.127 312.427 116.221 333.436 T
128.033 312.427 122.127 312.427 122.127 332.303 T
128.033 330.652 128.033 312.427 122.127 332.303 T
133.939 312.427 128.033 312.427 128.033 330.652 T
133.939 328.301 133.939 312.427 128.033 330.652 T
139.845 312.427 133.939 312.427 133.939 328.301 T
139.845 326.201 139.845 312.427 133.939 328.301 T
145.751 312.427 139.845 312.427 139.845 326.201 T
145.751 324.642 145.751 312.427 139.845 326.201 T
151.657 312.427 145.751 312.427 145.751 324.642 T
151.657 322.221 151.657 312.427 145.751 324.642 T
157.563 312.427 151.657 312.427 151.657 322.221 T
157.563 320.271 157.563 312.427 151.657 322.221 T
163.469 312.427 157.563 312.427 157.563 320.271 T
163.469 318.393 163.469 312.427 157.563 320.271 T
169.375 312.427 163.469 312.427 163.469 318.393 T
169.375 316.702 169.375 312.427 163.469 318.393 T
175.281 312.427 169.375 312.427 169.375 316.702 T
175.281 315.195 175.281 312.427 169.375 316.702 T
181.187 312.427 175.281 312.427 175.281 315.195 T
181.187 313.761 181.187 312.427 175.281 315.195 T
187.093 312.427 181.187 312.427 181.187 313.761 T
0 0 0 C
187.093 312.427 LS
181.187 313.761 L
175.281 315.195 L
169.375 316.702 L
163.469 318.393 L
157.563 320.271 L
151.657 322.221 L
145.751 324.642 L
139.845 326.201 L
133.939 328.301 L
128.033 330.652 L
122.127 332.303 L
116.221 333.436 L
110.316 336.988 L
104.41 339.073 L
98.5037 339.627 L
92.5978 333.474 L
86.6918 328.405 L
80.7859 323.758 L
74.88 320.04 L
74.88 312.427 L
80.7859 312.427 L
86.6918 312.427 L
92.5978 312.427 L
98.5037 312.427 L
104.41 312.427 L
110.316 312.427 L
116.221 312.427 L
122.127 312.427 L
128.033 312.427 L
133.939 312.427 L
139.845 312.427 L
145.751 312.427 L
151.657 312.427 L
157.563 312.427 L
163.469 312.427 L
169.375 312.427 L
175.281 312.427 L
181.187 312.427 L
187.093 312.427 LE
3 W
1 LJ
74.88 320.04 LS
80.7859 329.031 L
86.6918 339.8 L
92.5978 351.256 L
98.5037 363.022 L
104.41 358.699 L
110.316 352.623 L
116.221 346.926 L
122.127 341.898 L
128.033 337.515 L
133.939 333.697 L
139.845 330.37 L
145.751 327.467 L
151.657 324.933 L
157.563 322.72 L
163.469 320.787 L
169.375 319.099 L
175.281 317.627 L
181.187 316.342 L
187.093 315.224 LE
grestore
gsave
1.0 1.0 scale
newpath 0 0 moveto 576 0 lineto 576 432 lineto 0 432 lineto
closepath clip
1 1 1 C
241.974 385.841 354.186 312.427 241.974 312.427 T
241.974 385.841 354.186 385.841 354.186 312.427 T
0.5 W
0.15 0.15 0.15 C
265.597 312.427 LS
265.597 313.556 LE
265.597 385.841 LS
265.597 384.712 LE
295.127 312.427 LS
295.127 313.556 LE
295.127 385.841 LS
295.127 384.712 LE
324.657 312.427 LS
324.657 313.556 LE
324.657 385.841 LS
324.657 384.712 LE
354.186 312.427 LS
354.186 313.556 LE
354.186 385.841 LS
354.186 384.712 LE
gsave
0.14902 0.14902 0.14902 C
(5) [10] 0 262.597 296.885 10 /Helvetica SRX
grestore

gsave
0.14902 0.14902 0.14902 C
(10) [6 10] 0 289.127 296.885 10 /Helvetica SRX
grestore

gsave
0.14902 0.14902 0.14902 C
(15) [6 10] 0 318.657 296.885 10 /Helvetica SRX
grestore

gsave
0.14902 0.14902 0.14902 C
(20) [6 10] 0 348.186 296.885 10 /Helvetica SRX
grestore

241.974 312.427 LS
243.098 312.427 LE
354.186 312.427 LS
353.062 312.427 LE
241.974 327.659 LS
243.098 327.659 LE
354.186 327.659 LS
353.062 327.659 LE
241.974 342.891 LS
243.098 342.891 LE
354.186 342.891 LS
353.062 342.891 LE
241.974 358.123 LS
243.098 358.123 LE
354.186 358.123 LS
353.062 358.123 LE
241.974 373.355 LS
243.098 373.355 LE
354.186 373.355 LS
353.062 373.355 LE
gsave
0.14902 0.14902 0.14902 C
(0) [10] 0 230.964 308.427 10 /Helvetica SRX
grestore

gsave
0.14902 0.14902 0.14902 C
(0.005) [6 3 6 6 10] 0 209.964 323.659 10 /Helvetica SRX
grestore

gsave
0.14902 0.14902 0.14902 C
(0.01) [6 3 6 10] 0 215.964 338.891 10 /Helvetica SRX
grestore

gsave
0.14902 0.14902 0.14902 C
(0.015) [6 3 6 6 10] 0 209.964 354.123 10 /Helvetica SRX
grestore

gsave
0.14902 0.14902 0.14902 C
(0.02) [6 3 6 10] 0 215.964 369.355 10 /Helvetica SRX
grestore

2 LC
[16 0] 0 setdash
241.974 312.427 LS
354.186 312.427 LE
241.974 385.841 LS
354.186 385.841 LE
241.974 312.427 LS
241.974 385.841 LE
354.186 312.427 LS
354.186 385.841 LE
gsave
0 0 0 C
(A_T_hat) [8 6 7 6 7 6 10] 0 276.08 397.841 11 /Helvetica-Bold SRX
grestore

0.9 0.9 0.9 C
241.974 312.427 241.974 312.427 247.88 312.427 T
247.88 312.427 247.88 312.427 241.974 312.427 T
253.786 312.427 247.88 312.427 247.88 312.427 T
253.786 312.427 253.786 312.427 247.88 312.427 T
259.691 312.427 253.786 312.427 253.786 312.427 T
259.691 312.427 259.691 312.427 253.786 312.427 T
265.597 312.427 259.691 312.427 259.691 312.427 T
265.597 385.841 265.597 312.427 259.691 312.427 T
271.503 312.427 265.597 312.427 265.597 385.841 T
271.503 377.729 271.503 312.427 265.597 385.841 T
277.409 312.427 271.503 312.427 271.503 377.729 T
277.409 370.285 277.409 312.427 271.503 377.729 T
283.315 312.427 277.409 312.427 277.409 370.285 T
283.315 364.285 283.315 312.427 277.409 370.285 T
289.221 312.427 283.315 312.427 283.315 364.285 T
289.221 358.689 289.221 312.427 283.315 364.285 T
295.127 312.427 289.221 312.427 289.221 358.689 T
295.127 353.567 295.127 312.427 289.221 358.689 T
301.033 312.427 295.127 312.427 295.127 353.567 T
301.033 349.613 301.033 312.427 295.127 353.567 T
306.939 312.427 301.033 312.427 301.033 349.613 T
306.939 345.386 306.939 312.427 301.033 349.613 T
312.845 312.427 306.939 312.427 306.939 345.386 T
312.845 341.522 312.845 312.427 306.939 345.386 T
318.751 312.427 312.845 312.427 312.845 341.522 T
318.751 338.449 318.751 312.427 312.845 341.522 T
324.657 312.427 318.751 312.427 318.751 338.449 T
324.657 335.653 324.657 312.427 318.751 338.449 T
330.563 312.427 324.657 312.427 324.657 335.653 T
330.563 333.303 330.563 312.427 324.657 335.653 T
336.469 312.427 330.563 312.427 330.563 333.303 T
336.469 331.046 336.469 312.427 330.563 333.303 T
342.374 312.427 336.469 312.427 336.469 331.046 T
342.374 329.153 342.374 312.427 336.469 331.046 T
348.28 312.427 342.374 312.427 342.374 329.153 T
348.28 327.407 348.28 312.427 342.374 329.153 T
354.186 312.427 348.28 312.427 348.28 327.407 T
354.186 325.819 354.186 312.427 348.28 327.407 T
0 LC
[] 0 setdash
0 0 0 C
354.186 325.819 LS
348.28 327.407 L
342.374 329.153 L
336.469 331.046 L
330.563 333.303 L
324.657 335.653 L
318.751 338.449 L
312.845 341.522 L
306.939 345.386 L
301.033 349.613 L
295.127 353.567 L
289.221 358.689 L
283.315 364.285 L
277.409 370.285 L
271.503 377.729 L
265.597 385.841 L
259.691 312.427 L
253.786 312.427 L
247.88 312.427 L
241.974 312.427 L
241.974 312.427 L
247.88 312.427 L
253.786 312.427 L
259.691 312.427 L
265.597 312.427 L
271.503 312.427 L
277.409 312.427 L
283.315 312.427 L
289.221 312.427 L
295.127 312.427 L
301.033 312.427 L
306.939 312.427 L
312.845 312.427 L
318.751 312.427 L
324.657 312.427 L
330.563 312.427 L
336.469 312.427 L
342.374 312.427 L
348.28 312.427 L
354.186 312.427 L
354.186 325.819 LE
1 1 1 C
259.691 312.427 265.597 355.627 265.597 312.427 T
271.503 312.427 265.597 312.427 265.597 355.627 T
271.503 350.948 271.503 312.427 265.597 355.627 T
277.409 312.427 271.503 312.427 271.503 350.948 T
277.409 346.512 277.409 312.427 271.503 350.948 T
283.315 312.427 277.409 312.427 277.409 346.512 T
283.315 343.345 283.315 312.427 277.409 346.512 T
289.221 312.427 283.315 312.427 283.315 343.345 T
289.221 340.035 289.221 312.427 283.315 343.345 T
295.127 312.427 289.221 312.427 289.221 340.035 T
295.127 336.861 295.127 312.427 289.221 340.035 T
301.033 312.427 295.127 312.427 295.127 336.861 T
301.033 334.784 301.033 312.427 295.127 336.861 T
306.939 312.427 301.033 312.427 301.033 334.784 T
306.939 332.135 306.939 312.427 301.033 334.784 T
312.845 312.427 306.939 312.427 306.939 332.135 T
312.845 329.728 312.845 312.427 306.939 332.135 T
318.751 312.427 312.845 312.427 312.845 329.728 T
318.751 327.936 318.751 312.427 312.845 329.728 T
324.657 312.427 318.751 312.427 318.751 327.936 T
324.657 326.17 324.657 312.427 318.751 327.936 T
330.563 312.427 324.657 312.427 324.657 326.17 T
330.563 324.707 330.563 312.427 324.657 326.17 T
336.469 312.427 330.563 312.427 330.563 324.707 T
336.469 323.272 336.469 312.427 330.563 324.707 T
342.374 312.427 336.469 312.427 336.469 323.272 T
342.374 322.121 342.374 312.427 336.469 323.272 T
348.28 312.427 342.374 312.427 342.374 322.121 T
348.28 321.086 348.28 312.427 342.374 322.121 T
354.186 312.427 348.28 312.427 348.28 321.086 T
354.186 320.065 354.186 312.427 348.28 321.086 T
241.974 312.427 241.974 312.427 247.88 312.427 T
247.88 312.427 247.88 312.427 241.974 312.427 T
253.786 312.427 247.88 312.427 247.88 312.427 T
253.786 312.427 253.786 312.427 247.88 312.427 T
259.691 312.427 253.786 312.427 253.786 312.427 T
0 0 0 C
259.691 312.427 LS
253.786 312.427 L
247.88 312.427 L
241.974 312.427 L
241.974 312.427 L
247.88 312.427 L
253.786 312.427 L
259.691 312.427 LE
354.186 320.065 LS
348.28 321.086 L
342.374 322.121 L
336.469 323.272 L
330.563 324.707 L
324.657 326.17 L
318.751 327.936 L
312.845 329.728 L
306.939 332.135 L
301.033 334.784 L
295.127 336.861 L
289.221 340.035 L
283.315 343.345 L
277.409 346.512 L
271.503 350.948 L
265.597 355.627 L
259.691 312.427 L
265.597 312.427 L
271.503 312.427 L
277.409 312.427 L
283.315 312.427 L
289.221 312.427 L
295.127 312.427 L
301.033 312.427 L
306.939 312.427 L
312.845 312.427 L
318.751 312.427 L
324.657 312.427 L
330.563 312.427 L
336.469 312.427 L
342.374 312.427 L
348.28 312.427 L
354.186 312.427 L
354.186 320.065 LE
3 W
1 LJ
241.974 312.427 LS
247.88 312.427 L
253.786 312.427 L
259.691 312.427 L
265.597 370.611 L
271.503 364.295 L
277.409 358.667 L
283.315 353.652 L
289.221 349.183 L
295.127 345.2 L
301.033 341.65 L
306.939 338.486 L
312.845 335.666 L
318.751 333.152 L
324.657 330.911 L
330.563 328.913 L
336.469 327.132 L
342.374 325.544 L
348.28 324.128 L
354.186 322.865 LE
grestore
gsave
1.0 1.0 scale
newpath 0 0 moveto 576 0 lineto 576 432 lineto 0 432 lineto
closepath clip
1 1 1 C
409.067 385.841 521.28 312.427 409.067 312.427 T
409.067 385.841 521.28 385.841 521.28 312.427 T
0.5 W
0.15 0.15 0.15 C
432.691 312.427 LS
432.691 313.556 LE
432.691 385.841 LS
432.691 384.712 LE
462.221 312.427 LS
462.221 313.556 LE
462.221 385.841 LS
462.221 384.712 LE
491.75 312.427 LS
491.75 313.556 LE
491.75 385.841 LS
491.75 384.712 LE
521.28 312.427 LS
521.28 313.556 LE
521.28 385.841 LS
521.28 384.712 LE
gsave
0.14902 0.14902 0.14902 C
(5) [10] 0 429.691 296.885 10 /Helvetica SRX
grestore

gsave
0.14902 0.14902 0.14902 C
(10) [6 10] 0 456.221 296.885 10 /Helvetica SRX
grestore

gsave
0.14902 0.14902 0.14902 C
(15) [6 10] 0 485.75 296.885 10 /Helvetica SRX
grestore

gsave
0.14902 0.14902 0.14902 C
(20) [6 10] 0 515.28 296.885 10 /Helvetica SRX
grestore

409.067 326.598 LS
410.192 326.598 LE
521.28 326.598 LS
520.156 326.598 LE
409.067 343.36 LS
410.192 343.36 LE
521.28 343.36 LS
520.156 343.36 LE
409.067 360.123 LS
410.192 360.123 LE
521.28 360.123 LS
520.156 360.123 LE
409.067 376.885 LS
410.192 376.885 LE
521.28 376.885 LS
520.156 376.885 LE
gsave
0.14902 0.14902 0.14902 C
(0.005) [6 3 6 6 10] 0 377.058 322.598 10 /Helvetica SRX
grestore

gsave
0.14902 0.14902 0.14902 C
(0.01) [6 3 6 10] 0 383.058 339.36 10 /Helvetica SRX
grestore

gsave
0.14902 0.14902 0.14902 C
(0.015) [6 3 6 6 10] 0 377.058 356.123 10 /Helvetica SRX
grestore

gsave
0.14902 0.14902 0.14902 C
(0.02) [6 3 6 10] 0 383.058 372.885 10 /Helvetica SRX
grestore

2 LC
[16 0] 0 setdash
409.067 312.427 LS
521.28 312.427 LE
409.067 385.841 LS
521.28 385.841 LE
409.067 312.427 LS
409.067 385.841 LE
521.28 312.427 LS
521.28 385.841 LE
gsave
0 0 0 C
(Y_hat) [7 6 7 6 10] 0 450.174 397.841 11 /Helvetica-Bold SRX
grestore

0.9 0.9 0.9 C
409.067 312.427 409.067 316.337 414.973 312.427 T
414.973 317.24 414.973 312.427 409.067 316.337 T
420.879 312.427 414.973 312.427 414.973 317.24 T
420.879 320.011 420.879 312.427 414.973 317.24 T
426.785 312.427 420.879 312.427 420.879 320.011 T
426.785 327.24 426.785 312.427 420.879 320.011 T
432.691 312.427 426.785 312.427 426.785 327.24 T
432.691 382.466 432.691 312.427 426.785 327.24 T
438.597 312.427 432.691 312.427 432.691 382.466 T
438.597 385.841 438.597 312.427 432.691 382.466 T
444.503 312.427 438.597 312.427 438.597 385.841 T
444.503 380.662 444.503 312.427 438.597 385.841 T
450.409 312.427 444.503 312.427 444.503 380.662 T
450.409 377.151 450.409 312.427 444.503 380.662 T
456.315 312.427 450.409 312.427 450.409 377.151 T
456.315 372.489 456.315 312.427 450.409 377.151 T
462.221 312.427 456.315 312.427 456.315 372.489 T
462.221 367.848 462.221 312.427 456.315 372.489 T
468.127 312.427 462.221 312.427 462.221 367.848 T
468.127 363.919 468.127 312.427 462.221 367.848 T
474.033 312.427 468.127 312.427 468.127 363.919 T
474.033 360.426 474.033 312.427 468.127 363.919 T
479.939 312.427 474.033 312.427 474.033 360.426 T
479.939 357.284 479.939 312.427 474.033 360.426 T
485.844 312.427 479.939 312.427 479.939 357.284 T
485.844 354.203 485.844 312.427 479.939 357.284 T
491.75 312.427 485.844 312.427 485.844 354.203 T
491.75 351.938 491.75 312.427 485.844 354.203 T
497.656 312.427 491.75 312.427 491.75 351.938 T
497.656 349.382 497.656 312.427 491.75 351.938 T
503.562 312.427 497.656 312.427 497.656 349.382 T
503.562 347.476 503.562 312.427 497.656 349.382 T
509.468 312.427 503.562 312.427 503.562 347.476 T
509.468 345.635 509.468 312.427 503.562 347.476 T
515.374 312.427 509.468 312.427 509.468 345.635 T
515.374 343.951 515.374 312.427 509.468 345.635 T
521.28 312.427 515.374 312.427 515.374 343.951 T
521.28 342.58 521.28 312.427 515.374 343.951 T
0 LC
[] 0 setdash
0 0 0 C
521.28 342.58 LS
515.374 343.951 L
509.468 345.635 L
503.562 347.476 L
497.656 349.382 L
491.75 351.938 L
485.844 354.203 L
479.939 357.284 L
474.033 360.426 L
468.127 363.919 L
462.221 367.848 L
456.315 372.489 L
450.409 377.151 L
444.503 380.662 L
438.597 385.841 L
432.691 382.466 L
426.785 327.24 L
420.879 320.011 L
414.973 317.24 L
409.067 316.337 L
409.067 312.427 L
414.973 312.427 L
420.879 312.427 L
426.785 312.427 L
432.691 312.427 L
438.597 312.427 L
444.503 312.427 L
450.409 312.427 L
456.315 312.427 L
462.221 312.427 L
468.127 312.427 L
474.033 312.427 L
479.939 312.427 L
485.844 312.427 L
491.75 312.427 L
497.656 312.427 L
503.562 312.427 L
509.468 312.427 L
515.374 312.427 L
521.28 312.427 L
521.28 342.58 LE
1 1 1 C
409.067 312.427 414.973 312.852 414.973 312.427 T
420.879 312.427 414.973 312.427 414.973 312.852 T
420.879 313.755 420.879 312.427 414.973 312.852 T
426.785 312.427 420.879 312.427 420.879 313.755 T
426.785 316.913 426.785 312.427 420.879 313.755 T
432.691 312.427 426.785 312.427 426.785 316.913 T
432.691 353.836 432.691 312.427 426.785 316.913 T
438.597 312.427 432.691 312.427 432.691 353.836 T
438.597 356.372 438.597 312.427 432.691 353.836 T
444.503 312.427 438.597 312.427 438.597 356.372 T
444.503 352.393 444.503 312.427 438.597 356.372 T
450.409 312.427 444.503 312.427 444.503 352.393 T
450.409 350.707 450.409 312.427 444.503 352.393 T
456.315 312.427 450.409 312.427 450.409 350.707 T
456.315 347.717 456.315 312.427 450.409 350.707 T
462.221 312.427 456.315 312.427 456.315 347.717 T
462.221 344.701 462.221 312.427 456.315 347.717 T
468.127 312.427 462.221 312.427 462.221 344.701 T
468.127 342.283 468.127 312.427 462.221 344.701 T
474.033 312.427 468.127 312.427 468.127 342.283 T
474.033 340.233 474.033 312.427 468.127 342.283 T
479.939 312.427 474.033 312.427 474.033 340.233 T
479.939 338.379 479.939 312.427 474.033 340.233 T
485.844 312.427 479.939 312.427 479.939 338.379 T
485.844 336.359 485.844 312.427 479.939 338.379 T
491.75 312.427 485.844 312.427 485.844 336.359 T
491.75 335.012 491.75 312.427 485.844 336.359 T
497.656 312.427 491.75 312.427 491.75 335.012 T
497.656 333.385 497.656 312.427 491.75 335.012 T
503.562 312.427 497.656 312.427 497.656 333.385 T
503.562 332.194 503.562 312.427 497.656 333.385 T
509.468 312.427 503.562 312.427 503.562 332.194 T
509.468 331.066 509.468 312.427 503.562 332.194 T
515.374 312.427 509.468 312.427 509.468 331.066 T
515.374 329.984 515.374 312.427 509.468 331.066 T
521.28 312.427 515.374 312.427 515.374 329.984 T
521.28 329.205 521.28 312.427 515.374 329.984 T
0 0 0 C
521.28 329.205 LS
515.374 329.984 L
509.468 331.066 L
503.562 332.194 L
497.656 333.385 L
491.75 335.012 L
485.844 336.359 L
479.939 338.379 L
474.033 340.233 L
468.127 342.283 L
462.221 344.701 L
456.315 347.717 L
450.409 350.707 L
444.503 352.393 L
438.597 356.372 L
432.691 353.836 L
426.785 316.913 L
420.879 313.755 L
414.973 312.852 L
409.067 312.427 L
414.973 312.427 L
420.879 312.427 L
426.785 312.427 L
432.691 312.427 L
438.597 312.427 L
444.503 312.427 L
450.409 312.427 L
456.315 312.427 L
462.221 312.427 L
468.127 312.427 L
474.033 312.427 L
479.939 312.427 L
485.844 312.427 L
491.75 312.427 L
497.656 312.427 L
503.562 312.427 L
509.468 312.427 L
515.374 312.427 L
521.28 312.427 L
521.28 329.205 LE
3 W
1 LJ
409.067 314.565 LS
414.973 315.022 L
420.879 316.788 L
426.785 321.964 L
432.691 368.532 L
438.597 369.9 L
444.503 367.13 L
450.409 363.462 L
456.315 359.779 L
462.221 356.332 L
468.127 353.185 L
474.033 350.338 L
479.939 347.772 L
485.844 345.461 L
491.75 343.381 L
497.656 341.507 L
503.562 339.817 L
509.468 338.29 L
515.374 336.909 L
521.28 335.659 LE
grestore
gsave
1.0 1.0 scale
newpath 0 0 moveto 576 0 lineto 576 432 lineto 0 432 lineto
closepath clip
1 1 1 C
74.88 253.387 187.093 179.974 74.88 179.974 T
74.88 253.387 187.093 253.387 187.093 179.974 T
0.5 W
0.15 0.15 0.15 C
98.5037 179.974 LS
98.5037 181.102 LE
98.5037 253.387 LS
98.5037 252.258 LE
128.033 179.974 LS
128.033 181.102 LE
128.033 253.387 LS
128.033 252.258 LE
157.563 179.974 LS
157.563 181.102 LE
157.563 253.387 LS
157.563 252.258 LE
187.093 179.974 LS
187.093 181.102 LE
187.093 253.387 LS
187.093 252.258 LE
gsave
0.14902 0.14902 0.14902 C
(5) [10] 0 95.5037 164.431 10 /Helvetica SRX
grestore

gsave
0.14902 0.14902 0.14902 C
(10) [6 10] 0 122.033 164.431 10 /Helvetica SRX
grestore

gsave
0.14902 0.14902 0.14902 C
(15) [6 10] 0 151.563 164.431 10 /Helvetica SRX
grestore

gsave
0.14902 0.14902 0.14902 C
(20) [6 10] 0 181.093 164.431 10 /Helvetica SRX
grestore

74.88 191.707 LS
76.0043 191.707 LE
187.093 191.707 LS
185.968 191.707 LE
74.88 211.757 LS
76.0043 211.757 LE
187.093 211.757 LS
185.968 211.757 LE
74.88 231.807 LS
76.0043 231.807 LE
187.093 231.807 LS
185.968 231.807 LE
74.88 251.857 LS
76.0043 251.857 LE
187.093 251.857 LS
185.968 251.857 LE
gsave
0.14902 0.14902 0.14902 C
(0.002) [6 3 6 6 10] 0 42.8705 187.707 10 /Helvetica SRX
grestore

gsave
0.14902 0.14902 0.14902 C
(0.004) [6 3 6 6 10] 0 42.8705 207.757 10 /Helvetica SRX
grestore

gsave
0.14902 0.14902 0.14902 C
(0.006) [6 3 6 6 10] 0 42.8705 227.807 10 /Helvetica SRX
grestore

gsave
0.14902 0.14902 0.14902 C
(0.008) [6 3 6 6 10] 0 42.8705 247.857 10 /Helvetica SRX
grestore

2 LC
[16 0] 0 setdash
74.88 179.974 LS
187.093 179.974 LE
74.88 253.387 LS
187.093 253.387 LE
74.88 179.974 LS
74.88 253.387 LE
187.093 179.974 LS
187.093 253.387 LE
gsave
0 0 0 C
(C_hat) [8 6 7 6 10] 0 115.486 265.387 11 /Helvetica-Bold SRX
grestore

0.9 0.9 0.9 C
74.88 179.974 74.88 188.077 80.7859 179.974 T
80.7859 193.049 80.7859 179.974 74.88 188.077 T
86.6918 179.974 80.7859 179.974 80.7859 193.049 T
86.6918 199.386 86.6918 179.974 80.7859 193.049 T
92.5978 179.974 86.6918 179.974 86.6918 199.386 T
92.5978 210.139 92.5978 179.974 86.6918 199.386 T
98.5037 179.974 92.5978 179.974 92.5978 210.139 T
98.5037 238.467 98.5037 179.974 92.5978 210.139 T
104.41 179.974 98.5037 179.974 98.5037 238.467 T
104.41 249.811 104.41 179.974 98.5037 238.467 T
110.316 179.974 104.41 179.974 104.41 249.811 T
110.316 253.387 110.316 179.974 104.41 249.811 T
116.221 179.974 110.316 179.974 110.316 253.387 T
116.221 252.683 116.221 179.974 110.316 253.387 T
122.127 179.974 116.221 179.974 116.221 252.683 T
122.127 252.533 122.127 179.974 116.221 252.683 T
128.033 179.974 122.127 179.974 122.127 252.533 T
128.033 250.41 128.033 179.974 122.127 252.533 T
133.939 179.974 128.033 179.974 128.033 250.41 T
133.939 248.001 133.939 179.974 128.033 250.41 T
139.845 179.974 133.939 179.974 133.939 248.001 T
139.845 245.772 139.845 179.974 133.939 248.001 T
145.751 179.974 139.845 179.974 139.845 245.772 T
145.751 243.533 145.751 179.974 139.845 245.772 T
151.657 179.974 145.751 179.974 145.751 243.533 T
151.657 241.922 151.657 179.974 145.751 243.533 T
157.563 179.974 151.657 179.974 151.657 241.922 T
157.563 240.224 157.563 179.974 151.657 241.922 T
163.469 179.974 157.563 179.974 157.563 240.224 T
163.469 238.611 163.469 179.974 157.563 240.224 T
169.375 179.974 163.469 179.974 163.469 238.611 T
169.375 237.603 169.375 179.974 163.469 238.611 T
175.281 179.974 169.375 179.974 169.375 237.603 T
175.281 236.42 175.281 179.974 169.375 237.603 T
181.187 179.974 175.281 179.974 175.281 236.42 T
181.187 235.198 181.187 179.974 175.281 236.42 T
187.093 179.974 181.187 179.974 181.187 235.198 T
187.093 234.231 187.093 179.974 181.187 235.198 T
0 LC
[] 0 setdash
0 0 0 C
187.093 234.231 LS
181.187 235.198 L
175.281 236.42 L
169.375 237.603 L
163.469 238.611 L
157.563 240.224 L
151.657 241.922 L
145.751 243.533 L
139.845 245.772 L
133.939 248.001 L
128.033 250.41 L
122.127 252.533 L
116.221 252.683 L
110.316 253.387 L
104.41 249.811 L
98.5037 238.467 L
92.5978 210.139 L
86.6918 199.386 L
80.7859 193.049 L
74.88 188.077 L
74.88 179.974 L
80.7859 179.974 L
86.6918 179.974 L
92.5978 179.974 L
98.5037 179.974 L
104.41 179.974 L
110.316 179.974 L
116.221 179.974 L
122.127 179.974 L
128.033 179.974 L
133.939 179.974 L
139.845 179.974 L
145.751 179.974 L
151.657 179.974 L
157.563 179.974 L
163.469 179.974 L
169.375 179.974 L
175.281 179.974 L
181.187 179.974 L
187.093 179.974 L
187.093 234.231 LE
1 1 1 C
74.88 179.974 80.7859 182.545 80.7859 179.974 T
86.6918 179.974 80.7859 179.974 80.7859 182.545 T
86.6918 185.638 86.6918 179.974 80.7859 182.545 T
92.5978 179.974 86.6918 179.974 86.6918 185.638 T
92.5978 191.485 92.5978 179.974 86.6918 185.638 T
98.5037 179.974 92.5978 179.974 92.5978 191.485 T
98.5037 212.416 98.5037 179.974 92.5978 191.485 T
104.41 179.974 98.5037 179.974 98.5037 212.416 T
104.41 219.131 104.41 179.974 98.5037 212.416 T
110.316 179.974 104.41 179.974 104.41 219.131 T
110.316 221.431 110.316 179.974 104.41 219.131 T
116.221 179.974 110.316 179.974 110.316 221.431 T
116.221 220.674 116.221 179.974 110.316 221.431 T
122.127 179.974 116.221 179.974 116.221 220.674 T
122.127 220.802 122.127 179.974 116.221 220.674 T
128.033 179.974 122.127 179.974 122.127 220.802 T
128.033 219.501 128.033 179.974 122.127 220.802 T
133.939 179.974 128.033 179.974 128.033 219.501 T
133.939 217.784 133.939 179.974 128.033 219.501 T
139.845 179.974 133.939 179.974 133.939 217.784 T
139.845 216.368 139.845 179.974 133.939 217.784 T
145.751 179.974 139.845 179.974 139.845 216.368 T
145.751 214.753 145.751 179.974 139.845 216.368 T
151.657 179.974 145.751 179.974 145.751 214.753 T
151.657 213.673 151.657 179.974 145.751 214.753 T
157.563 179.974 151.657 179.974 151.657 213.673 T
157.563 212.594 157.563 179.974 151.657 213.673 T
163.469 179.974 157.563 179.974 157.563 212.594 T
163.469 211.534 163.469 179.974 157.563 212.594 T
169.375 179.974 163.469 179.974 163.469 211.534 T
169.375 211.049 169.375 179.974 163.469 211.534 T
175.281 179.974 169.375 179.974 169.375 211.049 T
175.281 210.211 175.281 179.974 169.375 211.049 T
181.187 179.974 175.281 179.974 175.281 210.211 T
181.187 209.378 181.187 179.974 175.281 210.211 T
187.093 179.974 181.187 179.974 181.187 209.378 T
187.093 208.75 187.093 179.974 181.187 209.378 T
0 0 0 C
187.093 208.75 LS
181.187 209.378 L
175.281 210.211 L
169.375 211.049 L
163.469 211.534 L
157.563 212.594 L
151.657 213.673 L
145.751 214.753 L
139.845 216.368 L
133.939 217.784 L
128.033 219.501 L
122.127 220.802 L
116.221 220.674 L
110.316 221.431 L
104.41 219.131 L
98.5037 212.416 L
92.5978 191.485 L
86.6918 185.638 L
80.7859 182.545 L
74.88 179.974 L
80.7859 179.974 L
86.6918 179.974 L
92.5978 179.974 L
98.5037 179.974 L
104.41 179.974 L
110.316 179.974 L
116.221 179.974 L
122.127 179.974 L
128.033 179.974 L
133.939 179.974 L
139.845 179.974 L
145.751 179.974 L
151.657 179.974 L
157.563 179.974 L
163.469 179.974 L
169.375 179.974 L
175.281 179.974 L
181.187 179.974 L
187.093 179.974 L
187.093 208.75 LE
3 W
1 LJ
74.88 183.911 LS
80.7859 187.838 L
86.6918 192.596 L
92.5978 201.609 L
98.5037 225.791 L
104.41 235.078 L
110.316 237.719 L
116.221 237.58 L
122.127 236.283 L
128.033 234.554 L
133.939 232.723 L
139.845 230.941 L
145.751 229.27 L
151.657 227.732 L
157.563 226.326 L
163.469 225.047 L
169.375 223.881 L
175.281 222.818 L
181.187 221.846 L
187.093 220.954 LE
grestore
gsave
1.0 1.0 scale
newpath 0 0 moveto 576 0 lineto 576 432 lineto 0 432 lineto
closepath clip
1 1 1 C
241.974 253.387 354.186 179.974 241.974 179.974 T
241.974 253.387 354.186 253.387 354.186 179.974 T
0.5 W
0.15 0.15 0.15 C
265.597 179.974 LS
265.597 181.102 LE
265.597 253.387 LS
265.597 252.258 LE
295.127 179.974 LS
295.127 181.102 LE
295.127 253.387 LS
295.127 252.258 LE
324.657 179.974 LS
324.657 181.102 LE
324.657 253.387 LS
324.657 252.258 LE
354.186 179.974 LS
354.186 181.102 LE
354.186 253.387 LS
354.186 252.258 LE
gsave
0.14902 0.14902 0.14902 C
(5) [10] 0 262.597 164.431 10 /Helvetica SRX
grestore

gsave
0.14902 0.14902 0.14902 C
(10) [6 10] 0 289.127 164.431 10 /Helvetica SRX
grestore

gsave
0.14902 0.14902 0.14902 C
(15) [6 10] 0 318.657 164.431 10 /Helvetica SRX
grestore

gsave
0.14902 0.14902 0.14902 C
(20) [6 10] 0 348.186 164.431 10 /Helvetica SRX
grestore

241.974 190.865 LS
243.098 190.865 LE
354.186 190.865 LS
353.062 190.865 LE
241.974 204.319 LS
243.098 204.319 LE
354.186 204.319 LS
353.062 204.319 LE
241.974 217.772 LS
243.098 217.772 LE
354.186 217.772 LS
353.062 217.772 LE
241.974 231.226 LS
243.098 231.226 LE
354.186 231.226 LS
353.062 231.226 LE
241.974 244.679 LS
243.098 244.679 LE
354.186 244.679 LS
353.062 244.679 LE
gsave
0.14902 0.14902 0.14902 C
(0.01) [6 3 6 10] 0 215.964 186.865 10 /Helvetica SRX
grestore

gsave
0.14902 0.14902 0.14902 C
(0.015) [6 3 6 6 10] 0 209.964 200.319 10 /Helvetica SRX
grestore

gsave
0.14902 0.14902 0.14902 C
(0.02) [6 3 6 10] 0 215.964 213.772 10 /Helvetica SRX
grestore

gsave
0.14902 0.14902 0.14902 C
(0.025) [6 3 6 6 10] 0 209.964 227.226 10 /Helvetica SRX
grestore

gsave
0.14902 0.14902 0.14902 C
(0.03) [6 3 6 10] 0 215.964 240.679 10 /Helvetica SRX
grestore

2 LC
[16 0] 0 setdash
241.974 179.974 LS
354.186 179.974 LE
241.974 253.387 LS
354.186 253.387 LE
241.974 179.974 LS
241.974 253.387 LE
354.186 179.974 LS
354.186 253.387 LE
gsave
0 0 0 C
(I_hat) [3 6 7 6 10] 0 285.08 265.387 11 /Helvetica-Bold SRX
grestore

0.9 0.9 0.9 C
241.974 179.974 241.974 240.996 247.88 179.974 T
247.88 243.822 247.88 179.974 241.974 240.996 T
253.786 179.974 247.88 179.974 247.88 243.822 T
253.786 248.987 253.786 179.974 247.88 243.822 T
259.691 179.974 253.786 179.974 253.786 248.987 T
259.691 253.387 259.691 179.974 253.786 248.987 T
265.597 179.974 259.691 179.974 259.691 253.387 T
265.597 244.823 265.597 179.974 259.691 253.387 T
271.503 179.974 265.597 179.974 265.597 244.823 T
271.503 238.452 271.503 179.974 265.597 244.823 T
277.409 179.974 271.503 179.974 271.503 238.452 T
277.409 232.649 277.409 179.974 271.503 238.452 T
283.315 179.974 277.409 179.974 277.409 232.649 T
283.315 228.218 283.315 179.974 277.409 232.649 T
289.221 179.974 283.315 179.974 283.315 228.218 T
289.221 223.51 289.221 179.974 283.315 228.218 T
295.127 179.974 289.221 179.974 289.221 223.51 T
295.127 219.75 295.127 179.974 289.221 223.51 T
301.033 179.974 295.127 179.974 295.127 219.75 T
301.033 216.292 301.033 179.974 295.127 219.75 T
306.939 179.974 301.033 179.974 301.033 216.292 T
306.939 212.401 306.939 179.974 301.033 216.292 T
312.845 179.974 306.939 179.974 306.939 212.401 T
312.845 210.274 312.845 179.974 306.939 212.401 T
318.751 179.974 312.845 179.974 312.845 210.274 T
318.751 206.516 318.751 179.974 312.845 210.274 T
324.657 179.974 318.751 179.974 318.751 206.516 T
324.657 204.928 324.657 179.974 318.751 206.516 T
330.563 179.974 324.657 179.974 324.657 204.928 T
330.563 202.566 330.563 179.974 324.657 204.928 T
336.469 179.974 330.563 179.974 330.563 202.566 T
336.469 199.695 336.469 179.974 330.563 202.566 T
342.374 179.974 336.469 179.974 336.469 199.695 T
342.374 198.168 342.374 179.974 336.469 199.695 T
348.28 179.974 342.374 179.974 342.374 198.168 T
348.28 196.357 348.28 179.974 342.374 198.168 T
354.186 179.974 348.28 179.974 348.28 196.357 T
354.186 194.612 354.186 179.974 348.28 196.357 T
0 LC
[] 0 setdash
0 0 0 C
354.186 194.612 LS
348.28 196.357 L
342.374 198.168 L
336.469 199.695 L
330.563 202.566 L
324.657 204.928 L
318.751 206.516 L
312.845 210.274 L
306.939 212.401 L
301.033 216.292 L
295.127 219.75 L
289.221 223.51 L
283.315 228.218 L
277.409 232.649 L
271.503 238.452 L
265.597 244.823 L
259.691 253.387 L
253.786 248.987 L
247.88 243.822 L
241.974 240.996 L
241.974 179.974 L
247.88 179.974 L
253.786 179.974 L
259.691 179.974 L
265.597 179.974 L
271.503 179.974 L
277.409 179.974 L
283.315 179.974 L
289.221 179.974 L
295.127 179.974 L
301.033 179.974 L
306.939 179.974 L
312.845 179.974 L
318.751 179.974 L
324.657 179.974 L
330.563 179.974 L
336.469 179.974 L
342.374 179.974 L
348.28 179.974 L
354.186 179.974 L
354.186 194.612 LE
1 1 1 C
241.974 179.974 241.974 209.14 247.88 179.974 T
247.88 210.751 247.88 179.974 241.974 209.14 T
253.786 179.974 247.88 179.974 247.88 210.751 T
253.786 214.682 253.786 179.974 247.88 210.751 T
259.691 179.974 253.786 179.974 253.786 214.682 T
259.691 217.892 259.691 179.974 253.786 214.682 T
265.597 179.974 259.691 179.974 259.691 217.892 T
265.597 212.914 265.597 179.974 259.691 217.892 T
271.503 179.974 265.597 179.974 265.597 212.914 T
271.503 208.737 271.503 179.974 265.597 212.914 T
277.409 179.974 271.503 179.974 271.503 208.737 T
277.409 205.206 277.409 179.974 271.503 208.737 T
283.315 179.974 277.409 179.974 277.409 205.206 T
283.315 202.242 283.315 179.974 277.409 205.206 T
289.221 179.974 283.315 179.974 283.315 202.242 T
289.221 198.849 289.221 179.974 283.315 202.242 T
295.127 179.974 289.221 179.974 289.221 198.849 T
295.127 196.55 295.127 179.974 289.221 198.849 T
301.033 179.974 295.127 179.974 295.127 196.55 T
301.033 193.799 301.033 179.974 295.127 196.55 T
306.939 179.974 301.033 179.974 301.033 193.799 T
306.939 190.806 306.939 179.974 301.033 193.799 T
312.845 179.974 306.939 179.974 306.939 190.806 T
312.845 189.526 312.845 179.974 306.939 190.806 T
318.751 179.974 312.845 179.974 312.845 189.526 T
318.751 186.714 318.751 179.974 312.845 189.526 T
324.657 179.974 318.751 179.974 318.751 186.714 T
324.657 186.088 324.657 179.974 318.751 186.714 T
330.563 179.974 324.657 179.974 324.657 186.088 T
330.563 184.606 330.563 179.974 324.657 186.088 T
336.469 179.974 330.563 179.974 330.563 184.606 T
336.469 182.623 336.469 179.974 330.563 184.606 T
342.374 179.974 336.469 179.974 336.469 182.623 T
342.374 181.912 342.374 179.974 336.469 182.623 T
348.28 179.974 342.374 179.974 342.374 181.912 T
348.28 180.964 348.28 179.974 342.374 181.912 T
354.186 179.974 348.28 179.974 348.28 180.964 T
0 0 0 C
354.186 179.974 LS
348.28 180.964 L
342.374 181.912 L
336.469 182.623 L
330.563 184.606 L
324.657 186.088 L
318.751 186.714 L
312.845 189.526 L
306.939 190.806 L
301.033 193.799 L
295.127 196.55 L
289.221 198.849 L
283.315 202.242 L
277.409 205.206 L
271.503 208.737 L
265.597 212.914 L
259.691 217.892 L
253.786 214.682 L
247.88 210.751 L
241.974 209.14 L
241.974 179.974 L
247.88 179.974 L
253.786 179.974 L
259.691 179.974 L
265.597 179.974 L
271.503 179.974 L
277.409 179.974 L
283.315 179.974 L
289.221 179.974 L
295.127 179.974 L
301.033 179.974 L
306.939 179.974 L
312.845 179.974 L
318.751 179.974 L
324.657 179.974 L
330.563 179.974 L
336.469 179.974 L
342.374 179.974 L
348.28 179.974 L
354.186 179.974 LE
3 W
1 LJ
241.974 224.444 LS
247.88 226.838 L
253.786 230.396 L
259.691 234.712 L
265.597 228.271 L
271.503 223.42 L
277.409 218.993 L
283.315 214.899 L
289.221 211.137 L
295.127 207.705 L
301.033 204.584 L
306.939 201.755 L
312.845 199.194 L
318.751 196.878 L
324.657 194.783 L
330.563 192.889 L
336.469 191.178 L
342.374 189.63 L
348.28 188.229 L
354.186 186.962 LE
grestore
gsave
1.0 1.0 scale
newpath 0 0 moveto 576 0 lineto 576 432 lineto 0 432 lineto
closepath clip
1 1 1 C
409.067 253.387 521.28 179.974 409.067 179.974 T
409.067 253.387 521.28 253.387 521.28 179.974 T
0.5 W
0.15 0.15 0.15 C
432.691 179.974 LS
432.691 181.102 LE
432.691 253.387 LS
432.691 252.258 LE
462.221 179.974 LS
462.221 181.102 LE
462.221 253.387 LS
462.221 252.258 LE
491.75 179.974 LS
491.75 181.102 LE
491.75 253.387 LS
491.75 252.258 LE
521.28 179.974 LS
521.28 181.102 LE
521.28 253.387 LS
521.28 252.258 LE
gsave
0.14902 0.14902 0.14902 C
(5) [10] 0 429.691 164.431 10 /Helvetica SRX
grestore

gsave
0.14902 0.14902 0.14902 C
(10) [6 10] 0 456.221 164.431 10 /Helvetica SRX
grestore

gsave
0.14902 0.14902 0.14902 C
(15) [6 10] 0 485.75 164.431 10 /Helvetica SRX
grestore

gsave
0.14902 0.14902 0.14902 C
(20) [6 10] 0 515.28 164.431 10 /Helvetica SRX
grestore

409.067 182.997 LS
410.192 182.997 LE
521.28 182.997 LS
520.156 182.997 LE
409.067 200.634 LS
410.192 200.634 LE
521.28 200.634 LS
520.156 200.634 LE
409.067 218.271 LS
410.192 218.271 LE
521.28 218.271 LS
520.156 218.271 LE
409.067 235.908 LS
410.192 235.908 LE
521.28 235.908 LS
520.156 235.908 LE
gsave
0.14902 0.14902 0.14902 C
(0) [10] 0 398.058 178.997 10 /Helvetica SRX
grestore

gsave
0.14902 0.14902 0.14902 C
(0.002) [6 3 6 6 10] 0 377.058 196.634 10 /Helvetica SRX
grestore

gsave
0.14902 0.14902 0.14902 C
(0.004) [6 3 6 6 10] 0 377.058 214.271 10 /Helvetica SRX
grestore

gsave
0.14902 0.14902 0.14902 C
(0.006) [6 3 6 6 10] 0 377.058 231.908 10 /Helvetica SRX
grestore

2 LC
[16 0] 0 setdash
409.067 179.974 LS
521.28 179.974 LE
409.067 253.387 LS
521.28 253.387 LE
409.067 179.974 LS
409.067 253.387 LE
521.28 179.974 LS
521.28 253.387 LE
gsave
0 0 0 C
(L_hat) [7 6 7 6 10] 0 450.174 265.387 11 /Helvetica-Bold SRX
grestore

0.9 0.9 0.9 C
409.067 179.974 409.067 184.068 414.973 179.974 T
414.973 186.674 414.973 179.974 409.067 184.068 T
420.879 179.974 414.973 179.974 414.973 186.674 T
420.879 193.321 420.879 179.974 414.973 186.674 T
426.785 179.974 420.879 179.974 420.879 193.321 T
426.785 206.915 426.785 179.974 420.879 193.321 T
432.691 179.974 426.785 179.974 426.785 206.915 T
432.691 243.75 432.691 179.974 426.785 206.915 T
438.597 179.974 432.691 179.974 432.691 243.75 T
438.597 253.387 438.597 179.974 432.691 243.75 T
444.503 179.974 438.597 179.974 438.597 253.387 T
444.503 253.376 444.503 179.974 438.597 253.387 T
450.409 179.974 444.503 179.974 444.503 253.376 T
450.409 250.832 450.409 179.974 444.503 253.376 T
456.315 179.974 450.409 179.974 450.409 250.832 T
456.315 247.31 456.315 179.974 450.409 250.832 T
462.221 179.974 456.315 179.974 456.315 247.31 T
462.221 244.828 462.221 179.974 456.315 247.31 T
468.127 179.974 462.221 179.974 462.221 244.828 T
468.127 241.522 468.127 179.974 462.221 244.828 T
474.033 179.974 468.127 179.974 468.127 241.522 T
474.033 238.228 474.033 179.974 468.127 241.522 T
479.939 179.974 474.033 179.974 474.033 238.228 T
479.939 234.519 479.939 179.974 474.033 238.228 T
485.844 179.974 479.939 179.974 479.939 234.519 T
485.844 231.994 485.844 179.974 479.939 234.519 T
491.75 179.974 485.844 179.974 485.844 231.994 T
491.75 229.629 491.75 179.974 485.844 231.994 T
497.656 179.974 491.75 179.974 491.75 229.629 T
497.656 227.805 497.656 179.974 491.75 229.629 T
503.562 179.974 497.656 179.974 497.656 227.805 T
503.562 226.161 503.562 179.974 497.656 227.805 T
509.468 179.974 503.562 179.974 503.562 226.161 T
509.468 224.593 509.468 179.974 503.562 226.161 T
515.374 179.974 509.468 179.974 509.468 224.593 T
515.374 223.239 515.374 179.974 509.468 224.593 T
521.28 179.974 515.374 179.974 515.374 223.239 T
521.28 221.896 521.28 179.974 515.374 223.239 T
0 LC
[] 0 setdash
0 0 0 C
521.28 221.896 LS
515.374 223.239 L
509.468 224.593 L
503.562 226.161 L
497.656 227.805 L
491.75 229.629 L
485.844 231.994 L
479.939 234.519 L
474.033 238.228 L
468.127 241.522 L
462.221 244.828 L
456.315 247.31 L
450.409 250.832 L
444.503 253.376 L
438.597 253.387 L
432.691 243.75 L
426.785 206.915 L
420.879 193.321 L
414.973 186.674 L
409.067 184.068 L
409.067 179.974 L
414.973 179.974 L
420.879 179.974 L
426.785 179.974 L
432.691 179.974 L
438.597 179.974 L
444.503 179.974 L
450.409 179.974 L
456.315 179.974 L
462.221 179.974 L
468.127 179.974 L
474.033 179.974 L
479.939 179.974 L
485.844 179.974 L
491.75 179.974 L
497.656 179.974 L
503.562 179.974 L
509.468 179.974 L
515.374 179.974 L
521.28 179.974 L
521.28 221.896 LE
1 1 1 C
409.067 179.974 414.973 181.604 414.973 179.974 T
420.879 179.974 414.973 179.974 414.973 181.604 T
420.879 184.723 420.879 179.974 414.973 181.604 T
426.785 179.974 420.879 179.974 420.879 184.723 T
426.785 192.208 426.785 179.974 420.879 184.723 T
432.691 179.974 426.785 179.974 426.785 192.208 T
432.691 219.101 432.691 179.974 426.785 192.208 T
438.597 179.974 432.691 179.974 432.691 219.101 T
438.597 225.576 438.597 179.974 432.691 219.101 T
444.503 179.974 438.597 179.974 438.597 225.576 T
444.503 225.804 444.503 179.974 438.597 225.576 T
450.409 179.974 444.503 179.974 444.503 225.804 T
450.409 224.088 450.409 179.974 444.503 225.804 T
456.315 179.974 450.409 179.974 450.409 224.088 T
456.315 221.772 456.315 179.974 450.409 224.088 T
462.221 179.974 456.315 179.974 456.315 221.772 T
462.221 220.751 462.221 179.974 456.315 221.772 T
468.127 179.974 462.221 179.974 462.221 220.751 T
468.127 218.786 468.127 179.974 462.221 220.751 T
474.033 179.974 468.127 179.974 468.127 218.786 T
474.033 216.581 474.033 179.974 468.127 218.786 T
479.939 179.974 474.033 179.974 474.033 216.581 T
479.939 213.904 479.939 179.974 474.033 216.581 T
485.844 179.974 479.939 179.974 479.939 213.904 T
485.844 212.473 485.844 179.974 479.939 213.904 T
491.75 179.974 485.844 179.974 485.844 212.473 T
491.75 210.914 491.75 179.974 485.844 212.473 T
497.656 179.974 491.75 179.974 491.75 210.914 T
497.656 209.769 497.656 179.974 491.75 210.914 T
503.562 179.974 497.656 179.974 497.656 209.769 T
503.562 208.755 503.562 179.974 497.656 209.769 T
509.468 179.974 503.562 179.974 503.562 208.755 T
509.468 207.835 509.468 179.974 503.562 208.755 T
515.374 179.974 509.468 179.974 509.468 207.835 T
515.374 206.971 515.374 179.974 509.468 207.835 T
521.28 179.974 515.374 179.974 515.374 206.971 T
521.28 206.101 521.28 179.974 515.374 206.971 T
0 0 0 C
521.28 206.101 LS
515.374 206.971 L
509.468 207.835 L
503.562 208.755 L
497.656 209.769 L
491.75 210.914 L
485.844 212.473 L
479.939 213.904 L
474.033 216.581 L
468.127 218.786 L
462.221 220.751 L
456.315 221.772 L
450.409 224.088 L
444.503 225.804 L
438.597 225.576 L
432.691 219.101 L
426.785 192.208 L
420.879 184.723 L
414.973 181.604 L
409.067 179.974 L
414.973 179.974 L
420.879 179.974 L
426.785 179.974 L
432.691 179.974 L
438.597 179.974 L
444.503 179.974 L
450.409 179.974 L
456.315 179.974 L
462.221 179.974 L
468.127 179.974 L
474.033 179.974 L
479.939 179.974 L
485.844 179.974 L
491.75 179.974 L
497.656 179.974 L
503.562 179.974 L
509.468 179.974 L
515.374 179.974 L
521.28 179.974 L
521.28 206.101 LE
3 W
1 LJ
409.067 182.186 LS
414.973 184.131 L
420.879 188.466 L
426.785 199.095 L
432.691 232.231 L
438.597 239.966 L
444.503 240.32 L
450.409 238.229 L
456.315 235.369 L
462.221 232.387 L
468.127 229.54 L
474.033 226.924 L
479.939 224.564 L
485.844 222.453 L
491.75 220.571 L
497.656 218.896 L
503.562 217.405 L
509.468 216.077 L
515.374 214.891 L
521.28 213.831 LE
grestore
gsave
1.0 1.0 scale
newpath 0 0 moveto 576 0 lineto 576 432 lineto 0 432 lineto
closepath clip
1 1 1 C
74.88 120.933 187.093 47.52 74.88 47.52 T
74.88 120.933 187.093 120.933 187.093 47.52 T
0.5 W
0.15 0.15 0.15 C
98.5037 47.52 LS
98.5037 48.6485 LE
98.5037 120.933 LS
98.5037 119.805 LE
128.033 47.52 LS
128.033 48.6485 LE
128.033 120.933 LS
128.033 119.805 LE
157.563 47.52 LS
157.563 48.6485 LE
157.563 120.933 LS
157.563 119.805 LE
187.093 47.52 LS
187.093 48.6485 LE
187.093 120.933 LS
187.093 119.805 LE
gsave
0.14902 0.14902 0.14902 C
(5) [10] 0 95.5037 31.9776 10 /Helvetica SRX
grestore

gsave
0.14902 0.14902 0.14902 C
(10) [6 10] 0 122.033 31.9776 10 /Helvetica SRX
grestore

gsave
0.14902 0.14902 0.14902 C
(15) [6 10] 0 151.563 31.9776 10 /Helvetica SRX
grestore

gsave
0.14902 0.14902 0.14902 C
(20) [6 10] 0 181.093 31.9776 10 /Helvetica SRX
grestore

74.88 52.8263 LS
76.0043 52.8263 LE
187.093 52.8263 LS
185.968 52.8263 LE
74.88 65.3394 LS
76.0043 65.3394 LE
187.093 65.3394 LS
185.968 65.3394 LE
74.88 77.8525 LS
76.0043 77.8525 LE
187.093 77.8525 LS
185.968 77.8525 LE
74.88 90.3656 LS
76.0043 90.3656 LE
187.093 90.3656 LS
185.968 90.3656 LE
74.88 102.879 LS
76.0043 102.879 LE
187.093 102.879 LS
185.968 102.879 LE
74.88 115.392 LS
76.0043 115.392 LE
187.093 115.392 LS
185.968 115.392 LE
gsave
0.14902 0.14902 0.14902 C
(-0.006) [3 6 3 6 6 10] 0 39.8705 48.8263 10 /Helvetica SRX
grestore

gsave
0.14902 0.14902 0.14902 C
(-0.004) [3 6 3 6 6 10] 0 39.8705 61.3394 10 /Helvetica SRX
grestore

gsave
0.14902 0.14902 0.14902 C
(-0.002) [3 6 3 6 6 10] 0 39.8705 73.8525 10 /Helvetica SRX
grestore

gsave
0.14902 0.14902 0.14902 C
(0) [10] 0 63.8705 86.3657 10 /Helvetica SRX
grestore

gsave
0.14902 0.14902 0.14902 C
(0.002) [6 3 6 6 10] 0 42.8705 98.8788 10 /Helvetica SRX
grestore

gsave
0.14902 0.14902 0.14902 C
(0.004) [6 3 6 6 10] 0 42.8705 111.392 10 /Helvetica SRX
grestore

2 LC
[16 0] 0 setdash
74.88 47.52 LS
187.093 47.52 LE
74.88 120.933 LS
187.093 120.933 LE
74.88 47.52 LS
74.88 120.933 LE
187.093 47.52 LS
187.093 120.933 LE
gsave
0 0 0 C
(tb_y_hat) [4 7 6 6 6 7 6 10] 0 107.986 133.933 11 /Helvetica-Bold SRX
grestore

0.9 0.9 0.9 C
74.88 47.52 74.88 65.4276 80.7859 47.52 T
80.7859 64.8888 80.7859 47.52 74.88 65.4276 T
86.6918 47.52 80.7859 47.52 80.7859 64.8888 T
86.6918 64.504 86.6918 47.52 80.7859 64.8888 T
92.5978 47.52 86.6918 47.52 86.6918 64.504 T
92.5978 65.213 92.5978 47.52 86.6918 64.504 T
98.5037 47.52 92.5978 47.52 92.5978 65.213 T
98.5037 120.933 98.5037 47.52 92.5978 65.213 T
104.41 47.52 98.5037 47.52 98.5037 120.933 T
104.41 117.242 104.41 47.52 98.5037 120.933 T
110.316 47.52 104.41 47.52 104.41 117.242 T
110.316 113.934 110.316 47.52 104.41 117.242 T
116.221 47.52 110.316 47.52 110.316 113.934 T
116.221 110.101 116.221 47.52 110.316 113.934 T
122.127 47.52 116.221 47.52 116.221 110.101 T
122.127 107.526 122.127 47.52 116.221 110.101 T
128.033 47.52 122.127 47.52 122.127 107.526 T
128.033 105.436 128.033 47.52 122.127 107.526 T
133.939 47.52 128.033 47.52 128.033 105.436 T
133.939 103.649 133.939 47.52 128.033 105.436 T
139.845 47.52 133.939 47.52 133.939 103.649 T
139.845 102.095 139.845 47.52 133.939 103.649 T
145.751 47.52 139.845 47.52 139.845 102.095 T
145.751 100.609 145.751 47.52 139.845 102.095 T
151.657 47.52 145.751 47.52 145.751 100.609 T
151.657 99.3288 151.657 47.52 145.751 100.609 T
157.563 47.52 151.657 47.52 151.657 99.3288 T
157.563 98.204 157.563 47.52 151.657 99.3288 T
163.469 47.52 157.563 47.52 157.563 98.204 T
163.469 97.2779 163.469 47.52 157.563 98.204 T
169.375 47.52 163.469 47.52 163.469 97.2779 T
169.375 96.3966 169.375 47.52 163.469 97.2779 T
175.281 47.52 169.375 47.52 169.375 96.3966 T
175.281 95.7773 175.281 47.52 169.375 96.3966 T
181.187 47.52 175.281 47.52 175.281 95.7773 T
181.187 94.9913 181.187 47.52 175.281 95.7773 T
187.093 47.52 181.187 47.52 181.187 94.9913 T
187.093 94.2754 187.093 47.52 181.187 94.9913 T
0 LC
[] 0 setdash
0 0 0 C
187.093 94.2754 LS
181.187 94.9913 L
175.281 95.7773 L
169.375 96.3966 L
163.469 97.2779 L
157.563 98.204 L
151.657 99.3288 L
145.751 100.609 L
139.845 102.095 L
133.939 103.649 L
128.033 105.436 L
122.127 107.526 L
116.221 110.101 L
110.316 113.934 L
104.41 117.242 L
98.5037 120.933 L
92.5978 65.213 L
86.6918 64.504 L
80.7859 64.8888 L
74.88 65.4276 L
74.88 47.52 L
80.7859 47.52 L
86.6918 47.52 L
92.5978 47.52 L
98.5037 47.52 L
104.41 47.52 L
110.316 47.52 L
116.221 47.52 L
122.127 47.52 L
128.033 47.52 L
133.939 47.52 L
139.845 47.52 L
145.751 47.52 L
151.657 47.52 L
157.563 47.52 L
163.469 47.52 L
169.375 47.52 L
175.281 47.52 L
181.187 47.52 L
187.093 47.52 L
187.093 94.2754 LE
1 1 1 C
86.6918 47.52 92.5978 48.6997 92.5978 47.52 T
98.5037 47.52 92.5978 47.52 92.5978 48.6997 T
98.5037 106.498 98.5037 47.52 92.5978 48.6997 T
104.41 47.52 98.5037 47.52 98.5037 106.498 T
104.41 105.288 104.41 47.52 98.5037 106.498 T
110.316 47.52 104.41 47.52 104.41 105.288 T
110.316 104.103 110.316 47.52 104.41 105.288 T
116.221 47.52 110.316 47.52 110.316 104.103 T
116.221 101.934 116.221 47.52 110.316 104.103 T
122.127 47.52 116.221 47.52 116.221 101.934 T
122.127 100.519 122.127 47.52 116.221 101.934 T
128.033 47.52 122.127 47.52 122.127 100.519 T
128.033 99.2299 128.033 47.52 122.127 100.519 T
133.939 47.52 128.033 47.52 128.033 99.2299 T
133.939 97.947 133.939 47.52 128.033 99.2299 T
139.845 47.52 133.939 47.52 133.939 97.947 T
139.845 96.7193 139.845 47.52 133.939 97.947 T
145.751 47.52 139.845 47.52 139.845 96.7193 T
145.751 95.4968 145.751 47.52 139.845 96.7193 T
151.657 47.52 145.751 47.52 145.751 95.4968 T
151.657 94.5034 151.657 47.52 145.751 95.4968 T
157.563 47.52 151.657 47.52 151.657 94.5034 T
157.563 93.6448 157.563 47.52 151.657 94.5034 T
163.469 47.52 157.563 47.52 157.563 93.6448 T
163.469 92.9618 163.469 47.52 157.563 93.6448 T
169.375 47.52 163.469 47.52 163.469 92.9618 T
169.375 92.3277 169.375 47.52 163.469 92.9618 T
175.281 47.52 169.375 47.52 169.375 92.3277 T
175.281 91.9522 175.281 47.52 169.375 92.3277 T
181.187 47.52 175.281 47.52 175.281 91.9522 T
181.187 91.4375 181.187 47.52 175.281 91.9522 T
187.093 47.52 181.187 47.52 181.187 91.4375 T
187.093 90.9897 187.093 47.52 181.187 91.4375 T
74.88 47.52 74.88 48.5884 80.7859 47.52 T
80.7859 47.8428 80.7859 47.52 74.88 48.5884 T
86.6918 47.52 80.7859 47.52 80.7859 47.8428 T
0 0 0 C
86.6918 47.52 LS
80.7859 47.8428 L
74.88 48.5884 L
74.88 47.52 L
80.7859 47.52 L
86.6918 47.52 LE
187.093 90.9897 LS
181.187 91.4375 L
175.281 91.9522 L
169.375 92.3277 L
163.469 92.9618 L
157.563 93.6448 L
151.657 94.5034 L
145.751 95.4968 L
139.845 96.7193 L
133.939 97.947 L
128.033 99.2299 L
122.127 100.519 L
116.221 101.934 L
110.316 104.103 L
104.41 105.288 L
98.5037 106.498 L
92.5978 48.6997 L
86.6918 47.52 L
92.5978 47.52 L
98.5037 47.52 L
104.41 47.52 L
110.316 47.52 L
116.221 47.52 L
122.127 47.52 L
128.033 47.52 L
133.939 47.52 L
139.845 47.52 L
145.751 47.52 L
151.657 47.52 L
157.563 47.52 L
163.469 47.52 L
169.375 47.52 L
175.281 47.52 L
181.187 47.52 L
187.093 47.52 L
187.093 90.9897 LE
3 W
1 LJ
74.88 57.6106 LS
80.7859 56.9406 L
86.6918 56.5023 L
92.5978 56.7345 L
98.5037 114.165 L
104.41 111.416 L
110.316 108.564 L
116.221 106.076 L
122.127 103.944 L
128.033 102.108 L
133.939 100.517 L
139.845 99.1299 L
145.751 97.9147 L
151.657 96.8472 L
157.563 95.9076 L
163.469 95.0793 L
169.375 94.3484 L
175.281 93.7031 L
181.187 93.133 L
187.093 92.6292 LE
grestore
gsave
1.0 1.0 scale
newpath 0 0 moveto 576 0 lineto 576 432 lineto 0 432 lineto
closepath clip
1 1 1 C
241.974 120.933 354.186 47.52 241.974 47.52 T
241.974 120.933 354.186 120.933 354.186 47.52 T
0.5 W
0.15 0.15 0.15 C
265.597 47.52 LS
265.597 48.6485 LE
265.597 120.933 LS
265.597 119.805 LE
295.127 47.52 LS
295.127 48.6485 LE
295.127 120.933 LS
295.127 119.805 LE
324.657 47.52 LS
324.657 48.6485 LE
324.657 120.933 LS
324.657 119.805 LE
354.186 47.52 LS
354.186 48.6485 LE
354.186 120.933 LS
354.186 119.805 LE
gsave
0.14902 0.14902 0.14902 C
(5) [10] 0 262.597 31.9776 10 /Helvetica SRX
grestore

gsave
0.14902 0.14902 0.14902 C
(10) [6 10] 0 289.127 31.9776 10 /Helvetica SRX
grestore

gsave
0.14902 0.14902 0.14902 C
(15) [6 10] 0 318.657 31.9776 10 /Helvetica SRX
grestore

gsave
0.14902 0.14902 0.14902 C
(20) [6 10] 0 348.186 31.9776 10 /Helvetica SRX
grestore

241.974 57.1505 LS
243.098 57.1505 LE
354.186 57.1505 LS
353.062 57.1505 LE
241.974 74.0014 LS
243.098 74.0014 LE
354.186 74.0014 LS
353.062 74.0014 LE
241.974 90.8522 LS
243.098 90.8522 LE
354.186 90.8522 LS
353.062 90.8522 LE
241.974 107.703 LS
243.098 107.703 LE
354.186 107.703 LS
353.062 107.703 LE
gsave
0.14902 0.14902 0.14902 C
(0) [10] 0 230.964 53.1506 10 /Helvetica SRX
grestore

gsave
0.14902 0.14902 0.14902 C
(0.02) [6 3 6 10] 0 215.964 70.0014 10 /Helvetica SRX
grestore

gsave
0.14902 0.14902 0.14902 C
(0.04) [6 3 6 10] 0 215.964 86.8523 10 /Helvetica SRX
grestore

gsave
0.14902 0.14902 0.14902 C
(0.06) [6 3 6 10] 0 215.964 103.703 10 /Helvetica SRX
grestore

2 LC
[16 0] 0 setdash
241.974 47.52 LS
354.186 47.52 LE
241.974 120.933 LS
354.186 120.933 LE
241.974 47.52 LS
241.974 120.933 LE
354.186 47.52 LS
354.186 120.933 LE
gsave
0 0 0 C
(D_hat) [8 6 7 6 10] 0 282.58 132.933 11 /Helvetica-Bold SRX
grestore

0.9 0.9 0.9 C
241.974 47.52 241.974 72.3317 247.88 47.52 T
247.88 88.0304 247.88 47.52 241.974 72.3317 T
253.786 47.52 247.88 47.52 247.88 88.0304 T
253.786 104.434 253.786 47.52 247.88 88.0304 T
259.691 47.52 253.786 47.52 253.786 104.434 T
259.691 120.933 259.691 47.52 253.786 104.434 T
265.597 47.52 259.691 47.52 259.691 120.933 T
265.597 111.047 265.597 47.52 259.691 120.933 T
271.503 47.52 265.597 47.52 265.597 111.047 T
271.503 103.084 271.503 47.52 265.597 111.047 T
277.409 47.52 271.503 47.52 271.503 103.084 T
277.409 95.4265 277.409 47.52 271.503 103.084 T
283.315 47.52 277.409 47.52 277.409 95.4265 T
283.315 88.877 283.315 47.52 277.409 95.4265 T
289.221 47.52 283.315 47.52 283.315 88.877 T
289.221 83.7966 289.221 47.52 283.315 88.877 T
295.127 47.52 289.221 47.52 289.221 83.7966 T
295.127 78.9488 295.127 47.52 289.221 83.7966 T
301.033 47.52 295.127 47.52 295.127 78.9488 T
301.033 74.3324 301.033 47.52 295.127 78.9488 T
306.939 47.52 301.033 47.52 301.033 74.3324 T
306.939 70.1236 306.939 47.52 301.033 74.3324 T
312.845 47.52 306.939 47.52 306.939 70.1236 T
312.845 66.9467 312.845 47.52 306.939 70.1236 T
318.751 47.52 312.845 47.52 312.845 66.9467 T
318.751 63.1843 318.751 47.52 312.845 66.9467 T
324.657 47.52 318.751 47.52 318.751 63.1843 T
324.657 61.1174 324.657 47.52 318.751 63.1843 T
330.563 47.52 324.657 47.52 324.657 61.1174 T
330.563 58.4029 330.563 47.52 324.657 61.1174 T
336.469 47.52 330.563 47.52 330.563 58.4029 T
336.469 56.6269 336.469 47.52 330.563 58.4029 T
342.374 47.52 336.469 47.52 336.469 56.6269 T
342.374 54.8338 342.374 47.52 336.469 56.6269 T
348.28 47.52 342.374 47.52 342.374 54.8338 T
348.28 53.8555 348.28 47.52 342.374 54.8338 T
354.186 47.52 348.28 47.52 348.28 53.8555 T
354.186 52.9338 354.186 47.52 348.28 53.8555 T
0 LC
[] 0 setdash
0 0 0 C
354.186 52.9338 LS
348.28 53.8555 L
342.374 54.8338 L
336.469 56.6269 L
330.563 58.4029 L
324.657 61.1174 L
318.751 63.1843 L
312.845 66.9467 L
306.939 70.1236 L
301.033 74.3324 L
295.127 78.9488 L
289.221 83.7966 L
283.315 88.877 L
277.409 95.4265 L
271.503 103.084 L
265.597 111.047 L
259.691 120.933 L
253.786 104.434 L
247.88 88.0304 L
241.974 72.3317 L
241.974 47.52 L
247.88 47.52 L
253.786 47.52 L
259.691 47.52 L
265.597 47.52 L
271.503 47.52 L
277.409 47.52 L
283.315 47.52 L
289.221 47.52 L
295.127 47.52 L
301.033 47.52 L
306.939 47.52 L
312.845 47.52 L
318.751 47.52 L
324.657 47.52 L
330.563 47.52 L
336.469 47.52 L
342.374 47.52 L
348.28 47.52 L
354.186 47.52 L
354.186 52.9338 LE
1 1 1 C
241.974 47.52 241.974 65.8767 247.88 47.52 T
247.88 74.8894 247.88 47.52 241.974 65.8767 T
253.786 47.52 247.88 47.52 247.88 74.8894 T
253.786 84.5789 253.786 47.52 247.88 74.8894 T
259.691 47.52 253.786 47.52 253.786 84.5789 T
259.691 94.455 259.691 47.52 253.786 84.5789 T
265.597 47.52 259.691 47.52 259.691 94.455 T
265.597 87.7996 265.597 47.52 259.691 94.455 T
271.503 47.52 265.597 47.52 265.597 87.7996 T
271.503 82.4856 271.503 47.52 265.597 87.7996 T
277.409 47.52 271.503 47.52 271.503 82.4856 T
277.409 76.9367 277.409 47.52 271.503 82.4856 T
283.315 47.52 277.409 47.52 277.409 76.9367 T
283.315 72.2552 283.315 47.52 277.409 76.9367 T
289.221 47.52 283.315 47.52 283.315 72.2552 T
289.221 69.1192 289.221 47.52 283.315 72.2552 T
295.127 47.52 289.221 47.52 289.221 69.1192 T
295.127 66.08 295.127 47.52 289.221 69.1192 T
301.033 47.52 295.127 47.52 295.127 66.08 T
301.033 63.033 301.033 47.52 295.127 66.08 T
306.939 47.52 301.033 47.52 301.033 63.033 T
306.939 60.3072 306.939 47.52 301.033 63.033 T
312.845 47.52 306.939 47.52 306.939 60.3072 T
312.845 58.4275 312.845 47.52 306.939 60.3072 T
318.751 47.52 312.845 47.52 312.845 58.4275 T
318.751 55.8638 318.751 47.52 312.845 58.4275 T
324.657 47.52 318.751 47.52 318.751 55.8638 T
324.657 54.8713 324.657 47.52 318.751 55.8638 T
330.563 47.52 324.657 47.52 324.657 54.8713 T
330.563 53.1481 330.563 47.52 324.657 54.8713 T
336.469 47.52 330.563 47.52 330.563 53.1481 T
336.469 52.0804 336.469 47.52 330.563 53.1481 T
342.374 47.52 336.469 47.52 336.469 52.0804 T
342.374 50.3395 342.374 47.52 336.469 52.0804 T
348.28 47.52 342.374 47.52 342.374 50.3395 T
348.28 48.9822 348.28 47.52 342.374 50.3395 T
354.186 47.52 348.28 47.52 348.28 48.9822 T
0 0 0 C
354.186 47.52 LS
348.28 48.9822 L
342.374 50.3395 L
336.469 52.0804 L
330.563 53.1481 L
324.657 54.8713 L
318.751 55.8638 L
312.845 58.4275 L
306.939 60.3072 L
301.033 63.033 L
295.127 66.08 L
289.221 69.1192 L
283.315 72.2552 L
277.409 76.9367 L
271.503 82.4856 L
265.597 87.7996 L
259.691 94.455 L
253.786 84.5789 L
247.88 74.8894 L
241.974 65.8767 L
241.974 47.52 L
247.88 47.52 L
253.786 47.52 L
259.691 47.52 L
265.597 47.52 L
271.503 47.52 L
277.409 47.52 L
283.315 47.52 L
289.221 47.52 L
295.127 47.52 L
301.033 47.52 L
306.939 47.52 L
312.845 47.52 L
318.751 47.52 L
324.657 47.52 L
330.563 47.52 L
336.469 47.52 L
342.374 47.52 L
348.28 47.52 L
354.186 47.52 LE
3 W
1 LJ
241.974 69.2177 LS
247.88 81.7088 L
253.786 94.6344 L
259.691 107.75 L
265.597 99.658 L
271.503 92.574 L
277.409 86.4072 L
283.315 81.0252 L
289.221 76.313 L
295.127 72.1769 L
301.033 68.5405 L
306.939 65.3402 L
312.845 62.5224 L
318.751 60.0413 L
324.657 57.857 L
330.563 55.935 L
336.469 54.245 L
342.374 52.7604 L
348.28 51.4579 L
354.186 50.3168 LE
grestore
gsave
1.0 1.0 scale
newpath 0 0 moveto 576 0 lineto 576 432 lineto 0 432 lineto
closepath clip
1 1 1 C
409.067 120.933 521.28 47.52 409.067 47.52 T
409.067 120.933 521.28 120.933 521.28 47.52 T
0.5 W
0.15 0.15 0.15 C
432.691 47.52 LS
432.691 48.6485 LE
432.691 120.933 LS
432.691 119.805 LE
462.221 47.52 LS
462.221 48.6485 LE
462.221 120.933 LS
462.221 119.805 LE
491.75 47.52 LS
491.75 48.6485 LE
491.75 120.933 LS
491.75 119.805 LE
521.28 47.52 LS
521.28 48.6485 LE
521.28 120.933 LS
521.28 119.805 LE
gsave
0.14902 0.14902 0.14902 C
(5) [10] 0 429.691 31.9776 10 /Helvetica SRX
grestore

gsave
0.14902 0.14902 0.14902 C
(10) [6 10] 0 456.221 31.9776 10 /Helvetica SRX
grestore

gsave
0.14902 0.14902 0.14902 C
(15) [6 10] 0 485.75 31.9776 10 /Helvetica SRX
grestore

gsave
0.14902 0.14902 0.14902 C
(20) [6 10] 0 515.28 31.9776 10 /Helvetica SRX
grestore

409.067 59.6285 LS
410.192 59.6285 LE
521.28 59.6285 LS
520.156 59.6285 LE
409.067 79.7461 LS
410.192 79.7461 LE
521.28 79.7461 LS
520.156 79.7461 LE
409.067 99.8636 LS
410.192 99.8636 LE
521.28 99.8636 LS
520.156 99.8636 LE
409.067 119.981 LS
410.192 119.981 LE
521.28 119.981 LS
520.156 119.981 LE
gsave
0.14902 0.14902 0.14902 C
(0.002) [6 3 6 6 10] 0 377.058 55.6286 10 /Helvetica SRX
grestore

gsave
0.14902 0.14902 0.14902 C
(0.004) [6 3 6 6 10] 0 377.058 75.7461 10 /Helvetica SRX
grestore

gsave
0.14902 0.14902 0.14902 C
(0.006) [6 3 6 6 10] 0 377.058 95.8636 10 /Helvetica SRX
grestore

gsave
0.14902 0.14902 0.14902 C
(0.008) [6 3 6 6 10] 0 377.058 115.981 10 /Helvetica SRX
grestore

2 LC
[16 0] 0 setdash
409.067 47.52 LS
521.28 47.52 LE
409.067 120.933 LS
521.28 120.933 LE
409.067 47.52 LS
409.067 120.933 LE
521.28 47.52 LS
521.28 120.933 LE
gsave
0 0 0 C
(reer_hat) [4 6 6 4 6 7 6 10] 0 443.674 132.933 11 /Helvetica-Bold SRX
grestore

0.9 0.9 0.9 C
409.067 47.52 409.067 62.9711 414.973 47.52 T
414.973 59.5044 414.973 47.52 409.067 62.9711 T
420.879 47.52 414.973 47.52 414.973 59.5044 T
420.879 60.6832 420.879 47.52 414.973 59.5044 T
426.785 47.52 420.879 47.52 420.879 60.6832 T
426.785 69.7466 426.785 47.52 420.879 60.6832 T
432.691 47.52 426.785 47.52 426.785 69.7466 T
432.691 113.109 432.691 47.52 426.785 69.7466 T
438.597 47.52 432.691 47.52 432.691 113.109 T
438.597 120.933 438.597 47.52 432.691 113.109 T
444.503 47.52 438.597 47.52 438.597 120.933 T
444.503 116.746 444.503 47.52 438.597 120.933 T
450.409 47.52 444.503 47.52 444.503 116.746 T
450.409 109.422 450.409 47.52 444.503 116.746 T
456.315 47.52 450.409 47.52 450.409 109.422 T
456.315 104.936 456.315 47.52 450.409 109.422 T
462.221 47.52 456.315 47.52 456.315 104.936 T
462.221 98.9094 462.221 47.52 456.315 104.936 T
468.127 47.52 462.221 47.52 462.221 98.9094 T
468.127 94.4182 468.127 47.52 462.221 98.9094 T
474.033 47.52 468.127 47.52 468.127 94.4182 T
474.033 89.947 474.033 47.52 468.127 94.4182 T
479.939 47.52 474.033 47.52 474.033 89.947 T
479.939 85.9126 479.939 47.52 474.033 89.947 T
485.844 47.52 479.939 47.52 479.939 85.9126 T
485.844 82.3857 485.844 47.52 479.939 85.9126 T
491.75 47.52 485.844 47.52 485.844 82.3857 T
491.75 79.4638 491.75 47.52 485.844 82.3857 T
497.656 47.52 491.75 47.52 491.75 79.4638 T
497.656 75.9508 497.656 47.52 491.75 79.4638 T
503.562 47.52 497.656 47.52 497.656 75.9508 T
503.562 73.4105 503.562 47.52 497.656 75.9508 T
509.468 47.52 503.562 47.52 503.562 73.4105 T
509.468 70.8549 509.468 47.52 503.562 73.4105 T
515.374 47.52 509.468 47.52 509.468 70.8549 T
515.374 68.7769 515.374 47.52 509.468 70.8549 T
521.28 47.52 515.374 47.52 515.374 68.7769 T
521.28 66.7655 521.28 47.52 515.374 68.7769 T
0 LC
[] 0 setdash
0 0 0 C
521.28 66.7655 LS
515.374 68.7769 L
509.468 70.8549 L
503.562 73.4105 L
497.656 75.9508 L
491.75 79.4638 L
485.844 82.3857 L
479.939 85.9126 L
474.033 89.947 L
468.127 94.4182 L
462.221 98.9094 L
456.315 104.936 L
450.409 109.422 L
444.503 116.746 L
438.597 120.933 L
432.691 113.109 L
426.785 69.7466 L
420.879 60.6832 L
414.973 59.5044 L
409.067 62.9711 L
409.067 47.52 L
414.973 47.52 L
420.879 47.52 L
426.785 47.52 L
432.691 47.52 L
438.597 47.52 L
444.503 47.52 L
450.409 47.52 L
456.315 47.52 L
462.221 47.52 L
468.127 47.52 L
474.033 47.52 L
479.939 47.52 L
485.844 47.52 L
491.75 47.52 L
497.656 47.52 L
503.562 47.52 L
509.468 47.52 L
515.374 47.52 L
521.28 47.52 L
521.28 66.7655 LE
1 1 1 C
420.879 47.52 426.785 48.6502 426.785 47.52 T
432.691 47.52 426.785 47.52 426.785 48.6502 T
432.691 83.6025 432.691 47.52 426.785 48.6502 T
438.597 47.52 432.691 47.52 432.691 83.6025 T
438.597 89.535 438.597 47.52 432.691 83.6025 T
444.503 47.52 438.597 47.52 438.597 89.535 T
444.503 86.4655 444.503 47.52 438.597 89.535 T
450.409 47.52 444.503 47.52 444.503 86.4655 T
450.409 81.273 450.409 47.52 444.503 86.4655 T
456.315 47.52 450.409 47.52 450.409 81.273 T
456.315 79.2178 456.315 47.52 450.409 81.273 T
462.221 47.52 456.315 47.52 456.315 79.2178 T
462.221 75.2013 462.221 47.52 456.315 79.2178 T
468.127 47.52 462.221 47.52 462.221 75.2013 T
468.127 72.5923 468.127 47.52 462.221 75.2013 T
474.033 47.52 468.127 47.52 468.127 72.5923 T
474.033 70.0145 474.033 47.52 468.127 72.5923 T
479.939 47.52 474.033 47.52 474.033 70.0145 T
479.939 67.3754 479.939 47.52 474.033 70.0145 T
485.844 47.52 479.939 47.52 479.939 67.3754 T
485.844 65.0675 485.844 47.52 479.939 67.3754 T
491.75 47.52 485.844 47.52 485.844 65.0675 T
491.75 63.2824 491.75 47.52 485.844 65.0675 T
497.656 47.52 491.75 47.52 491.75 63.2824 T
497.656 60.9695 497.656 47.52 491.75 63.2824 T
503.562 47.52 497.656 47.52 497.656 60.9695 T
503.562 59.4532 503.562 47.52 497.656 60.9695 T
509.468 47.52 503.562 47.52 503.562 59.4532 T
509.468 57.8379 509.468 47.52 503.562 59.4532 T
515.374 47.52 509.468 47.52 509.468 57.8379 T
515.374 56.5938 515.374 47.52 509.468 57.8379 T
521.28 47.52 515.374 47.52 515.374 56.5938 T
521.28 55.3636 521.28 47.52 515.374 56.5938 T
409.067 47.52 409.067 51.4434 414.973 47.52 T
414.973 48.7688 414.973 47.52 409.067 51.4434 T
420.879 47.52 414.973 47.52 414.973 48.7688 T
0 0 0 C
420.879 47.52 LS
414.973 48.7688 L
409.067 51.4434 L
409.067 47.52 L
414.973 47.52 L
420.879 47.52 LE
521.28 55.3636 LS
515.374 56.5938 L
509.468 57.8379 L
503.562 59.4532 L
497.656 60.9695 L
491.75 63.2824 L
485.844 65.0675 L
479.939 67.3754 L
474.033 70.0145 L
468.127 72.5923 L
462.221 75.2013 L
456.315 79.2178 L
450.409 81.273 L
444.503 86.4655 L
438.597 89.535 L
432.691 83.6025 L
426.785 48.6502 L
420.879 47.52 L
426.785 47.52 L
432.691 47.52 L
438.597 47.52 L
444.503 47.52 L
450.409 47.52 L
456.315 47.52 L
462.221 47.52 L
468.127 47.52 L
474.033 47.52 L
479.939 47.52 L
485.844 47.52 L
491.75 47.52 L
497.656 47.52 L
503.562 47.52 L
509.468 47.52 L
515.374 47.52 L
521.28 47.52 L
521.28 55.3636 LE
3 W
1 LJ
409.067 57.1585 LS
414.973 54.148 L
420.879 53.6621 L
426.785 59.5378 L
432.691 98.3801 L
438.597 103.926 L
444.503 100.635 L
450.409 95.7738 L
456.315 91.0134 L
462.221 86.6797 L
468.127 82.7903 L
474.033 79.2999 L
479.939 76.1577 L
485.844 73.3196 L
491.75 70.7487 L
497.656 68.4146 L
503.562 66.2913 L
509.468 64.3568 L
515.374 62.592 L
521.28 60.9801 LE
grestore
grestore
showpage
cleartomark
%%PageTrailer
%%Trailer
end
%%EOF
