%!PS-Adobe-3.0 EPSF-3.0
%%Title: gl2ps_renderer figure
%%Creator: GL2PS 1.4.2, (C) 1999-2020 C. Geuzaine
%%For: Octave
%%CreationDate: Wed Oct  7 07:02:51 2020
%%LanguageLevel: 3
%%DocumentData: Clean7Bit
%%Pages: 1
%%BoundingBox: 0 0 576 432
%%EndComments
%%BeginProlog
/gl2psdict 64 dict def gl2psdict begin
/tryPS3shading false def % set to false to force subdivision
/rThreshold 0.064 def % red component subdivision threshold
/gThreshold 0.034 def % green component subdivision threshold
/bThreshold 0.1 def % blue component subdivision threshold
/BD { bind def } bind def
/C  { setrgbcolor } BD
/G  { 0.082 mul exch 0.6094 mul add exch 0.3086 mul add neg 1.0 add setgray } BD
/W  { setlinewidth } BD
/LC  { setlinecap } BD
/LJ  { setlinejoin } BD
/FC { findfont exch /SH exch def SH scalefont setfont } BD
/SW { dup stringwidth pop } BD
/S  { FC moveto show } BD
/SBC{ FC moveto SW -2 div 0 rmoveto show } BD
/SBR{ FC moveto SW neg 0 rmoveto show } BD
/SCL{ FC moveto 0 SH -2 div rmoveto show } BD
/SCC{ FC moveto SW -2 div SH -2 div rmoveto show } BD
/SCR{ FC moveto SW neg SH -2 div rmoveto show } BD
/STL{ FC moveto 0 SH neg rmoveto show } BD
/STC{ FC moveto SW -2 div SH neg rmoveto show } BD
/STR{ FC moveto SW neg SH neg rmoveto show } BD
/FCT { FC translate 0 0 } BD
/SR  { gsave FCT moveto rotate show grestore } BD
/SRX  { gsave FCT moveto rotate xshow grestore } BD
/SBCR{ gsave FCT moveto rotate SW -2 div 0 rmoveto show grestore } BD
/SBRR{ gsave FCT moveto rotate SW neg 0 rmoveto show grestore } BD
/SCLR{ gsave FCT moveto rotate 0 SH -2 div rmoveto show grestore} BD
/SCCR{ gsave FCT moveto rotate SW -2 div SH -2 div rmoveto show grestore} BD
/SCRR{ gsave FCT moveto rotate SW neg SH -2 div rmoveto show grestore} BD
/STLR{ gsave FCT moveto rotate 0 SH neg rmoveto show grestore } BD
/STCR{ gsave FCT moveto rotate SW -2 div SH neg rmoveto show grestore } BD
/STRR{ gsave FCT moveto rotate SW neg SH neg rmoveto show grestore } BD
/P  { newpath 0.0 360.0 arc closepath fill } BD
/LS { newpath moveto } BD
/L  { lineto } BD
/LE { lineto stroke } BD
/T  { newpath moveto lineto lineto closepath fill } BD
/STshfill {
      /b1 exch def /g1 exch def /r1 exch def /y1 exch def /x1 exch def
      /b2 exch def /g2 exch def /r2 exch def /y2 exch def /x2 exch def
      /b3 exch def /g3 exch def /r3 exch def /y3 exch def /x3 exch def
      gsave << /ShadingType 4 /ColorSpace [/DeviceRGB]
      /DataSource [ 0 x1 y1 r1 g1 b1 0 x2 y2 r2 g2 b2 0 x3 y3 r3 g3 b3 ] >>
      shfill grestore } BD
/Tm { 3 -1 roll 8 -1 roll 13 -1 roll add add 3 div
      3 -1 roll 7 -1 roll 11 -1 roll add add 3 div
      3 -1 roll 6 -1 roll 9 -1 roll add add 3 div C T } BD
/STsplit {
      4 index 15 index add 0.5 mul
      4 index 15 index add 0.5 mul
      4 index 15 index add 0.5 mul
      4 index 15 index add 0.5 mul
      4 index 15 index add 0.5 mul
      5 copy 5 copy 25 15 roll
      9 index 30 index add 0.5 mul
      9 index 30 index add 0.5 mul
      9 index 30 index add 0.5 mul
      9 index 30 index add 0.5 mul
      9 index 30 index add 0.5 mul
      5 copy 5 copy 35 5 roll 25 5 roll 15 5 roll
      4 index 10 index add 0.5 mul
      4 index 10 index add 0.5 mul
      4 index 10 index add 0.5 mul
      4 index 10 index add 0.5 mul
      4 index 10 index add 0.5 mul
      5 copy 5 copy 40 5 roll 25 5 roll 15 5 roll 25 5 roll
      STnoshfill STnoshfill STnoshfill STnoshfill } BD
/STnoshfill {
      2 index 8 index sub abs rThreshold gt
      { STsplit }
      { 1 index 7 index sub abs gThreshold gt
        { STsplit }
        { dup 6 index sub abs bThreshold gt
          { STsplit }
          { 2 index 13 index sub abs rThreshold gt
            { STsplit }
            { 1 index 12 index sub abs gThreshold gt
              { STsplit }
              { dup 11 index sub abs bThreshold gt
                { STsplit }
                { 7 index 13 index sub abs rThreshold gt
                  { STsplit }
                  { 6 index 12 index sub abs gThreshold gt
                    { STsplit }
                    { 5 index 11 index sub abs bThreshold gt
                      { STsplit }
                      { Tm }
                      ifelse }
                    ifelse }
                  ifelse }
                ifelse }
              ifelse }
            ifelse }
          ifelse }
        ifelse }
      ifelse } BD
tryPS3shading
{ /shfill where
  { /ST { STshfill } BD }
  { /ST { STnoshfill } BD }
  ifelse }
{ /ST { STnoshfill } BD }
ifelse
end
%%EndProlog
%%BeginSetup
/DeviceRGB setcolorspace
gl2psdict begin
%%EndSetup
%%Page: 1 1
%%BeginPageSetup
%%EndPageSetup
mark
gsave
1.0 1.0 scale
1 1 1 C
newpath 0 0 moveto 576 0 lineto 576 432 lineto 0 432 lineto
closepath fill
gsave
1.0 1.0 scale
1 1 1 C
newpath 0 0 moveto 576 0 lineto 576 432 lineto 0 432 lineto
closepath fill
newpath 0 0 moveto 576 0 lineto 576 432 lineto 0 432 lineto
closepath clip
1 1 1 C
74.88 386.841 187.093 312.427 74.88 312.427 T
74.88 386.841 187.093 386.841 187.093 312.427 T
0.5 W
0.15 0.15 0.15 C
98.5037 312.427 LS
98.5037 313.556 LE
98.5037 386.841 LS
98.5037 385.712 LE
128.033 312.427 LS
128.033 313.556 LE
128.033 386.841 LS
128.033 385.712 LE
157.563 312.427 LS
157.563 313.556 LE
157.563 386.841 LS
157.563 385.712 LE
187.093 312.427 LS
187.093 313.556 LE
187.093 386.841 LS
187.093 385.712 LE
gsave
0.14902 0.14902 0.14902 C
(5) [10] 0 95.5037 296.886 10 /Helvetica SRX
grestore

gsave
0.14902 0.14902 0.14902 C
(10) [6 10] 0 122.033 296.886 10 /Helvetica SRX
grestore

gsave
0.14902 0.14902 0.14902 C
(15) [6 10] 0 151.563 296.886 10 /Helvetica SRX
grestore

gsave
0.14902 0.14902 0.14902 C
(20) [6 10] 0 181.093 296.886 10 /Helvetica SRX
grestore

74.88 325.987 LS
76.0043 325.987 LE
187.093 325.987 LS
185.968 325.987 LE
74.88 341.481 LS
76.0043 341.481 LE
187.093 341.481 LS
185.968 341.481 LE
74.88 356.975 LS
76.0043 356.975 LE
187.093 356.975 LS
185.968 356.975 LE
74.88 372.468 LS
76.0043 372.468 LE
187.093 372.468 LS
185.968 372.468 LE
gsave
0.14902 0.14902 0.14902 C
(-0.0015) [3 6 3 6 6 6 10] 0 33.8705 321.987 10 /Helvetica SRX
grestore

gsave
0.14902 0.14902 0.14902 C
(-0.001) [3 6 3 6 6 10] 0 39.8705 337.481 10 /Helvetica SRX
grestore

gsave
0.14902 0.14902 0.14902 C
(-0.0005) [3 6 3 6 6 6 10] 0 33.8705 352.975 10 /Helvetica SRX
grestore

gsave
0.14902 0.14902 0.14902 C
(0) [10] 0 63.8705 368.468 10 /Helvetica SRX
grestore

2 LC
[16 0] 0 setdash
74.88 312.427 LS
187.093 312.427 LE
74.88 386.841 LS
187.093 386.841 LE
74.88 312.427 LS
74.88 386.841 LE
187.093 312.427 LS
187.093 386.841 LE
gsave
0 0 0 C
(Y_T_hat) [7 6 7 6 7 6 10] 0 109.486 398.841 11 /Helvetica-Bold SRX
grestore

0.9 0.9 0.9 C
74.88 312.427 74.88 366.225 80.7859 312.427 T
80.7859 362.357 80.7859 312.427 74.88 366.225 T
86.6918 312.427 80.7859 312.427 80.7859 362.357 T
86.6918 359.244 86.6918 312.427 80.7859 362.357 T
92.5978 312.427 86.6918 312.427 86.6918 359.244 T
92.5978 356.329 92.5978 312.427 86.6918 359.244 T
98.5037 312.427 92.5978 312.427 92.5978 356.329 T
98.5037 354.488 98.5037 312.427 92.5978 356.329 T
104.41 312.427 98.5037 312.427 98.5037 354.488 T
104.41 354.712 104.41 312.427 98.5037 354.488 T
110.316 312.427 104.41 312.427 104.41 354.712 T
110.316 356.498 110.316 312.427 104.41 354.712 T
116.221 312.427 110.316 312.427 110.316 356.498 T
116.221 360.713 116.221 312.427 110.316 356.498 T
122.127 312.427 116.221 312.427 116.221 360.713 T
122.127 365.488 122.127 312.427 116.221 360.713 T
128.033 312.427 122.127 312.427 122.127 365.488 T
128.033 368.179 128.033 312.427 122.127 365.488 T
133.939 312.427 128.033 312.427 128.033 368.179 T
133.939 370.112 133.939 312.427 128.033 368.179 T
139.845 312.427 133.939 312.427 133.939 370.112 T
139.845 372.928 139.845 312.427 133.939 370.112 T
145.751 312.427 139.845 312.427 139.845 372.928 T
145.751 374.517 145.751 312.427 139.845 372.928 T
151.657 312.427 145.751 312.427 145.751 374.517 T
151.657 376.126 151.657 312.427 145.751 374.517 T
157.563 312.427 151.657 312.427 151.657 376.126 T
157.563 378.847 157.563 312.427 151.657 376.126 T
163.469 312.427 157.563 312.427 157.563 378.847 T
163.469 380.082 163.469 312.427 157.563 378.847 T
169.375 312.427 163.469 312.427 163.469 380.082 T
169.375 381.789 169.375 312.427 163.469 380.082 T
175.281 312.427 169.375 312.427 169.375 381.789 T
175.281 384.441 175.281 312.427 169.375 381.789 T
181.187 312.427 175.281 312.427 175.281 384.441 T
181.187 384.702 181.187 312.427 175.281 384.441 T
187.093 312.427 181.187 312.427 181.187 384.702 T
187.093 386.841 187.093 312.427 181.187 384.702 T
0 LC
[] 0 setdash
0 0 0 C
187.093 386.841 LS
181.187 384.702 L
175.281 384.441 L
169.375 381.789 L
163.469 380.082 L
157.563 378.847 L
151.657 376.126 L
145.751 374.517 L
139.845 372.928 L
133.939 370.112 L
128.033 368.179 L
122.127 365.488 L
116.221 360.713 L
110.316 356.498 L
104.41 354.712 L
98.5037 354.488 L
92.5978 356.329 L
86.6918 359.244 L
80.7859 362.357 L
74.88 366.225 L
74.88 312.427 L
80.7859 312.427 L
86.6918 312.427 L
92.5978 312.427 L
98.5037 312.427 L
104.41 312.427 L
110.316 312.427 L
116.221 312.427 L
122.127 312.427 L
128.033 312.427 L
133.939 312.427 L
139.845 312.427 L
145.751 312.427 L
151.657 312.427 L
157.563 312.427 L
163.469 312.427 L
169.375 312.427 L
175.281 312.427 L
181.187 312.427 L
187.093 312.427 L
187.093 386.841 LE
1 1 1 C
104.41 312.427 110.316 312.732 110.316 312.427 T
116.221 312.427 110.316 312.427 110.316 312.732 T
116.221 316.099 116.221 312.427 110.316 312.732 T
122.127 312.427 116.221 312.427 116.221 316.099 T
122.127 322.139 122.127 312.427 116.221 316.099 T
128.033 312.427 122.127 312.427 122.127 322.139 T
128.033 327.362 128.033 312.427 122.127 322.139 T
133.939 312.427 128.033 312.427 128.033 327.362 T
133.939 332.555 133.939 312.427 128.033 327.362 T
139.845 312.427 133.939 312.427 133.939 332.555 T
139.845 338.175 139.845 312.427 133.939 332.555 T
145.751 312.427 139.845 312.427 139.845 338.175 T
145.751 342.366 145.751 312.427 139.845 338.175 T
151.657 312.427 145.751 312.427 145.751 342.366 T
151.657 346.696 151.657 312.427 145.751 342.366 T
157.563 312.427 151.657 312.427 151.657 346.696 T
157.563 351.466 157.563 312.427 151.657 346.696 T
163.469 312.427 157.563 312.427 157.563 351.466 T
163.469 354.669 163.469 312.427 157.563 351.466 T
169.375 312.427 163.469 312.427 163.469 354.669 T
169.375 358.605 169.375 312.427 163.469 354.669 T
175.281 312.427 169.375 312.427 169.375 358.605 T
175.281 363.106 175.281 312.427 169.375 358.605 T
181.187 312.427 175.281 312.427 175.281 363.106 T
181.187 365.011 181.187 312.427 175.281 363.106 T
187.093 312.427 181.187 312.427 181.187 365.011 T
187.093 368.831 187.093 312.427 181.187 365.011 T
74.88 312.427 74.88 353.185 80.7859 312.427 T
80.7859 343.582 80.7859 312.427 74.88 353.185 T
86.6918 312.427 80.7859 312.427 80.7859 343.582 T
86.6918 335.006 86.6918 312.427 80.7859 343.582 T
92.5978 312.427 86.6918 312.427 86.6918 335.006 T
92.5978 326.162 92.5978 312.427 86.6918 335.006 T
98.5037 312.427 92.5978 312.427 92.5978 326.162 T
98.5037 317.193 98.5037 312.427 92.5978 326.162 T
104.41 312.427 98.5037 312.427 98.5037 317.193 T
0 0 0 C
104.41 312.427 LS
98.5037 317.193 L
92.5978 326.162 L
86.6918 335.006 L
80.7859 343.582 L
74.88 353.185 L
74.88 312.427 L
80.7859 312.427 L
86.6918 312.427 L
92.5978 312.427 L
98.5037 312.427 L
104.41 312.427 LE
187.093 368.831 LS
181.187 365.011 L
175.281 363.106 L
169.375 358.605 L
163.469 354.669 L
157.563 351.466 L
151.657 346.696 L
145.751 342.366 L
139.845 338.175 L
133.939 332.555 L
128.033 327.362 L
122.127 322.139 L
116.221 316.099 L
110.316 312.732 L
104.41 312.427 L
110.316 312.427 L
116.221 312.427 L
122.127 312.427 L
128.033 312.427 L
133.939 312.427 L
139.845 312.427 L
145.751 312.427 L
151.657 312.427 L
157.563 312.427 L
163.469 312.427 L
169.375 312.427 L
175.281 312.427 L
181.187 312.427 L
187.093 312.427 L
187.093 368.831 LE
3 W
1 LJ
74.88 360.025 LS
80.7859 353.25 L
86.6918 347.289 L
92.5978 340.576 L
98.5037 333.574 L
104.41 331.145 L
110.316 332.319 L
116.221 335.624 L
122.127 339.99 L
128.033 344.742 L
133.939 349.486 L
139.845 354.007 L
145.751 358.196 L
151.657 362.01 L
157.563 365.442 L
163.469 368.508 L
169.375 371.233 L
175.281 373.647 L
181.187 375.781 L
187.093 377.667 LE
grestore
gsave
1.0 1.0 scale
newpath 0 0 moveto 576 0 lineto 576 432 lineto 0 432 lineto
closepath clip
1 1 1 C
241.974 386.841 354.186 312.427 241.974 312.427 T
241.974 386.841 354.186 386.841 354.186 312.427 T
0.5 W
0.15 0.15 0.15 C
265.597 312.427 LS
265.597 313.556 LE
265.597 386.841 LS
265.597 385.712 LE
295.127 312.427 LS
295.127 313.556 LE
295.127 386.841 LS
295.127 385.712 LE
324.657 312.427 LS
324.657 313.556 LE
324.657 386.841 LS
324.657 385.712 LE
354.186 312.427 LS
354.186 313.556 LE
354.186 386.841 LS
354.186 385.712 LE
gsave
0.14902 0.14902 0.14902 C
(5) [10] 0 262.597 296.886 10 /Helvetica SRX
grestore

gsave
0.14902 0.14902 0.14902 C
(10) [6 10] 0 289.127 296.886 10 /Helvetica SRX
grestore

gsave
0.14902 0.14902 0.14902 C
(15) [6 10] 0 318.657 296.886 10 /Helvetica SRX
grestore

gsave
0.14902 0.14902 0.14902 C
(20) [6 10] 0 348.186 296.886 10 /Helvetica SRX
grestore

241.974 324.701 LS
243.098 324.701 LE
354.186 324.701 LS
353.062 324.701 LE
241.974 342.596 LS
243.098 342.596 LE
354.186 342.596 LS
353.062 342.596 LE
241.974 360.491 LS
243.098 360.491 LE
354.186 360.491 LS
353.062 360.491 LE
241.974 378.386 LS
243.098 378.386 LE
354.186 378.386 LS
353.062 378.386 LE
gsave
0.14902 0.14902 0.14902 C
(0.0005) [6 3 6 6 6 10] 0 203.964 320.701 10 /Helvetica SRX
grestore

gsave
0.14902 0.14902 0.14902 C
(0.001) [6 3 6 6 10] 0 209.964 338.596 10 /Helvetica SRX
grestore

gsave
0.14902 0.14902 0.14902 C
(0.0015) [6 3 6 6 6 10] 0 203.964 356.491 10 /Helvetica SRX
grestore

gsave
0.14902 0.14902 0.14902 C
(0.002) [6 3 6 6 10] 0 209.964 374.386 10 /Helvetica SRX
grestore

2 LC
[16 0] 0 setdash
241.974 312.427 LS
354.186 312.427 LE
241.974 386.841 LS
354.186 386.841 LE
241.974 312.427 LS
241.974 386.841 LE
354.186 312.427 LS
354.186 386.841 LE
gsave
0 0 0 C
(Y_N_hat) [7 6 8 6 7 6 10] 0 276.08 398.841 11 /Helvetica-Bold SRX
grestore

0.9 0.9 0.9 C
241.974 312.427 241.974 322.105 247.88 312.427 T
247.88 333.858 247.88 312.427 241.974 322.105 T
253.786 312.427 247.88 312.427 247.88 333.858 T
253.786 343.037 253.786 312.427 247.88 333.858 T
259.691 312.427 253.786 312.427 253.786 343.037 T
259.691 353.314 259.691 312.427 253.786 343.037 T
265.597 312.427 259.691 312.427 259.691 353.314 T
265.597 366.356 265.597 312.427 259.691 353.314 T
271.503 312.427 265.597 312.427 265.597 366.356 T
271.503 375.168 271.503 312.427 265.597 366.356 T
277.409 312.427 271.503 312.427 271.503 375.168 T
277.409 381.426 277.409 312.427 271.503 375.168 T
283.315 312.427 277.409 312.427 277.409 381.426 T
283.315 383.444 283.315 312.427 277.409 381.426 T
289.221 312.427 283.315 312.427 283.315 383.444 T
289.221 385.161 289.221 312.427 283.315 383.444 T
295.127 312.427 289.221 312.427 289.221 385.161 T
295.127 386.069 295.127 312.427 289.221 385.161 T
301.033 312.427 295.127 312.427 295.127 386.069 T
301.033 386.841 301.033 312.427 295.127 386.069 T
306.939 312.427 301.033 312.427 301.033 386.841 T
306.939 386.532 306.939 312.427 301.033 386.841 T
312.845 312.427 306.939 312.427 306.939 386.532 T
312.845 385.748 312.845 312.427 306.939 386.532 T
318.751 312.427 312.845 312.427 312.845 385.748 T
318.751 383.983 318.751 312.427 312.845 385.748 T
324.657 312.427 318.751 312.427 318.751 383.983 T
324.657 383.01 324.657 312.427 318.751 383.983 T
330.563 312.427 324.657 312.427 324.657 383.01 T
330.563 380.096 330.563 312.427 324.657 383.01 T
336.469 312.427 330.563 312.427 330.563 380.096 T
336.469 379.806 336.469 312.427 330.563 380.096 T
342.374 312.427 336.469 312.427 336.469 379.806 T
342.374 378.927 342.374 312.427 336.469 379.806 T
348.28 312.427 342.374 312.427 342.374 378.927 T
348.28 377.753 348.28 312.427 342.374 378.927 T
354.186 312.427 348.28 312.427 348.28 377.753 T
354.186 374.512 354.186 312.427 348.28 377.753 T
0 LC
[] 0 setdash
0 0 0 C
354.186 374.512 LS
348.28 377.753 L
342.374 378.927 L
336.469 379.806 L
330.563 380.096 L
324.657 383.01 L
318.751 383.983 L
312.845 385.748 L
306.939 386.532 L
301.033 386.841 L
295.127 386.069 L
289.221 385.161 L
283.315 383.444 L
277.409 381.426 L
271.503 375.168 L
265.597 366.356 L
259.691 353.314 L
253.786 343.037 L
247.88 333.858 L
241.974 322.105 L
241.974 312.427 L
247.88 312.427 L
253.786 312.427 L
259.691 312.427 L
265.597 312.427 L
271.503 312.427 L
277.409 312.427 L
283.315 312.427 L
289.221 312.427 L
295.127 312.427 L
301.033 312.427 L
306.939 312.427 L
312.845 312.427 L
318.751 312.427 L
324.657 312.427 L
330.563 312.427 L
336.469 312.427 L
342.374 312.427 L
348.28 312.427 L
354.186 312.427 L
354.186 374.512 LE
1 1 1 C
241.974 312.427 247.88 317.097 247.88 312.427 T
253.786 312.427 247.88 312.427 247.88 317.097 T
253.786 320.337 253.786 312.427 247.88 317.097 T
259.691 312.427 253.786 312.427 253.786 320.337 T
259.691 324.353 259.691 312.427 253.786 320.337 T
265.597 312.427 259.691 312.427 259.691 324.353 T
265.597 330.212 265.597 312.427 259.691 324.353 T
271.503 312.427 265.597 312.427 265.597 330.212 T
271.503 333.025 271.503 312.427 265.597 330.212 T
277.409 312.427 271.503 312.427 271.503 333.025 T
277.409 334.997 277.409 312.427 271.503 333.025 T
283.315 312.427 277.409 312.427 277.409 334.997 T
283.315 333.557 283.315 312.427 277.409 334.997 T
289.221 312.427 283.315 312.427 283.315 333.557 T
289.221 332.495 289.221 312.427 283.315 333.557 T
295.127 312.427 289.221 312.427 289.221 332.495 T
295.127 331.649 295.127 312.427 289.221 332.495 T
301.033 312.427 295.127 312.427 295.127 331.649 T
301.033 330.922 301.033 312.427 295.127 331.649 T
306.939 312.427 301.033 312.427 301.033 330.922 T
306.939 329.98 306.939 312.427 301.033 330.922 T
312.845 312.427 306.939 312.427 306.939 329.98 T
312.845 329.092 312.845 312.427 306.939 329.98 T
318.751 312.427 312.845 312.427 312.845 329.092 T
318.751 327.634 318.751 312.427 312.845 329.092 T
324.657 312.427 318.751 312.427 318.751 327.634 T
324.657 326.955 324.657 312.427 318.751 327.634 T
330.563 312.427 324.657 312.427 324.657 326.955 T
330.563 324.778 330.563 312.427 324.657 326.955 T
336.469 312.427 330.563 312.427 330.563 324.778 T
336.469 325.528 336.469 312.427 330.563 324.778 T
342.374 312.427 336.469 312.427 336.469 325.528 T
342.374 325.498 342.374 312.427 336.469 325.528 T
348.28 312.427 342.374 312.427 342.374 325.498 T
348.28 325.163 348.28 312.427 342.374 325.498 T
354.186 312.427 348.28 312.427 348.28 325.163 T
354.186 322.935 354.186 312.427 348.28 325.163 T
0 0 0 C
354.186 322.935 LS
348.28 325.163 L
342.374 325.498 L
336.469 325.528 L
330.563 324.778 L
324.657 326.955 L
318.751 327.634 L
312.845 329.092 L
306.939 329.98 L
301.033 330.922 L
295.127 331.649 L
289.221 332.495 L
283.315 333.557 L
277.409 334.997 L
271.503 333.025 L
265.597 330.212 L
259.691 324.353 L
253.786 320.337 L
247.88 317.097 L
241.974 312.427 L
247.88 312.427 L
253.786 312.427 L
259.691 312.427 L
265.597 312.427 L
271.503 312.427 L
277.409 312.427 L
283.315 312.427 L
289.221 312.427 L
295.127 312.427 L
301.033 312.427 L
306.939 312.427 L
312.845 312.427 L
318.751 312.427 L
324.657 312.427 L
330.563 312.427 L
336.469 312.427 L
342.374 312.427 L
348.28 312.427 L
354.186 312.427 L
354.186 322.935 LE
3 W
1 LJ
241.974 316.897 LS
247.88 324.92 L
253.786 332.003 L
259.691 339.424 L
265.597 347.558 L
271.503 353.827 L
277.409 357.723 L
283.315 359.642 L
289.221 360.162 L
295.127 359.787 L
301.033 358.891 L
306.939 357.731 L
312.845 356.472 L
318.751 355.215 L
324.657 354.015 L
330.563 352.902 L
336.469 351.886 L
342.374 350.968 L
348.28 350.14 L
354.186 349.396 LE
grestore
gsave
1.0 1.0 scale
newpath 0 0 moveto 576 0 lineto 576 432 lineto 0 432 lineto
closepath clip
1 1 1 C
409.067 386.841 521.28 312.427 409.067 312.427 T
409.067 386.841 521.28 386.841 521.28 312.427 T
0.5 W
0.15 0.15 0.15 C
432.691 312.427 LS
432.691 313.556 LE
432.691 386.841 LS
432.691 385.712 LE
462.221 312.427 LS
462.221 313.556 LE
462.221 386.841 LS
462.221 385.712 LE
491.75 312.427 LS
491.75 313.556 LE
491.75 386.841 LS
491.75 385.712 LE
521.28 312.427 LS
521.28 313.556 LE
521.28 386.841 LS
521.28 385.712 LE
gsave
0.14902 0.14902 0.14902 C
(5) [10] 0 429.691 296.886 10 /Helvetica SRX
grestore

gsave
0.14902 0.14902 0.14902 C
(10) [6 10] 0 456.221 296.886 10 /Helvetica SRX
grestore

gsave
0.14902 0.14902 0.14902 C
(15) [6 10] 0 485.75 296.886 10 /Helvetica SRX
grestore

gsave
0.14902 0.14902 0.14902 C
(20) [6 10] 0 515.28 296.886 10 /Helvetica SRX
grestore

409.067 324.215 LS
410.192 324.215 LE
521.28 324.215 LS
520.156 324.215 LE
409.067 336.761 LS
410.192 336.761 LE
521.28 336.761 LS
520.156 336.761 LE
409.067 349.308 LS
410.192 349.308 LE
521.28 349.308 LS
520.156 349.308 LE
409.067 361.855 LS
410.192 361.855 LE
521.28 361.855 LS
520.156 361.855 LE
409.067 374.401 LS
410.192 374.401 LE
521.28 374.401 LS
520.156 374.401 LE
gsave
0.14902 0.14902 0.14902 C
(0.01) [6 3 6 10] 0 383.058 320.215 10 /Helvetica SRX
grestore

gsave
0.14902 0.14902 0.14902 C
(0.02) [6 3 6 10] 0 383.058 332.761 10 /Helvetica SRX
grestore

gsave
0.14902 0.14902 0.14902 C
(0.03) [6 3 6 10] 0 383.058 345.308 10 /Helvetica SRX
grestore

gsave
0.14902 0.14902 0.14902 C
(0.04) [6 3 6 10] 0 383.058 357.855 10 /Helvetica SRX
grestore

gsave
0.14902 0.14902 0.14902 C
(0.05) [6 3 6 10] 0 383.058 370.402 10 /Helvetica SRX
grestore

2 LC
[16 0] 0 setdash
409.067 312.427 LS
521.28 312.427 LE
409.067 386.841 LS
521.28 386.841 LE
409.067 312.427 LS
409.067 386.841 LE
521.28 312.427 LS
521.28 386.841 LE
gsave
0 0 0 C
(Y_C_hat) [7 6 8 6 7 6 10] 0 443.174 398.841 11 /Helvetica-Bold SRX
grestore

0.9 0.9 0.9 C
409.067 312.427 409.067 313.68 414.973 312.427 T
414.973 316.329 414.973 312.427 409.067 313.68 T
420.879 312.427 414.973 312.427 414.973 316.329 T
420.879 319.471 420.879 312.427 414.973 316.329 T
426.785 312.427 420.879 312.427 420.879 319.471 T
426.785 323.74 426.785 312.427 420.879 319.471 T
432.691 312.427 426.785 312.427 426.785 323.74 T
432.691 386.841 432.691 312.427 426.785 323.74 T
438.597 312.427 432.691 312.427 432.691 386.841 T
438.597 377.128 438.597 312.427 432.691 386.841 T
444.503 312.427 438.597 312.427 438.597 377.128 T
444.503 370.288 444.503 312.427 438.597 377.128 T
450.409 312.427 444.503 312.427 444.503 370.288 T
450.409 363.095 450.409 312.427 444.503 370.288 T
456.315 312.427 450.409 312.427 450.409 363.095 T
456.315 355.7 456.315 312.427 450.409 363.095 T
462.221 312.427 456.315 312.427 456.315 355.7 T
462.221 351.036 462.221 312.427 456.315 355.7 T
468.127 312.427 462.221 312.427 462.221 351.036 T
468.127 347.002 468.127 312.427 462.221 351.036 T
474.033 312.427 468.127 312.427 468.127 347.002 T
474.033 342.042 474.033 312.427 468.127 347.002 T
479.939 312.427 474.033 312.427 474.033 342.042 T
479.939 338.889 479.939 312.427 474.033 342.042 T
485.844 312.427 479.939 312.427 479.939 338.889 T
485.844 336.305 485.844 312.427 479.939 338.889 T
491.75 312.427 485.844 312.427 485.844 336.305 T
491.75 333.791 491.75 312.427 485.844 336.305 T
497.656 312.427 491.75 312.427 491.75 333.791 T
497.656 331.564 497.656 312.427 491.75 333.791 T
503.562 312.427 497.656 312.427 497.656 331.564 T
503.562 329.65 503.562 312.427 497.656 331.564 T
509.468 312.427 503.562 312.427 503.562 329.65 T
509.468 328.025 509.468 312.427 503.562 329.65 T
515.374 312.427 509.468 312.427 509.468 328.025 T
515.374 326.48 515.374 312.427 509.468 328.025 T
521.28 312.427 515.374 312.427 515.374 326.48 T
521.28 325.282 521.28 312.427 515.374 326.48 T
0 LC
[] 0 setdash
0 0 0 C
521.28 325.282 LS
515.374 326.48 L
509.468 328.025 L
503.562 329.65 L
497.656 331.564 L
491.75 333.791 L
485.844 336.305 L
479.939 338.889 L
474.033 342.042 L
468.127 347.002 L
462.221 351.036 L
456.315 355.7 L
450.409 363.095 L
444.503 370.288 L
438.597 377.128 L
432.691 386.841 L
426.785 323.74 L
420.879 319.471 L
414.973 316.329 L
409.067 313.68 L
409.067 312.427 L
414.973 312.427 L
420.879 312.427 L
426.785 312.427 L
432.691 312.427 L
438.597 312.427 L
444.503 312.427 L
450.409 312.427 L
456.315 312.427 L
462.221 312.427 L
468.127 312.427 L
474.033 312.427 L
479.939 312.427 L
485.844 312.427 L
491.75 312.427 L
497.656 312.427 L
503.562 312.427 L
509.468 312.427 L
515.374 312.427 L
521.28 312.427 L
521.28 325.282 LE
1 1 1 C
409.067 312.427 414.973 313.538 414.973 312.427 T
420.879 312.427 414.973 312.427 414.973 313.538 T
420.879 314.858 420.879 312.427 414.973 313.538 T
426.785 312.427 420.879 312.427 420.879 314.858 T
426.785 316.55 426.785 312.427 420.879 314.858 T
432.691 312.427 426.785 312.427 426.785 316.55 T
432.691 346.704 432.691 312.427 426.785 316.55 T
438.597 312.427 432.691 312.427 432.691 346.704 T
438.597 339.229 438.597 312.427 432.691 346.704 T
444.503 312.427 438.597 312.427 438.597 339.229 T
444.503 332.824 444.503 312.427 438.597 339.229 T
450.409 312.427 444.503 312.427 444.503 332.824 T
450.409 326.266 450.409 312.427 444.503 332.824 T
456.315 312.427 450.409 312.427 450.409 326.266 T
456.315 320.693 456.315 312.427 450.409 326.266 T
462.221 312.427 456.315 312.427 456.315 320.693 T
462.221 318.394 462.221 312.427 456.315 320.693 T
468.127 312.427 462.221 312.427 462.221 318.394 T
468.127 316.818 468.127 312.427 462.221 318.394 T
474.033 312.427 468.127 312.427 468.127 316.818 T
474.033 314.563 474.033 312.427 468.127 316.818 T
479.939 312.427 474.033 312.427 474.033 314.563 T
479.939 314.049 479.939 312.427 474.033 314.563 T
485.844 312.427 479.939 312.427 479.939 314.049 T
485.844 313.781 485.844 312.427 479.939 314.049 T
491.75 312.427 485.844 312.427 485.844 313.781 T
491.75 313.58 491.75 312.427 485.844 313.781 T
497.656 312.427 491.75 312.427 491.75 313.58 T
497.656 313.221 497.656 312.427 491.75 313.58 T
503.562 312.427 497.656 312.427 497.656 313.221 T
503.562 313.07 503.562 312.427 497.656 313.221 T
509.468 312.427 503.562 312.427 503.562 313.07 T
509.468 312.906 509.468 312.427 503.562 313.07 T
515.374 312.427 509.468 312.427 509.468 312.906 T
515.374 312.73 515.374 312.427 509.468 312.906 T
521.28 312.427 515.374 312.427 515.374 312.73 T
521.28 312.742 521.28 312.427 515.374 312.73 T
0 0 0 C
521.28 312.742 LS
515.374 312.73 L
509.468 312.906 L
503.562 313.07 L
497.656 313.221 L
491.75 313.58 L
485.844 313.781 L
479.939 314.049 L
474.033 314.563 L
468.127 316.818 L
462.221 318.394 L
456.315 320.693 L
450.409 326.266 L
444.503 332.824 L
438.597 339.229 L
432.691 346.704 L
426.785 316.55 L
420.879 314.858 L
414.973 313.538 L
409.067 312.427 L
414.973 312.427 L
420.879 312.427 L
426.785 312.427 L
432.691 312.427 L
438.597 312.427 L
444.503 312.427 L
450.409 312.427 L
456.315 312.427 L
462.221 312.427 L
468.127 312.427 L
474.033 312.427 L
479.939 312.427 L
485.844 312.427 L
491.75 312.427 L
497.656 312.427 L
503.562 312.427 L
509.468 312.427 L
515.374 312.427 L
521.28 312.427 L
521.28 312.742 LE
3 W
1 LJ
409.067 313.014 LS
414.973 314.939 L
420.879 317.294 L
426.785 320.33 L
432.691 366.333 L
438.597 358.638 L
444.503 351.837 L
450.409 345.962 L
456.315 340.96 L
462.221 336.74 L
468.127 333.202 L
474.033 330.247 L
479.939 327.783 L
485.844 325.73 L
491.75 324.019 L
497.656 322.591 L
503.562 321.398 L
509.468 320.398 L
515.374 319.557 L
521.28 318.848 LE
grestore
gsave
1.0 1.0 scale
newpath 0 0 moveto 576 0 lineto 576 432 lineto 0 432 lineto
closepath clip
1 1 1 C
74.88 254.387 187.093 179.974 74.88 179.974 T
74.88 254.387 187.093 254.387 187.093 179.974 T
0.5 W
0.15 0.15 0.15 C
98.5037 179.974 LS
98.5037 181.102 LE
98.5037 254.387 LS
98.5037 253.258 LE
128.033 179.974 LS
128.033 181.102 LE
128.033 254.387 LS
128.033 253.258 LE
157.563 179.974 LS
157.563 181.102 LE
157.563 254.387 LS
157.563 253.258 LE
187.093 179.974 LS
187.093 181.102 LE
187.093 254.387 LS
187.093 253.258 LE
gsave
0.14902 0.14902 0.14902 C
(5) [10] 0 95.5037 164.432 10 /Helvetica SRX
grestore

gsave
0.14902 0.14902 0.14902 C
(10) [6 10] 0 122.033 164.432 10 /Helvetica SRX
grestore

gsave
0.14902 0.14902 0.14902 C
(15) [6 10] 0 151.563 164.432 10 /Helvetica SRX
grestore

gsave
0.14902 0.14902 0.14902 C
(20) [6 10] 0 181.093 164.432 10 /Helvetica SRX
grestore

74.88 188.24 LS
76.0043 188.24 LE
187.093 188.24 LS
185.968 188.24 LE
74.88 200.433 LS
76.0043 200.433 LE
187.093 200.433 LS
185.968 200.433 LE
74.88 212.626 LS
76.0043 212.626 LE
187.093 212.626 LS
185.968 212.626 LE
74.88 224.818 LS
76.0043 224.818 LE
187.093 224.818 LS
185.968 224.818 LE
74.88 237.011 LS
76.0043 237.011 LE
187.093 237.011 LS
185.968 237.011 LE
74.88 249.204 LS
76.0043 249.204 LE
187.093 249.204 LS
185.968 249.204 LE
gsave
0.14902 0.14902 0.14902 C
(-0.0025) [3 6 3 6 6 6 10] 0 33.8705 184.24 10 /Helvetica SRX
grestore

gsave
0.14902 0.14902 0.14902 C
(-0.002) [3 6 3 6 6 10] 0 39.8705 196.433 10 /Helvetica SRX
grestore

gsave
0.14902 0.14902 0.14902 C
(-0.0015) [3 6 3 6 6 6 10] 0 33.8705 208.626 10 /Helvetica SRX
grestore

gsave
0.14902 0.14902 0.14902 C
(-0.001) [3 6 3 6 6 10] 0 39.8705 220.818 10 /Helvetica SRX
grestore

gsave
0.14902 0.14902 0.14902 C
(-0.0005) [3 6 3 6 6 6 10] 0 33.8705 233.011 10 /Helvetica SRX
grestore

gsave
0.14902 0.14902 0.14902 C
(0) [10] 0 63.8705 245.204 10 /Helvetica SRX
grestore

2 LC
[16 0] 0 setdash
74.88 179.974 LS
187.093 179.974 LE
74.88 254.387 LS
187.093 254.387 LE
74.88 179.974 LS
74.88 254.387 LE
187.093 179.974 LS
187.093 254.387 LE
gsave
0 0 0 C
(L_T_hat) [7 6 7 6 7 6 10] 0 109.486 266.387 11 /Helvetica-Bold SRX
grestore

0.9 0.9 0.9 C
74.88 179.974 74.88 241.424 80.7859 179.974 T
80.7859 236.784 80.7859 179.974 74.88 241.424 T
86.6918 179.974 80.7859 179.974 80.7859 236.784 T
86.6918 232.659 86.6918 179.974 80.7859 236.784 T
92.5978 179.974 86.6918 179.974 86.6918 232.659 T
92.5978 229.33 92.5978 179.974 86.6918 232.659 T
98.5037 179.974 92.5978 179.974 92.5978 229.33 T
98.5037 226.117 98.5037 179.974 92.5978 229.33 T
104.41 179.974 98.5037 179.974 98.5037 226.117 T
104.41 226.94 104.41 179.974 98.5037 226.117 T
110.316 179.974 104.41 179.974 104.41 226.94 T
110.316 228.885 110.316 179.974 104.41 226.94 T
116.221 179.974 110.316 179.974 110.316 228.885 T
116.221 231.427 116.221 179.974 110.316 228.885 T
122.127 179.974 116.221 179.974 116.221 231.427 T
122.127 238.375 122.127 179.974 116.221 231.427 T
128.033 179.974 122.127 179.974 122.127 238.375 T
128.033 239.158 128.033 179.974 122.127 238.375 T
133.939 179.974 128.033 179.974 128.033 239.158 T
133.939 243.566 133.939 179.974 128.033 239.158 T
139.845 179.974 133.939 179.974 133.939 243.566 T
139.845 244.779 139.845 179.974 133.939 243.566 T
145.751 179.974 139.845 179.974 139.845 244.779 T
145.751 246.525 145.751 179.974 139.845 244.779 T
151.657 179.974 145.751 179.974 145.751 246.525 T
151.657 248.07 151.657 179.974 145.751 246.525 T
157.563 179.974 151.657 179.974 151.657 248.07 T
157.563 249.668 157.563 179.974 151.657 248.07 T
163.469 179.974 157.563 179.974 157.563 249.668 T
163.469 251.397 163.469 179.974 157.563 249.668 T
169.375 179.974 163.469 179.974 163.469 251.397 T
169.375 251.914 169.375 179.974 163.469 251.397 T
175.281 179.974 169.375 179.974 169.375 251.914 T
175.281 252.776 175.281 179.974 169.375 251.914 T
181.187 179.974 175.281 179.974 175.281 252.776 T
181.187 253.765 181.187 179.974 175.281 252.776 T
187.093 179.974 181.187 179.974 181.187 253.765 T
187.093 254.387 187.093 179.974 181.187 253.765 T
0 LC
[] 0 setdash
0 0 0 C
187.093 254.387 LS
181.187 253.765 L
175.281 252.776 L
169.375 251.914 L
163.469 251.397 L
157.563 249.668 L
151.657 248.07 L
145.751 246.525 L
139.845 244.779 L
133.939 243.566 L
128.033 239.158 L
122.127 238.375 L
116.221 231.427 L
110.316 228.885 L
104.41 226.94 L
98.5037 226.117 L
92.5978 229.33 L
86.6918 232.659 L
80.7859 236.784 L
74.88 241.424 L
74.88 179.974 L
80.7859 179.974 L
86.6918 179.974 L
92.5978 179.974 L
98.5037 179.974 L
104.41 179.974 L
110.316 179.974 L
116.221 179.974 L
122.127 179.974 L
128.033 179.974 L
133.939 179.974 L
139.845 179.974 L
145.751 179.974 L
151.657 179.974 L
157.563 179.974 L
163.469 179.974 L
169.375 179.974 L
175.281 179.974 L
181.187 179.974 L
187.093 179.974 L
187.093 254.387 LE
1 1 1 C
110.316 179.974 116.221 182.44 116.221 179.974 T
122.127 179.974 116.221 179.974 116.221 182.44 T
122.127 190.234 122.127 179.974 116.221 182.44 T
128.033 179.974 122.127 179.974 122.127 190.234 T
128.033 193.601 128.033 179.974 122.127 190.234 T
133.939 179.974 128.033 179.974 128.033 193.601 T
133.939 201.398 133.939 179.974 128.033 193.601 T
139.845 179.974 133.939 179.974 133.939 201.398 T
139.845 206.039 139.845 179.974 133.939 201.398 T
145.751 179.974 139.845 179.974 139.845 206.039 T
145.751 211.353 145.751 179.974 139.845 206.039 T
151.657 179.974 145.751 179.974 145.751 211.353 T
151.657 216.024 151.657 179.974 145.751 211.353 T
157.563 179.974 151.657 179.974 151.657 216.024 T
157.563 220.855 157.563 179.974 151.657 216.024 T
163.469 179.974 157.563 179.974 157.563 220.855 T
163.469 225.474 163.469 179.974 157.563 220.855 T
169.375 179.974 163.469 179.974 163.469 225.474 T
169.375 228.475 169.375 179.974 163.469 225.474 T
175.281 179.974 169.375 179.974 169.375 228.475 T
175.281 231.748 175.281 179.974 169.375 228.475 T
181.187 179.974 175.281 179.974 175.281 231.748 T
181.187 234.964 181.187 179.974 175.281 231.748 T
187.093 179.974 181.187 179.974 181.187 234.964 T
187.093 237.493 187.093 179.974 181.187 234.964 T
74.88 179.974 74.88 225.177 80.7859 179.974 T
80.7859 214.598 80.7859 179.974 74.88 225.177 T
86.6918 179.974 80.7859 179.974 80.7859 214.598 T
86.6918 205.098 86.6918 179.974 80.7859 214.598 T
92.5978 179.974 86.6918 179.974 86.6918 205.098 T
92.5978 195.793 92.5978 179.974 86.6918 205.098 T
98.5037 179.974 92.5978 179.974 92.5978 195.793 T
98.5037 184.17 98.5037 179.974 92.5978 195.793 T
104.41 179.974 98.5037 179.974 98.5037 184.17 T
104.41 179.984 104.41 179.974 98.5037 184.17 T
110.316 179.974 104.41 179.974 104.41 179.984 T
0 0 0 C
110.316 179.974 LS
104.41 179.984 L
98.5037 184.17 L
92.5978 195.793 L
86.6918 205.098 L
80.7859 214.598 L
74.88 225.177 L
74.88 179.974 L
80.7859 179.974 L
86.6918 179.974 L
92.5978 179.974 L
98.5037 179.974 L
104.41 179.974 L
110.316 179.974 LE
187.093 237.493 LS
181.187 234.964 L
175.281 231.748 L
169.375 228.475 L
163.469 225.474 L
157.563 220.855 L
151.657 216.024 L
145.751 211.353 L
139.845 206.039 L
133.939 201.398 L
128.033 193.601 L
122.127 190.234 L
116.221 182.44 L
110.316 179.974 L
116.221 179.974 L
122.127 179.974 L
128.033 179.974 L
133.939 179.974 L
139.845 179.974 L
145.751 179.974 L
151.657 179.974 L
157.563 179.974 L
163.469 179.974 L
169.375 179.974 L
175.281 179.974 L
181.187 179.974 L
187.093 179.974 L
187.093 237.493 LE
3 W
1 LJ
74.88 233.7 LS
80.7859 226.079 L
86.6918 219.419 L
92.5978 211.692 L
98.5037 203.387 L
104.41 200.315 L
110.316 201.353 L
116.221 204.779 L
122.127 209.351 L
128.033 214.301 L
133.939 219.191 L
139.845 223.79 L
145.751 227.991 L
151.657 231.758 L
157.563 235.095 L
163.469 238.029 L
169.375 240.595 L
175.281 242.833 L
181.187 244.78 L
187.093 246.474 LE
grestore
gsave
1.0 1.0 scale
newpath 0 0 moveto 576 0 lineto 576 432 lineto 0 432 lineto
closepath clip
1 1 1 C
241.974 254.387 354.186 179.974 241.974 179.974 T
241.974 254.387 354.186 254.387 354.186 179.974 T
0.5 W
0.15 0.15 0.15 C
265.597 179.974 LS
265.597 181.102 LE
265.597 254.387 LS
265.597 253.258 LE
295.127 179.974 LS
295.127 181.102 LE
295.127 254.387 LS
295.127 253.258 LE
324.657 179.974 LS
324.657 181.102 LE
324.657 254.387 LS
324.657 253.258 LE
354.186 179.974 LS
354.186 181.102 LE
354.186 254.387 LS
354.186 253.258 LE
gsave
0.14902 0.14902 0.14902 C
(5) [10] 0 262.597 164.432 10 /Helvetica SRX
grestore

gsave
0.14902 0.14902 0.14902 C
(10) [6 10] 0 289.127 164.432 10 /Helvetica SRX
grestore

gsave
0.14902 0.14902 0.14902 C
(15) [6 10] 0 318.657 164.432 10 /Helvetica SRX
grestore

gsave
0.14902 0.14902 0.14902 C
(20) [6 10] 0 348.186 164.432 10 /Helvetica SRX
grestore

241.974 189.898 LS
243.098 189.898 LE
354.186 189.898 LS
353.062 189.898 LE
241.974 206.975 LS
243.098 206.975 LE
354.186 206.975 LS
353.062 206.975 LE
241.974 224.052 LS
243.098 224.052 LE
354.186 224.052 LS
353.062 224.052 LE
241.974 241.129 LS
243.098 241.129 LE
354.186 241.129 LS
353.062 241.129 LE
gsave
0.14902 0.14902 0.14902 C
(0.0005) [6 3 6 6 6 10] 0 203.964 185.898 10 /Helvetica SRX
grestore

gsave
0.14902 0.14902 0.14902 C
(0.001) [6 3 6 6 10] 0 209.964 202.975 10 /Helvetica SRX
grestore

gsave
0.14902 0.14902 0.14902 C
(0.0015) [6 3 6 6 6 10] 0 203.964 220.052 10 /Helvetica SRX
grestore

gsave
0.14902 0.14902 0.14902 C
(0.002) [6 3 6 6 10] 0 209.964 237.129 10 /Helvetica SRX
grestore

2 LC
[16 0] 0 setdash
241.974 179.974 LS
354.186 179.974 LE
241.974 254.387 LS
354.186 254.387 LE
241.974 179.974 LS
241.974 254.387 LE
354.186 179.974 LS
354.186 254.387 LE
gsave
0 0 0 C
(L_N_hat) [7 6 8 6 7 6 10] 0 276.08 266.387 11 /Helvetica-Bold SRX
grestore

0.9 0.9 0.9 C
241.974 179.974 241.974 192.287 247.88 179.974 T
247.88 204.038 247.88 179.974 241.974 192.287 T
253.786 179.974 247.88 179.974 247.88 204.038 T
253.786 214.204 253.786 179.974 247.88 204.038 T
259.691 179.974 253.786 179.974 253.786 214.204 T
259.691 225.139 259.691 179.974 253.786 214.204 T
265.597 179.974 259.691 179.974 259.691 225.139 T
265.597 238.025 265.597 179.974 259.691 225.139 T
271.503 179.974 265.597 179.974 265.597 238.025 T
271.503 248.118 271.503 179.974 265.597 238.025 T
277.409 179.974 271.503 179.974 271.503 248.118 T
277.409 253.594 277.409 179.974 271.503 248.118 T
283.315 179.974 277.409 179.974 277.409 253.594 T
283.315 254.387 283.315 179.974 277.409 253.594 T
289.221 179.974 283.315 179.974 283.315 254.387 T
289.221 253.26 289.221 179.974 283.315 254.387 T
295.127 179.974 289.221 179.974 289.221 253.26 T
295.127 252.748 295.127 179.974 289.221 253.26 T
301.033 179.974 295.127 179.974 295.127 252.748 T
301.033 252.705 301.033 179.974 295.127 252.748 T
306.939 179.974 301.033 179.974 301.033 252.705 T
306.939 248.129 306.939 179.974 301.033 252.705 T
312.845 179.974 306.939 179.974 306.939 248.129 T
312.845 248.467 312.845 179.974 306.939 248.129 T
318.751 179.974 312.845 179.974 312.845 248.467 T
318.751 244.757 318.751 179.974 312.845 248.467 T
324.657 179.974 318.751 179.974 318.751 244.757 T
324.657 239.622 324.657 179.974 318.751 244.757 T
330.563 179.974 324.657 179.974 324.657 239.622 T
330.563 237.874 330.563 179.974 324.657 239.622 T
336.469 179.974 330.563 179.974 330.563 237.874 T
336.469 235.398 336.469 179.974 330.563 237.874 T
342.374 179.974 336.469 179.974 336.469 235.398 T
342.374 233.353 342.374 179.974 336.469 235.398 T
348.28 179.974 342.374 179.974 342.374 233.353 T
348.28 231.529 348.28 179.974 342.374 233.353 T
354.186 179.974 348.28 179.974 348.28 231.529 T
354.186 229.818 354.186 179.974 348.28 231.529 T
0 LC
[] 0 setdash
0 0 0 C
354.186 229.818 LS
348.28 231.529 L
342.374 233.353 L
336.469 235.398 L
330.563 237.874 L
324.657 239.622 L
318.751 244.757 L
312.845 248.467 L
306.939 248.129 L
301.033 252.705 L
295.127 252.748 L
289.221 253.26 L
283.315 254.387 L
277.409 253.594 L
271.503 248.118 L
265.597 238.025 L
259.691 225.139 L
253.786 214.204 L
247.88 204.038 L
241.974 192.287 L
241.974 179.974 L
247.88 179.974 L
253.786 179.974 L
259.691 179.974 L
265.597 179.974 L
271.503 179.974 L
277.409 179.974 L
283.315 179.974 L
289.221 179.974 L
295.127 179.974 L
301.033 179.974 L
306.939 179.974 L
312.845 179.974 L
318.751 179.974 L
324.657 179.974 L
330.563 179.974 L
336.469 179.974 L
342.374 179.974 L
348.28 179.974 L
354.186 179.974 L
354.186 229.818 LE
1 1 1 C
241.974 179.974 247.88 184.442 247.88 179.974 T
253.786 179.974 247.88 179.974 247.88 184.442 T
253.786 188.432 253.786 179.974 247.88 184.442 T
259.691 179.974 253.786 179.974 253.786 188.432 T
259.691 192.81 259.691 179.974 253.786 188.432 T
265.597 179.974 259.691 179.974 259.691 192.81 T
265.597 198.264 265.597 179.974 259.691 192.81 T
271.503 179.974 265.597 179.974 265.597 198.264 T
271.503 202.059 271.503 179.974 265.597 198.264 T
277.409 179.974 271.503 179.974 271.503 202.059 T
277.409 203.291 277.409 179.974 271.503 202.059 T
283.315 179.974 277.409 179.974 277.409 203.291 T
283.315 201.277 283.315 179.974 277.409 203.291 T
289.221 179.974 283.315 179.974 283.315 201.277 T
289.221 198.09 289.221 179.974 283.315 201.277 T
295.127 179.974 289.221 179.974 289.221 198.09 T
295.127 196.435 295.127 179.974 289.221 198.09 T
301.033 179.974 295.127 179.974 295.127 196.435 T
301.033 196.295 301.033 179.974 295.127 196.435 T
306.939 179.974 301.033 179.974 301.033 196.295 T
306.939 191.945 306.939 179.974 301.033 196.295 T
312.845 179.974 306.939 179.974 306.939 191.945 T
312.845 193.21 312.845 179.974 306.939 191.945 T
318.751 179.974 312.845 179.974 312.845 193.21 T
318.751 190.764 318.751 179.974 312.845 193.21 T
324.657 179.974 318.751 179.974 318.751 190.764 T
324.657 187.18 324.657 179.974 318.751 190.764 T
330.563 179.974 324.657 179.974 324.657 187.18 T
330.563 187.28 330.563 179.974 324.657 187.18 T
336.469 179.974 330.563 179.974 330.563 187.28 T
336.469 186.741 336.469 179.974 330.563 187.28 T
342.374 179.974 336.469 179.974 336.469 186.741 T
342.374 186.219 342.374 179.974 336.469 186.741 T
348.28 179.974 342.374 179.974 342.374 186.219 T
348.28 185.819 348.28 179.974 342.374 186.219 T
354.186 179.974 348.28 179.974 348.28 185.819 T
354.186 185.632 354.186 179.974 348.28 185.819 T
0 0 0 C
354.186 185.632 LS
348.28 185.819 L
342.374 186.219 L
336.469 186.741 L
330.563 187.28 L
324.657 187.18 L
318.751 190.764 L
312.845 193.21 L
306.939 191.945 L
301.033 196.295 L
295.127 196.435 L
289.221 198.09 L
283.315 201.277 L
277.409 203.291 L
271.503 202.059 L
265.597 198.264 L
259.691 192.81 L
253.786 188.432 L
247.88 184.442 L
241.974 179.974 L
247.88 179.974 L
253.786 179.974 L
259.691 179.974 L
265.597 179.974 L
271.503 179.974 L
277.409 179.974 L
283.315 179.974 L
289.221 179.974 L
295.127 179.974 L
301.033 179.974 L
306.939 179.974 L
312.845 179.974 L
318.751 179.974 L
324.657 179.974 L
330.563 179.974 L
336.469 179.974 L
342.374 179.974 L
348.28 179.974 L
354.186 179.974 L
354.186 185.632 LE
3 W
1 LJ
241.974 185.66 LS
247.88 194.151 L
253.786 201.499 L
259.691 209.321 L
265.597 218.09 L
271.503 224.543 L
277.409 228.024 L
283.315 229.071 L
289.221 228.445 L
295.127 226.8 L
301.033 224.615 L
306.939 222.215 L
312.845 219.803 L
318.751 217.499 L
324.657 215.366 L
330.563 213.431 L
336.469 211.699 L
342.374 210.162 L
348.28 208.804 L
354.186 207.607 LE
grestore
gsave
1.0 1.0 scale
newpath 0 0 moveto 576 0 lineto 576 432 lineto 0 432 lineto
closepath clip
1 1 1 C
409.067 254.387 521.28 179.974 409.067 179.974 T
409.067 254.387 521.28 254.387 521.28 179.974 T
0.5 W
0.15 0.15 0.15 C
432.691 179.974 LS
432.691 181.102 LE
432.691 254.387 LS
432.691 253.258 LE
462.221 179.974 LS
462.221 181.102 LE
462.221 254.387 LS
462.221 253.258 LE
491.75 179.974 LS
491.75 181.102 LE
491.75 254.387 LS
491.75 253.258 LE
521.28 179.974 LS
521.28 181.102 LE
521.28 254.387 LS
521.28 253.258 LE
gsave
0.14902 0.14902 0.14902 C
(5) [10] 0 429.691 164.432 10 /Helvetica SRX
grestore

gsave
0.14902 0.14902 0.14902 C
(10) [6 10] 0 456.221 164.432 10 /Helvetica SRX
grestore

gsave
0.14902 0.14902 0.14902 C
(15) [6 10] 0 485.75 164.432 10 /Helvetica SRX
grestore

gsave
0.14902 0.14902 0.14902 C
(20) [6 10] 0 515.28 164.432 10 /Helvetica SRX
grestore

409.067 194.377 LS
410.192 194.377 LE
521.28 194.377 LS
520.156 194.377 LE
409.067 211.126 LS
410.192 211.126 LE
521.28 211.126 LS
520.156 211.126 LE
409.067 227.875 LS
410.192 227.875 LE
521.28 227.875 LS
520.156 227.875 LE
409.067 244.625 LS
410.192 244.625 LE
521.28 244.625 LS
520.156 244.625 LE
gsave
0.14902 0.14902 0.14902 C
(0.005) [6 3 6 6 10] 0 377.058 190.377 10 /Helvetica SRX
grestore

gsave
0.14902 0.14902 0.14902 C
(0.01) [6 3 6 10] 0 383.058 207.126 10 /Helvetica SRX
grestore

gsave
0.14902 0.14902 0.14902 C
(0.015) [6 3 6 6 10] 0 377.058 223.875 10 /Helvetica SRX
grestore

gsave
0.14902 0.14902 0.14902 C
(0.02) [6 3 6 10] 0 383.058 240.625 10 /Helvetica SRX
grestore

2 LC
[16 0] 0 setdash
409.067 179.974 LS
521.28 179.974 LE
409.067 254.387 LS
521.28 254.387 LE
409.067 179.974 LS
409.067 254.387 LE
521.28 179.974 LS
521.28 254.387 LE
gsave
0 0 0 C
(L_C_hat) [7 6 8 6 7 6 10] 0 443.174 266.387 11 /Helvetica-Bold SRX
grestore

0.9 0.9 0.9 C
409.067 179.974 409.067 185.893 414.973 179.974 T
414.973 194.909 414.973 179.974 409.067 185.893 T
420.879 179.974 414.973 179.974 414.973 194.909 T
420.879 205.792 420.879 179.974 414.973 194.909 T
426.785 179.974 420.879 179.974 420.879 205.792 T
426.785 221.203 426.785 179.974 420.879 205.792 T
432.691 179.974 426.785 179.974 426.785 221.203 T
432.691 244.313 432.691 179.974 426.785 221.203 T
438.597 179.974 432.691 179.974 432.691 244.313 T
438.597 253.357 438.597 179.974 432.691 244.313 T
444.503 179.974 438.597 179.974 438.597 253.357 T
444.503 254.387 444.503 179.974 438.597 253.357 T
450.409 179.974 444.503 179.974 444.503 254.387 T
450.409 251.978 450.409 179.974 444.503 254.387 T
456.315 179.974 450.409 179.974 450.409 251.978 T
456.315 247.538 456.315 179.974 450.409 251.978 T
462.221 179.974 456.315 179.974 456.315 247.538 T
462.221 240.492 462.221 179.974 456.315 247.538 T
468.127 179.974 462.221 179.974 462.221 240.492 T
468.127 236.357 468.127 179.974 462.221 240.492 T
474.033 179.974 468.127 179.974 468.127 236.357 T
474.033 231.594 474.033 179.974 468.127 236.357 T
479.939 179.974 474.033 179.974 474.033 231.594 T
479.939 226.22 479.939 179.974 474.033 231.594 T
485.844 179.974 479.939 179.974 479.939 226.22 T
485.844 222.012 485.844 179.974 479.939 226.22 T
491.75 179.974 485.844 179.974 485.844 222.012 T
491.75 217.892 491.75 179.974 485.844 222.012 T
497.656 179.974 491.75 179.974 491.75 217.892 T
497.656 214.701 497.656 179.974 491.75 217.892 T
503.562 179.974 497.656 179.974 497.656 214.701 T
503.562 211.664 503.562 179.974 497.656 214.701 T
509.468 179.974 503.562 179.974 503.562 211.664 T
509.468 208.284 509.468 179.974 503.562 211.664 T
515.374 179.974 509.468 179.974 509.468 208.284 T
515.374 205.71 515.374 179.974 509.468 208.284 T
521.28 179.974 515.374 179.974 515.374 205.71 T
521.28 203.366 521.28 179.974 515.374 205.71 T
0 LC
[] 0 setdash
0 0 0 C
521.28 203.366 LS
515.374 205.71 L
509.468 208.284 L
503.562 211.664 L
497.656 214.701 L
491.75 217.892 L
485.844 222.012 L
479.939 226.22 L
474.033 231.594 L
468.127 236.357 L
462.221 240.492 L
456.315 247.538 L
450.409 251.978 L
444.503 254.387 L
438.597 253.357 L
432.691 244.313 L
426.785 221.203 L
420.879 205.792 L
414.973 194.909 L
409.067 185.893 L
409.067 179.974 L
414.973 179.974 L
420.879 179.974 L
426.785 179.974 L
432.691 179.974 L
438.597 179.974 L
444.503 179.974 L
450.409 179.974 L
456.315 179.974 L
462.221 179.974 L
468.127 179.974 L
474.033 179.974 L
479.939 179.974 L
485.844 179.974 L
491.75 179.974 L
497.656 179.974 L
503.562 179.974 L
509.468 179.974 L
515.374 179.974 L
521.28 179.974 L
521.28 203.366 LE
1 1 1 C
409.067 179.974 409.067 180.748 414.973 179.974 T
414.973 184.521 414.973 179.974 409.067 180.748 T
420.879 179.974 414.973 179.974 414.973 184.521 T
420.879 189.226 420.879 179.974 414.973 184.521 T
426.785 179.974 420.879 179.974 420.879 189.226 T
426.785 195.446 426.785 179.974 420.879 189.226 T
432.691 179.974 426.785 179.974 426.785 195.446 T
432.691 202.648 432.691 179.974 426.785 195.446 T
438.597 179.974 432.691 179.974 432.691 202.648 T
438.597 204.658 438.597 179.974 432.691 202.648 T
444.503 179.974 438.597 179.974 438.597 204.658 T
444.503 203.566 444.503 179.974 438.597 204.658 T
450.409 179.974 444.503 179.974 444.503 203.566 T
450.409 200.929 450.409 179.974 444.503 203.566 T
456.315 179.974 450.409 179.974 450.409 200.929 T
456.315 196.872 456.315 179.974 450.409 200.929 T
462.221 179.974 456.315 179.974 456.315 196.872 T
462.221 191.236 462.221 179.974 456.315 196.872 T
468.127 179.974 462.221 179.974 462.221 191.236 T
468.127 189.281 468.127 179.974 462.221 191.236 T
474.033 179.974 468.127 179.974 468.127 189.281 T
474.033 187.092 474.033 179.974 468.127 189.281 T
479.939 179.974 474.033 179.974 474.033 187.092 T
479.939 184.74 479.939 179.974 474.033 187.092 T
485.844 179.974 479.939 179.974 479.939 184.74 T
485.844 183.245 485.844 179.974 479.939 184.74 T
491.75 179.974 485.844 179.974 485.844 183.245 T
491.75 182.006 491.75 179.974 485.844 183.245 T
497.656 179.974 491.75 179.974 491.75 182.006 T
497.656 181.788 497.656 179.974 491.75 182.006 T
503.562 179.974 497.656 179.974 497.656 181.788 T
503.562 181.467 503.562 179.974 497.656 181.788 T
509.468 179.974 503.562 179.974 503.562 181.467 T
509.468 180.541 509.468 179.974 503.562 181.467 T
515.374 179.974 509.468 179.974 509.468 180.541 T
515.374 180.227 515.374 179.974 509.468 180.541 T
521.28 179.974 515.374 179.974 515.374 180.227 T
0 0 0 C
521.28 179.974 LS
515.374 180.227 L
509.468 180.541 L
503.562 181.467 L
497.656 181.788 L
491.75 182.006 L
485.844 183.245 L
479.939 184.74 L
474.033 187.092 L
468.127 189.281 L
462.221 191.236 L
456.315 196.872 L
450.409 200.929 L
444.503 203.566 L
438.597 204.658 L
432.691 202.648 L
426.785 195.446 L
420.879 189.226 L
414.973 184.521 L
409.067 180.748 L
409.067 179.974 L
414.973 179.974 L
420.879 179.974 L
426.785 179.974 L
432.691 179.974 L
438.597 179.974 L
444.503 179.974 L
450.409 179.974 L
456.315 179.974 L
462.221 179.974 L
468.127 179.974 L
474.033 179.974 L
479.939 179.974 L
485.844 179.974 L
491.75 179.974 L
497.656 179.974 L
503.562 179.974 L
509.468 179.974 L
515.374 179.974 L
521.28 179.974 LE
3 W
1 LJ
409.067 183.158 LS
414.973 189.758 L
420.879 198.12 L
426.785 209.276 L
432.691 224.815 L
438.597 230.619 L
444.503 230.969 L
450.409 228.422 L
456.315 224.49 L
462.221 220.053 L
468.127 215.604 L
474.033 211.408 L
479.939 207.589 L
485.844 204.191 L
491.75 201.212 L
497.656 198.626 L
503.562 196.395 L
509.468 194.479 L
515.374 192.837 L
521.28 191.43 LE
grestore
gsave
1.0 1.0 scale
newpath 0 0 moveto 576 0 lineto 576 432 lineto 0 432 lineto
closepath clip
1 1 1 C
74.88 121.933 187.093 47.52 74.88 47.52 T
74.88 121.933 187.093 121.933 187.093 47.52 T
0.5 W
0.15 0.15 0.15 C
98.5037 47.52 LS
98.5037 48.6484 LE
98.5037 121.933 LS
98.5037 120.805 LE
128.033 47.52 LS
128.033 48.6484 LE
128.033 121.933 LS
128.033 120.805 LE
157.563 47.52 LS
157.563 48.6484 LE
157.563 121.933 LS
157.563 120.805 LE
187.093 47.52 LS
187.093 48.6484 LE
187.093 121.933 LS
187.093 120.805 LE
gsave
0.14902 0.14902 0.14902 C
(5) [10] 0 95.5037 31.9781 10 /Helvetica SRX
grestore

gsave
0.14902 0.14902 0.14902 C
(10) [6 10] 0 122.033 31.9781 10 /Helvetica SRX
grestore

gsave
0.14902 0.14902 0.14902 C
(15) [6 10] 0 151.563 31.9781 10 /Helvetica SRX
grestore

gsave
0.14902 0.14902 0.14902 C
(20) [6 10] 0 181.093 31.9781 10 /Helvetica SRX
grestore

74.88 47.8391 LS
76.0043 47.8391 LE
187.093 47.8391 LS
185.968 47.8391 LE
74.88 65.0976 LS
76.0043 65.0976 LE
187.093 65.0976 LS
185.968 65.0976 LE
74.88 82.3561 LS
76.0043 82.3561 LE
187.093 82.3561 LS
185.968 82.3561 LE
74.88 99.6145 LS
76.0043 99.6145 LE
187.093 99.6145 LS
185.968 99.6145 LE
74.88 116.873 LS
76.0043 116.873 LE
187.093 116.873 LS
185.968 116.873 LE
gsave
0.14902 0.14902 0.14902 C
(-0.004) [3 6 3 6 6 10] 0 39.8705 43.8391 10 /Helvetica SRX
grestore

gsave
0.14902 0.14902 0.14902 C
(-0.002) [3 6 3 6 6 10] 0 39.8705 61.0976 10 /Helvetica SRX
grestore

gsave
0.14902 0.14902 0.14902 C
(0) [10] 0 63.8705 78.3561 10 /Helvetica SRX
grestore

gsave
0.14902 0.14902 0.14902 C
(0.002) [6 3 6 6 10] 0 42.8705 95.6146 10 /Helvetica SRX
grestore

gsave
0.14902 0.14902 0.14902 C
(0.004) [6 3 6 6 10] 0 42.8705 112.873 10 /Helvetica SRX
grestore

2 LC
[16 0] 0 setdash
74.88 47.52 LS
187.093 47.52 LE
74.88 121.933 LS
187.093 121.933 LE
74.88 47.52 LS
74.88 121.933 LE
187.093 47.52 LS
187.093 121.933 LE
gsave
0 0 0 C
(I_T_hat) [3 6 7 6 7 6 10] 0 111.486 133.933 11 /Helvetica-Bold SRX
grestore

0.9 0.9 0.9 C
74.88 47.52 74.88 81.5101 80.7859 47.52 T
80.7859 82.6901 80.7859 47.52 74.88 81.5101 T
86.6918 47.52 80.7859 47.52 80.7859 82.6901 T
86.6918 84.3057 86.6918 47.52 80.7859 82.6901 T
92.5978 47.52 86.6918 47.52 86.6918 84.3057 T
92.5978 86.3375 92.5978 47.52 86.6918 84.3057 T
98.5037 47.52 92.5978 47.52 92.5978 86.3375 T
98.5037 92.5425 98.5037 47.52 92.5978 86.3375 T
104.41 47.52 98.5037 47.52 98.5037 92.5425 T
104.41 101.751 104.41 47.52 98.5037 92.5425 T
110.316 47.52 104.41 47.52 104.41 101.751 T
110.316 109.375 110.316 47.52 104.41 101.751 T
116.221 47.52 110.316 47.52 110.316 109.375 T
116.221 115.221 116.221 47.52 110.316 109.375 T
122.127 47.52 116.221 47.52 116.221 115.221 T
122.127 117.956 122.127 47.52 116.221 115.221 T
128.033 47.52 122.127 47.52 122.127 117.956 T
128.033 118.505 128.033 47.52 122.127 117.956 T
133.939 47.52 128.033 47.52 128.033 118.505 T
133.939 121.013 133.939 47.52 128.033 118.505 T
139.845 47.52 133.939 47.52 133.939 121.013 T
139.845 121.933 139.845 47.52 133.939 121.013 T
145.751 47.52 139.845 47.52 139.845 121.933 T
145.751 120.423 145.751 47.52 139.845 121.933 T
151.657 47.52 145.751 47.52 145.751 120.423 T
151.657 119.614 151.657 47.52 145.751 120.423 T
157.563 47.52 151.657 47.52 151.657 119.614 T
157.563 118.8 157.563 47.52 151.657 119.614 T
163.469 47.52 157.563 47.52 157.563 118.8 T
163.469 118.566 163.469 47.52 157.563 118.8 T
169.375 47.52 163.469 47.52 163.469 118.566 T
169.375 117.838 169.375 47.52 163.469 118.566 T
175.281 47.52 169.375 47.52 169.375 117.838 T
175.281 118.353 175.281 47.52 169.375 117.838 T
181.187 47.52 175.281 47.52 175.281 118.353 T
181.187 115.422 181.187 47.52 175.281 118.353 T
187.093 47.52 181.187 47.52 181.187 115.422 T
187.093 114.466 187.093 47.52 181.187 115.422 T
0 LC
[] 0 setdash
0 0 0 C
187.093 114.466 LS
181.187 115.422 L
175.281 118.353 L
169.375 117.838 L
163.469 118.566 L
157.563 118.8 L
151.657 119.614 L
145.751 120.423 L
139.845 121.933 L
133.939 121.013 L
128.033 118.505 L
122.127 117.956 L
116.221 115.221 L
110.316 109.375 L
104.41 101.751 L
98.5037 92.5425 L
92.5978 86.3375 L
86.6918 84.3057 L
80.7859 82.6901 L
74.88 81.5101 L
74.88 47.52 L
80.7859 47.52 L
86.6918 47.52 L
92.5978 47.52 L
98.5037 47.52 L
104.41 47.52 L
110.316 47.52 L
116.221 47.52 L
122.127 47.52 L
128.033 47.52 L
133.939 47.52 L
139.845 47.52 L
145.751 47.52 L
151.657 47.52 L
157.563 47.52 L
163.469 47.52 L
169.375 47.52 L
175.281 47.52 L
181.187 47.52 L
187.093 47.52 L
187.093 114.466 LE
1 1 1 C
74.88 47.52 80.7859 49.0559 80.7859 47.52 T
86.6918 47.52 80.7859 47.52 80.7859 49.0559 T
86.6918 52.7279 86.6918 47.52 80.7859 49.0559 T
92.5978 47.52 86.6918 47.52 86.6918 52.7279 T
92.5978 57.9784 92.5978 47.52 86.6918 52.7279 T
98.5037 47.52 92.5978 47.52 92.5978 57.9784 T
98.5037 66.0249 98.5037 47.52 92.5978 57.9784 T
104.41 47.52 98.5037 47.52 98.5037 66.0249 T
104.41 75.3597 104.41 47.52 98.5037 66.0249 T
110.316 47.52 104.41 47.52 104.41 75.3597 T
110.316 82.6373 110.316 47.52 104.41 75.3597 T
116.221 47.52 110.316 47.52 110.316 82.6373 T
116.221 89.216 116.221 47.52 110.316 82.6373 T
122.127 47.52 116.221 47.52 116.221 89.216 T
122.127 92.9744 122.127 47.52 116.221 89.216 T
128.033 47.52 122.127 47.52 122.127 92.9744 T
128.033 93.5909 128.033 47.52 122.127 92.9744 T
133.939 47.52 128.033 47.52 128.033 93.5909 T
133.939 95.5355 133.939 47.52 128.033 93.5909 T
139.845 47.52 133.939 47.52 133.939 95.5355 T
139.845 96.3941 139.845 47.52 133.939 95.5355 T
145.751 47.52 139.845 47.52 139.845 96.3941 T
145.751 95.1251 145.751 47.52 139.845 96.3941 T
151.657 47.52 145.751 47.52 145.751 95.1251 T
151.657 94.2899 151.657 47.52 145.751 95.1251 T
157.563 47.52 151.657 47.52 151.657 94.2899 T
157.563 93.4062 157.563 47.52 151.657 94.2899 T
163.469 47.52 157.563 47.52 157.563 93.4062 T
163.469 93.1232 163.469 47.52 157.563 93.4062 T
169.375 47.52 163.469 47.52 163.469 93.1232 T
169.375 92.7019 169.375 47.52 163.469 93.1232 T
175.281 47.52 169.375 47.52 169.375 92.7019 T
175.281 93.7339 175.281 47.52 169.375 92.7019 T
181.187 47.52 175.281 47.52 175.281 93.7339 T
181.187 91.0856 181.187 47.52 175.281 93.7339 T
187.093 47.52 181.187 47.52 181.187 91.0856 T
187.093 90.7314 187.093 47.52 181.187 91.0856 T
0 0 0 C
187.093 90.7314 LS
181.187 91.0856 L
175.281 93.7339 L
169.375 92.7019 L
163.469 93.1232 L
157.563 93.4062 L
151.657 94.2899 L
145.751 95.1251 L
139.845 96.3941 L
133.939 95.5355 L
128.033 93.5909 L
122.127 92.9744 L
116.221 89.216 L
110.316 82.6373 L
104.41 75.3597 L
98.5037 66.0249 L
92.5978 57.9784 L
86.6918 52.7279 L
80.7859 49.0559 L
74.88 47.52 L
80.7859 47.52 L
86.6918 47.52 L
92.5978 47.52 L
98.5037 47.52 L
104.41 47.52 L
110.316 47.52 L
116.221 47.52 L
122.127 47.52 L
128.033 47.52 L
133.939 47.52 L
139.845 47.52 L
145.751 47.52 L
151.657 47.52 L
157.563 47.52 L
163.469 47.52 L
169.375 47.52 L
175.281 47.52 L
181.187 47.52 L
187.093 47.52 L
187.093 90.7314 LE
3 W
1 LJ
74.88 63.615 LS
80.7859 64.6346 L
86.6918 67.4363 L
92.5978 72.4156 L
98.5037 79.7962 L
104.41 89.1041 L
110.316 96.3286 L
116.221 101.415 L
122.127 104.781 L
128.033 106.841 L
133.939 107.934 L
139.845 108.325 L
145.751 108.217 L
151.657 107.766 L
157.563 107.086 L
163.469 106.263 L
169.375 105.36 L
175.281 104.423 L
181.187 103.484 L
187.093 102.565 LE
grestore
gsave
1.0 1.0 scale
newpath 0 0 moveto 576 0 lineto 576 432 lineto 0 432 lineto
closepath clip
1 1 1 C
241.974 121.933 354.186 47.52 241.974 47.52 T
241.974 121.933 354.186 121.933 354.186 47.52 T
0.5 W
0.15 0.15 0.15 C
265.597 47.52 LS
265.597 48.6484 LE
265.597 121.933 LS
265.597 120.805 LE
295.127 47.52 LS
295.127 48.6484 LE
295.127 121.933 LS
295.127 120.805 LE
324.657 47.52 LS
324.657 48.6484 LE
324.657 121.933 LS
324.657 120.805 LE
354.186 47.52 LS
354.186 48.6484 LE
354.186 121.933 LS
354.186 120.805 LE
gsave
0.14902 0.14902 0.14902 C
(5) [10] 0 262.597 31.9781 10 /Helvetica SRX
grestore

gsave
0.14902 0.14902 0.14902 C
(10) [6 10] 0 289.127 31.9781 10 /Helvetica SRX
grestore

gsave
0.14902 0.14902 0.14902 C
(15) [6 10] 0 318.657 31.9781 10 /Helvetica SRX
grestore

gsave
0.14902 0.14902 0.14902 C
(20) [6 10] 0 348.186 31.9781 10 /Helvetica SRX
grestore

241.974 58.6121 LS
243.098 58.6121 LE
354.186 58.6121 LS
353.062 58.6121 LE
241.974 76.781 LS
243.098 76.781 LE
354.186 76.781 LS
353.062 76.781 LE
241.974 94.9498 LS
243.098 94.9498 LE
354.186 94.9498 LS
353.062 94.9498 LE
241.974 113.119 LS
243.098 113.119 LE
354.186 113.119 LS
353.062 113.119 LE
gsave
0.14902 0.14902 0.14902 C
(0.002) [6 3 6 6 10] 0 209.964 54.6122 10 /Helvetica SRX
grestore

gsave
0.14902 0.14902 0.14902 C
(0.004) [6 3 6 6 10] 0 209.964 72.781 10 /Helvetica SRX
grestore

gsave
0.14902 0.14902 0.14902 C
(0.006) [6 3 6 6 10] 0 209.964 90.9498 10 /Helvetica SRX
grestore

gsave
0.14902 0.14902 0.14902 C
(0.008) [6 3 6 6 10] 0 209.964 109.119 10 /Helvetica SRX
grestore

2 LC
[16 0] 0 setdash
241.974 47.52 LS
354.186 47.52 LE
241.974 121.933 LS
354.186 121.933 LE
241.974 47.52 LS
241.974 121.933 LE
354.186 47.52 LS
354.186 121.933 LE
gsave
0 0 0 C
(I_N_hat) [3 6 8 6 7 6 10] 0 278.08 133.933 11 /Helvetica-Bold SRX
grestore

0.9 0.9 0.9 C
241.974 47.52 241.974 119.15 247.88 47.52 T
247.88 118.571 247.88 47.52 241.974 119.15 T
253.786 47.52 247.88 47.52 247.88 118.571 T
253.786 118.582 253.786 47.52 247.88 118.571 T
259.691 47.52 253.786 47.52 253.786 118.582 T
259.691 118.984 259.691 47.52 253.786 118.582 T
265.597 47.52 259.691 47.52 259.691 118.984 T
265.597 121.218 265.597 47.52 259.691 118.984 T
271.503 47.52 265.597 47.52 265.597 121.218 T
271.503 121.933 271.503 47.52 265.597 121.218 T
277.409 47.52 271.503 47.52 271.503 121.933 T
277.409 119.41 277.409 47.52 271.503 121.933 T
283.315 47.52 277.409 47.52 277.409 119.41 T
283.315 118.358 283.315 47.52 277.409 119.41 T
289.221 47.52 283.315 47.52 283.315 118.358 T
289.221 114.197 289.221 47.52 283.315 118.358 T
295.127 47.52 289.221 47.52 289.221 114.197 T
295.127 108.874 295.127 47.52 289.221 114.197 T
301.033 47.52 295.127 47.52 295.127 108.874 T
301.033 106.351 301.033 47.52 295.127 108.874 T
306.939 47.52 301.033 47.52 301.033 106.351 T
306.939 102.174 306.939 47.52 301.033 106.351 T
312.845 47.52 306.939 47.52 306.939 102.174 T
312.845 98.1826 312.845 47.52 306.939 102.174 T
318.751 47.52 312.845 47.52 312.845 98.1826 T
318.751 94.4246 318.751 47.52 312.845 98.1826 T
324.657 47.52 318.751 47.52 318.751 94.4246 T
324.657 89.1267 324.657 47.52 318.751 94.4246 T
330.563 47.52 324.657 47.52 324.657 89.1267 T
330.563 86.3306 330.563 47.52 324.657 89.1267 T
336.469 47.52 330.563 47.52 330.563 86.3306 T
336.469 83.2937 336.469 47.52 330.563 86.3306 T
342.374 47.52 336.469 47.52 336.469 83.2937 T
342.374 80.7041 342.374 47.52 336.469 83.2937 T
348.28 47.52 342.374 47.52 342.374 80.7041 T
348.28 78.205 348.28 47.52 342.374 80.7041 T
354.186 47.52 348.28 47.52 348.28 78.205 T
354.186 76.0494 354.186 47.52 348.28 78.205 T
0 LC
[] 0 setdash
0 0 0 C
354.186 76.0494 LS
348.28 78.205 L
342.374 80.7041 L
336.469 83.2937 L
330.563 86.3306 L
324.657 89.1267 L
318.751 94.4246 L
312.845 98.1826 L
306.939 102.174 L
301.033 106.351 L
295.127 108.874 L
289.221 114.197 L
283.315 118.358 L
277.409 119.41 L
271.503 121.933 L
265.597 121.218 L
259.691 118.984 L
253.786 118.582 L
247.88 118.571 L
241.974 119.15 L
241.974 47.52 L
247.88 47.52 L
253.786 47.52 L
259.691 47.52 L
265.597 47.52 L
271.503 47.52 L
277.409 47.52 L
283.315 47.52 L
289.221 47.52 L
295.127 47.52 L
301.033 47.52 L
306.939 47.52 L
312.845 47.52 L
318.751 47.52 L
324.657 47.52 L
330.563 47.52 L
336.469 47.52 L
342.374 47.52 L
348.28 47.52 L
354.186 47.52 L
354.186 76.0494 LE
1 1 1 C
241.974 47.52 241.974 67.9091 247.88 47.52 T
247.88 67.6323 247.88 47.52 241.974 67.9091 T
253.786 47.52 247.88 47.52 247.88 67.6323 T
253.786 67.4035 253.786 47.52 247.88 67.6323 T
259.691 47.52 253.786 47.52 253.786 67.4035 T
259.691 66.6958 259.691 47.52 253.786 67.4035 T
265.597 47.52 259.691 47.52 259.691 66.6958 T
265.597 68.3432 265.597 47.52 259.691 66.6958 T
271.503 47.52 265.597 47.52 265.597 68.3432 T
271.503 67.7889 271.503 47.52 265.597 68.3432 T
277.409 47.52 271.503 47.52 271.503 67.7889 T
277.409 64.6628 277.409 47.52 271.503 67.7889 T
283.315 47.52 277.409 47.52 277.409 64.6628 T
283.315 64.1082 283.315 47.52 277.409 64.6628 T
289.221 47.52 283.315 47.52 283.315 64.1082 T
289.221 60.9704 289.221 47.52 283.315 64.1082 T
295.127 47.52 289.221 47.52 289.221 60.9704 T
295.127 57.4457 295.127 47.52 289.221 60.9704 T
301.033 47.52 295.127 47.52 295.127 57.4457 T
301.033 57.1538 301.033 47.52 295.127 57.4457 T
306.939 47.52 301.033 47.52 301.033 57.1538 T
306.939 55.3945 306.939 47.52 301.033 57.1538 T
312.845 47.52 306.939 47.52 306.939 55.3945 T
312.845 53.9019 312.845 47.52 306.939 55.3945 T
318.751 47.52 312.845 47.52 312.845 53.9019 T
318.751 52.8178 318.751 47.52 312.845 53.9019 T
324.657 47.52 318.751 47.52 318.751 52.8178 T
324.657 50.147 324.657 47.52 318.751 52.8178 T
330.563 47.52 324.657 47.52 324.657 50.147 T
330.563 49.7635 330.563 47.52 324.657 50.147 T
336.469 47.52 330.563 47.52 330.563 49.7635 T
336.469 49.0716 336.469 47.52 330.563 49.7635 T
342.374 47.52 336.469 47.52 336.469 49.0716 T
342.374 48.5482 342.374 47.52 336.469 49.0716 T
348.28 47.52 342.374 47.52 342.374 48.5482 T
348.28 47.9911 348.28 47.52 342.374 48.5482 T
354.186 47.52 348.28 47.52 348.28 47.9911 T
0 0 0 C
354.186 47.52 LS
348.28 47.9911 L
342.374 48.5482 L
336.469 49.0716 L
330.563 49.7635 L
324.657 50.147 L
318.751 52.8178 L
312.845 53.9019 L
306.939 55.3945 L
301.033 57.1538 L
295.127 57.4457 L
289.221 60.9704 L
283.315 64.1082 L
277.409 64.6628 L
271.503 67.7889 L
265.597 68.3432 L
259.691 66.6958 L
253.786 67.4035 L
247.88 67.6323 L
241.974 67.9091 L
241.974 47.52 L
247.88 47.52 L
253.786 47.52 L
259.691 47.52 L
265.597 47.52 L
271.503 47.52 L
277.409 47.52 L
283.315 47.52 L
289.221 47.52 L
295.127 47.52 L
301.033 47.52 L
306.939 47.52 L
312.845 47.52 L
318.751 47.52 L
324.657 47.52 L
330.563 47.52 L
336.469 47.52 L
342.374 47.52 L
348.28 47.52 L
354.186 47.52 LE
3 W
1 LJ
241.974 95.2678 LS
247.88 94.9469 L
253.786 94.8735 L
259.691 94.8586 L
265.597 94.3255 L
271.503 94.0591 L
277.409 92.6108 L
283.315 90.2963 L
289.221 87.502 L
295.127 84.509 L
301.033 81.5011 L
306.939 78.5925 L
312.845 75.8493 L
318.751 73.3058 L
324.657 70.9759 L
330.563 68.86 L
336.469 66.9506 L
342.374 65.2354 L
348.28 63.6996 L
354.186 62.3275 LE
grestore
gsave
1.0 1.0 scale
newpath 0 0 moveto 576 0 lineto 576 432 lineto 0 432 lineto
closepath clip
1 1 1 C
409.067 121.933 521.28 47.52 409.067 47.52 T
409.067 121.933 521.28 121.933 521.28 47.52 T
0.5 W
0.15 0.15 0.15 C
432.691 47.52 LS
432.691 48.6484 LE
432.691 121.933 LS
432.691 120.805 LE
462.221 47.52 LS
462.221 48.6484 LE
462.221 121.933 LS
462.221 120.805 LE
491.75 47.52 LS
491.75 48.6484 LE
491.75 121.933 LS
491.75 120.805 LE
521.28 47.52 LS
521.28 48.6484 LE
521.28 121.933 LS
521.28 120.805 LE
gsave
0.14902 0.14902 0.14902 C
(5) [10] 0 429.691 31.9781 10 /Helvetica SRX
grestore

gsave
0.14902 0.14902 0.14902 C
(10) [6 10] 0 456.221 31.9781 10 /Helvetica SRX
grestore

gsave
0.14902 0.14902 0.14902 C
(15) [6 10] 0 485.75 31.9781 10 /Helvetica SRX
grestore

gsave
0.14902 0.14902 0.14902 C
(20) [6 10] 0 515.28 31.9781 10 /Helvetica SRX
grestore

409.067 63.1243 LS
410.192 63.1243 LE
521.28 63.1243 LS
520.156 63.1243 LE
409.067 79.2891 LS
410.192 79.2891 LE
521.28 79.2891 LS
520.156 79.2891 LE
409.067 95.4539 LS
410.192 95.4539 LE
521.28 95.4539 LS
520.156 95.4539 LE
409.067 111.619 LS
410.192 111.619 LE
521.28 111.619 LS
520.156 111.619 LE
gsave
0.14902 0.14902 0.14902 C
(0.01) [6 3 6 10] 0 383.058 59.1243 10 /Helvetica SRX
grestore

gsave
0.14902 0.14902 0.14902 C
(0.02) [6 3 6 10] 0 383.058 75.2891 10 /Helvetica SRX
grestore

gsave
0.14902 0.14902 0.14902 C
(0.03) [6 3 6 10] 0 383.058 91.4539 10 /Helvetica SRX
grestore

gsave
0.14902 0.14902 0.14902 C
(0.04) [6 3 6 10] 0 383.058 107.619 10 /Helvetica SRX
grestore

2 LC
[16 0] 0 setdash
409.067 47.52 LS
521.28 47.52 LE
409.067 121.933 LS
521.28 121.933 LE
409.067 47.52 LS
409.067 121.933 LE
521.28 47.52 LS
521.28 121.933 LE
gsave
0 0 0 C
(I_C_hat) [3 6 8 6 7 6 10] 0 445.174 133.933 11 /Helvetica-Bold SRX
grestore

0.9 0.9 0.9 C
409.067 47.52 409.067 117.538 414.973 47.52 T
414.973 119.841 414.973 47.52 409.067 117.538 T
420.879 47.52 414.973 47.52 414.973 119.841 T
420.879 121.933 420.879 47.52 414.973 119.841 T
426.785 47.52 420.879 47.52 420.879 121.933 T
426.785 121.625 426.785 47.52 420.879 121.933 T
432.691 47.52 426.785 47.52 426.785 121.625 T
432.691 112.338 432.691 47.52 426.785 121.625 T
438.597 47.52 432.691 47.52 432.691 112.338 T
438.597 104.803 438.597 47.52 432.691 112.338 T
444.503 47.52 438.597 47.52 438.597 104.803 T
444.503 97.5686 444.503 47.52 438.597 104.803 T
450.409 47.52 444.503 47.52 444.503 97.5686 T
450.409 90.3998 450.409 47.52 444.503 97.5686 T
456.315 47.52 450.409 47.52 450.409 90.3998 T
456.315 84.1415 456.315 47.52 450.409 90.3998 T
462.221 47.52 456.315 47.52 456.315 84.1415 T
462.221 79.3231 462.221 47.52 456.315 84.1415 T
468.127 47.52 462.221 47.52 462.221 79.3231 T
468.127 75.8271 468.127 47.52 462.221 79.3231 T
474.033 47.52 468.127 47.52 468.127 75.8271 T
474.033 71.8786 474.033 47.52 468.127 75.8271 T
479.939 47.52 474.033 47.52 474.033 71.8786 T
479.939 68.5608 479.939 47.52 474.033 71.8786 T
485.844 47.52 479.939 47.52 479.939 68.5608 T
485.844 65.8203 485.844 47.52 479.939 68.5608 T
491.75 47.52 485.844 47.52 485.844 65.8203 T
491.75 63.1087 491.75 47.52 485.844 65.8203 T
497.656 47.52 491.75 47.52 491.75 63.1087 T
497.656 60.9163 497.656 47.52 491.75 63.1087 T
503.562 47.52 497.656 47.52 497.656 60.9163 T
503.562 59.0343 503.562 47.52 497.656 60.9163 T
509.468 47.52 503.562 47.52 503.562 59.0343 T
509.468 57.3837 509.468 47.52 503.562 59.0343 T
515.374 47.52 509.468 47.52 509.468 57.3837 T
515.374 56.0216 515.374 47.52 509.468 57.3837 T
521.28 47.52 515.374 47.52 515.374 56.0216 T
521.28 54.7832 521.28 47.52 515.374 56.0216 T
0 LC
[] 0 setdash
0 0 0 C
521.28 54.7832 LS
515.374 56.0216 L
509.468 57.3837 L
503.562 59.0343 L
497.656 60.9163 L
491.75 63.1087 L
485.844 65.8203 L
479.939 68.5608 L
474.033 71.8786 L
468.127 75.8271 L
462.221 79.3231 L
456.315 84.1415 L
450.409 90.3998 L
444.503 97.5686 L
438.597 104.803 L
432.691 112.338 L
426.785 121.625 L
420.879 121.933 L
414.973 119.841 L
409.067 117.538 L
409.067 47.52 L
414.973 47.52 L
420.879 47.52 L
426.785 47.52 L
432.691 47.52 L
438.597 47.52 L
444.503 47.52 L
450.409 47.52 L
456.315 47.52 L
462.221 47.52 L
468.127 47.52 L
474.033 47.52 L
479.939 47.52 L
485.844 47.52 L
491.75 47.52 L
497.656 47.52 L
503.562 47.52 L
509.468 47.52 L
515.374 47.52 L
521.28 47.52 L
521.28 54.7832 LE
1 1 1 C
409.067 47.52 409.067 68.7279 414.973 47.52 T
414.973 69.2885 414.973 47.52 409.067 68.7279 T
420.879 47.52 414.973 47.52 414.973 69.2885 T
420.879 69.7141 420.879 47.52 414.973 69.2885 T
426.785 47.52 420.879 47.52 420.879 69.7141 T
426.785 67.9937 426.785 47.52 420.879 69.7141 T
432.691 47.52 426.785 47.52 426.785 67.9937 T
432.691 61.9376 432.691 47.52 426.785 67.9937 T
438.597 47.52 432.691 47.52 432.691 61.9376 T
438.597 57.907 438.597 47.52 432.691 61.9376 T
444.503 47.52 438.597 47.52 438.597 57.907 T
444.503 54.6915 444.503 47.52 438.597 57.907 T
450.409 47.52 444.503 47.52 444.503 54.6915 T
450.409 51.9961 450.409 47.52 444.503 54.6915 T
456.315 47.52 450.409 47.52 450.409 51.9961 T
456.315 50.3963 456.315 47.52 450.409 51.9961 T
462.221 47.52 456.315 47.52 456.315 50.3963 T
462.221 49.3692 462.221 47.52 456.315 50.3963 T
468.127 47.52 462.221 47.52 462.221 49.3692 T
468.127 49.4905 468.127 47.52 462.221 49.3692 T
474.033 47.52 468.127 47.52 468.127 49.4905 T
474.033 48.7867 474.033 47.52 468.127 49.4905 T
479.939 47.52 474.033 47.52 474.033 48.7867 T
479.939 48.4571 479.939 47.52 474.033 48.7867 T
485.844 47.52 479.939 47.52 479.939 48.4571 T
485.844 48.3069 485.844 47.52 479.939 48.4571 T
491.75 47.52 485.844 47.52 485.844 48.3069 T
491.75 47.992 491.75 47.52 485.844 48.3069 T
497.656 47.52 491.75 47.52 491.75 47.992 T
497.656 47.818 497.656 47.52 491.75 47.992 T
503.562 47.52 497.656 47.52 497.656 47.818 T
503.562 47.7176 503.562 47.52 497.656 47.818 T
509.468 47.52 503.562 47.52 503.562 47.7176 T
509.468 47.5954 509.468 47.52 503.562 47.7176 T
515.374 47.52 509.468 47.52 509.468 47.5954 T
515.374 47.5723 515.374 47.52 509.468 47.5954 T
521.28 47.52 515.374 47.52 515.374 47.5723 T
0 0 0 C
521.28 47.52 LS
515.374 47.5723 L
509.468 47.5954 L
503.562 47.7176 L
497.656 47.818 L
491.75 47.992 L
485.844 48.3069 L
479.939 48.4571 L
474.033 48.7867 L
468.127 49.4905 L
462.221 49.3692 L
456.315 50.3963 L
450.409 51.9961 L
444.503 54.6915 L
438.597 57.907 L
432.691 61.9376 L
426.785 67.9937 L
420.879 69.7141 L
414.973 69.2885 L
409.067 68.7279 L
409.067 47.52 L
414.973 47.52 L
420.879 47.52 L
426.785 47.52 L
432.691 47.52 L
438.597 47.52 L
444.503 47.52 L
450.409 47.52 L
456.315 47.52 L
462.221 47.52 L
468.127 47.52 L
474.033 47.52 L
479.939 47.52 L
485.844 47.52 L
491.75 47.52 L
497.656 47.52 L
503.562 47.52 L
509.468 47.52 L
515.374 47.52 L
521.28 47.52 LE
3 W
1 LJ
409.067 93.7586 LS
414.973 95.1631 L
420.879 96.396 L
426.785 97.3331 L
432.691 89.3676 L
438.597 82.8408 L
444.503 77.2926 L
450.409 72.575 L
456.315 68.5799 L
462.221 65.2092 L
468.127 62.3732 L
474.033 59.9918 L
479.939 57.9947 L
485.844 56.3214 L
491.75 54.92 L
497.656 53.7469 L
503.562 52.765 L
509.468 51.9432 L
515.374 51.2554 L
521.28 50.6798 LE
grestore
grestore
showpage
cleartomark
%%PageTrailer
%%Trailer
end
%%EOF
