%!PS-Adobe-3.0 EPSF-3.0
%%Title: gl2ps_renderer figure
%%Creator: GL2PS 1.4.2, (C) 1999-2020 C. Geuzaine
%%For: Octave
%%CreationDate: Wed Oct  7 04:42:17 2020
%%LanguageLevel: 3
%%DocumentData: Clean7Bit
%%Pages: 1
%%BoundingBox: 0 0 576 432
%%EndComments
%%BeginProlog
/gl2psdict 64 dict def gl2psdict begin
/tryPS3shading false def % set to false to force subdivision
/rThreshold 0.064 def % red component subdivision threshold
/gThreshold 0.034 def % green component subdivision threshold
/bThreshold 0.1 def % blue component subdivision threshold
/BD { bind def } bind def
/C  { setrgbcolor } BD
/G  { 0.082 mul exch 0.6094 mul add exch 0.3086 mul add neg 1.0 add setgray } BD
/W  { setlinewidth } BD
/LC  { setlinecap } BD
/LJ  { setlinejoin } BD
/FC { findfont exch /SH exch def SH scalefont setfont } BD
/SW { dup stringwidth pop } BD
/S  { FC moveto show } BD
/SBC{ FC moveto SW -2 div 0 rmoveto show } BD
/SBR{ FC moveto SW neg 0 rmoveto show } BD
/SCL{ FC moveto 0 SH -2 div rmoveto show } BD
/SCC{ FC moveto SW -2 div SH -2 div rmoveto show } BD
/SCR{ FC moveto SW neg SH -2 div rmoveto show } BD
/STL{ FC moveto 0 SH neg rmoveto show } BD
/STC{ FC moveto SW -2 div SH neg rmoveto show } BD
/STR{ FC moveto SW neg SH neg rmoveto show } BD
/FCT { FC translate 0 0 } BD
/SR  { gsave FCT moveto rotate show grestore } BD
/SRX  { gsave FCT moveto rotate xshow grestore } BD
/SBCR{ gsave FCT moveto rotate SW -2 div 0 rmoveto show grestore } BD
/SBRR{ gsave FCT moveto rotate SW neg 0 rmoveto show grestore } BD
/SCLR{ gsave FCT moveto rotate 0 SH -2 div rmoveto show grestore} BD
/SCCR{ gsave FCT moveto rotate SW -2 div SH -2 div rmoveto show grestore} BD
/SCRR{ gsave FCT moveto rotate SW neg SH -2 div rmoveto show grestore} BD
/STLR{ gsave FCT moveto rotate 0 SH neg rmoveto show grestore } BD
/STCR{ gsave FCT moveto rotate SW -2 div SH neg rmoveto show grestore } BD
/STRR{ gsave FCT moveto rotate SW neg SH neg rmoveto show grestore } BD
/P  { newpath 0.0 360.0 arc closepath fill } BD
/LS { newpath moveto } BD
/L  { lineto } BD
/LE { lineto stroke } BD
/T  { newpath moveto lineto lineto closepath fill } BD
/STshfill {
      /b1 exch def /g1 exch def /r1 exch def /y1 exch def /x1 exch def
      /b2 exch def /g2 exch def /r2 exch def /y2 exch def /x2 exch def
      /b3 exch def /g3 exch def /r3 exch def /y3 exch def /x3 exch def
      gsave << /ShadingType 4 /ColorSpace [/DeviceRGB]
      /DataSource [ 0 x1 y1 r1 g1 b1 0 x2 y2 r2 g2 b2 0 x3 y3 r3 g3 b3 ] >>
      shfill grestore } BD
/Tm { 3 -1 roll 8 -1 roll 13 -1 roll add add 3 div
      3 -1 roll 7 -1 roll 11 -1 roll add add 3 div
      3 -1 roll 6 -1 roll 9 -1 roll add add 3 div C T } BD
/STsplit {
      4 index 15 index add 0.5 mul
      4 index 15 index add 0.5 mul
      4 index 15 index add 0.5 mul
      4 index 15 index add 0.5 mul
      4 index 15 index add 0.5 mul
      5 copy 5 copy 25 15 roll
      9 index 30 index add 0.5 mul
      9 index 30 index add 0.5 mul
      9 index 30 index add 0.5 mul
      9 index 30 index add 0.5 mul
      9 index 30 index add 0.5 mul
      5 copy 5 copy 35 5 roll 25 5 roll 15 5 roll
      4 index 10 index add 0.5 mul
      4 index 10 index add 0.5 mul
      4 index 10 index add 0.5 mul
      4 index 10 index add 0.5 mul
      4 index 10 index add 0.5 mul
      5 copy 5 copy 40 5 roll 25 5 roll 15 5 roll 25 5 roll
      STnoshfill STnoshfill STnoshfill STnoshfill } BD
/STnoshfill {
      2 index 8 index sub abs rThreshold gt
      { STsplit }
      { 1 index 7 index sub abs gThreshold gt
        { STsplit }
        { dup 6 index sub abs bThreshold gt
          { STsplit }
          { 2 index 13 index sub abs rThreshold gt
            { STsplit }
            { 1 index 12 index sub abs gThreshold gt
              { STsplit }
              { dup 11 index sub abs bThreshold gt
                { STsplit }
                { 7 index 13 index sub abs rThreshold gt
                  { STsplit }
                  { 6 index 12 index sub abs gThreshold gt
                    { STsplit }
                    { 5 index 11 index sub abs bThreshold gt
                      { STsplit }
                      { Tm }
                      ifelse }
                    ifelse }
                  ifelse }
                ifelse }
              ifelse }
            ifelse }
          ifelse }
        ifelse }
      ifelse } BD
tryPS3shading
{ /shfill where
  { /ST { STshfill } BD }
  { /ST { STnoshfill } BD }
  ifelse }
{ /ST { STnoshfill } BD }
ifelse
end
%%EndProlog
%%BeginSetup
/DeviceRGB setcolorspace
gl2psdict begin
%%EndSetup
%%Page: 1 1
%%BeginPageSetup
%%EndPageSetup
mark
gsave
1.0 1.0 scale
1 1 1 C
newpath 0 0 moveto 576 0 lineto 576 432 lineto 0 432 lineto
closepath fill
gsave
1.0 1.0 scale
1 1 1 C
newpath 0 0 moveto 576 0 lineto 576 432 lineto 0 432 lineto
closepath fill
newpath 0 0 moveto 576 0 lineto 576 432 lineto 0 432 lineto
closepath clip
1 1 1 C
77.2594 385.841 187.093 312.427 77.2594 312.427 T
77.2594 385.841 187.093 385.841 187.093 312.427 T
0.5 W
0.15 0.15 0.15 C
99.2173 312.427 LS
99.2173 313.532 LE
99.2173 385.841 LS
99.2173 384.736 LE
121.186 312.427 LS
121.186 313.532 LE
121.186 385.841 LS
121.186 384.736 LE
143.155 312.427 LS
143.155 313.532 LE
143.155 385.841 LS
143.155 384.736 LE
165.124 312.427 LS
165.124 313.532 LE
165.124 385.841 LS
165.124 384.736 LE
187.093 312.427 LS
187.093 313.532 LE
187.093 385.841 LS
187.093 384.736 LE
gsave
0.14902 0.14902 0.14902 C
(2e+06) [6 5 6 6 10] 0 84.7173 296.885 10 /Helvetica SRX
grestore

gsave
0.14902 0.14902 0.14902 C
(4e+06) [6 5 6 6 10] 0 106.686 296.885 10 /Helvetica SRX
grestore

gsave
0.14902 0.14902 0.14902 C
(6e+06) [6 5 6 6 10] 0 128.655 296.885 10 /Helvetica SRX
grestore

gsave
0.14902 0.14902 0.14902 C
(8e+06) [6 5 6 6 10] 0 150.624 296.885 10 /Helvetica SRX
grestore

gsave
0.14902 0.14902 0.14902 C
(1e+07) [6 5 6 6 10] 0 172.593 296.885 10 /Helvetica SRX
grestore

77.2594 312.427 LS
78.3561 312.427 LE
187.093 312.427 LS
185.996 312.427 LE
77.2594 322.915 LS
78.3561 322.915 LE
187.093 322.915 LS
185.996 322.915 LE
77.2594 333.403 LS
78.3561 333.403 LE
187.093 333.403 LS
185.996 333.403 LE
77.2594 343.89 LS
78.3561 343.89 LE
187.093 343.89 LS
185.996 343.89 LE
77.2594 354.378 LS
78.3561 354.378 LE
187.093 354.378 LS
185.996 354.378 LE
77.2594 364.865 LS
78.3561 364.865 LE
187.093 364.865 LS
185.996 364.865 LE
77.2594 375.353 LS
78.3561 375.353 LE
187.093 375.353 LS
185.996 375.353 LE
77.2594 385.841 LS
78.3561 385.841 LE
187.093 385.841 LS
185.996 385.841 LE
gsave
0.14902 0.14902 0.14902 C
(0.0003) [6 3 6 6 6 10] 0 39.267 308.427 10 /Helvetica SRX
grestore

gsave
0.14902 0.14902 0.14902 C
(0.0004) [6 3 6 6 6 10] 0 39.267 318.915 10 /Helvetica SRX
grestore

gsave
0.14902 0.14902 0.14902 C
(0.0005) [6 3 6 6 6 10] 0 39.267 329.403 10 /Helvetica SRX
grestore

gsave
0.14902 0.14902 0.14902 C
(0.0006) [6 3 6 6 6 10] 0 39.267 339.89 10 /Helvetica SRX
grestore

gsave
0.14902 0.14902 0.14902 C
(0.0007) [6 3 6 6 6 10] 0 39.267 350.378 10 /Helvetica SRX
grestore

gsave
0.14902 0.14902 0.14902 C
(0.0008) [6 3 6 6 6 10] 0 39.267 360.865 10 /Helvetica SRX
grestore

gsave
0.14902 0.14902 0.14902 C
(0.0009) [6 3 6 6 6 10] 0 39.267 371.353 10 /Helvetica SRX
grestore

gsave
0.14902 0.14902 0.14902 C
(0.001) [6 3 6 6 10] 0 45.267 381.841 10 /Helvetica SRX
grestore

2 LC
[16 0] 0 setdash
77.2594 312.427 LS
187.093 312.427 LE
77.2594 385.841 LS
187.093 385.841 LE
77.2594 312.427 LS
77.2594 385.841 LE
187.093 312.427 LS
187.093 385.841 LE
gsave
0 0 0 C
(SE_eps_r \(Interval\)) [7 7 6 6 7 6 6 4 3 4 3 7 4 6 4 6 6 3 10] 0 82.676 398.841 11 /Helvetica-Bold SRX
grestore

0 LC
1 LJ
[] 0 setdash
0 0 1 C
77.2594 322.114 LS
78.3577 370.777 L
79.4561 378.617 L
80.5544 363.937 L
81.6527 362.205 L
82.7511 379.64 L
83.8494 365.072 L
84.9477 368.532 L
86.0461 367.605 L
87.1444 366.114 L
88.2427 369.743 L
89.3411 370.727 L
90.4394 371.872 L
91.5377 368.144 L
92.636 362.523 L
93.7344 364.931 L
94.8327 365.089 L
95.9311 370.242 L
97.0294 368.64 L
98.1277 367.683 L
99.226 366.193 L
100.324 363.114 L
101.423 363.755 L
102.521 363.941 L
103.619 362.495 L
104.718 362.532 L
105.816 362.765 L
106.914 362.402 L
108.013 362.845 L
109.111 362.753 L
110.209 363.067 L
111.308 363.759 L
112.406 363.886 L
113.504 362.803 L
114.603 363.355 L
115.701 362.504 L
116.799 362.956 L
117.898 362.392 L
118.996 363.83 L
120.094 364.417 L
121.193 365.42 L
122.291 365.166 L
123.389 365.7 L
124.488 365.672 L
125.586 366.107 L
126.684 365.517 L
127.783 366.483 L
128.881 364.993 L
129.979 364.211 L
131.078 364.524 L
132.176 364.045 L
133.274 363.72 L
134.373 364.624 L
135.471 365.491 L
136.569 365.865 L
137.668 365.954 L
138.766 365.848 L
139.864 365.533 L
140.963 365.628 L
142.061 366.171 L
143.159 365.598 L
144.258 365.075 L
145.356 364.745 L
146.454 364.816 L
147.553 364.627 L
148.651 363.874 L
149.749 362.747 L
150.848 362.946 L
151.946 362.382 L
153.044 363.005 L
154.143 363.389 L
155.241 363.219 L
156.339 363.342 L
157.438 364.258 L
158.536 363.704 L
159.634 363.756 L
160.733 364.046 L
161.831 364.068 L
162.929 364.526 L
164.028 364.091 L
165.126 363.606 L
166.224 363.313 L
167.323 363.462 L
168.421 362.869 L
169.519 363.424 L
170.618 363.57 L
171.716 363.391 L
172.814 363.374 L
173.913 363.385 L
175.011 362.537 L
176.109 362.559 L
177.208 362.199 L
178.306 361.925 L
179.404 362.049 L
180.503 362.371 L
181.601 362.804 L
182.699 362.772 L
183.798 363.584 L
184.896 363.075 L
185.994 364.012 L
187.093 364.218 LE
1 0 0 C
77.2594 320.846 LS
78.3577 371.399 L
79.4561 377.954 L
80.5544 366.037 L
81.6527 362.663 L
82.7511 379.977 L
83.8494 364.995 L
84.9477 368.068 L
86.0461 367.618 L
87.1444 366.747 L
88.2427 369.484 L
89.3411 370.812 L
90.4394 372.195 L
91.5377 368.16 L
92.636 362.583 L
93.7344 364.998 L
94.8327 365.016 L
95.9311 370.078 L
97.0294 368.527 L
98.1277 367.604 L
99.226 366.193 L
100.324 363.094 L
101.423 363.796 L
102.521 364.014 L
103.619 362.55 L
104.718 362.64 L
105.816 362.774 L
106.914 362.324 L
108.013 362.893 L
109.111 362.866 L
110.209 363.109 L
111.308 363.783 L
112.406 363.882 L
113.504 362.848 L
114.603 363.337 L
115.701 362.537 L
116.799 363.046 L
117.898 362.473 L
118.996 363.921 L
120.094 364.448 L
121.193 365.439 L
122.291 365.162 L
123.389 365.721 L
124.488 365.684 L
125.586 366.177 L
126.684 365.562 L
127.783 366.481 L
128.881 365.025 L
129.979 364.153 L
131.078 364.573 L
132.176 364.004 L
133.274 363.726 L
134.373 364.658 L
135.471 365.516 L
136.569 365.867 L
137.668 365.912 L
138.766 365.82 L
139.864 365.512 L
140.963 365.622 L
142.061 366.173 L
143.159 365.589 L
144.258 365.097 L
145.356 364.785 L
146.454 364.847 L
147.553 364.642 L
148.651 363.865 L
149.749 362.707 L
150.848 362.903 L
151.946 362.38 L
153.044 362.99 L
154.143 363.345 L
155.241 363.204 L
156.339 363.327 L
157.438 364.259 L
158.536 363.722 L
159.634 363.77 L
160.733 364.016 L
161.831 364.082 L
162.929 364.547 L
164.028 364.088 L
165.126 363.601 L
166.224 363.314 L
167.323 363.509 L
168.421 362.903 L
169.519 363.456 L
170.618 363.569 L
171.716 363.382 L
172.814 363.388 L
173.913 363.385 L
175.011 362.57 L
176.109 362.597 L
177.208 362.212 L
178.306 361.963 L
179.404 362.068 L
180.503 362.397 L
181.601 362.851 L
182.699 362.808 L
183.798 363.605 L
184.896 363.085 L
185.994 364.024 L
187.093 364.232 LE
grestore
gsave
1.0 1.0 scale
newpath 0 0 moveto 576 0 lineto 576 432 lineto 0 432 lineto
closepath clip
1 1 1 C
244.353 385.841 354.186 312.427 244.353 312.427 T
244.353 385.841 354.186 385.841 354.186 312.427 T
0.5 W
0.15 0.15 0.15 C
266.311 312.427 LS
266.311 313.532 LE
266.311 385.841 LS
266.311 384.736 LE
288.28 312.427 LS
288.28 313.532 LE
288.28 385.841 LS
288.28 384.736 LE
310.249 312.427 LS
310.249 313.532 LE
310.249 385.841 LS
310.249 384.736 LE
332.217 312.427 LS
332.217 313.532 LE
332.217 385.841 LS
332.217 384.736 LE
354.186 312.427 LS
354.186 313.532 LE
354.186 385.841 LS
354.186 384.736 LE
gsave
0.14902 0.14902 0.14902 C
(2e+06) [6 5 6 6 10] 0 251.811 296.885 10 /Helvetica SRX
grestore

gsave
0.14902 0.14902 0.14902 C
(4e+06) [6 5 6 6 10] 0 273.78 296.885 10 /Helvetica SRX
grestore

gsave
0.14902 0.14902 0.14902 C
(6e+06) [6 5 6 6 10] 0 295.749 296.885 10 /Helvetica SRX
grestore

gsave
0.14902 0.14902 0.14902 C
(8e+06) [6 5 6 6 10] 0 317.717 296.885 10 /Helvetica SRX
grestore

gsave
0.14902 0.14902 0.14902 C
(1e+07) [6 5 6 6 10] 0 339.686 296.885 10 /Helvetica SRX
grestore

244.353 312.427 LS
245.45 312.427 LE
354.186 312.427 LS
353.09 312.427 LE
244.353 330.781 LS
245.45 330.781 LE
354.186 330.781 LS
353.09 330.781 LE
244.353 349.134 LS
245.45 349.134 LE
354.186 349.134 LS
353.09 349.134 LE
244.353 367.487 LS
245.45 367.487 LE
354.186 367.487 LS
353.09 367.487 LE
244.353 385.841 LS
245.45 385.841 LE
354.186 385.841 LS
353.09 385.841 LE
gsave
0.14902 0.14902 0.14902 C
(0) [10] 0 233.361 308.427 10 /Helvetica SRX
grestore

gsave
0.14902 0.14902 0.14902 C
(5e-08) [6 5 3 6 10] 0 213.361 326.781 10 /Helvetica SRX
grestore

gsave
0.14902 0.14902 0.14902 C
(1e-07) [6 5 3 6 10] 0 213.361 345.134 10 /Helvetica SRX
grestore

gsave
0.14902 0.14902 0.14902 C
(1.5e-07) [6 3 6 5 3 6 10] 0 204.361 363.487 10 /Helvetica SRX
grestore

gsave
0.14902 0.14902 0.14902 C
(2e-07) [6 5 3 6 10] 0 213.361 381.841 10 /Helvetica SRX
grestore

2 LC
[16 0] 0 setdash
244.353 312.427 LS
354.186 312.427 LE
244.353 385.841 LS
354.186 385.841 LE
244.353 312.427 LS
244.353 385.841 LE
354.186 312.427 LS
354.186 385.841 LE
gsave
0 0 0 C
(SE_eps_r \(m2\)) [7 7 6 6 7 6 6 4 3 4 10 6 10] 0 261.27 398.841 11 /Helvetica-Bold SRX
grestore

0 LC
1 LJ
[] 0 setdash
0 0 1 C
244.353 321.464 LS
245.451 356.102 L
246.55 373.012 L
247.648 355.809 L
248.746 352.068 L
249.845 378.263 L
250.943 357.144 L
252.041 357.183 L
253.14 358.282 L
254.238 359.423 L
255.336 363.205 L
256.435 364.622 L
257.533 363.298 L
258.631 356.963 L
259.73 350.553 L
260.828 357.577 L
261.926 359.694 L
263.025 364.236 L
264.123 361.967 L
265.221 358.639 L
266.32 358.624 L
267.418 356.158 L
268.516 356.962 L
269.615 356.868 L
270.713 355.523 L
271.811 354.673 L
272.91 354.781 L
274.008 355.22 L
275.106 357.064 L
276.205 356.209 L
277.303 357.102 L
278.401 357.369 L
279.5 357.673 L
280.598 355.483 L
281.696 356.436 L
282.795 354.683 L
283.893 355.389 L
284.991 354.146 L
286.09 355.39 L
287.188 357.013 L
288.286 357.973 L
289.385 357.514 L
290.483 357.651 L
291.581 357.647 L
292.68 357.896 L
293.778 357.36 L
294.876 357.974 L
295.975 356.807 L
297.073 355.401 L
298.171 355.963 L
299.27 355.868 L
300.368 355.942 L
301.466 356.625 L
302.565 358.461 L
303.663 358.589 L
304.761 358.654 L
305.86 358.68 L
306.958 358.037 L
308.056 358.717 L
309.155 359.423 L
310.253 359.288 L
311.351 358.572 L
312.45 358.122 L
313.548 357.69 L
314.646 357.387 L
315.745 356.469 L
316.843 354.488 L
317.941 354.876 L
319.04 354.313 L
320.138 355.17 L
321.236 355.526 L
322.335 355.574 L
323.433 355.437 L
324.531 356.058 L
325.63 355.348 L
326.728 355.461 L
327.826 355.676 L
328.925 355.905 L
330.023 357.095 L
331.121 356.826 L
332.22 356.356 L
333.318 356.391 L
334.416 356.707 L
335.515 356.288 L
336.613 356.51 L
337.711 356.464 L
338.81 356.247 L
339.908 356.289 L
341.006 356.582 L
342.105 356.033 L
343.203 355.896 L
344.301 355.739 L
345.4 355.465 L
346.498 354.98 L
347.596 355.462 L
348.695 356.492 L
349.793 356.16 L
350.891 358.314 L
351.99 357.75 L
353.088 359.151 L
354.186 359.418 LE
1 0 0 C
244.353 320.356 LS
245.451 356.027 L
246.55 372.668 L
247.648 355.643 L
248.746 351.905 L
249.845 378.084 L
250.943 357.104 L
252.041 357.025 L
253.14 358.281 L
254.238 359.318 L
255.336 363.205 L
256.435 364.622 L
257.533 363.296 L
258.631 356.963 L
259.73 350.549 L
260.828 357.408 L
261.926 359.641 L
263.025 363.972 L
264.123 361.942 L
265.221 358.638 L
266.32 358.624 L
267.418 356.143 L
268.516 356.961 L
269.615 356.866 L
270.713 355.469 L
271.811 354.626 L
272.91 354.739 L
274.008 355.192 L
275.106 357.004 L
276.205 356.195 L
277.303 357.094 L
278.401 357.352 L
279.5 357.671 L
280.598 355.465 L
281.696 356.429 L
282.795 354.678 L
283.893 355.383 L
284.991 354.127 L
286.09 355.374 L
287.188 357.011 L
288.286 357.971 L
289.385 357.511 L
290.483 357.649 L
291.581 357.642 L
292.68 357.88 L
293.778 357.345 L
294.876 357.956 L
295.975 356.776 L
297.073 355.349 L
298.171 355.93 L
299.27 355.84 L
300.368 355.921 L
301.466 356.611 L
302.565 358.451 L
303.663 358.583 L
304.761 358.651 L
305.86 358.68 L
306.958 358.037 L
308.056 358.715 L
309.155 359.423 L
310.253 359.288 L
311.351 358.57 L
312.45 358.12 L
313.548 357.686 L
314.646 357.385 L
315.745 356.463 L
316.843 354.485 L
317.941 354.871 L
319.04 354.311 L
320.138 355.168 L
321.236 355.517 L
322.335 355.564 L
323.433 355.434 L
324.531 356.057 L
325.63 355.347 L
326.728 355.459 L
327.826 355.674 L
328.925 355.903 L
330.023 357.095 L
331.121 356.827 L
332.22 356.355 L
333.318 356.39 L
334.416 356.705 L
335.515 356.283 L
336.613 356.508 L
337.711 356.462 L
338.81 356.24 L
339.908 356.275 L
341.006 356.574 L
342.105 356.028 L
343.203 355.895 L
344.301 355.737 L
345.4 355.465 L
346.498 354.98 L
347.596 355.461 L
348.695 356.487 L
349.793 356.149 L
350.891 358.312 L
351.99 357.745 L
353.088 359.135 L
354.186 359.395 LE
grestore
gsave
1.0 1.0 scale
newpath 0 0 moveto 576 0 lineto 576 432 lineto 0 432 lineto
closepath clip
1 1 1 C
411.447 385.841 521.28 312.427 411.447 312.427 T
411.447 385.841 521.28 385.841 521.28 312.427 T
0.5 W
0.15 0.15 0.15 C
433.405 312.427 LS
433.405 313.532 LE
433.405 385.841 LS
433.405 384.736 LE
455.374 312.427 LS
455.374 313.532 LE
455.374 385.841 LS
455.374 384.736 LE
477.342 312.427 LS
477.342 313.532 LE
477.342 385.841 LS
477.342 384.736 LE
499.311 312.427 LS
499.311 313.532 LE
499.311 385.841 LS
499.311 384.736 LE
521.28 312.427 LS
521.28 313.532 LE
521.28 385.841 LS
521.28 384.736 LE
gsave
0.14902 0.14902 0.14902 C
(2e+06) [6 5 6 6 10] 0 418.905 296.885 10 /Helvetica SRX
grestore

gsave
0.14902 0.14902 0.14902 C
(4e+06) [6 5 6 6 10] 0 440.874 296.885 10 /Helvetica SRX
grestore

gsave
0.14902 0.14902 0.14902 C
(6e+06) [6 5 6 6 10] 0 462.842 296.885 10 /Helvetica SRX
grestore

gsave
0.14902 0.14902 0.14902 C
(8e+06) [6 5 6 6 10] 0 484.811 296.885 10 /Helvetica SRX
grestore

gsave
0.14902 0.14902 0.14902 C
(1e+07) [6 5 6 6 10] 0 506.78 296.885 10 /Helvetica SRX
grestore

411.447 312.427 LS
412.544 312.427 LE
521.28 312.427 LS
520.183 312.427 LE
411.447 330.781 LS
412.544 330.781 LE
521.28 330.781 LS
520.183 330.781 LE
411.447 349.134 LS
412.544 349.134 LE
521.28 349.134 LS
520.183 349.134 LE
411.447 367.487 LS
412.544 367.487 LE
521.28 367.487 LS
520.183 367.487 LE
411.447 385.841 LS
412.544 385.841 LE
521.28 385.841 LS
520.183 385.841 LE
gsave
0.14902 0.14902 0.14902 C
(0) [10] 0 400.454 308.427 10 /Helvetica SRX
grestore

gsave
0.14902 0.14902 0.14902 C
(5e-11) [6 5 3 6 10] 0 380.454 326.781 10 /Helvetica SRX
grestore

gsave
0.14902 0.14902 0.14902 C
(1e-10) [6 5 3 6 10] 0 380.454 345.134 10 /Helvetica SRX
grestore

gsave
0.14902 0.14902 0.14902 C
(1.5e-10) [6 3 6 5 3 6 10] 0 371.454 363.487 10 /Helvetica SRX
grestore

gsave
0.14902 0.14902 0.14902 C
(2e-10) [6 5 3 6 10] 0 380.454 381.841 10 /Helvetica SRX
grestore

2 LC
[16 0] 0 setdash
411.447 312.427 LS
521.28 312.427 LE
411.447 385.841 LS
521.28 385.841 LE
411.447 312.427 LS
411.447 385.841 LE
521.28 312.427 LS
521.28 385.841 LE
gsave
0 0 0 C
(SE_eps_r \(m3\)) [7 7 6 6 7 6 6 4 3 4 10 6 10] 0 428.363 398.841 11 /Helvetica-Bold SRX
grestore

0 LC
1 LJ
[] 0 setdash
0 0 1 C
411.447 315.07 LS
412.545 339.371 L
413.644 362.505 L
414.742 342.642 L
415.84 338.152 L
416.939 375.204 L
418.037 345.861 L
419.135 342.392 L
420.234 346.484 L
421.332 350.041 L
422.43 354.848 L
423.529 356.898 L
424.627 351.994 L
425.725 342.891 L
426.823 335.714 L
427.922 346.25 L
429.02 350.291 L
430.118 354.791 L
431.217 352.099 L
432.315 346.865 L
433.413 347.816 L
434.512 345.72 L
435.61 346.63 L
436.708 346.377 L
437.807 345.219 L
438.905 343.581 L
440.003 343.635 L
441.102 344.813 L
442.2 348.002 L
443.298 346.384 L
444.397 347.611 L
445.495 347.344 L
446.593 347.783 L
447.692 344.424 L
448.79 345.727 L
449.888 342.999 L
450.987 344.448 L
452.085 342.726 L
453.183 343.689 L
454.282 346.334 L
455.38 347.409 L
456.478 346.85 L
457.577 346.621 L
458.675 346.949 L
459.773 347.142 L
460.872 346.269 L
461.97 346.61 L
463.068 345.633 L
464.167 343.619 L
465.265 344.319 L
466.363 344.653 L
467.462 344.931 L
468.56 345.442 L
469.658 348.241 L
470.757 347.893 L
471.855 347.775 L
472.953 347.871 L
474.052 347.065 L
475.15 348.307 L
476.248 349.024 L
477.347 349.452 L
478.445 348.493 L
479.543 347.906 L
480.642 346.9 L
481.74 346.547 L
482.838 345.475 L
483.937 342.733 L
485.035 343.179 L
486.133 342.638 L
487.232 343.67 L
488.33 344.151 L
489.428 344.369 L
490.527 343.908 L
491.625 344.296 L
492.723 343.5 L
493.822 343.701 L
494.92 343.926 L
496.018 344.322 L
497.117 346.616 L
498.215 346.446 L
499.313 345.948 L
500.412 346.198 L
501.51 346.673 L
502.608 346.383 L
503.707 346.38 L
504.805 346.204 L
505.903 345.943 L
507.002 345.972 L
508.1 346.576 L
509.198 346.16 L
510.297 345.942 L
511.395 345.932 L
512.493 345.617 L
513.592 344.497 L
514.69 345.114 L
515.788 346.821 L
516.887 346.226 L
517.985 351.232 L
519.083 350.611 L
520.182 352.657 L
521.28 353.006 LE
1 0 0 C
411.447 314.524 LS
412.545 339.165 L
413.644 362.079 L
414.742 342.276 L
415.84 337.92 L
416.939 374.702 L
418.037 345.797 L
419.135 342.227 L
420.234 346.5 L
421.332 349.848 L
422.43 354.847 L
423.529 356.901 L
424.627 351.965 L
425.725 342.887 L
426.823 335.705 L
427.922 345.948 L
429.02 350.238 L
430.118 354.468 L
431.217 352.107 L
432.315 346.871 L
433.413 347.822 L
434.512 345.669 L
435.61 346.631 L
436.708 346.365 L
437.807 345.083 L
438.905 343.43 L
440.003 343.543 L
441.102 344.732 L
442.2 347.841 L
443.298 346.331 L
444.397 347.576 L
445.495 347.304 L
446.593 347.773 L
447.692 344.385 L
448.79 345.716 L
449.888 342.986 L
450.987 344.425 L
452.085 342.67 L
453.183 343.65 L
454.282 346.329 L
455.38 347.403 L
456.478 346.841 L
457.577 346.613 L
458.675 346.931 L
459.773 347.094 L
460.872 346.24 L
461.97 346.585 L
463.068 345.579 L
464.167 343.51 L
465.265 344.244 L
466.363 344.597 L
467.462 344.888 L
468.56 345.408 L
469.658 348.213 L
470.757 347.875 L
471.855 347.769 L
472.953 347.871 L
474.052 347.065 L
475.15 348.309 L
476.248 349.026 L
477.347 349.452 L
478.445 348.492 L
479.543 347.906 L
480.642 346.898 L
481.74 346.548 L
482.838 345.477 L
483.937 342.74 L
485.035 343.189 L
486.133 342.644 L
487.232 343.676 L
488.33 344.153 L
489.428 344.367 L
490.527 343.912 L
491.625 344.299 L
492.723 343.492 L
493.822 343.689 L
494.92 343.916 L
496.018 344.311 L
497.117 346.616 L
498.215 346.446 L
499.313 345.949 L
500.412 346.198 L
501.51 346.667 L
502.608 346.372 L
503.707 346.378 L
504.805 346.203 L
505.903 345.935 L
507.002 345.949 L
508.1 346.568 L
509.198 346.154 L
510.297 345.942 L
511.395 345.932 L
512.493 345.617 L
513.592 344.498 L
514.69 345.116 L
515.788 346.818 L
516.887 346.216 L
517.985 351.24 L
519.083 350.621 L
520.182 352.654 L
521.28 352.992 LE
grestore
gsave
1.0 1.0 scale
newpath 0 0 moveto 576 0 lineto 576 432 lineto 0 432 lineto
closepath clip
1 1 1 C
77.2594 253.387 187.093 179.974 77.2594 179.974 T
77.2594 253.387 187.093 253.387 187.093 179.974 T
0.5 W
0.15 0.15 0.15 C
99.2173 179.974 LS
99.2173 181.078 LE
99.2173 253.387 LS
99.2173 252.282 LE
121.186 179.974 LS
121.186 181.078 LE
121.186 253.387 LS
121.186 252.282 LE
143.155 179.974 LS
143.155 181.078 LE
143.155 253.387 LS
143.155 252.282 LE
165.124 179.974 LS
165.124 181.078 LE
165.124 253.387 LS
165.124 252.282 LE
187.093 179.974 LS
187.093 181.078 LE
187.093 253.387 LS
187.093 252.282 LE
gsave
0.14902 0.14902 0.14902 C
(2e+06) [6 5 6 6 10] 0 84.7173 164.431 10 /Helvetica SRX
grestore

gsave
0.14902 0.14902 0.14902 C
(4e+06) [6 5 6 6 10] 0 106.686 164.431 10 /Helvetica SRX
grestore

gsave
0.14902 0.14902 0.14902 C
(6e+06) [6 5 6 6 10] 0 128.655 164.431 10 /Helvetica SRX
grestore

gsave
0.14902 0.14902 0.14902 C
(8e+06) [6 5 6 6 10] 0 150.624 164.431 10 /Helvetica SRX
grestore

gsave
0.14902 0.14902 0.14902 C
(1e+07) [6 5 6 6 10] 0 172.593 164.431 10 /Helvetica SRX
grestore

77.2594 179.974 LS
78.3561 179.974 LE
187.093 179.974 LS
185.996 179.974 LE
77.2594 198.327 LS
78.3561 198.327 LE
187.093 198.327 LS
185.996 198.327 LE
77.2594 216.68 LS
78.3561 216.68 LE
187.093 216.68 LS
185.996 216.68 LE
77.2594 235.034 LS
78.3561 235.034 LE
187.093 235.034 LS
185.996 235.034 LE
77.2594 253.387 LS
78.3561 253.387 LE
187.093 253.387 LS
185.996 253.387 LE
gsave
0.14902 0.14902 0.14902 C
(0.01) [6 3 6 10] 0 51.267 175.974 10 /Helvetica SRX
grestore

gsave
0.14902 0.14902 0.14902 C
(0.015) [6 3 6 6 10] 0 45.267 194.327 10 /Helvetica SRX
grestore

gsave
0.14902 0.14902 0.14902 C
(0.02) [6 3 6 10] 0 51.267 212.68 10 /Helvetica SRX
grestore

gsave
0.14902 0.14902 0.14902 C
(0.025) [6 3 6 6 10] 0 45.267 231.034 10 /Helvetica SRX
grestore

gsave
0.14902 0.14902 0.14902 C
(0.03) [6 3 6 10] 0 51.267 249.387 10 /Helvetica SRX
grestore

2 LC
[16 0] 0 setdash
77.2594 179.974 LS
187.093 179.974 LE
77.2594 253.387 LS
187.093 253.387 LE
77.2594 179.974 LS
77.2594 253.387 LE
187.093 179.974 LS
187.093 253.387 LE
gsave
0 0 0 C
(SE_eps_AT_news0 \(Interval\)) [7 7 6 6 7 6 6 8 7 6 7 6 9 6 6 3 4 3 7 4 6 4 6 6 3 10] 0 57.176 266.387 11 /Helvetica-Bold SRX
grestore

0 LC
1 LJ
[] 0 setdash
0 0 1 C
77.2594 201.41 LS
78.3577 210.47 L
79.4561 240.691 L
80.5544 225.311 L
81.6527 191.094 L
82.7511 187.35 L
83.8494 186.261 L
84.9477 190.651 L
86.0461 187.122 L
87.1444 193.153 L
88.2427 198.352 L
89.3411 198.572 L
90.4394 200.949 L
91.5377 207.681 L
92.636 204.623 L
93.7344 203.383 L
94.8327 200.256 L
95.9311 196.253 L
97.0294 194.848 L
98.1277 192.034 L
99.226 188.628 L
100.324 186.931 L
101.423 187.447 L
102.521 187.649 L
103.619 188.415 L
104.718 187.952 L
105.816 187.627 L
106.914 187.188 L
108.013 186.172 L
109.111 187.149 L
110.209 188.165 L
111.308 192.265 L
112.406 194.042 L
113.504 196.356 L
114.603 197.187 L
115.701 197.589 L
116.799 198.648 L
117.898 199.374 L
118.996 198.267 L
120.094 194.97 L
121.193 193.498 L
122.291 191.299 L
123.389 188.627 L
124.488 187.277 L
125.586 186.658 L
126.684 186.253 L
127.783 185.583 L
128.881 185.54 L
129.979 185.498 L
131.078 185.107 L
132.176 184.877 L
133.274 185.284 L
134.373 186.023 L
135.471 186.695 L
136.569 187.807 L
137.668 187.696 L
138.766 187.506 L
139.864 187.098 L
140.963 186.92 L
142.061 186.919 L
143.159 186.918 L
144.258 187.224 L
145.356 187.312 L
146.454 187.172 L
147.553 186.85 L
148.651 188.187 L
149.749 188.635 L
150.848 187.576 L
151.946 187.463 L
153.044 187.386 L
154.143 187.207 L
155.241 187.183 L
156.339 187.259 L
157.438 187.568 L
158.536 187.914 L
159.634 187.966 L
160.733 187.632 L
161.831 187.359 L
162.929 187.722 L
164.028 188.243 L
165.126 188.738 L
166.224 188.461 L
167.323 190.643 L
168.421 191.652 L
169.519 193.005 L
170.618 192.979 L
171.716 192.752 L
172.814 192.862 L
173.913 192.659 L
175.011 193.116 L
176.109 192.641 L
177.208 192.366 L
178.306 192.408 L
179.404 193.058 L
180.503 193.191 L
181.601 193.212 L
182.699 193.209 L
183.798 193.185 L
184.896 192.874 L
185.994 192.748 L
187.093 192.34 LE
1 0 0 C
77.2594 197.667 LS
78.3577 204.65 L
79.4561 201.611 L
80.5544 191.58 L
81.6527 187.428 L
82.7511 187.21 L
83.8494 186.095 L
84.9477 189.123 L
86.0461 186.449 L
87.1444 190.03 L
88.2427 197.824 L
89.3411 198.247 L
90.4394 196.889 L
91.5377 190.348 L
92.636 190.52 L
93.7344 190.538 L
94.8327 189.895 L
95.9311 187.889 L
97.0294 189.802 L
98.1277 189.325 L
99.226 187.212 L
100.324 186.505 L
101.423 186.847 L
102.521 187.492 L
103.619 188.413 L
104.718 187.941 L
105.816 187.429 L
106.914 186.563 L
108.013 185.684 L
109.111 186.848 L
110.209 187.79 L
111.308 191.145 L
112.406 192.439 L
113.504 193.844 L
114.603 193.171 L
115.701 192.659 L
116.799 191.442 L
117.898 190.782 L
118.996 190.685 L
120.094 189.249 L
121.193 188.93 L
122.291 187.978 L
123.389 187.049 L
124.488 186.256 L
125.586 186.355 L
126.684 186.136 L
127.783 185.581 L
128.881 185.538 L
129.979 185.513 L
131.078 185.133 L
132.176 184.902 L
133.274 185.27 L
134.373 185.937 L
135.471 186.527 L
136.569 187.49 L
137.668 187.357 L
138.766 187.261 L
139.864 186.972 L
140.963 186.917 L
142.061 186.918 L
143.159 186.937 L
144.258 187.113 L
145.356 187.163 L
146.454 187.029 L
147.553 186.809 L
148.651 188.109 L
149.749 188.549 L
150.848 187.462 L
151.946 187.344 L
153.044 187.118 L
154.143 186.926 L
155.241 186.888 L
156.339 187.051 L
157.438 187.41 L
158.536 187.865 L
159.634 187.976 L
160.733 187.661 L
161.831 187.364 L
162.929 187.742 L
164.028 188.233 L
165.126 188.707 L
166.224 188.385 L
167.323 190.795 L
168.421 191.852 L
169.519 193.269 L
170.618 193.253 L
171.716 193.034 L
172.814 193.101 L
173.913 192.875 L
175.011 193.323 L
176.109 192.756 L
177.208 192.397 L
178.306 192.169 L
179.404 192.4 L
180.503 192.38 L
181.601 192.45 L
182.699 192.498 L
183.798 192.384 L
184.896 192.024 L
185.994 191.772 L
187.093 191.075 LE
grestore
gsave
1.0 1.0 scale
newpath 0 0 moveto 576 0 lineto 576 432 lineto 0 432 lineto
closepath clip
1 1 1 C
244.353 253.387 354.186 179.974 244.353 179.974 T
244.353 253.387 354.186 253.387 354.186 179.974 T
0.5 W
0.15 0.15 0.15 C
266.311 179.974 LS
266.311 181.078 LE
266.311 253.387 LS
266.311 252.282 LE
288.28 179.974 LS
288.28 181.078 LE
288.28 253.387 LS
288.28 252.282 LE
310.249 179.974 LS
310.249 181.078 LE
310.249 253.387 LS
310.249 252.282 LE
332.217 179.974 LS
332.217 181.078 LE
332.217 253.387 LS
332.217 252.282 LE
354.186 179.974 LS
354.186 181.078 LE
354.186 253.387 LS
354.186 252.282 LE
gsave
0.14902 0.14902 0.14902 C
(2e+06) [6 5 6 6 10] 0 251.811 164.431 10 /Helvetica SRX
grestore

gsave
0.14902 0.14902 0.14902 C
(4e+06) [6 5 6 6 10] 0 273.78 164.431 10 /Helvetica SRX
grestore

gsave
0.14902 0.14902 0.14902 C
(6e+06) [6 5 6 6 10] 0 295.749 164.431 10 /Helvetica SRX
grestore

gsave
0.14902 0.14902 0.14902 C
(8e+06) [6 5 6 6 10] 0 317.717 164.431 10 /Helvetica SRX
grestore

gsave
0.14902 0.14902 0.14902 C
(1e+07) [6 5 6 6 10] 0 339.686 164.431 10 /Helvetica SRX
grestore

244.353 179.974 LS
245.45 179.974 LE
354.186 179.974 LS
353.09 179.974 LE
244.353 192.209 LS
245.45 192.209 LE
354.186 192.209 LS
353.09 192.209 LE
244.353 204.445 LS
245.45 204.445 LE
354.186 204.445 LS
353.09 204.445 LE
244.353 216.68 LS
245.45 216.68 LE
354.186 216.68 LS
353.09 216.68 LE
244.353 228.916 LS
245.45 228.916 LE
354.186 228.916 LS
353.09 228.916 LE
244.353 241.151 LS
245.45 241.151 LE
354.186 241.151 LS
353.09 241.151 LE
244.353 253.387 LS
245.45 253.387 LE
354.186 253.387 LS
353.09 253.387 LE
gsave
0.14902 0.14902 0.14902 C
(0) [10] 0 233.361 175.974 10 /Helvetica SRX
grestore

gsave
0.14902 0.14902 0.14902 C
(2e-05) [6 5 3 6 10] 0 213.361 188.209 10 /Helvetica SRX
grestore

gsave
0.14902 0.14902 0.14902 C
(4e-05) [6 5 3 6 10] 0 213.361 200.445 10 /Helvetica SRX
grestore

gsave
0.14902 0.14902 0.14902 C
(6e-05) [6 5 3 6 10] 0 213.361 212.68 10 /Helvetica SRX
grestore

gsave
0.14902 0.14902 0.14902 C
(8e-05) [6 5 3 6 10] 0 213.361 224.916 10 /Helvetica SRX
grestore

gsave
0.14902 0.14902 0.14902 C
(0.0001) [6 3 6 6 6 10] 0 206.361 237.151 10 /Helvetica SRX
grestore

gsave
0.14902 0.14902 0.14902 C
(0.00012) [6 3 6 6 6 6 10] 0 200.361 249.387 10 /Helvetica SRX
grestore

2 LC
[16 0] 0 setdash
244.353 179.974 LS
354.186 179.974 LE
244.353 253.387 LS
354.186 253.387 LE
244.353 179.974 LS
244.353 253.387 LE
354.186 179.974 LS
354.186 253.387 LE
gsave
0 0 0 C
(SE_eps_AT_news0 \(m2\)) [7 7 6 6 7 6 6 8 7 6 7 6 9 6 6 3 4 10 6 10] 0 235.77 266.387 11 /Helvetica-Bold SRX
grestore

0 LC
1 LJ
[] 0 setdash
0 0 1 C
244.353 202.536 LS
245.451 211.765 L
246.55 243.482 L
247.648 225.687 L
248.746 196.213 L
249.845 193.543 L
250.943 193.063 L
252.041 195.661 L
253.14 193.419 L
254.238 197.522 L
255.336 200.666 L
256.435 200.602 L
257.533 202.417 L
258.631 207.871 L
259.73 205.666 L
260.828 204.865 L
261.926 202.603 L
263.025 199.304 L
264.123 198.45 L
265.221 196.67 L
266.32 194.451 L
267.418 193.34 L
268.516 193.646 L
269.615 193.806 L
270.713 194.27 L
271.811 193.971 L
272.91 193.861 L
274.008 193.633 L
275.106 192.97 L
276.205 193.476 L
277.303 194.059 L
278.401 197.445 L
279.5 198.444 L
280.598 200.032 L
281.696 200.413 L
282.795 200.636 L
283.893 201.372 L
284.991 201.815 L
286.09 201.252 L
287.188 198.828 L
288.286 197.93 L
289.385 196.419 L
290.483 194.44 L
291.581 193.563 L
292.68 193.213 L
293.778 192.962 L
294.876 192.582 L
295.975 192.558 L
297.073 192.529 L
298.171 192.307 L
299.27 192.181 L
300.368 192.447 L
301.466 192.951 L
302.565 193.395 L
303.663 194.031 L
304.761 193.981 L
305.86 193.918 L
306.958 193.717 L
308.056 193.609 L
309.155 193.594 L
310.253 193.607 L
311.351 193.761 L
312.45 193.824 L
313.548 193.753 L
314.646 193.508 L
315.745 194.537 L
316.843 194.753 L
317.941 194.112 L
319.04 194.024 L
320.138 193.994 L
321.236 193.872 L
322.335 193.858 L
323.433 193.914 L
324.531 194.06 L
325.63 194.227 L
326.728 194.24 L
327.826 194.072 L
328.925 193.92 L
330.023 194.091 L
331.121 194.342 L
332.22 194.626 L
333.318 194.393 L
334.416 196.705 L
335.515 197.185 L
336.613 198.005 L
337.711 197.967 L
338.81 197.783 L
339.908 197.783 L
341.006 197.633 L
342.105 197.895 L
343.203 197.581 L
344.301 197.401 L
345.4 197.418 L
346.498 197.79 L
347.596 197.891 L
348.695 197.911 L
349.793 197.912 L
350.891 197.878 L
351.99 197.735 L
353.088 197.683 L
354.186 197.49 LE
1 0 0 C
244.353 200.313 LS
245.451 206.74 L
246.55 203.882 L
247.648 196.798 L
248.746 193.972 L
249.845 193.401 L
250.943 192.941 L
252.041 194.664 L
253.14 193.02 L
254.238 195.434 L
255.336 200.468 L
256.435 200.428 L
257.533 199.738 L
258.631 195.785 L
259.73 196.106 L
260.828 196.184 L
261.926 195.539 L
263.025 193.976 L
264.123 195.098 L
265.221 194.879 L
266.32 193.504 L
267.418 193.082 L
268.516 193.26 L
269.615 193.709 L
270.713 194.27 L
271.811 193.968 L
272.91 193.746 L
274.008 193.263 L
275.106 192.647 L
276.205 193.297 L
277.303 193.86 L
278.401 196.461 L
279.5 197.1 L
280.598 198.037 L
281.696 197.528 L
282.795 197.169 L
283.893 196.435 L
284.991 196.058 L
286.09 196.099 L
287.188 195.032 L
288.286 194.894 L
289.385 194.296 L
290.483 193.5 L
291.581 193.015 L
292.68 193.04 L
293.778 192.901 L
294.876 192.578 L
295.975 192.558 L
297.073 192.529 L
298.171 192.303 L
299.27 192.179 L
300.368 192.445 L
301.466 192.892 L
302.565 193.262 L
303.663 193.82 L
304.761 193.738 L
305.86 193.728 L
306.958 193.571 L
308.056 193.523 L
309.155 193.532 L
310.253 193.549 L
311.351 193.626 L
312.45 193.663 L
313.548 193.605 L
314.646 193.456 L
315.745 194.388 L
316.843 194.592 L
317.941 193.98 L
319.04 193.9 L
320.138 193.74 L
321.236 193.605 L
322.335 193.609 L
323.433 193.708 L
324.531 193.915 L
325.63 194.147 L
326.728 194.199 L
327.826 194.058 L
328.925 193.908 L
330.023 194.09 L
331.121 194.34 L
332.22 194.615 L
333.318 194.367 L
334.416 196.705 L
335.515 197.177 L
336.613 197.918 L
337.711 197.906 L
338.81 197.756 L
339.908 197.754 L
341.006 197.599 L
342.105 197.8 L
343.203 197.421 L
344.301 197.167 L
345.4 196.991 L
346.498 197.096 L
347.596 197.107 L
348.695 197.17 L
349.793 197.219 L
350.891 197.149 L
351.99 196.964 L
353.088 196.844 L
354.186 196.41 LE
grestore
gsave
1.0 1.0 scale
newpath 0 0 moveto 576 0 lineto 576 432 lineto 0 432 lineto
closepath clip
1 1 1 C
411.447 253.387 521.28 179.974 411.447 179.974 T
411.447 253.387 521.28 253.387 521.28 179.974 T
0.5 W
0.15 0.15 0.15 C
433.405 179.974 LS
433.405 181.078 LE
433.405 253.387 LS
433.405 252.282 LE
455.374 179.974 LS
455.374 181.078 LE
455.374 253.387 LS
455.374 252.282 LE
477.342 179.974 LS
477.342 181.078 LE
477.342 253.387 LS
477.342 252.282 LE
499.311 179.974 LS
499.311 181.078 LE
499.311 253.387 LS
499.311 252.282 LE
521.28 179.974 LS
521.28 181.078 LE
521.28 253.387 LS
521.28 252.282 LE
gsave
0.14902 0.14902 0.14902 C
(2e+06) [6 5 6 6 10] 0 418.905 164.431 10 /Helvetica SRX
grestore

gsave
0.14902 0.14902 0.14902 C
(4e+06) [6 5 6 6 10] 0 440.874 164.431 10 /Helvetica SRX
grestore

gsave
0.14902 0.14902 0.14902 C
(6e+06) [6 5 6 6 10] 0 462.842 164.431 10 /Helvetica SRX
grestore

gsave
0.14902 0.14902 0.14902 C
(8e+06) [6 5 6 6 10] 0 484.811 164.431 10 /Helvetica SRX
grestore

gsave
0.14902 0.14902 0.14902 C
(1e+07) [6 5 6 6 10] 0 506.78 164.431 10 /Helvetica SRX
grestore

411.447 179.974 LS
412.544 179.974 LE
521.28 179.974 LS
520.183 179.974 LE
411.447 198.327 LS
412.544 198.327 LE
521.28 198.327 LS
520.183 198.327 LE
411.447 216.68 LS
412.544 216.68 LE
521.28 216.68 LS
520.183 216.68 LE
411.447 235.034 LS
412.544 235.034 LE
521.28 235.034 LS
520.183 235.034 LE
411.447 253.387 LS
412.544 253.387 LE
521.28 253.387 LS
520.183 253.387 LE
gsave
0.14902 0.14902 0.14902 C
(0) [10] 0 400.454 175.974 10 /Helvetica SRX
grestore

gsave
0.14902 0.14902 0.14902 C
(5e-07) [6 5 3 6 10] 0 380.454 194.327 10 /Helvetica SRX
grestore

gsave
0.14902 0.14902 0.14902 C
(1e-06) [6 5 3 6 10] 0 380.454 212.68 10 /Helvetica SRX
grestore

gsave
0.14902 0.14902 0.14902 C
(1.5e-06) [6 3 6 5 3 6 10] 0 371.454 231.034 10 /Helvetica SRX
grestore

gsave
0.14902 0.14902 0.14902 C
(2e-06) [6 5 3 6 10] 0 380.454 249.387 10 /Helvetica SRX
grestore

2 LC
[16 0] 0 setdash
411.447 179.974 LS
521.28 179.974 LE
411.447 253.387 LS
521.28 253.387 LE
411.447 179.974 LS
411.447 253.387 LE
521.28 179.974 LS
521.28 253.387 LE
gsave
0 0 0 C
(SE_eps_AT_news0 \(m3\)) [7 7 6 6 7 6 6 8 7 6 7 6 9 6 6 3 4 10 6 10] 0 402.863 266.387 11 /Helvetica-Bold SRX
grestore

0 LC
1 LJ
[] 0 setdash
0 0 1 C
411.447 191.894 LS
412.545 202.445 L
413.644 234.678 L
414.742 213.217 L
415.84 188.411 L
416.939 186.194 L
418.037 185.971 L
419.135 187.695 L
420.234 186.076 L
421.332 189.336 L
422.43 191.363 L
423.529 191.292 L
424.627 192.688 L
425.725 197.044 L
426.823 195.844 L
427.922 195.388 L
429.02 193.418 L
430.118 190.396 L
431.217 189.782 L
432.315 188.583 L
433.413 186.928 L
434.512 186.12 L
435.61 186.317 L
436.708 186.481 L
437.807 186.806 L
438.905 186.603 L
440.003 186.551 L
441.102 186.431 L
442.2 185.917 L
443.298 186.23 L
444.397 186.62 L
445.495 189.677 L
446.593 190.283 L
447.692 191.624 L
448.79 191.752 L
449.888 191.899 L
450.987 192.464 L
452.085 192.768 L
453.183 192.52 L
454.282 190.435 L
455.38 189.853 L
456.478 188.588 L
457.577 186.918 L
458.675 186.278 L
459.773 186.043 L
460.872 185.87 L
461.97 185.617 L
463.068 185.603 L
464.167 185.599 L
465.265 185.452 L
466.363 185.38 L
467.462 185.574 L
468.56 185.969 L
469.658 186.307 L
470.757 186.75 L
471.855 186.729 L
472.953 186.727 L
474.052 186.592 L
475.15 186.513 L
476.248 186.508 L
477.347 186.519 L
478.445 186.591 L
479.543 186.631 L
480.642 186.592 L
481.74 186.391 L
482.838 187.24 L
483.937 187.341 L
485.035 186.903 L
486.133 186.822 L
487.232 186.806 L
488.33 186.712 L
489.428 186.712 L
490.527 186.753 L
491.625 186.837 L
492.723 186.921 L
493.822 186.905 L
494.92 186.813 L
496.018 186.719 L
497.117 186.809 L
498.215 186.935 L
499.313 187.117 L
500.412 186.913 L
501.51 189.314 L
502.608 189.576 L
503.707 190.159 L
504.805 190.11 L
505.903 189.951 L
507.002 189.897 L
508.1 189.76 L
509.198 189.912 L
510.297 189.665 L
511.395 189.519 L
512.493 189.533 L
513.592 189.783 L
514.69 189.873 L
515.788 189.889 L
516.887 189.893 L
517.985 189.874 L
519.083 189.81 L
520.182 189.8 L
521.28 189.709 LE
1 0 0 C
411.447 189.659 LS
412.545 197.596 L
413.644 194.729 L
414.742 188.923 L
415.84 186.718 L
416.939 186.09 L
418.037 185.883 L
419.135 186.967 L
420.234 185.82 L
421.332 187.662 L
422.43 191.219 L
423.529 191.118 L
424.627 190.776 L
425.725 188.011 L
426.823 188.356 L
427.922 188.449 L
429.02 187.913 L
430.118 186.592 L
431.217 187.34 L
432.315 187.221 L
433.413 186.254 L
434.512 185.955 L
435.61 186.064 L
436.708 186.421 L
437.807 186.806 L
438.905 186.599 L
440.003 186.478 L
441.102 186.2 L
442.2 185.711 L
443.298 186.117 L
444.397 186.486 L
445.495 188.757 L
446.593 189.058 L
447.692 189.786 L
448.79 189.311 L
449.888 189.027 L
450.987 188.523 L
452.085 188.248 L
453.183 188.36 L
454.282 187.492 L
455.38 187.441 L
456.478 186.977 L
457.577 186.276 L
458.675 185.926 L
459.773 185.936 L
460.872 185.832 L
461.97 185.615 L
463.068 185.603 L
464.167 185.599 L
465.265 185.447 L
466.363 185.378 L
467.462 185.573 L
468.56 185.92 L
469.658 186.194 L
470.757 186.57 L
471.855 186.525 L
472.953 186.561 L
474.052 186.459 L
475.15 186.424 L
476.248 186.438 L
477.347 186.453 L
478.445 186.465 L
479.543 186.486 L
480.642 186.457 L
481.74 186.341 L
482.838 187.082 L
483.937 187.177 L
485.035 186.77 L
486.133 186.699 L
487.232 186.58 L
488.33 186.475 L
489.428 186.487 L
490.527 186.559 L
491.625 186.694 L
492.723 186.838 L
493.822 186.857 L
494.92 186.791 L
496.018 186.7 L
497.117 186.804 L
498.215 186.939 L
499.313 187.118 L
500.412 186.901 L
501.51 189.314 L
502.608 189.538 L
503.707 189.991 L
504.805 189.976 L
505.903 189.872 L
507.002 189.817 L
508.1 189.674 L
509.198 189.742 L
510.297 189.429 L
511.395 189.213 L
512.493 189.054 L
513.592 189.086 L
514.69 189.107 L
515.788 189.163 L
516.887 189.207 L
517.985 189.163 L
519.083 189.058 L
520.182 188.993 L
521.28 188.689 LE
grestore
gsave
1.0 1.0 scale
newpath 0 0 moveto 576 0 lineto 576 432 lineto 0 432 lineto
closepath clip
1 1 1 C
77.2594 120.933 187.093 47.52 77.2594 47.52 T
77.2594 120.933 187.093 120.933 187.093 47.52 T
0.5 W
0.15 0.15 0.15 C
99.2173 47.52 LS
99.2173 48.6245 LE
99.2173 120.933 LS
99.2173 119.829 LE
121.186 47.52 LS
121.186 48.6245 LE
121.186 120.933 LS
121.186 119.829 LE
143.155 47.52 LS
143.155 48.6245 LE
143.155 120.933 LS
143.155 119.829 LE
165.124 47.52 LS
165.124 48.6245 LE
165.124 120.933 LS
165.124 119.829 LE
187.093 47.52 LS
187.093 48.6245 LE
187.093 120.933 LS
187.093 119.829 LE
gsave
0.14902 0.14902 0.14902 C
(2e+06) [6 5 6 6 10] 0 84.7173 31.9776 10 /Helvetica SRX
grestore

gsave
0.14902 0.14902 0.14902 C
(4e+06) [6 5 6 6 10] 0 106.686 31.9776 10 /Helvetica SRX
grestore

gsave
0.14902 0.14902 0.14902 C
(6e+06) [6 5 6 6 10] 0 128.655 31.9776 10 /Helvetica SRX
grestore

gsave
0.14902 0.14902 0.14902 C
(8e+06) [6 5 6 6 10] 0 150.624 31.9776 10 /Helvetica SRX
grestore

gsave
0.14902 0.14902 0.14902 C
(1e+07) [6 5 6 6 10] 0 172.593 31.9776 10 /Helvetica SRX
grestore

77.2594 47.52 LS
78.3561 47.52 LE
187.093 47.52 LS
185.996 47.52 LE
77.2594 58.0076 LS
78.3561 58.0076 LE
187.093 58.0076 LS
185.996 58.0076 LE
77.2594 68.4952 LS
78.3561 68.4952 LE
187.093 68.4952 LS
185.996 68.4952 LE
77.2594 78.9828 LS
78.3561 78.9828 LE
187.093 78.9828 LS
185.996 78.9828 LE
77.2594 89.4704 LS
78.3561 89.4704 LE
187.093 89.4704 LS
185.996 89.4704 LE
77.2594 99.9579 LS
78.3561 99.9579 LE
187.093 99.9579 LS
185.996 99.9579 LE
77.2594 110.446 LS
78.3561 110.446 LE
187.093 110.446 LS
185.996 110.446 LE
77.2594 120.933 LS
78.3561 120.933 LE
187.093 120.933 LS
185.996 120.933 LE
gsave
0.14902 0.14902 0.14902 C
(0.004) [6 3 6 6 10] 0 45.267 43.52 10 /Helvetica SRX
grestore

gsave
0.14902 0.14902 0.14902 C
(0.005) [6 3 6 6 10] 0 45.267 54.0076 10 /Helvetica SRX
grestore

gsave
0.14902 0.14902 0.14902 C
(0.006) [6 3 6 6 10] 0 45.267 64.4952 10 /Helvetica SRX
grestore

gsave
0.14902 0.14902 0.14902 C
(0.007) [6 3 6 6 10] 0 45.267 74.9828 10 /Helvetica SRX
grestore

gsave
0.14902 0.14902 0.14902 C
(0.008) [6 3 6 6 10] 0 45.267 85.4704 10 /Helvetica SRX
grestore

gsave
0.14902 0.14902 0.14902 C
(0.009) [6 3 6 6 10] 0 45.267 95.958 10 /Helvetica SRX
grestore

gsave
0.14902 0.14902 0.14902 C
(0.01) [6 3 6 10] 0 51.267 106.446 10 /Helvetica SRX
grestore

gsave
0.14902 0.14902 0.14902 C
(0.011) [6 3 6 6 10] 0 45.267 116.933 10 /Helvetica SRX
grestore

2 LC
[16 0] 0 setdash
77.2594 47.52 LS
187.093 47.52 LE
77.2594 120.933 LS
187.093 120.933 LE
77.2594 47.52 LS
77.2594 120.933 LE
187.093 47.52 LS
187.093 120.933 LE
gsave
0 0 0 C
(SE_eps_AT_news2 \(Interval\)) [7 7 6 6 7 6 6 8 7 6 7 6 9 6 6 3 4 3 7 4 6 4 6 6 3 10] 0 57.176 133.933 11 /Helvetica-Bold SRX
grestore

0 LC
1 LJ
[] 0 setdash
0 0 1 C
77.2594 51.885 LS
78.3577 112.436 L
79.4561 104.149 L
80.5544 85.3635 L
81.6527 77.7798 L
82.7511 85.4645 L
83.8494 80.947 L
84.9477 80.2036 L
86.0461 80.208 L
87.1444 83.6103 L
88.2427 80.6639 L
89.3411 77.8148 L
90.4394 78.8528 L
91.5377 83.9219 L
92.636 82.5099 L
93.7344 84.6593 L
94.8327 86.3204 L
95.9311 80.4121 L
97.0294 77.0667 L
98.1277 74.2794 L
99.226 73.8298 L
100.324 73.9808 L
101.423 74.3035 L
102.521 75.3847 L
103.619 76.2532 L
104.718 75.2102 L
105.816 73.7351 L
106.914 74.9067 L
108.013 73.389 L
109.111 74.1676 L
110.209 76.0095 L
111.308 79.5984 L
112.406 80.3147 L
113.504 80.4964 L
114.603 80.6565 L
115.701 83.041 L
116.799 84.6101 L
117.898 84.5108 L
118.996 81.8585 L
120.094 79.0931 L
121.193 78.7173 L
122.291 77.6268 L
123.389 74.2332 L
124.488 74.4891 L
125.586 73.1717 L
126.684 72.6806 L
127.783 72.1692 L
128.881 72.3872 L
129.979 72.171 L
131.078 72.2696 L
132.176 72.0661 L
133.274 72.8068 L
134.373 73.5475 L
135.471 73.8158 L
136.569 74.3672 L
137.668 75.2673 L
138.766 75.0863 L
139.864 75.1599 L
140.963 74.954 L
142.061 74.3139 L
143.159 74.1388 L
144.258 73.778 L
145.356 74.2132 L
146.454 73.3931 L
147.553 73.4998 L
148.651 73.4373 L
149.749 73.4398 L
150.848 72.3158 L
151.946 72.3724 L
153.044 72.0584 L
154.143 71.7308 L
155.241 71.3772 L
156.339 71.4515 L
157.438 71.5368 L
158.536 72.1623 L
159.634 72.4774 L
160.733 72.2568 L
161.831 72.0466 L
162.929 72.2116 L
164.028 72.64 L
165.126 72.4124 L
166.224 72.2592 L
167.323 72.6223 L
168.421 73.2019 L
169.519 73.7572 L
170.618 74.43 L
171.716 75.215 L
172.814 75.6473 L
173.913 76.4727 L
175.011 76.9444 L
176.109 77.0469 L
177.208 77.0751 L
178.306 77.5353 L
179.404 77.541 L
180.503 77.6296 L
181.601 77.3915 L
182.699 77.2956 L
183.798 77.0117 L
184.896 76.8438 L
185.994 76.5328 L
187.093 76.3973 LE
1 0 0 C
77.2594 51.0152 LS
78.3577 113.766 L
79.4561 102.135 L
80.5544 79.0066 L
81.6527 77.1823 L
82.7511 82.0367 L
83.8494 79.1565 L
84.9477 75.9708 L
86.0461 79.3546 L
87.1444 80.8572 L
88.2427 75.858 L
89.3411 74.1161 L
90.4394 74.2805 L
91.5377 76.4714 L
92.636 74.8102 L
93.7344 74.8437 L
94.8327 74.603 L
95.9311 75.9356 L
97.0294 76.685 L
98.1277 74.2632 L
99.226 73.5556 L
100.324 73.7768 L
101.423 74.2522 L
102.521 75.328 L
103.619 75.8626 L
104.718 75.0821 L
105.816 73.3479 L
106.914 73.315 L
108.013 71.6096 L
109.111 72.549 L
110.209 75.5441 L
111.308 78.5367 L
112.406 78.7514 L
113.504 79.1099 L
114.603 79.2298 L
115.701 81.1011 L
116.799 81.8937 L
117.898 80.1439 L
118.996 77.5375 L
120.094 75.2573 L
121.193 75.8924 L
122.291 75.2872 L
123.389 73.0712 L
124.488 73.7135 L
125.586 72.8988 L
126.684 72.562 L
127.783 72.1818 L
128.881 72.4117 L
129.979 72.1478 L
131.078 72.2301 L
132.176 71.891 L
133.274 72.4503 L
134.373 73.119 L
135.471 73.188 L
136.569 73.1866 L
137.668 74.0784 L
138.766 74.0133 L
139.864 74.3364 L
140.963 74.4028 L
142.061 73.9093 L
143.159 73.7956 L
144.258 73.4905 L
145.356 74.0753 L
146.454 73.3789 L
147.553 73.5016 L
148.651 73.4073 L
149.749 73.4511 L
150.848 72.2864 L
151.946 72.3706 L
153.044 72.0061 L
154.143 71.618 L
155.241 71.1602 L
156.339 71.2697 L
157.438 71.4067 L
158.536 72.1279 L
159.634 72.3798 L
160.733 72.2152 L
161.831 71.8899 L
162.929 72.0039 L
164.028 72.1806 L
165.126 71.7985 L
166.224 71.7226 L
167.323 72.0288 L
168.421 72.472 L
169.519 72.9763 L
170.618 73.7637 L
171.716 74.7119 L
172.814 75.2133 L
173.913 75.9158 L
175.011 76.5114 L
176.109 76.2811 L
177.208 76.2234 L
178.306 76.5039 L
179.404 76.3145 L
180.503 76.4132 L
181.601 76.2127 L
182.699 76.2927 L
183.798 76.1479 L
184.896 75.9604 L
185.994 75.7459 L
187.093 75.4685 LE
grestore
gsave
1.0 1.0 scale
newpath 0 0 moveto 576 0 lineto 576 432 lineto 0 432 lineto
closepath clip
1 1 1 C
244.353 120.933 354.186 47.52 244.353 47.52 T
244.353 120.933 354.186 120.933 354.186 47.52 T
0.5 W
0.15 0.15 0.15 C
266.311 47.52 LS
266.311 48.6245 LE
266.311 120.933 LS
266.311 119.829 LE
288.28 47.52 LS
288.28 48.6245 LE
288.28 120.933 LS
288.28 119.829 LE
310.249 47.52 LS
310.249 48.6245 LE
310.249 120.933 LS
310.249 119.829 LE
332.217 47.52 LS
332.217 48.6245 LE
332.217 120.933 LS
332.217 119.829 LE
354.186 47.52 LS
354.186 48.6245 LE
354.186 120.933 LS
354.186 119.829 LE
gsave
0.14902 0.14902 0.14902 C
(2e+06) [6 5 6 6 10] 0 251.811 31.9776 10 /Helvetica SRX
grestore

gsave
0.14902 0.14902 0.14902 C
(4e+06) [6 5 6 6 10] 0 273.78 31.9776 10 /Helvetica SRX
grestore

gsave
0.14902 0.14902 0.14902 C
(6e+06) [6 5 6 6 10] 0 295.749 31.9776 10 /Helvetica SRX
grestore

gsave
0.14902 0.14902 0.14902 C
(8e+06) [6 5 6 6 10] 0 317.717 31.9776 10 /Helvetica SRX
grestore

gsave
0.14902 0.14902 0.14902 C
(1e+07) [6 5 6 6 10] 0 339.686 31.9776 10 /Helvetica SRX
grestore

244.353 47.52 LS
245.45 47.52 LE
354.186 47.52 LS
353.09 47.52 LE
244.353 65.8733 LS
245.45 65.8733 LE
354.186 65.8733 LS
353.09 65.8733 LE
244.353 84.2266 LS
245.45 84.2266 LE
354.186 84.2266 LS
353.09 84.2266 LE
244.353 102.58 LS
245.45 102.58 LE
354.186 102.58 LS
353.09 102.58 LE
244.353 120.933 LS
245.45 120.933 LE
354.186 120.933 LS
353.09 120.933 LE
gsave
0.14902 0.14902 0.14902 C
(0) [10] 0 233.361 43.52 10 /Helvetica SRX
grestore

gsave
0.14902 0.14902 0.14902 C
(5e-06) [6 5 3 6 10] 0 213.361 61.8733 10 /Helvetica SRX
grestore

gsave
0.14902 0.14902 0.14902 C
(1e-05) [6 5 3 6 10] 0 213.361 80.2266 10 /Helvetica SRX
grestore

gsave
0.14902 0.14902 0.14902 C
(1.5e-05) [6 3 6 5 3 6 10] 0 204.361 98.5799 10 /Helvetica SRX
grestore

gsave
0.14902 0.14902 0.14902 C
(2e-05) [6 5 3 6 10] 0 213.361 116.933 10 /Helvetica SRX
grestore

2 LC
[16 0] 0 setdash
244.353 47.52 LS
354.186 47.52 LE
244.353 120.933 LS
354.186 120.933 LE
244.353 47.52 LS
244.353 120.933 LE
354.186 47.52 LS
354.186 120.933 LE
gsave
0 0 0 C
(SE_eps_AT_news2 \(m2\)) [7 7 6 6 7 6 6 8 7 6 7 6 9 6 6 3 4 10 6 10] 0 235.77 133.933 11 /Helvetica-Bold SRX
grestore

0 LC
1 LJ
[] 0 setdash
0 0 1 C
244.353 57.6626 LS
245.451 106.965 L
246.55 96.6456 L
247.648 80.6054 L
248.746 73.7046 L
249.845 79.1188 L
250.943 76.6603 L
252.041 75.1364 L
253.14 75.279 L
254.238 79.6933 L
255.336 77.4586 L
256.435 73.7797 L
257.533 74.5714 L
258.631 78.6662 L
259.73 77.8644 L
260.828 79.6454 L
261.926 81.343 L
263.025 77.372 L
264.123 75.2392 L
265.221 72.7774 L
266.32 71.642 L
267.418 71.6773 L
268.516 71.6694 L
269.615 72.2451 L
270.713 72.8247 L
271.811 72.0428 L
272.91 71.1874 L
274.008 71.8954 L
275.106 70.9896 L
276.205 71.4565 L
277.303 72.9339 L
278.401 75.5248 L
279.5 76.0883 L
280.598 76.1799 L
281.696 76.4456 L
282.795 77.9833 L
283.893 79.0331 L
284.991 78.9796 L
286.09 77.2951 L
287.188 75.1676 L
288.286 74.7787 L
289.385 74.0175 L
290.483 71.2407 L
291.581 71.3918 L
292.68 70.5659 L
293.778 70.2027 L
294.876 69.9433 L
295.975 70.2348 L
297.073 70.1631 L
298.171 70.4748 L
299.27 70.2927 L
300.368 71.0447 L
301.466 71.4905 L
302.565 71.7382 L
303.663 72.1354 L
304.761 72.7357 L
305.86 72.5911 L
306.958 72.6276 L
308.056 72.3951 L
309.155 72.0693 L
310.253 71.9673 L
311.351 71.4837 L
312.45 71.6844 L
313.548 70.8732 L
314.646 71.0033 L
315.745 70.9258 L
316.843 70.954 L
317.941 70.1587 L
319.04 70.2298 L
320.138 69.929 L
321.236 69.7633 L
322.335 69.5802 L
323.433 69.5469 L
324.531 69.6108 L
325.63 70.0309 L
326.728 70.262 L
327.826 70.1467 L
328.925 70.0653 L
330.023 70.2489 L
331.121 70.49 L
332.22 70.3319 L
333.318 70.2768 L
334.416 70.5248 L
335.515 70.8371 L
336.613 71.2402 L
337.711 71.6395 L
338.81 72.2679 L
339.908 72.5824 L
341.006 73.1043 L
342.105 73.3745 L
343.203 73.4437 L
344.301 73.4715 L
345.4 73.7732 L
346.498 73.7444 L
347.596 73.7614 L
348.695 73.5891 L
349.793 73.5328 L
350.891 73.3376 L
351.99 73.166 L
353.088 72.9799 L
354.186 72.8669 LE
1 0 0 C
244.353 57.4857 LS
245.451 106.486 L
246.55 94.826 L
247.648 75.0355 L
248.746 72.9325 L
249.845 76.702 L
250.943 75.4907 L
252.041 72.3948 L
253.14 74.6082 L
254.238 76.6116 L
255.336 74.001 L
256.435 71.5537 L
257.533 71.5692 L
258.631 73.1764 L
259.73 72.2052 L
260.828 72.5776 L
261.926 72.5407 L
263.025 73.8015 L
264.123 74.6419 L
265.221 72.7721 L
266.32 71.368 L
267.418 71.5094 L
268.516 71.669 L
269.615 72.2258 L
270.713 72.649 L
271.811 71.9042 L
272.91 70.9022 L
274.008 70.9134 L
275.106 70.0053 L
276.205 70.5422 L
277.303 72.6255 L
278.401 74.7764 L
279.5 75.0738 L
280.598 75.2031 L
281.696 75.4307 L
282.795 76.5936 L
283.893 77.1322 L
284.991 75.9538 L
286.09 74.0756 L
287.188 72.4908 L
288.286 72.7327 L
289.385 72.3667 L
290.483 70.4841 L
291.581 70.9033 L
292.68 70.4034 L
293.778 70.1666 L
294.876 69.9366 L
295.975 70.2343 L
297.073 70.1566 L
298.171 70.4175 L
299.27 70.1397 L
300.368 70.7258 L
301.466 71.0798 L
302.565 71.196 L
303.663 71.1551 L
304.761 71.8802 L
305.86 71.8134 L
306.958 71.9601 L
308.056 71.9795 L
309.155 71.7521 L
310.253 71.705 L
311.351 71.255 L
312.45 71.5281 L
313.548 70.837 L
314.646 70.9946 L
315.745 70.914 L
316.843 70.9535 L
317.941 70.1586 L
319.04 70.2295 L
320.138 69.8538 L
321.236 69.6522 L
322.335 69.4377 L
323.433 69.4175 L
324.531 69.5097 L
325.63 69.9409 L
326.728 70.1369 L
327.826 70.0286 L
328.925 69.8901 L
330.023 70.0753 L
331.121 70.1698 L
332.22 69.8924 L
333.318 69.862 L
334.416 70.0891 L
335.515 70.3413 L
336.613 70.6778 L
337.711 71.1773 L
338.81 71.871 L
339.908 72.215 L
341.006 72.6868 L
342.105 72.9989 L
343.203 72.8587 L
344.301 72.8196 L
345.4 72.9769 L
346.498 72.8373 L
347.596 72.8594 L
348.695 72.7517 L
349.793 72.8185 L
350.891 72.6897 L
351.99 72.5374 L
353.088 72.4007 L
354.186 72.2309 LE
grestore
gsave
1.0 1.0 scale
newpath 0 0 moveto 576 0 lineto 576 432 lineto 0 432 lineto
closepath clip
1 1 1 C
411.447 120.933 521.28 47.52 411.447 47.52 T
411.447 120.933 521.28 120.933 521.28 47.52 T
0.5 W
0.15 0.15 0.15 C
433.405 47.52 LS
433.405 48.6245 LE
433.405 120.933 LS
433.405 119.829 LE
455.374 47.52 LS
455.374 48.6245 LE
455.374 120.933 LS
455.374 119.829 LE
477.342 47.52 LS
477.342 48.6245 LE
477.342 120.933 LS
477.342 119.829 LE
499.311 47.52 LS
499.311 48.6245 LE
499.311 120.933 LS
499.311 119.829 LE
521.28 47.52 LS
521.28 48.6245 LE
521.28 120.933 LS
521.28 119.829 LE
gsave
0.14902 0.14902 0.14902 C
(2e+06) [6 5 6 6 10] 0 418.905 31.9776 10 /Helvetica SRX
grestore

gsave
0.14902 0.14902 0.14902 C
(4e+06) [6 5 6 6 10] 0 440.874 31.9776 10 /Helvetica SRX
grestore

gsave
0.14902 0.14902 0.14902 C
(6e+06) [6 5 6 6 10] 0 462.842 31.9776 10 /Helvetica SRX
grestore

gsave
0.14902 0.14902 0.14902 C
(8e+06) [6 5 6 6 10] 0 484.811 31.9776 10 /Helvetica SRX
grestore

gsave
0.14902 0.14902 0.14902 C
(1e+07) [6 5 6 6 10] 0 506.78 31.9776 10 /Helvetica SRX
grestore

411.447 47.52 LS
412.544 47.52 LE
521.28 47.52 LS
520.183 47.52 LE
411.447 58.0076 LS
412.544 58.0076 LE
521.28 58.0076 LS
520.183 58.0076 LE
411.447 68.4952 LS
412.544 68.4952 LE
521.28 68.4952 LS
520.183 68.4952 LE
411.447 78.9828 LS
412.544 78.9828 LE
521.28 78.9828 LS
520.183 78.9828 LE
411.447 89.4703 LS
412.544 89.4703 LE
521.28 89.4703 LS
520.183 89.4703 LE
411.447 99.9579 LS
412.544 99.9579 LE
521.28 99.9579 LS
520.183 99.9579 LE
411.447 110.446 LS
412.544 110.446 LE
521.28 110.446 LS
520.183 110.446 LE
411.447 120.933 LS
412.544 120.933 LE
521.28 120.933 LS
520.183 120.933 LE
gsave
0.14902 0.14902 0.14902 C
(0) [10] 0 400.454 43.52 10 /Helvetica SRX
grestore

gsave
0.14902 0.14902 0.14902 C
(2e-08) [6 5 3 6 10] 0 380.454 54.0076 10 /Helvetica SRX
grestore

gsave
0.14902 0.14902 0.14902 C
(4e-08) [6 5 3 6 10] 0 380.454 64.4952 10 /Helvetica SRX
grestore

gsave
0.14902 0.14902 0.14902 C
(6e-08) [6 5 3 6 10] 0 380.454 74.9828 10 /Helvetica SRX
grestore

gsave
0.14902 0.14902 0.14902 C
(8e-08) [6 5 3 6 10] 0 380.454 85.4704 10 /Helvetica SRX
grestore

gsave
0.14902 0.14902 0.14902 C
(1e-07) [6 5 3 6 10] 0 380.454 95.958 10 /Helvetica SRX
grestore

gsave
0.14902 0.14902 0.14902 C
(1.2e-07) [6 3 6 5 3 6 10] 0 371.454 106.446 10 /Helvetica SRX
grestore

gsave
0.14902 0.14902 0.14902 C
(1.4e-07) [6 3 6 5 3 6 10] 0 371.454 116.933 10 /Helvetica SRX
grestore

2 LC
[16 0] 0 setdash
411.447 47.52 LS
521.28 47.52 LE
411.447 120.933 LS
521.28 120.933 LE
411.447 47.52 LS
411.447 120.933 LE
521.28 47.52 LS
521.28 120.933 LE
gsave
0 0 0 C
(SE_eps_AT_news2 \(m3\)) [7 7 6 6 7 6 6 8 7 6 7 6 9 6 6 3 4 10 6 10] 0 402.863 133.933 11 /Helvetica-Bold SRX
grestore

0 LC
1 LJ
[] 0 setdash
0 0 1 C
411.447 50.6788 LS
412.545 103.527 L
413.644 89.6929 L
414.742 71.016 L
415.84 63.1711 L
416.939 67.9465 L
418.037 66.679 L
419.135 64.3682 L
420.234 64.7185 L
421.332 70.0703 L
422.43 68.1226 L
423.529 63.4695 L
424.627 64.175 L
425.725 68.1656 L
426.823 67.7392 L
427.922 69.8027 L
429.02 71.8864 L
430.118 68.3083 L
431.217 66.4539 L
432.315 63.6883 L
433.413 62.0008 L
434.512 61.9974 L
435.61 61.8247 L
436.708 62.2236 L
437.807 62.7284 L
438.905 61.9834 L
440.003 61.3268 L
441.102 62.0036 L
442.2 61.3119 L
443.298 61.6165 L
444.397 62.9909 L
445.495 65.4367 L
446.593 66.017 L
447.692 66.0245 L
448.79 66.431 L
449.888 67.7614 L
450.987 68.7052 L
452.085 68.6247 L
453.183 67.2492 L
454.282 65.1307 L
455.38 64.6973 L
456.478 64.0903 L
457.577 61.2546 L
458.675 61.3451 L
459.773 60.6778 L
460.872 60.3456 L
461.97 60.1712 L
463.068 60.4912 L
464.167 60.4173 L
465.265 60.8739 L
466.363 60.6837 L
467.462 61.5538 L
468.56 61.8902 L
469.658 62.1694 L
470.757 62.5462 L
471.855 63.0936 L
472.953 62.9678 L
474.052 62.9621 L
475.15 62.7258 L
476.248 62.5137 L
477.347 62.4712 L
478.445 61.8871 L
479.543 61.9865 L
480.642 61.093 L
481.74 61.2358 L
482.838 61.1834 L
483.937 61.218 L
485.035 60.4889 L
486.133 60.5646 L
487.232 60.2506 L
488.33 60.1435 L
489.428 60.0431 L
490.527 59.9433 L
491.625 59.9874 L
492.723 60.3464 L
493.822 60.5422 L
494.92 60.4456 L
496.018 60.4115 L
497.117 60.6208 L
498.215 60.8076 L
499.313 60.6583 L
500.412 60.6213 L
501.51 60.8305 L
502.608 61.0601 L
503.707 61.4242 L
504.805 61.7272 L
505.903 62.3384 L
507.002 62.6172 L
508.1 63.0407 L
509.198 63.2188 L
510.297 63.2931 L
511.395 63.3329 L
512.493 63.5727 L
513.592 63.5312 L
514.69 63.5009 L
515.788 63.3731 L
516.887 63.3314 L
517.985 63.1299 L
519.083 62.9545 L
520.182 62.8045 L
521.28 62.6956 LE
1 0 0 C
411.447 50.6069 LS
412.545 102.228 L
413.644 87.1515 L
414.742 65.1596 L
415.84 62.3557 L
416.939 65.6951 L
418.037 65.6875 L
419.135 62.1525 L
420.234 63.9972 L
421.332 66.4688 L
422.43 64.4732 L
423.529 61.4725 L
424.627 61.5549 L
425.725 63.2037 L
426.823 62.5369 L
427.922 63.0981 L
429.02 63.191 L
430.118 64.5835 L
431.217 65.6257 L
432.315 63.7036 L
433.413 61.7882 L
434.512 61.888 L
435.61 61.8255 L
436.708 62.2095 L
437.807 62.5788 L
438.905 61.8471 L
440.003 61.0251 L
441.102 61.1257 L
442.2 60.4651 L
443.298 60.8449 L
444.397 62.8133 L
445.495 64.8296 L
446.593 65.1508 L
447.692 65.2045 L
448.79 65.4855 L
449.888 66.4156 L
450.987 66.9111 L
452.085 65.7776 L
453.183 64.1338 L
454.282 62.6967 L
455.38 62.8297 L
456.478 62.5722 L
457.577 60.658 L
458.675 60.9862 L
459.773 60.5617 L
460.872 60.3206 L
461.97 60.1667 L
463.068 60.4908 L
464.167 60.4132 L
465.265 60.8159 L
466.363 60.5366 L
467.462 61.2305 L
468.56 61.4616 L
469.658 61.6193 L
470.757 61.5476 L
471.855 62.2637 L
472.953 62.2104 L
474.052 62.2965 L
475.15 62.3164 L
476.248 62.1864 L
477.347 62.1949 L
478.445 61.663 L
479.543 61.8309 L
480.642 61.0603 L
481.74 61.2254 L
482.838 61.1727 L
483.937 61.2168 L
485.035 60.4887 L
486.133 60.5645 L
487.232 60.1869 L
488.33 60.0518 L
489.428 59.9261 L
490.527 59.8322 L
491.625 59.8969 L
492.723 60.2571 L
493.822 60.4145 L
494.92 60.3263 L
496.018 60.2437 L
497.117 60.4604 L
498.215 60.5256 L
499.313 60.2757 L
500.412 60.2597 L
501.51 60.4686 L
502.608 60.6514 L
503.707 60.9429 L
504.805 61.338 L
505.903 61.9811 L
507.002 62.2865 L
508.1 62.6593 L
509.198 62.8619 L
510.297 62.7582 L
511.395 62.7448 L
512.493 62.867 L
513.592 62.7517 L
514.69 62.726 L
515.788 62.6573 L
516.887 62.7115 L
517.985 62.5632 L
519.083 62.4062 L
520.182 62.2887 L
521.28 62.1444 LE
grestore
grestore
showpage
cleartomark
%%PageTrailer
%%Trailer
end
%%EOF
