%!PS-Adobe-3.0 EPSF-3.0
%%Title: gl2ps_renderer figure
%%Creator: GL2PS 1.4.2, (C) 1999-2020 C. Geuzaine
%%For: Octave
%%CreationDate: Wed Oct  7 07:02:56 2020
%%LanguageLevel: 3
%%DocumentData: Clean7Bit
%%Pages: 1
%%BoundingBox: 0 0 576 432
%%EndComments
%%BeginProlog
/gl2psdict 64 dict def gl2psdict begin
/tryPS3shading false def % set to false to force subdivision
/rThreshold 0.064 def % red component subdivision threshold
/gThreshold 0.034 def % green component subdivision threshold
/bThreshold 0.1 def % blue component subdivision threshold
/BD { bind def } bind def
/C  { setrgbcolor } BD
/G  { 0.082 mul exch 0.6094 mul add exch 0.3086 mul add neg 1.0 add setgray } BD
/W  { setlinewidth } BD
/LC  { setlinecap } BD
/LJ  { setlinejoin } BD
/FC { findfont exch /SH exch def SH scalefont setfont } BD
/SW { dup stringwidth pop } BD
/S  { FC moveto show } BD
/SBC{ FC moveto SW -2 div 0 rmoveto show } BD
/SBR{ FC moveto SW neg 0 rmoveto show } BD
/SCL{ FC moveto 0 SH -2 div rmoveto show } BD
/SCC{ FC moveto SW -2 div SH -2 div rmoveto show } BD
/SCR{ FC moveto SW neg SH -2 div rmoveto show } BD
/STL{ FC moveto 0 SH neg rmoveto show } BD
/STC{ FC moveto SW -2 div SH neg rmoveto show } BD
/STR{ FC moveto SW neg SH neg rmoveto show } BD
/FCT { FC translate 0 0 } BD
/SR  { gsave FCT moveto rotate show grestore } BD
/SRX  { gsave FCT moveto rotate xshow grestore } BD
/SBCR{ gsave FCT moveto rotate SW -2 div 0 rmoveto show grestore } BD
/SBRR{ gsave FCT moveto rotate SW neg 0 rmoveto show grestore } BD
/SCLR{ gsave FCT moveto rotate 0 SH -2 div rmoveto show grestore} BD
/SCCR{ gsave FCT moveto rotate SW -2 div SH -2 div rmoveto show grestore} BD
/SCRR{ gsave FCT moveto rotate SW neg SH -2 div rmoveto show grestore} BD
/STLR{ gsave FCT moveto rotate 0 SH neg rmoveto show grestore } BD
/STCR{ gsave FCT moveto rotate SW -2 div SH neg rmoveto show grestore } BD
/STRR{ gsave FCT moveto rotate SW neg SH neg rmoveto show grestore } BD
/P  { newpath 0.0 360.0 arc closepath fill } BD
/LS { newpath moveto } BD
/L  { lineto } BD
/LE { lineto stroke } BD
/T  { newpath moveto lineto lineto closepath fill } BD
/STshfill {
      /b1 exch def /g1 exch def /r1 exch def /y1 exch def /x1 exch def
      /b2 exch def /g2 exch def /r2 exch def /y2 exch def /x2 exch def
      /b3 exch def /g3 exch def /r3 exch def /y3 exch def /x3 exch def
      gsave << /ShadingType 4 /ColorSpace [/DeviceRGB]
      /DataSource [ 0 x1 y1 r1 g1 b1 0 x2 y2 r2 g2 b2 0 x3 y3 r3 g3 b3 ] >>
      shfill grestore } BD
/Tm { 3 -1 roll 8 -1 roll 13 -1 roll add add 3 div
      3 -1 roll 7 -1 roll 11 -1 roll add add 3 div
      3 -1 roll 6 -1 roll 9 -1 roll add add 3 div C T } BD
/STsplit {
      4 index 15 index add 0.5 mul
      4 index 15 index add 0.5 mul
      4 index 15 index add 0.5 mul
      4 index 15 index add 0.5 mul
      4 index 15 index add 0.5 mul
      5 copy 5 copy 25 15 roll
      9 index 30 index add 0.5 mul
      9 index 30 index add 0.5 mul
      9 index 30 index add 0.5 mul
      9 index 30 index add 0.5 mul
      9 index 30 index add 0.5 mul
      5 copy 5 copy 35 5 roll 25 5 roll 15 5 roll
      4 index 10 index add 0.5 mul
      4 index 10 index add 0.5 mul
      4 index 10 index add 0.5 mul
      4 index 10 index add 0.5 mul
      4 index 10 index add 0.5 mul
      5 copy 5 copy 40 5 roll 25 5 roll 15 5 roll 25 5 roll
      STnoshfill STnoshfill STnoshfill STnoshfill } BD
/STnoshfill {
      2 index 8 index sub abs rThreshold gt
      { STsplit }
      { 1 index 7 index sub abs gThreshold gt
        { STsplit }
        { dup 6 index sub abs bThreshold gt
          { STsplit }
          { 2 index 13 index sub abs rThreshold gt
            { STsplit }
            { 1 index 12 index sub abs gThreshold gt
              { STsplit }
              { dup 11 index sub abs bThreshold gt
                { STsplit }
                { 7 index 13 index sub abs rThreshold gt
                  { STsplit }
                  { 6 index 12 index sub abs gThreshold gt
                    { STsplit }
                    { 5 index 11 index sub abs bThreshold gt
                      { STsplit }
                      { Tm }
                      ifelse }
                    ifelse }
                  ifelse }
                ifelse }
              ifelse }
            ifelse }
          ifelse }
        ifelse }
      ifelse } BD
tryPS3shading
{ /shfill where
  { /ST { STshfill } BD }
  { /ST { STnoshfill } BD }
  ifelse }
{ /ST { STnoshfill } BD }
ifelse
end
%%EndProlog
%%BeginSetup
/DeviceRGB setcolorspace
gl2psdict begin
%%EndSetup
%%Page: 1 1
%%BeginPageSetup
%%EndPageSetup
mark
gsave
1.0 1.0 scale
1 1 1 C
newpath 0 0 moveto 576 0 lineto 576 432 lineto 0 432 lineto
closepath fill
gsave
1.0 1.0 scale
1 1 1 C
newpath 0 0 moveto 576 0 lineto 576 432 lineto 0 432 lineto
closepath fill
newpath 0 0 moveto 576 0 lineto 576 432 lineto 0 432 lineto
closepath clip
1 1 1 C
74.88 385.841 187.093 312.427 74.88 312.427 T
74.88 385.841 187.093 385.841 187.093 312.427 T
0.5 W
0.15 0.15 0.15 C
98.5037 312.427 LS
98.5037 313.556 LE
98.5037 385.841 LS
98.5037 384.712 LE
128.033 312.427 LS
128.033 313.556 LE
128.033 385.841 LS
128.033 384.712 LE
157.563 312.427 LS
157.563 313.556 LE
157.563 385.841 LS
157.563 384.712 LE
187.093 312.427 LS
187.093 313.556 LE
187.093 385.841 LS
187.093 384.712 LE
gsave
0.14902 0.14902 0.14902 C
(5) [10] 0 95.5037 296.885 10 /Helvetica SRX
grestore

gsave
0.14902 0.14902 0.14902 C
(10) [6 10] 0 122.033 296.885 10 /Helvetica SRX
grestore

gsave
0.14902 0.14902 0.14902 C
(15) [6 10] 0 151.563 296.885 10 /Helvetica SRX
grestore

gsave
0.14902 0.14902 0.14902 C
(20) [6 10] 0 181.093 296.885 10 /Helvetica SRX
grestore

74.88 313.263 LS
76.0043 313.263 LE
187.093 313.263 LS
185.968 313.263 LE
74.88 324.802 LS
76.0043 324.802 LE
187.093 324.802 LS
185.968 324.802 LE
74.88 336.342 LS
76.0043 336.342 LE
187.093 336.342 LS
185.968 336.342 LE
74.88 347.881 LS
76.0043 347.881 LE
187.093 347.881 LS
185.968 347.881 LE
74.88 359.421 LS
76.0043 359.421 LE
187.093 359.421 LS
185.968 359.421 LE
74.88 370.96 LS
76.0043 370.96 LE
187.093 370.96 LS
185.968 370.96 LE
74.88 382.5 LS
76.0043 382.5 LE
187.093 382.5 LS
185.968 382.5 LE
gsave
0.14902 0.14902 0.14902 C
(0) [10] 0 63.8705 309.263 10 /Helvetica SRX
grestore

gsave
0.14902 0.14902 0.14902 C
(0.002) [6 3 6 6 10] 0 42.8705 320.802 10 /Helvetica SRX
grestore

gsave
0.14902 0.14902 0.14902 C
(0.004) [6 3 6 6 10] 0 42.8705 332.342 10 /Helvetica SRX
grestore

gsave
0.14902 0.14902 0.14902 C
(0.006) [6 3 6 6 10] 0 42.8705 343.881 10 /Helvetica SRX
grestore

gsave
0.14902 0.14902 0.14902 C
(0.008) [6 3 6 6 10] 0 42.8705 355.421 10 /Helvetica SRX
grestore

gsave
0.14902 0.14902 0.14902 C
(0.01) [6 3 6 10] 0 48.8705 366.96 10 /Helvetica SRX
grestore

gsave
0.14902 0.14902 0.14902 C
(0.012) [6 3 6 6 10] 0 42.8705 378.5 10 /Helvetica SRX
grestore

2 LC
[16 0] 0 setdash
74.88 312.427 LS
187.093 312.427 LE
74.88 385.841 LS
187.093 385.841 LE
74.88 312.427 LS
74.88 385.841 LE
187.093 312.427 LS
187.093 385.841 LE
gsave
0 0 0 C
(r_hat) [4 6 7 6 10] 0 117.486 397.841 11 /Helvetica-Bold SRX
grestore

0.9 0.9 0.9 C
74.88 312.427 74.88 385.841 80.7859 312.427 T
80.7859 331.74 80.7859 312.427 74.88 385.841 T
86.6918 312.427 80.7859 312.427 80.7859 331.74 T
86.6918 317.16 86.6918 312.427 80.7859 331.74 T
92.5978 312.427 86.6918 312.427 86.6918 317.16 T
92.5978 313.672 92.5978 312.427 86.6918 317.16 T
98.5037 312.427 92.5978 312.427 92.5978 313.672 T
98.5037 313.027 98.5037 312.427 92.5978 313.672 T
104.41 312.427 98.5037 312.427 98.5037 313.027 T
104.41 313.037 104.41 312.427 98.5037 313.027 T
110.316 312.427 104.41 312.427 104.41 313.037 T
110.316 313.076 110.316 312.427 104.41 313.037 T
116.221 312.427 110.316 312.427 110.316 313.076 T
116.221 313.099 116.221 312.427 110.316 313.076 T
122.127 312.427 116.221 312.427 116.221 313.099 T
122.127 313.121 122.127 312.427 116.221 313.099 T
128.033 312.427 122.127 312.427 122.127 313.121 T
128.033 313.149 128.033 312.427 122.127 313.121 T
133.939 312.427 128.033 312.427 128.033 313.149 T
133.939 313.184 133.939 312.427 128.033 313.149 T
139.845 312.427 133.939 312.427 133.939 313.184 T
139.845 313.198 139.845 312.427 133.939 313.184 T
145.751 312.427 139.845 312.427 139.845 313.198 T
145.751 313.214 145.751 312.427 139.845 313.198 T
151.657 312.427 145.751 312.427 145.751 313.214 T
151.657 313.228 151.657 312.427 145.751 313.214 T
157.563 312.427 151.657 312.427 151.657 313.228 T
157.563 313.239 157.563 312.427 151.657 313.228 T
163.469 312.427 157.563 312.427 157.563 313.239 T
163.469 313.251 163.469 312.427 157.563 313.239 T
169.375 312.427 163.469 312.427 163.469 313.251 T
169.375 313.265 169.375 312.427 163.469 313.251 T
175.281 312.427 169.375 312.427 169.375 313.265 T
175.281 313.27 175.281 312.427 169.375 313.265 T
181.187 312.427 175.281 312.427 175.281 313.27 T
181.187 313.282 181.187 312.427 175.281 313.27 T
187.093 312.427 181.187 312.427 181.187 313.282 T
187.093 313.289 187.093 312.427 181.187 313.282 T
0 LC
[] 0 setdash
0 0 0 C
187.093 313.289 LS
181.187 313.282 L
175.281 313.27 L
169.375 313.265 L
163.469 313.251 L
157.563 313.239 L
151.657 313.228 L
145.751 313.214 L
139.845 313.198 L
133.939 313.184 L
128.033 313.149 L
122.127 313.121 L
116.221 313.099 L
110.316 313.076 L
104.41 313.037 L
98.5037 313.027 L
92.5978 313.672 L
86.6918 317.16 L
80.7859 331.74 L
74.88 385.841 L
74.88 312.427 L
80.7859 312.427 L
86.6918 312.427 L
92.5978 312.427 L
98.5037 312.427 L
104.41 312.427 L
110.316 312.427 L
116.221 312.427 L
122.127 312.427 L
128.033 312.427 L
133.939 312.427 L
139.845 312.427 L
145.751 312.427 L
151.657 312.427 L
157.563 312.427 L
163.469 312.427 L
169.375 312.427 L
175.281 312.427 L
181.187 312.427 L
187.093 312.427 L
187.093 313.289 LE
1 1 1 C
92.5978 312.427 98.5037 312.478 98.5037 312.427 T
104.41 312.427 98.5037 312.427 98.5037 312.478 T
104.41 312.551 104.41 312.427 98.5037 312.478 T
110.316 312.427 104.41 312.427 104.41 312.551 T
110.316 312.622 110.316 312.427 104.41 312.551 T
116.221 312.427 110.316 312.427 110.316 312.622 T
116.221 312.711 116.221 312.427 110.316 312.622 T
122.127 312.427 116.221 312.427 116.221 312.711 T
122.127 312.801 122.127 312.427 116.221 312.711 T
128.033 312.427 122.127 312.427 122.127 312.801 T
128.033 312.882 128.033 312.427 122.127 312.801 T
133.939 312.427 128.033 312.427 128.033 312.882 T
133.939 312.967 133.939 312.427 128.033 312.882 T
139.845 312.427 133.939 312.427 133.939 312.967 T
139.845 313.023 139.845 312.427 133.939 312.967 T
145.751 312.427 139.845 312.427 139.845 313.023 T
145.751 313.071 145.751 312.427 139.845 313.023 T
151.657 312.427 145.751 312.427 145.751 313.071 T
151.657 313.107 151.657 312.427 145.751 313.071 T
157.563 312.427 151.657 312.427 151.657 313.107 T
157.563 313.137 157.563 312.427 151.657 313.107 T
163.469 312.427 157.563 312.427 157.563 313.137 T
163.469 313.162 163.469 312.427 157.563 313.137 T
169.375 312.427 163.469 312.427 163.469 313.162 T
169.375 313.188 169.375 312.427 163.469 313.162 T
175.281 312.427 169.375 312.427 169.375 313.188 T
175.281 313.202 175.281 312.427 169.375 313.188 T
181.187 312.427 175.281 312.427 175.281 313.202 T
181.187 313.222 181.187 312.427 175.281 313.202 T
187.093 312.427 181.187 312.427 181.187 313.222 T
187.093 313.234 187.093 312.427 181.187 313.222 T
74.88 312.427 74.88 381.102 80.7859 312.427 T
80.7859 314.775 80.7859 312.427 74.88 381.102 T
86.6918 312.427 80.7859 312.427 80.7859 314.775 T
86.6918 312.553 86.6918 312.427 80.7859 314.775 T
92.5978 312.427 86.6918 312.427 86.6918 312.553 T
0 0 0 C
92.5978 312.427 LS
86.6918 312.553 L
80.7859 314.775 L
74.88 381.102 L
74.88 312.427 L
80.7859 312.427 L
86.6918 312.427 L
92.5978 312.427 LE
187.093 313.234 LS
181.187 313.222 L
175.281 313.202 L
169.375 313.188 L
163.469 313.162 L
157.563 313.137 L
151.657 313.107 L
145.751 313.071 L
139.845 313.023 L
133.939 312.967 L
128.033 312.882 L
122.127 312.801 L
116.221 312.711 L
110.316 312.622 L
104.41 312.551 L
98.5037 312.478 L
92.5978 312.427 L
98.5037 312.427 L
104.41 312.427 L
110.316 312.427 L
116.221 312.427 L
122.127 312.427 L
128.033 312.427 L
133.939 312.427 L
139.845 312.427 L
145.751 312.427 L
151.657 312.427 L
157.563 312.427 L
163.469 312.427 L
169.375 312.427 L
175.281 312.427 L
181.187 312.427 L
187.093 312.427 L
187.093 313.234 LE
3 W
1 LJ
74.88 383.182 LS
80.7859 323.644 L
86.6918 314.684 L
92.5978 313.081 L
98.5037 312.805 L
104.41 312.802 L
110.316 312.856 L
116.221 312.918 L
122.127 312.976 L
128.033 313.026 L
133.939 313.069 L
139.845 313.106 L
145.751 313.138 L
151.657 313.165 L
157.563 313.188 L
163.469 313.207 L
169.375 313.224 L
175.281 313.238 L
181.187 313.25 L
187.093 313.261 LE
grestore
gsave
1.0 1.0 scale
newpath 0 0 moveto 576 0 lineto 576 432 lineto 0 432 lineto
closepath clip
1 1 1 C
241.974 385.841 354.186 312.427 241.974 312.427 T
241.974 385.841 354.186 385.841 354.186 312.427 T
0.5 W
0.15 0.15 0.15 C
265.597 312.427 LS
265.597 313.556 LE
265.597 385.841 LS
265.597 384.712 LE
295.127 312.427 LS
295.127 313.556 LE
295.127 385.841 LS
295.127 384.712 LE
324.657 312.427 LS
324.657 313.556 LE
324.657 385.841 LS
324.657 384.712 LE
354.186 312.427 LS
354.186 313.556 LE
354.186 385.841 LS
354.186 384.712 LE
gsave
0.14902 0.14902 0.14902 C
(5) [10] 0 262.597 296.885 10 /Helvetica SRX
grestore

gsave
0.14902 0.14902 0.14902 C
(10) [6 10] 0 289.127 296.885 10 /Helvetica SRX
grestore

gsave
0.14902 0.14902 0.14902 C
(15) [6 10] 0 318.657 296.885 10 /Helvetica SRX
grestore

gsave
0.14902 0.14902 0.14902 C
(20) [6 10] 0 348.186 296.885 10 /Helvetica SRX
grestore

241.974 323.945 LS
243.098 323.945 LE
354.186 323.945 LS
353.062 323.945 LE
241.974 337.004 LS
243.098 337.004 LE
354.186 337.004 LS
353.062 337.004 LE
241.974 350.063 LS
243.098 350.063 LE
354.186 350.063 LS
353.062 350.063 LE
241.974 363.123 LS
243.098 363.123 LE
354.186 363.123 LS
353.062 363.123 LE
241.974 376.182 LS
243.098 376.182 LE
354.186 376.182 LS
353.062 376.182 LE
gsave
0.14902 0.14902 0.14902 C
(-0.01) [3 6 3 6 10] 0 212.964 319.945 10 /Helvetica SRX
grestore

gsave
0.14902 0.14902 0.14902 C
(-0.008) [3 6 3 6 6 10] 0 206.964 333.004 10 /Helvetica SRX
grestore

gsave
0.14902 0.14902 0.14902 C
(-0.006) [3 6 3 6 6 10] 0 206.964 346.063 10 /Helvetica SRX
grestore

gsave
0.14902 0.14902 0.14902 C
(-0.004) [3 6 3 6 6 10] 0 206.964 359.123 10 /Helvetica SRX
grestore

gsave
0.14902 0.14902 0.14902 C
(-0.002) [3 6 3 6 6 10] 0 206.964 372.182 10 /Helvetica SRX
grestore

2 LC
[16 0] 0 setdash
241.974 312.427 LS
354.186 312.427 LE
241.974 385.841 LS
354.186 385.841 LE
241.974 312.427 LS
241.974 385.841 LE
354.186 312.427 LS
354.186 385.841 LE
gsave
0 0 0 C
(Y_hat) [7 6 7 6 10] 0 283.08 397.841 11 /Helvetica-Bold SRX
grestore

0.9 0.9 0.9 C
241.974 312.427 241.974 362.646 247.88 312.427 T
247.88 377.208 247.88 312.427 241.974 362.646 T
253.786 312.427 247.88 312.427 247.88 377.208 T
253.786 381.214 253.786 312.427 247.88 377.208 T
259.691 312.427 253.786 312.427 253.786 381.214 T
259.691 382.479 259.691 312.427 253.786 381.214 T
265.597 312.427 259.691 312.427 259.691 382.479 T
265.597 383.206 265.597 312.427 259.691 382.479 T
271.503 312.427 265.597 312.427 265.597 383.206 T
271.503 383.695 271.503 312.427 265.597 383.206 T
277.409 312.427 271.503 312.427 271.503 383.695 T
277.409 384.131 277.409 312.427 271.503 383.695 T
283.315 312.427 277.409 312.427 277.409 384.131 T
283.315 384.432 283.315 312.427 277.409 384.131 T
289.221 312.427 283.315 312.427 283.315 384.432 T
289.221 384.625 289.221 312.427 283.315 384.432 T
295.127 312.427 289.221 312.427 289.221 384.625 T
295.127 384.789 295.127 312.427 289.221 384.625 T
301.033 312.427 295.127 312.427 295.127 384.789 T
301.033 385.03 301.033 312.427 295.127 384.789 T
306.939 312.427 301.033 312.427 301.033 385.03 T
306.939 385.157 306.939 312.427 301.033 385.03 T
312.845 312.427 306.939 312.427 306.939 385.157 T
312.845 385.349 312.845 312.427 306.939 385.157 T
318.751 312.427 312.845 312.427 312.845 385.349 T
318.751 385.422 318.751 312.427 312.845 385.349 T
324.657 312.427 318.751 312.427 318.751 385.422 T
324.657 385.512 324.657 312.427 318.751 385.422 T
330.563 312.427 324.657 312.427 324.657 385.512 T
330.563 385.588 330.563 312.427 324.657 385.512 T
336.469 312.427 330.563 312.427 330.563 385.588 T
336.469 385.598 336.469 312.427 330.563 385.588 T
342.374 312.427 336.469 312.427 336.469 385.598 T
342.374 385.721 342.374 312.427 336.469 385.598 T
348.28 312.427 342.374 312.427 342.374 385.721 T
348.28 385.796 348.28 312.427 342.374 385.721 T
354.186 312.427 348.28 312.427 348.28 385.796 T
354.186 385.841 354.186 312.427 348.28 385.796 T
0 LC
[] 0 setdash
0 0 0 C
354.186 385.841 LS
348.28 385.796 L
342.374 385.721 L
336.469 385.598 L
330.563 385.588 L
324.657 385.512 L
318.751 385.422 L
312.845 385.349 L
306.939 385.157 L
301.033 385.03 L
295.127 384.789 L
289.221 384.625 L
283.315 384.432 L
277.409 384.131 L
271.503 383.695 L
265.597 383.206 L
259.691 382.479 L
253.786 381.214 L
247.88 377.208 L
241.974 362.646 L
241.974 312.427 L
247.88 312.427 L
253.786 312.427 L
259.691 312.427 L
265.597 312.427 L
271.503 312.427 L
277.409 312.427 L
283.315 312.427 L
289.221 312.427 L
295.127 312.427 L
301.033 312.427 L
306.939 312.427 L
312.845 312.427 L
318.751 312.427 L
324.657 312.427 L
330.563 312.427 L
336.469 312.427 L
342.374 312.427 L
348.28 312.427 L
354.186 312.427 L
354.186 385.841 LE
1 1 1 C
241.974 312.427 247.88 347.647 247.88 312.427 T
253.786 312.427 247.88 312.427 247.88 347.647 T
253.786 365.954 253.786 312.427 247.88 347.647 T
259.691 312.427 253.786 312.427 253.786 365.954 T
259.691 373.982 259.691 312.427 253.786 365.954 T
265.597 312.427 259.691 312.427 259.691 373.982 T
265.597 377.664 265.597 312.427 259.691 373.982 T
271.503 312.427 265.597 312.427 265.597 377.664 T
271.503 379.678 271.503 312.427 265.597 377.664 T
277.409 312.427 271.503 312.427 271.503 379.678 T
277.409 380.927 277.409 312.427 271.503 379.678 T
283.315 312.427 277.409 312.427 277.409 380.927 T
283.315 381.662 283.315 312.427 277.409 380.927 T
289.221 312.427 283.315 312.427 283.315 381.662 T
289.221 382.135 289.221 312.427 283.315 381.662 T
295.127 312.427 289.221 312.427 289.221 382.135 T
295.127 382.513 295.127 312.427 289.221 382.135 T
301.033 312.427 295.127 312.427 295.127 382.513 T
301.033 382.911 301.033 312.427 295.127 382.513 T
306.939 312.427 301.033 312.427 301.033 382.911 T
306.939 383.159 306.939 312.427 301.033 382.911 T
312.845 312.427 306.939 312.427 306.939 383.159 T
312.845 383.455 312.845 312.427 306.939 383.159 T
318.751 312.427 312.845 312.427 312.845 383.455 T
318.751 383.626 318.751 312.427 312.845 383.455 T
324.657 312.427 318.751 312.427 318.751 383.626 T
324.657 383.804 324.657 312.427 318.751 383.626 T
330.563 312.427 324.657 312.427 324.657 383.804 T
330.563 383.937 330.563 312.427 324.657 383.804 T
336.469 312.427 330.563 312.427 330.563 383.937 T
336.469 384.018 336.469 312.427 330.563 383.937 T
342.374 312.427 336.469 312.427 336.469 384.018 T
342.374 384.195 342.374 312.427 336.469 384.018 T
348.28 312.427 342.374 312.427 342.374 384.195 T
348.28 384.323 348.28 312.427 342.374 384.195 T
354.186 312.427 348.28 312.427 348.28 384.323 T
354.186 384.403 354.186 312.427 348.28 384.323 T
0 0 0 C
354.186 384.403 LS
348.28 384.323 L
342.374 384.195 L
336.469 384.018 L
330.563 383.937 L
324.657 383.804 L
318.751 383.626 L
312.845 383.455 L
306.939 383.159 L
301.033 382.911 L
295.127 382.513 L
289.221 382.135 L
283.315 381.662 L
277.409 380.927 L
271.503 379.678 L
265.597 377.664 L
259.691 373.982 L
253.786 365.954 L
247.88 347.647 L
241.974 312.427 L
247.88 312.427 L
253.786 312.427 L
259.691 312.427 L
265.597 312.427 L
271.503 312.427 L
277.409 312.427 L
283.315 312.427 L
289.221 312.427 L
295.127 312.427 L
301.033 312.427 L
306.939 312.427 L
312.845 312.427 L
318.751 312.427 L
324.657 312.427 L
330.563 312.427 L
336.469 312.427 L
342.374 312.427 L
348.28 312.427 L
354.186 312.427 L
354.186 384.403 LE
3 W
1 LJ
241.974 336.555 LS
247.88 362.721 L
253.786 373.793 L
259.691 378.434 L
265.597 380.655 L
271.503 381.866 L
277.409 382.607 L
283.315 383.108 L
289.221 383.477 L
295.127 383.765 L
301.033 384.001 L
306.939 384.201 L
312.845 384.374 L
318.751 384.526 L
324.657 384.661 L
330.563 384.783 L
336.469 384.892 L
342.374 384.992 L
348.28 385.084 L
354.186 385.168 LE
grestore
gsave
1.0 1.0 scale
newpath 0 0 moveto 576 0 lineto 576 432 lineto 0 432 lineto
closepath clip
1 1 1 C
409.067 385.841 521.28 312.427 409.067 312.427 T
409.067 385.841 521.28 385.841 521.28 312.427 T
0.5 W
0.15 0.15 0.15 C
432.691 312.427 LS
432.691 313.556 LE
432.691 385.841 LS
432.691 384.712 LE
462.221 312.427 LS
462.221 313.556 LE
462.221 385.841 LS
462.221 384.712 LE
491.75 312.427 LS
491.75 313.556 LE
491.75 385.841 LS
491.75 384.712 LE
521.28 312.427 LS
521.28 313.556 LE
521.28 385.841 LS
521.28 384.712 LE
gsave
0.14902 0.14902 0.14902 C
(5) [10] 0 429.691 296.885 10 /Helvetica SRX
grestore

gsave
0.14902 0.14902 0.14902 C
(10) [6 10] 0 456.221 296.885 10 /Helvetica SRX
grestore

gsave
0.14902 0.14902 0.14902 C
(15) [6 10] 0 485.75 296.885 10 /Helvetica SRX
grestore

gsave
0.14902 0.14902 0.14902 C
(20) [6 10] 0 515.28 296.885 10 /Helvetica SRX
grestore

409.067 316.938 LS
410.192 316.938 LE
521.28 316.938 LS
520.156 316.938 LE
409.067 335.202 LS
410.192 335.202 LE
521.28 335.202 LS
520.156 335.202 LE
409.067 353.467 LS
410.192 353.467 LE
521.28 353.467 LS
520.156 353.467 LE
409.067 371.732 LS
410.192 371.732 LE
521.28 371.732 LS
520.156 371.732 LE
gsave
0.14902 0.14902 0.14902 C
(-0.008) [3 6 3 6 6 10] 0 374.058 312.938 10 /Helvetica SRX
grestore

gsave
0.14902 0.14902 0.14902 C
(-0.006) [3 6 3 6 6 10] 0 374.058 331.202 10 /Helvetica SRX
grestore

gsave
0.14902 0.14902 0.14902 C
(-0.004) [3 6 3 6 6 10] 0 374.058 349.467 10 /Helvetica SRX
grestore

gsave
0.14902 0.14902 0.14902 C
(-0.002) [3 6 3 6 6 10] 0 374.058 367.732 10 /Helvetica SRX
grestore

2 LC
[16 0] 0 setdash
409.067 312.427 LS
521.28 312.427 LE
409.067 385.841 LS
521.28 385.841 LE
409.067 312.427 LS
409.067 385.841 LE
521.28 312.427 LS
521.28 385.841 LE
gsave
0 0 0 C
(C_hat) [8 6 7 6 10] 0 449.674 397.841 11 /Helvetica-Bold SRX
grestore

0.9 0.9 0.9 C
409.067 312.427 409.067 359.697 414.973 312.427 T
414.973 372.598 414.973 312.427 409.067 359.697 T
420.879 312.427 414.973 312.427 414.973 372.598 T
420.879 378.555 420.879 312.427 414.973 372.598 T
426.785 312.427 420.879 312.427 420.879 378.555 T
426.785 381.743 426.785 312.427 420.879 378.555 T
432.691 312.427 426.785 312.427 426.785 381.743 T
432.691 383.494 432.691 312.427 426.785 381.743 T
438.597 312.427 432.691 312.427 432.691 383.494 T
438.597 384.215 438.597 312.427 432.691 383.494 T
444.503 312.427 438.597 312.427 438.597 384.215 T
444.503 384.819 444.503 312.427 438.597 384.215 T
450.409 312.427 444.503 312.427 444.503 384.819 T
450.409 385.11 450.409 312.427 444.503 384.819 T
456.315 312.427 450.409 312.427 450.409 385.11 T
456.315 385.355 456.315 312.427 450.409 385.11 T
462.221 312.427 456.315 312.427 456.315 385.355 T
462.221 385.499 462.221 312.427 456.315 385.355 T
468.127 312.427 462.221 312.427 462.221 385.499 T
468.127 385.562 468.127 312.427 462.221 385.499 T
474.033 312.427 468.127 312.427 468.127 385.562 T
474.033 385.563 474.033 312.427 468.127 385.562 T
479.939 312.427 474.033 312.427 474.033 385.563 T
479.939 385.596 479.939 312.427 474.033 385.563 T
485.844 312.427 479.939 312.427 479.939 385.596 T
485.844 385.641 485.844 312.427 479.939 385.596 T
491.75 312.427 485.844 312.427 485.844 385.641 T
491.75 385.66 491.75 312.427 485.844 385.641 T
497.656 312.427 491.75 312.427 491.75 385.66 T
497.656 385.691 497.656 312.427 491.75 385.66 T
503.562 312.427 497.656 312.427 497.656 385.691 T
503.562 385.753 503.562 312.427 497.656 385.691 T
509.468 312.427 503.562 312.427 503.562 385.753 T
509.468 385.763 509.468 312.427 503.562 385.753 T
515.374 312.427 509.468 312.427 509.468 385.763 T
515.374 385.799 515.374 312.427 509.468 385.763 T
521.28 312.427 515.374 312.427 515.374 385.799 T
521.28 385.841 521.28 312.427 515.374 385.799 T
0 LC
[] 0 setdash
0 0 0 C
521.28 385.841 LS
515.374 385.799 L
509.468 385.763 L
503.562 385.753 L
497.656 385.691 L
491.75 385.66 L
485.844 385.641 L
479.939 385.596 L
474.033 385.563 L
468.127 385.562 L
462.221 385.499 L
456.315 385.355 L
450.409 385.11 L
444.503 384.819 L
438.597 384.215 L
432.691 383.494 L
426.785 381.743 L
420.879 378.555 L
414.973 372.598 L
409.067 359.697 L
409.067 312.427 L
414.973 312.427 L
420.879 312.427 L
426.785 312.427 L
432.691 312.427 L
438.597 312.427 L
444.503 312.427 L
450.409 312.427 L
456.315 312.427 L
462.221 312.427 L
468.127 312.427 L
474.033 312.427 L
479.939 312.427 L
485.844 312.427 L
491.75 312.427 L
497.656 312.427 L
503.562 312.427 L
509.468 312.427 L
515.374 312.427 L
521.28 312.427 L
521.28 385.841 LE
1 1 1 C
409.067 312.427 414.973 338.177 414.973 312.427 T
420.879 312.427 414.973 312.427 414.973 338.177 T
420.879 359.016 420.879 312.427 414.973 338.177 T
426.785 312.427 420.879 312.427 420.879 359.016 T
426.785 370.859 426.785 312.427 420.879 359.016 T
432.691 312.427 426.785 312.427 426.785 370.859 T
432.691 376.831 432.691 312.427 426.785 370.859 T
438.597 312.427 432.691 312.427 432.691 376.831 T
438.597 379.7 438.597 312.427 432.691 376.831 T
444.503 312.427 438.597 312.427 438.597 379.7 T
444.503 381.487 444.503 312.427 438.597 379.7 T
450.409 312.427 444.503 312.427 444.503 381.487 T
450.409 382.369 450.409 312.427 444.503 381.487 T
456.315 312.427 450.409 312.427 450.409 382.369 T
456.315 382.966 456.315 312.427 450.409 382.369 T
462.221 312.427 456.315 312.427 456.315 382.966 T
462.221 383.333 462.221 312.427 456.315 382.966 T
468.127 312.427 462.221 312.427 462.221 383.333 T
468.127 383.538 468.127 312.427 462.221 383.333 T
474.033 312.427 468.127 312.427 468.127 383.538 T
474.033 383.64 474.033 312.427 468.127 383.538 T
479.939 312.427 474.033 312.427 474.033 383.64 T
479.939 383.762 479.939 312.427 474.033 383.64 T
485.844 312.427 479.939 312.427 479.939 383.762 T
485.844 383.872 485.844 312.427 479.939 383.762 T
491.75 312.427 485.844 312.427 485.844 383.872 T
491.75 383.937 491.75 312.427 485.844 383.872 T
497.656 312.427 491.75 312.427 491.75 383.937 T
497.656 384 497.656 312.427 491.75 383.937 T
503.562 312.427 497.656 312.427 497.656 384 T
503.562 384.075 503.562 312.427 497.656 384 T
509.468 312.427 503.562 312.427 503.562 384.075 T
509.468 384.115 509.468 312.427 503.562 384.075 T
515.374 312.427 509.468 312.427 509.468 384.115 T
515.374 384.166 515.374 312.427 509.468 384.115 T
521.28 312.427 515.374 312.427 515.374 384.166 T
521.28 384.22 521.28 312.427 515.374 384.166 T
0 0 0 C
521.28 384.22 LS
515.374 384.166 L
509.468 384.115 L
503.562 384.075 L
497.656 384 L
491.75 383.937 L
485.844 383.872 L
479.939 383.762 L
474.033 383.64 L
468.127 383.538 L
462.221 383.333 L
456.315 382.966 L
450.409 382.369 L
444.503 381.487 L
438.597 379.7 L
432.691 376.831 L
426.785 370.859 L
420.879 359.016 L
414.973 338.177 L
409.067 312.427 L
414.973 312.427 L
420.879 312.427 L
426.785 312.427 L
432.691 312.427 L
438.597 312.427 L
444.503 312.427 L
450.409 312.427 L
456.315 312.427 L
462.221 312.427 L
468.127 312.427 L
474.033 312.427 L
479.939 312.427 L
485.844 312.427 L
491.75 312.427 L
497.656 312.427 L
503.562 312.427 L
509.468 312.427 L
515.374 312.427 L
521.28 312.427 L
521.28 384.22 LE
3 W
1 LJ
409.067 334.953 LS
414.973 355.791 L
420.879 369.392 L
426.785 376.549 L
432.691 380.249 L
438.597 382.187 L
444.503 383.229 L
450.409 383.81 L
456.315 384.15 L
462.221 384.363 L
468.127 384.506 L
474.033 384.61 L
479.939 384.692 L
485.844 384.76 L
491.75 384.82 L
497.656 384.875 L
503.562 384.926 L
509.468 384.974 L
515.374 385.02 L
521.28 385.065 LE
grestore
gsave
1.0 1.0 scale
newpath 0 0 moveto 576 0 lineto 576 432 lineto 0 432 lineto
closepath clip
1 1 1 C
74.88 253.387 187.093 179.974 74.88 179.974 T
74.88 253.387 187.093 253.387 187.093 179.974 T
0.5 W
0.15 0.15 0.15 C
98.5037 179.974 LS
98.5037 181.102 LE
98.5037 253.387 LS
98.5037 252.258 LE
128.033 179.974 LS
128.033 181.102 LE
128.033 253.387 LS
128.033 252.258 LE
157.563 179.974 LS
157.563 181.102 LE
157.563 253.387 LS
157.563 252.258 LE
187.093 179.974 LS
187.093 181.102 LE
187.093 253.387 LS
187.093 252.258 LE
gsave
0.14902 0.14902 0.14902 C
(5) [10] 0 95.5037 164.431 10 /Helvetica SRX
grestore

gsave
0.14902 0.14902 0.14902 C
(10) [6 10] 0 122.033 164.431 10 /Helvetica SRX
grestore

gsave
0.14902 0.14902 0.14902 C
(15) [6 10] 0 151.563 164.431 10 /Helvetica SRX
grestore

gsave
0.14902 0.14902 0.14902 C
(20) [6 10] 0 181.093 164.431 10 /Helvetica SRX
grestore

74.88 191.149 LS
76.0043 191.149 LE
187.093 191.149 LS
185.968 191.149 LE
74.88 205.726 LS
76.0043 205.726 LE
187.093 205.726 LS
185.968 205.726 LE
74.88 220.303 LS
76.0043 220.303 LE
187.093 220.303 LS
185.968 220.303 LE
74.88 234.88 LS
76.0043 234.88 LE
187.093 234.88 LS
185.968 234.88 LE
74.88 249.457 LS
76.0043 249.457 LE
187.093 249.457 LS
185.968 249.457 LE
gsave
0.14902 0.14902 0.14902 C
(-0.08) [3 6 3 6 10] 0 45.8705 187.149 10 /Helvetica SRX
grestore

gsave
0.14902 0.14902 0.14902 C
(-0.06) [3 6 3 6 10] 0 45.8705 201.726 10 /Helvetica SRX
grestore

gsave
0.14902 0.14902 0.14902 C
(-0.04) [3 6 3 6 10] 0 45.8705 216.303 10 /Helvetica SRX
grestore

gsave
0.14902 0.14902 0.14902 C
(-0.02) [3 6 3 6 10] 0 45.8705 230.88 10 /Helvetica SRX
grestore

gsave
0.14902 0.14902 0.14902 C
(0) [10] 0 63.8705 245.457 10 /Helvetica SRX
grestore

2 LC
[16 0] 0 setdash
74.88 179.974 LS
187.093 179.974 LE
74.88 253.387 LS
187.093 253.387 LE
74.88 179.974 LS
74.88 253.387 LE
187.093 179.974 LS
187.093 253.387 LE
gsave
0 0 0 C
(I_hat) [3 6 7 6 10] 0 117.986 265.387 11 /Helvetica-Bold SRX
grestore

0.9 0.9 0.9 C
74.88 179.974 74.88 197.32 80.7859 179.974 T
80.7859 251.364 80.7859 179.974 74.88 197.32 T
86.6918 179.974 80.7859 179.974 80.7859 251.364 T
86.6918 252.888 86.6918 179.974 80.7859 251.364 T
92.5978 179.974 86.6918 179.974 86.6918 252.888 T
92.5978 253.249 92.5978 179.974 86.6918 252.888 T
98.5037 179.974 92.5978 179.974 92.5978 253.249 T
98.5037 253.387 98.5037 179.974 92.5978 253.249 T
104.41 179.974 98.5037 179.974 98.5037 253.387 T
104.41 253.01 104.41 179.974 98.5037 253.387 T
110.316 179.974 104.41 179.974 104.41 253.01 T
110.316 252.422 110.316 179.974 104.41 253.01 T
116.221 179.974 110.316 179.974 110.316 252.422 T
116.221 251.905 116.221 179.974 110.316 252.422 T
122.127 179.974 116.221 179.974 116.221 251.905 T
122.127 251.481 122.127 179.974 116.221 251.905 T
128.033 179.974 122.127 179.974 122.127 251.481 T
128.033 251.16 128.033 179.974 122.127 251.481 T
133.939 179.974 128.033 179.974 128.033 251.16 T
133.939 250.895 133.939 179.974 128.033 251.16 T
139.845 179.974 133.939 179.974 133.939 250.895 T
139.845 250.607 139.845 179.974 133.939 250.895 T
145.751 179.974 139.845 179.974 139.845 250.607 T
145.751 250.394 145.751 179.974 139.845 250.607 T
151.657 179.974 145.751 179.974 145.751 250.394 T
151.657 250.237 151.657 179.974 145.751 250.394 T
157.563 179.974 151.657 179.974 151.657 250.237 T
157.563 250.084 157.563 179.974 151.657 250.237 T
163.469 179.974 157.563 179.974 157.563 250.084 T
163.469 249.939 163.469 179.974 157.563 250.084 T
169.375 179.974 163.469 179.974 163.469 249.939 T
169.375 249.827 169.375 179.974 163.469 249.939 T
175.281 179.974 169.375 179.974 169.375 249.827 T
175.281 249.736 175.281 179.974 169.375 249.827 T
181.187 179.974 175.281 179.974 175.281 249.736 T
181.187 249.665 181.187 179.974 175.281 249.736 T
187.093 179.974 181.187 179.974 181.187 249.665 T
187.093 249.594 187.093 179.974 181.187 249.665 T
0 LC
[] 0 setdash
0 0 0 C
187.093 249.594 LS
181.187 249.665 L
175.281 249.736 L
169.375 249.827 L
163.469 249.939 L
157.563 250.084 L
151.657 250.237 L
145.751 250.394 L
139.845 250.607 L
133.939 250.895 L
128.033 251.16 L
122.127 251.481 L
116.221 251.905 L
110.316 252.422 L
104.41 253.01 L
98.5037 253.387 L
92.5978 253.249 L
86.6918 252.888 L
80.7859 251.364 L
74.88 197.32 L
74.88 179.974 L
80.7859 179.974 L
86.6918 179.974 L
92.5978 179.974 L
98.5037 179.974 L
104.41 179.974 L
110.316 179.974 L
116.221 179.974 L
122.127 179.974 L
128.033 179.974 L
133.939 179.974 L
139.845 179.974 L
145.751 179.974 L
151.657 179.974 L
157.563 179.974 L
163.469 179.974 L
169.375 179.974 L
175.281 179.974 L
181.187 179.974 L
187.093 179.974 L
187.093 249.594 LE
1 1 1 C
74.88 179.974 80.7859 235.691 80.7859 179.974 T
86.6918 179.974 80.7859 179.974 80.7859 235.691 T
86.6918 249.417 86.6918 179.974 80.7859 235.691 T
92.5978 179.974 86.6918 179.974 86.6918 249.417 T
92.5978 251.262 92.5978 179.974 86.6918 249.417 T
98.5037 179.974 92.5978 179.974 92.5978 251.262 T
98.5037 250.99 98.5037 179.974 92.5978 251.262 T
104.41 179.974 98.5037 179.974 98.5037 250.99 T
104.41 250.755 104.41 179.974 98.5037 250.99 T
110.316 179.974 104.41 179.974 104.41 250.755 T
110.316 250.502 110.316 179.974 104.41 250.755 T
116.221 179.974 110.316 179.974 110.316 250.502 T
116.221 250.322 116.221 179.974 110.316 250.502 T
122.127 179.974 116.221 179.974 116.221 250.322 T
122.127 250.105 122.127 179.974 116.221 250.322 T
128.033 179.974 122.127 179.974 122.127 250.105 T
128.033 249.976 128.033 179.974 122.127 250.105 T
133.939 179.974 128.033 179.974 128.033 249.976 T
133.939 249.853 133.939 179.974 128.033 249.976 T
139.845 179.974 133.939 179.974 133.939 249.853 T
139.845 249.688 139.845 179.974 133.939 249.853 T
145.751 179.974 139.845 179.974 139.845 249.688 T
145.751 249.582 145.751 179.974 139.845 249.688 T
151.657 179.974 145.751 179.974 145.751 249.582 T
151.657 249.52 151.657 179.974 145.751 249.582 T
157.563 179.974 151.657 179.974 151.657 249.52 T
157.563 249.455 157.563 179.974 151.657 249.52 T
163.469 179.974 157.563 179.974 157.563 249.455 T
163.469 249.371 163.469 179.974 157.563 249.455 T
169.375 179.974 163.469 179.974 163.469 249.371 T
169.375 249.313 169.375 179.974 163.469 249.371 T
175.281 179.974 169.375 179.974 169.375 249.313 T
175.281 249.273 175.281 179.974 169.375 249.313 T
181.187 179.974 175.281 179.974 175.281 249.273 T
181.187 249.24 181.187 179.974 175.281 249.273 T
187.093 179.974 181.187 179.974 181.187 249.24 T
187.093 249.203 187.093 179.974 181.187 249.24 T
0 0 0 C
187.093 249.203 LS
181.187 249.24 L
175.281 249.273 L
169.375 249.313 L
163.469 249.371 L
157.563 249.455 L
151.657 249.52 L
145.751 249.582 L
139.845 249.688 L
133.939 249.853 L
128.033 249.976 L
122.127 250.105 L
116.221 250.322 L
110.316 250.502 L
104.41 250.755 L
98.5037 250.99 L
92.5978 251.262 L
86.6918 249.417 L
80.7859 235.691 L
74.88 179.974 L
80.7859 179.974 L
86.6918 179.974 L
92.5978 179.974 L
98.5037 179.974 L
104.41 179.974 L
110.316 179.974 L
116.221 179.974 L
122.127 179.974 L
128.033 179.974 L
133.939 179.974 L
139.845 179.974 L
145.751 179.974 L
151.657 179.974 L
157.563 179.974 L
163.469 179.974 L
169.375 179.974 L
175.281 179.974 L
181.187 179.974 L
187.093 179.974 L
187.093 249.203 LE
3 W
1 LJ
74.88 188.95 LS
80.7859 242.997 L
86.6918 251.135 L
92.5978 252.295 L
98.5037 252.178 L
104.41 251.824 L
110.316 251.455 L
116.221 251.119 L
122.127 250.826 L
128.033 250.573 L
133.939 250.356 L
139.845 250.17 L
145.751 250.012 L
151.657 249.876 L
157.563 249.761 L
163.469 249.662 L
169.375 249.578 L
175.281 249.506 L
181.187 249.445 L
187.093 249.393 LE
grestore
gsave
1.0 1.0 scale
newpath 0 0 moveto 576 0 lineto 576 432 lineto 0 432 lineto
closepath clip
1 1 1 C
241.974 253.387 354.186 179.974 241.974 179.974 T
241.974 253.387 354.186 253.387 354.186 179.974 T
0.5 W
0.15 0.15 0.15 C
265.597 179.974 LS
265.597 181.102 LE
265.597 253.387 LS
265.597 252.258 LE
295.127 179.974 LS
295.127 181.102 LE
295.127 253.387 LS
295.127 252.258 LE
324.657 179.974 LS
324.657 181.102 LE
324.657 253.387 LS
324.657 252.258 LE
354.186 179.974 LS
354.186 181.102 LE
354.186 253.387 LS
354.186 252.258 LE
gsave
0.14902 0.14902 0.14902 C
(5) [10] 0 262.597 164.431 10 /Helvetica SRX
grestore

gsave
0.14902 0.14902 0.14902 C
(10) [6 10] 0 289.127 164.431 10 /Helvetica SRX
grestore

gsave
0.14902 0.14902 0.14902 C
(15) [6 10] 0 318.657 164.431 10 /Helvetica SRX
grestore

gsave
0.14902 0.14902 0.14902 C
(20) [6 10] 0 348.186 164.431 10 /Helvetica SRX
grestore

241.974 186.553 LS
243.098 186.553 LE
354.186 186.553 LS
353.062 186.553 LE
241.974 203.926 LS
243.098 203.926 LE
354.186 203.926 LS
353.062 203.926 LE
241.974 221.299 LS
243.098 221.299 LE
354.186 221.299 LS
353.062 221.299 LE
241.974 238.672 LS
243.098 238.672 LE
354.186 238.672 LS
353.062 238.672 LE
gsave
0.14902 0.14902 0.14902 C
(-0.008) [3 6 3 6 6 10] 0 206.964 182.553 10 /Helvetica SRX
grestore

gsave
0.14902 0.14902 0.14902 C
(-0.006) [3 6 3 6 6 10] 0 206.964 199.926 10 /Helvetica SRX
grestore

gsave
0.14902 0.14902 0.14902 C
(-0.004) [3 6 3 6 6 10] 0 206.964 217.299 10 /Helvetica SRX
grestore

gsave
0.14902 0.14902 0.14902 C
(-0.002) [3 6 3 6 6 10] 0 206.964 234.672 10 /Helvetica SRX
grestore

2 LC
[16 0] 0 setdash
241.974 179.974 LS
354.186 179.974 LE
241.974 253.387 LS
354.186 253.387 LE
241.974 179.974 LS
241.974 253.387 LE
354.186 179.974 LS
354.186 253.387 LE
gsave
0 0 0 C
(L_hat) [7 6 7 6 10] 0 283.08 265.387 11 /Helvetica-Bold SRX
grestore

0.9 0.9 0.9 C
241.974 179.974 241.974 236.007 247.88 179.974 T
247.88 241.265 247.88 179.974 241.974 236.007 T
253.786 179.974 247.88 179.974 247.88 241.265 T
253.786 245.83 253.786 179.974 247.88 241.265 T
259.691 179.974 253.786 179.974 253.786 245.83 T
259.691 248.87 259.691 179.974 253.786 245.83 T
265.597 179.974 259.691 179.974 259.691 248.87 T
265.597 250.203 265.597 179.974 259.691 248.87 T
271.503 179.974 265.597 179.974 265.597 250.203 T
271.503 251.361 271.503 179.974 265.597 250.203 T
277.409 179.974 271.503 179.974 271.503 251.361 T
277.409 251.852 277.409 179.974 271.503 251.361 T
283.315 179.974 277.409 179.974 277.409 251.852 T
283.315 252.28 283.315 179.974 277.409 251.852 T
289.221 179.974 283.315 179.974 283.315 252.28 T
289.221 252.588 289.221 179.974 283.315 252.28 T
295.127 179.974 289.221 179.974 289.221 252.588 T
295.127 252.624 295.127 179.974 289.221 252.588 T
301.033 179.974 295.127 179.974 295.127 252.624 T
301.033 252.777 301.033 179.974 295.127 252.624 T
306.939 179.974 301.033 179.974 301.033 252.777 T
306.939 252.9 306.939 179.974 301.033 252.777 T
312.845 179.974 306.939 179.974 306.939 252.9 T
312.845 253.015 312.845 179.974 306.939 252.9 T
318.751 179.974 312.845 179.974 312.845 253.015 T
318.751 253.152 318.751 179.974 312.845 253.015 T
324.657 179.974 318.751 179.974 318.751 253.152 T
324.657 253.187 324.657 179.974 318.751 253.152 T
330.563 179.974 324.657 179.974 324.657 253.187 T
330.563 253.25 330.563 179.974 324.657 253.187 T
336.469 179.974 330.563 179.974 330.563 253.25 T
336.469 253.286 336.469 179.974 330.563 253.25 T
342.374 179.974 336.469 179.974 336.469 253.286 T
342.374 253.34 342.374 179.974 336.469 253.286 T
348.28 179.974 342.374 179.974 342.374 253.34 T
348.28 253.353 348.28 179.974 342.374 253.34 T
354.186 179.974 348.28 179.974 348.28 253.353 T
354.186 253.387 354.186 179.974 348.28 253.353 T
0 LC
[] 0 setdash
0 0 0 C
354.186 253.387 LS
348.28 253.353 L
342.374 253.34 L
336.469 253.286 L
330.563 253.25 L
324.657 253.187 L
318.751 253.152 L
312.845 253.015 L
306.939 252.9 L
301.033 252.777 L
295.127 252.624 L
289.221 252.588 L
283.315 252.28 L
277.409 251.852 L
271.503 251.361 L
265.597 250.203 L
259.691 248.87 L
253.786 245.83 L
247.88 241.265 L
241.974 236.007 L
241.974 179.974 L
247.88 179.974 L
253.786 179.974 L
259.691 179.974 L
265.597 179.974 L
271.503 179.974 L
277.409 179.974 L
283.315 179.974 L
289.221 179.974 L
295.127 179.974 L
301.033 179.974 L
306.939 179.974 L
312.845 179.974 L
318.751 179.974 L
324.657 179.974 L
330.563 179.974 L
336.469 179.974 L
342.374 179.974 L
348.28 179.974 L
354.186 179.974 L
354.186 253.387 LE
1 1 1 C
241.974 179.974 247.88 206.73 247.88 179.974 T
253.786 179.974 247.88 179.974 247.88 206.73 T
253.786 226.788 253.786 179.974 247.88 206.73 T
259.691 179.974 253.786 179.974 253.786 226.788 T
259.691 237.984 259.691 179.974 253.786 226.788 T
265.597 179.974 259.691 179.974 259.691 237.984 T
265.597 243.47 265.597 179.974 259.691 237.984 T
271.503 179.974 265.597 179.974 265.597 243.47 T
271.503 246.754 271.503 179.974 265.597 243.47 T
277.409 179.974 271.503 179.974 271.503 246.754 T
277.409 248.479 277.409 179.974 271.503 246.754 T
283.315 179.974 277.409 179.974 277.409 248.479 T
283.315 249.545 283.315 179.974 277.409 248.479 T
289.221 179.974 283.315 179.974 283.315 249.545 T
289.221 250.252 289.221 179.974 283.315 249.545 T
295.127 179.974 289.221 179.974 289.221 250.252 T
295.127 250.579 295.127 179.974 289.221 250.252 T
301.033 179.974 295.127 179.974 295.127 250.579 T
301.033 250.934 301.033 179.974 295.127 250.579 T
306.939 179.974 301.033 179.974 301.033 250.934 T
306.939 251.208 306.939 179.974 301.033 250.934 T
312.845 179.974 306.939 179.974 306.939 251.208 T
312.845 251.42 312.845 179.974 306.939 251.208 T
318.751 179.974 312.845 179.974 312.845 251.42 T
318.751 251.646 318.751 179.974 312.845 251.42 T
324.657 179.974 318.751 179.974 318.751 251.646 T
324.657 251.783 324.657 179.974 318.751 251.646 T
330.563 179.974 324.657 179.974 324.657 251.783 T
330.563 251.919 330.563 179.974 324.657 251.783 T
336.469 179.974 330.563 179.974 330.563 251.919 T
336.469 252.016 336.469 179.974 330.563 251.919 T
342.374 179.974 336.469 179.974 336.469 252.016 T
342.374 252.113 342.374 179.974 336.469 252.016 T
348.28 179.974 342.374 179.974 342.374 252.113 T
348.28 252.167 348.28 179.974 342.374 252.113 T
354.186 179.974 348.28 179.974 348.28 252.167 T
354.186 252.24 354.186 179.974 348.28 252.167 T
0 0 0 C
354.186 252.24 LS
348.28 252.167 L
342.374 252.113 L
336.469 252.016 L
330.563 251.919 L
324.657 251.783 L
318.751 251.646 L
312.845 251.42 L
306.939 251.208 L
301.033 250.934 L
295.127 250.579 L
289.221 250.252 L
283.315 249.545 L
277.409 248.479 L
271.503 246.754 L
265.597 243.47 L
259.691 237.984 L
253.786 226.788 L
247.88 206.73 L
241.974 179.974 L
247.88 179.974 L
253.786 179.974 L
259.691 179.974 L
265.597 179.974 L
271.503 179.974 L
277.409 179.974 L
283.315 179.974 L
289.221 179.974 L
295.127 179.974 L
301.033 179.974 L
306.939 179.974 L
312.845 179.974 L
318.751 179.974 L
324.657 179.974 L
330.563 179.974 L
336.469 179.974 L
342.374 179.974 L
348.28 179.974 L
354.186 179.974 L
354.186 252.24 LE
3 W
1 LJ
241.974 208.357 LS
247.88 224.526 L
253.786 236.689 L
259.691 243.427 L
265.597 247.054 L
271.503 249.055 L
277.409 250.209 L
283.315 250.914 L
289.221 251.372 L
295.127 251.691 L
301.033 251.926 L
306.939 252.108 L
312.845 252.256 L
318.751 252.378 L
324.657 252.483 L
330.563 252.574 L
336.469 252.653 L
342.374 252.724 L
348.28 252.787 L
354.186 252.844 LE
grestore
gsave
1.0 1.0 scale
newpath 0 0 moveto 576 0 lineto 576 432 lineto 0 432 lineto
closepath clip
1 1 1 C
409.067 253.387 521.28 179.974 409.067 179.974 T
409.067 253.387 521.28 253.387 521.28 179.974 T
0.5 W
0.15 0.15 0.15 C
432.691 179.974 LS
432.691 181.102 LE
432.691 253.387 LS
432.691 252.258 LE
462.221 179.974 LS
462.221 181.102 LE
462.221 253.387 LS
462.221 252.258 LE
491.75 179.974 LS
491.75 181.102 LE
491.75 253.387 LS
491.75 252.258 LE
521.28 179.974 LS
521.28 181.102 LE
521.28 253.387 LS
521.28 252.258 LE
gsave
0.14902 0.14902 0.14902 C
(5) [10] 0 429.691 164.431 10 /Helvetica SRX
grestore

gsave
0.14902 0.14902 0.14902 C
(10) [6 10] 0 456.221 164.431 10 /Helvetica SRX
grestore

gsave
0.14902 0.14902 0.14902 C
(15) [6 10] 0 485.75 164.431 10 /Helvetica SRX
grestore

gsave
0.14902 0.14902 0.14902 C
(20) [6 10] 0 515.28 164.431 10 /Helvetica SRX
grestore

409.067 185.867 LS
410.192 185.867 LE
521.28 185.867 LS
520.156 185.867 LE
409.067 203.914 LS
410.192 203.914 LE
521.28 203.914 LS
520.156 203.914 LE
409.067 221.961 LS
410.192 221.961 LE
521.28 221.961 LS
520.156 221.961 LE
409.067 240.008 LS
410.192 240.008 LE
521.28 240.008 LS
520.156 240.008 LE
gsave
0.14902 0.14902 0.14902 C
(0) [10] 0 398.058 181.867 10 /Helvetica SRX
grestore

gsave
0.14902 0.14902 0.14902 C
(0.005) [6 3 6 6 10] 0 377.058 199.914 10 /Helvetica SRX
grestore

gsave
0.14902 0.14902 0.14902 C
(0.01) [6 3 6 10] 0 383.058 217.961 10 /Helvetica SRX
grestore

gsave
0.14902 0.14902 0.14902 C
(0.015) [6 3 6 6 10] 0 377.058 236.008 10 /Helvetica SRX
grestore

2 LC
[16 0] 0 setdash
409.067 179.974 LS
521.28 179.974 LE
409.067 253.387 LS
521.28 253.387 LE
409.067 179.974 LS
409.067 253.387 LE
521.28 179.974 LS
521.28 253.387 LE
gsave
0 0 0 C
(tb_y_hat) [4 7 6 6 6 7 6 10] 0 442.174 266.387 11 /Helvetica-Bold SRX
grestore

0.9 0.9 0.9 C
409.067 179.974 409.067 253.387 414.973 179.974 T
414.973 197.931 414.973 179.974 409.067 253.387 T
420.879 179.974 414.973 179.974 414.973 197.931 T
420.879 184.032 420.879 179.974 414.973 197.931 T
426.785 179.974 420.879 179.974 420.879 184.032 T
426.785 182.767 426.785 179.974 420.879 184.032 T
432.691 179.974 426.785 179.974 426.785 182.767 T
432.691 183.305 432.691 179.974 426.785 182.767 T
438.597 179.974 432.691 179.974 432.691 183.305 T
438.597 183.574 438.597 179.974 432.691 183.305 T
444.503 179.974 438.597 179.974 438.597 183.574 T
444.503 183.949 444.503 179.974 438.597 183.574 T
450.409 179.974 444.503 179.974 444.503 183.949 T
450.409 184.259 450.409 179.974 444.503 183.949 T
456.315 179.974 450.409 179.974 450.409 184.259 T
456.315 184.538 456.315 179.974 450.409 184.259 T
462.221 179.974 456.315 179.974 456.315 184.538 T
462.221 184.773 462.221 179.974 456.315 184.538 T
468.127 179.974 462.221 179.974 462.221 184.773 T
468.127 184.882 468.127 179.974 462.221 184.773 T
474.033 179.974 468.127 179.974 468.127 184.882 T
474.033 185.081 474.033 179.974 468.127 184.882 T
479.939 179.974 474.033 179.974 474.033 185.081 T
479.939 185.237 479.939 179.974 474.033 185.081 T
485.844 179.974 479.939 179.974 479.939 185.237 T
485.844 185.305 485.844 179.974 479.939 185.237 T
491.75 179.974 485.844 179.974 485.844 185.305 T
491.75 185.418 491.75 179.974 485.844 185.305 T
497.656 179.974 491.75 179.974 491.75 185.418 T
497.656 185.488 497.656 179.974 491.75 185.418 T
503.562 179.974 497.656 179.974 497.656 185.488 T
503.562 185.567 503.562 179.974 497.656 185.488 T
509.468 179.974 503.562 179.974 503.562 185.567 T
509.468 185.667 509.468 179.974 503.562 185.567 T
515.374 179.974 509.468 179.974 509.468 185.667 T
515.374 185.711 515.374 179.974 509.468 185.667 T
521.28 179.974 515.374 179.974 515.374 185.711 T
521.28 185.75 521.28 179.974 515.374 185.711 T
0 LC
[] 0 setdash
0 0 0 C
521.28 185.75 LS
515.374 185.711 L
509.468 185.667 L
503.562 185.567 L
497.656 185.488 L
491.75 185.418 L
485.844 185.305 L
479.939 185.237 L
474.033 185.081 L
468.127 184.882 L
462.221 184.773 L
456.315 184.538 L
450.409 184.259 L
444.503 183.949 L
438.597 183.574 L
432.691 183.305 L
426.785 182.767 L
420.879 184.032 L
414.973 197.931 L
409.067 253.387 L
409.067 179.974 L
414.973 179.974 L
420.879 179.974 L
426.785 179.974 L
432.691 179.974 L
438.597 179.974 L
444.503 179.974 L
450.409 179.974 L
456.315 179.974 L
462.221 179.974 L
468.127 179.974 L
474.033 179.974 L
479.939 179.974 L
485.844 179.974 L
491.75 179.974 L
497.656 179.974 L
503.562 179.974 L
509.468 179.974 L
515.374 179.974 L
521.28 179.974 L
521.28 185.75 LE
1 1 1 C
432.691 179.974 438.597 180.482 438.597 179.974 T
444.503 179.974 438.597 179.974 438.597 180.482 T
444.503 181.288 444.503 179.974 438.597 180.482 T
450.409 179.974 444.503 179.974 444.503 181.288 T
450.409 181.925 450.409 179.974 444.503 181.288 T
456.315 179.974 450.409 179.974 450.409 181.925 T
456.315 182.462 456.315 179.974 450.409 181.925 T
462.221 179.974 456.315 179.974 456.315 182.462 T
462.221 182.93 462.221 179.974 456.315 182.462 T
468.127 179.974 462.221 179.974 462.221 182.93 T
468.127 183.247 468.127 179.974 462.221 182.93 T
474.033 179.974 468.127 179.974 468.127 183.247 T
474.033 183.667 474.033 179.974 468.127 183.247 T
479.939 179.974 474.033 179.974 474.033 183.667 T
479.939 183.99 479.939 179.974 474.033 183.667 T
485.844 179.974 479.939 179.974 479.939 183.99 T
485.844 184.202 485.844 179.974 479.939 183.99 T
491.75 179.974 485.844 179.974 485.844 184.202 T
491.75 184.436 491.75 179.974 485.844 184.202 T
497.656 179.974 491.75 179.974 491.75 184.436 T
497.656 184.622 497.656 179.974 491.75 184.436 T
503.562 179.974 497.656 179.974 497.656 184.622 T
503.562 184.797 503.562 179.974 497.656 184.622 T
509.468 179.974 503.562 179.974 503.562 184.797 T
509.468 184.969 509.468 179.974 503.562 184.797 T
515.374 179.974 509.468 179.974 509.468 184.969 T
515.374 185.09 515.374 179.974 509.468 184.969 T
521.28 179.974 515.374 179.974 515.374 185.09 T
521.28 185.197 521.28 179.974 515.374 185.09 T
409.067 179.974 409.067 236.043 414.973 179.974 T
414.973 182.777 414.973 179.974 409.067 236.043 T
420.879 179.974 414.973 179.974 414.973 182.777 T
420.879 181.123 420.879 179.974 414.973 182.777 T
426.785 179.974 420.879 179.974 420.879 181.123 T
426.785 180.032 426.785 179.974 420.879 181.123 T
432.691 179.974 426.785 179.974 426.785 180.032 T
0 0 0 C
432.691 179.974 LS
426.785 180.032 L
420.879 181.123 L
414.973 182.777 L
409.067 236.043 L
409.067 179.974 L
414.973 179.974 L
420.879 179.974 L
426.785 179.974 L
432.691 179.974 LE
521.28 185.197 LS
515.374 185.09 L
509.468 184.969 L
503.562 184.797 L
497.656 184.622 L
491.75 184.436 L
485.844 184.202 L
479.939 183.99 L
474.033 183.667 L
468.127 183.247 L
462.221 182.93 L
456.315 182.462 L
450.409 181.925 L
444.503 181.288 L
438.597 180.482 L
432.691 179.974 L
438.597 179.974 L
444.503 179.974 L
450.409 179.974 L
456.315 179.974 L
462.221 179.974 L
468.127 179.974 L
474.033 179.974 L
479.939 179.974 L
485.844 179.974 L
491.75 179.974 L
497.656 179.974 L
503.562 179.974 L
509.468 179.974 L
515.374 179.974 L
521.28 179.974 L
521.28 185.197 LE
3 W
1 LJ
409.067 245.882 LS
414.973 191.133 L
420.879 182.651 L
426.785 181.442 L
432.691 181.629 L
438.597 182.096 L
444.503 182.589 L
450.409 183.044 L
456.315 183.447 L
462.221 183.798 L
468.127 184.102 L
474.033 184.363 L
479.939 184.588 L
485.844 184.781 L
491.75 184.947 L
497.656 185.09 L
503.562 185.212 L
509.468 185.317 L
515.374 185.408 L
521.28 185.486 LE
grestore
gsave
1.0 1.0 scale
newpath 0 0 moveto 576 0 lineto 576 432 lineto 0 432 lineto
closepath clip
1 1 1 C
74.88 120.933 187.093 47.52 74.88 47.52 T
74.88 120.933 187.093 120.933 187.093 47.52 T
0.5 W
0.15 0.15 0.15 C
98.5037 47.52 LS
98.5037 48.6485 LE
98.5037 120.933 LS
98.5037 119.805 LE
128.033 47.52 LS
128.033 48.6485 LE
128.033 120.933 LS
128.033 119.805 LE
157.563 47.52 LS
157.563 48.6485 LE
157.563 120.933 LS
157.563 119.805 LE
187.093 47.52 LS
187.093 48.6485 LE
187.093 120.933 LS
187.093 119.805 LE
gsave
0.14902 0.14902 0.14902 C
(5) [10] 0 95.5037 31.9776 10 /Helvetica SRX
grestore

gsave
0.14902 0.14902 0.14902 C
(10) [6 10] 0 122.033 31.9776 10 /Helvetica SRX
grestore

gsave
0.14902 0.14902 0.14902 C
(15) [6 10] 0 151.563 31.9776 10 /Helvetica SRX
grestore

gsave
0.14902 0.14902 0.14902 C
(20) [6 10] 0 181.093 31.9776 10 /Helvetica SRX
grestore

74.88 51.6771 LS
76.0043 51.6771 LE
187.093 51.6771 LS
185.968 51.6771 LE
74.88 65.3024 LS
76.0043 65.3024 LE
187.093 65.3024 LS
185.968 65.3024 LE
74.88 78.9277 LS
76.0043 78.9277 LE
187.093 78.9277 LS
185.968 78.9277 LE
74.88 92.553 LS
76.0043 92.553 LE
187.093 92.553 LS
185.968 92.553 LE
74.88 106.178 LS
76.0043 106.178 LE
187.093 106.178 LS
185.968 106.178 LE
74.88 119.804 LS
76.0043 119.804 LE
187.093 119.804 LS
185.968 119.804 LE
gsave
0.14902 0.14902 0.14902 C
(-0.05) [3 6 3 6 10] 0 45.8705 47.6771 10 /Helvetica SRX
grestore

gsave
0.14902 0.14902 0.14902 C
(-0.04) [3 6 3 6 10] 0 45.8705 61.3024 10 /Helvetica SRX
grestore

gsave
0.14902 0.14902 0.14902 C
(-0.03) [3 6 3 6 10] 0 45.8705 74.9277 10 /Helvetica SRX
grestore

gsave
0.14902 0.14902 0.14902 C
(-0.02) [3 6 3 6 10] 0 45.8705 88.5531 10 /Helvetica SRX
grestore

gsave
0.14902 0.14902 0.14902 C
(-0.01) [3 6 3 6 10] 0 45.8705 102.178 10 /Helvetica SRX
grestore

gsave
0.14902 0.14902 0.14902 C
(0) [10] 0 63.8705 115.804 10 /Helvetica SRX
grestore

2 LC
[16 0] 0 setdash
74.88 47.52 LS
187.093 47.52 LE
74.88 120.933 LS
187.093 120.933 LE
74.88 47.52 LS
74.88 120.933 LE
187.093 47.52 LS
187.093 120.933 LE
gsave
0 0 0 C
(D_hat) [8 6 7 6 10] 0 115.486 132.933 11 /Helvetica-Bold SRX
grestore

0.9 0.9 0.9 C
74.88 47.52 74.88 69.7154 80.7859 47.52 T
80.7859 98.9434 80.7859 47.52 74.88 69.7154 T
86.6918 47.52 80.7859 47.52 80.7859 98.9434 T
86.6918 102.8 86.6918 47.52 80.7859 98.9434 T
92.5978 47.52 86.6918 47.52 86.6918 102.8 T
92.5978 105.053 92.5978 47.52 86.6918 102.8 T
98.5037 47.52 92.5978 47.52 92.5978 105.053 T
98.5037 108.724 98.5037 47.52 92.5978 105.053 T
104.41 47.52 98.5037 47.52 98.5037 108.724 T
104.41 111.118 104.41 47.52 98.5037 108.724 T
110.316 47.52 104.41 47.52 104.41 111.118 T
110.316 112.638 110.316 47.52 104.41 111.118 T
116.221 47.52 110.316 47.52 110.316 112.638 T
116.221 114.235 116.221 47.52 110.316 112.638 T
122.127 47.52 116.221 47.52 116.221 114.235 T
122.127 115.387 122.127 47.52 116.221 114.235 T
128.033 47.52 122.127 47.52 122.127 115.387 T
128.033 116.495 128.033 47.52 122.127 115.387 T
133.939 47.52 128.033 47.52 128.033 116.495 T
133.939 117.528 133.939 47.52 128.033 116.495 T
139.845 47.52 133.939 47.52 133.939 117.528 T
139.845 118.238 139.845 47.52 133.939 117.528 T
145.751 47.52 139.845 47.52 139.845 118.238 T
145.751 118.72 145.751 47.52 139.845 118.238 T
151.657 47.52 145.751 47.52 145.751 118.72 T
151.657 119.208 151.657 47.52 145.751 118.72 T
157.563 47.52 151.657 47.52 151.657 119.208 T
157.563 119.581 157.563 47.52 151.657 119.208 T
163.469 47.52 157.563 47.52 157.563 119.581 T
163.469 119.918 163.469 47.52 157.563 119.581 T
169.375 47.52 163.469 47.52 163.469 119.918 T
169.375 120.26 169.375 47.52 163.469 119.918 T
175.281 47.52 169.375 47.52 169.375 120.26 T
175.281 120.504 175.281 47.52 169.375 120.26 T
181.187 47.52 175.281 47.52 175.281 120.504 T
181.187 120.692 181.187 47.52 175.281 120.504 T
187.093 47.52 181.187 47.52 181.187 120.692 T
187.093 120.933 187.093 47.52 181.187 120.692 T
0 LC
[] 0 setdash
0 0 0 C
187.093 120.933 LS
181.187 120.692 L
175.281 120.504 L
169.375 120.26 L
163.469 119.918 L
157.563 119.581 L
151.657 119.208 L
145.751 118.72 L
139.845 118.238 L
133.939 117.528 L
128.033 116.495 L
122.127 115.387 L
116.221 114.235 L
110.316 112.638 L
104.41 111.118 L
98.5037 108.724 L
92.5978 105.053 L
86.6918 102.8 L
80.7859 98.9434 L
74.88 69.7154 L
74.88 47.52 L
80.7859 47.52 L
86.6918 47.52 L
92.5978 47.52 L
98.5037 47.52 L
104.41 47.52 L
110.316 47.52 L
116.221 47.52 L
122.127 47.52 L
128.033 47.52 L
133.939 47.52 L
139.845 47.52 L
145.751 47.52 L
151.657 47.52 L
157.563 47.52 L
163.469 47.52 L
169.375 47.52 L
175.281 47.52 L
181.187 47.52 L
187.093 47.52 L
187.093 120.933 LE
1 1 1 C
74.88 47.52 80.7859 66.5098 80.7859 47.52 T
86.6918 47.52 80.7859 47.52 80.7859 66.5098 T
86.6918 75.1146 86.6918 47.52 80.7859 66.5098 T
92.5978 47.52 86.6918 47.52 86.6918 75.1146 T
92.5978 81.1886 92.5978 47.52 86.6918 75.1146 T
98.5037 47.52 92.5978 47.52 92.5978 81.1886 T
98.5037 88.0644 98.5037 47.52 92.5978 81.1886 T
104.41 47.52 98.5037 47.52 98.5037 88.0644 T
104.41 92.8239 104.41 47.52 98.5037 88.0644 T
110.316 47.52 104.41 47.52 104.41 92.8239 T
110.316 96.4229 110.316 47.52 104.41 92.8239 T
116.221 47.52 110.316 47.52 110.316 96.4229 T
116.221 100.135 116.221 47.52 110.316 96.4229 T
122.127 47.52 116.221 47.52 116.221 100.135 T
122.127 103.088 122.127 47.52 116.221 100.135 T
128.033 47.52 122.127 47.52 122.127 103.088 T
128.033 105.753 128.033 47.52 122.127 103.088 T
133.939 47.52 128.033 47.52 128.033 105.753 T
133.939 108.234 133.939 47.52 128.033 105.753 T
139.845 47.52 133.939 47.52 133.939 108.234 T
139.845 110.225 139.845 47.52 133.939 108.234 T
145.751 47.52 139.845 47.52 139.845 110.225 T
145.751 111.825 145.751 47.52 139.845 110.225 T
151.657 47.52 145.751 47.52 145.751 111.825 T
151.657 113.306 151.657 47.52 145.751 111.825 T
157.563 47.52 151.657 47.52 151.657 113.306 T
157.563 114.593 157.563 47.52 151.657 113.306 T
163.469 47.52 157.563 47.52 157.563 114.593 T
163.469 115.713 163.469 47.52 157.563 114.593 T
169.375 47.52 163.469 47.52 163.469 115.713 T
169.375 116.786 169.375 47.52 163.469 115.713 T
175.281 47.52 169.375 47.52 169.375 116.786 T
175.281 117.684 175.281 47.52 169.375 116.786 T
181.187 47.52 175.281 47.52 175.281 117.684 T
181.187 118.387 181.187 47.52 175.281 117.684 T
187.093 47.52 181.187 47.52 181.187 118.387 T
187.093 119.049 187.093 47.52 181.187 118.387 T
0 0 0 C
187.093 119.049 LS
181.187 118.387 L
175.281 117.684 L
169.375 116.786 L
163.469 115.713 L
157.563 114.593 L
151.657 113.306 L
145.751 111.825 L
139.845 110.225 L
133.939 108.234 L
128.033 105.753 L
122.127 103.088 L
116.221 100.135 L
110.316 96.4229 L
104.41 92.8239 L
98.5037 88.0644 L
92.5978 81.1886 L
86.6918 75.1146 L
80.7859 66.5098 L
74.88 47.52 L
80.7859 47.52 L
86.6918 47.52 L
92.5978 47.52 L
98.5037 47.52 L
104.41 47.52 L
110.316 47.52 L
116.221 47.52 L
122.127 47.52 L
128.033 47.52 L
133.939 47.52 L
139.845 47.52 L
145.751 47.52 L
151.657 47.52 L
157.563 47.52 L
163.469 47.52 L
169.375 47.52 L
175.281 47.52 L
181.187 47.52 L
187.093 47.52 L
187.093 119.049 LE
3 W
1 LJ
74.88 57.9258 LS
80.7859 81.948 L
86.6918 89.2766 L
92.5978 94.0713 L
98.5037 98.0401 L
104.41 101.46 L
110.316 104.416 L
116.221 106.966 L
122.127 109.162 L
128.033 111.051 L
133.939 112.675 L
139.845 114.07 L
145.751 115.269 L
151.657 116.299 L
157.563 117.183 L
163.469 117.942 L
169.375 118.594 L
175.281 119.153 L
181.187 119.632 L
187.093 120.043 LE
grestore
gsave
1.0 1.0 scale
newpath 0 0 moveto 576 0 lineto 576 432 lineto 0 432 lineto
closepath clip
1 1 1 C
241.974 120.933 354.186 47.52 241.974 47.52 T
241.974 120.933 354.186 120.933 354.186 47.52 T
0.5 W
0.15 0.15 0.15 C
265.597 47.52 LS
265.597 48.6485 LE
265.597 120.933 LS
265.597 119.805 LE
295.127 47.52 LS
295.127 48.6485 LE
295.127 120.933 LS
295.127 119.805 LE
324.657 47.52 LS
324.657 48.6485 LE
324.657 120.933 LS
324.657 119.805 LE
354.186 47.52 LS
354.186 48.6485 LE
354.186 120.933 LS
354.186 119.805 LE
gsave
0.14902 0.14902 0.14902 C
(5) [10] 0 262.597 31.9776 10 /Helvetica SRX
grestore

gsave
0.14902 0.14902 0.14902 C
(10) [6 10] 0 289.127 31.9776 10 /Helvetica SRX
grestore

gsave
0.14902 0.14902 0.14902 C
(15) [6 10] 0 318.657 31.9776 10 /Helvetica SRX
grestore

gsave
0.14902 0.14902 0.14902 C
(20) [6 10] 0 348.186 31.9776 10 /Helvetica SRX
grestore

241.974 47.9579 LS
243.098 47.9579 LE
354.186 47.9579 LS
353.062 47.9579 LE
241.974 65.2439 LS
243.098 65.2439 LE
354.186 65.2439 LS
353.062 65.2439 LE
241.974 82.5299 LS
243.098 82.5299 LE
354.186 82.5299 LS
353.062 82.5299 LE
241.974 99.8159 LS
243.098 99.8159 LE
354.186 99.8159 LS
353.062 99.8159 LE
241.974 117.102 LS
243.098 117.102 LE
354.186 117.102 LS
353.062 117.102 LE
gsave
0.14902 0.14902 0.14902 C
(-0.008) [3 6 3 6 6 10] 0 206.964 43.9579 10 /Helvetica SRX
grestore

gsave
0.14902 0.14902 0.14902 C
(-0.006) [3 6 3 6 6 10] 0 206.964 61.2439 10 /Helvetica SRX
grestore

gsave
0.14902 0.14902 0.14902 C
(-0.004) [3 6 3 6 6 10] 0 206.964 78.5299 10 /Helvetica SRX
grestore

gsave
0.14902 0.14902 0.14902 C
(-0.002) [3 6 3 6 6 10] 0 206.964 95.8159 10 /Helvetica SRX
grestore

gsave
0.14902 0.14902 0.14902 C
(0) [10] 0 230.964 113.102 10 /Helvetica SRX
grestore

2 LC
[16 0] 0 setdash
241.974 47.52 LS
354.186 47.52 LE
241.974 120.933 LS
354.186 120.933 LE
241.974 47.52 LS
241.974 120.933 LE
354.186 47.52 LS
354.186 120.933 LE
gsave
0 0 0 C
(reer_hat) [4 6 6 4 6 7 6 10] 0 276.58 132.933 11 /Helvetica-Bold SRX
grestore

0.9 0.9 0.9 C
241.974 47.52 241.974 103.88 247.88 47.52 T
247.88 120.933 247.88 47.52 241.974 103.88 T
253.786 47.52 247.88 47.52 247.88 120.933 T
253.786 120.42 253.786 47.52 247.88 120.933 T
259.691 47.52 253.786 47.52 253.786 120.42 T
259.691 119.229 259.691 47.52 253.786 120.42 T
265.597 47.52 259.691 47.52 259.691 119.229 T
265.597 118.424 265.597 47.52 259.691 119.229 T
271.503 47.52 265.597 47.52 265.597 118.424 T
271.503 117.773 271.503 47.52 265.597 118.424 T
277.409 47.52 271.503 47.52 271.503 117.773 T
277.409 117.328 277.409 47.52 271.503 117.773 T
283.315 47.52 277.409 47.52 277.409 117.328 T
283.315 117.028 283.315 47.52 277.409 117.328 T
289.221 47.52 283.315 47.52 283.315 117.028 T
289.221 116.846 289.221 47.52 283.315 117.028 T
295.127 47.52 289.221 47.52 289.221 116.846 T
295.127 116.718 295.127 47.52 289.221 116.846 T
301.033 47.52 295.127 47.52 295.127 116.718 T
301.033 116.626 301.033 47.52 295.127 116.718 T
306.939 47.52 301.033 47.52 301.033 116.626 T
306.939 116.563 306.939 47.52 301.033 116.626 T
312.845 47.52 306.939 47.52 306.939 116.563 T
312.845 116.533 312.845 47.52 306.939 116.563 T
318.751 47.52 312.845 47.52 312.845 116.533 T
318.751 116.512 318.751 47.52 312.845 116.533 T
324.657 47.52 318.751 47.52 318.751 116.512 T
324.657 116.51 324.657 47.52 318.751 116.512 T
330.563 47.52 324.657 47.52 324.657 116.51 T
330.563 116.499 330.563 47.52 324.657 116.51 T
336.469 47.52 330.563 47.52 330.563 116.499 T
336.469 116.502 336.469 47.52 330.563 116.499 T
342.374 47.52 336.469 47.52 336.469 116.502 T
342.374 116.512 342.374 47.52 336.469 116.502 T
348.28 47.52 342.374 47.52 342.374 116.512 T
348.28 116.518 348.28 47.52 342.374 116.512 T
354.186 47.52 348.28 47.52 348.28 116.518 T
354.186 116.528 354.186 47.52 348.28 116.518 T
0 LC
[] 0 setdash
0 0 0 C
354.186 116.528 LS
348.28 116.518 L
342.374 116.512 L
336.469 116.502 L
330.563 116.499 L
324.657 116.51 L
318.751 116.512 L
312.845 116.533 L
306.939 116.563 L
301.033 116.626 L
295.127 116.718 L
289.221 116.846 L
283.315 117.028 L
277.409 117.328 L
271.503 117.773 L
265.597 118.424 L
259.691 119.229 L
253.786 120.42 L
247.88 120.933 L
241.974 103.88 L
241.974 47.52 L
247.88 47.52 L
253.786 47.52 L
259.691 47.52 L
265.597 47.52 L
271.503 47.52 L
277.409 47.52 L
283.315 47.52 L
289.221 47.52 L
295.127 47.52 L
301.033 47.52 L
306.939 47.52 L
312.845 47.52 L
318.751 47.52 L
324.657 47.52 L
330.563 47.52 L
336.469 47.52 L
342.374 47.52 L
348.28 47.52 L
354.186 47.52 L
354.186 116.528 LE
1 1 1 C
241.974 47.52 247.88 97.7944 247.88 47.52 T
253.786 47.52 247.88 47.52 247.88 97.7944 T
253.786 112.134 253.786 47.52 247.88 97.7944 T
259.691 47.52 253.786 47.52 253.786 112.134 T
259.691 115.459 259.691 47.52 253.786 112.134 T
265.597 47.52 259.691 47.52 259.691 115.459 T
265.597 116.348 265.597 47.52 259.691 115.459 T
271.503 47.52 265.597 47.52 265.597 116.348 T
271.503 116.456 271.503 47.52 265.597 116.348 T
277.409 47.52 271.503 47.52 271.503 116.456 T
277.409 116.46 277.409 47.52 271.503 116.456 T
283.315 47.52 277.409 47.52 277.409 116.46 T
283.315 116.403 283.315 47.52 277.409 116.46 T
289.221 47.52 283.315 47.52 283.315 116.403 T
289.221 116.407 289.221 47.52 283.315 116.403 T
295.127 47.52 289.221 47.52 289.221 116.407 T
295.127 116.388 295.127 47.52 289.221 116.407 T
301.033 47.52 295.127 47.52 295.127 116.388 T
301.033 116.362 301.033 47.52 295.127 116.388 T
306.939 47.52 301.033 47.52 301.033 116.362 T
306.939 116.34 306.939 47.52 301.033 116.362 T
312.845 47.52 306.939 47.52 306.939 116.34 T
312.845 116.326 312.845 47.52 306.939 116.34 T
318.751 47.52 312.845 47.52 312.845 116.326 T
318.751 116.315 318.751 47.52 312.845 116.326 T
324.657 47.52 318.751 47.52 318.751 116.315 T
324.657 116.317 324.657 47.52 318.751 116.315 T
330.563 47.52 324.657 47.52 324.657 116.317 T
330.563 116.307 330.563 47.52 324.657 116.317 T
336.469 47.52 330.563 47.52 330.563 116.307 T
336.469 116.308 336.469 47.52 330.563 116.307 T
342.374 47.52 336.469 47.52 336.469 116.308 T
342.374 116.315 342.374 47.52 336.469 116.308 T
348.28 47.52 342.374 47.52 342.374 116.315 T
348.28 116.319 348.28 47.52 342.374 116.315 T
354.186 47.52 348.28 47.52 348.28 116.319 T
354.186 116.323 354.186 47.52 348.28 116.319 T
0 0 0 C
354.186 116.323 LS
348.28 116.319 L
342.374 116.315 L
336.469 116.308 L
330.563 116.307 L
324.657 116.317 L
318.751 116.315 L
312.845 116.326 L
306.939 116.34 L
301.033 116.362 L
295.127 116.388 L
289.221 116.407 L
283.315 116.403 L
277.409 116.46 L
271.503 116.456 L
265.597 116.348 L
259.691 115.459 L
253.786 112.134 L
247.88 97.7944 L
241.974 47.52 L
247.88 47.52 L
253.786 47.52 L
259.691 47.52 L
265.597 47.52 L
271.503 47.52 L
277.409 47.52 L
283.315 47.52 L
289.221 47.52 L
295.127 47.52 L
301.033 47.52 L
306.939 47.52 L
312.845 47.52 L
318.751 47.52 L
324.657 47.52 L
330.563 47.52 L
336.469 47.52 L
342.374 47.52 L
348.28 47.52 L
354.186 47.52 L
354.186 116.323 LE
3 W
1 LJ
241.974 72.878 LS
247.88 108.426 L
253.786 116.259 L
259.691 117.444 L
265.597 117.343 L
271.503 117.083 L
277.409 116.869 L
283.315 116.717 L
289.221 116.613 L
295.127 116.541 L
301.033 116.491 L
306.939 116.457 L
312.845 116.434 L
318.751 116.419 L
324.657 116.411 L
330.563 116.408 L
336.469 116.409 L
342.374 116.414 L
348.28 116.42 L
354.186 116.429 LE
grestore
grestore
showpage
cleartomark
%%PageTrailer
%%Trailer
end
%%EOF
