%!PS-Adobe-3.0 EPSF-3.0
%%Title: gl2ps_renderer figure
%%Creator: GL2PS 1.4.2, (C) 1999-2020 C. Geuzaine
%%For: Octave
%%CreationDate: Wed Oct  7 07:02:47 2020
%%LanguageLevel: 3
%%DocumentData: Clean7Bit
%%Pages: 1
%%BoundingBox: 0 0 576 432
%%EndComments
%%BeginProlog
/gl2psdict 64 dict def gl2psdict begin
/tryPS3shading false def % set to false to force subdivision
/rThreshold 0.064 def % red component subdivision threshold
/gThreshold 0.034 def % green component subdivision threshold
/bThreshold 0.1 def % blue component subdivision threshold
/BD { bind def } bind def
/C  { setrgbcolor } BD
/G  { 0.082 mul exch 0.6094 mul add exch 0.3086 mul add neg 1.0 add setgray } BD
/W  { setlinewidth } BD
/LC  { setlinecap } BD
/LJ  { setlinejoin } BD
/FC { findfont exch /SH exch def SH scalefont setfont } BD
/SW { dup stringwidth pop } BD
/S  { FC moveto show } BD
/SBC{ FC moveto SW -2 div 0 rmoveto show } BD
/SBR{ FC moveto SW neg 0 rmoveto show } BD
/SCL{ FC moveto 0 SH -2 div rmoveto show } BD
/SCC{ FC moveto SW -2 div SH -2 div rmoveto show } BD
/SCR{ FC moveto SW neg SH -2 div rmoveto show } BD
/STL{ FC moveto 0 SH neg rmoveto show } BD
/STC{ FC moveto SW -2 div SH neg rmoveto show } BD
/STR{ FC moveto SW neg SH neg rmoveto show } BD
/FCT { FC translate 0 0 } BD
/SR  { gsave FCT moveto rotate show grestore } BD
/SRX  { gsave FCT moveto rotate xshow grestore } BD
/SBCR{ gsave FCT moveto rotate SW -2 div 0 rmoveto show grestore } BD
/SBRR{ gsave FCT moveto rotate SW neg 0 rmoveto show grestore } BD
/SCLR{ gsave FCT moveto rotate 0 SH -2 div rmoveto show grestore} BD
/SCCR{ gsave FCT moveto rotate SW -2 div SH -2 div rmoveto show grestore} BD
/SCRR{ gsave FCT moveto rotate SW neg SH -2 div rmoveto show grestore} BD
/STLR{ gsave FCT moveto rotate 0 SH neg rmoveto show grestore } BD
/STCR{ gsave FCT moveto rotate SW -2 div SH neg rmoveto show grestore } BD
/STRR{ gsave FCT moveto rotate SW neg SH neg rmoveto show grestore } BD
/P  { newpath 0.0 360.0 arc closepath fill } BD
/LS { newpath moveto } BD
/L  { lineto } BD
/LE { lineto stroke } BD
/T  { newpath moveto lineto lineto closepath fill } BD
/STshfill {
      /b1 exch def /g1 exch def /r1 exch def /y1 exch def /x1 exch def
      /b2 exch def /g2 exch def /r2 exch def /y2 exch def /x2 exch def
      /b3 exch def /g3 exch def /r3 exch def /y3 exch def /x3 exch def
      gsave << /ShadingType 4 /ColorSpace [/DeviceRGB]
      /DataSource [ 0 x1 y1 r1 g1 b1 0 x2 y2 r2 g2 b2 0 x3 y3 r3 g3 b3 ] >>
      shfill grestore } BD
/Tm { 3 -1 roll 8 -1 roll 13 -1 roll add add 3 div
      3 -1 roll 7 -1 roll 11 -1 roll add add 3 div
      3 -1 roll 6 -1 roll 9 -1 roll add add 3 div C T } BD
/STsplit {
      4 index 15 index add 0.5 mul
      4 index 15 index add 0.5 mul
      4 index 15 index add 0.5 mul
      4 index 15 index add 0.5 mul
      4 index 15 index add 0.5 mul
      5 copy 5 copy 25 15 roll
      9 index 30 index add 0.5 mul
      9 index 30 index add 0.5 mul
      9 index 30 index add 0.5 mul
      9 index 30 index add 0.5 mul
      9 index 30 index add 0.5 mul
      5 copy 5 copy 35 5 roll 25 5 roll 15 5 roll
      4 index 10 index add 0.5 mul
      4 index 10 index add 0.5 mul
      4 index 10 index add 0.5 mul
      4 index 10 index add 0.5 mul
      4 index 10 index add 0.5 mul
      5 copy 5 copy 40 5 roll 25 5 roll 15 5 roll 25 5 roll
      STnoshfill STnoshfill STnoshfill STnoshfill } BD
/STnoshfill {
      2 index 8 index sub abs rThreshold gt
      { STsplit }
      { 1 index 7 index sub abs gThreshold gt
        { STsplit }
        { dup 6 index sub abs bThreshold gt
          { STsplit }
          { 2 index 13 index sub abs rThreshold gt
            { STsplit }
            { 1 index 12 index sub abs gThreshold gt
              { STsplit }
              { dup 11 index sub abs bThreshold gt
                { STsplit }
                { 7 index 13 index sub abs rThreshold gt
                  { STsplit }
                  { 6 index 12 index sub abs gThreshold gt
                    { STsplit }
                    { 5 index 11 index sub abs bThreshold gt
                      { STsplit }
                      { Tm }
                      ifelse }
                    ifelse }
                  ifelse }
                ifelse }
              ifelse }
            ifelse }
          ifelse }
        ifelse }
      ifelse } BD
tryPS3shading
{ /shfill where
  { /ST { STshfill } BD }
  { /ST { STnoshfill } BD }
  ifelse }
{ /ST { STnoshfill } BD }
ifelse
end
%%EndProlog
%%BeginSetup
/DeviceRGB setcolorspace
gl2psdict begin
%%EndSetup
%%Page: 1 1
%%BeginPageSetup
%%EndPageSetup
mark
gsave
1.0 1.0 scale
1 1 1 C
newpath 0 0 moveto 576 0 lineto 576 432 lineto 0 432 lineto
closepath fill
gsave
1.0 1.0 scale
1 1 1 C
newpath 0 0 moveto 576 0 lineto 576 432 lineto 0 432 lineto
closepath fill
newpath 0 0 moveto 576 0 lineto 576 432 lineto 0 432 lineto
closepath clip
1 1 1 C
74.88 385.841 187.093 312.427 74.88 312.427 T
74.88 385.841 187.093 385.841 187.093 312.427 T
0.5 W
0.15 0.15 0.15 C
98.5037 312.427 LS
98.5037 313.556 LE
98.5037 385.841 LS
98.5037 384.712 LE
128.033 312.427 LS
128.033 313.556 LE
128.033 385.841 LS
128.033 384.712 LE
157.563 312.427 LS
157.563 313.556 LE
157.563 385.841 LS
157.563 384.712 LE
187.093 312.427 LS
187.093 313.556 LE
187.093 385.841 LS
187.093 384.712 LE
gsave
0.14902 0.14902 0.14902 C
(5) [10] 0 95.5037 296.885 10 /Helvetica SRX
grestore

gsave
0.14902 0.14902 0.14902 C
(10) [6 10] 0 122.033 296.885 10 /Helvetica SRX
grestore

gsave
0.14902 0.14902 0.14902 C
(15) [6 10] 0 151.563 296.885 10 /Helvetica SRX
grestore

gsave
0.14902 0.14902 0.14902 C
(20) [6 10] 0 181.093 296.885 10 /Helvetica SRX
grestore

74.88 323.582 LS
76.0043 323.582 LE
187.093 323.582 LS
185.968 323.582 LE
74.88 339.147 LS
76.0043 339.147 LE
187.093 339.147 LS
185.968 339.147 LE
74.88 354.711 LS
76.0043 354.711 LE
187.093 354.711 LS
185.968 354.711 LE
74.88 370.276 LS
76.0043 370.276 LE
187.093 370.276 LS
185.968 370.276 LE
74.88 385.841 LS
76.0043 385.841 LE
187.093 385.841 LS
185.968 385.841 LE
gsave
0.14902 0.14902 0.14902 C
(-0.0002) [3 6 3 6 6 6 10] 0 33.8705 319.582 10 /Helvetica SRX
grestore

gsave
0.14902 0.14902 0.14902 C
(-0.00015) [3 6 3 6 6 6 6 10] 0 27.8705 335.147 10 /Helvetica SRX
grestore

gsave
0.14902 0.14902 0.14902 C
(-0.0001) [3 6 3 6 6 6 10] 0 33.8705 350.711 10 /Helvetica SRX
grestore

gsave
0.14902 0.14902 0.14902 C
(-5e-05) [3 6 5 3 6 10] 0 40.8705 366.276 10 /Helvetica SRX
grestore

gsave
0.14902 0.14902 0.14902 C
(0) [10] 0 63.8705 381.841 10 /Helvetica SRX
grestore

2 LC
[16 0] 0 setdash
74.88 312.427 LS
187.093 312.427 LE
74.88 385.841 LS
187.093 385.841 LE
74.88 312.427 LS
74.88 385.841 LE
187.093 312.427 LS
187.093 385.841 LE
gsave
0 0 0 C
(r_hat) [4 6 7 6 10] 0 117.486 397.841 11 /Helvetica-Bold SRX
grestore

0.9 0.9 0.9 C
74.88 312.427 74.88 385.841 80.7859 312.427 T
80.7859 381.898 80.7859 312.427 74.88 385.841 T
86.6918 312.427 80.7859 312.427 80.7859 381.898 T
86.6918 377.23 86.6918 312.427 80.7859 381.898 T
92.5978 312.427 86.6918 312.427 86.6918 377.23 T
92.5978 373.33 92.5978 312.427 86.6918 377.23 T
98.5037 312.427 92.5978 312.427 92.5978 373.33 T
98.5037 371.883 98.5037 312.427 92.5978 373.33 T
104.41 312.427 98.5037 312.427 98.5037 371.883 T
104.41 371.301 104.41 312.427 98.5037 371.883 T
110.316 312.427 104.41 312.427 104.41 371.301 T
110.316 369.931 110.316 312.427 104.41 371.301 T
116.221 312.427 110.316 312.427 110.316 369.931 T
116.221 371.204 116.221 312.427 110.316 369.931 T
122.127 312.427 116.221 312.427 116.221 371.204 T
122.127 371.956 122.127 312.427 116.221 371.204 T
128.033 312.427 122.127 312.427 122.127 371.956 T
128.033 371.679 128.033 312.427 122.127 371.956 T
133.939 312.427 128.033 312.427 128.033 371.679 T
133.939 372.71 133.939 312.427 128.033 371.679 T
139.845 312.427 133.939 312.427 133.939 372.71 T
139.845 374.335 139.845 312.427 133.939 372.71 T
145.751 312.427 139.845 312.427 139.845 374.335 T
145.751 374.189 145.751 312.427 139.845 374.335 T
151.657 312.427 145.751 312.427 145.751 374.189 T
151.657 374.672 151.657 312.427 145.751 374.189 T
157.563 312.427 151.657 312.427 151.657 374.672 T
157.563 376.108 157.563 312.427 151.657 374.672 T
163.469 312.427 157.563 312.427 157.563 376.108 T
163.469 375.928 163.469 312.427 157.563 376.108 T
169.375 312.427 163.469 312.427 163.469 375.928 T
169.375 376.559 169.375 312.427 163.469 375.928 T
175.281 312.427 169.375 312.427 169.375 376.559 T
175.281 377.847 175.281 312.427 169.375 376.559 T
181.187 312.427 175.281 312.427 175.281 377.847 T
181.187 378.395 181.187 312.427 175.281 377.847 T
187.093 312.427 181.187 312.427 181.187 378.395 T
187.093 378.096 187.093 312.427 181.187 378.395 T
0 LC
[] 0 setdash
0 0 0 C
187.093 378.096 LS
181.187 378.395 L
175.281 377.847 L
169.375 376.559 L
163.469 375.928 L
157.563 376.108 L
151.657 374.672 L
145.751 374.189 L
139.845 374.335 L
133.939 372.71 L
128.033 371.679 L
122.127 371.956 L
116.221 371.204 L
110.316 369.931 L
104.41 371.301 L
98.5037 371.883 L
92.5978 373.33 L
86.6918 377.23 L
80.7859 381.898 L
74.88 385.841 L
74.88 312.427 L
80.7859 312.427 L
86.6918 312.427 L
92.5978 312.427 L
98.5037 312.427 L
104.41 312.427 L
110.316 312.427 L
116.221 312.427 L
122.127 312.427 L
128.033 312.427 L
133.939 312.427 L
139.845 312.427 L
145.751 312.427 L
151.657 312.427 L
157.563 312.427 L
163.469 312.427 L
169.375 312.427 L
175.281 312.427 L
181.187 312.427 L
187.093 312.427 L
187.093 378.096 LE
1 1 1 C
110.316 312.427 116.221 314.585 116.221 312.427 T
122.127 312.427 116.221 312.427 116.221 314.585 T
122.127 316.809 122.127 312.427 116.221 314.585 T
128.033 312.427 122.127 312.427 122.127 316.809 T
128.033 318.678 128.033 312.427 122.127 316.809 T
133.939 312.427 128.033 312.427 128.033 318.678 T
133.939 322.992 133.939 312.427 128.033 318.678 T
139.845 312.427 133.939 312.427 133.939 322.992 T
139.845 326.557 139.845 312.427 133.939 322.992 T
145.751 312.427 139.845 312.427 139.845 326.557 T
145.751 328.688 145.751 312.427 139.845 326.557 T
151.657 312.427 145.751 312.427 145.751 328.688 T
151.657 331.644 151.657 312.427 145.751 328.688 T
157.563 312.427 151.657 312.427 151.657 331.644 T
157.563 335.615 157.563 312.427 151.657 331.644 T
163.469 312.427 157.563 312.427 157.563 335.615 T
163.469 337.631 163.469 312.427 157.563 335.615 T
169.375 312.427 163.469 312.427 163.469 337.631 T
169.375 340.23 169.375 312.427 163.469 337.631 T
175.281 312.427 169.375 312.427 169.375 340.23 T
175.281 343.325 175.281 312.427 169.375 340.23 T
181.187 312.427 175.281 312.427 175.281 343.325 T
181.187 345.462 181.187 312.427 175.281 343.325 T
187.093 312.427 181.187 312.427 181.187 345.462 T
187.093 346.65 187.093 312.427 181.187 345.462 T
74.88 312.427 74.88 385.841 80.7859 312.427 T
80.7859 359.326 80.7859 312.427 74.88 385.841 T
86.6918 312.427 80.7859 312.427 80.7859 359.326 T
86.6918 338.335 86.6918 312.427 80.7859 359.326 T
92.5978 312.427 86.6918 312.427 86.6918 338.335 T
92.5978 323.974 92.5978 312.427 86.6918 338.335 T
98.5037 312.427 92.5978 312.427 92.5978 323.974 T
98.5037 316.973 98.5037 312.427 92.5978 323.974 T
104.41 312.427 98.5037 312.427 98.5037 316.973 T
104.41 313.777 104.41 312.427 98.5037 316.973 T
110.316 312.427 104.41 312.427 104.41 313.777 T
0 0 0 C
110.316 312.427 LS
104.41 313.777 L
98.5037 316.973 L
92.5978 323.974 L
86.6918 338.335 L
80.7859 359.326 L
74.88 385.841 L
74.88 312.427 L
80.7859 312.427 L
86.6918 312.427 L
92.5978 312.427 L
98.5037 312.427 L
104.41 312.427 L
110.316 312.427 LE
187.093 346.65 LS
181.187 345.462 L
175.281 343.325 L
169.375 340.23 L
163.469 337.631 L
157.563 335.615 L
151.657 331.644 L
145.751 328.688 L
139.845 326.557 L
133.939 322.992 L
128.033 318.678 L
122.127 316.809 L
116.221 314.585 L
110.316 312.427 L
116.221 312.427 L
122.127 312.427 L
128.033 312.427 L
133.939 312.427 L
139.845 312.427 L
145.751 312.427 L
151.657 312.427 L
157.563 312.427 L
163.469 312.427 L
169.375 312.427 L
175.281 312.427 L
181.187 312.427 L
187.093 312.427 L
187.093 346.65 LE
3 W
1 LJ
74.88 385.841 LS
80.7859 370.301 L
86.6918 357.93 L
92.5978 349.764 L
98.5037 344.922 L
104.41 342.485 L
110.316 341.729 L
116.221 342.115 L
122.127 343.25 L
128.033 344.852 L
133.939 346.719 L
139.845 348.71 L
145.751 350.728 L
151.657 352.707 L
157.563 354.603 L
163.469 356.392 L
169.375 358.058 L
175.281 359.596 L
181.187 361.006 L
187.093 362.292 LE
grestore
gsave
1.0 1.0 scale
newpath 0 0 moveto 576 0 lineto 576 432 lineto 0 432 lineto
closepath clip
1 1 1 C
241.974 385.841 354.186 312.427 241.974 312.427 T
241.974 385.841 354.186 385.841 354.186 312.427 T
0.5 W
0.15 0.15 0.15 C
265.597 312.427 LS
265.597 313.556 LE
265.597 385.841 LS
265.597 384.712 LE
295.127 312.427 LS
295.127 313.556 LE
295.127 385.841 LS
295.127 384.712 LE
324.657 312.427 LS
324.657 313.556 LE
324.657 385.841 LS
324.657 384.712 LE
354.186 312.427 LS
354.186 313.556 LE
354.186 385.841 LS
354.186 384.712 LE
gsave
0.14902 0.14902 0.14902 C
(5) [10] 0 262.597 296.885 10 /Helvetica SRX
grestore

gsave
0.14902 0.14902 0.14902 C
(10) [6 10] 0 289.127 296.885 10 /Helvetica SRX
grestore

gsave
0.14902 0.14902 0.14902 C
(15) [6 10] 0 318.657 296.885 10 /Helvetica SRX
grestore

gsave
0.14902 0.14902 0.14902 C
(20) [6 10] 0 348.186 296.885 10 /Helvetica SRX
grestore

241.974 327.276 LS
243.098 327.276 LE
354.186 327.276 LS
353.062 327.276 LE
241.974 342.125 LS
243.098 342.125 LE
354.186 342.125 LS
353.062 342.125 LE
241.974 356.974 LS
243.098 356.974 LE
354.186 356.974 LS
353.062 356.974 LE
241.974 371.823 LS
243.098 371.823 LE
354.186 371.823 LS
353.062 371.823 LE
gsave
0.14902 0.14902 0.14902 C
(0.02) [6 3 6 10] 0 215.964 323.276 10 /Helvetica SRX
grestore

gsave
0.14902 0.14902 0.14902 C
(0.04) [6 3 6 10] 0 215.964 338.125 10 /Helvetica SRX
grestore

gsave
0.14902 0.14902 0.14902 C
(0.06) [6 3 6 10] 0 215.964 352.974 10 /Helvetica SRX
grestore

gsave
0.14902 0.14902 0.14902 C
(0.08) [6 3 6 10] 0 215.964 367.823 10 /Helvetica SRX
grestore

2 LC
[16 0] 0 setdash
241.974 312.427 LS
354.186 312.427 LE
241.974 385.841 LS
354.186 385.841 LE
241.974 312.427 LS
241.974 385.841 LE
354.186 312.427 LS
354.186 385.841 LE
gsave
0 0 0 C
(A_C_hat) [8 6 8 6 7 6 10] 0 275.58 397.841 11 /Helvetica-Bold SRX
grestore

0.9 0.9 0.9 C
241.974 312.427 241.974 385.841 247.88 312.427 T
247.88 370.81 247.88 312.427 241.974 385.841 T
253.786 312.427 247.88 312.427 247.88 370.81 T
253.786 359.685 253.786 312.427 247.88 370.81 T
259.691 312.427 253.786 312.427 253.786 359.685 T
259.691 350.852 259.691 312.427 253.786 359.685 T
265.597 312.427 259.691 312.427 259.691 350.852 T
265.597 344.762 265.597 312.427 259.691 350.852 T
271.503 312.427 265.597 312.427 265.597 344.762 T
271.503 340.086 271.503 312.427 265.597 344.762 T
277.409 312.427 271.503 312.427 271.503 340.086 T
277.409 335.074 277.409 312.427 271.503 340.086 T
283.315 312.427 277.409 312.427 277.409 335.074 T
283.315 331.292 283.315 312.427 277.409 335.074 T
289.221 312.427 283.315 312.427 283.315 331.292 T
289.221 328.066 289.221 312.427 283.315 331.292 T
295.127 312.427 289.221 312.427 289.221 328.066 T
295.127 325.604 295.127 312.427 289.221 328.066 T
301.033 312.427 295.127 312.427 295.127 325.604 T
301.033 323.529 301.033 312.427 295.127 325.604 T
306.939 312.427 301.033 312.427 301.033 323.529 T
306.939 321.656 306.939 312.427 301.033 323.529 T
312.845 312.427 306.939 312.427 306.939 321.656 T
312.845 320.259 312.845 312.427 306.939 321.656 T
318.751 312.427 312.845 312.427 312.845 320.259 T
318.751 319.023 318.751 312.427 312.845 320.259 T
324.657 312.427 318.751 312.427 318.751 319.023 T
324.657 318.021 324.657 312.427 318.751 319.023 T
330.563 312.427 324.657 312.427 324.657 318.021 T
330.563 317.14 330.563 312.427 324.657 318.021 T
336.469 312.427 330.563 312.427 330.563 317.14 T
336.469 316.398 336.469 312.427 330.563 317.14 T
342.374 312.427 336.469 312.427 336.469 316.398 T
342.374 315.786 342.374 312.427 336.469 316.398 T
348.28 312.427 342.374 312.427 342.374 315.786 T
348.28 315.284 348.28 312.427 342.374 315.786 T
354.186 312.427 348.28 312.427 348.28 315.284 T
354.186 314.809 354.186 312.427 348.28 315.284 T
0 LC
[] 0 setdash
0 0 0 C
354.186 314.809 LS
348.28 315.284 L
342.374 315.786 L
336.469 316.398 L
330.563 317.14 L
324.657 318.021 L
318.751 319.023 L
312.845 320.259 L
306.939 321.656 L
301.033 323.529 L
295.127 325.604 L
289.221 328.066 L
283.315 331.292 L
277.409 335.074 L
271.503 340.086 L
265.597 344.762 L
259.691 350.852 L
253.786 359.685 L
247.88 370.81 L
241.974 385.841 L
241.974 312.427 L
247.88 312.427 L
253.786 312.427 L
259.691 312.427 L
265.597 312.427 L
271.503 312.427 L
277.409 312.427 L
283.315 312.427 L
289.221 312.427 L
295.127 312.427 L
301.033 312.427 L
306.939 312.427 L
312.845 312.427 L
318.751 312.427 L
324.657 312.427 L
330.563 312.427 L
336.469 312.427 L
342.374 312.427 L
348.28 312.427 L
354.186 312.427 L
354.186 314.809 LE
1 1 1 C
241.974 312.427 241.974 336.482 247.88 312.427 T
247.88 329.092 247.88 312.427 241.974 336.482 T
253.786 312.427 247.88 312.427 247.88 329.092 T
253.786 323.34 253.786 312.427 247.88 329.092 T
259.691 312.427 253.786 312.427 253.786 323.34 T
259.691 318.558 259.691 312.427 253.786 323.34 T
265.597 312.427 259.691 312.427 259.691 318.558 T
265.597 316.229 265.597 312.427 259.691 318.558 T
271.503 312.427 265.597 312.427 265.597 316.229 T
271.503 314.986 271.503 312.427 265.597 316.229 T
277.409 312.427 271.503 312.427 271.503 314.986 T
277.409 313.627 277.409 312.427 271.503 314.986 T
283.315 312.427 277.409 312.427 277.409 313.627 T
283.315 313.021 283.315 312.427 277.409 313.627 T
289.221 312.427 283.315 312.427 283.315 313.021 T
289.221 312.704 289.221 312.427 283.315 313.021 T
295.127 312.427 289.221 312.427 289.221 312.704 T
295.127 312.579 295.127 312.427 289.221 312.704 T
301.033 312.427 295.127 312.427 295.127 312.579 T
301.033 312.51 301.033 312.427 295.127 312.579 T
306.939 312.427 301.033 312.427 301.033 312.51 T
306.939 312.472 306.939 312.427 301.033 312.51 T
312.845 312.427 306.939 312.427 306.939 312.472 T
312.845 312.451 312.845 312.427 306.939 312.472 T
318.751 312.427 312.845 312.427 312.845 312.451 T
318.751 312.44 318.751 312.427 312.845 312.451 T
324.657 312.427 318.751 312.427 318.751 312.44 T
324.657 312.431 324.657 312.427 318.751 312.44 T
330.563 312.427 324.657 312.427 324.657 312.431 T
330.563 312.429 330.563 312.427 324.657 312.431 T
336.469 312.427 330.563 312.427 330.563 312.429 T
336.469 312.428 336.469 312.427 330.563 312.429 T
342.374 312.427 336.469 312.427 336.469 312.428 T
342.374 312.428 342.374 312.427 336.469 312.428 T
348.28 312.427 342.374 312.427 342.374 312.428 T
348.28 312.428 348.28 312.427 342.374 312.428 T
354.186 312.427 348.28 312.427 348.28 312.428 T
0 0 0 C
354.186 312.427 LS
348.28 312.428 L
342.374 312.428 L
336.469 312.428 L
330.563 312.429 L
324.657 312.431 L
318.751 312.44 L
312.845 312.451 L
306.939 312.472 L
301.033 312.51 L
295.127 312.579 L
289.221 312.704 L
283.315 313.021 L
277.409 313.627 L
271.503 314.986 L
265.597 316.229 L
259.691 318.558 L
253.786 323.34 L
247.88 329.092 L
241.974 336.482 L
241.974 312.427 L
247.88 312.427 L
253.786 312.427 L
259.691 312.427 L
265.597 312.427 L
271.503 312.427 L
277.409 312.427 L
283.315 312.427 L
289.221 312.427 L
295.127 312.427 L
301.033 312.427 L
306.939 312.427 L
312.845 312.427 L
318.751 312.427 L
324.657 312.427 L
330.563 312.427 L
336.469 312.427 L
342.374 312.427 L
348.28 312.427 L
354.186 312.427 LE
3 W
1 LJ
241.974 361.372 LS
247.88 350.646 L
253.786 342.473 L
259.691 336.192 L
265.597 331.329 L
271.503 327.537 L
277.409 324.562 L
283.315 322.214 L
289.221 320.351 L
295.127 318.866 L
301.033 317.677 L
306.939 316.722 L
312.845 315.95 L
318.751 315.326 L
324.657 314.818 L
330.563 314.404 L
336.469 314.066 L
342.374 313.789 L
348.28 313.561 L
354.186 313.373 LE
grestore
gsave
1.0 1.0 scale
newpath 0 0 moveto 576 0 lineto 576 432 lineto 0 432 lineto
closepath clip
1 1 1 C
409.067 385.841 521.28 312.427 409.067 312.427 T
409.067 385.841 521.28 385.841 521.28 312.427 T
0.5 W
0.15 0.15 0.15 C
432.691 312.427 LS
432.691 313.556 LE
432.691 385.841 LS
432.691 384.712 LE
462.221 312.427 LS
462.221 313.556 LE
462.221 385.841 LS
462.221 384.712 LE
491.75 312.427 LS
491.75 313.556 LE
491.75 385.841 LS
491.75 384.712 LE
521.28 312.427 LS
521.28 313.556 LE
521.28 385.841 LS
521.28 384.712 LE
gsave
0.14902 0.14902 0.14902 C
(5) [10] 0 429.691 296.885 10 /Helvetica SRX
grestore

gsave
0.14902 0.14902 0.14902 C
(10) [6 10] 0 456.221 296.885 10 /Helvetica SRX
grestore

gsave
0.14902 0.14902 0.14902 C
(15) [6 10] 0 485.75 296.885 10 /Helvetica SRX
grestore

gsave
0.14902 0.14902 0.14902 C
(20) [6 10] 0 515.28 296.885 10 /Helvetica SRX
grestore

409.067 332.963 LS
410.192 332.963 LE
521.28 332.963 LS
520.156 332.963 LE
409.067 356.167 LS
410.192 356.167 LE
521.28 356.167 LS
520.156 356.167 LE
409.067 379.37 LS
410.192 379.37 LE
521.28 379.37 LS
520.156 379.37 LE
gsave
0.14902 0.14902 0.14902 C
(0.005) [6 3 6 6 10] 0 377.058 328.963 10 /Helvetica SRX
grestore

gsave
0.14902 0.14902 0.14902 C
(0.01) [6 3 6 10] 0 383.058 352.167 10 /Helvetica SRX
grestore

gsave
0.14902 0.14902 0.14902 C
(0.015) [6 3 6 6 10] 0 377.058 375.37 10 /Helvetica SRX
grestore

2 LC
[16 0] 0 setdash
409.067 312.427 LS
521.28 312.427 LE
409.067 385.841 LS
521.28 385.841 LE
409.067 312.427 LS
409.067 385.841 LE
521.28 312.427 LS
521.28 385.841 LE
gsave
0 0 0 C
(Y_hat) [7 6 7 6 10] 0 450.174 397.841 11 /Helvetica-Bold SRX
grestore

0.9 0.9 0.9 C
409.067 312.427 409.067 385.841 414.973 312.427 T
414.973 385.565 414.973 312.427 409.067 385.841 T
420.879 312.427 414.973 312.427 414.973 385.565 T
420.879 382.457 420.879 312.427 414.973 385.565 T
426.785 312.427 420.879 312.427 420.879 382.457 T
426.785 375.166 426.785 312.427 420.879 382.457 T
432.691 312.427 426.785 312.427 426.785 375.166 T
432.691 370.973 432.691 312.427 426.785 375.166 T
438.597 312.427 432.691 312.427 432.691 370.973 T
438.597 368.167 438.597 312.427 432.691 370.973 T
444.503 312.427 438.597 312.427 438.597 368.167 T
444.503 361.061 444.503 312.427 438.597 368.167 T
450.409 312.427 444.503 312.427 444.503 361.061 T
450.409 357.558 450.409 312.427 444.503 361.061 T
456.315 312.427 450.409 312.427 450.409 357.558 T
456.315 354.466 456.315 312.427 450.409 357.558 T
462.221 312.427 456.315 312.427 456.315 354.466 T
462.221 351.62 462.221 312.427 456.315 354.466 T
468.127 312.427 462.221 312.427 462.221 351.62 T
468.127 349.226 468.127 312.427 462.221 351.62 T
474.033 312.427 468.127 312.427 468.127 349.226 T
474.033 346.062 474.033 312.427 468.127 349.226 T
479.939 312.427 474.033 312.427 474.033 346.062 T
479.939 343.585 479.939 312.427 474.033 346.062 T
485.844 312.427 479.939 312.427 479.939 343.585 T
485.844 341.702 485.844 312.427 479.939 343.585 T
491.75 312.427 485.844 312.427 485.844 341.702 T
491.75 340.02 491.75 312.427 485.844 341.702 T
497.656 312.427 491.75 312.427 491.75 340.02 T
497.656 338.411 497.656 312.427 491.75 340.02 T
503.562 312.427 497.656 312.427 497.656 338.411 T
503.562 337.104 503.562 312.427 497.656 338.411 T
509.468 312.427 503.562 312.427 503.562 337.104 T
509.468 335.98 509.468 312.427 503.562 337.104 T
515.374 312.427 509.468 312.427 509.468 335.98 T
515.374 334.973 515.374 312.427 509.468 335.98 T
521.28 312.427 515.374 312.427 515.374 334.973 T
521.28 333.868 521.28 312.427 515.374 334.973 T
0 LC
[] 0 setdash
0 0 0 C
521.28 333.868 LS
515.374 334.973 L
509.468 335.98 L
503.562 337.104 L
497.656 338.411 L
491.75 340.02 L
485.844 341.702 L
479.939 343.585 L
474.033 346.062 L
468.127 349.226 L
462.221 351.62 L
456.315 354.466 L
450.409 357.558 L
444.503 361.061 L
438.597 368.167 L
432.691 370.973 L
426.785 375.166 L
420.879 382.457 L
414.973 385.565 L
409.067 385.841 L
409.067 312.427 L
414.973 312.427 L
420.879 312.427 L
426.785 312.427 L
432.691 312.427 L
438.597 312.427 L
444.503 312.427 L
450.409 312.427 L
456.315 312.427 L
462.221 312.427 L
468.127 312.427 L
474.033 312.427 L
479.939 312.427 L
485.844 312.427 L
491.75 312.427 L
497.656 312.427 L
503.562 312.427 L
509.468 312.427 L
515.374 312.427 L
521.28 312.427 L
521.28 333.868 LE
1 1 1 C
409.067 312.427 409.067 332.346 414.973 312.427 T
414.973 331.212 414.973 312.427 409.067 332.346 T
420.879 312.427 414.973 312.427 414.973 331.212 T
420.879 327.764 420.879 312.427 414.973 331.212 T
426.785 312.427 420.879 312.427 420.879 327.764 T
426.785 321.778 426.785 312.427 420.879 327.764 T
432.691 312.427 426.785 312.427 426.785 321.778 T
432.691 319.269 432.691 312.427 426.785 321.778 T
438.597 312.427 432.691 312.427 432.691 319.269 T
438.597 318.65 438.597 312.427 432.691 319.269 T
444.503 312.427 438.597 312.427 438.597 318.65 T
444.503 314.579 444.503 312.427 438.597 318.65 T
450.409 312.427 444.503 312.427 444.503 314.579 T
450.409 314 450.409 312.427 444.503 314.579 T
456.315 312.427 450.409 312.427 450.409 314 T
456.315 313.981 456.315 312.427 450.409 314 T
462.221 312.427 456.315 312.427 456.315 313.981 T
462.221 313.951 462.221 312.427 456.315 313.981 T
468.127 312.427 462.221 312.427 462.221 313.951 T
468.127 314.139 468.127 312.427 462.221 313.951 T
474.033 312.427 468.127 312.427 468.127 314.139 T
474.033 313.181 474.033 312.427 468.127 314.139 T
479.939 312.427 474.033 312.427 474.033 313.181 T
479.939 313.059 479.939 312.427 474.033 313.181 T
485.844 312.427 479.939 312.427 479.939 313.059 T
485.844 312.934 485.844 312.427 479.939 313.059 T
491.75 312.427 485.844 312.427 485.844 312.934 T
491.75 312.916 491.75 312.427 485.844 312.934 T
497.656 312.427 491.75 312.427 491.75 312.916 T
497.656 312.755 497.656 312.427 491.75 312.916 T
503.562 312.427 497.656 312.427 497.656 312.755 T
503.562 312.699 503.562 312.427 497.656 312.755 T
509.468 312.427 503.562 312.427 503.562 312.699 T
509.468 312.658 509.468 312.427 503.562 312.699 T
515.374 312.427 509.468 312.427 509.468 312.658 T
515.374 312.621 515.374 312.427 509.468 312.658 T
521.28 312.427 515.374 312.427 515.374 312.621 T
0 0 0 C
521.28 312.427 LS
515.374 312.621 L
509.468 312.658 L
503.562 312.699 L
497.656 312.755 L
491.75 312.916 L
485.844 312.934 L
479.939 313.059 L
474.033 313.181 L
468.127 314.139 L
462.221 313.951 L
456.315 313.981 L
450.409 314 L
444.503 314.579 L
438.597 318.65 L
432.691 319.269 L
426.785 321.778 L
420.879 327.764 L
414.973 331.212 L
409.067 332.346 L
409.067 312.427 L
414.973 312.427 L
420.879 312.427 L
426.785 312.427 L
432.691 312.427 L
438.597 312.427 L
444.503 312.427 L
450.409 312.427 L
456.315 312.427 L
462.221 312.427 L
468.127 312.427 L
474.033 312.427 L
479.939 312.427 L
485.844 312.427 L
491.75 312.427 L
497.656 312.427 L
503.562 312.427 L
509.468 312.427 L
515.374 312.427 L
521.28 312.427 LE
3 W
1 LJ
409.067 362.219 LS
414.973 358.881 L
420.879 354.899 L
426.785 350.839 L
432.691 346.948 L
438.597 343.37 L
444.503 340.171 L
450.409 337.366 L
456.315 334.937 L
462.221 332.853 L
468.127 331.075 L
474.033 329.564 L
479.939 328.282 L
485.844 327.195 L
491.75 326.273 L
497.656 325.488 L
503.562 324.819 L
509.468 324.246 L
515.374 323.753 L
521.28 323.327 LE
grestore
gsave
1.0 1.0 scale
newpath 0 0 moveto 576 0 lineto 576 432 lineto 0 432 lineto
closepath clip
1 1 1 C
74.88 253.387 187.093 179.974 74.88 179.974 T
74.88 253.387 187.093 253.387 187.093 179.974 T
0.5 W
0.15 0.15 0.15 C
98.5037 179.974 LS
98.5037 181.102 LE
98.5037 253.387 LS
98.5037 252.258 LE
128.033 179.974 LS
128.033 181.102 LE
128.033 253.387 LS
128.033 252.258 LE
157.563 179.974 LS
157.563 181.102 LE
157.563 253.387 LS
157.563 252.258 LE
187.093 179.974 LS
187.093 181.102 LE
187.093 253.387 LS
187.093 252.258 LE
gsave
0.14902 0.14902 0.14902 C
(5) [10] 0 95.5037 164.431 10 /Helvetica SRX
grestore

gsave
0.14902 0.14902 0.14902 C
(10) [6 10] 0 122.033 164.431 10 /Helvetica SRX
grestore

gsave
0.14902 0.14902 0.14902 C
(15) [6 10] 0 151.563 164.431 10 /Helvetica SRX
grestore

gsave
0.14902 0.14902 0.14902 C
(20) [6 10] 0 181.093 164.431 10 /Helvetica SRX
grestore

74.88 185.365 LS
76.0043 185.365 LE
187.093 185.365 LS
185.968 185.365 LE
74.88 198.758 LS
76.0043 198.758 LE
187.093 198.758 LS
185.968 198.758 LE
74.88 212.151 LS
76.0043 212.151 LE
187.093 212.151 LS
185.968 212.151 LE
74.88 225.543 LS
76.0043 225.543 LE
187.093 225.543 LS
185.968 225.543 LE
74.88 238.936 LS
76.0043 238.936 LE
187.093 238.936 LS
185.968 238.936 LE
74.88 252.329 LS
76.0043 252.329 LE
187.093 252.329 LS
185.968 252.329 LE
gsave
0.14902 0.14902 0.14902 C
(0.001) [6 3 6 6 10] 0 42.8705 181.365 10 /Helvetica SRX
grestore

gsave
0.14902 0.14902 0.14902 C
(0.002) [6 3 6 6 10] 0 42.8705 194.758 10 /Helvetica SRX
grestore

gsave
0.14902 0.14902 0.14902 C
(0.003) [6 3 6 6 10] 0 42.8705 208.151 10 /Helvetica SRX
grestore

gsave
0.14902 0.14902 0.14902 C
(0.004) [6 3 6 6 10] 0 42.8705 221.543 10 /Helvetica SRX
grestore

gsave
0.14902 0.14902 0.14902 C
(0.005) [6 3 6 6 10] 0 42.8705 234.936 10 /Helvetica SRX
grestore

gsave
0.14902 0.14902 0.14902 C
(0.006) [6 3 6 6 10] 0 42.8705 248.329 10 /Helvetica SRX
grestore

2 LC
[16 0] 0 setdash
74.88 179.974 LS
187.093 179.974 LE
74.88 253.387 LS
187.093 253.387 LE
74.88 179.974 LS
74.88 253.387 LE
187.093 179.974 LS
187.093 253.387 LE
gsave
0 0 0 C
(C_hat) [8 6 7 6 10] 0 115.486 265.387 11 /Helvetica-Bold SRX
grestore

0.9 0.9 0.9 C
74.88 179.974 74.88 214.783 80.7859 179.974 T
80.7859 233.116 80.7859 179.974 74.88 214.783 T
86.6918 179.974 80.7859 179.974 80.7859 233.116 T
86.6918 242.6 86.6918 179.974 80.7859 233.116 T
92.5978 179.974 86.6918 179.974 86.6918 242.6 T
92.5978 248.077 92.5978 179.974 86.6918 242.6 T
98.5037 179.974 92.5978 179.974 92.5978 248.077 T
98.5037 253.387 98.5037 179.974 92.5978 248.077 T
104.41 179.974 98.5037 179.974 98.5037 253.387 T
104.41 252.262 104.41 179.974 98.5037 253.387 T
110.316 179.974 104.41 179.974 104.41 252.262 T
110.316 251.947 110.316 179.974 104.41 252.262 T
116.221 179.974 110.316 179.974 110.316 251.947 T
116.221 251.186 116.221 179.974 110.316 251.947 T
122.127 179.974 116.221 179.974 116.221 251.186 T
122.127 250.211 122.127 179.974 116.221 251.186 T
128.033 179.974 122.127 179.974 122.127 250.211 T
128.033 248.493 128.033 179.974 122.127 250.211 T
133.939 179.974 128.033 179.974 128.033 248.493 T
133.939 245.952 133.939 179.974 128.033 248.493 T
139.845 179.974 133.939 179.974 133.939 245.952 T
139.845 241.92 139.845 179.974 133.939 245.952 T
145.751 179.974 139.845 179.974 139.845 241.92 T
145.751 239.583 145.751 179.974 139.845 241.92 T
151.657 179.974 145.751 179.974 145.751 239.583 T
151.657 238.204 151.657 179.974 145.751 239.583 T
157.563 179.974 151.657 179.974 151.657 238.204 T
157.563 238.457 157.563 179.974 151.657 238.204 T
163.469 179.974 157.563 179.974 157.563 238.457 T
163.469 236.992 163.469 179.974 157.563 238.457 T
169.375 179.974 163.469 179.974 163.469 236.992 T
169.375 235.629 169.375 179.974 163.469 236.992 T
175.281 179.974 169.375 179.974 169.375 235.629 T
175.281 234.402 175.281 179.974 169.375 235.629 T
181.187 179.974 175.281 179.974 175.281 234.402 T
181.187 233.274 181.187 179.974 175.281 234.402 T
187.093 179.974 181.187 179.974 181.187 233.274 T
187.093 232.081 187.093 179.974 181.187 233.274 T
0 LC
[] 0 setdash
0 0 0 C
187.093 232.081 LS
181.187 233.274 L
175.281 234.402 L
169.375 235.629 L
163.469 236.992 L
157.563 238.457 L
151.657 238.204 L
145.751 239.583 L
139.845 241.92 L
133.939 245.952 L
128.033 248.493 L
122.127 250.211 L
116.221 251.186 L
110.316 251.947 L
104.41 252.262 L
98.5037 253.387 L
92.5978 248.077 L
86.6918 242.6 L
80.7859 233.116 L
74.88 214.783 L
74.88 179.974 L
80.7859 179.974 L
86.6918 179.974 L
92.5978 179.974 L
98.5037 179.974 L
104.41 179.974 L
110.316 179.974 L
116.221 179.974 L
122.127 179.974 L
128.033 179.974 L
133.939 179.974 L
139.845 179.974 L
145.751 179.974 L
151.657 179.974 L
157.563 179.974 L
163.469 179.974 L
169.375 179.974 L
175.281 179.974 L
181.187 179.974 L
187.093 179.974 L
187.093 232.081 LE
1 1 1 C
145.751 179.974 151.657 180.498 151.657 179.974 T
157.563 179.974 151.657 179.974 151.657 180.498 T
157.563 182.039 157.563 179.974 151.657 180.498 T
163.469 179.974 157.563 179.974 157.563 182.039 T
163.469 181.878 163.469 179.974 157.563 182.039 T
169.375 179.974 163.469 179.974 163.469 181.878 T
169.375 181.742 169.375 179.974 163.469 181.878 T
175.281 179.974 169.375 179.974 169.375 181.742 T
175.281 181.625 175.281 179.974 169.375 181.742 T
181.187 179.974 175.281 179.974 175.281 181.625 T
181.187 181.522 181.187 179.974 175.281 181.625 T
187.093 179.974 181.187 179.974 181.187 181.522 T
187.093 181.325 187.093 179.974 181.187 181.522 T
74.88 179.974 74.88 181.737 80.7859 179.974 T
80.7859 186.192 80.7859 179.974 74.88 181.737 T
86.6918 179.974 80.7859 179.974 80.7859 186.192 T
86.6918 186.901 86.6918 179.974 80.7859 186.192 T
92.5978 179.974 86.6918 179.974 86.6918 186.901 T
92.5978 186.678 92.5978 179.974 86.6918 186.901 T
98.5037 179.974 92.5978 179.974 92.5978 186.678 T
98.5037 188.92 98.5037 179.974 92.5978 186.678 T
104.41 179.974 98.5037 179.974 98.5037 188.92 T
104.41 186.63 104.41 179.974 98.5037 188.92 T
110.316 179.974 104.41 179.974 104.41 186.63 T
110.316 186.097 110.316 179.974 104.41 186.63 T
116.221 179.974 110.316 179.974 110.316 186.097 T
116.221 185.3 116.221 179.974 110.316 186.097 T
122.127 179.974 116.221 179.974 116.221 185.3 T
122.127 184.583 122.127 179.974 116.221 185.3 T
128.033 179.974 122.127 179.974 122.127 184.583 T
128.033 184.241 128.033 179.974 122.127 184.583 T
133.939 179.974 128.033 179.974 128.033 184.241 T
133.939 183.175 133.939 179.974 128.033 184.241 T
139.845 179.974 133.939 179.974 133.939 183.175 T
139.845 180.875 139.845 179.974 133.939 183.175 T
145.751 179.974 139.845 179.974 139.845 180.875 T
0 0 0 C
145.751 179.974 LS
139.845 180.875 L
133.939 183.175 L
128.033 184.241 L
122.127 184.583 L
116.221 185.3 L
110.316 186.097 L
104.41 186.63 L
98.5037 188.92 L
92.5978 186.678 L
86.6918 186.901 L
80.7859 186.192 L
74.88 181.737 L
74.88 179.974 L
80.7859 179.974 L
86.6918 179.974 L
92.5978 179.974 L
98.5037 179.974 L
104.41 179.974 L
110.316 179.974 L
116.221 179.974 L
122.127 179.974 L
128.033 179.974 L
133.939 179.974 L
139.845 179.974 L
145.751 179.974 LE
187.093 181.325 LS
181.187 181.522 L
175.281 181.625 L
169.375 181.742 L
163.469 181.878 L
157.563 182.039 L
151.657 180.498 L
145.751 179.974 L
151.657 179.974 L
157.563 179.974 L
163.469 179.974 L
169.375 179.974 L
175.281 179.974 L
181.187 179.974 L
187.093 179.974 L
187.093 181.325 LE
3 W
1 LJ
74.88 198.857 LS
80.7859 210.313 L
86.6918 216.596 L
92.5978 219.668 L
98.5037 220.698 L
104.41 220.486 L
110.316 219.567 L
116.221 218.286 L
122.127 216.859 L
128.033 215.416 L
133.939 214.031 L
139.845 212.741 L
145.751 211.563 L
151.657 210.5 L
157.563 209.547 L
163.469 208.694 L
169.375 207.932 L
175.281 207.248 L
181.187 206.633 L
187.093 206.078 LE
grestore
gsave
1.0 1.0 scale
newpath 0 0 moveto 576 0 lineto 576 432 lineto 0 432 lineto
closepath clip
1 1 1 C
241.974 253.387 354.186 179.974 241.974 179.974 T
241.974 253.387 354.186 253.387 354.186 179.974 T
0.5 W
0.15 0.15 0.15 C
265.597 179.974 LS
265.597 181.102 LE
265.597 253.387 LS
265.597 252.258 LE
295.127 179.974 LS
295.127 181.102 LE
295.127 253.387 LS
295.127 252.258 LE
324.657 179.974 LS
324.657 181.102 LE
324.657 253.387 LS
324.657 252.258 LE
354.186 179.974 LS
354.186 181.102 LE
354.186 253.387 LS
354.186 252.258 LE
gsave
0.14902 0.14902 0.14902 C
(5) [10] 0 262.597 164.431 10 /Helvetica SRX
grestore

gsave
0.14902 0.14902 0.14902 C
(10) [6 10] 0 289.127 164.431 10 /Helvetica SRX
grestore

gsave
0.14902 0.14902 0.14902 C
(15) [6 10] 0 318.657 164.431 10 /Helvetica SRX
grestore

gsave
0.14902 0.14902 0.14902 C
(20) [6 10] 0 348.186 164.431 10 /Helvetica SRX
grestore

241.974 190.378 LS
243.098 190.378 LE
354.186 190.378 LS
353.062 190.378 LE
241.974 203.897 LS
243.098 203.897 LE
354.186 203.897 LS
353.062 203.897 LE
241.974 217.416 LS
243.098 217.416 LE
354.186 217.416 LS
353.062 217.416 LE
241.974 230.935 LS
243.098 230.935 LE
354.186 230.935 LS
353.062 230.935 LE
241.974 244.454 LS
243.098 244.454 LE
354.186 244.454 LS
353.062 244.454 LE
gsave
0.14902 0.14902 0.14902 C
(0.005) [6 3 6 6 10] 0 209.964 186.378 10 /Helvetica SRX
grestore

gsave
0.14902 0.14902 0.14902 C
(0.01) [6 3 6 10] 0 215.964 199.897 10 /Helvetica SRX
grestore

gsave
0.14902 0.14902 0.14902 C
(0.015) [6 3 6 6 10] 0 209.964 213.416 10 /Helvetica SRX
grestore

gsave
0.14902 0.14902 0.14902 C
(0.02) [6 3 6 10] 0 215.964 226.935 10 /Helvetica SRX
grestore

gsave
0.14902 0.14902 0.14902 C
(0.025) [6 3 6 6 10] 0 209.964 240.454 10 /Helvetica SRX
grestore

2 LC
[16 0] 0 setdash
241.974 179.974 LS
354.186 179.974 LE
241.974 253.387 LS
354.186 253.387 LE
241.974 179.974 LS
241.974 253.387 LE
354.186 179.974 LS
354.186 253.387 LE
gsave
0 0 0 C
(I_hat) [3 6 7 6 10] 0 285.08 265.387 11 /Helvetica-Bold SRX
grestore

0.9 0.9 0.9 C
241.974 179.974 241.974 253.387 247.88 179.974 T
247.88 250.224 247.88 179.974 241.974 253.387 T
253.786 179.974 247.88 179.974 247.88 250.224 T
253.786 246.632 253.786 179.974 247.88 250.224 T
259.691 179.974 253.786 179.974 253.786 246.632 T
259.691 242.797 259.691 179.974 253.786 246.632 T
265.597 179.974 259.691 179.974 259.691 242.797 T
265.597 239.175 265.597 179.974 259.691 242.797 T
271.503 179.974 265.597 179.974 265.597 239.175 T
271.503 234.94 271.503 179.974 265.597 239.175 T
277.409 179.974 271.503 179.974 271.503 234.94 T
277.409 229.766 277.409 179.974 271.503 234.94 T
283.315 179.974 277.409 179.974 277.409 229.766 T
283.315 226.379 283.315 179.974 277.409 229.766 T
289.221 179.974 283.315 179.974 283.315 226.379 T
289.221 222.664 289.221 179.974 283.315 226.379 T
295.127 179.974 289.221 179.974 289.221 222.664 T
295.127 218.761 295.127 179.974 289.221 222.664 T
301.033 179.974 295.127 179.974 295.127 218.761 T
301.033 214.79 301.033 179.974 295.127 218.761 T
306.939 179.974 301.033 179.974 301.033 214.79 T
306.939 212.819 306.939 179.974 301.033 214.79 T
312.845 179.974 306.939 179.974 306.939 212.819 T
312.845 209.357 312.845 179.974 306.939 212.819 T
318.751 179.974 312.845 179.974 312.845 209.357 T
318.751 207.162 318.751 179.974 312.845 209.357 T
324.657 179.974 318.751 179.974 318.751 207.162 T
324.657 205.781 324.657 179.974 318.751 207.162 T
330.563 179.974 324.657 179.974 324.657 205.781 T
330.563 203.599 330.563 179.974 324.657 205.781 T
336.469 179.974 330.563 179.974 330.563 203.599 T
336.469 201.569 336.469 179.974 330.563 203.599 T
342.374 179.974 336.469 179.974 336.469 201.569 T
342.374 200.117 342.374 179.974 336.469 201.569 T
348.28 179.974 342.374 179.974 342.374 200.117 T
348.28 198.497 348.28 179.974 342.374 200.117 T
354.186 179.974 348.28 179.974 348.28 198.497 T
354.186 197.22 354.186 179.974 348.28 198.497 T
0 LC
[] 0 setdash
0 0 0 C
354.186 197.22 LS
348.28 198.497 L
342.374 200.117 L
336.469 201.569 L
330.563 203.599 L
324.657 205.781 L
318.751 207.162 L
312.845 209.357 L
306.939 212.819 L
301.033 214.79 L
295.127 218.761 L
289.221 222.664 L
283.315 226.379 L
277.409 229.766 L
271.503 234.94 L
265.597 239.175 L
259.691 242.797 L
253.786 246.632 L
247.88 250.224 L
241.974 253.387 L
241.974 179.974 L
247.88 179.974 L
253.786 179.974 L
259.691 179.974 L
265.597 179.974 L
271.503 179.974 L
277.409 179.974 L
283.315 179.974 L
289.221 179.974 L
295.127 179.974 L
301.033 179.974 L
306.939 179.974 L
312.845 179.974 L
318.751 179.974 L
324.657 179.974 L
330.563 179.974 L
336.469 179.974 L
342.374 179.974 L
348.28 179.974 L
354.186 179.974 L
354.186 197.22 LE
1 1 1 C
241.974 179.974 241.974 192.618 247.88 179.974 T
247.88 191.337 247.88 179.974 241.974 192.618 T
253.786 179.974 247.88 179.974 247.88 191.337 T
253.786 190.155 253.786 179.974 247.88 191.337 T
259.691 179.974 253.786 179.974 253.786 190.155 T
259.691 188.942 259.691 179.974 253.786 190.155 T
265.597 179.974 259.691 179.974 259.691 188.942 T
265.597 188.599 265.597 179.974 259.691 188.942 T
271.503 179.974 265.597 179.974 265.597 188.599 T
271.503 187.607 271.503 179.974 265.597 188.599 T
277.409 179.974 271.503 179.974 271.503 187.607 T
277.409 185.724 277.409 179.974 271.503 187.607 T
283.315 179.974 277.409 179.974 277.409 185.724 T
283.315 185.599 283.315 179.974 277.409 185.724 T
289.221 179.974 283.315 179.974 283.315 185.599 T
289.221 184.665 289.221 179.974 283.315 185.599 T
295.127 179.974 289.221 179.974 289.221 184.665 T
295.127 183.577 295.127 179.974 289.221 184.665 T
301.033 179.974 295.127 179.974 295.127 183.577 T
301.033 182.234 301.033 179.974 295.127 183.577 T
306.939 179.974 301.033 179.974 301.033 182.234 T
306.939 182.47 306.939 179.974 301.033 182.234 T
312.845 179.974 306.939 179.974 306.939 182.47 T
312.845 181.237 312.845 179.974 306.939 182.47 T
318.751 179.974 312.845 179.974 312.845 181.237 T
318.751 181.098 318.751 179.974 312.845 181.237 T
324.657 179.974 318.751 179.974 318.751 181.098 T
324.657 181.507 324.657 179.974 318.751 181.098 T
330.563 179.974 324.657 179.974 324.657 181.507 T
330.563 181.036 330.563 179.974 324.657 181.507 T
336.469 179.974 330.563 179.974 330.563 181.036 T
336.469 180.599 336.469 179.974 330.563 181.036 T
342.374 179.974 336.469 179.974 336.469 180.599 T
342.374 180.505 342.374 179.974 336.469 180.599 T
348.28 179.974 342.374 179.974 342.374 180.505 T
348.28 180.158 348.28 179.974 342.374 180.505 T
354.186 179.974 348.28 179.974 348.28 180.158 T
0 0 0 C
354.186 179.974 LS
348.28 180.158 L
342.374 180.505 L
336.469 180.599 L
330.563 181.036 L
324.657 181.507 L
318.751 181.098 L
312.845 181.237 L
306.939 182.47 L
301.033 182.234 L
295.127 183.577 L
289.221 184.665 L
283.315 185.599 L
277.409 185.724 L
271.503 187.607 L
265.597 188.599 L
259.691 188.942 L
253.786 190.155 L
247.88 191.337 L
241.974 192.618 L
241.974 179.974 L
247.88 179.974 L
253.786 179.974 L
259.691 179.974 L
265.597 179.974 L
271.503 179.974 L
277.409 179.974 L
283.315 179.974 L
289.221 179.974 L
295.127 179.974 L
301.033 179.974 L
306.939 179.974 L
312.845 179.974 L
318.751 179.974 L
324.657 179.974 L
330.563 179.974 L
336.469 179.974 L
342.374 179.974 L
348.28 179.974 L
354.186 179.974 LE
3 W
1 LJ
241.974 224.035 LS
247.88 221.885 L
253.786 219.372 L
259.691 216.597 L
265.597 213.726 L
271.503 210.887 L
277.409 208.16 L
283.315 205.596 L
289.221 203.22 L
295.127 201.044 L
301.033 199.066 L
306.939 197.281 L
312.845 195.677 L
318.751 194.242 L
324.657 192.96 L
330.563 191.819 L
336.469 190.805 L
342.374 189.904 L
348.28 189.104 L
354.186 188.395 LE
grestore
gsave
1.0 1.0 scale
newpath 0 0 moveto 576 0 lineto 576 432 lineto 0 432 lineto
closepath clip
1 1 1 C
409.067 253.387 521.28 179.974 409.067 179.974 T
409.067 253.387 521.28 253.387 521.28 179.974 T
0.5 W
0.15 0.15 0.15 C
432.691 179.974 LS
432.691 181.102 LE
432.691 253.387 LS
432.691 252.258 LE
462.221 179.974 LS
462.221 181.102 LE
462.221 253.387 LS
462.221 252.258 LE
491.75 179.974 LS
491.75 181.102 LE
491.75 253.387 LS
491.75 252.258 LE
521.28 179.974 LS
521.28 181.102 LE
521.28 253.387 LS
521.28 252.258 LE
gsave
0.14902 0.14902 0.14902 C
(5) [10] 0 429.691 164.431 10 /Helvetica SRX
grestore

gsave
0.14902 0.14902 0.14902 C
(10) [6 10] 0 456.221 164.431 10 /Helvetica SRX
grestore

gsave
0.14902 0.14902 0.14902 C
(15) [6 10] 0 485.75 164.431 10 /Helvetica SRX
grestore

gsave
0.14902 0.14902 0.14902 C
(20) [6 10] 0 515.28 164.431 10 /Helvetica SRX
grestore

409.067 187.091 LS
410.192 187.091 LE
521.28 187.091 LS
520.156 187.091 LE
409.067 198.098 LS
410.192 198.098 LE
521.28 198.098 LS
520.156 198.098 LE
409.067 209.105 LS
410.192 209.105 LE
521.28 209.105 LS
520.156 209.105 LE
409.067 220.112 LS
410.192 220.112 LE
521.28 220.112 LS
520.156 220.112 LE
409.067 231.119 LS
410.192 231.119 LE
521.28 231.119 LS
520.156 231.119 LE
409.067 242.127 LS
410.192 242.127 LE
521.28 242.127 LS
520.156 242.127 LE
409.067 253.134 LS
410.192 253.134 LE
521.28 253.134 LS
520.156 253.134 LE
gsave
0.14902 0.14902 0.14902 C
(0.001) [6 3 6 6 10] 0 377.058 183.091 10 /Helvetica SRX
grestore

gsave
0.14902 0.14902 0.14902 C
(0.002) [6 3 6 6 10] 0 377.058 194.098 10 /Helvetica SRX
grestore

gsave
0.14902 0.14902 0.14902 C
(0.003) [6 3 6 6 10] 0 377.058 205.105 10 /Helvetica SRX
grestore

gsave
0.14902 0.14902 0.14902 C
(0.004) [6 3 6 6 10] 0 377.058 216.112 10 /Helvetica SRX
grestore

gsave
0.14902 0.14902 0.14902 C
(0.005) [6 3 6 6 10] 0 377.058 227.119 10 /Helvetica SRX
grestore

gsave
0.14902 0.14902 0.14902 C
(0.006) [6 3 6 6 10] 0 377.058 238.127 10 /Helvetica SRX
grestore

gsave
0.14902 0.14902 0.14902 C
(0.007) [6 3 6 6 10] 0 377.058 249.134 10 /Helvetica SRX
grestore

2 LC
[16 0] 0 setdash
409.067 179.974 LS
521.28 179.974 LE
409.067 253.387 LS
521.28 253.387 LE
409.067 179.974 LS
409.067 253.387 LE
521.28 179.974 LS
521.28 253.387 LE
gsave
0 0 0 C
(L_hat) [7 6 7 6 10] 0 450.174 265.387 11 /Helvetica-Bold SRX
grestore

0.9 0.9 0.9 C
409.067 179.974 409.067 214.859 414.973 179.974 T
414.973 236.136 414.973 179.974 409.067 214.859 T
420.879 179.974 414.973 179.974 414.973 236.136 T
420.879 246.903 420.879 179.974 414.973 236.136 T
426.785 179.974 420.879 179.974 420.879 246.903 T
426.785 252.146 426.785 179.974 420.879 246.903 T
432.691 179.974 426.785 179.974 426.785 252.146 T
432.691 253.387 432.691 179.974 426.785 252.146 T
438.597 179.974 432.691 179.974 432.691 253.387 T
438.597 250.009 438.597 179.974 432.691 253.387 T
444.503 179.974 438.597 179.974 438.597 250.009 T
444.503 246.502 444.503 179.974 438.597 250.009 T
450.409 179.974 444.503 179.974 444.503 246.502 T
450.409 243.809 450.409 179.974 444.503 246.502 T
456.315 179.974 450.409 179.974 450.409 243.809 T
456.315 241.181 456.315 179.974 450.409 243.809 T
462.221 179.974 456.315 179.974 456.315 241.181 T
462.221 237.079 462.221 179.974 456.315 241.181 T
468.127 179.974 462.221 179.974 462.221 237.079 T
468.127 233.329 468.127 179.974 462.221 237.079 T
474.033 179.974 468.127 179.974 468.127 233.329 T
474.033 231.008 474.033 179.974 468.127 233.329 T
479.939 179.974 474.033 179.974 474.033 231.008 T
479.939 227.66 479.939 179.974 474.033 231.008 T
485.844 179.974 479.939 179.974 479.939 227.66 T
485.844 224.378 485.844 179.974 479.939 227.66 T
491.75 179.974 485.844 179.974 485.844 224.378 T
491.75 222.176 491.75 179.974 485.844 224.378 T
497.656 179.974 491.75 179.974 491.75 222.176 T
497.656 220.14 497.656 179.974 491.75 222.176 T
503.562 179.974 497.656 179.974 497.656 220.14 T
503.562 218.05 503.562 179.974 497.656 220.14 T
509.468 179.974 503.562 179.974 503.562 218.05 T
509.468 216.309 509.468 179.974 503.562 218.05 T
515.374 179.974 509.468 179.974 509.468 216.309 T
515.374 214.85 515.374 179.974 509.468 216.309 T
521.28 179.974 515.374 179.974 515.374 214.85 T
521.28 213.816 521.28 179.974 515.374 214.85 T
0 LC
[] 0 setdash
0 0 0 C
521.28 213.816 LS
515.374 214.85 L
509.468 216.309 L
503.562 218.05 L
497.656 220.14 L
491.75 222.176 L
485.844 224.378 L
479.939 227.66 L
474.033 231.008 L
468.127 233.329 L
462.221 237.079 L
456.315 241.181 L
450.409 243.809 L
444.503 246.502 L
438.597 250.009 L
432.691 253.387 L
426.785 252.146 L
420.879 246.903 L
414.973 236.136 L
409.067 214.859 L
409.067 179.974 L
414.973 179.974 L
420.879 179.974 L
426.785 179.974 L
432.691 179.974 L
438.597 179.974 L
444.503 179.974 L
450.409 179.974 L
456.315 179.974 L
462.221 179.974 L
468.127 179.974 L
474.033 179.974 L
479.939 179.974 L
485.844 179.974 L
491.75 179.974 L
497.656 179.974 L
503.562 179.974 L
509.468 179.974 L
515.374 179.974 L
521.28 179.974 L
521.28 213.816 LE
1 1 1 C
521.28 179.974 515.374 179.974 521.28 180.259 T
409.067 179.974 409.067 183.028 414.973 179.974 T
414.973 187.621 414.973 179.974 409.067 183.028 T
420.879 179.974 414.973 179.974 414.973 187.621 T
420.879 190.204 420.879 179.974 414.973 187.621 T
426.785 179.974 420.879 179.974 420.879 190.204 T
426.785 191.414 426.785 179.974 420.879 190.204 T
432.691 179.974 426.785 179.974 426.785 191.414 T
432.691 190.531 432.691 179.974 426.785 191.414 T
438.597 179.974 432.691 179.974 432.691 190.531 T
438.597 187.162 438.597 179.974 432.691 190.531 T
444.503 179.974 438.597 179.974 438.597 187.162 T
444.503 185.735 444.503 179.974 438.597 187.162 T
450.409 179.974 444.503 179.974 444.503 185.735 T
450.409 184.664 450.409 179.974 444.503 185.735 T
456.315 179.974 450.409 179.974 450.409 184.664 T
456.315 183.734 456.315 179.974 450.409 184.664 T
462.221 179.974 456.315 179.974 456.315 183.734 T
462.221 182.492 462.221 179.974 456.315 183.734 T
468.127 179.974 462.221 179.974 462.221 182.492 T
468.127 181.544 468.127 179.974 462.221 182.492 T
474.033 179.974 468.127 179.974 468.127 181.544 T
474.033 181.694 474.033 179.974 468.127 181.544 T
479.939 179.974 474.033 179.974 474.033 181.694 T
479.939 180.914 479.939 179.974 474.033 181.694 T
485.844 179.974 479.939 179.974 479.939 180.914 T
485.844 180.186 485.844 179.974 479.939 180.914 T
491.75 179.974 485.844 179.974 485.844 180.186 T
491.75 180.338 491.75 179.974 485.844 180.186 T
497.656 179.974 491.75 179.974 491.75 180.338 T
497.656 180.346 497.656 179.974 491.75 180.338 T
503.562 179.974 497.656 179.974 497.656 180.346 T
503.562 180.012 503.562 179.974 497.656 180.346 T
509.468 179.974 503.562 179.974 503.562 180.012 T
509.468 179.989 509.468 179.974 503.562 180.012 T
515.374 179.974 509.468 179.974 509.468 179.989 T
0 0 0 C
515.374 179.974 LS
509.468 179.989 L
503.562 180.012 L
497.656 180.346 L
491.75 180.338 L
485.844 180.186 L
479.939 180.914 L
474.033 181.694 L
468.127 181.544 L
462.221 182.492 L
456.315 183.734 L
450.409 184.664 L
444.503 185.735 L
438.597 187.162 L
432.691 190.531 L
426.785 191.414 L
420.879 190.204 L
414.973 187.621 L
409.067 183.028 L
409.067 179.974 L
414.973 179.974 L
420.879 179.974 L
426.785 179.974 L
432.691 179.974 L
438.597 179.974 L
444.503 179.974 L
450.409 179.974 L
456.315 179.974 L
462.221 179.974 L
468.127 179.974 L
474.033 179.974 L
479.939 179.974 L
485.844 179.974 L
491.75 179.974 L
497.656 179.974 L
503.562 179.974 L
509.468 179.974 L
515.374 179.974 LE
521.28 180.259 LS
515.374 179.974 L
521.28 179.974 L
521.28 180.259 LE
3 W
1 LJ
409.067 199.053 LS
414.973 212.635 L
420.879 219.458 L
426.785 221.929 L
432.691 221.793 L
438.597 220.202 L
444.503 217.889 L
450.409 215.3 L
456.315 212.701 L
462.221 210.237 L
468.127 207.982 L
474.033 205.964 L
479.939 204.185 L
485.844 202.632 L
491.75 201.284 L
497.656 200.118 L
503.562 199.112 L
509.468 198.243 L
515.374 197.491 L
521.28 196.839 LE
grestore
gsave
1.0 1.0 scale
newpath 0 0 moveto 576 0 lineto 576 432 lineto 0 432 lineto
closepath clip
1 1 1 C
74.88 120.933 187.093 47.52 74.88 47.52 T
74.88 120.933 187.093 120.933 187.093 47.52 T
0.5 W
0.15 0.15 0.15 C
98.5037 47.52 LS
98.5037 48.6485 LE
98.5037 120.933 LS
98.5037 119.805 LE
128.033 47.52 LS
128.033 48.6485 LE
128.033 120.933 LS
128.033 119.805 LE
157.563 47.52 LS
157.563 48.6485 LE
157.563 120.933 LS
157.563 119.805 LE
187.093 47.52 LS
187.093 48.6485 LE
187.093 120.933 LS
187.093 119.805 LE
gsave
0.14902 0.14902 0.14902 C
(5) [10] 0 95.5037 31.9776 10 /Helvetica SRX
grestore

gsave
0.14902 0.14902 0.14902 C
(10) [6 10] 0 122.033 31.9776 10 /Helvetica SRX
grestore

gsave
0.14902 0.14902 0.14902 C
(15) [6 10] 0 151.563 31.9776 10 /Helvetica SRX
grestore

gsave
0.14902 0.14902 0.14902 C
(20) [6 10] 0 181.093 31.9776 10 /Helvetica SRX
grestore

74.88 48.3438 LS
76.0043 48.3438 LE
187.093 48.3438 LS
185.968 48.3438 LE
74.88 58.9691 LS
76.0043 58.9691 LE
187.093 58.9691 LS
185.968 58.9691 LE
74.88 69.5944 LS
76.0043 69.5944 LE
187.093 69.5944 LS
185.968 69.5944 LE
74.88 80.2197 LS
76.0043 80.2197 LE
187.093 80.2197 LS
185.968 80.2197 LE
74.88 90.8451 LS
76.0043 90.8451 LE
187.093 90.8451 LS
185.968 90.8451 LE
74.88 101.47 LS
76.0043 101.47 LE
187.093 101.47 LS
185.968 101.47 LE
74.88 112.096 LS
76.0043 112.096 LE
187.093 112.096 LS
185.968 112.096 LE
gsave
0.14902 0.14902 0.14902 C
(-0.001) [3 6 3 6 6 10] 0 39.8705 44.3438 10 /Helvetica SRX
grestore

gsave
0.14902 0.14902 0.14902 C
(0) [10] 0 63.8705 54.9691 10 /Helvetica SRX
grestore

gsave
0.14902 0.14902 0.14902 C
(0.001) [6 3 6 6 10] 0 42.8705 65.5944 10 /Helvetica SRX
grestore

gsave
0.14902 0.14902 0.14902 C
(0.002) [6 3 6 6 10] 0 42.8705 76.2198 10 /Helvetica SRX
grestore

gsave
0.14902 0.14902 0.14902 C
(0.003) [6 3 6 6 10] 0 42.8705 86.8451 10 /Helvetica SRX
grestore

gsave
0.14902 0.14902 0.14902 C
(0.004) [6 3 6 6 10] 0 42.8705 97.4704 10 /Helvetica SRX
grestore

gsave
0.14902 0.14902 0.14902 C
(0.005) [6 3 6 6 10] 0 42.8705 108.096 10 /Helvetica SRX
grestore

2 LC
[16 0] 0 setdash
74.88 47.52 LS
187.093 47.52 LE
74.88 120.933 LS
187.093 120.933 LE
74.88 47.52 LS
74.88 120.933 LE
187.093 47.52 LS
187.093 120.933 LE
gsave
0 0 0 C
(tb_y_hat) [4 7 6 6 6 7 6 10] 0 107.986 133.933 11 /Helvetica-Bold SRX
grestore

0.9 0.9 0.9 C
74.88 47.52 74.88 120.933 80.7859 47.52 T
80.7859 97.5015 80.7859 47.52 74.88 120.933 T
86.6918 47.52 80.7859 47.52 80.7859 97.5015 T
86.6918 82.0242 86.6918 47.52 80.7859 97.5015 T
92.5978 47.52 86.6918 47.52 86.6918 82.0242 T
92.5978 72.7142 92.5978 47.52 86.6918 82.0242 T
98.5037 47.52 92.5978 47.52 92.5978 72.7142 T
98.5037 66.1442 98.5037 47.52 92.5978 72.7142 T
104.41 47.52 98.5037 47.52 98.5037 66.1442 T
104.41 63.0166 104.41 47.52 98.5037 66.1442 T
110.316 47.52 104.41 47.52 104.41 63.0166 T
110.316 59.4931 110.316 47.52 104.41 63.0166 T
116.221 47.52 110.316 47.52 110.316 59.4931 T
116.221 57.5939 116.221 47.52 110.316 59.4931 T
122.127 47.52 116.221 47.52 116.221 57.5939 T
122.127 56.8009 122.127 47.52 116.221 57.5939 T
128.033 47.52 122.127 47.52 122.127 56.8009 T
128.033 55.9797 128.033 47.52 122.127 56.8009 T
133.939 47.52 128.033 47.52 128.033 55.9797 T
133.939 55.4023 133.939 47.52 128.033 55.9797 T
139.845 47.52 133.939 47.52 133.939 55.4023 T
139.845 55.5511 139.845 47.52 133.939 55.4023 T
145.751 47.52 139.845 47.52 139.845 55.5511 T
145.751 55.8095 145.751 47.52 139.845 55.5511 T
151.657 47.52 145.751 47.52 145.751 55.8095 T
151.657 55.9154 151.657 47.52 145.751 55.8095 T
157.563 47.52 151.657 47.52 151.657 55.9154 T
157.563 56.1882 157.563 47.52 151.657 55.9154 T
163.469 47.52 157.563 47.52 157.563 56.1882 T
163.469 56.4896 163.469 47.52 157.563 56.1882 T
169.375 47.52 163.469 47.52 163.469 56.4896 T
169.375 56.3297 169.375 47.52 163.469 56.4896 T
175.281 47.52 169.375 47.52 169.375 56.3297 T
175.281 56.4951 175.281 47.52 169.375 56.3297 T
181.187 47.52 175.281 47.52 175.281 56.4951 T
181.187 56.876 181.187 47.52 175.281 56.4951 T
187.093 47.52 181.187 47.52 181.187 56.876 T
187.093 57.2868 187.093 47.52 181.187 56.876 T
0 LC
[] 0 setdash
0 0 0 C
187.093 57.2868 LS
181.187 56.876 L
175.281 56.4951 L
169.375 56.3297 L
163.469 56.4896 L
157.563 56.1882 L
151.657 55.9154 L
145.751 55.8095 L
139.845 55.5511 L
133.939 55.4023 L
128.033 55.9797 L
122.127 56.8009 L
116.221 57.5939 L
110.316 59.4931 L
104.41 63.0166 L
98.5037 66.1442 L
92.5978 72.7142 L
86.6918 82.0242 L
80.7859 97.5015 L
74.88 120.933 L
74.88 47.52 L
80.7859 47.52 L
86.6918 47.52 L
92.5978 47.52 L
98.5037 47.52 L
104.41 47.52 L
110.316 47.52 L
116.221 47.52 L
122.127 47.52 L
128.033 47.52 L
133.939 47.52 L
139.845 47.52 L
145.751 47.52 L
151.657 47.52 L
157.563 47.52 L
163.469 47.52 L
169.375 47.52 L
175.281 47.52 L
181.187 47.52 L
187.093 47.52 L
187.093 57.2868 LE
1 1 1 C
133.939 47.52 139.845 47.9583 139.845 47.52 T
145.751 47.52 139.845 47.52 139.845 47.9583 T
145.751 48.6643 145.751 47.52 139.845 47.9583 T
151.657 47.52 145.751 47.52 145.751 48.6643 T
151.657 49.1931 151.657 47.52 145.751 48.6643 T
157.563 47.52 151.657 47.52 151.657 49.1931 T
157.563 49.7373 157.563 47.52 151.657 49.1931 T
163.469 47.52 157.563 47.52 157.563 49.7373 T
163.469 50.3554 163.469 47.52 157.563 49.7373 T
169.375 47.52 163.469 47.52 163.469 50.3554 T
169.375 50.4958 169.375 47.52 163.469 50.3554 T
175.281 47.52 169.375 47.52 169.375 50.4958 T
175.281 50.9052 175.281 47.52 169.375 50.4958 T
181.187 47.52 175.281 47.52 175.281 50.9052 T
181.187 51.5282 181.187 47.52 175.281 50.9052 T
187.093 47.52 181.187 47.52 181.187 51.5282 T
187.093 52.1863 187.093 47.52 181.187 51.5282 T
74.88 47.52 74.88 80.5185 80.7859 47.52 T
80.7859 72.9436 80.7859 47.52 74.88 80.5185 T
86.6918 47.52 80.7859 47.52 80.7859 72.9436 T
86.6918 65.4746 86.6918 47.52 80.7859 72.9436 T
92.5978 47.52 86.6918 47.52 86.6918 65.4746 T
92.5978 59.0737 92.5978 47.52 86.6918 65.4746 T
98.5037 47.52 92.5978 47.52 92.5978 59.0737 T
98.5037 53.8668 98.5037 47.52 92.5978 59.0737 T
104.41 47.52 98.5037 47.52 98.5037 53.8668 T
104.41 51.7682 104.41 47.52 98.5037 53.8668 T
110.316 47.52 104.41 47.52 104.41 51.7682 T
110.316 49.0691 110.316 47.52 104.41 51.7682 T
116.221 47.52 110.316 47.52 110.316 49.0691 T
116.221 48.0032 116.221 47.52 110.316 49.0691 T
122.127 47.52 116.221 47.52 116.221 48.0032 T
122.127 47.8225 122.127 47.52 116.221 48.0032 T
128.033 47.52 122.127 47.52 122.127 47.8225 T
128.033 47.6822 128.033 47.52 122.127 47.8225 T
133.939 47.52 128.033 47.52 128.033 47.6822 T
0 0 0 C
133.939 47.52 LS
128.033 47.6822 L
122.127 47.8225 L
116.221 48.0032 L
110.316 49.0691 L
104.41 51.7682 L
98.5037 53.8668 L
92.5978 59.0737 L
86.6918 65.4746 L
80.7859 72.9436 L
74.88 80.5185 L
74.88 47.52 L
80.7859 47.52 L
86.6918 47.52 L
92.5978 47.52 L
98.5037 47.52 L
104.41 47.52 L
110.316 47.52 L
116.221 47.52 L
122.127 47.52 L
128.033 47.52 L
133.939 47.52 LE
187.093 52.1863 LS
181.187 51.5282 L
175.281 50.9052 L
169.375 50.4958 L
163.469 50.3554 L
157.563 49.7373 L
151.657 49.1931 L
145.751 48.6643 L
139.845 47.9583 L
133.939 47.52 L
139.845 47.52 L
145.751 47.52 L
151.657 47.52 L
157.563 47.52 L
163.469 47.52 L
169.375 47.52 L
175.281 47.52 L
181.187 47.52 L
187.093 47.52 L
187.093 52.1863 LE
3 W
1 LJ
74.88 100.661 LS
80.7859 84.9 L
86.6918 73.8831 L
92.5978 66.134 L
98.5037 60.7549 L
104.41 57.095 L
110.316 54.6771 L
116.221 53.1513 L
122.127 52.2616 L
128.033 51.8205 L
133.939 51.691 L
139.845 51.7736 L
145.751 51.9959 L
151.657 52.3055 L
157.563 52.6652 L
163.469 53.0486 L
169.375 53.4373 L
175.281 53.8188 L
181.187 54.185 L
187.093 54.5307 LE
grestore
gsave
1.0 1.0 scale
newpath 0 0 moveto 576 0 lineto 576 432 lineto 0 432 lineto
closepath clip
1 1 1 C
241.974 120.933 354.186 47.52 241.974 47.52 T
241.974 120.933 354.186 120.933 354.186 47.52 T
0.5 W
0.15 0.15 0.15 C
265.597 47.52 LS
265.597 48.6485 LE
265.597 120.933 LS
265.597 119.805 LE
295.127 47.52 LS
295.127 48.6485 LE
295.127 120.933 LS
295.127 119.805 LE
324.657 47.52 LS
324.657 48.6485 LE
324.657 120.933 LS
324.657 119.805 LE
354.186 47.52 LS
354.186 48.6485 LE
354.186 120.933 LS
354.186 119.805 LE
gsave
0.14902 0.14902 0.14902 C
(5) [10] 0 262.597 31.9776 10 /Helvetica SRX
grestore

gsave
0.14902 0.14902 0.14902 C
(10) [6 10] 0 289.127 31.9776 10 /Helvetica SRX
grestore

gsave
0.14902 0.14902 0.14902 C
(15) [6 10] 0 318.657 31.9776 10 /Helvetica SRX
grestore

gsave
0.14902 0.14902 0.14902 C
(20) [6 10] 0 348.186 31.9776 10 /Helvetica SRX
grestore

241.974 48.4505 LS
243.098 48.4505 LE
354.186 48.4505 LS
353.062 48.4505 LE
241.974 68.4487 LS
243.098 68.4487 LE
354.186 68.4487 LS
353.062 68.4487 LE
241.974 88.4469 LS
243.098 88.4469 LE
354.186 88.4469 LS
353.062 88.4469 LE
241.974 108.445 LS
243.098 108.445 LE
354.186 108.445 LS
353.062 108.445 LE
gsave
0.14902 0.14902 0.14902 C
(-0.04) [3 6 3 6 10] 0 212.964 44.4505 10 /Helvetica SRX
grestore

gsave
0.14902 0.14902 0.14902 C
(-0.03) [3 6 3 6 10] 0 212.964 64.4487 10 /Helvetica SRX
grestore

gsave
0.14902 0.14902 0.14902 C
(-0.02) [3 6 3 6 10] 0 212.964 84.4469 10 /Helvetica SRX
grestore

gsave
0.14902 0.14902 0.14902 C
(-0.01) [3 6 3 6 10] 0 212.964 104.445 10 /Helvetica SRX
grestore

2 LC
[16 0] 0 setdash
241.974 47.52 LS
354.186 47.52 LE
241.974 120.933 LS
354.186 120.933 LE
241.974 47.52 LS
241.974 120.933 LE
354.186 47.52 LS
354.186 120.933 LE
gsave
0 0 0 C
(D_hat) [8 6 7 6 10] 0 282.58 132.933 11 /Helvetica-Bold SRX
grestore

0.9 0.9 0.9 C
241.974 47.52 241.974 117.21 247.88 47.52 T
247.88 109.282 247.88 47.52 241.974 117.21 T
253.786 47.52 247.88 47.52 247.88 109.282 T
253.786 104.2 253.786 47.52 247.88 109.282 T
259.691 47.52 253.786 47.52 253.786 104.2 T
259.691 101.523 259.691 47.52 253.786 104.2 T
265.597 47.52 259.691 47.52 259.691 101.523 T
265.597 100.898 265.597 47.52 259.691 101.523 T
271.503 47.52 265.597 47.52 265.597 100.898 T
271.503 101.948 271.503 47.52 265.597 100.898 T
277.409 47.52 271.503 47.52 271.503 101.948 T
277.409 103.836 277.409 47.52 271.503 101.948 T
283.315 47.52 277.409 47.52 277.409 103.836 T
283.315 104.737 283.315 47.52 277.409 103.836 T
289.221 47.52 283.315 47.52 283.315 104.737 T
289.221 106.817 289.221 47.52 283.315 104.737 T
295.127 47.52 289.221 47.52 289.221 106.817 T
295.127 108.901 295.127 47.52 289.221 106.817 T
301.033 47.52 295.127 47.52 295.127 108.901 T
301.033 110.579 301.033 47.52 295.127 108.901 T
306.939 47.52 301.033 47.52 301.033 110.579 T
306.939 113.475 306.939 47.52 301.033 110.579 T
312.845 47.52 306.939 47.52 306.939 113.475 T
312.845 115.303 312.845 47.52 306.939 113.475 T
318.751 47.52 312.845 47.52 312.845 115.303 T
318.751 116.057 318.751 47.52 312.845 115.303 T
324.657 47.52 318.751 47.52 318.751 116.057 T
324.657 116.994 324.657 47.52 318.751 116.057 T
330.563 47.52 324.657 47.52 324.657 116.994 T
330.563 117.94 330.563 47.52 324.657 116.994 T
336.469 47.52 330.563 47.52 330.563 117.94 T
336.469 118.769 336.469 47.52 330.563 117.94 T
342.374 47.52 336.469 47.52 336.469 118.769 T
342.374 119.606 342.374 47.52 336.469 118.769 T
348.28 47.52 342.374 47.52 342.374 119.606 T
348.28 120.445 348.28 47.52 342.374 119.606 T
354.186 47.52 348.28 47.52 348.28 120.445 T
354.186 120.933 354.186 47.52 348.28 120.445 T
0 LC
[] 0 setdash
0 0 0 C
354.186 120.933 LS
348.28 120.445 L
342.374 119.606 L
336.469 118.769 L
330.563 117.94 L
324.657 116.994 L
318.751 116.057 L
312.845 115.303 L
306.939 113.475 L
301.033 110.579 L
295.127 108.901 L
289.221 106.817 L
283.315 104.737 L
277.409 103.836 L
271.503 101.948 L
265.597 100.898 L
259.691 101.523 L
253.786 104.2 L
247.88 109.282 L
241.974 117.21 L
241.974 47.52 L
247.88 47.52 L
253.786 47.52 L
259.691 47.52 L
265.597 47.52 L
271.503 47.52 L
277.409 47.52 L
283.315 47.52 L
289.221 47.52 L
295.127 47.52 L
301.033 47.52 L
306.939 47.52 L
312.845 47.52 L
318.751 47.52 L
324.657 47.52 L
330.563 47.52 L
336.469 47.52 L
342.374 47.52 L
348.28 47.52 L
354.186 47.52 L
354.186 120.933 LE
1 1 1 C
271.503 47.52 277.409 48.9284 277.409 47.52 T
283.315 47.52 277.409 47.52 277.409 48.9284 T
283.315 49.871 283.315 47.52 277.409 48.9284 T
289.221 47.52 283.315 47.52 283.315 49.871 T
289.221 52.0353 289.221 47.52 283.315 49.871 T
295.127 47.52 289.221 47.52 289.221 52.0353 T
295.127 54.9789 295.127 47.52 289.221 52.0353 T
301.033 47.52 295.127 47.52 295.127 54.9789 T
301.033 57.3243 301.033 47.52 295.127 54.9789 T
306.939 47.52 301.033 47.52 301.033 57.3243 T
306.939 61.5451 306.939 47.52 301.033 57.3243 T
312.845 47.52 306.939 47.52 306.939 61.5451 T
312.845 64.1959 312.845 47.52 306.939 61.5451 T
318.751 47.52 312.845 47.52 312.845 64.1959 T
318.751 66.4264 318.751 47.52 312.845 64.1959 T
324.657 47.52 318.751 47.52 318.751 66.4264 T
324.657 68.8743 324.657 47.52 318.751 66.4264 T
330.563 47.52 324.657 47.52 324.657 68.8743 T
330.563 71.5531 330.563 47.52 324.657 68.8743 T
336.469 47.52 330.563 47.52 330.563 71.5531 T
336.469 74.2847 336.469 47.52 330.563 71.5531 T
342.374 47.52 336.469 47.52 336.469 74.2847 T
342.374 76.7677 342.374 47.52 336.469 74.2847 T
348.28 47.52 342.374 47.52 342.374 76.7677 T
348.28 79.0933 348.28 47.52 342.374 76.7677 T
354.186 47.52 348.28 47.52 348.28 79.0933 T
354.186 81.1027 354.186 47.52 348.28 79.0933 T
241.974 47.52 241.974 95.3561 247.88 47.52 T
247.88 73.5094 247.88 47.52 241.974 95.3561 T
253.786 47.52 247.88 47.52 247.88 73.5094 T
253.786 59.8649 253.786 47.52 247.88 73.5094 T
259.691 47.52 253.786 47.52 253.786 59.8649 T
259.691 51.8079 259.691 47.52 253.786 59.8649 T
265.597 47.52 259.691 47.52 259.691 51.8079 T
265.597 48.324 265.597 47.52 259.691 51.8079 T
271.503 47.52 265.597 47.52 265.597 48.324 T
0 0 0 C
271.503 47.52 LS
265.597 48.324 L
259.691 51.8079 L
253.786 59.8649 L
247.88 73.5094 L
241.974 95.3561 L
241.974 47.52 L
247.88 47.52 L
253.786 47.52 L
259.691 47.52 L
265.597 47.52 L
271.503 47.52 LE
354.186 81.1027 LS
348.28 79.0933 L
342.374 76.7677 L
336.469 74.2847 L
330.563 71.5531 L
324.657 68.8743 L
318.751 66.4264 L
312.845 64.1959 L
306.939 61.5451 L
301.033 57.3243 L
295.127 54.9789 L
289.221 52.0353 L
283.315 49.871 L
277.409 48.9284 L
271.503 47.52 L
277.409 47.52 L
283.315 47.52 L
289.221 47.52 L
295.127 47.52 L
301.033 47.52 L
306.939 47.52 L
312.845 47.52 L
318.751 47.52 L
324.657 47.52 L
330.563 47.52 L
336.469 47.52 L
342.374 47.52 L
348.28 47.52 L
354.186 47.52 L
354.186 81.1027 LE
3 W
1 LJ
241.974 106.31 LS
247.88 91.9851 L
253.786 82.9822 L
259.691 77.7447 L
265.597 75.159 L
271.503 74.4157 L
277.409 74.9258 L
283.315 76.2627 L
289.221 78.1186 L
295.127 80.2736 L
301.033 82.5721 L
306.939 84.906 L
312.845 87.2015 L
318.751 89.4105 L
324.657 91.5026 L
330.563 93.4609 L
336.469 95.2775 L
342.374 96.9512 L
348.28 98.4852 L
354.186 99.8852 LE
grestore
gsave
1.0 1.0 scale
newpath 0 0 moveto 576 0 lineto 576 432 lineto 0 432 lineto
closepath clip
1 1 1 C
409.067 120.933 521.28 47.52 409.067 47.52 T
409.067 120.933 521.28 120.933 521.28 47.52 T
0.5 W
0.15 0.15 0.15 C
432.691 47.52 LS
432.691 48.6485 LE
432.691 120.933 LS
432.691 119.805 LE
462.221 47.52 LS
462.221 48.6485 LE
462.221 120.933 LS
462.221 119.805 LE
491.75 47.52 LS
491.75 48.6485 LE
491.75 120.933 LS
491.75 119.805 LE
521.28 47.52 LS
521.28 48.6485 LE
521.28 120.933 LS
521.28 119.805 LE
gsave
0.14902 0.14902 0.14902 C
(5) [10] 0 429.691 31.9776 10 /Helvetica SRX
grestore

gsave
0.14902 0.14902 0.14902 C
(10) [6 10] 0 456.221 31.9776 10 /Helvetica SRX
grestore

gsave
0.14902 0.14902 0.14902 C
(15) [6 10] 0 485.75 31.9776 10 /Helvetica SRX
grestore

gsave
0.14902 0.14902 0.14902 C
(20) [6 10] 0 515.28 31.9776 10 /Helvetica SRX
grestore

409.067 60.4092 LS
410.192 60.4092 LE
521.28 60.4092 LS
520.156 60.4092 LE
409.067 75.1066 LS
410.192 75.1066 LE
521.28 75.1066 LS
520.156 75.1066 LE
409.067 89.804 LS
410.192 89.804 LE
521.28 89.804 LS
520.156 89.804 LE
409.067 104.501 LS
410.192 104.501 LE
521.28 104.501 LS
520.156 104.501 LE
409.067 119.199 LS
410.192 119.199 LE
521.28 119.199 LS
520.156 119.199 LE
gsave
0.14902 0.14902 0.14902 C
(0.001) [6 3 6 6 10] 0 377.058 56.4093 10 /Helvetica SRX
grestore

gsave
0.14902 0.14902 0.14902 C
(0.002) [6 3 6 6 10] 0 377.058 71.1066 10 /Helvetica SRX
grestore

gsave
0.14902 0.14902 0.14902 C
(0.003) [6 3 6 6 10] 0 377.058 85.804 10 /Helvetica SRX
grestore

gsave
0.14902 0.14902 0.14902 C
(0.004) [6 3 6 6 10] 0 377.058 100.501 10 /Helvetica SRX
grestore

gsave
0.14902 0.14902 0.14902 C
(0.005) [6 3 6 6 10] 0 377.058 115.199 10 /Helvetica SRX
grestore

2 LC
[16 0] 0 setdash
409.067 47.52 LS
521.28 47.52 LE
409.067 120.933 LS
521.28 120.933 LE
409.067 47.52 LS
409.067 120.933 LE
521.28 47.52 LS
521.28 120.933 LE
gsave
0 0 0 C
(reer_hat) [4 6 6 4 6 7 6 10] 0 443.674 132.933 11 /Helvetica-Bold SRX
grestore

0.9 0.9 0.9 C
409.067 47.52 409.067 112.833 414.973 47.52 T
414.973 120.933 414.973 47.52 409.067 112.833 T
420.879 47.52 414.973 47.52 414.973 120.933 T
420.879 120.281 420.879 47.52 414.973 120.933 T
426.785 47.52 420.879 47.52 420.879 120.281 T
426.785 117.882 426.785 47.52 420.879 120.281 T
432.691 47.52 426.785 47.52 426.785 117.882 T
432.691 113.686 432.691 47.52 426.785 117.882 T
438.597 47.52 432.691 47.52 432.691 113.686 T
438.597 108.894 438.597 47.52 432.691 113.686 T
444.503 47.52 438.597 47.52 438.597 108.894 T
444.503 104.154 444.503 47.52 438.597 108.894 T
450.409 47.52 444.503 47.52 444.503 104.154 T
450.409 98.0297 450.409 47.52 444.503 104.154 T
456.315 47.52 450.409 47.52 450.409 98.0297 T
456.315 93.2092 456.315 47.52 450.409 98.0297 T
462.221 47.52 456.315 47.52 456.315 93.2092 T
462.221 89.4865 462.221 47.52 456.315 93.2092 T
468.127 47.52 462.221 47.52 462.221 89.4865 T
468.127 85.2383 468.127 47.52 462.221 89.4865 T
474.033 47.52 468.127 47.52 468.127 85.2383 T
474.033 81.1404 474.033 47.52 468.127 85.2383 T
479.939 47.52 474.033 47.52 474.033 81.1404 T
479.939 77.7903 479.939 47.52 474.033 81.1404 T
485.844 47.52 479.939 47.52 479.939 77.7903 T
485.844 74.5801 485.844 47.52 479.939 77.7903 T
491.75 47.52 485.844 47.52 485.844 74.5801 T
491.75 71.3035 491.75 47.52 485.844 74.5801 T
497.656 47.52 491.75 47.52 491.75 71.3035 T
497.656 68.7365 497.656 47.52 491.75 71.3035 T
503.562 47.52 497.656 47.52 497.656 68.7365 T
503.562 66.5751 503.562 47.52 497.656 68.7365 T
509.468 47.52 503.562 47.52 503.562 66.5751 T
509.468 64.7624 509.468 47.52 503.562 66.5751 T
515.374 47.52 509.468 47.52 509.468 64.7624 T
515.374 63.2372 515.374 47.52 509.468 64.7624 T
521.28 47.52 515.374 47.52 515.374 63.2372 T
521.28 61.8027 521.28 47.52 515.374 63.2372 T
0 LC
[] 0 setdash
0 0 0 C
521.28 61.8027 LS
515.374 63.2372 L
509.468 64.7624 L
503.562 66.5751 L
497.656 68.7365 L
491.75 71.3035 L
485.844 74.5801 L
479.939 77.7903 L
474.033 81.1404 L
468.127 85.2383 L
462.221 89.4865 L
456.315 93.2092 L
450.409 98.0297 L
444.503 104.154 L
438.597 108.894 L
432.691 113.686 L
426.785 117.882 L
420.879 120.281 L
414.973 120.933 L
409.067 112.833 L
409.067 47.52 L
414.973 47.52 L
420.879 47.52 L
426.785 47.52 L
432.691 47.52 L
438.597 47.52 L
444.503 47.52 L
450.409 47.52 L
456.315 47.52 L
462.221 47.52 L
468.127 47.52 L
474.033 47.52 L
479.939 47.52 L
485.844 47.52 L
491.75 47.52 L
497.656 47.52 L
503.562 47.52 L
509.468 47.52 L
515.374 47.52 L
521.28 47.52 L
521.28 61.8027 LE
1 1 1 C
409.067 47.52 409.067 59.0563 414.973 47.52 T
414.973 61.7597 414.973 47.52 409.067 59.0563 T
420.879 47.52 414.973 47.52 414.973 61.7597 T
420.879 59.9519 420.879 47.52 414.973 61.7597 T
426.785 47.52 420.879 47.52 420.879 59.9519 T
426.785 59.0086 426.785 47.52 420.879 59.9519 T
432.691 47.52 426.785 47.52 426.785 59.0086 T
432.691 57.3905 432.691 47.52 426.785 59.0086 T
438.597 47.52 432.691 47.52 432.691 57.3905 T
438.597 55.7475 438.597 47.52 432.691 57.3905 T
444.503 47.52 438.597 47.52 438.597 55.7475 T
444.503 54.3226 444.503 47.52 438.597 55.7475 T
450.409 47.52 444.503 47.52 444.503 54.3226 T
450.409 52.074 450.409 47.52 444.503 54.3226 T
456.315 47.52 450.409 47.52 450.409 52.074 T
456.315 51.1553 456.315 47.52 450.409 52.074 T
462.221 47.52 456.315 47.52 456.315 51.1553 T
462.221 51.1431 462.221 47.52 456.315 51.1553 T
468.127 47.52 462.221 47.52 462.221 51.1431 T
468.127 50.4518 468.127 47.52 462.221 51.1431 T
474.033 47.52 468.127 47.52 468.127 50.4518 T
474.033 49.7068 474.033 47.52 468.127 50.4518 T
479.939 47.52 474.033 47.52 474.033 49.7068 T
479.939 49.3406 479.939 47.52 474.033 49.7068 T
485.844 47.52 479.939 47.52 479.939 49.3406 T
485.844 48.9108 485.844 47.52 479.939 49.3406 T
491.75 47.52 485.844 47.52 485.844 48.9108 T
491.75 48.1514 491.75 47.52 485.844 48.9108 T
497.656 47.52 491.75 47.52 491.75 48.1514 T
497.656 47.9409 497.656 47.52 491.75 48.1514 T
503.562 47.52 497.656 47.52 497.656 47.9409 T
503.562 47.7692 503.562 47.52 497.656 47.9409 T
509.468 47.52 503.562 47.52 503.562 47.7692 T
509.468 47.6095 509.468 47.52 503.562 47.7692 T
515.374 47.52 509.468 47.52 509.468 47.6095 T
515.374 47.616 515.374 47.52 509.468 47.6095 T
521.28 47.52 515.374 47.52 515.374 47.616 T
0 0 0 C
521.28 47.52 LS
515.374 47.616 L
509.468 47.6095 L
503.562 47.7692 L
497.656 47.9409 L
491.75 48.1514 L
485.844 48.9108 L
479.939 49.3406 L
474.033 49.7068 L
468.127 50.4518 L
462.221 51.1431 L
456.315 51.1553 L
450.409 52.074 L
444.503 54.3226 L
438.597 55.7475 L
432.691 57.3905 L
426.785 59.0086 L
420.879 59.9519 L
414.973 61.7597 L
409.067 59.0563 L
409.067 47.52 L
414.973 47.52 L
420.879 47.52 L
426.785 47.52 L
432.691 47.52 L
438.597 47.52 L
444.503 47.52 L
450.409 47.52 L
456.315 47.52 L
462.221 47.52 L
468.127 47.52 L
474.033 47.52 L
479.939 47.52 L
485.844 47.52 L
491.75 47.52 L
497.656 47.52 L
503.562 47.52 L
509.468 47.52 L
515.374 47.52 L
521.28 47.52 LE
3 W
1 LJ
409.067 89.0507 LS
414.973 93.3857 L
420.879 93.1505 L
426.785 90.8282 L
432.691 87.4377 L
438.597 83.6283 L
444.503 79.7893 L
450.409 76.1369 L
456.315 72.7789 L
462.221 69.7582 L
468.127 67.0798 L
474.033 64.7279 L
479.939 62.6766 L
485.844 60.8951 L
491.75 59.3523 L
497.656 58.0183 L
503.562 56.8656 L
509.468 55.8693 L
515.374 55.0075 L
521.28 54.2612 LE
grestore
grestore
showpage
cleartomark
%%PageTrailer
%%Trailer
end
%%EOF
