%!PS-Adobe-3.0 EPSF-3.0
%%Title: gl2ps_renderer figure
%%Creator: GL2PS 1.4.2, (C) 1999-2020 C. Geuzaine
%%For: Octave
%%CreationDate: Wed Oct  7 07:02:36 2020
%%LanguageLevel: 3
%%DocumentData: Clean7Bit
%%Pages: 1
%%BoundingBox: 0 0 576 432
%%EndComments
%%BeginProlog
/gl2psdict 64 dict def gl2psdict begin
/tryPS3shading false def % set to false to force subdivision
/rThreshold 0.064 def % red component subdivision threshold
/gThreshold 0.034 def % green component subdivision threshold
/bThreshold 0.1 def % blue component subdivision threshold
/BD { bind def } bind def
/C  { setrgbcolor } BD
/G  { 0.082 mul exch 0.6094 mul add exch 0.3086 mul add neg 1.0 add setgray } BD
/W  { setlinewidth } BD
/LC  { setlinecap } BD
/LJ  { setlinejoin } BD
/FC { findfont exch /SH exch def SH scalefont setfont } BD
/SW { dup stringwidth pop } BD
/S  { FC moveto show } BD
/SBC{ FC moveto SW -2 div 0 rmoveto show } BD
/SBR{ FC moveto SW neg 0 rmoveto show } BD
/SCL{ FC moveto 0 SH -2 div rmoveto show } BD
/SCC{ FC moveto SW -2 div SH -2 div rmoveto show } BD
/SCR{ FC moveto SW neg SH -2 div rmoveto show } BD
/STL{ FC moveto 0 SH neg rmoveto show } BD
/STC{ FC moveto SW -2 div SH neg rmoveto show } BD
/STR{ FC moveto SW neg SH neg rmoveto show } BD
/FCT { FC translate 0 0 } BD
/SR  { gsave FCT moveto rotate show grestore } BD
/SRX  { gsave FCT moveto rotate xshow grestore } BD
/SBCR{ gsave FCT moveto rotate SW -2 div 0 rmoveto show grestore } BD
/SBRR{ gsave FCT moveto rotate SW neg 0 rmoveto show grestore } BD
/SCLR{ gsave FCT moveto rotate 0 SH -2 div rmoveto show grestore} BD
/SCCR{ gsave FCT moveto rotate SW -2 div SH -2 div rmoveto show grestore} BD
/SCRR{ gsave FCT moveto rotate SW neg SH -2 div rmoveto show grestore} BD
/STLR{ gsave FCT moveto rotate 0 SH neg rmoveto show grestore } BD
/STCR{ gsave FCT moveto rotate SW -2 div SH neg rmoveto show grestore } BD
/STRR{ gsave FCT moveto rotate SW neg SH neg rmoveto show grestore } BD
/P  { newpath 0.0 360.0 arc closepath fill } BD
/LS { newpath moveto } BD
/L  { lineto } BD
/LE { lineto stroke } BD
/T  { newpath moveto lineto lineto closepath fill } BD
/STshfill {
      /b1 exch def /g1 exch def /r1 exch def /y1 exch def /x1 exch def
      /b2 exch def /g2 exch def /r2 exch def /y2 exch def /x2 exch def
      /b3 exch def /g3 exch def /r3 exch def /y3 exch def /x3 exch def
      gsave << /ShadingType 4 /ColorSpace [/DeviceRGB]
      /DataSource [ 0 x1 y1 r1 g1 b1 0 x2 y2 r2 g2 b2 0 x3 y3 r3 g3 b3 ] >>
      shfill grestore } BD
/Tm { 3 -1 roll 8 -1 roll 13 -1 roll add add 3 div
      3 -1 roll 7 -1 roll 11 -1 roll add add 3 div
      3 -1 roll 6 -1 roll 9 -1 roll add add 3 div C T } BD
/STsplit {
      4 index 15 index add 0.5 mul
      4 index 15 index add 0.5 mul
      4 index 15 index add 0.5 mul
      4 index 15 index add 0.5 mul
      4 index 15 index add 0.5 mul
      5 copy 5 copy 25 15 roll
      9 index 30 index add 0.5 mul
      9 index 30 index add 0.5 mul
      9 index 30 index add 0.5 mul
      9 index 30 index add 0.5 mul
      9 index 30 index add 0.5 mul
      5 copy 5 copy 35 5 roll 25 5 roll 15 5 roll
      4 index 10 index add 0.5 mul
      4 index 10 index add 0.5 mul
      4 index 10 index add 0.5 mul
      4 index 10 index add 0.5 mul
      4 index 10 index add 0.5 mul
      5 copy 5 copy 40 5 roll 25 5 roll 15 5 roll 25 5 roll
      STnoshfill STnoshfill STnoshfill STnoshfill } BD
/STnoshfill {
      2 index 8 index sub abs rThreshold gt
      { STsplit }
      { 1 index 7 index sub abs gThreshold gt
        { STsplit }
        { dup 6 index sub abs bThreshold gt
          { STsplit }
          { 2 index 13 index sub abs rThreshold gt
            { STsplit }
            { 1 index 12 index sub abs gThreshold gt
              { STsplit }
              { dup 11 index sub abs bThreshold gt
                { STsplit }
                { 7 index 13 index sub abs rThreshold gt
                  { STsplit }
                  { 6 index 12 index sub abs gThreshold gt
                    { STsplit }
                    { 5 index 11 index sub abs bThreshold gt
                      { STsplit }
                      { Tm }
                      ifelse }
                    ifelse }
                  ifelse }
                ifelse }
              ifelse }
            ifelse }
          ifelse }
        ifelse }
      ifelse } BD
tryPS3shading
{ /shfill where
  { /ST { STshfill } BD }
  { /ST { STnoshfill } BD }
  ifelse }
{ /ST { STnoshfill } BD }
ifelse
end
%%EndProlog
%%BeginSetup
/DeviceRGB setcolorspace
gl2psdict begin
%%EndSetup
%%Page: 1 1
%%BeginPageSetup
%%EndPageSetup
mark
gsave
1.0 1.0 scale
1 1 1 C
newpath 0 0 moveto 576 0 lineto 576 432 lineto 0 432 lineto
closepath fill
gsave
1.0 1.0 scale
1 1 1 C
newpath 0 0 moveto 576 0 lineto 576 432 lineto 0 432 lineto
closepath fill
newpath 0 0 moveto 576 0 lineto 576 432 lineto 0 432 lineto
closepath clip
1 1 1 C
74.88 386.841 187.093 312.427 74.88 312.427 T
74.88 386.841 187.093 386.841 187.093 312.427 T
0.5 W
0.15 0.15 0.15 C
98.5037 312.427 LS
98.5037 313.556 LE
98.5037 386.841 LS
98.5037 385.712 LE
128.033 312.427 LS
128.033 313.556 LE
128.033 386.841 LS
128.033 385.712 LE
157.563 312.427 LS
157.563 313.556 LE
157.563 386.841 LS
157.563 385.712 LE
187.093 312.427 LS
187.093 313.556 LE
187.093 386.841 LS
187.093 385.712 LE
gsave
0.14902 0.14902 0.14902 C
(5) [10] 0 95.5037 296.886 10 /Helvetica SRX
grestore

gsave
0.14902 0.14902 0.14902 C
(10) [6 10] 0 122.033 296.886 10 /Helvetica SRX
grestore

gsave
0.14902 0.14902 0.14902 C
(15) [6 10] 0 151.563 296.886 10 /Helvetica SRX
grestore

gsave
0.14902 0.14902 0.14902 C
(20) [6 10] 0 181.093 296.886 10 /Helvetica SRX
grestore

74.88 319.354 LS
76.0043 319.354 LE
187.093 319.354 LS
185.968 319.354 LE
74.88 329.227 LS
76.0043 329.227 LE
187.093 329.227 LS
185.968 329.227 LE
74.88 339.1 LS
76.0043 339.1 LE
187.093 339.1 LS
185.968 339.1 LE
74.88 348.973 LS
76.0043 348.973 LE
187.093 348.973 LS
185.968 348.973 LE
74.88 358.846 LS
76.0043 358.846 LE
187.093 358.846 LS
185.968 358.846 LE
74.88 368.719 LS
76.0043 368.719 LE
187.093 368.719 LS
185.968 368.719 LE
74.88 378.592 LS
76.0043 378.592 LE
187.093 378.592 LS
185.968 378.592 LE
gsave
0.14902 0.14902 0.14902 C
(0.004) [6 3 6 6 10] 0 42.8705 315.354 10 /Helvetica SRX
grestore

gsave
0.14902 0.14902 0.14902 C
(0.006) [6 3 6 6 10] 0 42.8705 325.227 10 /Helvetica SRX
grestore

gsave
0.14902 0.14902 0.14902 C
(0.008) [6 3 6 6 10] 0 42.8705 335.1 10 /Helvetica SRX
grestore

gsave
0.14902 0.14902 0.14902 C
(0.01) [6 3 6 10] 0 48.8705 344.973 10 /Helvetica SRX
grestore

gsave
0.14902 0.14902 0.14902 C
(0.012) [6 3 6 6 10] 0 42.8705 354.846 10 /Helvetica SRX
grestore

gsave
0.14902 0.14902 0.14902 C
(0.014) [6 3 6 6 10] 0 42.8705 364.719 10 /Helvetica SRX
grestore

gsave
0.14902 0.14902 0.14902 C
(0.016) [6 3 6 6 10] 0 42.8705 374.592 10 /Helvetica SRX
grestore

2 LC
[16 0] 0 setdash
74.88 312.427 LS
187.093 312.427 LE
74.88 386.841 LS
187.093 386.841 LE
74.88 312.427 LS
74.88 386.841 LE
187.093 312.427 LS
187.093 386.841 LE
gsave
0 0 0 C
(Y_T_hat) [7 6 7 6 7 6 10] 0 109.486 398.841 11 /Helvetica-Bold SRX
grestore

0.9 0.9 0.9 C
74.88 312.427 74.88 382.571 80.7859 312.427 T
80.7859 386.841 80.7859 312.427 74.88 382.571 T
86.6918 312.427 80.7859 312.427 80.7859 386.841 T
86.6918 380.588 86.6918 312.427 80.7859 386.841 T
92.5978 312.427 86.6918 312.427 86.6918 380.588 T
92.5978 375.32 92.5978 312.427 86.6918 380.588 T
98.5037 312.427 92.5978 312.427 92.5978 375.32 T
98.5037 370.631 98.5037 312.427 92.5978 375.32 T
104.41 312.427 98.5037 312.427 98.5037 370.631 T
104.41 365.238 104.41 312.427 98.5037 370.631 T
110.316 312.427 104.41 312.427 104.41 365.238 T
110.316 359.789 110.316 312.427 104.41 365.238 T
116.221 312.427 110.316 312.427 110.316 359.789 T
116.221 355.347 116.221 312.427 110.316 359.789 T
122.127 312.427 116.221 312.427 116.221 355.347 T
122.127 351.385 122.127 312.427 116.221 355.347 T
128.033 312.427 122.127 312.427 122.127 351.385 T
128.033 347.94 128.033 312.427 122.127 351.385 T
133.939 312.427 128.033 312.427 128.033 347.94 T
133.939 344.725 133.939 312.427 128.033 347.94 T
139.845 312.427 133.939 312.427 133.939 344.725 T
139.845 341.953 139.845 312.427 133.939 344.725 T
145.751 312.427 139.845 312.427 139.845 341.953 T
145.751 339.763 145.751 312.427 139.845 341.953 T
151.657 312.427 145.751 312.427 145.751 339.763 T
151.657 337.574 151.657 312.427 145.751 339.763 T
157.563 312.427 151.657 312.427 151.657 337.574 T
157.563 335.696 157.563 312.427 151.657 337.574 T
163.469 312.427 157.563 312.427 157.563 335.696 T
163.469 333.901 163.469 312.427 157.563 335.696 T
169.375 312.427 163.469 312.427 163.469 333.901 T
169.375 332.433 169.375 312.427 163.469 333.901 T
175.281 312.427 169.375 312.427 169.375 332.433 T
175.281 330.985 175.281 312.427 169.375 332.433 T
181.187 312.427 175.281 312.427 175.281 330.985 T
181.187 329.842 181.187 312.427 175.281 330.985 T
187.093 312.427 181.187 312.427 181.187 329.842 T
187.093 328.629 187.093 312.427 181.187 329.842 T
0 LC
[] 0 setdash
0 0 0 C
187.093 328.629 LS
181.187 329.842 L
175.281 330.985 L
169.375 332.433 L
163.469 333.901 L
157.563 335.696 L
151.657 337.574 L
145.751 339.763 L
139.845 341.953 L
133.939 344.725 L
128.033 347.94 L
122.127 351.385 L
116.221 355.347 L
110.316 359.789 L
104.41 365.238 L
98.5037 370.631 L
92.5978 375.32 L
86.6918 380.588 L
80.7859 386.841 L
74.88 382.571 L
74.88 312.427 L
80.7859 312.427 L
86.6918 312.427 L
92.5978 312.427 L
98.5037 312.427 L
104.41 312.427 L
110.316 312.427 L
116.221 312.427 L
122.127 312.427 L
128.033 312.427 L
133.939 312.427 L
139.845 312.427 L
145.751 312.427 L
151.657 312.427 L
157.563 312.427 L
163.469 312.427 L
169.375 312.427 L
175.281 312.427 L
181.187 312.427 L
187.093 312.427 L
187.093 328.629 LE
1 1 1 C
74.88 312.427 74.88 342.811 80.7859 312.427 T
80.7859 356.128 80.7859 312.427 74.88 342.811 T
86.6918 312.427 80.7859 312.427 80.7859 356.128 T
86.6918 354.204 86.6918 312.427 80.7859 356.128 T
92.5978 312.427 86.6918 312.427 86.6918 354.204 T
92.5978 349.229 92.5978 312.427 86.6918 354.204 T
98.5037 312.427 92.5978 312.427 92.5978 349.229 T
98.5037 344.421 98.5037 312.427 92.5978 349.229 T
104.41 312.427 98.5037 312.427 98.5037 344.421 T
104.41 339.032 104.41 312.427 98.5037 344.421 T
110.316 312.427 104.41 312.427 104.41 339.032 T
110.316 333.852 110.316 312.427 104.41 339.032 T
116.221 312.427 110.316 312.427 110.316 333.852 T
116.221 329.723 116.221 312.427 110.316 333.852 T
122.127 312.427 116.221 312.427 116.221 329.723 T
122.127 326.134 122.127 312.427 116.221 329.723 T
128.033 312.427 122.127 312.427 122.127 326.134 T
128.033 323.375 128.033 312.427 122.127 326.134 T
133.939 312.427 128.033 312.427 128.033 323.375 T
133.939 320.943 133.939 312.427 128.033 323.375 T
139.845 312.427 133.939 312.427 133.939 320.943 T
139.845 319.046 139.845 312.427 133.939 320.943 T
145.751 312.427 139.845 312.427 139.845 319.046 T
145.751 317.61 145.751 312.427 139.845 319.046 T
151.657 312.427 145.751 312.427 145.751 317.61 T
151.657 316.299 151.657 312.427 145.751 317.61 T
157.563 312.427 151.657 312.427 151.657 316.299 T
157.563 315.325 157.563 312.427 151.657 316.299 T
163.469 312.427 157.563 312.427 157.563 315.325 T
163.469 314.421 163.469 312.427 157.563 315.325 T
169.375 312.427 163.469 312.427 163.469 314.421 T
169.375 313.806 169.375 312.427 163.469 314.421 T
175.281 312.427 169.375 312.427 169.375 313.806 T
175.281 313.229 175.281 312.427 169.375 313.806 T
181.187 312.427 175.281 312.427 175.281 313.229 T
181.187 312.89 181.187 312.427 175.281 313.229 T
187.093 312.427 181.187 312.427 181.187 312.89 T
0 0 0 C
187.093 312.427 LS
181.187 312.89 L
175.281 313.229 L
169.375 313.806 L
163.469 314.421 L
157.563 315.325 L
151.657 316.299 L
145.751 317.61 L
139.845 319.046 L
133.939 320.943 L
128.033 323.375 L
122.127 326.134 L
116.221 329.723 L
110.316 333.852 L
104.41 339.032 L
98.5037 344.421 L
92.5978 349.229 L
86.6918 354.204 L
80.7859 356.128 L
74.88 342.811 L
74.88 312.427 L
80.7859 312.427 L
86.6918 312.427 L
92.5978 312.427 L
98.5037 312.427 L
104.41 312.427 L
110.316 312.427 L
116.221 312.427 L
122.127 312.427 L
128.033 312.427 L
133.939 312.427 L
139.845 312.427 L
145.751 312.427 L
151.657 312.427 L
157.563 312.427 L
163.469 312.427 L
169.375 312.427 L
175.281 312.427 L
181.187 312.427 L
187.093 312.427 LE
3 W
1 LJ
74.88 362.34 LS
80.7859 370.538 L
86.6918 367.703 L
92.5978 362.438 L
98.5037 356.942 L
104.41 351.843 L
110.316 347.297 L
116.221 343.305 L
122.127 339.821 L
128.033 336.784 L
133.939 334.136 L
139.845 331.821 L
145.751 329.794 L
151.657 328.013 L
157.563 326.445 L
163.469 325.059 L
169.375 323.831 L
175.281 322.739 L
181.187 321.765 L
187.093 320.893 LE
grestore
gsave
1.0 1.0 scale
newpath 0 0 moveto 576 0 lineto 576 432 lineto 0 432 lineto
closepath clip
1 1 1 C
241.974 386.841 354.186 312.427 241.974 312.427 T
241.974 386.841 354.186 386.841 354.186 312.427 T
0.5 W
0.15 0.15 0.15 C
265.597 312.427 LS
265.597 313.556 LE
265.597 386.841 LS
265.597 385.712 LE
295.127 312.427 LS
295.127 313.556 LE
295.127 386.841 LS
295.127 385.712 LE
324.657 312.427 LS
324.657 313.556 LE
324.657 386.841 LS
324.657 385.712 LE
354.186 312.427 LS
354.186 313.556 LE
354.186 386.841 LS
354.186 385.712 LE
gsave
0.14902 0.14902 0.14902 C
(5) [10] 0 262.597 296.886 10 /Helvetica SRX
grestore

gsave
0.14902 0.14902 0.14902 C
(10) [6 10] 0 289.127 296.886 10 /Helvetica SRX
grestore

gsave
0.14902 0.14902 0.14902 C
(15) [6 10] 0 318.657 296.886 10 /Helvetica SRX
grestore

gsave
0.14902 0.14902 0.14902 C
(20) [6 10] 0 348.186 296.886 10 /Helvetica SRX
grestore

241.974 319.543 LS
243.098 319.543 LE
354.186 319.543 LS
353.062 319.543 LE
241.974 334.205 LS
243.098 334.205 LE
354.186 334.205 LS
353.062 334.205 LE
241.974 348.868 LS
243.098 348.868 LE
354.186 348.868 LS
353.062 348.868 LE
241.974 363.53 LS
243.098 363.53 LE
354.186 363.53 LS
353.062 363.53 LE
241.974 378.193 LS
243.098 378.193 LE
354.186 378.193 LS
353.062 378.193 LE
gsave
0.14902 0.14902 0.14902 C
(0.005) [6 3 6 6 10] 0 209.964 315.543 10 /Helvetica SRX
grestore

gsave
0.14902 0.14902 0.14902 C
(0.01) [6 3 6 10] 0 215.964 330.205 10 /Helvetica SRX
grestore

gsave
0.14902 0.14902 0.14902 C
(0.015) [6 3 6 6 10] 0 209.964 344.868 10 /Helvetica SRX
grestore

gsave
0.14902 0.14902 0.14902 C
(0.02) [6 3 6 10] 0 215.964 359.53 10 /Helvetica SRX
grestore

gsave
0.14902 0.14902 0.14902 C
(0.025) [6 3 6 6 10] 0 209.964 374.193 10 /Helvetica SRX
grestore

2 LC
[16 0] 0 setdash
241.974 312.427 LS
354.186 312.427 LE
241.974 386.841 LS
354.186 386.841 LE
241.974 312.427 LS
241.974 386.841 LE
354.186 312.427 LS
354.186 386.841 LE
gsave
0 0 0 C
(Y_N_hat) [7 6 8 6 7 6 10] 0 276.08 398.841 11 /Helvetica-Bold SRX
grestore

0.9 0.9 0.9 C
241.974 312.427 241.974 386.841 247.88 312.427 T
247.88 385.078 247.88 312.427 241.974 386.841 T
253.786 312.427 247.88 312.427 247.88 385.078 T
253.786 378.138 253.786 312.427 247.88 385.078 T
259.691 312.427 253.786 312.427 253.786 378.138 T
259.691 373.835 259.691 312.427 253.786 378.138 T
265.597 312.427 259.691 312.427 259.691 373.835 T
265.597 368.984 265.597 312.427 259.691 373.835 T
271.503 312.427 265.597 312.427 265.597 368.984 T
271.503 363.175 271.503 312.427 265.597 368.984 T
277.409 312.427 271.503 312.427 271.503 363.175 T
277.409 358.136 277.409 312.427 271.503 363.175 T
283.315 312.427 277.409 312.427 277.409 358.136 T
283.315 353.585 283.315 312.427 277.409 358.136 T
289.221 312.427 283.315 312.427 283.315 353.585 T
289.221 349.197 289.221 312.427 283.315 353.585 T
295.127 312.427 289.221 312.427 289.221 349.197 T
295.127 345.331 295.127 312.427 289.221 349.197 T
301.033 312.427 295.127 312.427 295.127 345.331 T
301.033 342.94 301.033 312.427 295.127 345.331 T
306.939 312.427 301.033 312.427 301.033 342.94 T
306.939 338.861 306.939 312.427 301.033 342.94 T
312.845 312.427 306.939 312.427 306.939 338.861 T
312.845 336.172 312.845 312.427 306.939 338.861 T
318.751 312.427 312.845 312.427 312.845 336.172 T
318.751 333.863 318.751 312.427 312.845 336.172 T
324.657 312.427 318.751 312.427 318.751 333.863 T
324.657 331.764 324.657 312.427 318.751 333.863 T
330.563 312.427 324.657 312.427 324.657 331.764 T
330.563 329.889 330.563 312.427 324.657 331.764 T
336.469 312.427 330.563 312.427 330.563 329.889 T
336.469 328.258 336.469 312.427 330.563 329.889 T
342.374 312.427 336.469 312.427 336.469 328.258 T
342.374 326.728 342.374 312.427 336.469 328.258 T
348.28 312.427 342.374 312.427 342.374 326.728 T
348.28 325.423 348.28 312.427 342.374 326.728 T
354.186 312.427 348.28 312.427 348.28 325.423 T
354.186 324.216 354.186 312.427 348.28 325.423 T
0 LC
[] 0 setdash
0 0 0 C
354.186 324.216 LS
348.28 325.423 L
342.374 326.728 L
336.469 328.258 L
330.563 329.889 L
324.657 331.764 L
318.751 333.863 L
312.845 336.172 L
306.939 338.861 L
301.033 342.94 L
295.127 345.331 L
289.221 349.197 L
283.315 353.585 L
277.409 358.136 L
271.503 363.175 L
265.597 368.984 L
259.691 373.835 L
253.786 378.138 L
247.88 385.078 L
241.974 386.841 L
241.974 312.427 L
247.88 312.427 L
253.786 312.427 L
259.691 312.427 L
265.597 312.427 L
271.503 312.427 L
277.409 312.427 L
283.315 312.427 L
289.221 312.427 L
295.127 312.427 L
301.033 312.427 L
306.939 312.427 L
312.845 312.427 L
318.751 312.427 L
324.657 312.427 L
330.563 312.427 L
336.469 312.427 L
342.374 312.427 L
348.28 312.427 L
354.186 312.427 L
354.186 324.216 LE
1 1 1 C
241.974 312.427 241.974 363.467 247.88 312.427 T
247.88 361.461 247.88 312.427 241.974 363.467 T
253.786 312.427 247.88 312.427 247.88 361.461 T
253.786 354.237 253.786 312.427 247.88 361.461 T
259.691 312.427 253.786 312.427 253.786 354.237 T
259.691 349.947 259.691 312.427 253.786 354.237 T
265.597 312.427 259.691 312.427 259.691 349.947 T
265.597 345.079 265.597 312.427 259.691 349.947 T
271.503 312.427 265.597 312.427 265.597 345.079 T
271.503 339.53 271.503 312.427 265.597 345.079 T
277.409 312.427 271.503 312.427 271.503 339.53 T
277.409 334.879 277.409 312.427 271.503 339.53 T
283.315 312.427 277.409 312.427 277.409 334.879 T
283.315 330.865 283.315 312.427 277.409 334.879 T
289.221 312.427 283.315 312.427 283.315 330.865 T
289.221 327.256 289.221 312.427 283.315 330.865 T
295.127 312.427 289.221 312.427 289.221 327.256 T
295.127 324.261 295.127 312.427 289.221 327.256 T
301.033 312.427 295.127 312.427 295.127 324.261 T
301.033 322.844 301.033 312.427 295.127 324.261 T
306.939 312.427 301.033 312.427 301.033 322.844 T
306.939 319.795 306.939 312.427 301.033 322.844 T
312.845 312.427 306.939 312.427 306.939 319.795 T
312.845 318.212 312.845 312.427 306.939 319.795 T
318.751 312.427 312.845 312.427 312.845 318.212 T
318.751 316.906 318.751 312.427 312.845 318.212 T
324.657 312.427 318.751 312.427 318.751 316.906 T
324.657 315.75 324.657 312.427 318.751 316.906 T
330.563 312.427 324.657 312.427 324.657 315.75 T
330.563 314.834 330.563 312.427 324.657 315.75 T
336.469 312.427 330.563 312.427 330.563 314.834 T
336.469 314.102 336.469 312.427 330.563 314.834 T
342.374 312.427 336.469 312.427 336.469 314.102 T
342.374 313.421 342.374 312.427 336.469 314.102 T
348.28 312.427 342.374 312.427 342.374 313.421 T
348.28 312.918 348.28 312.427 342.374 313.421 T
354.186 312.427 348.28 312.427 348.28 312.918 T
0 0 0 C
354.186 312.427 LS
348.28 312.918 L
342.374 313.421 L
336.469 314.102 L
330.563 314.834 L
324.657 315.75 L
318.751 316.906 L
312.845 318.212 L
306.939 319.795 L
301.033 322.844 L
295.127 324.261 L
289.221 327.256 L
283.315 330.865 L
277.409 334.879 L
271.503 339.53 L
265.597 345.079 L
259.691 349.947 L
253.786 354.237 L
247.88 361.461 L
241.974 363.467 L
241.974 312.427 L
247.88 312.427 L
253.786 312.427 L
259.691 312.427 L
265.597 312.427 L
271.503 312.427 L
277.409 312.427 L
283.315 312.427 L
289.221 312.427 L
295.127 312.427 L
301.033 312.427 L
306.939 312.427 L
312.845 312.427 L
318.751 312.427 L
324.657 312.427 L
330.563 312.427 L
336.469 312.427 L
342.374 312.427 L
348.28 312.427 L
354.186 312.427 LE
3 W
1 LJ
241.974 375.419 LS
247.88 371.899 L
253.786 367.169 L
259.691 361.86 L
265.597 356.534 L
271.503 351.498 L
277.409 346.888 L
283.315 342.746 L
289.221 339.063 L
295.127 335.811 L
301.033 332.949 L
306.939 330.437 L
312.845 328.235 L
318.751 326.305 L
324.657 324.615 L
330.563 323.135 L
336.469 321.837 L
342.374 320.7 L
348.28 319.702 L
354.186 318.826 LE
grestore
gsave
1.0 1.0 scale
newpath 0 0 moveto 576 0 lineto 576 432 lineto 0 432 lineto
closepath clip
1 1 1 C
409.067 386.841 521.28 312.427 409.067 312.427 T
409.067 386.841 521.28 386.841 521.28 312.427 T
0.5 W
0.15 0.15 0.15 C
432.691 312.427 LS
432.691 313.556 LE
432.691 386.841 LS
432.691 385.712 LE
462.221 312.427 LS
462.221 313.556 LE
462.221 386.841 LS
462.221 385.712 LE
491.75 312.427 LS
491.75 313.556 LE
491.75 386.841 LS
491.75 385.712 LE
521.28 312.427 LS
521.28 313.556 LE
521.28 386.841 LS
521.28 385.712 LE
gsave
0.14902 0.14902 0.14902 C
(5) [10] 0 429.691 296.886 10 /Helvetica SRX
grestore

gsave
0.14902 0.14902 0.14902 C
(10) [6 10] 0 456.221 296.886 10 /Helvetica SRX
grestore

gsave
0.14902 0.14902 0.14902 C
(15) [6 10] 0 485.75 296.886 10 /Helvetica SRX
grestore

gsave
0.14902 0.14902 0.14902 C
(20) [6 10] 0 515.28 296.886 10 /Helvetica SRX
grestore

409.067 313.126 LS
410.192 313.126 LE
521.28 313.126 LS
520.156 313.126 LE
409.067 328.84 LS
410.192 328.84 LE
521.28 328.84 LS
520.156 328.84 LE
409.067 344.554 LS
410.192 344.554 LE
521.28 344.554 LS
520.156 344.554 LE
409.067 360.268 LS
410.192 360.268 LE
521.28 360.268 LS
520.156 360.268 LE
409.067 375.982 LS
410.192 375.982 LE
521.28 375.982 LS
520.156 375.982 LE
gsave
0.14902 0.14902 0.14902 C
(0.002) [6 3 6 6 10] 0 377.058 309.126 10 /Helvetica SRX
grestore

gsave
0.14902 0.14902 0.14902 C
(0.004) [6 3 6 6 10] 0 377.058 324.84 10 /Helvetica SRX
grestore

gsave
0.14902 0.14902 0.14902 C
(0.006) [6 3 6 6 10] 0 377.058 340.554 10 /Helvetica SRX
grestore

gsave
0.14902 0.14902 0.14902 C
(0.008) [6 3 6 6 10] 0 377.058 356.268 10 /Helvetica SRX
grestore

gsave
0.14902 0.14902 0.14902 C
(0.01) [6 3 6 10] 0 383.058 371.982 10 /Helvetica SRX
grestore

2 LC
[16 0] 0 setdash
409.067 312.427 LS
521.28 312.427 LE
409.067 386.841 LS
521.28 386.841 LE
409.067 312.427 LS
409.067 386.841 LE
521.28 312.427 LS
521.28 386.841 LE
gsave
0 0 0 C
(Y_C_hat) [7 6 8 6 7 6 10] 0 443.174 398.841 11 /Helvetica-Bold SRX
grestore

0.9 0.9 0.9 C
409.067 312.427 409.067 349.844 414.973 312.427 T
414.973 372.532 414.973 312.427 409.067 349.844 T
420.879 312.427 414.973 312.427 414.973 372.532 T
420.879 383.606 420.879 312.427 414.973 372.532 T
426.785 312.427 420.879 312.427 420.879 383.606 T
426.785 386.841 426.785 312.427 420.879 383.606 T
432.691 312.427 426.785 312.427 426.785 386.841 T
432.691 385.314 432.691 312.427 426.785 386.841 T
438.597 312.427 432.691 312.427 432.691 385.314 T
438.597 381.426 438.597 312.427 432.691 385.314 T
444.503 312.427 438.597 312.427 438.597 381.426 T
444.503 379.598 444.503 312.427 438.597 381.426 T
450.409 312.427 444.503 312.427 444.503 379.598 T
450.409 374.665 450.409 312.427 444.503 379.598 T
456.315 312.427 450.409 312.427 450.409 374.665 T
456.315 368.893 456.315 312.427 450.409 374.665 T
462.221 312.427 456.315 312.427 456.315 368.893 T
462.221 365.219 462.221 312.427 456.315 368.893 T
468.127 312.427 462.221 312.427 462.221 365.219 T
468.127 358.72 468.127 312.427 462.221 365.219 T
474.033 312.427 468.127 312.427 468.127 358.72 T
474.033 355.018 474.033 312.427 468.127 358.72 T
479.939 312.427 474.033 312.427 474.033 355.018 T
479.939 351.635 479.939 312.427 474.033 355.018 T
485.844 312.427 479.939 312.427 479.939 351.635 T
485.844 348.655 485.844 312.427 479.939 351.635 T
491.75 312.427 485.844 312.427 485.844 348.655 T
491.75 345.494 491.75 312.427 485.844 348.655 T
497.656 312.427 491.75 312.427 491.75 345.494 T
497.656 342.503 497.656 312.427 491.75 345.494 T
503.562 312.427 497.656 312.427 497.656 342.503 T
503.562 339.946 503.562 312.427 497.656 342.503 T
509.468 312.427 503.562 312.427 503.562 339.946 T
509.468 337.191 509.468 312.427 503.562 339.946 T
515.374 312.427 509.468 312.427 509.468 337.191 T
515.374 335.612 515.374 312.427 509.468 337.191 T
521.28 312.427 515.374 312.427 515.374 335.612 T
521.28 333.768 521.28 312.427 515.374 335.612 T
0 LC
[] 0 setdash
0 0 0 C
521.28 333.768 LS
515.374 335.612 L
509.468 337.191 L
503.562 339.946 L
497.656 342.503 L
491.75 345.494 L
485.844 348.655 L
479.939 351.635 L
474.033 355.018 L
468.127 358.72 L
462.221 365.219 L
456.315 368.893 L
450.409 374.665 L
444.503 379.598 L
438.597 381.426 L
432.691 385.314 L
426.785 386.841 L
420.879 383.606 L
414.973 372.532 L
409.067 349.844 L
409.067 312.427 L
414.973 312.427 L
420.879 312.427 L
426.785 312.427 L
432.691 312.427 L
438.597 312.427 L
444.503 312.427 L
450.409 312.427 L
456.315 312.427 L
462.221 312.427 L
468.127 312.427 L
474.033 312.427 L
479.939 312.427 L
485.844 312.427 L
491.75 312.427 L
497.656 312.427 L
503.562 312.427 L
509.468 312.427 L
515.374 312.427 L
521.28 312.427 L
521.28 333.768 LE
1 1 1 C
409.067 312.427 409.067 314.584 414.973 312.427 T
414.973 325.487 414.973 312.427 409.067 314.584 T
420.879 312.427 414.973 312.427 414.973 325.487 T
420.879 334.453 420.879 312.427 414.973 325.487 T
426.785 312.427 420.879 312.427 420.879 334.453 T
426.785 340.402 426.785 312.427 420.879 334.453 T
432.691 312.427 426.785 312.427 426.785 340.402 T
432.691 341.671 432.691 312.427 426.785 340.402 T
438.597 312.427 432.691 312.427 432.691 341.671 T
438.597 341.025 438.597 312.427 432.691 341.671 T
444.503 312.427 438.597 312.427 438.597 341.025 T
444.503 341.294 444.503 312.427 438.597 341.025 T
450.409 312.427 444.503 312.427 444.503 341.294 T
450.409 338.671 450.409 312.427 444.503 341.294 T
456.315 312.427 450.409 312.427 450.409 338.671 T
456.315 334.827 456.315 312.427 450.409 338.671 T
462.221 312.427 456.315 312.427 456.315 334.827 T
462.221 332.683 462.221 312.427 456.315 334.827 T
468.127 312.427 462.221 312.427 462.221 332.683 T
468.127 327.033 468.127 312.427 462.221 332.683 T
474.033 312.427 468.127 312.427 468.127 327.033 T
474.033 324.691 474.033 312.427 468.127 327.033 T
479.939 312.427 474.033 312.427 474.033 324.691 T
479.939 322.583 479.939 312.427 474.033 324.691 T
485.844 312.427 479.939 312.427 479.939 322.583 T
485.844 320.728 485.844 312.427 479.939 322.583 T
491.75 312.427 485.844 312.427 485.844 320.728 T
491.75 318.688 491.75 312.427 485.844 320.728 T
497.656 312.427 491.75 312.427 491.75 318.688 T
497.656 316.881 497.656 312.427 491.75 318.688 T
503.562 312.427 497.656 312.427 497.656 316.881 T
503.562 315.378 503.562 312.427 497.656 316.881 T
509.468 312.427 503.562 312.427 503.562 315.378 T
509.468 313.737 509.468 312.427 503.562 315.378 T
515.374 312.427 509.468 312.427 509.468 313.737 T
515.374 313.235 515.374 312.427 509.468 313.737 T
521.28 312.427 515.374 312.427 515.374 313.235 T
0 0 0 C
521.28 312.427 LS
515.374 313.235 L
509.468 313.737 L
503.562 315.378 L
497.656 316.881 L
491.75 318.688 L
485.844 320.728 L
479.939 322.583 L
474.033 324.691 L
468.127 327.033 L
462.221 332.683 L
456.315 334.827 L
450.409 338.671 L
444.503 341.294 L
438.597 341.025 L
432.691 341.671 L
426.785 340.402 L
420.879 334.453 L
414.973 325.487 L
409.067 314.584 L
409.067 312.427 L
414.973 312.427 L
420.879 312.427 L
426.785 312.427 L
432.691 312.427 L
438.597 312.427 L
444.503 312.427 L
450.409 312.427 L
456.315 312.427 L
462.221 312.427 L
468.127 312.427 L
474.033 312.427 L
479.939 312.427 L
485.844 312.427 L
491.75 312.427 L
497.656 312.427 L
503.562 312.427 L
509.468 312.427 L
515.374 312.427 L
521.28 312.427 LE
3 W
1 LJ
409.067 331.553 LS
414.973 349.622 L
420.879 358.701 L
426.785 362.392 L
432.691 362.776 L
438.597 361.16 L
444.503 358.39 L
450.409 355.015 L
456.315 351.391 L
462.221 347.746 L
468.127 344.219 L
474.033 340.894 L
479.939 337.813 L
485.844 334.996 L
491.75 332.445 L
497.656 330.15 L
503.562 328.099 L
509.468 326.273 L
515.374 324.654 L
521.28 323.222 LE
grestore
gsave
1.0 1.0 scale
newpath 0 0 moveto 576 0 lineto 576 432 lineto 0 432 lineto
closepath clip
1 1 1 C
74.88 254.387 187.093 179.974 74.88 179.974 T
74.88 254.387 187.093 254.387 187.093 179.974 T
0.5 W
0.15 0.15 0.15 C
98.5037 179.974 LS
98.5037 181.102 LE
98.5037 254.387 LS
98.5037 253.258 LE
128.033 179.974 LS
128.033 181.102 LE
128.033 254.387 LS
128.033 253.258 LE
157.563 179.974 LS
157.563 181.102 LE
157.563 254.387 LS
157.563 253.258 LE
187.093 179.974 LS
187.093 181.102 LE
187.093 254.387 LS
187.093 253.258 LE
gsave
0.14902 0.14902 0.14902 C
(5) [10] 0 95.5037 164.432 10 /Helvetica SRX
grestore

gsave
0.14902 0.14902 0.14902 C
(10) [6 10] 0 122.033 164.432 10 /Helvetica SRX
grestore

gsave
0.14902 0.14902 0.14902 C
(15) [6 10] 0 151.563 164.432 10 /Helvetica SRX
grestore

gsave
0.14902 0.14902 0.14902 C
(20) [6 10] 0 181.093 164.432 10 /Helvetica SRX
grestore

74.88 188.885 LS
76.0043 188.885 LE
187.093 188.885 LS
185.968 188.885 LE
74.88 203.656 LS
76.0043 203.656 LE
187.093 203.656 LS
185.968 203.656 LE
74.88 218.428 LS
76.0043 218.428 LE
187.093 218.428 LS
185.968 218.428 LE
74.88 233.199 LS
76.0043 233.199 LE
187.093 233.199 LS
185.968 233.199 LE
74.88 247.971 LS
76.0043 247.971 LE
187.093 247.971 LS
185.968 247.971 LE
gsave
0.14902 0.14902 0.14902 C
(0.005) [6 3 6 6 10] 0 42.8705 184.885 10 /Helvetica SRX
grestore

gsave
0.14902 0.14902 0.14902 C
(0.01) [6 3 6 10] 0 48.8705 199.656 10 /Helvetica SRX
grestore

gsave
0.14902 0.14902 0.14902 C
(0.015) [6 3 6 6 10] 0 42.8705 214.428 10 /Helvetica SRX
grestore

gsave
0.14902 0.14902 0.14902 C
(0.02) [6 3 6 10] 0 48.8705 229.199 10 /Helvetica SRX
grestore

gsave
0.14902 0.14902 0.14902 C
(0.025) [6 3 6 6 10] 0 42.8705 243.971 10 /Helvetica SRX
grestore

2 LC
[16 0] 0 setdash
74.88 179.974 LS
187.093 179.974 LE
74.88 254.387 LS
187.093 254.387 LE
74.88 179.974 LS
74.88 254.387 LE
187.093 179.974 LS
187.093 254.387 LE
gsave
0 0 0 C
(L_T_hat) [7 6 7 6 7 6 10] 0 109.486 266.387 11 /Helvetica-Bold SRX
grestore

0.9 0.9 0.9 C
74.88 179.974 74.88 252.725 80.7859 179.974 T
80.7859 254.387 80.7859 179.974 74.88 252.725 T
86.6918 179.974 80.7859 179.974 80.7859 254.387 T
86.6918 247.444 86.6918 179.974 80.7859 254.387 T
92.5978 179.974 86.6918 179.974 86.6918 247.444 T
92.5978 241.105 92.5978 179.974 86.6918 247.444 T
98.5037 179.974 92.5978 179.974 92.5978 241.105 T
98.5037 235.001 98.5037 179.974 92.5978 241.105 T
104.41 179.974 98.5037 179.974 98.5037 235.001 T
104.41 228.971 104.41 179.974 98.5037 235.001 T
110.316 179.974 104.41 179.974 104.41 228.971 T
110.316 222.995 110.316 179.974 104.41 228.971 T
116.221 179.974 110.316 179.974 110.316 222.995 T
116.221 218.171 116.221 179.974 110.316 222.995 T
122.127 179.974 116.221 179.974 116.221 218.171 T
122.127 213.863 122.127 179.974 116.221 218.171 T
128.033 179.974 122.127 179.974 122.127 213.863 T
128.033 210.929 128.033 179.974 122.127 213.863 T
133.939 179.974 128.033 179.974 128.033 210.929 T
133.939 207.97 133.939 179.974 128.033 210.929 T
139.845 179.974 133.939 179.974 133.939 207.97 T
139.845 203.686 139.845 179.974 133.939 207.97 T
145.751 179.974 139.845 179.974 139.845 203.686 T
145.751 201.175 145.751 179.974 139.845 203.686 T
151.657 179.974 145.751 179.974 145.751 201.175 T
151.657 199.025 151.657 179.974 145.751 201.175 T
157.563 179.974 151.657 179.974 151.657 199.025 T
157.563 196.845 157.563 179.974 151.657 199.025 T
163.469 179.974 157.563 179.974 157.563 196.845 T
163.469 195.121 163.469 179.974 157.563 196.845 T
169.375 179.974 163.469 179.974 163.469 195.121 T
169.375 194.212 169.375 179.974 163.469 195.121 T
175.281 179.974 169.375 179.974 169.375 194.212 T
175.281 192.639 175.281 179.974 169.375 194.212 T
181.187 179.974 175.281 179.974 175.281 192.639 T
181.187 191.371 181.187 179.974 175.281 192.639 T
187.093 179.974 181.187 179.974 181.187 191.371 T
187.093 190.204 187.093 179.974 181.187 191.371 T
0 LC
[] 0 setdash
0 0 0 C
187.093 190.204 LS
181.187 191.371 L
175.281 192.639 L
169.375 194.212 L
163.469 195.121 L
157.563 196.845 L
151.657 199.025 L
145.751 201.175 L
139.845 203.686 L
133.939 207.97 L
128.033 210.929 L
122.127 213.863 L
116.221 218.171 L
110.316 222.995 L
104.41 228.971 L
98.5037 235.001 L
92.5978 241.105 L
86.6918 247.444 L
80.7859 254.387 L
74.88 252.725 L
74.88 179.974 L
80.7859 179.974 L
86.6918 179.974 L
92.5978 179.974 L
98.5037 179.974 L
104.41 179.974 L
110.316 179.974 L
116.221 179.974 L
122.127 179.974 L
128.033 179.974 L
133.939 179.974 L
139.845 179.974 L
145.751 179.974 L
151.657 179.974 L
157.563 179.974 L
163.469 179.974 L
169.375 179.974 L
175.281 179.974 L
181.187 179.974 L
187.093 179.974 L
187.093 190.204 LE
1 1 1 C
74.88 179.974 74.88 215.051 80.7859 179.974 T
80.7859 225.781 80.7859 179.974 74.88 215.051 T
86.6918 179.974 80.7859 179.974 80.7859 225.781 T
86.6918 223.659 86.6918 179.974 80.7859 225.781 T
92.5978 179.974 86.6918 179.974 86.6918 223.659 T
92.5978 218.07 92.5978 179.974 86.6918 223.659 T
98.5037 179.974 92.5978 179.974 92.5978 218.07 T
98.5037 212.433 98.5037 179.974 92.5978 218.07 T
104.41 179.974 98.5037 179.974 98.5037 212.433 T
104.41 206.747 104.41 179.974 98.5037 212.433 T
110.316 179.974 104.41 179.974 104.41 206.747 T
110.316 201.334 110.316 179.974 104.41 206.747 T
116.221 179.974 110.316 179.974 110.316 201.334 T
116.221 197.146 116.221 179.974 110.316 201.334 T
122.127 179.974 116.221 179.974 116.221 197.146 T
122.127 193.44 122.127 179.974 116.221 197.146 T
128.033 179.974 122.127 179.974 122.127 193.44 T
128.033 191.451 128.033 179.974 122.127 193.44 T
133.939 179.974 128.033 179.974 128.033 191.451 T
133.939 189.433 133.939 179.974 128.033 191.451 T
139.845 179.974 133.939 179.974 133.939 189.433 T
139.845 186.171 139.845 179.974 133.939 189.433 T
145.751 179.974 139.845 179.974 139.845 186.171 T
145.751 184.701 145.751 179.974 139.845 186.171 T
151.657 179.974 145.751 179.974 145.751 184.701 T
151.657 183.571 151.657 179.974 145.751 184.701 T
157.563 179.974 151.657 179.974 151.657 183.571 T
157.563 182.38 157.563 179.974 151.657 183.571 T
163.469 179.974 157.563 179.974 157.563 182.38 T
163.469 181.56 163.469 179.974 157.563 182.38 T
169.375 179.974 163.469 179.974 163.469 181.56 T
169.375 181.554 169.375 179.974 163.469 181.56 T
175.281 179.974 169.375 179.974 169.375 181.554 T
175.281 180.851 175.281 179.974 169.375 181.554 T
181.187 179.974 175.281 179.974 175.281 180.851 T
181.187 180.399 181.187 179.974 175.281 180.851 T
187.093 179.974 181.187 179.974 181.187 180.399 T
0 0 0 C
187.093 179.974 LS
181.187 180.399 L
175.281 180.851 L
169.375 181.554 L
163.469 181.56 L
157.563 182.38 L
151.657 183.571 L
145.751 184.701 L
139.845 186.171 L
133.939 189.433 L
128.033 191.451 L
122.127 193.44 L
116.221 197.146 L
110.316 201.334 L
104.41 206.747 L
98.5037 212.433 L
92.5978 218.07 L
86.6918 223.659 L
80.7859 225.781 L
74.88 215.051 L
74.88 179.974 L
80.7859 179.974 L
86.6918 179.974 L
92.5978 179.974 L
98.5037 179.974 L
104.41 179.974 L
110.316 179.974 L
116.221 179.974 L
122.127 179.974 L
128.033 179.974 L
133.939 179.974 L
139.845 179.974 L
145.751 179.974 L
151.657 179.974 L
157.563 179.974 L
163.469 179.974 L
169.375 179.974 L
175.281 179.974 L
181.187 179.974 L
187.093 179.974 LE
3 W
1 LJ
74.88 233.556 LS
80.7859 239.828 L
86.6918 235.829 L
92.5978 229.702 L
98.5037 223.516 L
104.41 217.85 L
110.316 212.833 L
116.221 208.453 L
122.127 204.651 L
128.033 201.358 L
133.939 198.507 L
139.845 196.037 L
145.751 193.896 L
151.657 192.038 L
157.563 190.422 L
163.469 189.017 L
169.375 187.792 L
175.281 186.723 L
181.187 185.789 L
187.093 184.972 LE
grestore
gsave
1.0 1.0 scale
newpath 0 0 moveto 576 0 lineto 576 432 lineto 0 432 lineto
closepath clip
1 1 1 C
241.974 254.387 354.186 179.974 241.974 179.974 T
241.974 254.387 354.186 254.387 354.186 179.974 T
0.5 W
0.15 0.15 0.15 C
265.597 179.974 LS
265.597 181.102 LE
265.597 254.387 LS
265.597 253.258 LE
295.127 179.974 LS
295.127 181.102 LE
295.127 254.387 LS
295.127 253.258 LE
324.657 179.974 LS
324.657 181.102 LE
324.657 254.387 LS
324.657 253.258 LE
354.186 179.974 LS
354.186 181.102 LE
354.186 254.387 LS
354.186 253.258 LE
gsave
0.14902 0.14902 0.14902 C
(5) [10] 0 262.597 164.432 10 /Helvetica SRX
grestore

gsave
0.14902 0.14902 0.14902 C
(10) [6 10] 0 289.127 164.432 10 /Helvetica SRX
grestore

gsave
0.14902 0.14902 0.14902 C
(15) [6 10] 0 318.657 164.432 10 /Helvetica SRX
grestore

gsave
0.14902 0.14902 0.14902 C
(20) [6 10] 0 348.186 164.432 10 /Helvetica SRX
grestore

241.974 188.195 LS
243.098 188.195 LE
354.186 188.195 LS
353.062 188.195 LE
241.974 200.06 LS
243.098 200.06 LE
354.186 200.06 LS
353.062 200.06 LE
241.974 211.925 LS
243.098 211.925 LE
354.186 211.925 LS
353.062 211.925 LE
241.974 223.79 LS
243.098 223.79 LE
354.186 223.79 LS
353.062 223.79 LE
241.974 235.655 LS
243.098 235.655 LE
354.186 235.655 LS
353.062 235.655 LE
241.974 247.52 LS
243.098 247.52 LE
354.186 247.52 LS
353.062 247.52 LE
gsave
0.14902 0.14902 0.14902 C
(0.002) [6 3 6 6 10] 0 209.964 184.195 10 /Helvetica SRX
grestore

gsave
0.14902 0.14902 0.14902 C
(0.003) [6 3 6 6 10] 0 209.964 196.06 10 /Helvetica SRX
grestore

gsave
0.14902 0.14902 0.14902 C
(0.004) [6 3 6 6 10] 0 209.964 207.925 10 /Helvetica SRX
grestore

gsave
0.14902 0.14902 0.14902 C
(0.005) [6 3 6 6 10] 0 209.964 219.79 10 /Helvetica SRX
grestore

gsave
0.14902 0.14902 0.14902 C
(0.006) [6 3 6 6 10] 0 209.964 231.655 10 /Helvetica SRX
grestore

gsave
0.14902 0.14902 0.14902 C
(0.007) [6 3 6 6 10] 0 209.964 243.52 10 /Helvetica SRX
grestore

2 LC
[16 0] 0 setdash
241.974 179.974 LS
354.186 179.974 LE
241.974 254.387 LS
354.186 254.387 LE
241.974 179.974 LS
241.974 254.387 LE
354.186 179.974 LS
354.186 254.387 LE
gsave
0 0 0 C
(L_N_hat) [7 6 8 6 7 6 10] 0 276.08 266.387 11 /Helvetica-Bold SRX
grestore

0.9 0.9 0.9 C
241.974 179.974 241.974 202.859 247.88 179.974 T
247.88 232.876 247.88 179.974 241.974 202.859 T
253.786 179.974 247.88 179.974 247.88 232.876 T
253.786 249.349 253.786 179.974 247.88 232.876 T
259.691 179.974 253.786 179.974 253.786 249.349 T
259.691 254.387 259.691 179.974 253.786 249.349 T
265.597 179.974 259.691 179.974 259.691 254.387 T
265.597 253.972 265.597 179.974 259.691 254.387 T
271.503 179.974 265.597 179.974 265.597 253.972 T
271.503 253.068 271.503 179.974 265.597 253.972 T
277.409 179.974 271.503 179.974 271.503 253.068 T
277.409 249.342 277.409 179.974 271.503 253.068 T
283.315 179.974 277.409 179.974 277.409 249.342 T
283.315 245.541 283.315 179.974 277.409 249.342 T
289.221 179.974 283.315 179.974 283.315 245.541 T
289.221 240.325 289.221 179.974 283.315 245.541 T
295.127 179.974 289.221 179.974 289.221 240.325 T
295.127 235.91 295.127 179.974 289.221 240.325 T
301.033 179.974 295.127 179.974 295.127 235.91 T
301.033 232.001 301.033 179.974 295.127 235.91 T
306.939 179.974 301.033 179.974 301.033 232.001 T
306.939 229.063 306.939 179.974 301.033 232.001 T
312.845 179.974 306.939 179.974 306.939 229.063 T
312.845 226.045 312.845 179.974 306.939 229.063 T
318.751 179.974 312.845 179.974 312.845 226.045 T
318.751 223.463 318.751 179.974 312.845 226.045 T
324.657 179.974 318.751 179.974 318.751 223.463 T
324.657 220.737 324.657 179.974 318.751 223.463 T
330.563 179.974 324.657 179.974 324.657 220.737 T
330.563 218.33 330.563 179.974 324.657 220.737 T
336.469 179.974 330.563 179.974 330.563 218.33 T
336.469 216.003 336.469 179.974 330.563 218.33 T
342.374 179.974 336.469 179.974 336.469 216.003 T
342.374 214.05 342.374 179.974 336.469 216.003 T
348.28 179.974 342.374 179.974 342.374 214.05 T
348.28 212.396 348.28 179.974 342.374 214.05 T
354.186 179.974 348.28 179.974 348.28 212.396 T
354.186 210.635 354.186 179.974 348.28 212.396 T
0 LC
[] 0 setdash
0 0 0 C
354.186 210.635 LS
348.28 212.396 L
342.374 214.05 L
336.469 216.003 L
330.563 218.33 L
324.657 220.737 L
318.751 223.463 L
312.845 226.045 L
306.939 229.063 L
301.033 232.001 L
295.127 235.91 L
289.221 240.325 L
283.315 245.541 L
277.409 249.342 L
271.503 253.068 L
265.597 253.972 L
259.691 254.387 L
253.786 249.349 L
247.88 232.876 L
241.974 202.859 L
241.974 179.974 L
247.88 179.974 L
253.786 179.974 L
259.691 179.974 L
265.597 179.974 L
271.503 179.974 L
277.409 179.974 L
283.315 179.974 L
289.221 179.974 L
295.127 179.974 L
301.033 179.974 L
306.939 179.974 L
312.845 179.974 L
318.751 179.974 L
324.657 179.974 L
330.563 179.974 L
336.469 179.974 L
342.374 179.974 L
348.28 179.974 L
354.186 179.974 L
354.186 210.635 LE
1 1 1 C
241.974 179.974 247.88 201.905 247.88 179.974 T
253.786 179.974 247.88 179.974 247.88 201.905 T
253.786 215.801 253.786 179.974 247.88 201.905 T
259.691 179.974 253.786 179.974 253.786 215.801 T
259.691 220.156 259.691 179.974 253.786 215.801 T
265.597 179.974 259.691 179.974 259.691 220.156 T
265.597 219.673 265.597 179.974 259.691 220.156 T
271.503 179.974 265.597 179.974 265.597 219.673 T
271.503 218.383 271.503 179.974 265.597 219.673 T
277.409 179.974 271.503 179.974 271.503 218.383 T
277.409 214.524 277.409 179.974 271.503 218.383 T
283.315 179.974 277.409 179.974 277.409 214.524 T
283.315 210.815 283.315 179.974 277.409 214.524 T
289.221 179.974 283.315 179.974 283.315 210.815 T
289.221 205.837 289.221 179.974 283.315 210.815 T
295.127 179.974 289.221 179.974 289.221 205.837 T
295.127 202.195 295.127 179.974 289.221 205.837 T
301.033 179.974 295.127 179.974 295.127 202.195 T
301.033 199.339 301.033 179.974 295.127 202.195 T
306.939 179.974 301.033 179.974 301.033 199.339 T
306.939 197.373 306.939 179.974 301.033 199.339 T
312.845 179.974 306.939 179.974 306.939 197.373 T
312.845 195.207 312.845 179.974 306.939 197.373 T
318.751 179.974 312.845 179.974 312.845 195.207 T
318.751 193.628 318.751 179.974 312.845 195.207 T
324.657 179.974 318.751 179.974 318.751 193.628 T
324.657 191.933 324.657 179.974 318.751 193.628 T
330.563 179.974 324.657 179.974 324.657 191.933 T
330.563 190.57 330.563 179.974 324.657 191.933 T
336.469 179.974 330.563 179.974 330.563 190.57 T
336.469 189.287 336.469 179.974 330.563 190.57 T
342.374 179.974 336.469 179.974 336.469 189.287 T
342.374 188.28 342.374 179.974 336.469 189.287 T
348.28 179.974 342.374 179.974 342.374 188.28 T
348.28 187.547 348.28 179.974 342.374 188.28 T
354.186 179.974 348.28 179.974 348.28 187.547 T
354.186 186.741 354.186 179.974 348.28 187.547 T
0 0 0 C
354.186 186.741 LS
348.28 187.547 L
342.374 188.28 L
336.469 189.287 L
330.563 190.57 L
324.657 191.933 L
318.751 193.628 L
312.845 195.207 L
306.939 197.373 L
301.033 199.339 L
295.127 202.195 L
289.221 205.837 L
283.315 210.815 L
277.409 214.524 L
271.503 218.383 L
265.597 219.673 L
259.691 220.156 L
253.786 215.801 L
247.88 201.905 L
241.974 179.974 L
247.88 179.974 L
253.786 179.974 L
259.691 179.974 L
265.597 179.974 L
271.503 179.974 L
277.409 179.974 L
283.315 179.974 L
289.221 179.974 L
295.127 179.974 L
301.033 179.974 L
306.939 179.974 L
312.845 179.974 L
318.751 179.974 L
324.657 179.974 L
330.563 179.974 L
336.469 179.974 L
342.374 179.974 L
348.28 179.974 L
354.186 179.974 L
354.186 186.741 LE
3 W
1 LJ
241.974 191.42 LS
247.88 217.76 L
253.786 231.24 L
259.691 236.211 L
265.597 236.489 L
271.503 234.388 L
277.409 231.197 L
283.315 227.611 L
289.221 223.995 L
295.127 220.532 L
301.033 217.306 L
306.939 214.35 L
312.845 211.666 L
318.751 209.244 L
324.657 207.066 L
330.563 205.111 L
336.469 203.356 L
342.374 201.782 L
348.28 200.369 L
354.186 199.099 LE
grestore
gsave
1.0 1.0 scale
newpath 0 0 moveto 576 0 lineto 576 432 lineto 0 432 lineto
closepath clip
1 1 1 C
409.067 254.387 521.28 179.974 409.067 179.974 T
409.067 254.387 521.28 254.387 521.28 179.974 T
0.5 W
0.15 0.15 0.15 C
432.691 179.974 LS
432.691 181.102 LE
432.691 254.387 LS
432.691 253.258 LE
462.221 179.974 LS
462.221 181.102 LE
462.221 254.387 LS
462.221 253.258 LE
491.75 179.974 LS
491.75 181.102 LE
491.75 254.387 LS
491.75 253.258 LE
521.28 179.974 LS
521.28 181.102 LE
521.28 254.387 LS
521.28 253.258 LE
gsave
0.14902 0.14902 0.14902 C
(5) [10] 0 429.691 164.432 10 /Helvetica SRX
grestore

gsave
0.14902 0.14902 0.14902 C
(10) [6 10] 0 456.221 164.432 10 /Helvetica SRX
grestore

gsave
0.14902 0.14902 0.14902 C
(15) [6 10] 0 485.75 164.432 10 /Helvetica SRX
grestore

gsave
0.14902 0.14902 0.14902 C
(20) [6 10] 0 515.28 164.432 10 /Helvetica SRX
grestore

409.067 181.991 LS
410.192 181.991 LE
521.28 181.991 LS
520.156 181.991 LE
409.067 191.785 LS
410.192 191.785 LE
521.28 191.785 LS
520.156 191.785 LE
409.067 201.579 LS
410.192 201.579 LE
521.28 201.579 LS
520.156 201.579 LE
409.067 211.373 LS
410.192 211.373 LE
521.28 211.373 LS
520.156 211.373 LE
409.067 221.168 LS
410.192 221.168 LE
521.28 221.168 LS
520.156 221.168 LE
409.067 230.962 LS
410.192 230.962 LE
521.28 230.962 LS
520.156 230.962 LE
409.067 240.756 LS
410.192 240.756 LE
521.28 240.756 LS
520.156 240.756 LE
409.067 250.55 LS
410.192 250.55 LE
521.28 250.55 LS
520.156 250.55 LE
gsave
0.14902 0.14902 0.14902 C
(0.002) [6 3 6 6 10] 0 377.058 177.991 10 /Helvetica SRX
grestore

gsave
0.14902 0.14902 0.14902 C
(0.004) [6 3 6 6 10] 0 377.058 187.785 10 /Helvetica SRX
grestore

gsave
0.14902 0.14902 0.14902 C
(0.006) [6 3 6 6 10] 0 377.058 197.579 10 /Helvetica SRX
grestore

gsave
0.14902 0.14902 0.14902 C
(0.008) [6 3 6 6 10] 0 377.058 207.373 10 /Helvetica SRX
grestore

gsave
0.14902 0.14902 0.14902 C
(0.01) [6 3 6 10] 0 383.058 217.168 10 /Helvetica SRX
grestore

gsave
0.14902 0.14902 0.14902 C
(0.012) [6 3 6 6 10] 0 377.058 226.962 10 /Helvetica SRX
grestore

gsave
0.14902 0.14902 0.14902 C
(0.014) [6 3 6 6 10] 0 377.058 236.756 10 /Helvetica SRX
grestore

gsave
0.14902 0.14902 0.14902 C
(0.016) [6 3 6 6 10] 0 377.058 246.55 10 /Helvetica SRX
grestore

2 LC
[16 0] 0 setdash
409.067 179.974 LS
521.28 179.974 LE
409.067 254.387 LS
521.28 254.387 LE
409.067 179.974 LS
409.067 254.387 LE
521.28 179.974 LS
521.28 254.387 LE
gsave
0 0 0 C
(L_C_hat) [7 6 8 6 7 6 10] 0 443.174 266.387 11 /Helvetica-Bold SRX
grestore

0.9 0.9 0.9 C
409.067 179.974 409.067 222.473 414.973 179.974 T
414.973 243.025 414.973 179.974 409.067 222.473 T
420.879 179.974 414.973 179.974 414.973 243.025 T
420.879 252.771 420.879 179.974 414.973 243.025 T
426.785 179.974 420.879 179.974 420.879 252.771 T
426.785 254.387 426.785 179.974 420.879 252.771 T
432.691 179.974 426.785 179.974 426.785 254.387 T
432.691 251.906 432.691 179.974 426.785 254.387 T
438.597 179.974 432.691 179.974 432.691 251.906 T
438.597 247.421 438.597 179.974 432.691 251.906 T
444.503 179.974 438.597 179.974 438.597 247.421 T
444.503 243.342 444.503 179.974 438.597 247.421 T
450.409 179.974 444.503 179.974 444.503 243.342 T
450.409 239.6 450.409 179.974 444.503 243.342 T
456.315 179.974 450.409 179.974 450.409 239.6 T
456.315 232.687 456.315 179.974 450.409 239.6 T
462.221 179.974 456.315 179.974 456.315 232.687 T
462.221 228.419 462.221 179.974 456.315 232.687 T
468.127 179.974 462.221 179.974 462.221 228.419 T
468.127 223.54 468.127 179.974 462.221 228.419 T
474.033 179.974 468.127 179.974 468.127 223.54 T
474.033 219.469 474.033 179.974 468.127 223.54 T
479.939 179.974 474.033 179.974 474.033 219.469 T
479.939 214.283 479.939 179.974 474.033 219.469 T
485.844 179.974 479.939 179.974 479.939 214.283 T
485.844 210.947 485.844 179.974 479.939 214.283 T
491.75 179.974 485.844 179.974 485.844 210.947 T
491.75 207.862 491.75 179.974 485.844 210.947 T
497.656 179.974 491.75 179.974 491.75 207.862 T
497.656 204.953 497.656 179.974 491.75 207.862 T
503.562 179.974 497.656 179.974 497.656 204.953 T
503.562 202.266 503.562 179.974 497.656 204.953 T
509.468 179.974 503.562 179.974 503.562 202.266 T
509.468 199.801 509.468 179.974 503.562 202.266 T
515.374 179.974 509.468 179.974 509.468 199.801 T
515.374 197.35 515.374 179.974 509.468 199.801 T
521.28 179.974 515.374 179.974 515.374 197.35 T
521.28 195.521 521.28 179.974 515.374 197.35 T
0 LC
[] 0 setdash
0 0 0 C
521.28 195.521 LS
515.374 197.35 L
509.468 199.801 L
503.562 202.266 L
497.656 204.953 L
491.75 207.862 L
485.844 210.947 L
479.939 214.283 L
474.033 219.469 L
468.127 223.54 L
462.221 228.419 L
456.315 232.687 L
450.409 239.6 L
444.503 243.342 L
438.597 247.421 L
432.691 251.906 L
426.785 254.387 L
420.879 252.771 L
414.973 243.025 L
409.067 222.473 L
409.067 179.974 L
414.973 179.974 L
420.879 179.974 L
426.785 179.974 L
432.691 179.974 L
438.597 179.974 L
444.503 179.974 L
450.409 179.974 L
456.315 179.974 L
462.221 179.974 L
468.127 179.974 L
474.033 179.974 L
479.939 179.974 L
485.844 179.974 L
491.75 179.974 L
497.656 179.974 L
503.562 179.974 L
509.468 179.974 L
515.374 179.974 L
521.28 179.974 L
521.28 195.521 LE
1 1 1 C
409.067 179.974 409.067 188.663 414.973 179.974 T
414.973 198.31 414.973 179.974 409.067 188.663 T
420.879 179.974 414.973 179.974 414.973 198.31 T
420.879 206.581 420.879 179.974 414.973 198.31 T
426.785 179.974 420.879 179.974 420.879 206.581 T
426.785 210.961 426.785 179.974 420.879 206.581 T
432.691 179.974 426.785 179.974 426.785 210.961 T
432.691 211.914 432.691 179.974 426.785 210.961 T
438.597 179.974 432.691 179.974 432.691 211.914 T
438.597 210.692 438.597 179.974 432.691 211.914 T
444.503 179.974 438.597 179.974 438.597 210.692 T
444.503 209.269 444.503 179.974 438.597 210.692 T
450.409 179.974 444.503 179.974 444.503 209.269 T
450.409 207.995 450.409 179.974 444.503 209.269 T
456.315 179.974 450.409 179.974 450.409 207.995 T
456.315 203.007 456.315 179.974 450.409 207.995 T
462.221 179.974 456.315 179.974 456.315 203.007 T
462.221 200.432 462.221 179.974 456.315 203.007 T
468.127 179.974 462.221 179.974 462.221 200.432 T
468.127 196.813 468.127 179.974 462.221 200.432 T
474.033 179.974 468.127 179.974 468.127 196.813 T
474.033 194.107 474.033 179.974 468.127 196.813 T
479.939 179.974 474.033 179.974 474.033 194.107 T
479.939 190.292 479.939 179.974 474.033 194.107 T
485.844 179.974 479.939 179.974 479.939 190.292 T
485.844 188.271 485.844 179.974 479.939 190.292 T
491.75 179.974 485.844 179.974 485.844 188.271 T
491.75 186.528 491.75 179.974 485.844 188.271 T
497.656 179.974 491.75 179.974 491.75 186.528 T
497.656 184.844 497.656 179.974 491.75 186.528 T
503.562 179.974 497.656 179.974 497.656 184.844 T
503.562 183.319 503.562 179.974 497.656 184.844 T
509.468 179.974 503.562 179.974 503.562 183.319 T
509.468 182.011 509.468 179.974 503.562 183.319 T
515.374 179.974 509.468 179.974 509.468 182.011 T
515.374 180.7 515.374 179.974 509.468 182.011 T
521.28 179.974 515.374 179.974 515.374 180.7 T
0 0 0 C
521.28 179.974 LS
515.374 180.7 L
509.468 182.011 L
503.562 183.319 L
497.656 184.844 L
491.75 186.528 L
485.844 188.271 L
479.939 190.292 L
474.033 194.107 L
468.127 196.813 L
462.221 200.432 L
456.315 203.007 L
450.409 207.995 L
444.503 209.269 L
438.597 210.692 L
432.691 211.914 L
426.785 210.961 L
420.879 206.581 L
414.973 198.31 L
409.067 188.663 L
409.067 179.974 L
414.973 179.974 L
420.879 179.974 L
426.785 179.974 L
432.691 179.974 L
438.597 179.974 L
444.503 179.974 L
450.409 179.974 L
456.315 179.974 L
462.221 179.974 L
468.127 179.974 L
474.033 179.974 L
479.939 179.974 L
485.844 179.974 L
491.75 179.974 L
497.656 179.974 L
503.562 179.974 L
509.468 179.974 L
515.374 179.974 L
521.28 179.974 LE
3 W
1 LJ
409.067 204.934 LS
414.973 221.247 L
420.879 228.989 L
426.785 231.629 L
432.691 231.17 L
438.597 228.869 L
444.503 225.535 L
450.409 221.693 L
456.315 217.679 L
462.221 213.706 L
468.127 209.905 L
474.033 206.348 L
479.939 203.072 L
485.844 200.092 L
491.75 197.404 L
497.656 194.997 L
503.562 192.853 L
509.468 190.952 L
515.374 189.274 L
521.28 187.795 LE
grestore
gsave
1.0 1.0 scale
newpath 0 0 moveto 576 0 lineto 576 432 lineto 0 432 lineto
closepath clip
1 1 1 C
74.88 121.933 187.093 47.52 74.88 47.52 T
74.88 121.933 187.093 121.933 187.093 47.52 T
0.5 W
0.15 0.15 0.15 C
98.5037 47.52 LS
98.5037 48.6484 LE
98.5037 121.933 LS
98.5037 120.805 LE
128.033 47.52 LS
128.033 48.6484 LE
128.033 121.933 LS
128.033 120.805 LE
157.563 47.52 LS
157.563 48.6484 LE
157.563 121.933 LS
157.563 120.805 LE
187.093 47.52 LS
187.093 48.6484 LE
187.093 121.933 LS
187.093 120.805 LE
gsave
0.14902 0.14902 0.14902 C
(5) [10] 0 95.5037 31.9781 10 /Helvetica SRX
grestore

gsave
0.14902 0.14902 0.14902 C
(10) [6 10] 0 122.033 31.9781 10 /Helvetica SRX
grestore

gsave
0.14902 0.14902 0.14902 C
(15) [6 10] 0 151.563 31.9781 10 /Helvetica SRX
grestore

gsave
0.14902 0.14902 0.14902 C
(20) [6 10] 0 181.093 31.9781 10 /Helvetica SRX
grestore

74.88 60.9726 LS
76.0043 60.9726 LE
187.093 60.9726 LS
185.968 60.9726 LE
74.88 79.9913 LS
76.0043 79.9913 LE
187.093 79.9913 LS
185.968 79.9913 LE
74.88 99.0101 LS
76.0043 99.0101 LE
187.093 99.0101 LS
185.968 99.0101 LE
74.88 118.029 LS
76.0043 118.029 LE
187.093 118.029 LS
185.968 118.029 LE
gsave
0.14902 0.14902 0.14902 C
(0.01) [6 3 6 10] 0 48.8705 56.9726 10 /Helvetica SRX
grestore

gsave
0.14902 0.14902 0.14902 C
(0.02) [6 3 6 10] 0 48.8705 75.9914 10 /Helvetica SRX
grestore

gsave
0.14902 0.14902 0.14902 C
(0.03) [6 3 6 10] 0 48.8705 95.0101 10 /Helvetica SRX
grestore

gsave
0.14902 0.14902 0.14902 C
(0.04) [6 3 6 10] 0 48.8705 114.029 10 /Helvetica SRX
grestore

2 LC
[16 0] 0 setdash
74.88 47.52 LS
187.093 47.52 LE
74.88 121.933 LS
187.093 121.933 LE
74.88 47.52 LS
74.88 121.933 LE
187.093 47.52 LS
187.093 121.933 LE
gsave
0 0 0 C
(I_T_hat) [3 6 7 6 7 6 10] 0 111.486 133.933 11 /Helvetica-Bold SRX
grestore

0.9 0.9 0.9 C
74.88 47.52 74.88 121.933 80.7859 47.52 T
80.7859 114.515 80.7859 47.52 74.88 121.933 T
86.6918 47.52 80.7859 47.52 80.7859 114.515 T
86.6918 107.769 86.6918 47.52 80.7859 114.515 T
92.5978 47.52 86.6918 47.52 86.6918 107.769 T
92.5978 101.695 92.5978 47.52 86.6918 107.769 T
98.5037 47.52 92.5978 47.52 92.5978 101.695 T
98.5037 95.5008 98.5037 47.52 92.5978 101.695 T
104.41 47.52 98.5037 47.52 98.5037 95.5008 T
104.41 89.8851 104.41 47.52 98.5037 95.5008 T
110.316 47.52 104.41 47.52 104.41 89.8851 T
110.316 85.4364 110.316 47.52 104.41 89.8851 T
116.221 47.52 110.316 47.52 110.316 85.4364 T
116.221 80.4434 116.221 47.52 110.316 85.4364 T
122.127 47.52 116.221 47.52 116.221 80.4434 T
122.127 76.808 122.127 47.52 116.221 80.4434 T
128.033 47.52 122.127 47.52 122.127 76.808 T
128.033 73.3125 128.033 47.52 122.127 76.808 T
133.939 47.52 128.033 47.52 128.033 73.3125 T
133.939 70.3787 133.939 47.52 128.033 73.3125 T
139.845 47.52 133.939 47.52 133.939 70.3787 T
139.845 67.78 139.845 47.52 133.939 70.3787 T
145.751 47.52 139.845 47.52 139.845 67.78 T
145.751 65.0973 145.751 47.52 139.845 67.78 T
151.657 47.52 145.751 47.52 145.751 65.0973 T
151.657 63.0943 151.657 47.52 145.751 65.0973 T
157.563 47.52 151.657 47.52 151.657 63.0943 T
157.563 61.2412 157.563 47.52 151.657 63.0943 T
163.469 47.52 157.563 47.52 157.563 61.2412 T
163.469 59.5456 163.469 47.52 157.563 61.2412 T
169.375 47.52 163.469 47.52 163.469 59.5456 T
169.375 58.3224 169.375 47.52 163.469 59.5456 T
175.281 47.52 169.375 47.52 169.375 58.3224 T
175.281 56.9168 175.281 47.52 169.375 58.3224 T
181.187 47.52 175.281 47.52 175.281 56.9168 T
181.187 55.8159 181.187 47.52 175.281 56.9168 T
187.093 47.52 181.187 47.52 181.187 55.8159 T
187.093 54.8323 187.093 47.52 181.187 55.8159 T
0 LC
[] 0 setdash
0 0 0 C
187.093 54.8323 LS
181.187 55.8159 L
175.281 56.9168 L
169.375 58.3224 L
163.469 59.5456 L
157.563 61.2412 L
151.657 63.0943 L
145.751 65.0973 L
139.845 67.78 L
133.939 70.3787 L
128.033 73.3125 L
122.127 76.808 L
116.221 80.4434 L
110.316 85.4364 L
104.41 89.8851 L
98.5037 95.5008 L
92.5978 101.695 L
86.6918 107.769 L
80.7859 114.515 L
74.88 121.933 L
74.88 47.52 L
80.7859 47.52 L
86.6918 47.52 L
92.5978 47.52 L
98.5037 47.52 L
104.41 47.52 L
110.316 47.52 L
116.221 47.52 L
122.127 47.52 L
128.033 47.52 L
133.939 47.52 L
139.845 47.52 L
145.751 47.52 L
151.657 47.52 L
157.563 47.52 L
163.469 47.52 L
169.375 47.52 L
175.281 47.52 L
181.187 47.52 L
187.093 47.52 L
187.093 54.8323 LE
1 1 1 C
74.88 47.52 74.88 92.5791 80.7859 47.52 T
80.7859 86.4878 80.7859 47.52 74.88 92.5791 T
86.6918 47.52 80.7859 47.52 80.7859 86.4878 T
86.6918 81.1358 86.6918 47.52 80.7859 86.4878 T
92.5978 47.52 86.6918 47.52 86.6918 81.1358 T
92.5978 76.8036 92.5978 47.52 86.6918 81.1358 T
98.5037 47.52 92.5978 47.52 92.5978 76.8036 T
98.5037 72.3774 98.5037 47.52 92.5978 76.8036 T
104.41 47.52 98.5037 47.52 98.5037 72.3774 T
104.41 68.3814 104.41 47.52 98.5037 72.3774 T
110.316 47.52 104.41 47.52 104.41 68.3814 T
110.316 65.4913 110.316 47.52 104.41 68.3814 T
116.221 47.52 110.316 47.52 110.316 65.4913 T
116.221 62.0333 116.221 47.52 110.316 65.4913 T
122.127 47.52 116.221 47.52 116.221 62.0333 T
122.127 59.937 122.127 47.52 116.221 62.0333 T
128.033 47.52 122.127 47.52 122.127 59.937 T
128.033 57.8163 128.033 47.52 122.127 59.937 T
133.939 47.52 128.033 47.52 128.033 57.8163 T
133.939 55.9941 133.939 47.52 128.033 57.8163 T
139.845 47.52 133.939 47.52 133.939 55.9941 T
139.845 54.5102 139.845 47.52 133.939 55.9941 T
145.751 47.52 139.845 47.52 139.845 54.5102 T
145.751 52.8005 145.751 47.52 139.845 54.5102 T
151.657 47.52 145.751 47.52 145.751 52.8005 T
151.657 51.7154 151.657 47.52 145.751 52.8005 T
157.563 47.52 151.657 47.52 151.657 51.7154 T
157.563 50.7091 157.563 47.52 151.657 51.7154 T
163.469 47.52 157.563 47.52 157.563 50.7091 T
163.469 49.7769 163.469 47.52 157.563 50.7091 T
169.375 47.52 163.469 47.52 163.469 49.7769 T
169.375 49.2539 169.375 47.52 163.469 49.7769 T
175.281 47.52 169.375 47.52 169.375 49.2539 T
175.281 48.5372 175.281 47.52 169.375 49.2539 T
181.187 47.52 175.281 47.52 175.281 48.5372 T
181.187 48.008 181.187 47.52 175.281 48.5372 T
187.093 47.52 181.187 47.52 181.187 48.008 T
0 0 0 C
187.093 47.52 LS
181.187 48.008 L
175.281 48.5372 L
169.375 49.2539 L
163.469 49.7769 L
157.563 50.7091 L
151.657 51.7154 L
145.751 52.8005 L
139.845 54.5102 L
133.939 55.9941 L
128.033 57.8163 L
122.127 59.937 L
116.221 62.0333 L
110.316 65.4913 L
104.41 68.3814 L
98.5037 72.3774 L
92.5978 76.8036 L
86.6918 81.1358 L
80.7859 86.4878 L
74.88 92.5791 L
74.88 47.52 L
80.7859 47.52 L
86.6918 47.52 L
92.5978 47.52 L
98.5037 47.52 L
104.41 47.52 L
110.316 47.52 L
116.221 47.52 L
122.127 47.52 L
128.033 47.52 L
133.939 47.52 L
139.845 47.52 L
145.751 47.52 L
151.657 47.52 L
157.563 47.52 L
163.469 47.52 L
169.375 47.52 L
175.281 47.52 L
181.187 47.52 L
187.093 47.52 LE
3 W
1 LJ
74.88 107.559 LS
80.7859 101.224 L
86.6918 95.0053 L
92.5978 89.2671 L
98.5037 84.0948 L
104.41 79.4828 L
110.316 75.3936 L
116.221 71.7798 L
122.127 68.5925 L
128.033 65.7854 L
133.939 63.3157 L
139.845 61.1449 L
145.751 59.2382 L
151.657 57.5648 L
157.563 56.0972 L
163.469 54.8112 L
169.375 53.685 L
175.281 52.6995 L
181.187 51.8379 L
187.093 51.085 LE
grestore
gsave
1.0 1.0 scale
newpath 0 0 moveto 576 0 lineto 576 432 lineto 0 432 lineto
closepath clip
1 1 1 C
241.974 121.933 354.186 47.52 241.974 47.52 T
241.974 121.933 354.186 121.933 354.186 47.52 T
0.5 W
0.15 0.15 0.15 C
265.597 47.52 LS
265.597 48.6484 LE
265.597 121.933 LS
265.597 120.805 LE
295.127 47.52 LS
295.127 48.6484 LE
295.127 121.933 LS
295.127 120.805 LE
324.657 47.52 LS
324.657 48.6484 LE
324.657 121.933 LS
324.657 120.805 LE
354.186 47.52 LS
354.186 48.6484 LE
354.186 121.933 LS
354.186 120.805 LE
gsave
0.14902 0.14902 0.14902 C
(5) [10] 0 262.597 31.9781 10 /Helvetica SRX
grestore

gsave
0.14902 0.14902 0.14902 C
(10) [6 10] 0 289.127 31.9781 10 /Helvetica SRX
grestore

gsave
0.14902 0.14902 0.14902 C
(15) [6 10] 0 318.657 31.9781 10 /Helvetica SRX
grestore

gsave
0.14902 0.14902 0.14902 C
(20) [6 10] 0 348.186 31.9781 10 /Helvetica SRX
grestore

241.974 53.2432 LS
243.098 53.2432 LE
354.186 53.2432 LS
353.062 53.2432 LE
241.974 68.0072 LS
243.098 68.0072 LE
354.186 68.0072 LS
353.062 68.0072 LE
241.974 82.7712 LS
243.098 82.7712 LE
354.186 82.7712 LS
353.062 82.7712 LE
241.974 97.5352 LS
243.098 97.5352 LE
354.186 97.5352 LS
353.062 97.5352 LE
241.974 112.299 LS
243.098 112.299 LE
354.186 112.299 LS
353.062 112.299 LE
gsave
0.14902 0.14902 0.14902 C
(0.002) [6 3 6 6 10] 0 209.964 49.2432 10 /Helvetica SRX
grestore

gsave
0.14902 0.14902 0.14902 C
(0.004) [6 3 6 6 10] 0 209.964 64.0072 10 /Helvetica SRX
grestore

gsave
0.14902 0.14902 0.14902 C
(0.006) [6 3 6 6 10] 0 209.964 78.7712 10 /Helvetica SRX
grestore

gsave
0.14902 0.14902 0.14902 C
(0.008) [6 3 6 6 10] 0 209.964 93.5353 10 /Helvetica SRX
grestore

gsave
0.14902 0.14902 0.14902 C
(0.01) [6 3 6 10] 0 215.964 108.299 10 /Helvetica SRX
grestore

2 LC
[16 0] 0 setdash
241.974 47.52 LS
354.186 47.52 LE
241.974 121.933 LS
354.186 121.933 LE
241.974 47.52 LS
241.974 121.933 LE
354.186 47.52 LS
354.186 121.933 LE
gsave
0 0 0 C
(I_N_hat) [3 6 8 6 7 6 10] 0 278.08 133.933 11 /Helvetica-Bold SRX
grestore

0.9 0.9 0.9 C
241.974 47.52 241.974 70.5967 247.88 47.52 T
247.88 87.2324 247.88 47.52 241.974 70.5967 T
253.786 47.52 247.88 47.52 247.88 87.2324 T
253.786 99.3847 253.786 47.52 247.88 87.2324 T
259.691 47.52 253.786 47.52 253.786 99.3847 T
259.691 107.605 259.691 47.52 253.786 99.3847 T
265.597 47.52 259.691 47.52 259.691 107.605 T
265.597 113.735 265.597 47.52 259.691 107.605 T
271.503 47.52 265.597 47.52 265.597 113.735 T
271.503 116.786 271.503 47.52 265.597 113.735 T
277.409 47.52 271.503 47.52 271.503 116.786 T
277.409 119.622 277.409 47.52 271.503 116.786 T
283.315 47.52 277.409 47.52 277.409 119.622 T
283.315 120.807 283.315 47.52 277.409 119.622 T
289.221 47.52 283.315 47.52 283.315 120.807 T
289.221 121.933 289.221 47.52 283.315 120.807 T
295.127 47.52 289.221 47.52 289.221 121.933 T
295.127 120.367 295.127 47.52 289.221 121.933 T
301.033 47.52 295.127 47.52 295.127 120.367 T
301.033 120.258 301.033 47.52 295.127 120.367 T
306.939 47.52 301.033 47.52 301.033 120.258 T
306.939 118.885 306.939 47.52 301.033 120.258 T
312.845 47.52 306.939 47.52 306.939 118.885 T
312.845 118.719 312.845 47.52 306.939 118.885 T
318.751 47.52 312.845 47.52 312.845 118.719 T
318.751 117.628 318.751 47.52 312.845 118.719 T
324.657 47.52 318.751 47.52 318.751 117.628 T
324.657 116.378 324.657 47.52 318.751 117.628 T
330.563 47.52 324.657 47.52 324.657 116.378 T
330.563 113.543 330.563 47.52 324.657 116.378 T
336.469 47.52 330.563 47.52 330.563 113.543 T
336.469 112.661 336.469 47.52 330.563 113.543 T
342.374 47.52 336.469 47.52 336.469 112.661 T
342.374 110.781 342.374 47.52 336.469 112.661 T
348.28 47.52 342.374 47.52 342.374 110.781 T
348.28 108.759 348.28 47.52 342.374 110.781 T
354.186 47.52 348.28 47.52 348.28 108.759 T
354.186 106.826 354.186 47.52 348.28 108.759 T
0 LC
[] 0 setdash
0 0 0 C
354.186 106.826 LS
348.28 108.759 L
342.374 110.781 L
336.469 112.661 L
330.563 113.543 L
324.657 116.378 L
318.751 117.628 L
312.845 118.719 L
306.939 118.885 L
301.033 120.258 L
295.127 120.367 L
289.221 121.933 L
283.315 120.807 L
277.409 119.622 L
271.503 116.786 L
265.597 113.735 L
259.691 107.605 L
253.786 99.3847 L
247.88 87.2324 L
241.974 70.5967 L
241.974 47.52 L
247.88 47.52 L
253.786 47.52 L
259.691 47.52 L
265.597 47.52 L
271.503 47.52 L
277.409 47.52 L
283.315 47.52 L
289.221 47.52 L
295.127 47.52 L
301.033 47.52 L
306.939 47.52 L
312.845 47.52 L
318.751 47.52 L
324.657 47.52 L
330.563 47.52 L
336.469 47.52 L
342.374 47.52 L
348.28 47.52 L
354.186 47.52 L
354.186 106.826 LE
1 1 1 C
241.974 47.52 247.88 63.7878 247.88 47.52 T
253.786 47.52 247.88 47.52 247.88 63.7878 T
253.786 74.234 253.786 47.52 247.88 63.7878 T
259.691 47.52 253.786 47.52 253.786 74.234 T
259.691 80.9289 259.691 47.52 253.786 74.234 T
265.597 47.52 259.691 47.52 259.691 80.9289 T
265.597 86.616 265.597 47.52 259.691 80.9289 T
271.503 47.52 265.597 47.52 265.597 86.616 T
271.503 89.586 271.503 47.52 265.597 86.616 T
277.409 47.52 271.503 47.52 271.503 89.586 T
277.409 91.897 277.409 47.52 271.503 89.586 T
283.315 47.52 277.409 47.52 277.409 91.897 T
283.315 92.5834 283.315 47.52 277.409 91.897 T
289.221 47.52 283.315 47.52 283.315 92.5834 T
289.221 92.7469 289.221 47.52 283.315 92.5834 T
295.127 47.52 289.221 47.52 289.221 92.7469 T
295.127 90.5417 295.127 47.52 289.221 92.7469 T
301.033 47.52 295.127 47.52 295.127 90.5417 T
301.033 89.7057 301.033 47.52 295.127 90.5417 T
306.939 47.52 301.033 47.52 301.033 89.7057 T
306.939 87.7479 306.939 47.52 301.033 89.7057 T
312.845 47.52 306.939 47.52 306.939 87.7479 T
312.845 87.6852 312.845 47.52 306.939 87.7479 T
318.751 47.52 312.845 47.52 312.845 87.6852 T
318.751 86.3436 318.751 47.52 312.845 87.6852 T
324.657 47.52 318.751 47.52 318.751 86.3436 T
324.657 84.8158 324.657 47.52 318.751 86.3436 T
330.563 47.52 324.657 47.52 324.657 84.8158 T
330.563 81.9102 330.563 47.52 324.657 84.8158 T
336.469 47.52 330.563 47.52 330.563 81.9102 T
336.469 81.1373 336.469 47.52 330.563 81.9102 T
342.374 47.52 336.469 47.52 336.469 81.1373 T
342.374 79.054 342.374 47.52 336.469 81.1373 T
348.28 47.52 342.374 47.52 342.374 79.054 T
348.28 77.0007 348.28 47.52 342.374 79.054 T
354.186 47.52 348.28 47.52 348.28 77.0007 T
354.186 75.3005 354.186 47.52 348.28 77.0007 T
0 0 0 C
354.186 75.3005 LS
348.28 77.0007 L
342.374 79.054 L
336.469 81.1373 L
330.563 81.9102 L
324.657 84.8158 L
318.751 86.3436 L
312.845 87.6852 L
306.939 87.7479 L
301.033 89.7057 L
295.127 90.5417 L
289.221 92.7469 L
283.315 92.5834 L
277.409 91.897 L
271.503 89.586 L
265.597 86.616 L
259.691 80.9289 L
253.786 74.234 L
247.88 63.7878 L
241.974 47.52 L
247.88 47.52 L
253.786 47.52 L
259.691 47.52 L
265.597 47.52 L
271.503 47.52 L
277.409 47.52 L
283.315 47.52 L
289.221 47.52 L
295.127 47.52 L
301.033 47.52 L
306.939 47.52 L
312.845 47.52 L
318.751 47.52 L
324.657 47.52 L
330.563 47.52 L
336.469 47.52 L
342.374 47.52 L
348.28 47.52 L
354.186 47.52 L
354.186 75.3005 LE
3 W
1 LJ
241.974 58.7723 LS
247.88 75.9125 L
253.786 86.9193 L
259.691 94.3593 L
265.597 99.3993 L
271.503 102.717 L
277.409 104.756 L
283.315 105.83 L
289.221 106.168 L
295.127 105.945 L
301.033 105.295 L
306.939 104.322 L
312.845 103.11 L
318.751 101.722 L
324.657 100.212 L
330.563 98.6197 L
336.469 96.9785 L
342.374 95.314 L
348.28 93.6465 L
354.186 91.9918 LE
grestore
gsave
1.0 1.0 scale
newpath 0 0 moveto 576 0 lineto 576 432 lineto 0 432 lineto
closepath clip
1 1 1 C
409.067 121.933 521.28 47.52 409.067 47.52 T
409.067 121.933 521.28 121.933 521.28 47.52 T
0.5 W
0.15 0.15 0.15 C
432.691 47.52 LS
432.691 48.6484 LE
432.691 121.933 LS
432.691 120.805 LE
462.221 47.52 LS
462.221 48.6484 LE
462.221 121.933 LS
462.221 120.805 LE
491.75 47.52 LS
491.75 48.6484 LE
491.75 121.933 LS
491.75 120.805 LE
521.28 47.52 LS
521.28 48.6484 LE
521.28 121.933 LS
521.28 120.805 LE
gsave
0.14902 0.14902 0.14902 C
(5) [10] 0 429.691 31.9781 10 /Helvetica SRX
grestore

gsave
0.14902 0.14902 0.14902 C
(10) [6 10] 0 456.221 31.9781 10 /Helvetica SRX
grestore

gsave
0.14902 0.14902 0.14902 C
(15) [6 10] 0 485.75 31.9781 10 /Helvetica SRX
grestore

gsave
0.14902 0.14902 0.14902 C
(20) [6 10] 0 515.28 31.9781 10 /Helvetica SRX
grestore

409.067 56.9629 LS
410.192 56.9629 LE
521.28 56.9629 LS
520.156 56.9629 LE
409.067 80.2738 LS
410.192 80.2738 LE
521.28 80.2738 LS
520.156 80.2738 LE
409.067 103.585 LS
410.192 103.585 LE
521.28 103.585 LS
520.156 103.585 LE
gsave
0.14902 0.14902 0.14902 C
(0.005) [6 3 6 6 10] 0 377.058 52.963 10 /Helvetica SRX
grestore

gsave
0.14902 0.14902 0.14902 C
(0.01) [6 3 6 10] 0 383.058 76.2739 10 /Helvetica SRX
grestore

gsave
0.14902 0.14902 0.14902 C
(0.015) [6 3 6 6 10] 0 377.058 99.5847 10 /Helvetica SRX
grestore

2 LC
[16 0] 0 setdash
409.067 47.52 LS
521.28 47.52 LE
409.067 121.933 LS
521.28 121.933 LE
409.067 47.52 LS
409.067 121.933 LE
521.28 47.52 LS
521.28 121.933 LE
gsave
0 0 0 C
(I_C_hat) [3 6 8 6 7 6 10] 0 445.174 133.933 11 /Helvetica-Bold SRX
grestore

0.9 0.9 0.9 C
409.067 47.52 409.067 121.933 414.973 47.52 T
414.973 120.262 414.973 47.52 409.067 121.933 T
420.879 47.52 414.973 47.52 414.973 120.262 T
420.879 117.654 420.879 47.52 414.973 120.262 T
426.785 47.52 420.879 47.52 420.879 117.654 T
426.785 112.674 426.785 47.52 420.879 117.654 T
432.691 47.52 426.785 47.52 426.785 112.674 T
432.691 108.307 432.691 47.52 426.785 112.674 T
438.597 47.52 432.691 47.52 432.691 108.307 T
438.597 105.088 438.597 47.52 432.691 108.307 T
444.503 47.52 438.597 47.52 438.597 105.088 T
444.503 100.068 444.503 47.52 438.597 105.088 T
450.409 47.52 444.503 47.52 444.503 100.068 T
450.409 95.4501 450.409 47.52 444.503 100.068 T
456.315 47.52 450.409 47.52 450.409 95.4501 T
456.315 92.9349 456.315 47.52 450.409 95.4501 T
462.221 47.52 456.315 47.52 456.315 92.9349 T
462.221 88.8487 462.221 47.52 456.315 92.9349 T
468.127 47.52 462.221 47.52 462.221 88.8487 T
468.127 85.1778 468.127 47.52 462.221 88.8487 T
474.033 47.52 468.127 47.52 468.127 85.1778 T
474.033 80.7475 474.033 47.52 468.127 85.1778 T
479.939 47.52 474.033 47.52 474.033 80.7475 T
479.939 77.925 479.939 47.52 474.033 80.7475 T
485.844 47.52 479.939 47.52 479.939 77.925 T
485.844 75.1602 485.844 47.52 479.939 77.925 T
491.75 47.52 485.844 47.52 485.844 75.1602 T
491.75 73.0265 491.75 47.52 485.844 75.1602 T
497.656 47.52 491.75 47.52 491.75 73.0265 T
497.656 70.3494 497.656 47.52 491.75 73.0265 T
503.562 47.52 497.656 47.52 497.656 70.3494 T
503.562 68.3413 503.562 47.52 497.656 70.3494 T
509.468 47.52 503.562 47.52 503.562 68.3413 T
509.468 66.4832 509.468 47.52 503.562 68.3413 T
515.374 47.52 509.468 47.52 509.468 66.4832 T
515.374 64.8182 515.374 47.52 509.468 66.4832 T
521.28 47.52 515.374 47.52 515.374 64.8182 T
521.28 63.305 521.28 47.52 515.374 64.8182 T
0 LC
[] 0 setdash
0 0 0 C
521.28 63.305 LS
515.374 64.8182 L
509.468 66.4832 L
503.562 68.3413 L
497.656 70.3494 L
491.75 73.0265 L
485.844 75.1602 L
479.939 77.925 L
474.033 80.7475 L
468.127 85.1778 L
462.221 88.8487 L
456.315 92.9349 L
450.409 95.4501 L
444.503 100.068 L
438.597 105.088 L
432.691 108.307 L
426.785 112.674 L
420.879 117.654 L
414.973 120.262 L
409.067 121.933 L
409.067 47.52 L
414.973 47.52 L
420.879 47.52 L
426.785 47.52 L
432.691 47.52 L
438.597 47.52 L
444.503 47.52 L
450.409 47.52 L
456.315 47.52 L
462.221 47.52 L
468.127 47.52 L
474.033 47.52 L
479.939 47.52 L
485.844 47.52 L
491.75 47.52 L
497.656 47.52 L
503.562 47.52 L
509.468 47.52 L
515.374 47.52 L
521.28 47.52 L
521.28 63.305 LE
1 1 1 C
409.067 47.52 409.067 84.7373 414.973 47.52 T
414.973 84.6703 414.973 47.52 409.067 84.7373 T
420.879 47.52 414.973 47.52 414.973 84.6703 T
420.879 83.7024 420.879 47.52 414.973 84.6703 T
426.785 47.52 420.879 47.52 420.879 83.7024 T
426.785 79.9022 426.785 47.52 420.879 83.7024 T
432.691 47.52 426.785 47.52 426.785 79.9022 T
432.691 76.5285 432.691 47.52 426.785 79.9022 T
438.597 47.52 432.691 47.52 432.691 76.5285 T
438.597 74.5887 438.597 47.52 432.691 76.5285 T
444.503 47.52 438.597 47.52 438.597 74.5887 T
444.503 70.5893 444.503 47.52 438.597 74.5887 T
450.409 47.52 444.503 47.52 444.503 70.5893 T
450.409 67.0852 450.409 47.52 444.503 70.5893 T
456.315 47.52 450.409 47.52 450.409 67.0852 T
456.315 65.813 456.315 47.52 450.409 67.0852 T
462.221 47.52 456.315 47.52 456.315 65.813 T
462.221 62.9877 462.221 47.52 456.315 65.813 T
468.127 47.52 462.221 47.52 462.221 62.9877 T
468.127 60.494 468.127 47.52 462.221 62.9877 T
474.033 47.52 468.127 47.52 468.127 60.494 T
474.033 57.1498 474.033 47.52 468.127 60.494 T
479.939 47.52 474.033 47.52 474.033 57.1498 T
479.939 55.6162 479.939 47.52 474.033 57.1498 T
485.844 47.52 479.939 47.52 479.939 55.6162 T
485.844 53.9995 485.844 47.52 479.939 55.6162 T
491.75 47.52 485.844 47.52 485.844 53.9995 T
491.75 52.815 491.75 47.52 485.844 53.9995 T
497.656 47.52 491.75 47.52 491.75 52.815 T
497.656 51.1185 497.656 47.52 491.75 52.815 T
503.562 47.52 497.656 47.52 497.656 51.1185 T
503.562 50.0393 503.562 47.52 497.656 51.1185 T
509.468 47.52 503.562 47.52 503.562 50.0393 T
509.468 49.1012 509.468 47.52 503.562 50.0393 T
515.374 47.52 509.468 47.52 509.468 49.1012 T
515.374 48.2763 515.374 47.52 509.468 49.1012 T
521.28 47.52 515.374 47.52 515.374 48.2763 T
0 0 0 C
521.28 47.52 LS
515.374 48.2763 L
509.468 49.1012 L
503.562 50.0393 L
497.656 51.1185 L
491.75 52.815 L
485.844 53.9995 L
479.939 55.6162 L
474.033 57.1498 L
468.127 60.494 L
462.221 62.9877 L
456.315 65.813 L
450.409 67.0852 L
444.503 70.5893 L
438.597 74.5887 L
432.691 76.5285 L
426.785 79.9022 L
420.879 83.7024 L
414.973 84.6703 L
409.067 84.7373 L
409.067 47.52 L
414.973 47.52 L
420.879 47.52 L
426.785 47.52 L
432.691 47.52 L
438.597 47.52 L
444.503 47.52 L
450.409 47.52 L
456.315 47.52 L
462.221 47.52 L
468.127 47.52 L
474.033 47.52 L
479.939 47.52 L
485.844 47.52 L
491.75 47.52 L
497.656 47.52 L
503.562 47.52 L
509.468 47.52 L
515.374 47.52 L
521.28 47.52 LE
3 W
1 LJ
409.067 105.335 LS
414.973 103.643 L
420.879 100.755 L
426.785 97.2041 L
432.691 93.3514 L
438.597 89.4316 L
444.503 85.5945 L
450.409 81.9314 L
456.315 78.4943 L
462.221 75.3087 L
468.127 72.3829 L
474.033 69.7139 L
479.939 67.2917 L
485.844 65.1023 L
491.75 63.1292 L
497.656 61.355 L
503.562 59.7625 L
509.468 58.3346 L
515.374 57.0554 L
521.28 55.9096 LE
grestore
grestore
showpage
cleartomark
%%PageTrailer
%%Trailer
end
%%EOF
