%!PS-Adobe-3.0 EPSF-3.0
%%Title: gl2ps_renderer figure
%%Creator: GL2PS 1.4.2, (C) 1999-2020 C. Geuzaine
%%For: Octave
%%CreationDate: Wed Oct  7 07:02:53 2020
%%LanguageLevel: 3
%%DocumentData: Clean7Bit
%%Pages: 1
%%BoundingBox: 0 0 576 432
%%EndComments
%%BeginProlog
/gl2psdict 64 dict def gl2psdict begin
/tryPS3shading false def % set to false to force subdivision
/rThreshold 0.064 def % red component subdivision threshold
/gThreshold 0.034 def % green component subdivision threshold
/bThreshold 0.1 def % blue component subdivision threshold
/BD { bind def } bind def
/C  { setrgbcolor } BD
/G  { 0.082 mul exch 0.6094 mul add exch 0.3086 mul add neg 1.0 add setgray } BD
/W  { setlinewidth } BD
/LC  { setlinecap } BD
/LJ  { setlinejoin } BD
/FC { findfont exch /SH exch def SH scalefont setfont } BD
/SW { dup stringwidth pop } BD
/S  { FC moveto show } BD
/SBC{ FC moveto SW -2 div 0 rmoveto show } BD
/SBR{ FC moveto SW neg 0 rmoveto show } BD
/SCL{ FC moveto 0 SH -2 div rmoveto show } BD
/SCC{ FC moveto SW -2 div SH -2 div rmoveto show } BD
/SCR{ FC moveto SW neg SH -2 div rmoveto show } BD
/STL{ FC moveto 0 SH neg rmoveto show } BD
/STC{ FC moveto SW -2 div SH neg rmoveto show } BD
/STR{ FC moveto SW neg SH neg rmoveto show } BD
/FCT { FC translate 0 0 } BD
/SR  { gsave FCT moveto rotate show grestore } BD
/SRX  { gsave FCT moveto rotate xshow grestore } BD
/SBCR{ gsave FCT moveto rotate SW -2 div 0 rmoveto show grestore } BD
/SBRR{ gsave FCT moveto rotate SW neg 0 rmoveto show grestore } BD
/SCLR{ gsave FCT moveto rotate 0 SH -2 div rmoveto show grestore} BD
/SCCR{ gsave FCT moveto rotate SW -2 div SH -2 div rmoveto show grestore} BD
/SCRR{ gsave FCT moveto rotate SW neg SH -2 div rmoveto show grestore} BD
/STLR{ gsave FCT moveto rotate 0 SH neg rmoveto show grestore } BD
/STCR{ gsave FCT moveto rotate SW -2 div SH neg rmoveto show grestore } BD
/STRR{ gsave FCT moveto rotate SW neg SH neg rmoveto show grestore } BD
/P  { newpath 0.0 360.0 arc closepath fill } BD
/LS { newpath moveto } BD
/L  { lineto } BD
/LE { lineto stroke } BD
/T  { newpath moveto lineto lineto closepath fill } BD
/STshfill {
      /b1 exch def /g1 exch def /r1 exch def /y1 exch def /x1 exch def
      /b2 exch def /g2 exch def /r2 exch def /y2 exch def /x2 exch def
      /b3 exch def /g3 exch def /r3 exch def /y3 exch def /x3 exch def
      gsave << /ShadingType 4 /ColorSpace [/DeviceRGB]
      /DataSource [ 0 x1 y1 r1 g1 b1 0 x2 y2 r2 g2 b2 0 x3 y3 r3 g3 b3 ] >>
      shfill grestore } BD
/Tm { 3 -1 roll 8 -1 roll 13 -1 roll add add 3 div
      3 -1 roll 7 -1 roll 11 -1 roll add add 3 div
      3 -1 roll 6 -1 roll 9 -1 roll add add 3 div C T } BD
/STsplit {
      4 index 15 index add 0.5 mul
      4 index 15 index add 0.5 mul
      4 index 15 index add 0.5 mul
      4 index 15 index add 0.5 mul
      4 index 15 index add 0.5 mul
      5 copy 5 copy 25 15 roll
      9 index 30 index add 0.5 mul
      9 index 30 index add 0.5 mul
      9 index 30 index add 0.5 mul
      9 index 30 index add 0.5 mul
      9 index 30 index add 0.5 mul
      5 copy 5 copy 35 5 roll 25 5 roll 15 5 roll
      4 index 10 index add 0.5 mul
      4 index 10 index add 0.5 mul
      4 index 10 index add 0.5 mul
      4 index 10 index add 0.5 mul
      4 index 10 index add 0.5 mul
      5 copy 5 copy 40 5 roll 25 5 roll 15 5 roll 25 5 roll
      STnoshfill STnoshfill STnoshfill STnoshfill } BD
/STnoshfill {
      2 index 8 index sub abs rThreshold gt
      { STsplit }
      { 1 index 7 index sub abs gThreshold gt
        { STsplit }
        { dup 6 index sub abs bThreshold gt
          { STsplit }
          { 2 index 13 index sub abs rThreshold gt
            { STsplit }
            { 1 index 12 index sub abs gThreshold gt
              { STsplit }
              { dup 11 index sub abs bThreshold gt
                { STsplit }
                { 7 index 13 index sub abs rThreshold gt
                  { STsplit }
                  { 6 index 12 index sub abs gThreshold gt
                    { STsplit }
                    { 5 index 11 index sub abs bThreshold gt
                      { STsplit }
                      { Tm }
                      ifelse }
                    ifelse }
                  ifelse }
                ifelse }
              ifelse }
            ifelse }
          ifelse }
        ifelse }
      ifelse } BD
tryPS3shading
{ /shfill where
  { /ST { STshfill } BD }
  { /ST { STnoshfill } BD }
  ifelse }
{ /ST { STnoshfill } BD }
ifelse
end
%%EndProlog
%%BeginSetup
/DeviceRGB setcolorspace
gl2psdict begin
%%EndSetup
%%Page: 1 1
%%BeginPageSetup
%%EndPageSetup
mark
gsave
1.0 1.0 scale
1 1 1 C
newpath 0 0 moveto 576 0 lineto 576 432 lineto 0 432 lineto
closepath fill
gsave
1.0 1.0 scale
1 1 1 C
newpath 0 0 moveto 576 0 lineto 576 432 lineto 0 432 lineto
closepath fill
newpath 0 0 moveto 576 0 lineto 576 432 lineto 0 432 lineto
closepath clip
1 1 1 C
74.88 385.841 187.093 312.427 74.88 312.427 T
74.88 385.841 187.093 385.841 187.093 312.427 T
0.5 W
0.15 0.15 0.15 C
98.5037 312.427 LS
98.5037 313.556 LE
98.5037 385.841 LS
98.5037 384.712 LE
128.033 312.427 LS
128.033 313.556 LE
128.033 385.841 LS
128.033 384.712 LE
157.563 312.427 LS
157.563 313.556 LE
157.563 385.841 LS
157.563 384.712 LE
187.093 312.427 LS
187.093 313.556 LE
187.093 385.841 LS
187.093 384.712 LE
gsave
0.14902 0.14902 0.14902 C
(5) [10] 0 95.5037 296.885 10 /Helvetica SRX
grestore

gsave
0.14902 0.14902 0.14902 C
(10) [6 10] 0 122.033 296.885 10 /Helvetica SRX
grestore

gsave
0.14902 0.14902 0.14902 C
(15) [6 10] 0 151.563 296.885 10 /Helvetica SRX
grestore

gsave
0.14902 0.14902 0.14902 C
(20) [6 10] 0 181.093 296.885 10 /Helvetica SRX
grestore

74.88 317.717 LS
76.0043 317.717 LE
187.093 317.717 LS
185.968 317.717 LE
74.88 336.866 LS
76.0043 336.866 LE
187.093 336.866 LS
185.968 336.866 LE
74.88 356.015 LS
76.0043 356.015 LE
187.093 356.015 LS
185.968 356.015 LE
74.88 375.164 LS
76.0043 375.164 LE
187.093 375.164 LS
185.968 375.164 LE
gsave
0.14902 0.14902 0.14902 C
(-5e-05) [3 6 5 3 6 10] 0 40.8705 313.717 10 /Helvetica SRX
grestore

gsave
0.14902 0.14902 0.14902 C
(0) [10] 0 63.8705 332.866 10 /Helvetica SRX
grestore

gsave
0.14902 0.14902 0.14902 C
(5e-05) [6 5 3 6 10] 0 43.8705 352.015 10 /Helvetica SRX
grestore

gsave
0.14902 0.14902 0.14902 C
(0.0001) [6 3 6 6 6 10] 0 36.8705 371.164 10 /Helvetica SRX
grestore

2 LC
[16 0] 0 setdash
74.88 312.427 LS
187.093 312.427 LE
74.88 385.841 LS
187.093 385.841 LE
74.88 312.427 LS
74.88 385.841 LE
187.093 312.427 LS
187.093 385.841 LE
gsave
0 0 0 C
(r_hat) [4 6 7 6 10] 0 117.486 397.841 11 /Helvetica-Bold SRX
grestore

0.9 0.9 0.9 C
74.88 312.427 74.88 336.866 80.7859 312.427 T
80.7859 347.278 80.7859 312.427 74.88 336.866 T
86.6918 312.427 80.7859 312.427 80.7859 347.278 T
86.6918 359.321 86.6918 312.427 80.7859 347.278 T
92.5978 312.427 86.6918 312.427 86.6918 359.321 T
92.5978 372.533 92.5978 312.427 86.6918 359.321 T
98.5037 312.427 92.5978 312.427 92.5978 372.533 T
98.5037 385.841 98.5037 312.427 92.5978 372.533 T
104.41 312.427 98.5037 312.427 98.5037 385.841 T
104.41 368.127 104.41 312.427 98.5037 385.841 T
110.316 312.427 104.41 312.427 104.41 368.127 T
110.316 354.043 110.316 312.427 104.41 368.127 T
116.221 312.427 110.316 312.427 110.316 354.043 T
116.221 345.569 116.221 312.427 110.316 354.043 T
122.127 312.427 116.221 312.427 116.221 345.569 T
122.127 338.002 122.127 312.427 116.221 345.569 T
128.033 312.427 122.127 312.427 122.127 338.002 T
128.033 335.16 128.033 312.427 122.127 338.002 T
133.939 312.427 128.033 312.427 128.033 335.16 T
133.939 331.342 133.939 312.427 128.033 335.16 T
139.845 312.427 133.939 312.427 133.939 331.342 T
139.845 330.057 139.845 312.427 133.939 331.342 T
145.751 312.427 139.845 312.427 139.845 330.057 T
145.751 329.283 145.751 312.427 139.845 330.057 T
151.657 312.427 145.751 312.427 145.751 329.283 T
151.657 329.225 151.657 312.427 145.751 329.283 T
157.563 312.427 151.657 312.427 151.657 329.225 T
157.563 329.261 157.563 312.427 151.657 329.225 T
163.469 312.427 157.563 312.427 157.563 329.261 T
163.469 329.158 163.469 312.427 157.563 329.261 T
169.375 312.427 163.469 312.427 163.469 329.158 T
169.375 329.035 169.375 312.427 163.469 329.158 T
175.281 312.427 169.375 312.427 169.375 329.035 T
175.281 329.687 175.281 312.427 169.375 329.035 T
181.187 312.427 175.281 312.427 175.281 329.687 T
181.187 330.148 181.187 312.427 175.281 329.687 T
187.093 312.427 181.187 312.427 181.187 330.148 T
187.093 330.473 187.093 312.427 181.187 330.148 T
0 LC
[] 0 setdash
0 0 0 C
187.093 330.473 LS
181.187 330.148 L
175.281 329.687 L
169.375 329.035 L
163.469 329.158 L
157.563 329.261 L
151.657 329.225 L
145.751 329.283 L
139.845 330.057 L
133.939 331.342 L
128.033 335.16 L
122.127 338.002 L
116.221 345.569 L
110.316 354.043 L
104.41 368.127 L
98.5037 385.841 L
92.5978 372.533 L
86.6918 359.321 L
80.7859 347.278 L
74.88 336.866 L
74.88 312.427 L
80.7859 312.427 L
86.6918 312.427 L
92.5978 312.427 L
98.5037 312.427 L
104.41 312.427 L
110.316 312.427 L
116.221 312.427 L
122.127 312.427 L
128.033 312.427 L
133.939 312.427 L
139.845 312.427 L
145.751 312.427 L
151.657 312.427 L
157.563 312.427 L
163.469 312.427 L
169.375 312.427 L
175.281 312.427 L
181.187 312.427 L
187.093 312.427 L
187.093 330.473 LE
1 1 1 C
151.657 312.427 157.563 312.634 157.563 312.427 T
163.469 312.427 157.563 312.427 157.563 312.634 T
163.469 312.71 163.469 312.427 157.563 312.634 T
169.375 312.427 163.469 312.427 163.469 312.71 T
169.375 312.974 169.375 312.427 163.469 312.71 T
175.281 312.427 169.375 312.427 169.375 312.974 T
175.281 313.878 175.281 312.427 169.375 312.974 T
181.187 312.427 175.281 312.427 175.281 313.878 T
181.187 314.738 181.187 312.427 175.281 313.878 T
187.093 312.427 181.187 312.427 181.187 314.738 T
187.093 315.328 187.093 312.427 181.187 314.738 T
74.88 312.427 74.88 336.866 80.7859 312.427 T
80.7859 338.788 80.7859 312.427 74.88 336.866 T
86.6918 312.427 80.7859 312.427 80.7859 338.788 T
86.6918 340.878 86.6918 312.427 80.7859 338.788 T
92.5978 312.427 86.6918 312.427 86.6918 340.878 T
92.5978 343.275 92.5978 312.427 86.6918 340.878 T
98.5037 312.427 92.5978 312.427 92.5978 343.275 T
98.5037 345.658 98.5037 312.427 92.5978 343.275 T
104.41 312.427 98.5037 312.427 98.5037 345.658 T
104.41 337.701 104.41 312.427 98.5037 345.658 T
110.316 312.427 104.41 312.427 104.41 337.701 T
110.316 330.1 110.316 312.427 104.41 337.701 T
116.221 312.427 110.316 312.427 110.316 330.1 T
116.221 325.457 116.221 312.427 110.316 330.1 T
122.127 312.427 116.221 312.427 116.221 325.457 T
122.127 319.402 122.127 312.427 116.221 325.457 T
128.033 312.427 122.127 312.427 122.127 319.402 T
128.033 316.964 128.033 312.427 122.127 319.402 T
133.939 312.427 128.033 312.427 128.033 316.964 T
133.939 314.007 133.939 312.427 128.033 316.964 T
139.845 312.427 133.939 312.427 133.939 314.007 T
139.845 313.13 139.845 312.427 133.939 314.007 T
145.751 312.427 139.845 312.427 139.845 313.13 T
145.751 312.529 145.751 312.427 139.845 313.13 T
151.657 312.427 145.751 312.427 145.751 312.529 T
0 0 0 C
151.657 312.427 LS
145.751 312.529 L
139.845 313.13 L
133.939 314.007 L
128.033 316.964 L
122.127 319.402 L
116.221 325.457 L
110.316 330.1 L
104.41 337.701 L
98.5037 345.658 L
92.5978 343.275 L
86.6918 340.878 L
80.7859 338.788 L
74.88 336.866 L
74.88 312.427 L
80.7859 312.427 L
86.6918 312.427 L
92.5978 312.427 L
98.5037 312.427 L
104.41 312.427 L
110.316 312.427 L
116.221 312.427 L
122.127 312.427 L
128.033 312.427 L
133.939 312.427 L
139.845 312.427 L
145.751 312.427 L
151.657 312.427 LE
187.093 315.328 LS
181.187 314.738 L
175.281 313.878 L
169.375 312.974 L
163.469 312.71 L
157.563 312.634 L
151.657 312.427 L
157.563 312.427 L
163.469 312.427 L
169.375 312.427 L
175.281 312.427 L
181.187 312.427 L
187.093 312.427 L
187.093 315.328 LE
3 W
1 LJ
74.88 336.866 LS
80.7859 343.047 L
86.6918 350.356 L
92.5978 357.989 L
98.5037 365.8 L
104.41 354.115 L
110.316 343.203 L
116.221 335.073 L
122.127 329.381 L
128.033 325.551 L
133.939 323.09 L
139.845 321.619 L
145.751 320.853 L
151.657 320.581 L
157.563 320.65 L
163.469 320.945 L
169.375 321.386 L
175.281 321.913 L
181.187 322.483 L
187.093 323.067 LE
grestore
gsave
1.0 1.0 scale
newpath 0 0 moveto 576 0 lineto 576 432 lineto 0 432 lineto
closepath clip
1 1 1 C
241.974 385.841 354.186 312.427 241.974 312.427 T
241.974 385.841 354.186 385.841 354.186 312.427 T
0.5 W
0.15 0.15 0.15 C
265.597 312.427 LS
265.597 313.556 LE
265.597 385.841 LS
265.597 384.712 LE
295.127 312.427 LS
295.127 313.556 LE
295.127 385.841 LS
295.127 384.712 LE
324.657 312.427 LS
324.657 313.556 LE
324.657 385.841 LS
324.657 384.712 LE
354.186 312.427 LS
354.186 313.556 LE
354.186 385.841 LS
354.186 384.712 LE
gsave
0.14902 0.14902 0.14902 C
(5) [10] 0 262.597 296.885 10 /Helvetica SRX
grestore

gsave
0.14902 0.14902 0.14902 C
(10) [6 10] 0 289.127 296.885 10 /Helvetica SRX
grestore

gsave
0.14902 0.14902 0.14902 C
(15) [6 10] 0 318.657 296.885 10 /Helvetica SRX
grestore

gsave
0.14902 0.14902 0.14902 C
(20) [6 10] 0 348.186 296.885 10 /Helvetica SRX
grestore

241.974 312.427 LS
243.098 312.427 LE
354.186 312.427 LS
353.062 312.427 LE
241.974 328.359 LS
243.098 328.359 LE
354.186 328.359 LS
353.062 328.359 LE
241.974 344.291 LS
243.098 344.291 LE
354.186 344.291 LS
353.062 344.291 LE
241.974 360.223 LS
243.098 360.223 LE
354.186 360.223 LS
353.062 360.223 LE
241.974 376.155 LS
243.098 376.155 LE
354.186 376.155 LS
353.062 376.155 LE
gsave
0.14902 0.14902 0.14902 C
(0) [10] 0 230.964 308.427 10 /Helvetica SRX
grestore

gsave
0.14902 0.14902 0.14902 C
(0.01) [6 3 6 10] 0 215.964 324.359 10 /Helvetica SRX
grestore

gsave
0.14902 0.14902 0.14902 C
(0.02) [6 3 6 10] 0 215.964 340.291 10 /Helvetica SRX
grestore

gsave
0.14902 0.14902 0.14902 C
(0.03) [6 3 6 10] 0 215.964 356.223 10 /Helvetica SRX
grestore

gsave
0.14902 0.14902 0.14902 C
(0.04) [6 3 6 10] 0 215.964 372.155 10 /Helvetica SRX
grestore

2 LC
[16 0] 0 setdash
241.974 312.427 LS
354.186 312.427 LE
241.974 385.841 LS
354.186 385.841 LE
241.974 312.427 LS
241.974 385.841 LE
354.186 312.427 LS
354.186 385.841 LE
gsave
0 0 0 C
(A_C_hat) [8 6 8 6 7 6 10] 0 275.58 397.841 11 /Helvetica-Bold SRX
grestore

0.9 0.9 0.9 C
241.974 312.427 241.974 312.427 247.88 312.427 T
247.88 312.427 247.88 312.427 241.974 312.427 T
253.786 312.427 247.88 312.427 247.88 312.427 T
253.786 312.427 253.786 312.427 247.88 312.427 T
259.691 312.427 253.786 312.427 253.786 312.427 T
259.691 312.427 259.691 312.427 253.786 312.427 T
265.597 312.427 259.691 312.427 259.691 312.427 T
265.597 385.841 265.597 312.427 259.691 312.427 T
271.503 312.427 265.597 312.427 265.597 385.841 T
271.503 371.87 271.503 312.427 265.597 385.841 T
277.409 312.427 271.503 312.427 271.503 371.87 T
277.409 360.664 277.409 312.427 271.503 371.87 T
283.315 312.427 277.409 312.427 277.409 360.664 T
283.315 352.525 283.315 312.427 277.409 360.664 T
289.221 312.427 283.315 312.427 283.315 352.525 T
289.221 346.083 289.221 312.427 283.315 352.525 T
295.127 312.427 289.221 312.427 289.221 346.083 T
295.127 338.895 295.127 312.427 289.221 346.083 T
301.033 312.427 295.127 312.427 295.127 338.895 T
301.033 334.046 301.033 312.427 295.127 338.895 T
306.939 312.427 301.033 312.427 301.033 334.046 T
306.939 330.436 306.939 312.427 301.033 334.046 T
312.845 312.427 306.939 312.427 306.939 330.436 T
312.845 327.76 312.845 312.427 306.939 330.436 T
318.751 312.427 312.845 312.427 312.845 327.76 T
318.751 325.373 318.751 312.427 312.845 327.76 T
324.657 312.427 318.751 312.427 318.751 325.373 T
324.657 323.374 324.657 312.427 318.751 325.373 T
330.563 312.427 324.657 312.427 324.657 323.374 T
330.563 321.781 330.563 312.427 324.657 323.374 T
336.469 312.427 330.563 312.427 330.563 321.781 T
336.469 320.322 336.469 312.427 330.563 321.781 T
342.374 312.427 336.469 312.427 336.469 320.322 T
342.374 319.141 342.374 312.427 336.469 320.322 T
348.28 312.427 342.374 312.427 342.374 319.141 T
348.28 317.98 348.28 312.427 342.374 319.141 T
354.186 312.427 348.28 312.427 348.28 317.98 T
354.186 317.139 354.186 312.427 348.28 317.98 T
0 LC
[] 0 setdash
0 0 0 C
354.186 317.139 LS
348.28 317.98 L
342.374 319.141 L
336.469 320.322 L
330.563 321.781 L
324.657 323.374 L
318.751 325.373 L
312.845 327.76 L
306.939 330.436 L
301.033 334.046 L
295.127 338.895 L
289.221 346.083 L
283.315 352.525 L
277.409 360.664 L
271.503 371.87 L
265.597 385.841 L
259.691 312.427 L
253.786 312.427 L
247.88 312.427 L
241.974 312.427 L
241.974 312.427 L
247.88 312.427 L
253.786 312.427 L
259.691 312.427 L
265.597 312.427 L
271.503 312.427 L
277.409 312.427 L
283.315 312.427 L
289.221 312.427 L
295.127 312.427 L
301.033 312.427 L
306.939 312.427 L
312.845 312.427 L
318.751 312.427 L
324.657 312.427 L
330.563 312.427 L
336.469 312.427 L
342.374 312.427 L
348.28 312.427 L
354.186 312.427 L
354.186 317.139 LE
1 1 1 C
259.691 312.427 265.597 346.191 265.597 312.427 T
271.503 312.427 265.597 312.427 265.597 346.191 T
271.503 338.199 271.503 312.427 265.597 346.191 T
277.409 312.427 271.503 312.427 271.503 338.199 T
277.409 330.044 277.409 312.427 271.503 338.199 T
283.315 312.427 277.409 312.427 277.409 330.044 T
283.315 324.242 283.315 312.427 277.409 330.044 T
289.221 312.427 283.315 312.427 283.315 324.242 T
289.221 319.83 289.221 312.427 283.315 324.242 T
295.127 312.427 289.221 312.427 289.221 319.83 T
295.127 315.508 295.127 312.427 289.221 319.83 T
301.033 312.427 295.127 312.427 295.127 315.508 T
301.033 313.723 301.033 312.427 295.127 315.508 T
306.939 312.427 301.033 312.427 301.033 313.723 T
306.939 312.919 306.939 312.427 301.033 313.723 T
312.845 312.427 306.939 312.427 306.939 312.919 T
312.845 312.734 312.845 312.427 306.939 312.919 T
318.751 312.427 312.845 312.427 312.845 312.734 T
318.751 312.598 318.751 312.427 312.845 312.734 T
324.657 312.427 318.751 312.427 318.751 312.598 T
324.657 312.521 324.657 312.427 318.751 312.598 T
330.563 312.427 324.657 312.427 324.657 312.521 T
330.563 312.475 330.563 312.427 324.657 312.521 T
336.469 312.427 330.563 312.427 330.563 312.475 T
336.469 312.454 336.469 312.427 330.563 312.475 T
342.374 312.427 336.469 312.427 336.469 312.454 T
342.374 312.442 342.374 312.427 336.469 312.454 T
348.28 312.427 342.374 312.427 342.374 312.442 T
348.28 312.436 348.28 312.427 342.374 312.442 T
354.186 312.427 348.28 312.427 348.28 312.436 T
354.186 312.432 354.186 312.427 348.28 312.436 T
241.974 312.427 241.974 312.427 247.88 312.427 T
247.88 312.427 247.88 312.427 241.974 312.427 T
253.786 312.427 247.88 312.427 247.88 312.427 T
253.786 312.427 253.786 312.427 247.88 312.427 T
259.691 312.427 253.786 312.427 253.786 312.427 T
0 0 0 C
259.691 312.427 LS
253.786 312.427 L
247.88 312.427 L
241.974 312.427 L
241.974 312.427 L
247.88 312.427 L
253.786 312.427 L
259.691 312.427 LE
354.186 312.432 LS
348.28 312.436 L
342.374 312.442 L
336.469 312.454 L
330.563 312.475 L
324.657 312.521 L
318.751 312.598 L
312.845 312.734 L
306.939 312.919 L
301.033 313.723 L
295.127 315.508 L
289.221 319.83 L
283.315 324.242 L
277.409 330.044 L
271.503 338.199 L
265.597 346.191 L
259.691 312.427 L
265.597 312.427 L
271.503 312.427 L
277.409 312.427 L
283.315 312.427 L
289.221 312.427 L
295.127 312.427 L
301.033 312.427 L
306.939 312.427 L
312.845 312.427 L
318.751 312.427 L
324.657 312.427 L
330.563 312.427 L
336.469 312.427 L
342.374 312.427 L
348.28 312.427 L
354.186 312.427 L
354.186 312.432 LE
3 W
1 LJ
241.974 312.427 LS
247.88 312.427 L
253.786 312.427 L
259.691 312.427 L
265.597 365.635 L
271.503 353.744 L
277.409 344.739 L
283.315 337.86 L
289.221 332.563 L
295.127 328.455 L
301.033 325.247 L
306.939 322.728 L
312.845 320.739 L
318.751 319.159 L
324.657 317.9 L
330.563 316.891 L
336.469 316.079 L
342.374 315.424 L
348.28 314.894 L
354.186 314.462 LE
grestore
gsave
1.0 1.0 scale
newpath 0 0 moveto 576 0 lineto 576 432 lineto 0 432 lineto
closepath clip
1 1 1 C
409.067 385.841 521.28 312.427 409.067 312.427 T
409.067 385.841 521.28 385.841 521.28 312.427 T
0.5 W
0.15 0.15 0.15 C
432.691 312.427 LS
432.691 313.556 LE
432.691 385.841 LS
432.691 384.712 LE
462.221 312.427 LS
462.221 313.556 LE
462.221 385.841 LS
462.221 384.712 LE
491.75 312.427 LS
491.75 313.556 LE
491.75 385.841 LS
491.75 384.712 LE
521.28 312.427 LS
521.28 313.556 LE
521.28 385.841 LS
521.28 384.712 LE
gsave
0.14902 0.14902 0.14902 C
(5) [10] 0 429.691 296.885 10 /Helvetica SRX
grestore

gsave
0.14902 0.14902 0.14902 C
(10) [6 10] 0 456.221 296.885 10 /Helvetica SRX
grestore

gsave
0.14902 0.14902 0.14902 C
(15) [6 10] 0 485.75 296.885 10 /Helvetica SRX
grestore

gsave
0.14902 0.14902 0.14902 C
(20) [6 10] 0 515.28 296.885 10 /Helvetica SRX
grestore

409.067 326.468 LS
410.192 326.468 LE
521.28 326.468 LS
520.156 326.468 LE
409.067 343.243 LS
410.192 343.243 LE
521.28 343.243 LS
520.156 343.243 LE
409.067 360.018 LS
410.192 360.018 LE
521.28 360.018 LS
520.156 360.018 LE
409.067 376.793 LS
410.192 376.793 LE
521.28 376.793 LS
520.156 376.793 LE
gsave
0.14902 0.14902 0.14902 C
(0.002) [6 3 6 6 10] 0 377.058 322.468 10 /Helvetica SRX
grestore

gsave
0.14902 0.14902 0.14902 C
(0.004) [6 3 6 6 10] 0 377.058 339.243 10 /Helvetica SRX
grestore

gsave
0.14902 0.14902 0.14902 C
(0.006) [6 3 6 6 10] 0 377.058 356.018 10 /Helvetica SRX
grestore

gsave
0.14902 0.14902 0.14902 C
(0.008) [6 3 6 6 10] 0 377.058 372.793 10 /Helvetica SRX
grestore

2 LC
[16 0] 0 setdash
409.067 312.427 LS
521.28 312.427 LE
409.067 385.841 LS
521.28 385.841 LE
409.067 312.427 LS
409.067 385.841 LE
521.28 312.427 LS
521.28 385.841 LE
gsave
0 0 0 C
(Y_hat) [7 6 7 6 10] 0 450.174 397.841 11 /Helvetica-Bold SRX
grestore

0.9 0.9 0.9 C
409.067 312.427 409.067 318.598 414.973 312.427 T
414.973 321.237 414.973 312.427 409.067 318.598 T
420.879 312.427 414.973 312.427 414.973 321.237 T
420.879 324.719 420.879 312.427 414.973 321.237 T
426.785 312.427 420.879 312.427 420.879 324.719 T
426.785 330.555 426.785 312.427 420.879 324.719 T
432.691 312.427 426.785 312.427 426.785 330.555 T
432.691 385.841 432.691 312.427 426.785 330.555 T
438.597 312.427 432.691 312.427 432.691 385.841 T
438.597 379.306 438.597 312.427 432.691 385.841 T
444.503 312.427 438.597 312.427 438.597 379.306 T
444.503 372.297 444.503 312.427 438.597 379.306 T
450.409 312.427 444.503 312.427 444.503 372.297 T
450.409 368.299 450.409 312.427 444.503 372.297 T
456.315 312.427 450.409 312.427 450.409 368.299 T
456.315 362.37 456.315 312.427 450.409 368.299 T
462.221 312.427 456.315 312.427 456.315 362.37 T
462.221 357.405 462.221 312.427 456.315 362.37 T
468.127 312.427 462.221 312.427 462.221 357.405 T
468.127 353.729 468.127 312.427 462.221 357.405 T
474.033 312.427 468.127 312.427 468.127 353.729 T
474.033 350.436 474.033 312.427 468.127 353.729 T
479.939 312.427 474.033 312.427 474.033 350.436 T
479.939 346.278 479.939 312.427 474.033 350.436 T
485.844 312.427 479.939 312.427 479.939 346.278 T
485.844 343.342 485.844 312.427 479.939 346.278 T
491.75 312.427 485.844 312.427 485.844 343.342 T
491.75 340.76 491.75 312.427 485.844 343.342 T
497.656 312.427 491.75 312.427 491.75 340.76 T
497.656 338.501 497.656 312.427 491.75 340.76 T
503.562 312.427 497.656 312.427 497.656 338.501 T
503.562 336.712 503.562 312.427 497.656 338.501 T
509.468 312.427 503.562 312.427 503.562 336.712 T
509.468 335.026 509.468 312.427 503.562 336.712 T
515.374 312.427 509.468 312.427 509.468 335.026 T
515.374 333.487 515.374 312.427 509.468 335.026 T
521.28 312.427 515.374 312.427 515.374 333.487 T
521.28 332.248 521.28 312.427 515.374 333.487 T
0 LC
[] 0 setdash
0 0 0 C
521.28 332.248 LS
515.374 333.487 L
509.468 335.026 L
503.562 336.712 L
497.656 338.501 L
491.75 340.76 L
485.844 343.342 L
479.939 346.278 L
474.033 350.436 L
468.127 353.729 L
462.221 357.405 L
456.315 362.37 L
450.409 368.299 L
444.503 372.297 L
438.597 379.306 L
432.691 385.841 L
426.785 330.555 L
420.879 324.719 L
414.973 321.237 L
409.067 318.598 L
409.067 312.427 L
414.973 312.427 L
420.879 312.427 L
426.785 312.427 L
432.691 312.427 L
438.597 312.427 L
444.503 312.427 L
450.409 312.427 L
456.315 312.427 L
462.221 312.427 L
468.127 312.427 L
474.033 312.427 L
479.939 312.427 L
485.844 312.427 L
491.75 312.427 L
497.656 312.427 L
503.562 312.427 L
509.468 312.427 L
515.374 312.427 L
521.28 312.427 L
521.28 332.248 LE
1 1 1 C
409.067 312.427 414.973 314.018 414.973 312.427 T
420.879 312.427 414.973 312.427 414.973 314.018 T
420.879 315.575 420.879 312.427 414.973 314.018 T
426.785 312.427 420.879 312.427 420.879 315.575 T
426.785 318.298 426.785 312.427 420.879 315.575 T
432.691 312.427 426.785 312.427 426.785 318.298 T
432.691 345.121 432.691 312.427 426.785 318.298 T
438.597 312.427 432.691 312.427 432.691 345.121 T
438.597 339.077 438.597 312.427 432.691 345.121 T
444.503 312.427 438.597 312.427 438.597 339.077 T
444.503 331.197 444.503 312.427 438.597 339.077 T
450.409 312.427 444.503 312.427 444.503 331.197 T
450.409 327.899 450.409 312.427 444.503 331.197 T
456.315 312.427 450.409 312.427 450.409 327.899 T
456.315 322.665 456.315 312.427 450.409 327.899 T
462.221 312.427 456.315 312.427 456.315 322.665 T
462.221 319.939 462.221 312.427 456.315 322.665 T
468.127 312.427 462.221 312.427 462.221 319.939 T
468.127 318.446 468.127 312.427 462.221 319.939 T
474.033 312.427 468.127 312.427 468.127 318.446 T
474.033 317.238 474.033 312.427 468.127 318.446 T
479.939 312.427 474.033 312.427 474.033 317.238 T
479.939 315.316 479.939 312.427 474.033 317.238 T
485.844 312.427 479.939 312.427 479.939 315.316 T
485.844 314.496 485.844 312.427 479.939 315.316 T
491.75 312.427 485.844 312.427 485.844 314.496 T
491.75 314.048 491.75 312.427 485.844 314.496 T
497.656 312.427 491.75 312.427 491.75 314.048 T
497.656 313.792 497.656 312.427 491.75 314.048 T
503.562 312.427 497.656 312.427 497.656 313.792 T
503.562 313.592 503.562 312.427 497.656 313.792 T
509.468 312.427 503.562 312.427 503.562 313.592 T
509.468 313.434 509.468 312.427 503.562 313.592 T
515.374 312.427 509.468 312.427 509.468 313.434 T
515.374 313.308 515.374 312.427 509.468 313.434 T
521.28 312.427 515.374 312.427 515.374 313.308 T
521.28 313.211 521.28 312.427 515.374 313.308 T
0 0 0 C
521.28 313.211 LS
515.374 313.308 L
509.468 313.434 L
503.562 313.592 L
497.656 313.792 L
491.75 314.048 L
485.844 314.496 L
479.939 315.316 L
474.033 317.238 L
468.127 318.446 L
462.221 319.939 L
456.315 322.665 L
450.409 327.899 L
444.503 331.197 L
438.597 339.077 L
432.691 345.121 L
426.785 318.298 L
420.879 315.575 L
414.973 314.018 L
409.067 312.427 L
414.973 312.427 L
420.879 312.427 L
426.785 312.427 L
432.691 312.427 L
438.597 312.427 L
444.503 312.427 L
450.409 312.427 L
456.315 312.427 L
462.221 312.427 L
468.127 312.427 L
474.033 312.427 L
479.939 312.427 L
485.844 312.427 L
491.75 312.427 L
497.656 312.427 L
503.562 312.427 L
509.468 312.427 L
515.374 312.427 L
521.28 312.427 L
521.28 313.211 LE
3 W
1 LJ
409.067 315.649 LS
414.973 317.504 L
420.879 320.267 L
426.785 324.307 L
432.691 364.449 L
438.597 359.597 L
444.503 354.467 L
450.409 349.578 L
456.315 345.145 L
462.221 341.238 L
468.127 337.856 L
474.033 334.963 L
479.939 332.508 L
485.844 330.436 L
491.75 328.693 L
497.656 327.23 L
503.562 326.001 L
509.468 324.969 L
515.374 324.101 L
521.28 323.368 LE
grestore
gsave
1.0 1.0 scale
newpath 0 0 moveto 576 0 lineto 576 432 lineto 0 432 lineto
closepath clip
1 1 1 C
74.88 253.387 187.093 179.974 74.88 179.974 T
74.88 253.387 187.093 253.387 187.093 179.974 T
0.5 W
0.15 0.15 0.15 C
98.5037 179.974 LS
98.5037 181.102 LE
98.5037 253.387 LS
98.5037 252.258 LE
128.033 179.974 LS
128.033 181.102 LE
128.033 253.387 LS
128.033 252.258 LE
157.563 179.974 LS
157.563 181.102 LE
157.563 253.387 LS
157.563 252.258 LE
187.093 179.974 LS
187.093 181.102 LE
187.093 253.387 LS
187.093 252.258 LE
gsave
0.14902 0.14902 0.14902 C
(5) [10] 0 95.5037 164.431 10 /Helvetica SRX
grestore

gsave
0.14902 0.14902 0.14902 C
(10) [6 10] 0 122.033 164.431 10 /Helvetica SRX
grestore

gsave
0.14902 0.14902 0.14902 C
(15) [6 10] 0 151.563 164.431 10 /Helvetica SRX
grestore

gsave
0.14902 0.14902 0.14902 C
(20) [6 10] 0 181.093 164.431 10 /Helvetica SRX
grestore

74.88 186.191 LS
76.0043 186.191 LE
187.093 186.191 LS
185.968 186.191 LE
74.88 200.399 LS
76.0043 200.399 LE
187.093 200.399 LS
185.968 200.399 LE
74.88 214.607 LS
76.0043 214.607 LE
187.093 214.607 LS
185.968 214.607 LE
74.88 228.814 LS
76.0043 228.814 LE
187.093 228.814 LS
185.968 228.814 LE
74.88 243.022 LS
76.0043 243.022 LE
187.093 243.022 LS
185.968 243.022 LE
gsave
0.14902 0.14902 0.14902 C
(0.0005) [6 3 6 6 6 10] 0 36.8705 182.191 10 /Helvetica SRX
grestore

gsave
0.14902 0.14902 0.14902 C
(0.001) [6 3 6 6 10] 0 42.8705 196.399 10 /Helvetica SRX
grestore

gsave
0.14902 0.14902 0.14902 C
(0.0015) [6 3 6 6 6 10] 0 36.8705 210.607 10 /Helvetica SRX
grestore

gsave
0.14902 0.14902 0.14902 C
(0.002) [6 3 6 6 10] 0 42.8705 224.814 10 /Helvetica SRX
grestore

gsave
0.14902 0.14902 0.14902 C
(0.0025) [6 3 6 6 6 10] 0 36.8705 239.022 10 /Helvetica SRX
grestore

2 LC
[16 0] 0 setdash
74.88 179.974 LS
187.093 179.974 LE
74.88 253.387 LS
187.093 253.387 LE
74.88 179.974 LS
74.88 253.387 LE
187.093 179.974 LS
187.093 253.387 LE
gsave
0 0 0 C
(C_hat) [8 6 7 6 10] 0 115.486 265.387 11 /Helvetica-Bold SRX
grestore

0.9 0.9 0.9 C
74.88 179.974 74.88 194.798 80.7859 179.974 T
80.7859 203.414 80.7859 179.974 74.88 194.798 T
86.6918 179.974 80.7859 179.974 80.7859 203.414 T
86.6918 212.539 86.6918 179.974 80.7859 203.414 T
92.5978 179.974 86.6918 179.974 86.6918 212.539 T
92.5978 222.914 92.5978 179.974 86.6918 212.539 T
98.5037 179.974 92.5978 179.974 92.5978 222.914 T
98.5037 238.999 98.5037 179.974 92.5978 222.914 T
104.41 179.974 98.5037 179.974 98.5037 238.999 T
104.41 247.858 104.41 179.974 98.5037 238.999 T
110.316 179.974 104.41 179.974 104.41 247.858 T
110.316 253.015 110.316 179.974 104.41 247.858 T
116.221 179.974 110.316 179.974 110.316 253.015 T
116.221 252.385 116.221 179.974 110.316 253.015 T
122.127 179.974 116.221 179.974 116.221 252.385 T
122.127 253.387 122.127 179.974 116.221 252.385 T
128.033 179.974 122.127 179.974 122.127 253.387 T
128.033 252.889 128.033 179.974 122.127 253.387 T
133.939 179.974 128.033 179.974 128.033 252.889 T
133.939 251.042 133.939 179.974 128.033 252.889 T
139.845 179.974 133.939 179.974 133.939 251.042 T
139.845 246.97 139.845 179.974 133.939 251.042 T
145.751 179.974 139.845 179.974 139.845 246.97 T
145.751 247.797 145.751 179.974 139.845 246.97 T
151.657 179.974 145.751 179.974 145.751 247.797 T
151.657 243.807 151.657 179.974 145.751 247.797 T
157.563 179.974 151.657 179.974 151.657 243.807 T
157.563 240.501 157.563 179.974 151.657 243.807 T
163.469 179.974 157.563 179.974 157.563 240.501 T
163.469 238.848 163.469 179.974 157.563 240.501 T
169.375 179.974 163.469 179.974 163.469 238.848 T
169.375 237.397 169.375 179.974 163.469 238.848 T
175.281 179.974 169.375 179.974 169.375 237.397 T
175.281 235.552 175.281 179.974 169.375 237.397 T
181.187 179.974 175.281 179.974 175.281 235.552 T
181.187 233.992 181.187 179.974 175.281 235.552 T
187.093 179.974 181.187 179.974 181.187 233.992 T
187.093 232.5 187.093 179.974 181.187 233.992 T
0 LC
[] 0 setdash
0 0 0 C
187.093 232.5 LS
181.187 233.992 L
175.281 235.552 L
169.375 237.397 L
163.469 238.848 L
157.563 240.501 L
151.657 243.807 L
145.751 247.797 L
139.845 246.97 L
133.939 251.042 L
128.033 252.889 L
122.127 253.387 L
116.221 252.385 L
110.316 253.015 L
104.41 247.858 L
98.5037 238.999 L
92.5978 222.914 L
86.6918 212.539 L
80.7859 203.414 L
74.88 194.798 L
74.88 179.974 L
80.7859 179.974 L
86.6918 179.974 L
92.5978 179.974 L
98.5037 179.974 L
104.41 179.974 L
110.316 179.974 L
116.221 179.974 L
122.127 179.974 L
128.033 179.974 L
133.939 179.974 L
139.845 179.974 L
145.751 179.974 L
151.657 179.974 L
157.563 179.974 L
163.469 179.974 L
169.375 179.974 L
175.281 179.974 L
181.187 179.974 L
187.093 179.974 L
187.093 232.5 LE
1 1 1 C
74.88 179.974 80.7859 183.45 80.7859 179.974 T
86.6918 179.974 80.7859 179.974 80.7859 183.45 T
86.6918 187.313 86.6918 179.974 80.7859 183.45 T
92.5978 179.974 86.6918 179.974 86.6918 187.313 T
92.5978 190.975 92.5978 179.974 86.6918 187.313 T
98.5037 179.974 92.5978 179.974 92.5978 190.975 T
98.5037 197.718 98.5037 179.974 92.5978 190.975 T
104.41 179.974 98.5037 179.974 98.5037 197.718 T
104.41 200.375 104.41 179.974 98.5037 197.718 T
110.316 179.974 104.41 179.974 104.41 200.375 T
110.316 202.106 110.316 179.974 104.41 200.375 T
116.221 179.974 110.316 179.974 110.316 202.106 T
116.221 198.379 116.221 179.974 110.316 202.106 T
122.127 179.974 116.221 179.974 116.221 198.379 T
122.127 198.147 122.127 179.974 116.221 198.379 T
128.033 179.974 122.127 179.974 122.127 198.147 T
128.033 196.53 128.033 179.974 122.127 198.147 T
133.939 179.974 128.033 179.974 128.033 196.53 T
133.939 194.481 133.939 179.974 128.033 196.53 T
139.845 179.974 133.939 179.974 133.939 194.481 T
139.845 190.541 139.845 179.974 133.939 194.481 T
145.751 179.974 139.845 179.974 139.845 190.541 T
145.751 192.126 145.751 179.974 139.845 190.541 T
151.657 179.974 145.751 179.974 145.751 192.126 T
151.657 189.19 151.657 179.974 145.751 192.126 T
157.563 179.974 151.657 179.974 151.657 189.19 T
157.563 187.063 157.563 179.974 151.657 189.19 T
163.469 179.974 157.563 179.974 157.563 187.063 T
163.469 186.901 163.469 179.974 157.563 187.063 T
169.375 179.974 163.469 179.974 163.469 186.901 T
169.375 187.063 169.375 179.974 163.469 186.901 T
175.281 179.974 169.375 179.974 169.375 187.063 T
175.281 186.501 175.281 179.974 169.375 187.063 T
181.187 179.974 175.281 179.974 175.281 186.501 T
181.187 186.163 181.187 179.974 175.281 186.501 T
187.093 179.974 181.187 179.974 181.187 186.163 T
187.093 185.804 187.093 179.974 181.187 186.163 T
0 0 0 C
187.093 185.804 LS
181.187 186.163 L
175.281 186.501 L
169.375 187.063 L
163.469 186.901 L
157.563 187.063 L
151.657 189.19 L
145.751 192.126 L
139.845 190.541 L
133.939 194.481 L
128.033 196.53 L
122.127 198.147 L
116.221 198.379 L
110.316 202.106 L
104.41 200.375 L
98.5037 197.718 L
92.5978 190.975 L
86.6918 187.313 L
80.7859 183.45 L
74.88 179.974 L
80.7859 179.974 L
86.6918 179.974 L
92.5978 179.974 L
98.5037 179.974 L
104.41 179.974 L
110.316 179.974 L
116.221 179.974 L
122.127 179.974 L
128.033 179.974 L
133.939 179.974 L
139.845 179.974 L
145.751 179.974 L
151.657 179.974 L
157.563 179.974 L
163.469 179.974 L
169.375 179.974 L
175.281 179.974 L
181.187 179.974 L
187.093 179.974 L
187.093 185.804 LE
3 W
1 LJ
74.88 186.959 LS
80.7859 193.488 L
86.6918 200.071 L
92.5978 207.986 L
98.5037 218.538 L
104.41 224.742 L
110.316 227.529 L
116.221 228.045 L
122.127 227.172 L
128.033 225.528 L
133.939 223.519 L
139.845 221.404 L
145.751 219.333 L
151.657 217.39 L
157.563 215.614 L
163.469 214.018 L
169.375 212.599 L
175.281 211.343 L
181.187 210.236 L
187.093 209.26 LE
grestore
gsave
1.0 1.0 scale
newpath 0 0 moveto 576 0 lineto 576 432 lineto 0 432 lineto
closepath clip
1 1 1 C
241.974 253.387 354.186 179.974 241.974 179.974 T
241.974 253.387 354.186 253.387 354.186 179.974 T
0.5 W
0.15 0.15 0.15 C
265.597 179.974 LS
265.597 181.102 LE
265.597 253.387 LS
265.597 252.258 LE
295.127 179.974 LS
295.127 181.102 LE
295.127 253.387 LS
295.127 252.258 LE
324.657 179.974 LS
324.657 181.102 LE
324.657 253.387 LS
324.657 252.258 LE
354.186 179.974 LS
354.186 181.102 LE
354.186 253.387 LS
354.186 252.258 LE
gsave
0.14902 0.14902 0.14902 C
(5) [10] 0 262.597 164.431 10 /Helvetica SRX
grestore

gsave
0.14902 0.14902 0.14902 C
(10) [6 10] 0 289.127 164.431 10 /Helvetica SRX
grestore

gsave
0.14902 0.14902 0.14902 C
(15) [6 10] 0 318.657 164.431 10 /Helvetica SRX
grestore

gsave
0.14902 0.14902 0.14902 C
(20) [6 10] 0 348.186 164.431 10 /Helvetica SRX
grestore

241.974 192.538 LS
243.098 192.538 LE
354.186 192.538 LS
353.062 192.538 LE
241.974 210.646 LS
243.098 210.646 LE
354.186 210.646 LS
353.062 210.646 LE
241.974 228.754 LS
243.098 228.754 LE
354.186 228.754 LS
353.062 228.754 LE
241.974 246.863 LS
243.098 246.863 LE
354.186 246.863 LS
353.062 246.863 LE
gsave
0.14902 0.14902 0.14902 C
(0.002) [6 3 6 6 10] 0 209.964 188.538 10 /Helvetica SRX
grestore

gsave
0.14902 0.14902 0.14902 C
(0.004) [6 3 6 6 10] 0 209.964 206.646 10 /Helvetica SRX
grestore

gsave
0.14902 0.14902 0.14902 C
(0.006) [6 3 6 6 10] 0 209.964 224.754 10 /Helvetica SRX
grestore

gsave
0.14902 0.14902 0.14902 C
(0.008) [6 3 6 6 10] 0 209.964 242.863 10 /Helvetica SRX
grestore

2 LC
[16 0] 0 setdash
241.974 179.974 LS
354.186 179.974 LE
241.974 253.387 LS
354.186 253.387 LE
241.974 179.974 LS
241.974 253.387 LE
354.186 179.974 LS
354.186 253.387 LE
gsave
0 0 0 C
(I_hat) [3 6 7 6 10] 0 285.08 265.387 11 /Helvetica-Bold SRX
grestore

0.9 0.9 0.9 C
241.974 179.974 241.974 242.33 247.88 179.974 T
247.88 244.336 247.88 179.974 241.974 242.33 T
253.786 179.974 247.88 179.974 247.88 244.336 T
253.786 247.165 253.786 179.974 247.88 244.336 T
259.691 179.974 253.786 179.974 253.786 247.165 T
259.691 253.387 259.691 179.974 253.786 247.165 T
265.597 179.974 259.691 179.974 259.691 253.387 T
265.597 249.803 265.597 179.974 259.691 253.387 T
271.503 179.974 265.597 179.974 265.597 249.803 T
271.503 251.843 271.503 179.974 265.597 249.803 T
277.409 179.974 271.503 179.974 271.503 251.843 T
277.409 250.842 277.409 179.974 271.503 251.843 T
283.315 179.974 277.409 179.974 277.409 250.842 T
283.315 249.716 283.315 179.974 277.409 250.842 T
289.221 179.974 283.315 179.974 283.315 249.716 T
289.221 246.575 289.221 179.974 283.315 249.716 T
295.127 179.974 289.221 179.974 289.221 246.575 T
295.127 243.213 295.127 179.974 289.221 246.575 T
301.033 179.974 295.127 179.974 295.127 243.213 T
301.033 239.387 301.033 179.974 295.127 243.213 T
306.939 179.974 301.033 179.974 301.033 239.387 T
306.939 235.971 306.939 179.974 301.033 239.387 T
312.845 179.974 306.939 179.974 306.939 235.971 T
312.845 232.575 312.845 179.974 306.939 235.971 T
318.751 179.974 312.845 179.974 312.845 232.575 T
318.751 226.117 318.751 179.974 312.845 232.575 T
324.657 179.974 318.751 179.974 318.751 226.117 T
324.657 222.169 324.657 179.974 318.751 226.117 T
330.563 179.974 324.657 179.974 324.657 222.169 T
330.563 218.8 330.563 179.974 324.657 222.169 T
336.469 179.974 330.563 179.974 330.563 218.8 T
336.469 216.21 336.469 179.974 330.563 218.8 T
342.374 179.974 336.469 179.974 336.469 216.21 T
342.374 213.18 342.374 179.974 336.469 216.21 T
348.28 179.974 342.374 179.974 342.374 213.18 T
348.28 210.447 348.28 179.974 342.374 213.18 T
354.186 179.974 348.28 179.974 348.28 210.447 T
354.186 208.389 354.186 179.974 348.28 210.447 T
0 LC
[] 0 setdash
0 0 0 C
354.186 208.389 LS
348.28 210.447 L
342.374 213.18 L
336.469 216.21 L
330.563 218.8 L
324.657 222.169 L
318.751 226.117 L
312.845 232.575 L
306.939 235.971 L
301.033 239.387 L
295.127 243.213 L
289.221 246.575 L
283.315 249.716 L
277.409 250.842 L
271.503 251.843 L
265.597 249.803 L
259.691 253.387 L
253.786 247.165 L
247.88 244.336 L
241.974 242.33 L
241.974 179.974 L
247.88 179.974 L
253.786 179.974 L
259.691 179.974 L
265.597 179.974 L
271.503 179.974 L
277.409 179.974 L
283.315 179.974 L
289.221 179.974 L
295.127 179.974 L
301.033 179.974 L
306.939 179.974 L
312.845 179.974 L
318.751 179.974 L
324.657 179.974 L
330.563 179.974 L
336.469 179.974 L
342.374 179.974 L
348.28 179.974 L
354.186 179.974 L
354.186 208.389 LE
1 1 1 C
241.974 179.974 241.974 200.19 247.88 179.974 T
247.88 200.967 247.88 179.974 241.974 200.19 T
253.786 179.974 247.88 179.974 247.88 200.967 T
253.786 201.596 253.786 179.974 247.88 200.967 T
259.691 179.974 253.786 179.974 253.786 201.596 T
259.691 204.616 259.691 179.974 253.786 201.596 T
265.597 179.974 259.691 179.974 259.691 204.616 T
265.597 200.433 265.597 179.974 259.691 204.616 T
271.503 179.974 265.597 179.974 265.597 200.433 T
271.503 200.595 271.503 179.974 265.597 200.433 T
277.409 179.974 271.503 179.974 271.503 200.595 T
277.409 198.414 277.409 179.974 271.503 200.595 T
283.315 179.974 277.409 179.974 277.409 198.414 T
283.315 196.972 283.315 179.974 277.409 198.414 T
289.221 179.974 283.315 179.974 283.315 196.972 T
289.221 194.461 289.221 179.974 283.315 196.972 T
295.127 179.974 289.221 179.974 289.221 194.461 T
295.127 192.821 295.127 179.974 289.221 194.461 T
301.033 179.974 295.127 179.974 295.127 192.821 T
301.033 190.997 301.033 179.974 295.127 192.821 T
306.939 179.974 301.033 179.974 301.033 190.997 T
306.939 189.284 306.939 179.974 301.033 190.997 T
312.845 179.974 306.939 179.974 306.939 189.284 T
312.845 188.221 312.845 179.974 306.939 189.284 T
318.751 179.974 312.845 179.974 312.845 188.221 T
318.751 184.471 318.751 179.974 312.845 188.221 T
324.657 179.974 318.751 179.974 318.751 184.471 T
324.657 183.096 324.657 179.974 318.751 184.471 T
330.563 179.974 324.657 179.974 324.657 183.096 T
330.563 182.023 330.563 179.974 324.657 183.096 T
336.469 179.974 330.563 179.974 330.563 182.023 T
336.469 181.82 336.469 179.974 330.563 182.023 T
342.374 179.974 336.469 179.974 336.469 181.82 T
342.374 180.973 342.374 179.974 336.469 181.82 T
348.28 179.974 342.374 179.974 342.374 180.973 T
348.28 180.197 348.28 179.974 342.374 180.973 T
354.186 179.974 348.28 179.974 348.28 180.197 T
0 0 0 C
354.186 179.974 LS
348.28 180.197 L
342.374 180.973 L
336.469 181.82 L
330.563 182.023 L
324.657 183.096 L
318.751 184.471 L
312.845 188.221 L
306.939 189.284 L
301.033 190.997 L
295.127 192.821 L
289.221 194.461 L
283.315 196.972 L
277.409 198.414 L
271.503 200.595 L
265.597 200.433 L
259.691 204.616 L
253.786 201.596 L
247.88 200.967 L
241.974 200.19 L
241.974 179.974 L
247.88 179.974 L
253.786 179.974 L
259.691 179.974 L
265.597 179.974 L
271.503 179.974 L
277.409 179.974 L
283.315 179.974 L
289.221 179.974 L
295.127 179.974 L
301.033 179.974 L
306.939 179.974 L
312.845 179.974 L
318.751 179.974 L
324.657 179.974 L
330.563 179.974 L
336.469 179.974 L
342.374 179.974 L
348.28 179.974 L
354.186 179.974 LE
3 W
1 LJ
241.974 222.484 LS
247.88 223.933 L
253.786 226.226 L
259.691 229.388 L
265.597 226.73 L
271.503 226.225 L
277.409 224.976 L
283.315 222.968 L
289.221 220.476 L
295.127 217.74 L
301.033 214.93 L
306.939 212.161 L
312.845 209.505 L
318.751 207.005 L
324.657 204.684 L
330.563 202.552 L
336.469 200.607 L
342.374 198.844 L
348.28 197.253 L
354.186 195.822 LE
grestore
gsave
1.0 1.0 scale
newpath 0 0 moveto 576 0 lineto 576 432 lineto 0 432 lineto
closepath clip
1 1 1 C
409.067 253.387 521.28 179.974 409.067 179.974 T
409.067 253.387 521.28 253.387 521.28 179.974 T
0.5 W
0.15 0.15 0.15 C
432.691 179.974 LS
432.691 181.102 LE
432.691 253.387 LS
432.691 252.258 LE
462.221 179.974 LS
462.221 181.102 LE
462.221 253.387 LS
462.221 252.258 LE
491.75 179.974 LS
491.75 181.102 LE
491.75 253.387 LS
491.75 252.258 LE
521.28 179.974 LS
521.28 181.102 LE
521.28 253.387 LS
521.28 252.258 LE
gsave
0.14902 0.14902 0.14902 C
(5) [10] 0 429.691 164.431 10 /Helvetica SRX
grestore

gsave
0.14902 0.14902 0.14902 C
(10) [6 10] 0 456.221 164.431 10 /Helvetica SRX
grestore

gsave
0.14902 0.14902 0.14902 C
(15) [6 10] 0 485.75 164.431 10 /Helvetica SRX
grestore

gsave
0.14902 0.14902 0.14902 C
(20) [6 10] 0 515.28 164.431 10 /Helvetica SRX
grestore

409.067 197.441 LS
410.192 197.441 LE
521.28 197.441 LS
520.156 197.441 LE
409.067 217.068 LS
410.192 217.068 LE
521.28 217.068 LS
520.156 217.068 LE
409.067 236.695 LS
410.192 236.695 LE
521.28 236.695 LS
520.156 236.695 LE
gsave
0.14902 0.14902 0.14902 C
(0.001) [6 3 6 6 10] 0 377.058 193.441 10 /Helvetica SRX
grestore

gsave
0.14902 0.14902 0.14902 C
(0.002) [6 3 6 6 10] 0 377.058 213.068 10 /Helvetica SRX
grestore

gsave
0.14902 0.14902 0.14902 C
(0.003) [6 3 6 6 10] 0 377.058 232.695 10 /Helvetica SRX
grestore

2 LC
[16 0] 0 setdash
409.067 179.974 LS
521.28 179.974 LE
409.067 253.387 LS
521.28 253.387 LE
409.067 179.974 LS
409.067 253.387 LE
521.28 179.974 LS
521.28 253.387 LE
gsave
0 0 0 C
(L_hat) [7 6 7 6 10] 0 450.174 265.387 11 /Helvetica-Bold SRX
grestore

0.9 0.9 0.9 C
409.067 179.974 409.067 184.203 414.973 179.974 T
414.973 193.264 414.973 179.974 409.067 184.203 T
420.879 179.974 414.973 179.974 414.973 193.264 T
420.879 203.76 420.879 179.974 414.973 193.264 T
426.785 179.974 420.879 179.974 420.879 203.76 T
426.785 218.739 426.785 179.974 420.879 203.76 T
432.691 179.974 426.785 179.974 426.785 218.739 T
432.691 241.096 432.691 179.974 426.785 218.739 T
438.597 179.974 432.691 179.974 432.691 241.096 T
438.597 248.632 438.597 179.974 432.691 241.096 T
444.503 179.974 438.597 179.974 438.597 248.632 T
444.503 253.387 444.503 179.974 438.597 248.632 T
450.409 179.974 444.503 179.974 444.503 253.387 T
450.409 251.755 450.409 179.974 444.503 253.387 T
456.315 179.974 450.409 179.974 450.409 251.755 T
456.315 249.569 456.315 179.974 450.409 251.755 T
462.221 179.974 456.315 179.974 456.315 249.569 T
462.221 246.901 462.221 179.974 456.315 249.569 T
468.127 179.974 462.221 179.974 462.221 246.901 T
468.127 243.332 468.127 179.974 462.221 246.901 T
474.033 179.974 468.127 179.974 468.127 243.332 T
474.033 237.227 474.033 179.974 468.127 243.332 T
479.939 179.974 474.033 179.974 474.033 237.227 T
479.939 233.233 479.939 179.974 474.033 237.227 T
485.844 179.974 479.939 179.974 479.939 233.233 T
485.844 230.091 485.844 179.974 479.939 233.233 T
491.75 179.974 485.844 179.974 485.844 230.091 T
491.75 226.821 491.75 179.974 485.844 230.091 T
497.656 179.974 491.75 179.974 491.75 226.821 T
497.656 223.184 497.656 179.974 491.75 226.821 T
503.562 179.974 497.656 179.974 497.656 223.184 T
503.562 220.698 503.562 179.974 497.656 223.184 T
509.468 179.974 503.562 179.974 503.562 220.698 T
509.468 218.419 509.468 179.974 503.562 220.698 T
515.374 179.974 509.468 179.974 509.468 218.419 T
515.374 216.526 515.374 179.974 509.468 218.419 T
521.28 179.974 515.374 179.974 515.374 216.526 T
521.28 214.413 521.28 179.974 515.374 216.526 T
0 LC
[] 0 setdash
0 0 0 C
521.28 214.413 LS
515.374 216.526 L
509.468 218.419 L
503.562 220.698 L
497.656 223.184 L
491.75 226.821 L
485.844 230.091 L
479.939 233.233 L
474.033 237.227 L
468.127 243.332 L
462.221 246.901 L
456.315 249.569 L
450.409 251.755 L
444.503 253.387 L
438.597 248.632 L
432.691 241.096 L
426.785 218.739 L
420.879 203.76 L
414.973 193.264 L
409.067 184.203 L
409.067 179.974 L
414.973 179.974 L
420.879 179.974 L
426.785 179.974 L
432.691 179.974 L
438.597 179.974 L
444.503 179.974 L
450.409 179.974 L
456.315 179.974 L
462.221 179.974 L
468.127 179.974 L
474.033 179.974 L
479.939 179.974 L
485.844 179.974 L
491.75 179.974 L
497.656 179.974 L
503.562 179.974 L
509.468 179.974 L
515.374 179.974 L
521.28 179.974 L
521.28 214.413 LE
1 1 1 C
409.067 179.974 414.973 184.378 414.973 179.974 T
420.879 179.974 414.973 179.974 414.973 184.378 T
420.879 188.962 420.879 179.974 414.973 184.378 T
426.785 179.974 420.879 179.974 420.879 188.962 T
426.785 195.114 426.785 179.974 420.879 188.962 T
432.691 179.974 426.785 179.974 426.785 195.114 T
432.691 201.938 432.691 179.974 426.785 195.114 T
438.597 179.974 432.691 179.974 432.691 201.938 T
438.597 202.471 438.597 179.974 432.691 201.938 T
444.503 179.974 438.597 179.974 438.597 202.471 T
444.503 204.641 444.503 179.974 438.597 202.471 T
450.409 179.974 444.503 179.974 444.503 204.641 T
450.409 202.541 450.409 179.974 444.503 204.641 T
456.315 179.974 450.409 179.974 450.409 202.541 T
456.315 199.536 456.315 179.974 450.409 202.541 T
462.221 179.974 456.315 179.974 456.315 199.536 T
462.221 197.415 462.221 179.974 456.315 199.536 T
468.127 179.974 462.221 179.974 462.221 197.415 T
468.127 194.793 468.127 179.974 462.221 197.415 T
474.033 179.974 468.127 179.974 468.127 194.793 T
474.033 190.837 474.033 179.974 468.127 194.793 T
479.939 179.974 474.033 179.974 474.033 190.837 T
479.939 188.349 479.939 179.974 474.033 190.837 T
485.844 179.974 479.939 179.974 479.939 188.349 T
485.844 187.097 485.844 179.974 479.939 188.349 T
491.75 179.974 485.844 179.974 485.844 187.097 T
491.75 186.007 491.75 179.974 485.844 187.097 T
497.656 179.974 491.75 179.974 491.75 186.007 T
497.656 184.703 497.656 179.974 491.75 186.007 T
503.562 179.974 497.656 179.974 497.656 184.703 T
503.562 184.255 503.562 179.974 497.656 184.703 T
509.468 179.974 503.562 179.974 503.562 184.255 T
509.468 183.914 509.468 179.974 503.562 184.255 T
515.374 179.974 509.468 179.974 509.468 183.914 T
515.374 183.951 515.374 179.974 509.468 183.914 T
521.28 179.974 515.374 179.974 515.374 183.951 T
521.28 183.585 521.28 179.974 515.374 183.951 T
0 0 0 C
521.28 183.585 LS
515.374 183.951 L
509.468 183.914 L
503.562 184.255 L
497.656 184.703 L
491.75 186.007 L
485.844 187.097 L
479.939 188.349 L
474.033 190.837 L
468.127 194.793 L
462.221 197.415 L
456.315 199.536 L
450.409 202.541 L
444.503 204.641 L
438.597 202.471 L
432.691 201.938 L
426.785 195.114 L
420.879 188.962 L
414.973 184.378 L
409.067 179.974 L
414.973 179.974 L
420.879 179.974 L
426.785 179.974 L
432.691 179.974 L
438.597 179.974 L
444.503 179.974 L
450.409 179.974 L
456.315 179.974 L
462.221 179.974 L
468.127 179.974 L
474.033 179.974 L
479.939 179.974 L
485.844 179.974 L
491.75 179.974 L
497.656 179.974 L
503.562 179.974 L
509.468 179.974 L
515.374 179.974 L
521.28 179.974 L
521.28 183.585 LE
3 W
1 LJ
409.067 182.086 LS
414.973 188.509 L
420.879 196.596 L
426.785 207.186 L
432.691 222.08 L
438.597 228.513 L
444.503 230.099 L
450.409 228.936 L
456.315 226.321 L
462.221 223.054 L
468.127 219.614 L
474.033 216.273 L
479.939 213.174 L
485.844 210.383 L
491.75 207.916 L
497.656 205.762 L
503.562 203.898 L
509.468 202.292 L
515.374 200.914 L
521.28 199.732 LE
grestore
gsave
1.0 1.0 scale
newpath 0 0 moveto 576 0 lineto 576 432 lineto 0 432 lineto
closepath clip
1 1 1 C
74.88 120.933 187.093 47.52 74.88 47.52 T
74.88 120.933 187.093 120.933 187.093 47.52 T
0.5 W
0.15 0.15 0.15 C
98.5037 47.52 LS
98.5037 48.6485 LE
98.5037 120.933 LS
98.5037 119.805 LE
128.033 47.52 LS
128.033 48.6485 LE
128.033 120.933 LS
128.033 119.805 LE
157.563 47.52 LS
157.563 48.6485 LE
157.563 120.933 LS
157.563 119.805 LE
187.093 47.52 LS
187.093 48.6485 LE
187.093 120.933 LS
187.093 119.805 LE
gsave
0.14902 0.14902 0.14902 C
(5) [10] 0 95.5037 31.9776 10 /Helvetica SRX
grestore

gsave
0.14902 0.14902 0.14902 C
(10) [6 10] 0 122.033 31.9776 10 /Helvetica SRX
grestore

gsave
0.14902 0.14902 0.14902 C
(15) [6 10] 0 151.563 31.9776 10 /Helvetica SRX
grestore

gsave
0.14902 0.14902 0.14902 C
(20) [6 10] 0 181.093 31.9776 10 /Helvetica SRX
grestore

74.88 59.4374 LS
76.0043 59.4374 LE
187.093 59.4374 LS
185.968 59.4374 LE
74.88 72.2274 LS
76.0043 72.2274 LE
187.093 72.2274 LS
185.968 72.2274 LE
74.88 85.0175 LS
76.0043 85.0175 LE
187.093 85.0175 LS
185.968 85.0175 LE
74.88 97.8076 LS
76.0043 97.8076 LE
187.093 97.8076 LS
185.968 97.8076 LE
74.88 110.598 LS
76.0043 110.598 LE
187.093 110.598 LS
185.968 110.598 LE
gsave
0.14902 0.14902 0.14902 C
(-0.001) [3 6 3 6 6 10] 0 39.8705 55.4374 10 /Helvetica SRX
grestore

gsave
0.14902 0.14902 0.14902 C
(0) [10] 0 63.8705 68.2275 10 /Helvetica SRX
grestore

gsave
0.14902 0.14902 0.14902 C
(0.001) [6 3 6 6 10] 0 42.8705 81.0175 10 /Helvetica SRX
grestore

gsave
0.14902 0.14902 0.14902 C
(0.002) [6 3 6 6 10] 0 42.8705 93.8076 10 /Helvetica SRX
grestore

gsave
0.14902 0.14902 0.14902 C
(0.003) [6 3 6 6 10] 0 42.8705 106.598 10 /Helvetica SRX
grestore

2 LC
[16 0] 0 setdash
74.88 47.52 LS
187.093 47.52 LE
74.88 120.933 LS
187.093 120.933 LE
74.88 47.52 LS
74.88 120.933 LE
187.093 47.52 LS
187.093 120.933 LE
gsave
0 0 0 C
(tb_y_hat) [4 7 6 6 6 7 6 10] 0 107.986 133.933 11 /Helvetica-Bold SRX
grestore

0.9 0.9 0.9 C
74.88 47.52 74.88 63.3438 80.7859 47.52 T
80.7859 63.3159 80.7859 47.52 74.88 63.3438 T
86.6918 47.52 80.7859 47.52 80.7859 63.3159 T
86.6918 63.5133 86.6918 47.52 80.7859 63.3159 T
92.5978 47.52 86.6918 47.52 86.6918 63.5133 T
92.5978 63.5132 92.5978 47.52 86.6918 63.5133 T
98.5037 47.52 92.5978 47.52 92.5978 63.5132 T
98.5037 120.933 98.5037 47.52 92.5978 63.5132 T
104.41 47.52 98.5037 47.52 98.5037 120.933 T
104.41 107.082 104.41 47.52 98.5037 120.933 T
110.316 47.52 104.41 47.52 104.41 107.082 T
110.316 97.7789 110.316 47.52 104.41 107.082 T
116.221 47.52 110.316 47.52 110.316 97.7789 T
116.221 90.7621 116.221 47.52 110.316 97.7789 T
122.127 47.52 116.221 47.52 116.221 90.7621 T
122.127 84.6567 122.127 47.52 116.221 90.7621 T
128.033 47.52 122.127 47.52 122.127 84.6567 T
128.033 81.0727 128.033 47.52 122.127 84.6567 T
133.939 47.52 128.033 47.52 128.033 81.0727 T
133.939 78.2786 133.939 47.52 128.033 81.0727 T
139.845 47.52 133.939 47.52 133.939 78.2786 T
139.845 76.0887 139.845 47.52 133.939 78.2786 T
145.751 47.52 139.845 47.52 139.845 76.0887 T
145.751 74.6808 145.751 47.52 139.845 76.0887 T
151.657 47.52 145.751 47.52 145.751 74.6808 T
151.657 73.2821 151.657 47.52 145.751 74.6808 T
157.563 47.52 151.657 47.52 151.657 73.2821 T
157.563 72.4546 157.563 47.52 151.657 73.2821 T
163.469 47.52 157.563 47.52 157.563 72.4546 T
163.469 71.8035 163.469 47.52 157.563 72.4546 T
169.375 47.52 163.469 47.52 163.469 71.8035 T
169.375 71.3102 169.375 47.52 163.469 71.8035 T
175.281 47.52 169.375 47.52 169.375 71.3102 T
175.281 71.0405 175.281 47.52 169.375 71.3102 T
181.187 47.52 175.281 47.52 175.281 71.0405 T
181.187 70.8849 181.187 47.52 175.281 71.0405 T
187.093 47.52 181.187 47.52 181.187 70.8849 T
187.093 71.0769 187.093 47.52 181.187 70.8849 T
0 LC
[] 0 setdash
0 0 0 C
187.093 71.0769 LS
181.187 70.8849 L
175.281 71.0405 L
169.375 71.3102 L
163.469 71.8035 L
157.563 72.4546 L
151.657 73.2821 L
145.751 74.6808 L
139.845 76.0887 L
133.939 78.2786 L
128.033 81.0727 L
122.127 84.6567 L
116.221 90.7621 L
110.316 97.7789 L
104.41 107.082 L
98.5037 120.933 L
92.5978 63.5132 L
86.6918 63.5133 L
80.7859 63.3159 L
74.88 63.3438 L
74.88 47.52 L
80.7859 47.52 L
86.6918 47.52 L
92.5978 47.52 L
98.5037 47.52 L
104.41 47.52 L
110.316 47.52 L
116.221 47.52 L
122.127 47.52 L
128.033 47.52 L
133.939 47.52 L
139.845 47.52 L
145.751 47.52 L
151.657 47.52 L
157.563 47.52 L
163.469 47.52 L
169.375 47.52 L
175.281 47.52 L
181.187 47.52 L
187.093 47.52 L
187.093 71.0769 LE
1 1 1 C
92.5978 47.52 98.5037 92.9628 98.5037 47.52 T
104.41 47.52 98.5037 47.52 98.5037 92.9628 T
104.41 88.0583 104.41 47.52 98.5037 92.9628 T
110.316 47.52 104.41 47.52 104.41 88.0583 T
110.316 82.2705 110.316 47.52 104.41 88.0583 T
116.221 47.52 110.316 47.52 110.316 82.2705 T
116.221 77.349 116.221 47.52 110.316 82.2705 T
122.127 47.52 116.221 47.52 116.221 77.349 T
122.127 72.8275 122.127 47.52 116.221 77.349 T
128.033 47.52 122.127 47.52 122.127 72.8275 T
128.033 71.1217 128.033 47.52 122.127 72.8275 T
133.939 47.52 128.033 47.52 128.033 71.1217 T
133.939 69.934 133.939 47.52 128.033 71.1217 T
139.845 47.52 133.939 47.52 133.939 69.934 T
139.845 69.2015 139.845 47.52 133.939 69.934 T
145.751 47.52 139.845 47.52 139.845 69.2015 T
145.751 68.7941 145.751 47.52 139.845 69.2015 T
151.657 47.52 145.751 47.52 145.751 68.7941 T
151.657 68.3567 151.657 47.52 145.751 68.7941 T
157.563 47.52 151.657 47.52 151.657 68.3567 T
157.563 68.4082 157.563 47.52 151.657 68.3567 T
163.469 47.52 157.563 47.52 157.563 68.4082 T
163.469 68.4432 163.469 47.52 157.563 68.4082 T
169.375 47.52 163.469 47.52 163.469 68.4432 T
169.375 68.4625 169.375 47.52 163.469 68.4432 T
175.281 47.52 169.375 47.52 169.375 68.4625 T
175.281 68.5908 175.281 47.52 169.375 68.4625 T
181.187 47.52 175.281 47.52 175.281 68.5908 T
181.187 68.649 181.187 47.52 175.281 68.5908 T
187.093 47.52 181.187 47.52 181.187 68.649 T
187.093 68.9324 187.093 47.52 181.187 68.649 T
74.88 47.52 74.88 47.9486 80.7859 47.52 T
80.7859 47.6432 80.7859 47.52 74.88 47.9486 T
86.6918 47.52 80.7859 47.52 80.7859 47.6432 T
86.6918 47.7372 86.6918 47.52 80.7859 47.6432 T
92.5978 47.52 86.6918 47.52 86.6918 47.7372 T
0 0 0 C
92.5978 47.52 LS
86.6918 47.7372 L
80.7859 47.6432 L
74.88 47.9486 L
74.88 47.52 L
80.7859 47.52 L
86.6918 47.52 L
92.5978 47.52 LE
187.093 68.9324 LS
181.187 68.649 L
175.281 68.5908 L
169.375 68.4625 L
163.469 68.4432 L
157.563 68.4082 L
151.657 68.3567 L
145.751 68.7941 L
139.845 69.2015 L
133.939 69.934 L
128.033 71.1217 L
122.127 72.8275 L
116.221 77.349 L
110.316 82.2705 L
104.41 88.0583 L
98.5037 92.9628 L
92.5978 47.52 L
98.5037 47.52 L
104.41 47.52 L
110.316 47.52 L
116.221 47.52 L
122.127 47.52 L
128.033 47.52 L
133.939 47.52 L
139.845 47.52 L
145.751 47.52 L
151.657 47.52 L
157.563 47.52 L
163.469 47.52 L
169.375 47.52 L
175.281 47.52 L
181.187 47.52 L
187.093 47.52 L
187.093 68.9324 LE
3 W
1 LJ
74.88 55.2796 LS
80.7859 55.1635 L
86.6918 55.2872 L
92.5978 55.4498 L
98.5037 108.426 L
104.41 97.6412 L
110.316 89.5651 L
116.221 83.6497 L
122.127 79.3599 L
128.033 76.2749 L
133.939 74.0784 L
139.845 72.5351 L
145.751 71.4707 L
151.657 70.7562 L
157.563 70.2961 L
163.469 70.0196 L
169.375 69.8744 L
175.281 69.8218 L
181.187 69.8331 L
187.093 69.8876 LE
grestore
gsave
1.0 1.0 scale
newpath 0 0 moveto 576 0 lineto 576 432 lineto 0 432 lineto
closepath clip
1 1 1 C
241.974 120.933 354.186 47.52 241.974 47.52 T
241.974 120.933 354.186 120.933 354.186 47.52 T
0.5 W
0.15 0.15 0.15 C
265.597 47.52 LS
265.597 48.6485 LE
265.597 120.933 LS
265.597 119.805 LE
295.127 47.52 LS
295.127 48.6485 LE
295.127 120.933 LS
295.127 119.805 LE
324.657 47.52 LS
324.657 48.6485 LE
324.657 120.933 LS
324.657 119.805 LE
354.186 47.52 LS
354.186 48.6485 LE
354.186 120.933 LS
354.186 119.805 LE
gsave
0.14902 0.14902 0.14902 C
(5) [10] 0 262.597 31.9776 10 /Helvetica SRX
grestore

gsave
0.14902 0.14902 0.14902 C
(10) [6 10] 0 289.127 31.9776 10 /Helvetica SRX
grestore

gsave
0.14902 0.14902 0.14902 C
(15) [6 10] 0 318.657 31.9776 10 /Helvetica SRX
grestore

gsave
0.14902 0.14902 0.14902 C
(20) [6 10] 0 348.186 31.9776 10 /Helvetica SRX
grestore

241.974 53.3611 LS
243.098 53.3611 LE
354.186 53.3611 LS
353.062 53.3611 LE
241.974 73.9767 LS
243.098 73.9767 LE
354.186 73.9767 LS
353.062 73.9767 LE
241.974 94.5924 LS
243.098 94.5924 LE
354.186 94.5924 LS
353.062 94.5924 LE
241.974 115.208 LS
243.098 115.208 LE
354.186 115.208 LS
353.062 115.208 LE
gsave
0.14902 0.14902 0.14902 C
(-0.01) [3 6 3 6 10] 0 212.964 49.3611 10 /Helvetica SRX
grestore

gsave
0.14902 0.14902 0.14902 C
(0) [10] 0 230.964 69.9768 10 /Helvetica SRX
grestore

gsave
0.14902 0.14902 0.14902 C
(0.01) [6 3 6 10] 0 215.964 90.5924 10 /Helvetica SRX
grestore

gsave
0.14902 0.14902 0.14902 C
(0.02) [6 3 6 10] 0 215.964 111.208 10 /Helvetica SRX
grestore

2 LC
[16 0] 0 setdash
241.974 47.52 LS
354.186 47.52 LE
241.974 120.933 LS
354.186 120.933 LE
241.974 47.52 LS
241.974 120.933 LE
354.186 47.52 LS
354.186 120.933 LE
gsave
0 0 0 C
(D_hat) [8 6 7 6 10] 0 282.58 132.933 11 /Helvetica-Bold SRX
grestore

0.9 0.9 0.9 C
241.974 47.52 241.974 84.971 247.88 47.52 T
247.88 96.2905 247.88 47.52 241.974 84.971 T
253.786 47.52 247.88 47.52 247.88 96.2905 T
253.786 108.178 253.786 47.52 247.88 96.2905 T
259.691 47.52 253.786 47.52 253.786 108.178 T
259.691 120.933 259.691 47.52 253.786 108.178 T
265.597 47.52 259.691 47.52 259.691 120.933 T
265.597 101.461 265.597 47.52 259.691 120.933 T
271.503 47.52 265.597 47.52 265.597 101.461 T
271.503 89.266 271.503 47.52 265.597 101.461 T
277.409 47.52 271.503 47.52 271.503 89.266 T
277.409 80.2852 277.409 47.52 271.503 89.266 T
283.315 47.52 277.409 47.52 277.409 80.2852 T
283.315 74.3411 283.315 47.52 277.409 80.2852 T
289.221 47.52 283.315 47.52 283.315 74.3411 T
289.221 69.311 289.221 47.52 283.315 74.3411 T
295.127 47.52 289.221 47.52 289.221 69.311 T
295.127 66.6622 295.127 47.52 289.221 69.311 T
301.033 47.52 295.127 47.52 295.127 66.6622 T
301.033 65.915 301.033 47.52 295.127 66.6622 T
306.939 47.52 301.033 47.52 301.033 65.915 T
306.939 65.3223 306.939 47.52 301.033 65.915 T
312.845 47.52 306.939 47.52 306.939 65.3223 T
312.845 66.2298 312.845 47.52 306.939 65.3223 T
318.751 47.52 312.845 47.52 312.845 66.2298 T
318.751 65.3694 318.751 47.52 312.845 66.2298 T
324.657 47.52 318.751 47.52 318.751 65.3694 T
324.657 65.8414 324.657 47.52 318.751 65.3694 T
330.563 47.52 324.657 47.52 324.657 65.8414 T
330.563 66.8663 330.563 47.52 324.657 65.8414 T
336.469 47.52 330.563 47.52 330.563 66.8663 T
336.469 67.5465 336.469 47.52 330.563 66.8663 T
342.374 47.52 336.469 47.52 336.469 67.5465 T
342.374 68.0104 342.374 47.52 336.469 67.5465 T
348.28 47.52 342.374 47.52 342.374 68.0104 T
348.28 68.4274 348.28 47.52 342.374 68.0104 T
354.186 47.52 348.28 47.52 348.28 68.4274 T
354.186 69.0369 354.186 47.52 348.28 68.4274 T
0 LC
[] 0 setdash
0 0 0 C
354.186 69.0369 LS
348.28 68.4274 L
342.374 68.0104 L
336.469 67.5465 L
330.563 66.8663 L
324.657 65.8414 L
318.751 65.3694 L
312.845 66.2298 L
306.939 65.3223 L
301.033 65.915 L
295.127 66.6622 L
289.221 69.311 L
283.315 74.3411 L
277.409 80.2852 L
271.503 89.266 L
265.597 101.461 L
259.691 120.933 L
253.786 108.178 L
247.88 96.2905 L
241.974 84.971 L
241.974 47.52 L
247.88 47.52 L
253.786 47.52 L
259.691 47.52 L
265.597 47.52 L
271.503 47.52 L
277.409 47.52 L
283.315 47.52 L
289.221 47.52 L
295.127 47.52 L
301.033 47.52 L
306.939 47.52 L
312.845 47.52 L
318.751 47.52 L
324.657 47.52 L
330.563 47.52 L
336.469 47.52 L
342.374 47.52 L
348.28 47.52 L
354.186 47.52 L
354.186 69.0369 LE
1 1 1 C
318.751 47.52 324.657 47.5338 324.657 47.52 T
330.563 47.52 324.657 47.52 324.657 47.5338 T
330.563 48.2802 330.563 47.52 324.657 47.5338 T
336.469 47.52 330.563 47.52 330.563 48.2802 T
336.469 48.9882 336.469 47.52 330.563 48.2802 T
342.374 47.52 336.469 47.52 336.469 48.9882 T
342.374 49.5598 342.374 47.52 336.469 48.9882 T
348.28 47.52 342.374 47.52 342.374 49.5598 T
348.28 50.2169 348.28 47.52 342.374 49.5598 T
354.186 47.52 348.28 47.52 348.28 50.2169 T
354.186 51.1152 354.186 47.52 348.28 50.2169 T
241.974 47.52 241.974 77.4946 247.88 47.52 T
247.88 81.2124 247.88 47.52 241.974 77.4946 T
253.786 47.52 247.88 47.52 247.88 81.2124 T
253.786 85.3062 253.786 47.52 247.88 81.2124 T
259.691 47.52 253.786 47.52 253.786 85.3062 T
259.691 90.0494 259.691 47.52 253.786 85.3062 T
265.597 47.52 259.691 47.52 259.691 90.0494 T
265.597 75.3764 265.597 47.52 259.691 90.0494 T
271.503 47.52 265.597 47.52 265.597 75.3764 T
271.503 66.5186 271.503 47.52 265.597 75.3764 T
277.409 47.52 271.503 47.52 271.503 66.5186 T
277.409 60.2722 277.409 47.52 271.503 66.5186 T
283.315 47.52 277.409 47.52 277.409 60.2722 T
283.315 55.6955 283.315 47.52 277.409 60.2722 T
289.221 47.52 283.315 47.52 283.315 55.6955 T
289.221 52.4355 289.221 47.52 283.315 55.6955 T
295.127 47.52 289.221 47.52 289.221 52.4355 T
295.127 50.1607 295.127 47.52 289.221 52.4355 T
301.033 47.52 295.127 47.52 295.127 50.1607 T
301.033 49.6267 301.033 47.52 295.127 50.1607 T
306.939 47.52 301.033 47.52 301.033 49.6267 T
306.939 48.7176 306.939 47.52 301.033 49.6267 T
312.845 47.52 306.939 47.52 306.939 48.7176 T
312.845 48.9336 312.845 47.52 306.939 48.7176 T
318.751 47.52 312.845 47.52 312.845 48.9336 T
0 0 0 C
318.751 47.52 LS
312.845 48.9336 L
306.939 48.7176 L
301.033 49.6267 L
295.127 50.1607 L
289.221 52.4355 L
283.315 55.6955 L
277.409 60.2722 L
271.503 66.5186 L
265.597 75.3764 L
259.691 90.0494 L
253.786 85.3062 L
247.88 81.2124 L
241.974 77.4946 L
241.974 47.52 L
247.88 47.52 L
253.786 47.52 L
259.691 47.52 L
265.597 47.52 L
271.503 47.52 L
277.409 47.52 L
283.315 47.52 L
289.221 47.52 L
295.127 47.52 L
301.033 47.52 L
306.939 47.52 L
312.845 47.52 L
318.751 47.52 LE
354.186 51.1152 LS
348.28 50.2169 L
342.374 49.5598 L
336.469 48.9882 L
330.563 48.2802 L
324.657 47.5338 L
318.751 47.52 L
324.657 47.52 L
330.563 47.52 L
336.469 47.52 L
342.374 47.52 L
348.28 47.52 L
354.186 47.52 L
354.186 51.1152 LE
3 W
1 LJ
241.974 81.4687 LS
247.88 89.1112 L
253.786 96.856 L
259.691 104.69 L
265.597 88.9767 L
271.503 77.886 L
277.409 70.1116 L
283.315 64.7608 L
289.221 61.179 L
295.127 58.8821 L
301.033 57.5118 L
306.939 56.8034 L
312.845 56.5613 L
318.751 56.6417 L
324.657 56.939 L
330.563 57.3762 L
336.469 57.8976 L
342.374 58.4631 L
348.28 59.0445 L
354.186 59.6221 LE
grestore
gsave
1.0 1.0 scale
newpath 0 0 moveto 576 0 lineto 576 432 lineto 0 432 lineto
closepath clip
1 1 1 C
409.067 120.933 521.28 47.52 409.067 47.52 T
409.067 120.933 521.28 120.933 521.28 47.52 T
0.5 W
0.15 0.15 0.15 C
432.691 47.52 LS
432.691 48.6485 LE
432.691 120.933 LS
432.691 119.805 LE
462.221 47.52 LS
462.221 48.6485 LE
462.221 120.933 LS
462.221 119.805 LE
491.75 47.52 LS
491.75 48.6485 LE
491.75 120.933 LS
491.75 119.805 LE
521.28 47.52 LS
521.28 48.6485 LE
521.28 120.933 LS
521.28 119.805 LE
gsave
0.14902 0.14902 0.14902 C
(5) [10] 0 429.691 31.9776 10 /Helvetica SRX
grestore

gsave
0.14902 0.14902 0.14902 C
(10) [6 10] 0 456.221 31.9776 10 /Helvetica SRX
grestore

gsave
0.14902 0.14902 0.14902 C
(15) [6 10] 0 485.75 31.9776 10 /Helvetica SRX
grestore

gsave
0.14902 0.14902 0.14902 C
(20) [6 10] 0 515.28 31.9776 10 /Helvetica SRX
grestore

409.067 60.8233 LS
410.192 60.8233 LE
521.28 60.8233 LS
520.156 60.8233 LE
409.067 76.8831 LS
410.192 76.8831 LE
521.28 76.8831 LS
520.156 76.8831 LE
409.067 92.943 LS
410.192 92.943 LE
521.28 92.943 LS
520.156 92.943 LE
409.067 109.003 LS
410.192 109.003 LE
521.28 109.003 LS
520.156 109.003 LE
gsave
0.14902 0.14902 0.14902 C
(0.0005) [6 3 6 6 6 10] 0 371.058 56.8233 10 /Helvetica SRX
grestore

gsave
0.14902 0.14902 0.14902 C
(0.001) [6 3 6 6 10] 0 377.058 72.8832 10 /Helvetica SRX
grestore

gsave
0.14902 0.14902 0.14902 C
(0.0015) [6 3 6 6 6 10] 0 371.058 88.943 10 /Helvetica SRX
grestore

gsave
0.14902 0.14902 0.14902 C
(0.002) [6 3 6 6 10] 0 377.058 105.003 10 /Helvetica SRX
grestore

2 LC
[16 0] 0 setdash
409.067 47.52 LS
521.28 47.52 LE
409.067 120.933 LS
521.28 120.933 LE
409.067 47.52 LS
409.067 120.933 LE
521.28 47.52 LS
521.28 120.933 LE
gsave
0 0 0 C
(reer_hat) [4 6 6 4 6 7 6 10] 0 443.674 132.933 11 /Helvetica-Bold SRX
grestore

0.9 0.9 0.9 C
409.067 47.52 409.067 82.8941 414.973 47.52 T
414.973 83.3872 414.973 47.52 409.067 82.8941 T
420.879 47.52 414.973 47.52 414.973 83.3872 T
420.879 85.7924 420.879 47.52 414.973 83.3872 T
426.785 47.52 420.879 47.52 420.879 85.7924 T
426.785 94.0344 426.785 47.52 420.879 85.7924 T
432.691 47.52 426.785 47.52 426.785 94.0344 T
432.691 113.716 432.691 47.52 426.785 94.0344 T
438.597 47.52 432.691 47.52 432.691 113.716 T
438.597 120.883 438.597 47.52 432.691 113.716 T
444.503 47.52 438.597 47.52 438.597 120.883 T
444.503 120.933 444.503 47.52 438.597 120.883 T
450.409 47.52 444.503 47.52 444.503 120.933 T
450.409 115.942 450.409 47.52 444.503 120.933 T
456.315 47.52 450.409 47.52 450.409 115.942 T
456.315 110.755 456.315 47.52 450.409 115.942 T
462.221 47.52 456.315 47.52 456.315 110.755 T
462.221 106.559 462.221 47.52 456.315 110.755 T
468.127 47.52 462.221 47.52 462.221 106.559 T
468.127 99.4989 468.127 47.52 462.221 106.559 T
474.033 47.52 468.127 47.52 468.127 99.4989 T
474.033 94.488 474.033 47.52 468.127 99.4989 T
479.939 47.52 474.033 47.52 474.033 94.488 T
479.939 89.0419 479.939 47.52 474.033 94.488 T
485.844 47.52 479.939 47.52 479.939 89.0419 T
485.844 84.2054 485.844 47.52 479.939 89.0419 T
491.75 47.52 485.844 47.52 485.844 84.2054 T
491.75 80.0276 491.75 47.52 485.844 84.2054 T
497.656 47.52 491.75 47.52 491.75 80.0276 T
497.656 76.7623 497.656 47.52 491.75 80.0276 T
503.562 47.52 497.656 47.52 497.656 76.7623 T
503.562 73.2342 503.562 47.52 497.656 76.7623 T
509.468 47.52 503.562 47.52 503.562 73.2342 T
509.468 70.3874 509.468 47.52 503.562 73.2342 T
515.374 47.52 509.468 47.52 509.468 70.3874 T
515.374 68.1422 515.374 47.52 509.468 70.3874 T
521.28 47.52 515.374 47.52 515.374 68.1422 T
521.28 65.9935 521.28 47.52 515.374 68.1422 T
0 LC
[] 0 setdash
0 0 0 C
521.28 65.9935 LS
515.374 68.1422 L
509.468 70.3874 L
503.562 73.2342 L
497.656 76.7623 L
491.75 80.0276 L
485.844 84.2054 L
479.939 89.0419 L
474.033 94.488 L
468.127 99.4989 L
462.221 106.559 L
456.315 110.755 L
450.409 115.942 L
444.503 120.933 L
438.597 120.883 L
432.691 113.716 L
426.785 94.0344 L
420.879 85.7924 L
414.973 83.3872 L
409.067 82.8941 L
409.067 47.52 L
414.973 47.52 L
420.879 47.52 L
426.785 47.52 L
432.691 47.52 L
438.597 47.52 L
444.503 47.52 L
450.409 47.52 L
456.315 47.52 L
462.221 47.52 L
468.127 47.52 L
474.033 47.52 L
479.939 47.52 L
485.844 47.52 L
491.75 47.52 L
497.656 47.52 L
503.562 47.52 L
509.468 47.52 L
515.374 47.52 L
521.28 47.52 L
521.28 65.9935 LE
1 1 1 C
409.067 47.52 409.067 56.7367 414.973 47.52 T
414.973 58.4151 414.973 47.52 409.067 56.7367 T
420.879 47.52 414.973 47.52 414.973 58.4151 T
420.879 59.7749 420.879 47.52 414.973 58.4151 T
426.785 47.52 420.879 47.52 420.879 59.7749 T
426.785 63.5183 426.785 47.52 420.879 59.7749 T
432.691 47.52 426.785 47.52 426.785 63.5183 T
432.691 70.0086 432.691 47.52 426.785 63.5183 T
438.597 47.52 432.691 47.52 432.691 70.0086 T
438.597 72.0116 438.597 47.52 432.691 70.0086 T
444.503 47.52 438.597 47.52 438.597 72.0116 T
444.503 71.1572 444.503 47.52 438.597 72.0116 T
450.409 47.52 444.503 47.52 444.503 71.1572 T
450.409 66.9901 450.409 47.52 444.503 71.1572 T
456.315 47.52 450.409 47.52 450.409 66.9901 T
456.315 63.6278 456.315 47.52 450.409 66.9901 T
462.221 47.52 456.315 47.52 456.315 63.6278 T
462.221 61.4432 462.221 47.52 456.315 63.6278 T
468.127 47.52 462.221 47.52 462.221 61.4432 T
468.127 57.1439 468.127 47.52 462.221 61.4432 T
474.033 47.52 468.127 47.52 468.127 57.1439 T
474.033 54.7199 474.033 47.52 468.127 57.1439 T
479.939 47.52 474.033 47.52 474.033 54.7199 T
479.939 52.2251 479.939 47.52 474.033 54.7199 T
485.844 47.52 479.939 47.52 479.939 52.2251 T
485.844 50.6651 485.844 47.52 479.939 52.2251 T
491.75 47.52 485.844 47.52 485.844 50.6651 T
491.75 49.5267 491.75 47.52 485.844 50.6651 T
497.656 47.52 491.75 47.52 491.75 49.5267 T
497.656 49.1984 497.656 47.52 491.75 49.5267 T
503.562 47.52 497.656 47.52 497.656 49.1984 T
503.562 48.4276 503.562 47.52 497.656 49.1984 T
509.468 47.52 503.562 47.52 503.562 48.4276 T
509.468 47.974 509.468 47.52 503.562 48.4276 T
515.374 47.52 509.468 47.52 509.468 47.974 T
515.374 47.7405 515.374 47.52 509.468 47.974 T
521.28 47.52 515.374 47.52 515.374 47.7405 T
0 0 0 C
521.28 47.52 LS
515.374 47.7405 L
509.468 47.974 L
503.562 48.4276 L
497.656 49.1984 L
491.75 49.5267 L
485.844 50.6651 L
479.939 52.2251 L
474.033 54.7199 L
468.127 57.1439 L
462.221 61.4432 L
456.315 63.6278 L
450.409 66.9901 L
444.503 71.1572 L
438.597 72.0116 L
432.691 70.0086 L
426.785 63.5183 L
420.879 59.7749 L
414.973 58.4151 L
409.067 56.7367 L
409.067 47.52 L
414.973 47.52 L
420.879 47.52 L
426.785 47.52 L
432.691 47.52 L
438.597 47.52 L
444.503 47.52 L
450.409 47.52 L
456.315 47.52 L
462.221 47.52 L
468.127 47.52 L
474.033 47.52 L
479.939 47.52 L
485.844 47.52 L
491.75 47.52 L
497.656 47.52 L
503.562 47.52 L
509.468 47.52 L
515.374 47.52 L
521.28 47.52 LE
3 W
1 LJ
409.067 68.9318 LS
414.973 69.4844 L
420.879 72.8136 L
426.785 79.8314 L
432.691 94.0325 L
438.597 98.2884 L
444.503 97.225 L
450.409 93.7301 L
456.315 89.2707 L
462.221 84.5996 L
468.127 80.0999 L
474.033 75.9548 L
479.939 72.2373 L
485.844 68.9598 L
491.75 66.1029 L
497.656 63.6315 L
503.562 61.5044 L
509.468 59.6797 L
515.374 58.1174 L
521.28 56.781 LE
grestore
grestore
showpage
cleartomark
%%PageTrailer
%%Trailer
end
%%EOF
