%!PS-Adobe-3.0 EPSF-3.0
%%Title: gl2ps_renderer figure
%%Creator: GL2PS 1.4.2, (C) 1999-2020 C. Geuzaine
%%For: Octave
%%CreationDate: Wed Oct  7 04:42:18 2020
%%LanguageLevel: 3
%%DocumentData: Clean7Bit
%%Pages: 1
%%BoundingBox: 0 0 576 432
%%EndComments
%%BeginProlog
/gl2psdict 64 dict def gl2psdict begin
/tryPS3shading false def % set to false to force subdivision
/rThreshold 0.064 def % red component subdivision threshold
/gThreshold 0.034 def % green component subdivision threshold
/bThreshold 0.1 def % blue component subdivision threshold
/BD { bind def } bind def
/C  { setrgbcolor } BD
/G  { 0.082 mul exch 0.6094 mul add exch 0.3086 mul add neg 1.0 add setgray } BD
/W  { setlinewidth } BD
/LC  { setlinecap } BD
/LJ  { setlinejoin } BD
/FC { findfont exch /SH exch def SH scalefont setfont } BD
/SW { dup stringwidth pop } BD
/S  { FC moveto show } BD
/SBC{ FC moveto SW -2 div 0 rmoveto show } BD
/SBR{ FC moveto SW neg 0 rmoveto show } BD
/SCL{ FC moveto 0 SH -2 div rmoveto show } BD
/SCC{ FC moveto SW -2 div SH -2 div rmoveto show } BD
/SCR{ FC moveto SW neg SH -2 div rmoveto show } BD
/STL{ FC moveto 0 SH neg rmoveto show } BD
/STC{ FC moveto SW -2 div SH neg rmoveto show } BD
/STR{ FC moveto SW neg SH neg rmoveto show } BD
/FCT { FC translate 0 0 } BD
/SR  { gsave FCT moveto rotate show grestore } BD
/SRX  { gsave FCT moveto rotate xshow grestore } BD
/SBCR{ gsave FCT moveto rotate SW -2 div 0 rmoveto show grestore } BD
/SBRR{ gsave FCT moveto rotate SW neg 0 rmoveto show grestore } BD
/SCLR{ gsave FCT moveto rotate 0 SH -2 div rmoveto show grestore} BD
/SCCR{ gsave FCT moveto rotate SW -2 div SH -2 div rmoveto show grestore} BD
/SCRR{ gsave FCT moveto rotate SW neg SH -2 div rmoveto show grestore} BD
/STLR{ gsave FCT moveto rotate 0 SH neg rmoveto show grestore } BD
/STCR{ gsave FCT moveto rotate SW -2 div SH neg rmoveto show grestore } BD
/STRR{ gsave FCT moveto rotate SW neg SH neg rmoveto show grestore } BD
/P  { newpath 0.0 360.0 arc closepath fill } BD
/LS { newpath moveto } BD
/L  { lineto } BD
/LE { lineto stroke } BD
/T  { newpath moveto lineto lineto closepath fill } BD
/STshfill {
      /b1 exch def /g1 exch def /r1 exch def /y1 exch def /x1 exch def
      /b2 exch def /g2 exch def /r2 exch def /y2 exch def /x2 exch def
      /b3 exch def /g3 exch def /r3 exch def /y3 exch def /x3 exch def
      gsave << /ShadingType 4 /ColorSpace [/DeviceRGB]
      /DataSource [ 0 x1 y1 r1 g1 b1 0 x2 y2 r2 g2 b2 0 x3 y3 r3 g3 b3 ] >>
      shfill grestore } BD
/Tm { 3 -1 roll 8 -1 roll 13 -1 roll add add 3 div
      3 -1 roll 7 -1 roll 11 -1 roll add add 3 div
      3 -1 roll 6 -1 roll 9 -1 roll add add 3 div C T } BD
/STsplit {
      4 index 15 index add 0.5 mul
      4 index 15 index add 0.5 mul
      4 index 15 index add 0.5 mul
      4 index 15 index add 0.5 mul
      4 index 15 index add 0.5 mul
      5 copy 5 copy 25 15 roll
      9 index 30 index add 0.5 mul
      9 index 30 index add 0.5 mul
      9 index 30 index add 0.5 mul
      9 index 30 index add 0.5 mul
      9 index 30 index add 0.5 mul
      5 copy 5 copy 35 5 roll 25 5 roll 15 5 roll
      4 index 10 index add 0.5 mul
      4 index 10 index add 0.5 mul
      4 index 10 index add 0.5 mul
      4 index 10 index add 0.5 mul
      4 index 10 index add 0.5 mul
      5 copy 5 copy 40 5 roll 25 5 roll 15 5 roll 25 5 roll
      STnoshfill STnoshfill STnoshfill STnoshfill } BD
/STnoshfill {
      2 index 8 index sub abs rThreshold gt
      { STsplit }
      { 1 index 7 index sub abs gThreshold gt
        { STsplit }
        { dup 6 index sub abs bThreshold gt
          { STsplit }
          { 2 index 13 index sub abs rThreshold gt
            { STsplit }
            { 1 index 12 index sub abs gThreshold gt
              { STsplit }
              { dup 11 index sub abs bThreshold gt
                { STsplit }
                { 7 index 13 index sub abs rThreshold gt
                  { STsplit }
                  { 6 index 12 index sub abs gThreshold gt
                    { STsplit }
                    { 5 index 11 index sub abs bThreshold gt
                      { STsplit }
                      { Tm }
                      ifelse }
                    ifelse }
                  ifelse }
                ifelse }
              ifelse }
            ifelse }
          ifelse }
        ifelse }
      ifelse } BD
tryPS3shading
{ /shfill where
  { /ST { STshfill } BD }
  { /ST { STnoshfill } BD }
  ifelse }
{ /ST { STnoshfill } BD }
ifelse
end
%%EndProlog
%%BeginSetup
/DeviceRGB setcolorspace
gl2psdict begin
%%EndSetup
%%Page: 1 1
%%BeginPageSetup
%%EndPageSetup
mark
gsave
1.0 1.0 scale
1 1 1 C
newpath 0 0 moveto 576 0 lineto 576 432 lineto 0 432 lineto
closepath fill
gsave
1.0 1.0 scale
1 1 1 C
newpath 0 0 moveto 576 0 lineto 576 432 lineto 0 432 lineto
closepath fill
newpath 0 0 moveto 576 0 lineto 576 432 lineto 0 432 lineto
closepath clip
1 1 1 C
74.88 385.841 187.093 312.427 74.88 312.427 T
74.88 385.841 187.093 385.841 187.093 312.427 T
0.5 W
0.15 0.15 0.15 C
97.3135 312.427 LS
97.3135 313.556 LE
97.3135 385.841 LS
97.3135 384.712 LE
119.758 312.427 LS
119.758 313.556 LE
119.758 385.841 LS
119.758 384.712 LE
142.203 312.427 LS
142.203 313.556 LE
142.203 385.841 LS
142.203 384.712 LE
164.648 312.427 LS
164.648 313.556 LE
164.648 385.841 LS
164.648 384.712 LE
187.093 312.427 LS
187.093 313.556 LE
187.093 385.841 LS
187.093 384.712 LE
gsave
0.14902 0.14902 0.14902 C
(2e+06) [6 5 6 6 10] 0 82.8135 296.885 10 /Helvetica SRX
grestore

gsave
0.14902 0.14902 0.14902 C
(4e+06) [6 5 6 6 10] 0 105.258 296.885 10 /Helvetica SRX
grestore

gsave
0.14902 0.14902 0.14902 C
(6e+06) [6 5 6 6 10] 0 127.703 296.885 10 /Helvetica SRX
grestore

gsave
0.14902 0.14902 0.14902 C
(8e+06) [6 5 6 6 10] 0 150.148 296.885 10 /Helvetica SRX
grestore

gsave
0.14902 0.14902 0.14902 C
(1e+07) [6 5 6 6 10] 0 172.593 296.885 10 /Helvetica SRX
grestore

74.88 312.427 LS
76.0042 312.427 LE
187.093 312.427 LS
185.968 312.427 LE
74.88 327.11 LS
76.0042 327.11 LE
187.093 327.11 LS
185.968 327.11 LE
74.88 341.793 LS
76.0042 341.793 LE
187.093 341.793 LS
185.968 341.793 LE
74.88 356.475 LS
76.0042 356.475 LE
187.093 356.475 LS
185.968 356.475 LE
74.88 371.158 LS
76.0042 371.158 LE
187.093 371.158 LS
185.968 371.158 LE
74.88 385.841 LS
76.0042 385.841 LE
187.093 385.841 LS
185.968 385.841 LE
gsave
0.14902 0.14902 0.14902 C
(0.007) [6 3 6 6 10] 0 42.8705 308.427 10 /Helvetica SRX
grestore

gsave
0.14902 0.14902 0.14902 C
(0.008) [6 3 6 6 10] 0 42.8705 323.11 10 /Helvetica SRX
grestore

gsave
0.14902 0.14902 0.14902 C
(0.009) [6 3 6 6 10] 0 42.8705 337.793 10 /Helvetica SRX
grestore

gsave
0.14902 0.14902 0.14902 C
(0.01) [6 3 6 10] 0 48.8705 352.475 10 /Helvetica SRX
grestore

gsave
0.14902 0.14902 0.14902 C
(0.011) [6 3 6 6 10] 0 42.8705 367.158 10 /Helvetica SRX
grestore

gsave
0.14902 0.14902 0.14902 C
(0.012) [6 3 6 6 10] 0 42.8705 381.841 10 /Helvetica SRX
grestore

2 LC
[16 0] 0 setdash
74.88 312.427 LS
187.093 312.427 LE
74.88 385.841 LS
187.093 385.841 LE
74.88 312.427 LS
74.88 385.841 LE
187.093 312.427 LS
187.093 385.841 LE
gsave
0 0 0 C
(SE_eps_AT_news4 \(Interval\)) [7 7 6 6 7 6 6 8 7 6 7 6 9 6 6 3 4 3 7 4 6 4 6 6 3 10] 0 55.9863 398.841 11 /Helvetica-Bold SRX
grestore

0 LC
1 LJ
[] 0 setdash
0 0 1 C
74.88 313.371 LS
76.0021 366.004 L
77.1242 378.835 L
78.2464 356.693 L
79.3685 320.566 L
80.4906 325.976 L
81.6127 320.281 L
82.7349 331.931 L
83.857 337.699 L
84.9791 346.253 L
86.1013 338.823 L
87.2234 334.597 L
88.3455 336.529 L
89.4676 334.125 L
90.5898 321.524 L
91.7119 330.88 L
92.834 335.115 L
93.9561 334.453 L
95.0783 332.473 L
96.2004 326.249 L
97.3225 321.752 L
98.4446 321.629 L
99.5668 319.602 L
100.689 320.968 L
101.811 319.607 L
102.933 317.96 L
104.055 316.567 L
105.177 315.875 L
106.3 317.134 L
107.422 318.092 L
108.544 319.503 L
109.666 319.973 L
110.788 321.366 L
111.91 323.167 L
113.032 325.491 L
114.154 324.145 L
115.277 325.936 L
116.399 325.793 L
117.521 326.179 L
118.643 324.905 L
119.765 324.805 L
120.887 323.195 L
122.009 322.372 L
123.131 322.854 L
124.254 322.495 L
125.376 320.718 L
126.498 321.935 L
127.62 323.174 L
128.742 322.026 L
129.864 322.653 L
130.986 322.873 L
132.108 323.268 L
133.231 322.78 L
134.353 321.868 L
135.475 321.213 L
136.597 322.537 L
137.719 322.529 L
138.841 321.856 L
139.963 322.122 L
141.085 321.946 L
142.208 322.07 L
143.33 322.431 L
144.452 323.686 L
145.574 322.798 L
146.696 323.539 L
147.818 324.904 L
148.94 326.2 L
150.062 325.872 L
151.185 326.565 L
152.307 325.266 L
153.429 325.114 L
154.551 324.95 L
155.673 323.895 L
156.795 324.979 L
157.917 325.877 L
159.039 325.979 L
160.162 324.208 L
161.284 323.189 L
162.406 323.905 L
163.528 324.282 L
164.65 323.245 L
165.772 323.923 L
166.894 325.302 L
168.016 323.828 L
169.139 324.964 L
170.261 324.268 L
171.383 323.975 L
172.505 324.21 L
173.627 325.559 L
174.749 326.104 L
175.871 326.847 L
176.993 327.14 L
178.116 326.359 L
179.238 326.408 L
180.36 327.457 L
181.482 328.918 L
182.604 328.643 L
183.726 328.576 L
184.848 328.5 L
185.97 328.898 L
187.093 329.591 LE
1 0 0 C
74.88 317.171 LS
76.0021 354.659 L
77.1242 348.263 L
78.2464 324.84 L
79.3685 319.918 L
80.4906 325.55 L
81.6127 319.266 L
82.7349 323.615 L
83.857 319.778 L
84.9791 319.7 L
86.1013 327.938 L
87.2234 327.226 L
88.3455 326.293 L
89.4676 319.958 L
90.5898 318.241 L
91.7119 319.605 L
92.834 321.886 L
93.9561 324.484 L
95.0783 328.158 L
96.2004 326.297 L
97.3225 321.043 L
98.4446 321.548 L
99.5668 319.574 L
100.689 320.796 L
101.811 319.613 L
102.933 317.996 L
104.055 316.292 L
105.177 315.372 L
106.3 316.782 L
107.422 317.953 L
108.544 319.539 L
109.666 319.878 L
110.788 321.024 L
111.91 322.326 L
113.032 323.745 L
114.154 321.44 L
115.277 320.676 L
116.399 318.327 L
117.521 318.112 L
118.643 317.64 L
119.765 318.944 L
120.887 319.494 L
122.009 320.464 L
123.131 321.056 L
124.254 321.223 L
125.376 320.335 L
126.498 321.692 L
127.62 322.831 L
128.742 321.989 L
129.864 322.657 L
130.986 322.895 L
132.108 323.281 L
133.231 322.823 L
134.353 321.869 L
135.475 321.173 L
136.597 322.558 L
137.719 322.571 L
138.841 321.842 L
139.963 322.131 L
141.085 322.008 L
142.208 321.903 L
143.33 322.396 L
144.452 323.636 L
145.574 322.748 L
146.696 323.292 L
147.818 324.573 L
148.94 326.078 L
150.062 325.857 L
151.185 326.57 L
152.307 325.279 L
153.429 325.089 L
154.551 324.894 L
155.673 323.896 L
156.795 324.94 L
157.917 325.916 L
159.039 326.044 L
160.162 324.207 L
161.284 323.19 L
162.406 323.937 L
163.528 324.257 L
164.65 323.191 L
165.772 323.849 L
166.894 325.136 L
168.016 323.731 L
169.139 324.831 L
170.261 324.227 L
171.383 323.95 L
172.505 324.246 L
173.627 325.51 L
174.749 325.973 L
175.871 326.806 L
176.993 326.937 L
178.116 325.748 L
179.238 325.394 L
180.36 326.181 L
181.482 327.831 L
182.604 327.506 L
183.726 327.283 L
184.848 327.22 L
185.97 327.58 L
187.093 327.788 LE
grestore
gsave
1.0 1.0 scale
newpath 0 0 moveto 576 0 lineto 576 432 lineto 0 432 lineto
closepath clip
1 1 1 C
241.974 385.841 354.186 312.427 241.974 312.427 T
241.974 385.841 354.186 385.841 354.186 312.427 T
0.5 W
0.15 0.15 0.15 C
264.407 312.427 LS
264.407 313.556 LE
264.407 385.841 LS
264.407 384.712 LE
286.852 312.427 LS
286.852 313.556 LE
286.852 385.841 LS
286.852 384.712 LE
309.297 312.427 LS
309.297 313.556 LE
309.297 385.841 LS
309.297 384.712 LE
331.742 312.427 LS
331.742 313.556 LE
331.742 385.841 LS
331.742 384.712 LE
354.186 312.427 LS
354.186 313.556 LE
354.186 385.841 LS
354.186 384.712 LE
gsave
0.14902 0.14902 0.14902 C
(2e+06) [6 5 6 6 10] 0 249.907 296.885 10 /Helvetica SRX
grestore

gsave
0.14902 0.14902 0.14902 C
(4e+06) [6 5 6 6 10] 0 272.352 296.885 10 /Helvetica SRX
grestore

gsave
0.14902 0.14902 0.14902 C
(6e+06) [6 5 6 6 10] 0 294.797 296.885 10 /Helvetica SRX
grestore

gsave
0.14902 0.14902 0.14902 C
(8e+06) [6 5 6 6 10] 0 317.242 296.885 10 /Helvetica SRX
grestore

gsave
0.14902 0.14902 0.14902 C
(1e+07) [6 5 6 6 10] 0 339.686 296.885 10 /Helvetica SRX
grestore

241.974 312.427 LS
243.098 312.427 LE
354.186 312.427 LS
353.062 312.427 LE
241.974 330.781 LS
243.098 330.781 LE
354.186 330.781 LS
353.062 330.781 LE
241.974 349.134 LS
243.098 349.134 LE
354.186 349.134 LS
353.062 349.134 LE
241.974 367.487 LS
243.098 367.487 LE
354.186 367.487 LS
353.062 367.487 LE
241.974 385.841 LS
243.098 385.841 LE
354.186 385.841 LS
353.062 385.841 LE
gsave
0.14902 0.14902 0.14902 C
(5e-06) [6 5 3 6 10] 0 210.964 308.427 10 /Helvetica SRX
grestore

gsave
0.14902 0.14902 0.14902 C
(1e-05) [6 5 3 6 10] 0 210.964 326.781 10 /Helvetica SRX
grestore

gsave
0.14902 0.14902 0.14902 C
(1.5e-05) [6 3 6 5 3 6 10] 0 201.964 345.134 10 /Helvetica SRX
grestore

gsave
0.14902 0.14902 0.14902 C
(2e-05) [6 5 3 6 10] 0 210.964 363.487 10 /Helvetica SRX
grestore

gsave
0.14902 0.14902 0.14902 C
(2.5e-05) [6 3 6 5 3 6 10] 0 201.964 381.841 10 /Helvetica SRX
grestore

2 LC
[16 0] 0 setdash
241.974 312.427 LS
354.186 312.427 LE
241.974 385.841 LS
354.186 385.841 LE
241.974 312.427 LS
241.974 385.841 LE
354.186 312.427 LS
354.186 385.841 LE
gsave
0 0 0 C
(SE_eps_AT_news4 \(m2\)) [7 7 6 6 7 6 6 8 7 6 7 6 9 6 6 3 4 10 6 10] 0 234.58 398.841 11 /Helvetica-Bold SRX
grestore

0 LC
1 LJ
[] 0 setdash
0 0 1 C
241.974 325.253 LS
243.096 353.357 L
244.218 368.281 L
245.34 347.887 L
246.462 326.706 L
247.584 328.487 L
248.706 325.652 L
249.829 333.127 L
250.951 335.536 L
252.073 341.436 L
253.195 337.358 L
254.317 334.099 L
255.439 336.141 L
256.561 334.817 L
257.683 326.93 L
258.806 331.743 L
259.928 334.623 L
261.05 334.438 L
262.172 333.456 L
263.294 330.274 L
264.416 326.933 L
265.538 326.937 L
266.66 325.554 L
267.783 326.342 L
268.905 325.642 L
270.027 324.916 L
271.149 324.108 L
272.271 323.768 L
273.393 324.506 L
274.515 324.763 L
275.637 325.43 L
276.76 325.761 L
277.882 326.596 L
279.004 327.485 L
280.126 328.821 L
281.248 328.134 L
282.37 329.187 L
283.492 329.182 L
284.614 329.551 L
285.737 328.859 L
286.859 329.005 L
287.981 328.155 L
289.103 327.713 L
290.225 327.889 L
291.347 327.66 L
292.469 326.746 L
293.591 327.359 L
294.714 327.876 L
295.836 327.271 L
296.958 327.677 L
298.08 327.437 L
299.202 327.712 L
300.324 327.461 L
301.446 326.854 L
302.568 326.495 L
303.691 327.226 L
304.813 327.258 L
305.935 326.903 L
307.057 327.002 L
308.179 326.957 L
309.301 326.975 L
310.423 327.15 L
311.546 327.813 L
312.668 327.294 L
313.79 327.708 L
314.912 328.545 L
316.034 329.206 L
317.156 329.045 L
318.278 329.415 L
319.4 328.738 L
320.523 328.7 L
321.645 328.575 L
322.767 328.003 L
323.889 328.727 L
325.011 329.452 L
326.133 329.397 L
327.255 328.419 L
328.377 327.89 L
329.5 328.251 L
330.622 328.451 L
331.744 327.855 L
332.866 328.357 L
333.988 329.277 L
335.11 328.448 L
336.232 329.071 L
337.354 328.746 L
338.477 328.595 L
339.599 328.609 L
340.721 329.348 L
341.843 329.644 L
342.965 330.131 L
344.087 330.276 L
345.209 329.692 L
346.331 329.716 L
347.454 330.317 L
348.576 331.094 L
349.698 330.992 L
350.82 330.966 L
351.942 330.927 L
353.064 331.066 L
354.186 331.45 LE
1 0 0 C
241.974 321.759 LS
243.096 346.207 L
244.218 346.187 L
245.34 328.961 L
246.462 325.981 L
247.584 328.275 L
248.706 325.021 L
249.829 327.947 L
250.951 325.348 L
252.073 325.393 L
253.195 330.538 L
254.317 329.826 L
255.439 330.077 L
256.561 326.123 L
257.683 324.868 L
258.806 325.509 L
259.928 326.887 L
261.05 328.275 L
262.172 330.862 L
263.294 330.21 L
264.416 326.505 L
265.538 326.893 L
266.66 325.536 L
267.783 326.264 L
268.905 325.64 L
270.027 324.901 L
271.149 324.027 L
272.271 323.547 L
273.393 324.401 L
274.515 324.736 L
275.637 325.406 L
276.76 325.741 L
277.882 326.43 L
279.004 327.021 L
280.126 327.735 L
281.248 326.451 L
282.37 326.132 L
283.492 325.125 L
284.614 324.838 L
285.737 324.556 L
286.859 325.345 L
287.981 325.839 L
289.103 326.542 L
290.225 326.762 L
291.347 326.832 L
292.469 326.441 L
293.591 327.092 L
294.714 327.607 L
295.836 327.228 L
296.958 327.675 L
298.08 327.434 L
299.202 327.708 L
300.324 327.447 L
301.446 326.854 L
302.568 326.489 L
303.691 327.225 L
304.813 327.253 L
305.935 326.901 L
307.057 327 L
308.179 326.906 L
309.301 326.843 L
310.423 327.09 L
311.546 327.743 L
312.668 327.191 L
313.79 327.511 L
314.912 328.352 L
316.034 329.164 L
317.156 329.028 L
318.278 329.415 L
319.4 328.738 L
320.523 328.694 L
321.645 328.569 L
322.767 327.999 L
323.889 328.722 L
325.011 329.449 L
326.133 329.383 L
327.255 328.39 L
328.377 327.868 L
329.5 328.208 L
330.622 328.451 L
331.744 327.837 L
332.866 328.316 L
333.988 329.169 L
335.11 328.398 L
336.232 328.991 L
337.354 328.73 L
338.477 328.588 L
339.599 328.606 L
340.721 329.314 L
341.843 329.546 L
342.965 330.069 L
344.087 330.148 L
345.209 329.278 L
346.331 329.065 L
347.454 329.482 L
348.576 330.403 L
349.698 330.264 L
350.82 330.128 L
351.942 330.125 L
353.064 330.267 L
354.186 330.402 LE
grestore
gsave
1.0 1.0 scale
newpath 0 0 moveto 576 0 lineto 576 432 lineto 0 432 lineto
closepath clip
1 1 1 C
409.067 385.841 521.28 312.427 409.067 312.427 T
409.067 385.841 521.28 385.841 521.28 312.427 T
0.5 W
0.15 0.15 0.15 C
431.501 312.427 LS
431.501 313.556 LE
431.501 385.841 LS
431.501 384.712 LE
453.946 312.427 LS
453.946 313.556 LE
453.946 385.841 LS
453.946 384.712 LE
476.39 312.427 LS
476.39 313.556 LE
476.39 385.841 LS
476.39 384.712 LE
498.835 312.427 LS
498.835 313.556 LE
498.835 385.841 LS
498.835 384.712 LE
521.28 312.427 LS
521.28 313.556 LE
521.28 385.841 LS
521.28 384.712 LE
gsave
0.14902 0.14902 0.14902 C
(2e+06) [6 5 6 6 10] 0 417.001 296.885 10 /Helvetica SRX
grestore

gsave
0.14902 0.14902 0.14902 C
(4e+06) [6 5 6 6 10] 0 439.446 296.885 10 /Helvetica SRX
grestore

gsave
0.14902 0.14902 0.14902 C
(6e+06) [6 5 6 6 10] 0 461.89 296.885 10 /Helvetica SRX
grestore

gsave
0.14902 0.14902 0.14902 C
(8e+06) [6 5 6 6 10] 0 484.335 296.885 10 /Helvetica SRX
grestore

gsave
0.14902 0.14902 0.14902 C
(1e+07) [6 5 6 6 10] 0 506.78 296.885 10 /Helvetica SRX
grestore

409.067 312.427 LS
410.192 312.427 LE
521.28 312.427 LS
520.156 312.427 LE
409.067 322.915 LS
410.192 322.915 LE
521.28 322.915 LS
520.156 322.915 LE
409.067 333.403 LS
410.192 333.403 LE
521.28 333.403 LS
520.156 333.403 LE
409.067 343.89 LS
410.192 343.89 LE
521.28 343.89 LS
520.156 343.89 LE
409.067 354.378 LS
410.192 354.378 LE
521.28 354.378 LS
520.156 354.378 LE
409.067 364.865 LS
410.192 364.865 LE
521.28 364.865 LS
520.156 364.865 LE
409.067 375.353 LS
410.192 375.353 LE
521.28 375.353 LS
520.156 375.353 LE
409.067 385.841 LS
410.192 385.841 LE
521.28 385.841 LS
520.156 385.841 LE
gsave
0.14902 0.14902 0.14902 C
(2e-08) [6 5 3 6 10] 0 378.058 308.427 10 /Helvetica SRX
grestore

gsave
0.14902 0.14902 0.14902 C
(4e-08) [6 5 3 6 10] 0 378.058 318.915 10 /Helvetica SRX
grestore

gsave
0.14902 0.14902 0.14902 C
(6e-08) [6 5 3 6 10] 0 378.058 329.403 10 /Helvetica SRX
grestore

gsave
0.14902 0.14902 0.14902 C
(8e-08) [6 5 3 6 10] 0 378.058 339.89 10 /Helvetica SRX
grestore

gsave
0.14902 0.14902 0.14902 C
(1e-07) [6 5 3 6 10] 0 378.058 350.378 10 /Helvetica SRX
grestore

gsave
0.14902 0.14902 0.14902 C
(1.2e-07) [6 3 6 5 3 6 10] 0 369.058 360.865 10 /Helvetica SRX
grestore

gsave
0.14902 0.14902 0.14902 C
(1.4e-07) [6 3 6 5 3 6 10] 0 369.058 371.353 10 /Helvetica SRX
grestore

gsave
0.14902 0.14902 0.14902 C
(1.6e-07) [6 3 6 5 3 6 10] 0 369.058 381.841 10 /Helvetica SRX
grestore

2 LC
[16 0] 0 setdash
409.067 312.427 LS
521.28 312.427 LE
409.067 385.841 LS
521.28 385.841 LE
409.067 312.427 LS
409.067 385.841 LE
521.28 312.427 LS
521.28 385.841 LE
gsave
0 0 0 C
(SE_eps_AT_news4 \(m3\)) [7 7 6 6 7 6 6 8 7 6 7 6 9 6 6 3 4 10 6 10] 0 401.674 398.841 11 /Helvetica-Bold SRX
grestore

0 LC
1 LJ
[] 0 setdash
0 0 1 C
409.067 325.6 LS
410.19 352.33 L
411.312 383.204 L
412.434 345.854 L
413.556 324.997 L
414.678 325.602 L
415.8 323.072 L
416.922 331.3 L
418.044 333.111 L
419.167 339.488 L
420.289 335.929 L
421.411 331.923 L
422.533 334.842 L
423.655 333.452 L
424.777 324.803 L
425.899 329.094 L
427.021 332.44 L
428.144 332.397 L
429.266 331.705 L
430.388 328.751 L
431.51 324.632 L
432.632 324.716 L
433.754 323.163 L
434.876 323.954 L
435.998 323.354 L
437.121 322.789 L
438.243 321.967 L
439.365 321.69 L
440.487 322.381 L
441.609 322.435 L
442.731 322.977 L
443.853 323.36 L
444.975 324.15 L
446.098 324.962 L
447.22 326.315 L
448.342 325.661 L
449.464 326.727 L
450.586 326.86 L
451.708 327.333 L
452.83 326.639 L
453.952 326.981 L
455.075 326.188 L
456.197 325.738 L
457.319 325.844 L
458.441 325.613 L
459.563 324.71 L
460.685 325.271 L
461.807 325.677 L
462.929 325.037 L
464.052 325.455 L
465.174 324.97 L
466.296 325.283 L
467.418 325.048 L
468.54 324.401 L
469.662 324.06 L
470.784 324.812 L
471.906 324.837 L
473.029 324.498 L
474.151 324.547 L
475.273 324.554 L
476.395 324.597 L
477.517 324.733 L
478.639 325.371 L
479.761 324.839 L
480.883 325.259 L
482.006 326.178 L
483.128 326.817 L
484.25 326.673 L
485.372 327.005 L
486.494 326.372 L
487.616 326.366 L
488.738 326.239 L
489.86 325.69 L
490.983 326.541 L
492.105 327.437 L
493.227 327.295 L
494.349 326.322 L
495.471 325.818 L
496.593 326.18 L
497.715 326.395 L
498.837 325.77 L
499.96 326.405 L
501.082 327.473 L
502.204 326.588 L
503.326 327.207 L
504.448 326.908 L
505.57 326.751 L
506.692 326.648 L
507.814 327.359 L
508.937 327.653 L
510.059 328.193 L
511.181 328.31 L
512.303 327.616 L
513.425 327.616 L
514.547 328.221 L
515.669 328.982 L
516.792 328.908 L
517.914 328.898 L
519.036 328.872 L
520.158 328.948 L
521.28 329.311 LE
1 0 0 C
409.067 320.971 LS
410.19 344.48 L
411.312 349.854 L
412.434 327.079 L
413.556 324.119 L
414.678 325.396 L
415.8 322.247 L
416.922 325.553 L
418.044 322.714 L
419.167 322.918 L
420.289 328.473 L
421.411 327.72 L
422.533 328.399 L
423.655 324.101 L
424.777 322.538 L
425.899 322.967 L
427.021 324.495 L
428.144 325.833 L
429.266 328.975 L
430.388 328.623 L
431.51 324.247 L
432.632 324.656 L
433.754 323.145 L
434.876 323.88 L
435.998 323.356 L
437.121 322.763 L
438.243 321.921 L
439.365 321.519 L
440.487 322.311 L
441.609 322.421 L
442.731 322.947 L
443.853 323.337 L
444.975 323.99 L
446.098 324.491 L
447.22 325.188 L
448.342 323.966 L
449.464 323.676 L
450.586 322.963 L
451.708 322.561 L
452.83 322.235 L
453.952 323.085 L
455.075 323.711 L
456.197 324.48 L
457.319 324.621 L
458.441 324.689 L
459.563 324.328 L
460.685 324.927 L
461.807 325.337 L
462.929 324.978 L
464.052 325.451 L
465.174 324.968 L
466.296 325.273 L
467.418 325.042 L
468.54 324.4 L
469.662 324.047 L
470.784 324.808 L
471.906 324.84 L
473.029 324.502 L
474.151 324.54 L
475.273 324.469 L
476.395 324.404 L
477.517 324.644 L
478.639 325.27 L
479.761 324.71 L
480.883 325.03 L
482.006 325.969 L
483.128 326.766 L
484.25 326.653 L
485.372 327.004 L
486.494 326.371 L
487.616 326.359 L
488.738 326.233 L
489.86 325.686 L
490.983 326.533 L
492.105 327.429 L
493.227 327.276 L
494.349 326.284 L
495.471 325.79 L
496.593 326.12 L
497.715 326.396 L
498.837 325.76 L
499.96 326.358 L
501.082 327.334 L
502.204 326.525 L
503.326 327.108 L
504.448 326.883 L
505.57 326.736 L
506.692 326.642 L
507.814 327.316 L
508.937 327.541 L
510.059 328.11 L
511.181 328.159 L
512.303 327.125 L
513.425 326.869 L
514.547 327.307 L
515.669 328.214 L
516.792 328.097 L
517.914 327.966 L
519.036 327.972 L
520.158 328.053 L
521.28 328.166 LE
grestore
gsave
1.0 1.0 scale
newpath 0 0 moveto 576 0 lineto 576 432 lineto 0 432 lineto
closepath clip
1 1 1 C
74.88 253.387 187.093 179.974 74.88 179.974 T
74.88 253.387 187.093 253.387 187.093 179.974 T
0.5 W
0.15 0.15 0.15 C
97.3135 179.974 LS
97.3135 181.102 LE
97.3135 253.387 LS
97.3135 252.258 LE
119.758 179.974 LS
119.758 181.102 LE
119.758 253.387 LS
119.758 252.258 LE
142.203 179.974 LS
142.203 181.102 LE
142.203 253.387 LS
142.203 252.258 LE
164.648 179.974 LS
164.648 181.102 LE
164.648 253.387 LS
164.648 252.258 LE
187.093 179.974 LS
187.093 181.102 LE
187.093 253.387 LS
187.093 252.258 LE
gsave
0.14902 0.14902 0.14902 C
(2e+06) [6 5 6 6 10] 0 82.8135 164.431 10 /Helvetica SRX
grestore

gsave
0.14902 0.14902 0.14902 C
(4e+06) [6 5 6 6 10] 0 105.258 164.431 10 /Helvetica SRX
grestore

gsave
0.14902 0.14902 0.14902 C
(6e+06) [6 5 6 6 10] 0 127.703 164.431 10 /Helvetica SRX
grestore

gsave
0.14902 0.14902 0.14902 C
(8e+06) [6 5 6 6 10] 0 150.148 164.431 10 /Helvetica SRX
grestore

gsave
0.14902 0.14902 0.14902 C
(1e+07) [6 5 6 6 10] 0 172.593 164.431 10 /Helvetica SRX
grestore

74.88 179.974 LS
76.0042 179.974 LE
187.093 179.974 LS
185.968 179.974 LE
74.88 192.209 LS
76.0042 192.209 LE
187.093 192.209 LS
185.968 192.209 LE
74.88 204.445 LS
76.0042 204.445 LE
187.093 204.445 LS
185.968 204.445 LE
74.88 216.68 LS
76.0042 216.68 LE
187.093 216.68 LS
185.968 216.68 LE
74.88 228.916 LS
76.0042 228.916 LE
187.093 228.916 LS
185.968 228.916 LE
74.88 241.151 LS
76.0042 241.151 LE
187.093 241.151 LS
185.968 241.151 LE
74.88 253.387 LS
76.0042 253.387 LE
187.093 253.387 LS
185.968 253.387 LE
gsave
0.14902 0.14902 0.14902 C
(0.003) [6 3 6 6 10] 0 42.8705 175.974 10 /Helvetica SRX
grestore

gsave
0.14902 0.14902 0.14902 C
(0.004) [6 3 6 6 10] 0 42.8705 188.209 10 /Helvetica SRX
grestore

gsave
0.14902 0.14902 0.14902 C
(0.005) [6 3 6 6 10] 0 42.8705 200.445 10 /Helvetica SRX
grestore

gsave
0.14902 0.14902 0.14902 C
(0.006) [6 3 6 6 10] 0 42.8705 212.68 10 /Helvetica SRX
grestore

gsave
0.14902 0.14902 0.14902 C
(0.007) [6 3 6 6 10] 0 42.8705 224.916 10 /Helvetica SRX
grestore

gsave
0.14902 0.14902 0.14902 C
(0.008) [6 3 6 6 10] 0 42.8705 237.151 10 /Helvetica SRX
grestore

gsave
0.14902 0.14902 0.14902 C
(0.009) [6 3 6 6 10] 0 42.8705 249.387 10 /Helvetica SRX
grestore

2 LC
[16 0] 0 setdash
74.88 179.974 LS
187.093 179.974 LE
74.88 253.387 LS
187.093 253.387 LE
74.88 179.974 LS
74.88 253.387 LE
187.093 179.974 LS
187.093 253.387 LE
gsave
0 0 0 C
(SE_eps_AN_news0 \(Interval\)) [7 7 6 6 7 6 6 8 8 6 7 6 9 6 6 3 4 3 7 4 6 4 6 6 3 10] 0 55.4863 266.387 11 /Helvetica-Bold SRX
grestore

0 LC
1 LJ
[] 0 setdash
0 0 1 C
74.88 190.662 LS
76.0021 246.63 L
77.1242 232.463 L
78.2464 227.019 L
79.3685 217.272 L
80.4906 213.605 L
81.6127 214.522 L
82.7349 220.278 L
83.857 218.929 L
84.9791 216.583 L
86.1013 217.754 L
87.2234 218.914 L
88.3455 219.491 L
89.4676 220.308 L
90.5898 219.505 L
91.7119 218.457 L
92.834 218.318 L
93.9561 218.999 L
95.0783 220.137 L
96.2004 220.188 L
97.3225 221.153 L
98.4446 221.371 L
99.5668 220.203 L
100.689 220.082 L
101.811 219.722 L
102.933 218.318 L
104.055 217.549 L
105.177 217.616 L
106.3 219.117 L
107.422 219.276 L
108.544 219.571 L
109.666 221.989 L
110.788 221.674 L
111.91 222.303 L
113.032 222.234 L
114.154 221.471 L
115.277 221.801 L
116.399 223.004 L
117.521 222.047 L
118.643 221.138 L
119.765 221.094 L
120.887 220.796 L
122.009 219.844 L
123.131 220.824 L
124.254 219.885 L
125.376 219.03 L
126.498 217.751 L
127.62 217.726 L
128.742 217.395 L
129.864 217.772 L
130.986 218.832 L
132.108 219.137 L
133.231 219.536 L
134.353 219.274 L
135.475 218.736 L
136.597 219.003 L
137.719 219.476 L
138.841 219.85 L
139.963 220.363 L
141.085 219.874 L
142.208 220.199 L
143.33 219.962 L
144.452 219.785 L
145.574 220.045 L
146.696 220.109 L
147.818 220.215 L
148.94 220.427 L
150.062 220.618 L
151.185 220.859 L
152.307 220.789 L
153.429 220.263 L
154.551 219.989 L
155.673 219.932 L
156.795 219.675 L
157.917 219.675 L
159.039 219.385 L
160.162 219.523 L
161.284 219.329 L
162.406 219.105 L
163.528 218.889 L
164.65 219.004 L
165.772 219.152 L
166.894 219.117 L
168.016 219.204 L
169.139 219.081 L
170.261 218.733 L
171.383 218.8 L
172.505 218.924 L
173.627 218.993 L
174.749 219.033 L
175.871 218.712 L
176.993 218.572 L
178.116 218.501 L
179.238 218.627 L
180.36 218.425 L
181.482 218.379 L
182.604 218.321 L
183.726 218.275 L
184.848 218.225 L
185.97 218.117 L
187.093 218.13 LE
1 0 0 C
74.88 196.474 LS
76.0021 245.198 L
77.1242 224.893 L
78.2464 224.294 L
79.3685 216.731 L
80.4906 213.417 L
81.6127 214.652 L
82.7349 219.957 L
83.857 218.602 L
84.9791 216.489 L
86.1013 217.675 L
87.2234 218.881 L
88.3455 219.387 L
89.4676 219.063 L
90.5898 218.087 L
91.7119 216.819 L
92.834 217.707 L
93.9561 218.971 L
95.0783 219.869 L
96.2004 218.821 L
97.3225 219.486 L
98.4446 219.219 L
99.5668 219.465 L
100.689 219.644 L
101.811 219.55 L
102.933 218.274 L
104.055 217.532 L
105.177 217.472 L
106.3 218.913 L
107.422 218.992 L
108.544 219.294 L
109.666 221.071 L
110.788 221.07 L
111.91 221.722 L
113.032 221.94 L
114.154 221.427 L
115.277 221.791 L
116.399 223.016 L
117.521 222.013 L
118.643 221.054 L
119.765 221.072 L
120.887 220.788 L
122.009 219.729 L
123.131 220.748 L
124.254 219.85 L
125.376 218.95 L
126.498 217.503 L
127.62 217.48 L
128.742 217.136 L
129.864 217.457 L
130.986 218.446 L
132.108 218.912 L
133.231 219.185 L
134.353 218.751 L
135.475 218.149 L
136.597 218.319 L
137.719 218.784 L
138.841 219.414 L
139.963 219.991 L
141.085 219.483 L
142.208 219.762 L
143.33 219.635 L
144.452 219.441 L
145.574 219.887 L
146.696 219.981 L
147.818 220.028 L
148.94 220.23 L
150.062 220.507 L
151.185 220.842 L
152.307 220.754 L
153.429 220.245 L
154.551 219.952 L
155.673 219.909 L
156.795 219.654 L
157.917 219.674 L
159.039 219.416 L
160.162 219.521 L
161.284 219.338 L
162.406 219.11 L
163.528 218.821 L
164.65 218.876 L
165.772 219.135 L
166.894 219.086 L
168.016 219.157 L
169.139 218.892 L
170.261 218.557 L
171.383 218.704 L
172.505 218.81 L
173.627 218.889 L
174.749 218.926 L
175.871 218.542 L
176.993 218.418 L
178.116 218.347 L
179.238 218.36 L
180.36 218.14 L
181.482 218.167 L
182.604 218.137 L
183.726 218.131 L
184.848 218.133 L
185.97 218.053 L
187.093 218.086 LE
grestore
gsave
1.0 1.0 scale
newpath 0 0 moveto 576 0 lineto 576 432 lineto 0 432 lineto
closepath clip
1 1 1 C
241.974 253.387 354.186 179.974 241.974 179.974 T
241.974 253.387 354.186 253.387 354.186 179.974 T
0.5 W
0.15 0.15 0.15 C
264.407 179.974 LS
264.407 181.102 LE
264.407 253.387 LS
264.407 252.258 LE
286.852 179.974 LS
286.852 181.102 LE
286.852 253.387 LS
286.852 252.258 LE
309.297 179.974 LS
309.297 181.102 LE
309.297 253.387 LS
309.297 252.258 LE
331.742 179.974 LS
331.742 181.102 LE
331.742 253.387 LS
331.742 252.258 LE
354.186 179.974 LS
354.186 181.102 LE
354.186 253.387 LS
354.186 252.258 LE
gsave
0.14902 0.14902 0.14902 C
(2e+06) [6 5 6 6 10] 0 249.907 164.431 10 /Helvetica SRX
grestore

gsave
0.14902 0.14902 0.14902 C
(4e+06) [6 5 6 6 10] 0 272.352 164.431 10 /Helvetica SRX
grestore

gsave
0.14902 0.14902 0.14902 C
(6e+06) [6 5 6 6 10] 0 294.797 164.431 10 /Helvetica SRX
grestore

gsave
0.14902 0.14902 0.14902 C
(8e+06) [6 5 6 6 10] 0 317.242 164.431 10 /Helvetica SRX
grestore

gsave
0.14902 0.14902 0.14902 C
(1e+07) [6 5 6 6 10] 0 339.686 164.431 10 /Helvetica SRX
grestore

241.974 179.974 LS
243.098 179.974 LE
354.186 179.974 LS
353.062 179.974 LE
241.974 194.656 LS
243.098 194.656 LE
354.186 194.656 LS
353.062 194.656 LE
241.974 209.339 LS
243.098 209.339 LE
354.186 209.339 LS
353.062 209.339 LE
241.974 224.022 LS
243.098 224.022 LE
354.186 224.022 LS
353.062 224.022 LE
241.974 238.704 LS
243.098 238.704 LE
354.186 238.704 LS
353.062 238.704 LE
241.974 253.387 LS
243.098 253.387 LE
354.186 253.387 LS
353.062 253.387 LE
gsave
0.14902 0.14902 0.14902 C
(2e-06) [6 5 3 6 10] 0 210.964 175.974 10 /Helvetica SRX
grestore

gsave
0.14902 0.14902 0.14902 C
(4e-06) [6 5 3 6 10] 0 210.964 190.656 10 /Helvetica SRX
grestore

gsave
0.14902 0.14902 0.14902 C
(6e-06) [6 5 3 6 10] 0 210.964 205.339 10 /Helvetica SRX
grestore

gsave
0.14902 0.14902 0.14902 C
(8e-06) [6 5 3 6 10] 0 210.964 220.022 10 /Helvetica SRX
grestore

gsave
0.14902 0.14902 0.14902 C
(1e-05) [6 5 3 6 10] 0 210.964 234.704 10 /Helvetica SRX
grestore

gsave
0.14902 0.14902 0.14902 C
(1.2e-05) [6 3 6 5 3 6 10] 0 201.964 249.387 10 /Helvetica SRX
grestore

2 LC
[16 0] 0 setdash
241.974 179.974 LS
354.186 179.974 LE
241.974 253.387 LS
354.186 253.387 LE
241.974 179.974 LS
241.974 253.387 LE
354.186 179.974 LS
354.186 253.387 LE
gsave
0 0 0 C
(SE_eps_AN_news0 \(m2\)) [7 7 6 6 7 6 6 8 8 6 7 6 9 6 6 3 4 10 6 10] 0 234.08 266.387 11 /Helvetica-Bold SRX
grestore

0 LC
1 LJ
[] 0 setdash
0 0 1 C
241.974 186.541 LS
243.096 244.934 L
244.218 227.917 L
245.34 217.062 L
246.462 207.938 L
247.584 203.483 L
248.706 203.413 L
249.829 209.755 L
250.951 209.243 L
252.073 206.603 L
253.195 207.212 L
254.317 208.46 L
255.439 209.54 L
256.561 210.416 L
257.683 209.555 L
258.806 208.177 L
259.928 208.167 L
261.05 208.841 L
262.172 210.82 L
263.294 210.776 L
264.416 211.401 L
265.538 211.481 L
266.66 209.823 L
267.783 209.473 L
268.905 209.037 L
270.027 207.543 L
271.149 207.023 L
272.271 207.375 L
273.393 209.363 L
274.515 209.431 L
275.637 209.621 L
276.76 212.54 L
277.882 212.119 L
279.004 212.872 L
280.126 212.395 L
281.248 211.574 L
282.37 212.038 L
283.492 213.312 L
284.614 212.21 L
285.737 211.065 L
286.859 211.02 L
287.981 210.857 L
289.103 209.678 L
290.225 211.008 L
291.347 209.943 L
292.469 209.038 L
293.591 207.599 L
294.714 207.698 L
295.836 207.312 L
296.958 207.851 L
298.08 208.897 L
299.202 209.374 L
300.324 209.703 L
301.446 209.342 L
302.568 208.474 L
303.691 208.644 L
304.813 209.306 L
305.935 209.619 L
307.057 210.236 L
308.179 209.651 L
309.301 209.939 L
310.423 209.898 L
311.546 209.953 L
312.668 210.275 L
313.79 210.377 L
314.912 210.607 L
316.034 210.853 L
317.156 211.084 L
318.278 211.394 L
319.4 211.268 L
320.523 210.633 L
321.645 210.459 L
322.767 210.459 L
323.889 210.161 L
325.011 210.139 L
326.133 209.845 L
327.255 209.719 L
328.377 209.424 L
329.5 209.126 L
330.622 208.883 L
331.744 208.979 L
332.866 209.022 L
333.988 209.053 L
335.11 209.122 L
336.232 208.89 L
337.354 208.493 L
338.477 208.72 L
339.599 208.839 L
340.721 208.905 L
341.843 208.923 L
342.965 208.57 L
344.087 208.482 L
345.209 208.407 L
346.331 208.522 L
347.454 208.416 L
348.576 208.407 L
349.698 208.317 L
350.82 208.277 L
351.942 208.189 L
353.064 208.077 L
354.186 208.089 LE
1 0 0 C
241.974 184.913 LS
243.096 243.43 L
244.218 217.323 L
245.34 214.158 L
246.462 207.674 L
247.584 203.158 L
248.706 203.399 L
249.829 209.646 L
250.951 208.91 L
252.073 206.574 L
253.195 207.209 L
254.317 208.46 L
255.439 209.446 L
256.561 209.035 L
257.683 207.964 L
258.806 206.551 L
259.928 207.454 L
261.05 208.775 L
262.172 210.42 L
263.294 208.995 L
264.416 209.303 L
265.538 209.002 L
266.66 208.904 L
267.783 208.938 L
268.905 208.837 L
270.027 207.497 L
271.149 206.986 L
272.271 207.195 L
273.393 209.061 L
274.515 209.109 L
275.637 209.278 L
276.76 211.433 L
277.882 211.402 L
279.004 212.18 L
280.126 212.049 L
281.248 211.48 L
282.37 212.034 L
283.492 213.3 L
284.614 212.207 L
285.737 211.001 L
286.859 211.003 L
287.981 210.845 L
289.103 209.62 L
290.225 211.008 L
291.347 209.909 L
292.469 208.904 L
293.591 207.357 L
294.714 207.399 L
295.836 207.018 L
296.958 207.465 L
298.08 208.539 L
299.202 209.067 L
300.324 209.305 L
301.446 208.852 L
302.568 207.988 L
303.691 208.065 L
304.813 208.618 L
305.935 209.104 L
307.057 209.791 L
308.179 209.202 L
309.301 209.481 L
310.423 209.545 L
311.546 209.589 L
312.668 210.07 L
313.79 210.225 L
314.912 210.386 L
316.034 210.637 L
317.156 210.958 L
318.278 211.326 L
319.4 211.194 L
320.523 210.617 L
321.645 210.438 L
322.767 210.447 L
323.889 210.161 L
325.011 210.138 L
326.133 209.842 L
327.255 209.694 L
328.377 209.387 L
329.5 209.084 L
330.622 208.757 L
331.744 208.782 L
332.866 208.927 L
333.988 208.942 L
335.11 209.023 L
336.232 208.683 L
337.354 208.316 L
338.477 208.612 L
339.599 208.705 L
340.721 208.765 L
341.843 208.774 L
342.965 208.356 L
344.087 208.285 L
345.209 208.206 L
346.331 208.245 L
347.454 208.126 L
348.576 208.189 L
349.698 208.139 L
350.82 208.123 L
351.942 208.093 L
353.064 208.032 L
354.186 208.063 LE
grestore
gsave
1.0 1.0 scale
newpath 0 0 moveto 576 0 lineto 576 432 lineto 0 432 lineto
closepath clip
1 1 1 C
409.067 253.387 521.28 179.974 409.067 179.974 T
409.067 253.387 521.28 253.387 521.28 179.974 T
0.5 W
0.15 0.15 0.15 C
431.501 179.974 LS
431.501 181.102 LE
431.501 253.387 LS
431.501 252.258 LE
453.946 179.974 LS
453.946 181.102 LE
453.946 253.387 LS
453.946 252.258 LE
476.39 179.974 LS
476.39 181.102 LE
476.39 253.387 LS
476.39 252.258 LE
498.835 179.974 LS
498.835 181.102 LE
498.835 253.387 LS
498.835 252.258 LE
521.28 179.974 LS
521.28 181.102 LE
521.28 253.387 LS
521.28 252.258 LE
gsave
0.14902 0.14902 0.14902 C
(2e+06) [6 5 6 6 10] 0 417.001 164.431 10 /Helvetica SRX
grestore

gsave
0.14902 0.14902 0.14902 C
(4e+06) [6 5 6 6 10] 0 439.446 164.431 10 /Helvetica SRX
grestore

gsave
0.14902 0.14902 0.14902 C
(6e+06) [6 5 6 6 10] 0 461.89 164.431 10 /Helvetica SRX
grestore

gsave
0.14902 0.14902 0.14902 C
(8e+06) [6 5 6 6 10] 0 484.335 164.431 10 /Helvetica SRX
grestore

gsave
0.14902 0.14902 0.14902 C
(1e+07) [6 5 6 6 10] 0 506.78 164.431 10 /Helvetica SRX
grestore

409.067 179.974 LS
410.192 179.974 LE
521.28 179.974 LS
520.156 179.974 LE
409.067 190.461 LS
410.192 190.461 LE
521.28 190.461 LS
520.156 190.461 LE
409.067 200.949 LS
410.192 200.949 LE
521.28 200.949 LS
520.156 200.949 LE
409.067 211.436 LS
410.192 211.436 LE
521.28 211.436 LS
520.156 211.436 LE
409.067 221.924 LS
410.192 221.924 LE
521.28 221.924 LS
520.156 221.924 LE
409.067 232.412 LS
410.192 232.412 LE
521.28 232.412 LS
520.156 232.412 LE
409.067 242.899 LS
410.192 242.899 LE
521.28 242.899 LS
520.156 242.899 LE
409.067 253.387 LS
410.192 253.387 LE
521.28 253.387 LS
520.156 253.387 LE
gsave
0.14902 0.14902 0.14902 C
(0) [10] 0 398.058 175.974 10 /Helvetica SRX
grestore

gsave
0.14902 0.14902 0.14902 C
(1e-08) [6 5 3 6 10] 0 378.058 186.461 10 /Helvetica SRX
grestore

gsave
0.14902 0.14902 0.14902 C
(2e-08) [6 5 3 6 10] 0 378.058 196.949 10 /Helvetica SRX
grestore

gsave
0.14902 0.14902 0.14902 C
(3e-08) [6 5 3 6 10] 0 378.058 207.436 10 /Helvetica SRX
grestore

gsave
0.14902 0.14902 0.14902 C
(4e-08) [6 5 3 6 10] 0 378.058 217.924 10 /Helvetica SRX
grestore

gsave
0.14902 0.14902 0.14902 C
(5e-08) [6 5 3 6 10] 0 378.058 228.412 10 /Helvetica SRX
grestore

gsave
0.14902 0.14902 0.14902 C
(6e-08) [6 5 3 6 10] 0 378.058 238.899 10 /Helvetica SRX
grestore

gsave
0.14902 0.14902 0.14902 C
(7e-08) [6 5 3 6 10] 0 378.058 249.387 10 /Helvetica SRX
grestore

2 LC
[16 0] 0 setdash
409.067 179.974 LS
521.28 179.974 LE
409.067 253.387 LS
521.28 253.387 LE
409.067 179.974 LS
409.067 253.387 LE
521.28 179.974 LS
521.28 253.387 LE
gsave
0 0 0 C
(SE_eps_AN_news0 \(m3\)) [7 7 6 6 7 6 6 8 8 6 7 6 9 6 6 3 4 10 6 10] 0 401.174 266.387 11 /Helvetica-Bold SRX
grestore

0 LC
1 LJ
[] 0 setdash
0 0 1 C
409.067 188.855 LS
410.19 241.074 L
411.312 223.246 L
412.434 211.735 L
413.556 204.499 L
414.678 200.849 L
415.8 200.279 L
416.922 205.801 L
418.044 205.718 L
419.167 203.379 L
420.289 203.307 L
421.411 204.245 L
422.533 205.406 L
423.655 206.162 L
424.777 205.551 L
425.899 204.342 L
427.021 204.382 L
428.144 204.807 L
429.266 206.957 L
430.388 206.8 L
431.51 207.036 L
432.632 206.884 L
433.754 205.323 L
434.876 204.854 L
435.998 204.579 L
437.121 203.435 L
438.243 203.215 L
439.365 203.851 L
440.487 205.715 L
441.609 205.672 L
442.731 205.751 L
443.853 208.428 L
444.975 208.105 L
446.098 208.683 L
447.22 207.954 L
448.342 207.28 L
449.464 207.705 L
450.586 208.789 L
451.708 207.763 L
452.83 206.667 L
453.952 206.65 L
455.075 206.612 L
456.197 205.533 L
457.319 206.843 L
458.441 205.891 L
459.563 205.142 L
460.685 203.904 L
461.807 204.084 L
462.929 203.76 L
464.052 204.367 L
465.174 205.147 L
466.296 205.562 L
467.418 205.766 L
468.54 205.482 L
469.662 204.57 L
470.784 204.625 L
471.906 205.232 L
473.029 205.435 L
474.151 205.973 L
475.273 205.465 L
476.395 205.697 L
477.517 205.891 L
478.639 206.078 L
479.761 206.383 L
480.883 206.469 L
482.006 206.778 L
483.128 207.005 L
484.25 207.213 L
485.372 207.463 L
486.494 207.356 L
487.616 206.777 L
488.738 206.696 L
489.86 206.727 L
490.983 206.458 L
492.105 206.408 L
493.227 206.163 L
494.349 205.832 L
495.471 205.531 L
496.593 205.243 L
497.715 204.986 L
498.837 205.07 L
499.96 205.005 L
501.082 205.063 L
502.204 205.068 L
503.326 204.831 L
504.448 204.509 L
505.57 204.776 L
506.692 204.881 L
507.814 204.933 L
508.937 204.909 L
510.059 204.62 L
511.181 204.604 L
512.303 204.511 L
513.425 204.6 L
514.547 204.634 L
515.669 204.648 L
516.792 204.588 L
517.914 204.542 L
519.036 204.453 L
520.158 204.373 L
521.28 204.4 LE
1 0 0 C
409.067 187.178 LS
410.19 239.009 L
411.312 213.162 L
412.434 209.271 L
413.556 204.416 L
414.678 200.504 L
415.8 200.271 L
416.922 205.695 L
418.044 205.39 L
419.167 203.347 L
420.289 203.308 L
421.411 204.245 L
422.533 205.344 L
423.655 205.078 L
424.777 204.209 L
425.899 202.99 L
427.021 203.787 L
428.144 204.766 L
429.266 206.545 L
430.388 205.215 L
431.51 205.171 L
432.632 204.75 L
433.754 204.59 L
434.876 204.444 L
435.998 204.418 L
437.121 203.405 L
438.243 203.187 L
439.365 203.684 L
440.487 205.437 L
441.609 205.398 L
442.731 205.453 L
443.853 207.404 L
444.975 207.399 L
446.098 208.045 L
447.22 207.644 L
448.342 207.2 L
449.464 207.702 L
450.586 208.78 L
451.708 207.757 L
452.83 206.593 L
453.952 206.625 L
455.075 206.591 L
456.197 205.469 L
457.319 206.843 L
458.441 205.856 L
459.563 205.022 L
460.685 203.677 L
461.807 203.813 L
462.929 203.5 L
464.052 204.014 L
465.174 204.819 L
466.296 205.276 L
467.418 205.411 L
468.54 205.052 L
469.662 204.18 L
470.784 204.164 L
471.906 204.652 L
473.029 204.981 L
474.151 205.569 L
475.273 205.054 L
476.395 205.278 L
477.517 205.57 L
478.639 205.762 L
479.761 206.217 L
480.883 206.344 L
482.006 206.577 L
483.128 206.798 L
484.25 207.09 L
485.372 207.385 L
486.494 207.274 L
487.616 206.755 L
488.738 206.672 L
489.86 206.71 L
490.983 206.457 L
492.105 206.407 L
493.227 206.157 L
494.349 205.803 L
495.471 205.493 L
496.593 205.198 L
497.715 204.856 L
498.837 204.868 L
499.96 204.908 L
501.082 204.952 L
502.204 204.972 L
503.326 204.635 L
504.448 204.34 L
505.57 204.677 L
506.692 204.761 L
507.814 204.805 L
508.937 204.776 L
510.059 204.431 L
511.181 204.434 L
512.303 204.344 L
513.425 204.376 L
514.547 204.392 L
515.669 204.466 L
516.792 204.43 L
517.914 204.401 L
519.036 204.36 L
520.158 204.328 L
521.28 204.374 LE
grestore
gsave
1.0 1.0 scale
newpath 0 0 moveto 576 0 lineto 576 432 lineto 0 432 lineto
closepath clip
1 1 1 C
74.88 120.933 187.093 47.52 74.88 47.52 T
74.88 120.933 187.093 120.933 187.093 47.52 T
0.5 W
0.15 0.15 0.15 C
97.3135 47.52 LS
97.3135 48.6485 LE
97.3135 120.933 LS
97.3135 119.805 LE
119.758 47.52 LS
119.758 48.6485 LE
119.758 120.933 LS
119.758 119.805 LE
142.203 47.52 LS
142.203 48.6485 LE
142.203 120.933 LS
142.203 119.805 LE
164.648 47.52 LS
164.648 48.6485 LE
164.648 120.933 LS
164.648 119.805 LE
187.093 47.52 LS
187.093 48.6485 LE
187.093 120.933 LS
187.093 119.805 LE
gsave
0.14902 0.14902 0.14902 C
(2e+06) [6 5 6 6 10] 0 82.8135 31.9776 10 /Helvetica SRX
grestore

gsave
0.14902 0.14902 0.14902 C
(4e+06) [6 5 6 6 10] 0 105.258 31.9776 10 /Helvetica SRX
grestore

gsave
0.14902 0.14902 0.14902 C
(6e+06) [6 5 6 6 10] 0 127.703 31.9776 10 /Helvetica SRX
grestore

gsave
0.14902 0.14902 0.14902 C
(8e+06) [6 5 6 6 10] 0 150.148 31.9776 10 /Helvetica SRX
grestore

gsave
0.14902 0.14902 0.14902 C
(1e+07) [6 5 6 6 10] 0 172.593 31.9776 10 /Helvetica SRX
grestore

74.88 47.52 LS
76.0042 47.52 LE
187.093 47.52 LS
185.968 47.52 LE
74.88 62.2026 LS
76.0042 62.2026 LE
187.093 62.2026 LS
185.968 62.2026 LE
74.88 76.8852 LS
76.0042 76.8852 LE
187.093 76.8852 LS
185.968 76.8852 LE
74.88 91.5679 LS
76.0042 91.5679 LE
187.093 91.5679 LS
185.968 91.5679 LE
74.88 106.25 LS
76.0042 106.25 LE
187.093 106.25 LS
185.968 106.25 LE
74.88 120.933 LS
76.0042 120.933 LE
187.093 120.933 LS
185.968 120.933 LE
gsave
0.14902 0.14902 0.14902 C
(0) [10] 0 63.8705 43.52 10 /Helvetica SRX
grestore

gsave
0.14902 0.14902 0.14902 C
(0.002) [6 3 6 6 10] 0 42.8705 58.2026 10 /Helvetica SRX
grestore

gsave
0.14902 0.14902 0.14902 C
(0.004) [6 3 6 6 10] 0 42.8705 72.8853 10 /Helvetica SRX
grestore

gsave
0.14902 0.14902 0.14902 C
(0.006) [6 3 6 6 10] 0 42.8705 87.5679 10 /Helvetica SRX
grestore

gsave
0.14902 0.14902 0.14902 C
(0.008) [6 3 6 6 10] 0 42.8705 102.251 10 /Helvetica SRX
grestore

gsave
0.14902 0.14902 0.14902 C
(0.01) [6 3 6 10] 0 48.8705 116.933 10 /Helvetica SRX
grestore

2 LC
[16 0] 0 setdash
74.88 47.52 LS
187.093 47.52 LE
74.88 120.933 LS
187.093 120.933 LE
74.88 47.52 LS
74.88 120.933 LE
187.093 47.52 LS
187.093 120.933 LE
gsave
0 0 0 C
(SE_eps_AN_news2 \(Interval\)) [7 7 6 6 7 6 6 8 8 6 7 6 9 6 6 3 4 3 7 4 6 4 6 6 3 10] 0 55.4863 133.933 11 /Helvetica-Bold SRX
grestore

0 LC
1 LJ
[] 0 setdash
0 0 1 C
74.88 59.7454 LS
76.0021 111.192 L
77.1242 99.4086 L
78.2464 88.916 L
79.3685 92.5699 L
80.4906 90.0351 L
81.6127 80.6094 L
82.7349 88.8906 L
83.857 86.9024 L
84.9791 89.7555 L
86.1013 87.4365 L
87.2234 82.8647 L
88.3455 88.1925 L
89.4676 93.4626 L
90.5898 93.061 L
91.7119 98.2585 L
92.834 101.116 L
93.9561 95.2852 L
95.0783 97.5778 L
96.2004 90.904 L
97.3225 92.6804 L
98.4446 90.2713 L
99.5668 91.8736 L
100.689 89.5991 L
101.811 91.178 L
102.933 86.8408 L
104.055 88.2936 L
105.177 87.8015 L
106.3 92.0532 L
107.422 92.1094 L
108.544 93.4841 L
109.666 96.5512 L
110.788 99.141 L
111.91 103.836 L
113.032 103.687 L
114.154 102.526 L
115.277 102.693 L
116.399 101.445 L
117.521 99.6128 L
118.643 97.4526 L
119.765 96.4243 L
120.887 95.9178 L
122.009 94.6883 L
123.131 97.2805 L
124.254 95.745 L
125.376 95.7208 L
126.498 93.6827 L
127.62 92.573 L
128.742 91.841 L
129.864 95.1828 L
130.986 101.283 L
132.108 101.854 L
133.231 102.621 L
134.353 100.595 L
135.475 98.248 L
136.597 98.7207 L
137.719 98.4263 L
138.841 98.8559 L
139.963 97.6289 L
141.085 99.65 L
142.208 98.9998 L
143.33 98.1456 L
144.452 96.217 L
145.574 94.6943 L
146.696 94.3031 L
147.818 93.9289 L
148.94 94.7791 L
150.062 95.7349 L
151.185 95.4441 L
152.307 94.7914 L
153.429 94.0669 L
154.551 92.7784 L
155.673 92.7604 L
156.795 93.1657 L
157.917 92.508 L
159.039 91.6755 L
160.162 91.3797 L
161.284 91.4199 L
162.406 91.0918 L
163.528 88.8983 L
164.65 88.545 L
165.772 89.8993 L
166.894 90.5947 L
168.016 89.358 L
169.139 91.0746 L
170.261 91.1778 L
171.383 91.9004 L
172.505 91.3321 L
173.627 90.7956 L
174.749 90.5204 L
175.871 91.0346 L
176.993 90.8665 L
178.116 91.9477 L
179.238 91.4332 L
180.36 92.0499 L
181.482 91.8529 L
182.604 90.9401 L
183.726 90.0408 L
184.848 90.0992 L
185.97 90.5538 L
187.093 91.0055 LE
1 0 0 C
74.88 53.0036 LS
76.0021 78.0494 L
77.1242 76.6712 L
78.2464 80.6289 L
79.3685 82.3659 L
80.4906 89.7053 L
81.6127 77.7086 L
82.7349 83.0857 L
83.857 86.062 L
84.9791 88.5072 L
86.1013 84.3965 L
87.2234 77.8244 L
88.3455 79.148 L
89.4676 88.9012 L
90.5898 89.4951 L
91.7119 92.385 L
92.834 89.2369 L
93.9561 85.3876 L
95.0783 93.6715 L
96.2004 90.8401 L
97.3225 92.8961 L
98.4446 89.4304 L
99.5668 91.9804 L
100.689 89.6737 L
101.811 90.2007 L
102.933 84.7841 L
104.055 87.0296 L
105.177 87.7786 L
106.3 92.3282 L
107.422 92.1139 L
108.544 92.9468 L
109.666 94.0885 L
110.788 97.567 L
111.91 103.651 L
113.032 102.99 L
114.154 101.374 L
115.277 99.9416 L
116.399 98.6458 L
117.521 98.5995 L
118.643 96.1394 L
119.765 95.3634 L
120.887 94.8505 L
122.009 94.3638 L
123.131 97.3205 L
124.254 94.6594 L
125.376 94.0975 L
126.498 92.6677 L
127.62 92.6828 L
128.742 92.1601 L
129.864 95.535 L
130.986 98.9067 L
132.108 98.0756 L
133.231 98.676 L
134.353 97.4683 L
135.475 95.8748 L
136.597 95.3489 L
137.719 94.5101 L
138.841 93.7089 L
139.963 92.4304 L
141.085 94.0658 L
142.208 95.5204 L
143.33 96.0669 L
144.452 95.5475 L
145.574 94.7826 L
146.696 94.4833 L
147.818 93.9961 L
148.94 94.7712 L
150.062 95.7293 L
151.185 95.2854 L
152.307 94.4723 L
153.429 93.4937 L
154.551 92.4431 L
155.673 92.1903 L
156.795 91.6908 L
157.917 91.168 L
159.039 90.5136 L
160.162 90.1709 L
161.284 89.9393 L
162.406 89.6249 L
163.528 88.1634 L
164.65 87.8518 L
165.772 88.736 L
166.894 89.9648 L
168.016 88.7621 L
169.139 90.9181 L
170.261 91.111 L
171.383 91.7903 L
172.505 91.1978 L
173.627 90.7764 L
174.749 90.5004 L
175.871 91.0521 L
176.993 90.8787 L
178.116 91.9071 L
179.238 91.5127 L
180.36 92.1749 L
181.482 92.0091 L
182.604 91.01 L
183.726 89.8419 L
184.848 90.0112 L
185.97 90.5251 L
187.093 90.9459 LE
grestore
gsave
1.0 1.0 scale
newpath 0 0 moveto 576 0 lineto 576 432 lineto 0 432 lineto
closepath clip
1 1 1 C
241.974 120.933 354.186 47.52 241.974 47.52 T
241.974 120.933 354.186 120.933 354.186 47.52 T
0.5 W
0.15 0.15 0.15 C
264.407 47.52 LS
264.407 48.6485 LE
264.407 120.933 LS
264.407 119.805 LE
286.852 47.52 LS
286.852 48.6485 LE
286.852 120.933 LS
286.852 119.805 LE
309.297 47.52 LS
309.297 48.6485 LE
309.297 120.933 LS
309.297 119.805 LE
331.742 47.52 LS
331.742 48.6485 LE
331.742 120.933 LS
331.742 119.805 LE
354.186 47.52 LS
354.186 48.6485 LE
354.186 120.933 LS
354.186 119.805 LE
gsave
0.14902 0.14902 0.14902 C
(2e+06) [6 5 6 6 10] 0 249.907 31.9776 10 /Helvetica SRX
grestore

gsave
0.14902 0.14902 0.14902 C
(4e+06) [6 5 6 6 10] 0 272.352 31.9776 10 /Helvetica SRX
grestore

gsave
0.14902 0.14902 0.14902 C
(6e+06) [6 5 6 6 10] 0 294.797 31.9776 10 /Helvetica SRX
grestore

gsave
0.14902 0.14902 0.14902 C
(8e+06) [6 5 6 6 10] 0 317.242 31.9776 10 /Helvetica SRX
grestore

gsave
0.14902 0.14902 0.14902 C
(1e+07) [6 5 6 6 10] 0 339.686 31.9776 10 /Helvetica SRX
grestore

241.974 47.52 LS
243.098 47.52 LE
354.186 47.52 LS
353.062 47.52 LE
241.974 59.7555 LS
243.098 59.7555 LE
354.186 59.7555 LS
353.062 59.7555 LE
241.974 71.991 LS
243.098 71.991 LE
354.186 71.991 LS
353.062 71.991 LE
241.974 84.2266 LS
243.098 84.2266 LE
354.186 84.2266 LS
353.062 84.2266 LE
241.974 96.4621 LS
243.098 96.4621 LE
354.186 96.4621 LS
353.062 96.4621 LE
241.974 108.698 LS
243.098 108.698 LE
354.186 108.698 LS
353.062 108.698 LE
241.974 120.933 LS
243.098 120.933 LE
354.186 120.933 LS
353.062 120.933 LE
gsave
0.14902 0.14902 0.14902 C
(0) [10] 0 230.964 43.52 10 /Helvetica SRX
grestore

gsave
0.14902 0.14902 0.14902 C
(2e-06) [6 5 3 6 10] 0 210.964 55.7555 10 /Helvetica SRX
grestore

gsave
0.14902 0.14902 0.14902 C
(4e-06) [6 5 3 6 10] 0 210.964 67.991 10 /Helvetica SRX
grestore

gsave
0.14902 0.14902 0.14902 C
(6e-06) [6 5 3 6 10] 0 210.964 80.2266 10 /Helvetica SRX
grestore

gsave
0.14902 0.14902 0.14902 C
(8e-06) [6 5 3 6 10] 0 210.964 92.4621 10 /Helvetica SRX
grestore

gsave
0.14902 0.14902 0.14902 C
(1e-05) [6 5 3 6 10] 0 210.964 104.698 10 /Helvetica SRX
grestore

gsave
0.14902 0.14902 0.14902 C
(1.2e-05) [6 3 6 5 3 6 10] 0 201.964 116.933 10 /Helvetica SRX
grestore

2 LC
[16 0] 0 setdash
241.974 47.52 LS
354.186 47.52 LE
241.974 120.933 LS
354.186 120.933 LE
241.974 47.52 LS
241.974 120.933 LE
354.186 47.52 LS
354.186 120.933 LE
gsave
0 0 0 C
(SE_eps_AN_news2 \(m2\)) [7 7 6 6 7 6 6 8 8 6 7 6 9 6 6 3 4 10 6 10] 0 234.08 133.933 11 /Helvetica-Bold SRX
grestore

0 LC
1 LJ
[] 0 setdash
0 0 1 C
241.974 49.7102 LS
243.096 113.481 L
244.218 90.6841 L
245.34 77.1193 L
246.462 82.366 L
247.584 78.7822 L
248.706 66.8165 L
249.829 74.0497 L
250.951 72.1293 L
252.073 74.3001 L
253.195 73.205 L
254.317 68.5184 L
255.439 76.1661 L
256.561 83.7146 L
257.683 83.7487 L
258.806 90.1128 L
259.928 93.6763 L
261.05 85.1889 L
262.172 89.4828 L
263.294 78.5206 L
264.416 80.831 L
265.538 77.1387 L
266.66 79.1874 L
267.783 76.4083 L
268.905 78.1937 L
270.027 72.81 L
271.149 74.6031 L
272.271 73.704 L
273.393 80.0415 L
274.515 80.4625 L
275.637 82.6809 L
276.76 90.4958 L
277.882 96.2859 L
279.004 103.291 L
280.126 103.109 L
281.248 101.032 L
282.37 101.162 L
283.492 98.2897 L
284.614 92.0789 L
285.737 88.7494 L
286.859 87.2064 L
287.981 86.3162 L
289.103 84.5595 L
290.225 90.0098 L
291.347 87.3541 L
292.469 87.5822 L
293.591 84.7144 L
294.714 83.8464 L
295.836 82.5744 L
296.958 89.1352 L
298.08 96.0029 L
299.202 96.7822 L
300.324 98.2291 L
301.446 94.2201 L
302.568 90.7018 L
303.691 91.217 L
304.813 92.039 L
305.935 92.4201 L
307.057 90.4501 L
308.179 93.349 L
309.301 92.574 L
310.423 90.7499 L
311.546 87.4855 L
312.668 85.613 L
313.79 85.453 L
314.912 84.8252 L
316.034 85.7489 L
317.156 87.3283 L
318.278 86.9511 L
319.4 86.4029 L
320.523 84.1281 L
321.645 81.7152 L
322.767 81.5244 L
323.889 81.8672 L
325.011 81.0206 L
326.133 79.3632 L
327.255 78.6659 L
328.377 78.8556 L
329.5 78.4991 L
330.622 75.7481 L
331.744 75.4391 L
332.866 76.9997 L
333.988 78.1473 L
335.11 76.6145 L
336.232 79.5247 L
337.354 79.843 L
338.477 81.1028 L
339.599 79.9951 L
340.721 79.3947 L
341.843 79.1407 L
342.965 79.9463 L
344.087 79.8164 L
345.209 81.3114 L
346.331 80.881 L
347.454 82.1642 L
348.576 81.8186 L
349.698 80.5813 L
350.82 79.5261 L
351.942 79.6009 L
353.064 80.0833 L
354.186 80.4402 LE
1 0 0 C
241.974 48.018 LS
243.096 65.0474 L
244.218 61.214 L
245.34 66.8284 L
246.462 67.4649 L
247.584 76.4067 L
248.706 65.3344 L
249.829 69.6868 L
250.951 71.4137 L
252.073 73.8339 L
253.195 70.8717 L
254.317 63.3345 L
255.439 63.9416 L
256.561 76.2191 L
257.683 77.6255 L
258.806 80.4521 L
259.928 75.7423 L
261.05 71.585 L
262.172 81.01 L
263.294 77.6532 L
264.416 80.6042 L
265.538 75.8285 L
266.66 79.1251 L
267.783 76.4082 L
268.905 77.458 L
270.027 70.4123 L
271.149 73.3256 L
272.271 73.6926 L
273.393 80.0411 L
274.515 80.1227 L
275.637 82.2558 L
276.76 87.5119 L
277.882 94.1185 L
279.004 103.011 L
280.126 102.864 L
281.248 99.8303 L
282.37 97.8924 L
283.492 95.9449 L
284.614 90.6999 L
285.737 86.7217 L
286.859 85.715 L
287.981 84.7915 L
289.103 84.0569 L
290.225 89.9631 L
291.347 86.5966 L
292.469 85.8735 L
293.591 83.24 L
294.714 83.3095 L
295.836 82.2871 L
296.958 88.4411 L
298.08 93.9002 L
299.202 92.8313 L
300.324 93.3611 L
301.446 90.8891 L
302.568 87.3925 L
303.691 86.6453 L
304.813 86.2215 L
305.935 85.4896 L
307.057 83.3812 L
308.179 86.4678 L
309.301 88.2693 L
310.423 88.3047 L
311.546 86.6122 L
312.668 85.5991 L
313.79 85.4355 L
314.912 84.8247 L
316.034 85.7006 L
317.156 87.2975 L
318.278 86.9481 L
319.4 86.3722 L
320.523 83.5483 L
321.645 80.8037 L
322.767 80.3708 L
323.889 79.9766 L
325.011 79.2669 L
326.133 78.0706 L
327.255 77.4199 L
328.377 77.5063 L
329.5 77.0078 L
330.622 75.0459 L
331.744 74.8069 L
332.866 75.828 L
333.988 77.464 L
335.11 75.8116 L
336.232 79.2053 L
337.354 79.5881 L
338.477 80.9396 L
339.599 79.8707 L
340.721 79.3533 L
341.843 79.1078 L
342.965 79.9361 L
344.087 79.8097 L
345.209 81.275 L
346.331 80.8771 L
347.454 82.1278 L
348.576 81.6991 L
349.698 80.3491 L
350.82 79.0593 L
351.942 79.1891 L
353.064 79.604 L
354.186 79.9289 LE
grestore
gsave
1.0 1.0 scale
newpath 0 0 moveto 576 0 lineto 576 432 lineto 0 432 lineto
closepath clip
1 1 1 C
409.067 120.933 521.28 47.52 409.067 47.52 T
409.067 120.933 521.28 120.933 521.28 47.52 T
0.5 W
0.15 0.15 0.15 C
431.501 47.52 LS
431.501 48.6485 LE
431.501 120.933 LS
431.501 119.805 LE
453.946 47.52 LS
453.946 48.6485 LE
453.946 120.933 LS
453.946 119.805 LE
476.39 47.52 LS
476.39 48.6485 LE
476.39 120.933 LS
476.39 119.805 LE
498.835 47.52 LS
498.835 48.6485 LE
498.835 120.933 LS
498.835 119.805 LE
521.28 47.52 LS
521.28 48.6485 LE
521.28 120.933 LS
521.28 119.805 LE
gsave
0.14902 0.14902 0.14902 C
(2e+06) [6 5 6 6 10] 0 417.001 31.9776 10 /Helvetica SRX
grestore

gsave
0.14902 0.14902 0.14902 C
(4e+06) [6 5 6 6 10] 0 439.446 31.9776 10 /Helvetica SRX
grestore

gsave
0.14902 0.14902 0.14902 C
(6e+06) [6 5 6 6 10] 0 461.89 31.9776 10 /Helvetica SRX
grestore

gsave
0.14902 0.14902 0.14902 C
(8e+06) [6 5 6 6 10] 0 484.335 31.9776 10 /Helvetica SRX
grestore

gsave
0.14902 0.14902 0.14902 C
(1e+07) [6 5 6 6 10] 0 506.78 31.9776 10 /Helvetica SRX
grestore

409.067 47.52 LS
410.192 47.52 LE
521.28 47.52 LS
520.156 47.52 LE
409.067 62.2026 LS
410.192 62.2026 LE
521.28 62.2026 LS
520.156 62.2026 LE
409.067 76.8852 LS
410.192 76.8852 LE
521.28 76.8852 LS
520.156 76.8852 LE
409.067 91.5679 LS
410.192 91.5679 LE
521.28 91.5679 LS
520.156 91.5679 LE
409.067 106.25 LS
410.192 106.25 LE
521.28 106.25 LS
520.156 106.25 LE
409.067 120.933 LS
410.192 120.933 LE
521.28 120.933 LS
520.156 120.933 LE
gsave
0.14902 0.14902 0.14902 C
(0) [10] 0 398.058 43.52 10 /Helvetica SRX
grestore

gsave
0.14902 0.14902 0.14902 C
(1e-08) [6 5 3 6 10] 0 378.058 58.2026 10 /Helvetica SRX
grestore

gsave
0.14902 0.14902 0.14902 C
(2e-08) [6 5 3 6 10] 0 378.058 72.8853 10 /Helvetica SRX
grestore

gsave
0.14902 0.14902 0.14902 C
(3e-08) [6 5 3 6 10] 0 378.058 87.5679 10 /Helvetica SRX
grestore

gsave
0.14902 0.14902 0.14902 C
(4e-08) [6 5 3 6 10] 0 378.058 102.251 10 /Helvetica SRX
grestore

gsave
0.14902 0.14902 0.14902 C
(5e-08) [6 5 3 6 10] 0 378.058 116.933 10 /Helvetica SRX
grestore

2 LC
[16 0] 0 setdash
409.067 47.52 LS
521.28 47.52 LE
409.067 120.933 LS
521.28 120.933 LE
409.067 47.52 LS
409.067 120.933 LE
521.28 47.52 LS
521.28 120.933 LE
gsave
0 0 0 C
(SE_eps_AN_news2 \(m3\)) [7 7 6 6 7 6 6 8 8 6 7 6 9 6 6 3 4 10 6 10] 0 401.174 133.933 11 /Helvetica-Bold SRX
grestore

0 LC
1 LJ
[] 0 setdash
0 0 1 C
409.067 47.9078 LS
410.19 114.801 L
411.312 83.3948 L
412.434 71.0311 L
413.556 76.8043 L
414.678 72.4203 L
415.8 60.9796 L
416.922 66.9543 L
418.044 65.2097 L
419.167 67.2526 L
420.289 66.1994 L
421.411 61.7713 L
422.533 70.3895 L
423.655 80.9728 L
424.777 82.9717 L
425.899 91.9069 L
427.021 94.7967 L
428.144 81.2233 L
429.266 86.2676 L
430.388 71.8783 L
431.51 74.7619 L
432.632 71.467 L
433.754 73.4403 L
434.876 70.427 L
435.998 72.0922 L
437.121 66.3194 L
438.243 68.1678 L
439.365 67.0344 L
440.487 76.3042 L
441.609 76.5766 L
442.731 79.6165 L
443.853 93.7508 L
444.975 102.721 L
446.098 112.643 L
447.22 112.266 L
448.342 109.208 L
449.464 108.822 L
450.586 104.364 L
451.708 90.7991 L
452.83 86.1142 L
453.952 83.5935 L
455.075 82.1561 L
456.197 79.9488 L
457.319 88.6406 L
458.441 85.7132 L
459.563 86.4439 L
460.685 83.8932 L
461.807 82.938 L
462.929 81.7793 L
464.052 93.507 L
465.174 101.591 L
466.296 100.539 L
467.418 101.883 L
468.54 96.936 L
469.662 92.4173 L
470.784 92.1063 L
471.906 94.1033 L
473.029 94.7439 L
474.151 91.8402 L
475.273 96.1963 L
476.395 94.401 L
477.517 91.9058 L
478.639 86.6455 L
479.761 84.0141 L
480.883 83.7911 L
482.006 82.7759 L
483.128 83.9573 L
484.25 86.2602 L
485.372 86.0646 L
486.494 85.8148 L
487.616 81.4829 L
488.738 77.8156 L
489.86 77.6907 L
490.983 77.8739 L
492.105 76.9378 L
493.227 74.6004 L
494.349 73.6689 L
495.471 73.969 L
496.593 73.3686 L
497.715 70.1486 L
498.837 69.7869 L
499.96 71.4388 L
501.082 72.7262 L
502.204 70.8765 L
503.326 74.772 L
504.448 75.1588 L
505.57 77.2257 L
506.692 75.6991 L
507.814 75.0221 L
508.937 74.7371 L
510.059 75.6965 L
511.181 75.7786 L
512.303 77.5842 L
513.425 77.2088 L
514.547 78.9891 L
515.669 78.7 L
516.792 77.3275 L
517.914 76.3359 L
519.036 76.3196 L
520.158 76.8296 L
521.28 77.0369 LE
1 0 0 C
409.067 47.5726 LS
410.19 58.4598 L
411.312 54.7295 L
412.434 60.3072 L
413.556 60.9415 L
414.678 69.6543 L
415.8 60.6323 L
416.922 64.5214 L
418.044 63.9099 L
419.167 66.6828 L
420.289 64.534 L
421.411 57.1059 L
422.533 57.6582 L
423.655 70.4001 L
424.777 72.0711 L
425.899 75.0311 L
427.021 69.2332 L
428.144 65.207 L
429.266 75.6855 L
430.388 70.4246 L
431.51 74.7392 L
432.632 70.623 L
433.754 73.4846 L
434.876 70.4284 L
435.998 71.323 L
437.121 63.2857 L
438.243 66.6246 L
439.365 66.9954 L
440.487 76.2866 L
441.609 76.7828 L
442.731 79.8943 L
443.853 89.9052 L
444.975 100.672 L
446.098 112.523 L
447.22 112.142 L
448.342 108.997 L
449.464 107.353 L
450.586 103.671 L
451.708 89.4336 L
452.83 83.3041 L
453.952 81.4161 L
455.075 80.0118 L
456.197 79.0851 L
457.319 88.5728 L
458.441 84.6609 L
459.563 84.0277 L
460.685 81.5049 L
461.807 81.7852 L
462.929 81.0658 L
464.052 91.2484 L
465.174 96.1252 L
466.296 92.6127 L
467.418 93.0769 L
468.54 90.3229 L
469.662 85.8279 L
470.784 84.3473 L
471.906 84.5862 L
473.029 83.6425 L
474.151 80.9344 L
475.273 85.6698 L
476.395 87.857 L
477.517 87.9647 L
478.639 85.2156 L
479.761 83.9374 L
480.883 83.8499 L
482.006 82.7689 L
483.128 83.8664 L
484.25 86.1826 L
485.372 86.0443 L
486.494 85.8089 L
487.616 80.5932 L
488.738 76.1416 L
489.86 75.7197 L
490.983 74.7724 L
492.105 74.0285 L
493.227 72.6044 L
494.349 71.7768 L
495.471 71.9885 L
496.593 71.3796 L
497.715 69.2514 L
498.837 68.9736 L
499.96 69.9421 L
501.082 71.9217 L
502.204 69.9019 L
503.326 74.5204 L
504.448 74.9873 L
505.57 77.189 L
506.692 75.7153 L
507.814 75.0779 L
508.937 74.7862 L
510.059 75.7278 L
511.181 75.8106 L
512.303 77.632 L
513.425 77.2422 L
514.547 78.8162 L
515.669 78.3418 L
516.792 76.7952 L
517.914 75.4503 L
519.036 75.5234 L
520.158 75.9167 L
521.28 76.0663 LE
grestore
grestore
showpage
cleartomark
%%PageTrailer
%%Trailer
end
%%EOF
