%!PS-Adobe-3.0 EPSF-3.0
%%Title: gl2ps_renderer figure
%%Creator: GL2PS 1.4.2, (C) 1999-2020 C. Geuzaine
%%For: Octave
%%CreationDate: Wed Oct  7 07:02:25 2020
%%LanguageLevel: 3
%%DocumentData: Clean7Bit
%%Pages: 1
%%BoundingBox: 0 0 576 432
%%EndComments
%%BeginProlog
/gl2psdict 64 dict def gl2psdict begin
/tryPS3shading false def % set to false to force subdivision
/rThreshold 0.064 def % red component subdivision threshold
/gThreshold 0.034 def % green component subdivision threshold
/bThreshold 0.1 def % blue component subdivision threshold
/BD { bind def } bind def
/C  { setrgbcolor } BD
/G  { 0.082 mul exch 0.6094 mul add exch 0.3086 mul add neg 1.0 add setgray } BD
/W  { setlinewidth } BD
/LC  { setlinecap } BD
/LJ  { setlinejoin } BD
/FC { findfont exch /SH exch def SH scalefont setfont } BD
/SW { dup stringwidth pop } BD
/S  { FC moveto show } BD
/SBC{ FC moveto SW -2 div 0 rmoveto show } BD
/SBR{ FC moveto SW neg 0 rmoveto show } BD
/SCL{ FC moveto 0 SH -2 div rmoveto show } BD
/SCC{ FC moveto SW -2 div SH -2 div rmoveto show } BD
/SCR{ FC moveto SW neg SH -2 div rmoveto show } BD
/STL{ FC moveto 0 SH neg rmoveto show } BD
/STC{ FC moveto SW -2 div SH neg rmoveto show } BD
/STR{ FC moveto SW neg SH neg rmoveto show } BD
/FCT { FC translate 0 0 } BD
/SR  { gsave FCT moveto rotate show grestore } BD
/SRX  { gsave FCT moveto rotate xshow grestore } BD
/SBCR{ gsave FCT moveto rotate SW -2 div 0 rmoveto show grestore } BD
/SBRR{ gsave FCT moveto rotate SW neg 0 rmoveto show grestore } BD
/SCLR{ gsave FCT moveto rotate 0 SH -2 div rmoveto show grestore} BD
/SCCR{ gsave FCT moveto rotate SW -2 div SH -2 div rmoveto show grestore} BD
/SCRR{ gsave FCT moveto rotate SW neg SH -2 div rmoveto show grestore} BD
/STLR{ gsave FCT moveto rotate 0 SH neg rmoveto show grestore } BD
/STCR{ gsave FCT moveto rotate SW -2 div SH neg rmoveto show grestore } BD
/STRR{ gsave FCT moveto rotate SW neg SH neg rmoveto show grestore } BD
/P  { newpath 0.0 360.0 arc closepath fill } BD
/LS { newpath moveto } BD
/L  { lineto } BD
/LE { lineto stroke } BD
/T  { newpath moveto lineto lineto closepath fill } BD
/STshfill {
      /b1 exch def /g1 exch def /r1 exch def /y1 exch def /x1 exch def
      /b2 exch def /g2 exch def /r2 exch def /y2 exch def /x2 exch def
      /b3 exch def /g3 exch def /r3 exch def /y3 exch def /x3 exch def
      gsave << /ShadingType 4 /ColorSpace [/DeviceRGB]
      /DataSource [ 0 x1 y1 r1 g1 b1 0 x2 y2 r2 g2 b2 0 x3 y3 r3 g3 b3 ] >>
      shfill grestore } BD
/Tm { 3 -1 roll 8 -1 roll 13 -1 roll add add 3 div
      3 -1 roll 7 -1 roll 11 -1 roll add add 3 div
      3 -1 roll 6 -1 roll 9 -1 roll add add 3 div C T } BD
/STsplit {
      4 index 15 index add 0.5 mul
      4 index 15 index add 0.5 mul
      4 index 15 index add 0.5 mul
      4 index 15 index add 0.5 mul
      4 index 15 index add 0.5 mul
      5 copy 5 copy 25 15 roll
      9 index 30 index add 0.5 mul
      9 index 30 index add 0.5 mul
      9 index 30 index add 0.5 mul
      9 index 30 index add 0.5 mul
      9 index 30 index add 0.5 mul
      5 copy 5 copy 35 5 roll 25 5 roll 15 5 roll
      4 index 10 index add 0.5 mul
      4 index 10 index add 0.5 mul
      4 index 10 index add 0.5 mul
      4 index 10 index add 0.5 mul
      4 index 10 index add 0.5 mul
      5 copy 5 copy 40 5 roll 25 5 roll 15 5 roll 25 5 roll
      STnoshfill STnoshfill STnoshfill STnoshfill } BD
/STnoshfill {
      2 index 8 index sub abs rThreshold gt
      { STsplit }
      { 1 index 7 index sub abs gThreshold gt
        { STsplit }
        { dup 6 index sub abs bThreshold gt
          { STsplit }
          { 2 index 13 index sub abs rThreshold gt
            { STsplit }
            { 1 index 12 index sub abs gThreshold gt
              { STsplit }
              { dup 11 index sub abs bThreshold gt
                { STsplit }
                { 7 index 13 index sub abs rThreshold gt
                  { STsplit }
                  { 6 index 12 index sub abs gThreshold gt
                    { STsplit }
                    { 5 index 11 index sub abs bThreshold gt
                      { STsplit }
                      { Tm }
                      ifelse }
                    ifelse }
                  ifelse }
                ifelse }
              ifelse }
            ifelse }
          ifelse }
        ifelse }
      ifelse } BD
tryPS3shading
{ /shfill where
  { /ST { STshfill } BD }
  { /ST { STnoshfill } BD }
  ifelse }
{ /ST { STnoshfill } BD }
ifelse
end
%%EndProlog
%%BeginSetup
/DeviceRGB setcolorspace
gl2psdict begin
%%EndSetup
%%Page: 1 1
%%BeginPageSetup
%%EndPageSetup
mark
gsave
1.0 1.0 scale
1 1 1 C
newpath 0 0 moveto 576 0 lineto 576 432 lineto 0 432 lineto
closepath fill
gsave
1.0 1.0 scale
1 1 1 C
newpath 0 0 moveto 576 0 lineto 576 432 lineto 0 432 lineto
closepath fill
newpath 0 0 moveto 576 0 lineto 576 432 lineto 0 432 lineto
closepath clip
1 1 1 C
77.2594 385.841 187.093 312.427 77.2594 312.427 T
77.2594 385.841 187.093 385.841 187.093 312.427 T
0.5 W
0.15 0.15 0.15 C
100.382 312.427 LS
100.382 313.532 LE
100.382 385.841 LS
100.382 384.736 LE
129.286 312.427 LS
129.286 313.532 LE
129.286 385.841 LS
129.286 384.736 LE
158.189 312.427 LS
158.189 313.532 LE
158.189 385.841 LS
158.189 384.736 LE
187.093 312.427 LS
187.093 313.532 LE
187.093 385.841 LS
187.093 384.736 LE
gsave
0.14902 0.14902 0.14902 C
(5) [10] 0 97.3822 296.885 10 /Helvetica SRX
grestore

gsave
0.14902 0.14902 0.14902 C
(10) [6 10] 0 123.286 296.885 10 /Helvetica SRX
grestore

gsave
0.14902 0.14902 0.14902 C
(15) [6 10] 0 152.189 296.885 10 /Helvetica SRX
grestore

gsave
0.14902 0.14902 0.14902 C
(20) [6 10] 0 181.093 296.885 10 /Helvetica SRX
grestore

77.2594 312.427 LS
78.3561 312.427 LE
187.093 312.427 LS
185.996 312.427 LE
77.2594 324.86 LS
78.3561 324.86 LE
187.093 324.86 LS
185.996 324.86 LE
77.2594 337.292 LS
78.3561 337.292 LE
187.093 337.292 LS
185.996 337.292 LE
77.2594 349.724 LS
78.3561 349.724 LE
187.093 349.724 LS
185.996 349.724 LE
77.2594 362.156 LS
78.3561 362.156 LE
187.093 362.156 LS
185.996 362.156 LE
77.2594 374.589 LS
78.3561 374.589 LE
187.093 374.589 LS
185.996 374.589 LE
gsave
0.14902 0.14902 0.14902 C
(0) [10] 0 66.267 308.427 10 /Helvetica SRX
grestore

gsave
0.14902 0.14902 0.14902 C
(0.01) [6 3 6 10] 0 51.267 320.86 10 /Helvetica SRX
grestore

gsave
0.14902 0.14902 0.14902 C
(0.02) [6 3 6 10] 0 51.267 333.292 10 /Helvetica SRX
grestore

gsave
0.14902 0.14902 0.14902 C
(0.03) [6 3 6 10] 0 51.267 345.724 10 /Helvetica SRX
grestore

gsave
0.14902 0.14902 0.14902 C
(0.04) [6 3 6 10] 0 51.267 358.156 10 /Helvetica SRX
grestore

gsave
0.14902 0.14902 0.14902 C
(0.05) [6 3 6 10] 0 51.267 370.588 10 /Helvetica SRX
grestore

2 LC
[16 0] 0 setdash
77.2594 312.427 LS
187.093 312.427 LE
77.2594 385.841 LS
187.093 385.841 LE
77.2594 312.427 LS
77.2594 385.841 LE
187.093 312.427 LS
187.093 385.841 LE
gsave
0 0 0 C
(P_C_hat) [7 6 8 6 7 6 10] 0 110.176 397.841 11 /Helvetica-Bold SRX
grestore

0.9 0.9 0.9 C
77.2594 312.427 77.2594 312.427 83.0401 312.427 T
83.0401 312.427 83.0401 312.427 77.2594 312.427 T
88.8208 312.427 83.0401 312.427 83.0401 312.427 T
88.8208 312.427 88.8208 312.427 83.0401 312.427 T
94.6015 312.427 88.8208 312.427 88.8208 312.427 T
94.6015 312.427 94.6015 312.427 88.8208 312.427 T
100.382 312.427 94.6015 312.427 94.6015 312.427 T
100.382 362.368 100.382 312.427 94.6015 312.427 T
106.163 312.427 100.382 312.427 100.382 362.368 T
106.163 382.345 106.163 312.427 100.382 362.368 T
111.944 312.427 106.163 312.427 106.163 382.345 T
111.944 385.841 111.944 312.427 106.163 382.345 T
117.724 312.427 111.944 312.427 111.944 385.841 T
117.724 380.946 117.724 312.427 111.944 385.841 T
123.505 312.427 117.724 312.427 117.724 380.946 T
123.505 372.381 123.505 312.427 117.724 380.946 T
129.286 312.427 123.505 312.427 123.505 372.381 T
129.286 362.789 129.286 312.427 123.505 372.381 T
135.066 312.427 129.286 312.427 129.286 362.789 T
135.066 353.556 135.066 312.427 129.286 362.789 T
140.847 312.427 135.066 312.427 135.066 353.556 T
140.847 345.33 140.847 312.427 135.066 353.556 T
146.628 312.427 140.847 312.427 140.847 345.33 T
146.628 338.338 146.628 312.427 140.847 345.33 T
152.408 312.427 146.628 312.427 146.628 338.338 T
152.408 332.58 152.408 312.427 146.628 338.338 T
158.189 312.427 152.408 312.427 152.408 332.58 T
158.189 327.945 158.189 312.427 152.408 332.58 T
163.97 312.427 158.189 312.427 158.189 327.945 T
163.97 324.277 163.97 312.427 158.189 327.945 T
169.751 312.427 163.97 312.427 163.97 324.277 T
169.751 321.414 169.751 312.427 163.97 324.277 T
175.531 312.427 169.751 312.427 169.751 321.414 T
175.531 319.202 175.531 312.427 169.751 321.414 T
181.312 312.427 175.531 312.427 175.531 319.202 T
181.312 317.508 181.312 312.427 175.531 319.202 T
187.093 312.427 181.312 312.427 181.312 317.508 T
187.093 316.221 187.093 312.427 181.312 317.508 T
0 LC
[] 0 setdash
0 0 0 C
187.093 316.221 LS
181.312 317.508 L
175.531 319.202 L
169.751 321.414 L
163.97 324.277 L
158.189 327.945 L
152.408 332.58 L
146.628 338.338 L
140.847 345.33 L
135.066 353.556 L
129.286 362.789 L
123.505 372.381 L
117.724 380.946 L
111.944 385.841 L
106.163 382.345 L
100.382 362.368 L
94.6015 312.427 L
88.8208 312.427 L
83.0401 312.427 L
77.2594 312.427 L
77.2594 312.427 L
83.0401 312.427 L
88.8208 312.427 L
94.6015 312.427 L
100.382 312.427 L
106.163 312.427 L
111.944 312.427 L
117.724 312.427 L
123.505 312.427 L
129.286 312.427 L
135.066 312.427 L
140.847 312.427 L
146.628 312.427 L
152.408 312.427 L
158.189 312.427 L
163.97 312.427 L
169.751 312.427 L
175.531 312.427 L
181.312 312.427 L
187.093 312.427 L
187.093 316.221 LE
1 1 1 C
94.6015 312.427 100.382 338.383 100.382 312.427 T
106.163 312.427 100.382 312.427 100.382 338.383 T
106.163 348.765 106.163 312.427 100.382 338.383 T
111.944 312.427 106.163 312.427 106.163 348.765 T
111.944 350.582 111.944 312.427 106.163 348.765 T
117.724 312.427 111.944 312.427 111.944 350.582 T
117.724 348.038 117.724 312.427 111.944 350.582 T
123.505 312.427 117.724 312.427 117.724 348.038 T
123.505 343.587 123.505 312.427 117.724 348.038 T
129.286 312.427 123.505 312.427 123.505 343.587 T
129.286 338.602 129.286 312.427 123.505 343.587 T
135.066 312.427 129.286 312.427 129.286 338.602 T
135.066 333.803 135.066 312.427 129.286 338.602 T
140.847 312.427 135.066 312.427 135.066 333.803 T
140.847 329.528 140.847 312.427 135.066 333.803 T
146.628 312.427 140.847 312.427 140.847 329.528 T
146.628 325.894 146.628 312.427 140.847 329.528 T
152.408 312.427 146.628 312.427 146.628 325.894 T
152.408 322.901 152.408 312.427 146.628 325.894 T
158.189 312.427 152.408 312.427 152.408 322.901 T
158.189 320.492 158.189 312.427 152.408 322.901 T
163.97 312.427 158.189 312.427 158.189 320.492 T
163.97 318.586 163.97 312.427 158.189 320.492 T
169.751 312.427 163.97 312.427 163.97 318.586 T
169.751 317.098 169.751 312.427 163.97 318.586 T
175.531 312.427 169.751 312.427 169.751 317.098 T
175.531 315.948 175.531 312.427 169.751 317.098 T
181.312 312.427 175.531 312.427 175.531 315.948 T
181.312 315.068 181.312 312.427 175.531 315.948 T
187.093 312.427 181.312 312.427 181.312 315.068 T
187.093 314.399 187.093 312.427 181.312 315.068 T
77.2594 312.427 77.2594 312.427 83.0401 312.427 T
83.0401 312.427 83.0401 312.427 77.2594 312.427 T
88.8208 312.427 83.0401 312.427 83.0401 312.427 T
88.8208 312.427 88.8208 312.427 83.0401 312.427 T
94.6015 312.427 88.8208 312.427 88.8208 312.427 T
0 0 0 C
94.6015 312.427 LS
88.8208 312.427 L
83.0401 312.427 L
77.2594 312.427 L
77.2594 312.427 L
83.0401 312.427 L
88.8208 312.427 L
94.6015 312.427 LE
187.093 314.399 LS
181.312 315.068 L
175.531 315.948 L
169.751 317.098 L
163.97 318.586 L
158.189 320.492 L
152.408 322.901 L
146.628 325.894 L
140.847 329.528 L
135.066 333.803 L
129.286 338.602 L
123.505 343.587 L
117.724 348.038 L
111.944 350.582 L
106.163 348.765 L
100.382 338.383 L
94.6015 312.427 L
100.382 312.427 L
106.163 312.427 L
111.944 312.427 L
117.724 312.427 L
123.505 312.427 L
129.286 312.427 L
135.066 312.427 L
140.847 312.427 L
146.628 312.427 L
152.408 312.427 L
158.189 312.427 L
163.97 312.427 L
169.751 312.427 L
175.531 312.427 L
181.312 312.427 L
187.093 312.427 L
187.093 314.399 LE
3 W
1 LJ
77.2594 312.427 LS
83.0401 312.427 L
88.8208 312.427 L
94.6015 312.427 L
100.382 350.752 L
106.163 366.082 L
111.944 368.765 L
117.724 365.009 L
123.505 358.436 L
129.286 351.075 L
135.066 343.989 L
140.847 337.677 L
146.628 332.311 L
152.408 327.893 L
158.189 324.336 L
163.97 321.521 L
169.751 319.323 L
175.531 317.626 L
181.312 316.326 L
187.093 315.339 LE
grestore
gsave
1.0 1.0 scale
newpath 0 0 moveto 576 0 lineto 576 432 lineto 0 432 lineto
closepath clip
1 1 1 C
244.353 385.841 354.186 312.427 244.353 312.427 T
244.353 385.841 354.186 385.841 354.186 312.427 T
0.5 W
0.15 0.15 0.15 C
267.476 312.427 LS
267.476 313.532 LE
267.476 385.841 LS
267.476 384.736 LE
296.379 312.427 LS
296.379 313.532 LE
296.379 385.841 LS
296.379 384.736 LE
325.283 312.427 LS
325.283 313.532 LE
325.283 385.841 LS
325.283 384.736 LE
354.186 312.427 LS
354.186 313.532 LE
354.186 385.841 LS
354.186 384.736 LE
gsave
0.14902 0.14902 0.14902 C
(5) [10] 0 264.476 296.885 10 /Helvetica SRX
grestore

gsave
0.14902 0.14902 0.14902 C
(10) [6 10] 0 290.379 296.885 10 /Helvetica SRX
grestore

gsave
0.14902 0.14902 0.14902 C
(15) [6 10] 0 319.283 296.885 10 /Helvetica SRX
grestore

gsave
0.14902 0.14902 0.14902 C
(20) [6 10] 0 348.186 296.885 10 /Helvetica SRX
grestore

244.353 317.063 LS
245.45 317.063 LE
354.186 317.063 LS
353.09 317.063 LE
244.353 330.678 LS
245.45 330.678 LE
354.186 330.678 LS
353.09 330.678 LE
244.353 344.294 LS
245.45 344.294 LE
354.186 344.294 LS
353.09 344.294 LE
244.353 357.91 LS
245.45 357.91 LE
354.186 357.91 LS
353.09 357.91 LE
244.353 371.526 LS
245.45 371.526 LE
354.186 371.526 LS
353.09 371.526 LE
244.353 385.142 LS
245.45 385.142 LE
354.186 385.142 LS
353.09 385.142 LE
gsave
0.14902 0.14902 0.14902 C
(-0.0001) [3 6 3 6 6 6 10] 0 203.361 313.063 10 /Helvetica SRX
grestore

gsave
0.14902 0.14902 0.14902 C
(-5e-05) [3 6 5 3 6 10] 0 210.361 326.678 10 /Helvetica SRX
grestore

gsave
0.14902 0.14902 0.14902 C
(0) [10] 0 233.361 340.294 10 /Helvetica SRX
grestore

gsave
0.14902 0.14902 0.14902 C
(5e-05) [6 5 3 6 10] 0 213.361 353.91 10 /Helvetica SRX
grestore

gsave
0.14902 0.14902 0.14902 C
(0.0001) [6 3 6 6 6 10] 0 206.361 367.526 10 /Helvetica SRX
grestore

gsave
0.14902 0.14902 0.14902 C
(0.00015) [6 3 6 6 6 6 10] 0 200.361 381.142 10 /Helvetica SRX
grestore

2 LC
[16 0] 0 setdash
244.353 312.427 LS
354.186 312.427 LE
244.353 385.841 LS
354.186 385.841 LE
244.353 312.427 LS
244.353 385.841 LE
354.186 312.427 LS
354.186 385.841 LE
gsave
0 0 0 C
(r_hat) [4 6 7 6 10] 0 285.77 397.841 11 /Helvetica-Bold SRX
grestore

0.9 0.9 0.9 C
244.353 312.427 244.353 344.294 250.134 312.427 T
250.134 355.013 250.134 312.427 244.353 344.294 T
255.915 312.427 250.134 312.427 250.134 355.013 T
255.915 367.616 255.915 312.427 250.134 355.013 T
261.695 312.427 255.915 312.427 255.915 367.616 T
261.695 380.865 261.695 312.427 255.915 367.616 T
267.476 312.427 261.695 312.427 261.695 380.865 T
267.476 384.921 267.476 312.427 261.695 380.865 T
273.257 312.427 267.476 312.427 267.476 384.921 T
273.257 385.841 273.257 312.427 267.476 384.921 T
279.037 312.427 273.257 312.427 273.257 385.841 T
279.037 373.487 279.037 312.427 273.257 385.841 T
284.818 312.427 279.037 312.427 279.037 373.487 T
284.818 361.485 284.818 312.427 279.037 373.487 T
290.599 312.427 284.818 312.427 284.818 361.485 T
290.599 346.891 290.599 312.427 284.818 361.485 T
296.379 312.427 290.599 312.427 290.599 346.891 T
296.379 339.366 296.379 312.427 290.599 346.891 T
302.16 312.427 296.379 312.427 296.379 339.366 T
302.16 335.042 302.16 312.427 296.379 339.366 T
307.941 312.427 302.16 312.427 302.16 335.042 T
307.941 332.152 307.941 312.427 302.16 335.042 T
313.721 312.427 307.941 312.427 307.941 332.152 T
313.721 330.673 313.721 312.427 307.941 332.152 T
319.502 312.427 313.721 312.427 313.721 330.673 T
319.502 331.458 319.502 312.427 313.721 330.673 T
325.283 312.427 319.502 312.427 319.502 331.458 T
325.283 330.728 325.283 312.427 319.502 331.458 T
331.064 312.427 325.283 312.427 325.283 330.728 T
331.064 330.92 331.064 312.427 325.283 330.728 T
336.844 312.427 331.064 312.427 331.064 330.92 T
336.844 330.695 336.844 312.427 331.064 330.92 T
342.625 312.427 336.844 312.427 336.844 330.695 T
342.625 331.239 342.625 312.427 336.844 330.695 T
348.406 312.427 342.625 312.427 342.625 331.239 T
348.406 331.852 348.406 312.427 342.625 331.239 T
354.186 312.427 348.406 312.427 348.406 331.852 T
354.186 332.308 354.186 312.427 348.406 331.852 T
0 LC
[] 0 setdash
0 0 0 C
354.186 332.308 LS
348.406 331.852 L
342.625 331.239 L
336.844 330.695 L
331.064 330.92 L
325.283 330.728 L
319.502 331.458 L
313.721 330.673 L
307.941 332.152 L
302.16 335.042 L
296.379 339.366 L
290.599 346.891 L
284.818 361.485 L
279.037 373.487 L
273.257 385.841 L
267.476 384.921 L
261.695 380.865 L
255.915 367.616 L
250.134 355.013 L
244.353 344.294 L
244.353 312.427 L
250.134 312.427 L
255.915 312.427 L
261.695 312.427 L
267.476 312.427 L
273.257 312.427 L
279.037 312.427 L
284.818 312.427 L
290.599 312.427 L
296.379 312.427 L
302.16 312.427 L
307.941 312.427 L
313.721 312.427 L
319.502 312.427 L
325.283 312.427 L
331.064 312.427 L
336.844 312.427 L
342.625 312.427 L
348.406 312.427 L
354.186 312.427 L
354.186 332.308 LE
1 1 1 C
313.721 312.427 319.502 313.349 319.502 312.427 T
325.283 312.427 319.502 312.427 319.502 313.349 T
325.283 312.91 325.283 312.427 319.502 313.349 T
331.064 312.427 325.283 312.427 325.283 312.91 T
331.064 313.771 331.064 312.427 325.283 312.91 T
336.844 312.427 331.064 312.427 331.064 313.771 T
336.844 314.346 336.844 312.427 331.064 313.771 T
342.625 312.427 336.844 312.427 336.844 314.346 T
342.625 315.982 342.625 312.427 336.844 314.346 T
348.406 312.427 342.625 312.427 342.625 315.982 T
348.406 317.697 348.406 312.427 342.625 315.982 T
354.186 312.427 348.406 312.427 348.406 317.697 T
354.186 319.089 354.186 312.427 348.406 317.697 T
244.353 312.427 244.353 344.294 250.134 312.427 T
250.134 347.102 250.134 312.427 244.353 344.294 T
255.915 312.427 250.134 312.427 250.134 347.102 T
255.915 350.665 255.915 312.427 250.134 347.102 T
261.695 312.427 255.915 312.427 255.915 350.665 T
261.695 354.085 261.695 312.427 255.915 350.665 T
267.476 312.427 261.695 312.427 261.695 354.085 T
267.476 340.069 267.476 312.427 261.695 354.085 T
273.257 312.427 267.476 312.427 267.476 340.069 T
273.257 332.554 273.257 312.427 267.476 340.069 T
279.037 312.427 273.257 312.427 273.257 332.554 T
279.037 324.424 279.037 312.427 273.257 332.554 T
284.818 312.427 279.037 312.427 279.037 324.424 T
284.818 322.779 284.818 312.427 279.037 324.424 T
290.599 312.427 284.818 312.427 284.818 322.779 T
290.599 319.058 290.599 312.427 284.818 322.779 T
296.379 312.427 290.599 312.427 290.599 319.058 T
296.379 317.458 296.379 312.427 290.599 319.058 T
302.16 312.427 296.379 312.427 296.379 317.458 T
302.16 315.117 302.16 312.427 296.379 317.458 T
307.941 312.427 302.16 312.427 302.16 315.117 T
307.941 313.533 307.941 312.427 302.16 315.117 T
313.721 312.427 307.941 312.427 307.941 313.533 T
0 0 0 C
313.721 312.427 LS
307.941 313.533 L
302.16 315.117 L
296.379 317.458 L
290.599 319.058 L
284.818 322.779 L
279.037 324.424 L
273.257 332.554 L
267.476 340.069 L
261.695 354.085 L
255.915 350.665 L
250.134 347.102 L
244.353 344.294 L
244.353 312.427 L
250.134 312.427 L
255.915 312.427 L
261.695 312.427 L
267.476 312.427 L
273.257 312.427 L
279.037 312.427 L
284.818 312.427 L
290.599 312.427 L
296.379 312.427 L
302.16 312.427 L
307.941 312.427 L
313.721 312.427 LE
354.186 319.089 LS
348.406 317.697 L
342.625 315.982 L
336.844 314.346 L
331.064 313.771 L
325.283 312.91 L
319.502 313.349 L
313.721 312.427 L
319.502 312.427 L
325.283 312.427 L
331.064 312.427 L
336.844 312.427 L
342.625 312.427 L
348.406 312.427 L
354.186 312.427 L
354.186 319.089 LE
3 W
1 LJ
244.353 344.294 LS
250.134 351.294 L
255.915 359.586 L
261.695 368.271 L
267.476 366.1 L
273.257 358.871 L
279.037 350.113 L
284.818 341.77 L
290.599 334.751 L
296.379 329.345 L
302.16 325.508 L
307.941 323.039 L
313.721 321.679 L
319.502 321.171 L
325.283 321.286 L
331.064 321.832 L
336.844 322.657 L
342.625 323.645 L
348.406 324.708 L
354.186 325.786 LE
grestore
gsave
1.0 1.0 scale
newpath 0 0 moveto 576 0 lineto 576 432 lineto 0 432 lineto
closepath clip
1 1 1 C
411.447 385.841 521.28 312.427 411.447 312.427 T
411.447 385.841 521.28 385.841 521.28 312.427 T
0.5 W
0.15 0.15 0.15 C
434.57 312.427 LS
434.57 313.532 LE
434.57 385.841 LS
434.57 384.736 LE
463.473 312.427 LS
463.473 313.532 LE
463.473 385.841 LS
463.473 384.736 LE
492.377 312.427 LS
492.377 313.532 LE
492.377 385.841 LS
492.377 384.736 LE
521.28 312.427 LS
521.28 313.532 LE
521.28 385.841 LS
521.28 384.736 LE
gsave
0.14902 0.14902 0.14902 C
(5) [10] 0 431.57 296.885 10 /Helvetica SRX
grestore

gsave
0.14902 0.14902 0.14902 C
(10) [6 10] 0 457.473 296.885 10 /Helvetica SRX
grestore

gsave
0.14902 0.14902 0.14902 C
(15) [6 10] 0 486.377 296.885 10 /Helvetica SRX
grestore

gsave
0.14902 0.14902 0.14902 C
(20) [6 10] 0 515.28 296.885 10 /Helvetica SRX
grestore

411.447 320.118 LS
412.544 320.118 LE
521.28 320.118 LS
520.183 320.118 LE
411.447 333.236 LS
412.544 333.236 LE
521.28 333.236 LS
520.183 333.236 LE
411.447 346.355 LS
412.544 346.355 LE
521.28 346.355 LS
520.183 346.355 LE
411.447 359.473 LS
412.544 359.473 LE
521.28 359.473 LS
520.183 359.473 LE
411.447 372.591 LS
412.544 372.591 LE
521.28 372.591 LS
520.183 372.591 LE
411.447 385.709 LS
412.544 385.709 LE
521.28 385.709 LS
520.183 385.709 LE
gsave
0.14902 0.14902 0.14902 C
(0.002) [6 3 6 6 10] 0 379.454 316.118 10 /Helvetica SRX
grestore

gsave
0.14902 0.14902 0.14902 C
(0.004) [6 3 6 6 10] 0 379.454 329.236 10 /Helvetica SRX
grestore

gsave
0.14902 0.14902 0.14902 C
(0.006) [6 3 6 6 10] 0 379.454 342.355 10 /Helvetica SRX
grestore

gsave
0.14902 0.14902 0.14902 C
(0.008) [6 3 6 6 10] 0 379.454 355.473 10 /Helvetica SRX
grestore

gsave
0.14902 0.14902 0.14902 C
(0.01) [6 3 6 10] 0 385.454 368.591 10 /Helvetica SRX
grestore

gsave
0.14902 0.14902 0.14902 C
(0.012) [6 3 6 6 10] 0 379.454 381.709 10 /Helvetica SRX
grestore

2 LC
[16 0] 0 setdash
411.447 312.427 LS
521.28 312.427 LE
411.447 385.841 LS
521.28 385.841 LE
411.447 312.427 LS
411.447 385.841 LE
521.28 312.427 LS
521.28 385.841 LE
gsave
0 0 0 C
(Y_hat) [7 6 7 6 10] 0 451.363 397.841 11 /Helvetica-Bold SRX
grestore

0.9 0.9 0.9 C
411.447 312.427 411.447 317.406 417.228 312.427 T
417.228 320.115 417.228 312.427 411.447 317.406 T
423.008 312.427 417.228 312.427 417.228 320.115 T
423.008 324.743 423.008 312.427 417.228 320.115 T
428.789 312.427 423.008 312.427 423.008 324.743 T
428.789 329.646 428.789 312.427 423.008 324.743 T
434.57 312.427 428.789 312.427 428.789 329.646 T
434.57 363.219 434.57 312.427 428.789 329.646 T
440.35 312.427 434.57 312.427 434.57 363.219 T
440.35 379.106 440.35 312.427 434.57 363.219 T
446.131 312.427 440.35 312.427 440.35 379.106 T
446.131 385.841 446.131 312.427 440.35 379.106 T
451.912 312.427 446.131 312.427 446.131 385.841 T
451.912 385.52 451.912 312.427 446.131 385.841 T
457.692 312.427 451.912 312.427 451.912 385.52 T
457.692 382.42 457.692 312.427 451.912 385.52 T
463.473 312.427 457.692 312.427 457.692 382.42 T
463.473 376.617 463.473 312.427 457.692 382.42 T
469.254 312.427 463.473 312.427 463.473 376.617 T
469.254 369.601 469.254 312.427 463.473 376.617 T
475.035 312.427 469.254 312.427 469.254 369.601 T
475.035 362.164 475.035 312.427 469.254 369.601 T
480.815 312.427 475.035 312.427 475.035 362.164 T
480.815 356.093 480.815 312.427 475.035 362.164 T
486.596 312.427 480.815 312.427 480.815 356.093 T
486.596 351.299 486.596 312.427 480.815 356.093 T
492.377 312.427 486.596 312.427 486.596 351.299 T
492.377 346.305 492.377 312.427 486.596 351.299 T
498.157 312.427 492.377 312.427 492.377 346.305 T
498.157 342.351 498.157 312.427 492.377 346.305 T
503.938 312.427 498.157 312.427 498.157 342.351 T
503.938 338.837 503.938 312.427 498.157 342.351 T
509.719 312.427 503.938 312.427 503.938 338.837 T
509.719 335.693 509.719 312.427 503.938 338.837 T
515.499 312.427 509.719 312.427 509.719 335.693 T
515.499 333.419 515.499 312.427 509.719 335.693 T
521.28 312.427 515.499 312.427 515.499 333.419 T
521.28 331.72 521.28 312.427 515.499 333.419 T
0 LC
[] 0 setdash
0 0 0 C
521.28 331.72 LS
515.499 333.419 L
509.719 335.693 L
503.938 338.837 L
498.157 342.351 L
492.377 346.305 L
486.596 351.299 L
480.815 356.093 L
475.035 362.164 L
469.254 369.601 L
463.473 376.617 L
457.692 382.42 L
451.912 385.52 L
446.131 385.841 L
440.35 379.106 L
434.57 363.219 L
428.789 329.646 L
423.008 324.743 L
417.228 320.115 L
411.447 317.406 L
411.447 312.427 L
417.228 312.427 L
423.008 312.427 L
428.789 312.427 L
434.57 312.427 L
440.35 312.427 L
446.131 312.427 L
451.912 312.427 L
457.692 312.427 L
463.473 312.427 L
469.254 312.427 L
475.035 312.427 L
480.815 312.427 L
486.596 312.427 L
492.377 312.427 L
498.157 312.427 L
503.938 312.427 L
509.719 312.427 L
515.499 312.427 L
521.28 312.427 L
521.28 331.72 LE
1 1 1 C
411.447 312.427 417.228 313.781 417.228 312.427 T
423.008 312.427 417.228 312.427 417.228 313.781 T
423.008 316.392 423.008 312.427 417.228 313.781 T
428.789 312.427 423.008 312.427 423.008 316.392 T
428.789 319.076 428.789 312.427 423.008 316.392 T
434.57 312.427 428.789 312.427 428.789 319.076 T
434.57 336.587 434.57 312.427 428.789 319.076 T
440.35 312.427 434.57 312.427 434.57 336.587 T
440.35 343.408 440.35 312.427 434.57 336.587 T
446.131 312.427 440.35 312.427 440.35 343.408 T
446.131 346.531 446.131 312.427 440.35 343.408 T
451.912 312.427 446.131 312.427 446.131 346.531 T
451.912 346.495 451.912 312.427 446.131 346.531 T
457.692 312.427 451.912 312.427 451.912 346.495 T
457.692 345.756 457.692 312.427 451.912 346.495 T
463.473 312.427 457.692 312.427 457.692 345.756 T
463.473 343.413 463.473 312.427 457.692 345.756 T
469.254 312.427 463.473 312.427 463.473 343.413 T
469.254 339.914 469.254 312.427 463.473 343.413 T
475.035 312.427 469.254 312.427 469.254 339.914 T
475.035 335.789 475.035 312.427 469.254 339.914 T
480.815 312.427 475.035 312.427 475.035 335.789 T
480.815 332.559 480.815 312.427 475.035 335.789 T
486.596 312.427 480.815 312.427 480.815 332.559 T
486.596 330.225 486.596 312.427 480.815 332.559 T
492.377 312.427 486.596 312.427 486.596 330.225 T
492.377 327.603 492.377 312.427 486.596 330.225 T
498.157 312.427 492.377 312.427 492.377 327.603 T
498.157 325.535 498.157 312.427 492.377 327.603 T
503.938 312.427 498.157 312.427 498.157 325.535 T
503.938 323.59 503.938 312.427 498.157 325.535 T
509.719 312.427 503.938 312.427 503.938 323.59 T
509.719 321.81 509.719 312.427 503.938 323.59 T
515.499 312.427 509.719 312.427 509.719 321.81 T
515.499 320.71 515.499 312.427 509.719 321.81 T
521.28 312.427 515.499 312.427 515.499 320.71 T
521.28 319.875 521.28 312.427 515.499 320.71 T
0 0 0 C
521.28 319.875 LS
515.499 320.71 L
509.719 321.81 L
503.938 323.59 L
498.157 325.535 L
492.377 327.603 L
486.596 330.225 L
480.815 332.559 L
475.035 335.789 L
469.254 339.914 L
463.473 343.413 L
457.692 345.756 L
451.912 346.495 L
446.131 346.531 L
440.35 343.408 L
434.57 336.587 L
428.789 319.076 L
423.008 316.392 L
417.228 313.781 L
411.447 312.427 L
417.228 312.427 L
423.008 312.427 L
428.789 312.427 L
434.57 312.427 L
440.35 312.427 L
446.131 312.427 L
451.912 312.427 L
457.692 312.427 L
463.473 312.427 L
469.254 312.427 L
475.035 312.427 L
480.815 312.427 L
486.596 312.427 L
492.377 312.427 L
498.157 312.427 L
503.938 312.427 L
509.719 312.427 L
515.499 312.427 L
521.28 312.427 L
521.28 319.875 LE
3 W
1 LJ
411.447 315.057 LS
417.228 317.211 L
423.008 320.369 L
428.789 324.536 L
434.57 348.959 L
440.35 361.31 L
446.131 366.07 L
451.912 366.094 L
457.692 363.332 L
463.473 359.11 L
469.254 354.301 L
475.035 349.455 L
480.815 344.891 L
486.596 340.777 L
492.377 337.178 L
498.157 334.1 L
503.938 331.509 L
509.719 329.355 L
515.499 327.582 L
521.28 326.132 LE
grestore
gsave
1.0 1.0 scale
newpath 0 0 moveto 576 0 lineto 576 432 lineto 0 432 lineto
closepath clip
1 1 1 C
77.2594 253.387 187.093 179.974 77.2594 179.974 T
77.2594 253.387 187.093 253.387 187.093 179.974 T
0.5 W
0.15 0.15 0.15 C
100.382 179.974 LS
100.382 181.078 LE
100.382 253.387 LS
100.382 252.282 LE
129.286 179.974 LS
129.286 181.078 LE
129.286 253.387 LS
129.286 252.282 LE
158.189 179.974 LS
158.189 181.078 LE
158.189 253.387 LS
158.189 252.282 LE
187.093 179.974 LS
187.093 181.078 LE
187.093 253.387 LS
187.093 252.282 LE
gsave
0.14902 0.14902 0.14902 C
(5) [10] 0 97.3822 164.431 10 /Helvetica SRX
grestore

gsave
0.14902 0.14902 0.14902 C
(10) [6 10] 0 123.286 164.431 10 /Helvetica SRX
grestore

gsave
0.14902 0.14902 0.14902 C
(15) [6 10] 0 152.189 164.431 10 /Helvetica SRX
grestore

gsave
0.14902 0.14902 0.14902 C
(20) [6 10] 0 181.093 164.431 10 /Helvetica SRX
grestore

77.2594 186.812 LS
78.3561 186.812 LE
187.093 186.812 LS
185.996 186.812 LE
77.2594 205.055 LS
78.3561 205.055 LE
187.093 205.055 LS
185.996 205.055 LE
77.2594 223.298 LS
78.3561 223.298 LE
187.093 223.298 LS
185.996 223.298 LE
77.2594 241.541 LS
78.3561 241.541 LE
187.093 241.541 LS
185.996 241.541 LE
gsave
0.14902 0.14902 0.14902 C
(0.001) [6 3 6 6 10] 0 45.267 182.812 10 /Helvetica SRX
grestore

gsave
0.14902 0.14902 0.14902 C
(0.002) [6 3 6 6 10] 0 45.267 201.055 10 /Helvetica SRX
grestore

gsave
0.14902 0.14902 0.14902 C
(0.003) [6 3 6 6 10] 0 45.267 219.298 10 /Helvetica SRX
grestore

gsave
0.14902 0.14902 0.14902 C
(0.004) [6 3 6 6 10] 0 45.267 237.541 10 /Helvetica SRX
grestore

2 LC
[16 0] 0 setdash
77.2594 179.974 LS
187.093 179.974 LE
77.2594 253.387 LS
187.093 253.387 LE
77.2594 179.974 LS
77.2594 253.387 LE
187.093 179.974 LS
187.093 253.387 LE
gsave
0 0 0 C
(C_hat) [8 6 7 6 10] 0 116.676 265.387 11 /Helvetica-Bold SRX
grestore

0.9 0.9 0.9 C
77.2594 179.974 77.2594 189.893 83.0401 179.974 T
83.0401 199.227 83.0401 179.974 77.2594 189.893 T
88.8208 179.974 83.0401 179.974 83.0401 199.227 T
88.8208 207.563 88.8208 179.974 83.0401 199.227 T
94.6015 179.974 88.8208 179.974 88.8208 207.563 T
94.6015 216.892 94.6015 179.974 88.8208 207.563 T
100.382 179.974 94.6015 179.974 94.6015 216.892 T
100.382 228.217 100.382 179.974 94.6015 216.892 T
106.163 179.974 100.382 179.974 100.382 228.217 T
106.163 238.567 106.163 179.974 100.382 228.217 T
111.944 179.974 106.163 179.974 106.163 238.567 T
111.944 247.382 111.944 179.974 106.163 238.567 T
117.724 179.974 111.944 179.974 111.944 247.382 T
117.724 252.034 117.724 179.974 111.944 247.382 T
123.505 179.974 117.724 179.974 117.724 252.034 T
123.505 252.055 123.505 179.974 117.724 252.034 T
129.286 179.974 123.505 179.974 123.505 252.055 T
129.286 253.387 129.286 179.974 123.505 252.055 T
135.066 179.974 129.286 179.974 129.286 253.387 T
135.066 252.358 135.066 179.974 129.286 253.387 T
140.847 179.974 135.066 179.974 135.066 252.358 T
140.847 248.502 140.847 179.974 135.066 252.358 T
146.628 179.974 140.847 179.974 140.847 248.502 T
146.628 246.253 146.628 179.974 140.847 248.502 T
152.408 179.974 146.628 179.974 146.628 246.253 T
152.408 244.728 152.408 179.974 146.628 246.253 T
158.189 179.974 152.408 179.974 152.408 244.728 T
158.189 239.114 158.189 179.974 152.408 244.728 T
163.97 179.974 158.189 179.974 158.189 239.114 T
163.97 235.26 163.97 179.974 158.189 239.114 T
169.751 179.974 163.97 179.974 163.97 235.26 T
169.751 231.734 169.751 179.974 163.97 235.26 T
175.531 179.974 169.751 179.974 169.751 231.734 T
175.531 229.195 175.531 179.974 169.751 231.734 T
181.312 179.974 175.531 179.974 175.531 229.195 T
181.312 226.619 181.312 179.974 175.531 229.195 T
187.093 179.974 181.312 179.974 181.312 226.619 T
187.093 224.821 187.093 179.974 181.312 226.619 T
0 LC
[] 0 setdash
0 0 0 C
187.093 224.821 LS
181.312 226.619 L
175.531 229.195 L
169.751 231.734 L
163.97 235.26 L
158.189 239.114 L
152.408 244.728 L
146.628 246.253 L
140.847 248.502 L
135.066 252.358 L
129.286 253.387 L
123.505 252.055 L
117.724 252.034 L
111.944 247.382 L
106.163 238.567 L
100.382 228.217 L
94.6015 216.892 L
88.8208 207.563 L
83.0401 199.227 L
77.2594 189.893 L
77.2594 179.974 L
83.0401 179.974 L
88.8208 179.974 L
94.6015 179.974 L
100.382 179.974 L
106.163 179.974 L
111.944 179.974 L
117.724 179.974 L
123.505 179.974 L
129.286 179.974 L
135.066 179.974 L
140.847 179.974 L
146.628 179.974 L
152.408 179.974 L
158.189 179.974 L
163.97 179.974 L
169.751 179.974 L
175.531 179.974 L
181.312 179.974 L
187.093 179.974 L
187.093 224.821 LE
1 1 1 C
77.2594 179.974 83.0401 185.305 83.0401 179.974 T
88.8208 179.974 83.0401 179.974 83.0401 185.305 T
88.8208 189.542 88.8208 179.974 83.0401 185.305 T
94.6015 179.974 88.8208 179.974 88.8208 189.542 T
94.6015 194.551 94.6015 179.974 88.8208 189.542 T
100.382 179.974 94.6015 179.974 94.6015 194.551 T
100.382 198.367 100.382 179.974 94.6015 194.551 T
106.163 179.974 100.382 179.974 100.382 198.367 T
106.163 200.643 106.163 179.974 100.382 198.367 T
111.944 179.974 106.163 179.974 106.163 200.643 T
111.944 204.742 111.944 179.974 106.163 200.643 T
117.724 179.974 111.944 179.974 111.944 204.742 T
117.724 207.489 117.724 179.974 111.944 204.742 T
123.505 179.974 117.724 179.974 117.724 207.489 T
123.505 207.432 123.505 179.974 117.724 207.489 T
129.286 179.974 123.505 179.974 123.505 207.432 T
129.286 210.439 129.286 179.974 123.505 207.432 T
135.066 179.974 129.286 179.974 129.286 210.439 T
135.066 211.732 135.066 179.974 129.286 210.439 T
140.847 179.974 135.066 179.974 135.066 211.732 T
140.847 209.887 140.847 179.974 135.066 211.732 T
146.628 179.974 140.847 179.974 140.847 209.887 T
146.628 209.618 146.628 179.974 140.847 209.887 T
152.408 179.974 146.628 179.974 146.628 209.618 T
152.408 209.48 152.408 179.974 146.628 209.618 T
158.189 179.974 152.408 179.974 152.408 209.48 T
158.189 205.461 158.189 179.974 152.408 209.48 T
163.97 179.974 158.189 179.974 158.189 205.461 T
163.97 203.205 163.97 179.974 158.189 205.461 T
169.751 179.974 163.97 179.974 163.97 203.205 T
169.751 201.001 169.751 179.974 163.97 203.205 T
175.531 179.974 169.751 179.974 169.751 201.001 T
175.531 199.857 175.531 179.974 169.751 201.001 T
181.312 179.974 175.531 179.974 175.531 199.857 T
181.312 198.478 181.312 179.974 175.531 199.857 T
187.093 179.974 181.312 179.974 181.312 198.478 T
187.093 197.743 187.093 179.974 181.312 198.478 T
0 0 0 C
187.093 197.743 LS
181.312 198.478 L
175.531 199.857 L
169.751 201.001 L
163.97 203.205 L
158.189 205.461 L
152.408 209.48 L
146.628 209.618 L
140.847 209.887 L
135.066 211.732 L
129.286 210.439 L
123.505 207.432 L
117.724 207.489 L
111.944 204.742 L
106.163 200.643 L
100.382 198.367 L
94.6015 194.551 L
88.8208 189.542 L
83.0401 185.305 L
77.2594 179.974 L
83.0401 179.974 L
88.8208 179.974 L
94.6015 179.974 L
100.382 179.974 L
106.163 179.974 L
111.944 179.974 L
117.724 179.974 L
123.505 179.974 L
129.286 179.974 L
135.066 179.974 L
140.847 179.974 L
146.628 179.974 L
152.408 179.974 L
158.189 179.974 L
163.97 179.974 L
169.751 179.974 L
175.531 179.974 L
181.312 179.974 L
187.093 179.974 L
187.093 197.743 LE
3 W
1 LJ
77.2594 185.265 LS
83.0401 192.083 L
88.8208 198.579 L
94.6015 205.726 L
100.382 213.055 L
106.163 220.245 L
111.944 226.175 L
117.724 230.22 L
123.505 232.306 L
129.286 232.696 L
135.066 231.789 L
140.847 229.995 L
146.628 227.673 L
152.408 225.107 L
158.189 222.499 L
163.97 219.988 L
169.751 217.655 L
175.531 215.542 L
181.312 213.664 L
187.093 212.016 LE
grestore
gsave
1.0 1.0 scale
newpath 0 0 moveto 576 0 lineto 576 432 lineto 0 432 lineto
closepath clip
1 1 1 C
244.353 253.387 354.186 179.974 244.353 179.974 T
244.353 253.387 354.186 253.387 354.186 179.974 T
0.5 W
0.15 0.15 0.15 C
267.476 179.974 LS
267.476 181.078 LE
267.476 253.387 LS
267.476 252.282 LE
296.379 179.974 LS
296.379 181.078 LE
296.379 253.387 LS
296.379 252.282 LE
325.283 179.974 LS
325.283 181.078 LE
325.283 253.387 LS
325.283 252.282 LE
354.186 179.974 LS
354.186 181.078 LE
354.186 253.387 LS
354.186 252.282 LE
gsave
0.14902 0.14902 0.14902 C
(5) [10] 0 264.476 164.431 10 /Helvetica SRX
grestore

gsave
0.14902 0.14902 0.14902 C
(10) [6 10] 0 290.379 164.431 10 /Helvetica SRX
grestore

gsave
0.14902 0.14902 0.14902 C
(15) [6 10] 0 319.283 164.431 10 /Helvetica SRX
grestore

gsave
0.14902 0.14902 0.14902 C
(20) [6 10] 0 348.186 164.431 10 /Helvetica SRX
grestore

244.353 188.455 LS
245.45 188.455 LE
354.186 188.455 LS
353.09 188.455 LE
244.353 201.965 LS
245.45 201.965 LE
354.186 201.965 LS
353.09 201.965 LE
244.353 215.475 LS
245.45 215.475 LE
354.186 215.475 LS
353.09 215.475 LE
244.353 228.984 LS
245.45 228.984 LE
354.186 228.984 LS
353.09 228.984 LE
244.353 242.494 LS
245.45 242.494 LE
354.186 242.494 LS
353.09 242.494 LE
gsave
0.14902 0.14902 0.14902 C
(0.004) [6 3 6 6 10] 0 212.361 184.455 10 /Helvetica SRX
grestore

gsave
0.14902 0.14902 0.14902 C
(0.006) [6 3 6 6 10] 0 212.361 197.965 10 /Helvetica SRX
grestore

gsave
0.14902 0.14902 0.14902 C
(0.008) [6 3 6 6 10] 0 212.361 211.475 10 /Helvetica SRX
grestore

gsave
0.14902 0.14902 0.14902 C
(0.01) [6 3 6 10] 0 218.361 224.984 10 /Helvetica SRX
grestore

gsave
0.14902 0.14902 0.14902 C
(0.012) [6 3 6 6 10] 0 212.361 238.494 10 /Helvetica SRX
grestore

2 LC
[16 0] 0 setdash
244.353 179.974 LS
354.186 179.974 LE
244.353 253.387 LS
354.186 253.387 LE
244.353 179.974 LS
244.353 253.387 LE
354.186 179.974 LS
354.186 253.387 LE
gsave
0 0 0 C
(I_hat) [3 6 7 6 10] 0 286.27 265.387 11 /Helvetica-Bold SRX
grestore

0.9 0.9 0.9 C
244.353 179.974 244.353 237.038 250.134 179.974 T
250.134 239.243 250.134 179.974 244.353 237.038 T
255.915 179.974 250.134 179.974 250.134 239.243 T
255.915 241.808 255.915 179.974 250.134 239.243 T
261.695 179.974 255.915 179.974 255.915 241.808 T
261.695 247.317 261.695 179.974 255.915 241.808 T
267.476 179.974 261.695 179.974 261.695 247.317 T
267.476 253.146 267.476 179.974 261.695 247.317 T
273.257 179.974 267.476 179.974 267.476 253.146 T
273.257 253.387 273.257 179.974 267.476 253.146 T
279.037 179.974 273.257 179.974 273.257 253.387 T
279.037 253.161 279.037 179.974 273.257 253.387 T
284.818 179.974 279.037 179.974 279.037 253.161 T
284.818 250.297 284.818 179.974 279.037 253.161 T
290.599 179.974 284.818 179.974 284.818 250.297 T
290.599 247.157 290.599 179.974 284.818 250.297 T
296.379 179.974 290.599 179.974 290.599 247.157 T
296.379 240.79 296.379 179.974 290.599 247.157 T
302.16 179.974 296.379 179.974 296.379 240.79 T
302.16 236.51 302.16 179.974 296.379 240.79 T
307.941 179.974 302.16 179.974 302.16 236.51 T
307.941 231.01 307.941 179.974 302.16 236.51 T
313.721 179.974 307.941 179.974 307.941 231.01 T
313.721 226.823 313.721 179.974 307.941 231.01 T
319.502 179.974 313.721 179.974 313.721 226.823 T
319.502 222.301 319.502 179.974 313.721 226.823 T
325.283 179.974 319.502 179.974 319.502 222.301 T
325.283 216.613 325.283 179.974 319.502 222.301 T
331.064 179.974 325.283 179.974 325.283 216.613 T
331.064 212.509 331.064 179.974 325.283 216.613 T
336.844 179.974 331.064 179.974 331.064 212.509 T
336.844 208.598 336.844 179.974 331.064 212.509 T
342.625 179.974 336.844 179.974 336.844 208.598 T
342.625 205.073 342.625 179.974 336.844 208.598 T
348.406 179.974 342.625 179.974 342.625 205.073 T
348.406 201.596 348.406 179.974 342.625 205.073 T
354.186 179.974 348.406 179.974 348.406 201.596 T
354.186 198.37 354.186 179.974 348.406 201.596 T
0 LC
[] 0 setdash
0 0 0 C
354.186 198.37 LS
348.406 201.596 L
342.625 205.073 L
336.844 208.598 L
331.064 212.509 L
325.283 216.613 L
319.502 222.301 L
313.721 226.823 L
307.941 231.01 L
302.16 236.51 L
296.379 240.79 L
290.599 247.157 L
284.818 250.297 L
279.037 253.161 L
273.257 253.387 L
267.476 253.146 L
261.695 247.317 L
255.915 241.808 L
250.134 239.243 L
244.353 237.038 L
244.353 179.974 L
250.134 179.974 L
255.915 179.974 L
261.695 179.974 L
267.476 179.974 L
273.257 179.974 L
279.037 179.974 L
284.818 179.974 L
290.599 179.974 L
296.379 179.974 L
302.16 179.974 L
307.941 179.974 L
313.721 179.974 L
319.502 179.974 L
325.283 179.974 L
331.064 179.974 L
336.844 179.974 L
342.625 179.974 L
348.406 179.974 L
354.186 179.974 L
354.186 198.37 LE
1 1 1 C
244.353 179.974 244.353 196.325 250.134 179.974 T
250.134 197.085 250.134 179.974 244.353 196.325 T
255.915 179.974 250.134 179.974 250.134 197.085 T
255.915 197.862 255.915 179.974 250.134 197.085 T
261.695 179.974 255.915 179.974 255.915 197.862 T
261.695 200.905 261.695 179.974 255.915 197.862 T
267.476 179.974 261.695 179.974 261.695 200.905 T
267.476 204.665 267.476 179.974 261.695 200.905 T
273.257 179.974 267.476 179.974 267.476 204.665 T
273.257 206.174 273.257 179.974 267.476 204.665 T
279.037 179.974 273.257 179.974 273.257 206.174 T
279.037 207.687 279.037 179.974 273.257 206.174 T
284.818 179.974 279.037 179.974 279.037 207.687 T
284.818 207.384 284.818 179.974 279.037 207.687 T
290.599 179.974 284.818 179.974 284.818 207.384 T
290.599 206.169 290.599 179.974 284.818 207.384 T
296.379 179.974 290.599 179.974 290.599 206.169 T
296.379 201.549 296.379 179.974 290.599 206.169 T
302.16 179.974 296.379 179.974 296.379 201.549 T
302.16 199.659 302.16 179.974 296.379 201.549 T
307.941 179.974 302.16 179.974 302.16 199.659 T
307.941 196.151 307.941 179.974 302.16 199.659 T
313.721 179.974 307.941 179.974 307.941 196.151 T
313.721 194.252 313.721 179.974 307.941 196.151 T
319.502 179.974 313.721 179.974 313.721 194.252 T
319.502 192.132 319.502 179.974 313.721 194.252 T
325.283 179.974 319.502 179.974 319.502 192.132 T
325.283 188.792 325.283 179.974 319.502 192.132 T
331.064 179.974 325.283 179.974 325.283 188.792 T
331.064 186.89 331.064 179.974 325.283 188.792 T
336.844 179.974 331.064 179.974 331.064 186.89 T
336.844 184.953 336.844 179.974 331.064 186.89 T
342.625 179.974 336.844 179.974 336.844 184.953 T
342.625 183.126 342.625 179.974 336.844 184.953 T
348.406 179.974 342.625 179.974 342.625 183.126 T
348.406 181.468 348.406 179.974 342.625 183.126 T
354.186 179.974 348.406 179.974 348.406 181.468 T
0 0 0 C
354.186 179.974 LS
348.406 181.468 L
342.625 183.126 L
336.844 184.953 L
331.064 186.89 L
325.283 188.792 L
319.502 192.132 L
313.721 194.252 L
307.941 196.151 L
302.16 199.659 L
296.379 201.549 L
290.599 206.169 L
284.818 207.384 L
279.037 207.687 L
273.257 206.174 L
267.476 204.665 L
261.695 200.905 L
255.915 197.862 L
250.134 197.085 L
244.353 196.325 L
244.353 179.974 L
250.134 179.974 L
255.915 179.974 L
261.695 179.974 L
267.476 179.974 L
273.257 179.974 L
279.037 179.974 L
284.818 179.974 L
290.599 179.974 L
296.379 179.974 L
302.16 179.974 L
307.941 179.974 L
313.721 179.974 L
319.502 179.974 L
325.283 179.974 L
331.064 179.974 L
336.844 179.974 L
342.625 179.974 L
348.406 179.974 L
354.186 179.974 LE
3 W
1 LJ
244.353 217.598 LS
250.134 219.26 L
255.915 221.968 L
261.695 225.908 L
267.476 228.732 L
273.257 230.066 L
279.037 229.853 L
284.818 228.282 L
290.599 225.659 L
296.379 222.313 L
302.16 218.539 L
307.941 214.583 L
313.721 210.629 L
319.502 206.808 L
325.283 203.207 L
331.064 199.876 L
336.844 196.84 L
342.625 194.102 L
348.406 191.655 L
354.186 189.483 LE
grestore
gsave
1.0 1.0 scale
newpath 0 0 moveto 576 0 lineto 576 432 lineto 0 432 lineto
closepath clip
1 1 1 C
411.447 253.387 521.28 179.974 411.447 179.974 T
411.447 253.387 521.28 253.387 521.28 179.974 T
0.5 W
0.15 0.15 0.15 C
434.57 179.974 LS
434.57 181.078 LE
434.57 253.387 LS
434.57 252.282 LE
463.473 179.974 LS
463.473 181.078 LE
463.473 253.387 LS
463.473 252.282 LE
492.377 179.974 LS
492.377 181.078 LE
492.377 253.387 LS
492.377 252.282 LE
521.28 179.974 LS
521.28 181.078 LE
521.28 253.387 LS
521.28 252.282 LE
gsave
0.14902 0.14902 0.14902 C
(5) [10] 0 431.57 164.431 10 /Helvetica SRX
grestore

gsave
0.14902 0.14902 0.14902 C
(10) [6 10] 0 457.473 164.431 10 /Helvetica SRX
grestore

gsave
0.14902 0.14902 0.14902 C
(15) [6 10] 0 486.377 164.431 10 /Helvetica SRX
grestore

gsave
0.14902 0.14902 0.14902 C
(20) [6 10] 0 515.28 164.431 10 /Helvetica SRX
grestore

411.447 188.795 LS
412.544 188.795 LE
521.28 188.795 LS
520.183 188.795 LE
411.447 199.806 LS
412.544 199.806 LE
521.28 199.806 LS
520.183 199.806 LE
411.447 210.817 LS
412.544 210.817 LE
521.28 210.817 LS
520.183 210.817 LE
411.447 221.827 LS
412.544 221.827 LE
521.28 221.827 LS
520.183 221.827 LE
411.447 232.838 LS
412.544 232.838 LE
521.28 232.838 LS
520.183 232.838 LE
411.447 243.848 LS
412.544 243.848 LE
521.28 243.848 LS
520.183 243.848 LE
gsave
0.14902 0.14902 0.14902 C
(0.001) [6 3 6 6 10] 0 379.454 184.795 10 /Helvetica SRX
grestore

gsave
0.14902 0.14902 0.14902 C
(0.002) [6 3 6 6 10] 0 379.454 195.806 10 /Helvetica SRX
grestore

gsave
0.14902 0.14902 0.14902 C
(0.003) [6 3 6 6 10] 0 379.454 206.817 10 /Helvetica SRX
grestore

gsave
0.14902 0.14902 0.14902 C
(0.004) [6 3 6 6 10] 0 379.454 217.827 10 /Helvetica SRX
grestore

gsave
0.14902 0.14902 0.14902 C
(0.005) [6 3 6 6 10] 0 379.454 228.838 10 /Helvetica SRX
grestore

gsave
0.14902 0.14902 0.14902 C
(0.006) [6 3 6 6 10] 0 379.454 239.848 10 /Helvetica SRX
grestore

2 LC
[16 0] 0 setdash
411.447 179.974 LS
521.28 179.974 LE
411.447 253.387 LS
521.28 253.387 LE
411.447 179.974 LS
411.447 253.387 LE
521.28 179.974 LS
521.28 253.387 LE
gsave
0 0 0 C
(L_hat) [7 6 7 6 10] 0 451.363 265.387 11 /Helvetica-Bold SRX
grestore

0.9 0.9 0.9 C
411.447 179.974 411.447 183.119 417.228 179.974 T
417.228 190.188 417.228 179.974 411.447 183.119 T
423.008 179.974 417.228 179.974 417.228 190.188 T
423.008 199.277 423.008 179.974 417.228 190.188 T
428.789 179.974 423.008 179.974 423.008 199.277 T
428.789 210.725 428.789 179.974 423.008 199.277 T
434.57 179.974 428.789 179.974 428.789 210.725 T
434.57 225.447 434.57 179.974 428.789 210.725 T
440.35 179.974 434.57 179.974 434.57 225.447 T
440.35 240.213 440.35 179.974 434.57 225.447 T
446.131 179.974 440.35 179.974 440.35 240.213 T
446.131 249.797 446.131 179.974 440.35 240.213 T
451.912 179.974 446.131 179.974 446.131 249.797 T
451.912 253.387 451.912 179.974 446.131 249.797 T
457.692 179.974 451.912 179.974 451.912 253.387 T
457.692 253.329 457.692 179.974 451.912 253.387 T
463.473 179.974 457.692 179.974 457.692 253.329 T
463.473 251.618 463.473 179.974 457.692 253.329 T
469.254 179.974 463.473 179.974 463.473 251.618 T
469.254 245.734 469.254 179.974 463.473 251.618 T
475.035 179.974 469.254 179.974 469.254 245.734 T
475.035 240.979 475.035 179.974 469.254 245.734 T
480.815 179.974 475.035 179.974 475.035 240.979 T
480.815 236.306 480.815 179.974 475.035 240.979 T
486.596 179.974 480.815 179.974 480.815 236.306 T
486.596 230.212 486.596 179.974 480.815 236.306 T
492.377 179.974 486.596 179.974 486.596 230.212 T
492.377 225.808 492.377 179.974 486.596 230.212 T
498.157 179.974 492.377 179.974 492.377 225.808 T
498.157 221.931 498.157 179.974 492.377 225.808 T
503.938 179.974 498.157 179.974 498.157 221.931 T
503.938 217.587 503.938 179.974 498.157 221.931 T
509.719 179.974 503.938 179.974 503.938 217.587 T
509.719 214.099 509.719 179.974 503.938 217.587 T
515.499 179.974 509.719 179.974 509.719 214.099 T
515.499 211.828 515.499 179.974 509.719 214.099 T
521.28 179.974 515.499 179.974 515.499 211.828 T
521.28 209.092 521.28 179.974 515.499 211.828 T
0 LC
[] 0 setdash
0 0 0 C
521.28 209.092 LS
515.499 211.828 L
509.719 214.099 L
503.938 217.587 L
498.157 221.931 L
492.377 225.808 L
486.596 230.212 L
480.815 236.306 L
475.035 240.979 L
469.254 245.734 L
463.473 251.618 L
457.692 253.329 L
451.912 253.387 L
446.131 249.797 L
440.35 240.213 L
434.57 225.447 L
428.789 210.725 L
423.008 199.277 L
417.228 190.188 L
411.447 183.119 L
411.447 179.974 L
417.228 179.974 L
423.008 179.974 L
428.789 179.974 L
434.57 179.974 L
440.35 179.974 L
446.131 179.974 L
451.912 179.974 L
457.692 179.974 L
463.473 179.974 L
469.254 179.974 L
475.035 179.974 L
480.815 179.974 L
486.596 179.974 L
492.377 179.974 L
498.157 179.974 L
503.938 179.974 L
509.719 179.974 L
515.499 179.974 L
521.28 179.974 L
521.28 209.092 LE
1 1 1 C
411.447 179.974 417.228 183.904 417.228 179.974 T
423.008 179.974 417.228 179.974 417.228 183.904 T
423.008 189.251 423.008 179.974 417.228 183.904 T
428.789 179.974 423.008 179.974 423.008 189.251 T
428.789 195.411 428.789 179.974 423.008 189.251 T
434.57 179.974 428.789 179.974 428.789 195.411 T
434.57 198.134 434.57 179.974 428.789 195.411 T
440.35 179.974 434.57 179.974 434.57 198.134 T
440.35 202.9 440.35 179.974 434.57 198.134 T
446.131 179.974 440.35 179.974 440.35 202.9 T
446.131 207.013 446.131 179.974 440.35 202.9 T
451.912 179.974 446.131 179.974 446.131 207.013 T
451.912 209.548 451.912 179.974 446.131 207.013 T
457.692 179.974 451.912 179.974 451.912 209.548 T
457.692 211.504 457.692 179.974 451.912 209.548 T
463.473 179.974 457.692 179.974 457.692 211.504 T
463.473 213.05 463.473 179.974 457.692 211.504 T
469.254 179.974 463.473 179.974 463.473 213.05 T
469.254 211.227 469.254 179.974 463.473 213.05 T
475.035 179.974 469.254 179.974 469.254 211.227 T
475.035 210.566 475.035 179.974 469.254 211.227 T
480.815 179.974 475.035 179.974 475.035 210.566 T
480.815 208.551 480.815 179.974 475.035 210.566 T
486.596 179.974 480.815 179.974 480.815 208.551 T
486.596 204.848 486.596 179.974 480.815 208.551 T
492.377 179.974 486.596 179.974 486.596 204.848 T
492.377 202.71 492.377 179.974 486.596 204.848 T
498.157 179.974 492.377 179.974 492.377 202.71 T
498.157 200.798 498.157 179.974 492.377 202.71 T
503.938 179.974 498.157 179.974 498.157 200.798 T
503.938 198.163 503.938 179.974 498.157 200.798 T
509.719 179.974 503.938 179.974 503.938 198.163 T
509.719 196.472 509.719 179.974 503.938 198.163 T
515.499 179.974 509.719 179.974 509.719 196.472 T
515.499 195.378 515.499 179.974 509.719 196.472 T
521.28 179.974 515.499 179.974 515.499 195.378 T
521.28 193.736 521.28 179.974 515.499 195.378 T
0 0 0 C
521.28 193.736 LS
515.499 195.378 L
509.719 196.472 L
503.938 198.163 L
498.157 200.798 L
492.377 202.71 L
486.596 204.848 L
480.815 208.551 L
475.035 210.566 L
469.254 211.227 L
463.473 213.05 L
457.692 211.504 L
451.912 209.548 L
446.131 207.013 L
440.35 202.9 L
434.57 198.134 L
428.789 195.411 L
423.008 189.251 L
417.228 183.904 L
411.447 179.974 L
417.228 179.974 L
423.008 179.974 L
428.789 179.974 L
434.57 179.974 L
440.35 179.974 L
446.131 179.974 L
451.912 179.974 L
457.692 179.974 L
463.473 179.974 L
469.254 179.974 L
475.035 179.974 L
480.815 179.974 L
486.596 179.974 L
492.377 179.974 L
498.157 179.974 L
503.938 179.974 L
509.719 179.974 L
515.499 179.974 L
521.28 179.974 L
521.28 193.736 LE
3 W
1 LJ
411.447 181.587 LS
417.228 187.372 L
423.008 194.451 L
428.789 203.078 L
434.57 212.934 L
440.35 221.888 L
446.131 228.319 L
451.912 231.812 L
457.692 232.679 L
463.473 231.525 L
469.254 229 L
475.035 225.672 L
480.815 221.985 L
486.596 218.256 L
492.377 214.694 L
498.157 211.421 L
503.938 208.498 L
509.719 205.942 L
515.499 203.742 L
521.28 201.87 LE
grestore
gsave
1.0 1.0 scale
newpath 0 0 moveto 576 0 lineto 576 432 lineto 0 432 lineto
closepath clip
1 1 1 C
77.2594 120.933 187.093 47.52 77.2594 47.52 T
77.2594 120.933 187.093 120.933 187.093 47.52 T
0.5 W
0.15 0.15 0.15 C
100.382 47.52 LS
100.382 48.6245 LE
100.382 120.933 LS
100.382 119.829 LE
129.286 47.52 LS
129.286 48.6245 LE
129.286 120.933 LS
129.286 119.829 LE
158.189 47.52 LS
158.189 48.6245 LE
158.189 120.933 LS
158.189 119.829 LE
187.093 47.52 LS
187.093 48.6245 LE
187.093 120.933 LS
187.093 119.829 LE
gsave
0.14902 0.14902 0.14902 C
(5) [10] 0 97.3822 31.9776 10 /Helvetica SRX
grestore

gsave
0.14902 0.14902 0.14902 C
(10) [6 10] 0 123.286 31.9776 10 /Helvetica SRX
grestore

gsave
0.14902 0.14902 0.14902 C
(15) [6 10] 0 152.189 31.9776 10 /Helvetica SRX
grestore

gsave
0.14902 0.14902 0.14902 C
(20) [6 10] 0 181.093 31.9776 10 /Helvetica SRX
grestore

77.2594 58.7691 LS
78.3561 58.7691 LE
187.093 58.7691 LS
185.996 58.7691 LE
77.2594 70.7729 LS
78.3561 70.7729 LE
187.093 70.7729 LS
185.996 70.7729 LE
77.2594 82.7768 LS
78.3561 82.7768 LE
187.093 82.7768 LS
185.996 82.7768 LE
77.2594 94.7806 LS
78.3561 94.7806 LE
187.093 94.7806 LS
185.996 94.7806 LE
77.2594 106.784 LS
78.3561 106.784 LE
187.093 106.784 LS
185.996 106.784 LE
77.2594 118.788 LS
78.3561 118.788 LE
187.093 118.788 LS
185.996 118.788 LE
gsave
0.14902 0.14902 0.14902 C
(-0.002) [3 6 3 6 6 10] 0 42.267 54.7691 10 /Helvetica SRX
grestore

gsave
0.14902 0.14902 0.14902 C
(-0.001) [3 6 3 6 6 10] 0 42.267 66.7729 10 /Helvetica SRX
grestore

gsave
0.14902 0.14902 0.14902 C
(0) [10] 0 66.267 78.7768 10 /Helvetica SRX
grestore

gsave
0.14902 0.14902 0.14902 C
(0.001) [6 3 6 6 10] 0 45.267 90.7806 10 /Helvetica SRX
grestore

gsave
0.14902 0.14902 0.14902 C
(0.002) [6 3 6 6 10] 0 45.267 102.784 10 /Helvetica SRX
grestore

gsave
0.14902 0.14902 0.14902 C
(0.003) [6 3 6 6 10] 0 45.267 114.788 10 /Helvetica SRX
grestore

2 LC
[16 0] 0 setdash
77.2594 47.52 LS
187.093 47.52 LE
77.2594 120.933 LS
187.093 120.933 LE
77.2594 47.52 LS
77.2594 120.933 LE
187.093 47.52 LS
187.093 120.933 LE
gsave
0 0 0 C
(tb_y_hat) [4 7 6 6 6 7 6 10] 0 109.176 133.933 11 /Helvetica-Bold SRX
grestore

0.9 0.9 0.9 C
77.2594 47.52 77.2594 65.9337 83.0401 47.52 T
83.0401 65.7977 83.0401 47.52 77.2594 65.9337 T
88.8208 47.52 83.0401 47.52 83.0401 65.7977 T
88.8208 65.8078 88.8208 47.52 83.0401 65.7977 T
94.6015 47.52 88.8208 47.52 88.8208 65.8078 T
94.6015 65.6963 94.6015 47.52 88.8208 65.8078 T
100.382 47.52 94.6015 47.52 94.6015 65.6963 T
100.382 98.898 100.382 47.52 94.6015 65.6963 T
106.163 47.52 100.382 47.52 100.382 98.898 T
106.163 117.004 106.163 47.52 100.382 98.898 T
111.944 47.52 106.163 47.52 106.163 117.004 T
111.944 120.933 111.944 47.52 106.163 117.004 T
117.724 47.52 111.944 47.52 111.944 120.933 T
117.724 118.322 117.724 47.52 111.944 120.933 T
123.505 47.52 117.724 47.52 117.724 118.322 T
123.505 112.51 123.505 47.52 117.724 118.322 T
129.286 47.52 123.505 47.52 123.505 112.51 T
129.286 105.938 129.286 47.52 123.505 112.51 T
135.066 47.52 129.286 47.52 129.286 105.938 T
135.066 99.4984 135.066 47.52 129.286 105.938 T
140.847 47.52 135.066 47.52 135.066 99.4984 T
140.847 94.2933 140.847 47.52 135.066 99.4984 T
146.628 47.52 140.847 47.52 140.847 94.2933 T
146.628 90.2425 146.628 47.52 140.847 94.2933 T
152.408 47.52 146.628 47.52 146.628 90.2425 T
152.408 87.1687 152.408 47.52 146.628 90.2425 T
158.189 47.52 152.408 47.52 152.408 87.1687 T
158.189 84.7954 158.189 47.52 152.408 87.1687 T
163.97 47.52 158.189 47.52 158.189 84.7954 T
163.97 83.5191 163.97 47.52 158.189 84.7954 T
169.751 47.52 163.97 47.52 163.97 83.5191 T
169.751 82.2309 169.751 47.52 163.97 83.5191 T
175.531 47.52 169.751 47.52 169.751 82.2309 T
175.531 81.5852 175.531 47.52 169.751 82.2309 T
181.312 47.52 175.531 47.52 175.531 81.5852 T
181.312 81.0077 181.312 47.52 175.531 81.5852 T
187.093 47.52 181.312 47.52 181.312 81.0077 T
187.093 80.6655 187.093 47.52 181.312 81.0077 T
0 LC
[] 0 setdash
0 0 0 C
187.093 80.6655 LS
181.312 81.0077 L
175.531 81.5852 L
169.751 82.2309 L
163.97 83.5191 L
158.189 84.7954 L
152.408 87.1687 L
146.628 90.2425 L
140.847 94.2933 L
135.066 99.4984 L
129.286 105.938 L
123.505 112.51 L
117.724 118.322 L
111.944 120.933 L
106.163 117.004 L
100.382 98.898 L
94.6015 65.6963 L
88.8208 65.8078 L
83.0401 65.7977 L
77.2594 65.9337 L
77.2594 47.52 L
83.0401 47.52 L
88.8208 47.52 L
94.6015 47.52 L
100.382 47.52 L
106.163 47.52 L
111.944 47.52 L
117.724 47.52 L
123.505 47.52 L
129.286 47.52 L
135.066 47.52 L
140.847 47.52 L
146.628 47.52 L
152.408 47.52 L
158.189 47.52 L
163.97 47.52 L
169.751 47.52 L
175.531 47.52 L
181.312 47.52 L
187.093 47.52 L
187.093 80.6655 LE
1 1 1 C
94.6015 47.52 100.382 87.8814 100.382 47.52 T
106.163 47.52 100.382 47.52 100.382 87.8814 T
106.163 99.7926 106.163 47.52 100.382 87.8814 T
111.944 47.52 106.163 47.52 106.163 99.7926 T
111.944 102.074 111.944 47.52 106.163 99.7926 T
117.724 47.52 111.944 47.52 111.944 102.074 T
117.724 100.864 117.724 47.52 111.944 102.074 T
123.505 47.52 117.724 47.52 117.724 100.864 T
123.505 97.7635 123.505 47.52 117.724 100.864 T
129.286 47.52 123.505 47.52 123.505 97.7635 T
129.286 93.9108 129.286 47.52 123.505 97.7635 T
135.066 47.52 129.286 47.52 129.286 93.9108 T
135.066 89.847 135.066 47.52 129.286 93.9108 T
140.847 47.52 135.066 47.52 135.066 89.847 T
140.847 86.4774 140.847 47.52 135.066 89.847 T
146.628 47.52 140.847 47.52 140.847 86.4774 T
146.628 83.4918 146.628 47.52 140.847 86.4774 T
152.408 47.52 146.628 47.52 146.628 83.4918 T
152.408 81.1443 152.408 47.52 146.628 83.4918 T
158.189 47.52 152.408 47.52 152.408 81.1443 T
158.189 79.1776 158.189 47.52 152.408 81.1443 T
163.97 47.52 158.189 47.52 158.189 79.1776 T
163.97 78.2226 163.97 47.52 158.189 79.1776 T
169.751 47.52 163.97 47.52 163.97 78.2226 T
169.751 77.2711 169.751 47.52 163.97 78.2226 T
175.531 47.52 169.751 47.52 169.751 77.2711 T
175.531 76.8624 175.531 47.52 169.751 77.2711 T
181.312 47.52 175.531 47.52 175.531 76.8624 T
181.312 76.5856 181.312 47.52 175.531 76.8624 T
187.093 47.52 181.312 47.52 181.312 76.5856 T
187.093 76.494 187.093 47.52 181.312 76.5856 T
77.2594 47.52 77.2594 47.9046 83.0401 47.52 T
83.0401 47.6262 83.0401 47.52 77.2594 47.9046 T
88.8208 47.52 83.0401 47.52 83.0401 47.6262 T
88.8208 47.6513 88.8208 47.52 83.0401 47.6262 T
94.6015 47.52 88.8208 47.52 88.8208 47.6513 T
0 0 0 C
94.6015 47.52 LS
88.8208 47.6513 L
83.0401 47.6262 L
77.2594 47.9046 L
77.2594 47.52 L
83.0401 47.52 L
88.8208 47.52 L
94.6015 47.52 LE
187.093 76.494 LS
181.312 76.5856 L
175.531 76.8624 L
169.751 77.2711 L
163.97 78.2226 L
158.189 79.1776 L
152.408 81.1443 L
146.628 83.4918 L
140.847 86.4774 L
135.066 89.847 L
129.286 93.9108 L
123.505 97.7635 L
117.724 100.864 L
111.944 102.074 L
106.163 99.7926 L
100.382 87.8814 L
94.6015 47.52 L
100.382 47.52 L
106.163 47.52 L
111.944 47.52 L
117.724 47.52 L
123.505 47.52 L
129.286 47.52 L
135.066 47.52 L
140.847 47.52 L
146.628 47.52 L
152.408 47.52 L
158.189 47.52 L
163.97 47.52 L
169.751 47.52 L
175.531 47.52 L
181.312 47.52 L
187.093 47.52 L
187.093 76.494 LE
3 W
1 LJ
77.2594 56.9631 LS
83.0401 56.6713 L
88.8208 56.7505 L
94.6015 56.6562 L
100.382 93.3626 L
106.163 108.722 L
111.944 112.384 L
117.724 110.139 L
123.505 105.359 L
129.286 99.9149 L
135.066 94.7677 L
140.847 90.3468 L
146.628 86.7816 L
152.408 84.0448 L
158.189 82.036 L
163.97 80.6299 L
169.751 79.7015 L
175.531 79.1387 L
181.312 78.8467 L
187.093 78.749 LE
grestore
gsave
1.0 1.0 scale
newpath 0 0 moveto 576 0 lineto 576 432 lineto 0 432 lineto
closepath clip
1 1 1 C
244.353 120.933 354.186 47.52 244.353 47.52 T
244.353 120.933 354.186 120.933 354.186 47.52 T
0.5 W
0.15 0.15 0.15 C
267.476 47.52 LS
267.476 48.6245 LE
267.476 120.933 LS
267.476 119.829 LE
296.379 47.52 LS
296.379 48.6245 LE
296.379 120.933 LS
296.379 119.829 LE
325.283 47.52 LS
325.283 48.6245 LE
325.283 120.933 LS
325.283 119.829 LE
354.186 47.52 LS
354.186 48.6245 LE
354.186 120.933 LS
354.186 119.829 LE
gsave
0.14902 0.14902 0.14902 C
(5) [10] 0 264.476 31.9776 10 /Helvetica SRX
grestore

gsave
0.14902 0.14902 0.14902 C
(10) [6 10] 0 290.379 31.9776 10 /Helvetica SRX
grestore

gsave
0.14902 0.14902 0.14902 C
(15) [6 10] 0 319.283 31.9776 10 /Helvetica SRX
grestore

gsave
0.14902 0.14902 0.14902 C
(20) [6 10] 0 348.186 31.9776 10 /Helvetica SRX
grestore

244.353 48.2039 LS
245.45 48.2039 LE
354.186 48.2039 LS
353.09 48.2039 LE
244.353 61.9053 LS
245.45 61.9053 LE
354.186 61.9053 LS
353.09 61.9053 LE
244.353 75.6066 LS
245.45 75.6066 LE
354.186 75.6066 LS
353.09 75.6066 LE
244.353 89.308 LS
245.45 89.308 LE
354.186 89.308 LS
353.09 89.308 LE
244.353 103.009 LS
245.45 103.009 LE
354.186 103.009 LS
353.09 103.009 LE
244.353 116.711 LS
245.45 116.711 LE
354.186 116.711 LS
353.09 116.711 LE
gsave
0.14902 0.14902 0.14902 C
(-0.02) [3 6 3 6 10] 0 215.361 44.204 10 /Helvetica SRX
grestore

gsave
0.14902 0.14902 0.14902 C
(-0.01) [3 6 3 6 10] 0 215.361 57.9053 10 /Helvetica SRX
grestore

gsave
0.14902 0.14902 0.14902 C
(0) [10] 0 233.361 71.6067 10 /Helvetica SRX
grestore

gsave
0.14902 0.14902 0.14902 C
(0.01) [6 3 6 10] 0 218.361 85.308 10 /Helvetica SRX
grestore

gsave
0.14902 0.14902 0.14902 C
(0.02) [6 3 6 10] 0 218.361 99.0094 10 /Helvetica SRX
grestore

gsave
0.14902 0.14902 0.14902 C
(0.03) [6 3 6 10] 0 218.361 112.711 10 /Helvetica SRX
grestore

2 LC
[16 0] 0 setdash
244.353 47.52 LS
354.186 47.52 LE
244.353 120.933 LS
354.186 120.933 LE
244.353 47.52 LS
244.353 120.933 LE
354.186 47.52 LS
354.186 120.933 LE
gsave
0 0 0 C
(D_hat) [8 6 7 6 10] 0 283.77 132.933 11 /Helvetica-Bold SRX
grestore

0.9 0.9 0.9 C
244.353 47.52 244.353 86.517 250.134 47.52 T
250.134 97.5993 250.134 47.52 244.353 86.517 T
255.915 47.52 250.134 47.52 250.134 97.5993 T
255.915 109.611 255.915 47.52 250.134 97.5993 T
261.695 47.52 255.915 47.52 255.915 109.611 T
261.695 120.933 261.695 47.52 255.915 109.611 T
267.476 47.52 261.695 47.52 261.695 120.933 T
267.476 117.091 267.476 47.52 261.695 120.933 T
273.257 47.52 267.476 47.52 267.476 117.091 T
273.257 107.594 273.257 47.52 267.476 117.091 T
279.037 47.52 273.257 47.52 273.257 107.594 T
279.037 97.7778 279.037 47.52 273.257 107.594 T
284.818 47.52 279.037 47.52 279.037 97.7778 T
284.818 89.296 284.818 47.52 279.037 97.7778 T
290.599 47.52 284.818 47.52 284.818 89.296 T
290.599 82.1433 290.599 47.52 284.818 89.296 T
296.379 47.52 290.599 47.52 290.599 82.1433 T
296.379 75.7636 296.379 47.52 290.599 82.1433 T
302.16 47.52 296.379 47.52 296.379 75.7636 T
302.16 71.8524 302.16 47.52 296.379 75.7636 T
307.941 47.52 302.16 47.52 302.16 71.8524 T
307.941 70.446 307.941 47.52 302.16 71.8524 T
313.721 47.52 307.941 47.52 307.941 70.446 T
313.721 68.5567 313.721 47.52 307.941 70.446 T
319.502 47.52 313.721 47.52 313.721 68.5567 T
319.502 67.2958 319.502 47.52 313.721 68.5567 T
325.283 47.52 319.502 47.52 319.502 67.2958 T
325.283 66.8547 325.283 47.52 319.502 67.2958 T
331.064 47.52 325.283 47.52 325.283 66.8547 T
331.064 66.3944 331.064 47.52 325.283 66.8547 T
336.844 47.52 331.064 47.52 331.064 66.3944 T
336.844 66.4333 336.844 47.52 331.064 66.3944 T
342.625 47.52 336.844 47.52 336.844 66.4333 T
342.625 66.2992 342.625 47.52 336.844 66.4333 T
348.406 47.52 342.625 47.52 342.625 66.2992 T
348.406 67.186 348.406 47.52 342.625 66.2992 T
354.186 47.52 348.406 47.52 348.406 67.186 T
354.186 67.5025 354.186 47.52 348.406 67.186 T
0 LC
[] 0 setdash
0 0 0 C
354.186 67.5025 LS
348.406 67.186 L
342.625 66.2992 L
336.844 66.4333 L
331.064 66.3944 L
325.283 66.8547 L
319.502 67.2958 L
313.721 68.5567 L
307.941 70.446 L
302.16 71.8524 L
296.379 75.7636 L
290.599 82.1433 L
284.818 89.296 L
279.037 97.7778 L
273.257 107.594 L
267.476 117.091 L
261.695 120.933 L
255.915 109.611 L
250.134 97.5993 L
244.353 86.517 L
244.353 47.52 L
250.134 47.52 L
255.915 47.52 L
261.695 47.52 L
267.476 47.52 L
273.257 47.52 L
279.037 47.52 L
284.818 47.52 L
290.599 47.52 L
296.379 47.52 L
302.16 47.52 L
307.941 47.52 L
313.721 47.52 L
319.502 47.52 L
325.283 47.52 L
331.064 47.52 L
336.844 47.52 L
342.625 47.52 L
348.406 47.52 L
354.186 47.52 L
354.186 67.5025 LE
1 1 1 C
331.064 47.52 336.844 48.0201 336.844 47.52 T
342.625 47.52 336.844 47.52 336.844 48.0201 T
342.625 48.2821 342.625 47.52 336.844 48.0201 T
348.406 47.52 342.625 47.52 342.625 48.2821 T
348.406 49.718 348.406 47.52 342.625 48.2821 T
354.186 47.52 348.406 47.52 348.406 49.718 T
354.186 50.3818 354.186 47.52 348.406 49.718 T
244.353 47.52 244.353 80.674 250.134 47.52 T
250.134 85.7723 250.134 47.52 244.353 80.674 T
255.915 47.52 250.134 47.52 250.134 85.7723 T
255.915 91.7528 255.915 47.52 250.134 85.7723 T
261.695 47.52 255.915 47.52 255.915 91.7528 T
261.695 96.9512 261.695 47.52 255.915 91.7528 T
267.476 47.52 261.695 47.52 261.695 96.9512 T
267.476 94.0077 267.476 47.52 261.695 96.9512 T
273.257 47.52 267.476 47.52 267.476 94.0077 T
273.257 87.7339 273.257 47.52 267.476 94.0077 T
279.037 47.52 273.257 47.52 273.257 87.7339 T
279.037 80.9023 279.037 47.52 273.257 87.7339 T
284.818 47.52 279.037 47.52 279.037 80.9023 T
284.818 73.8902 284.818 47.52 279.037 80.9023 T
290.599 47.52 284.818 47.52 284.818 73.8902 T
290.599 65.2876 290.599 47.52 284.818 73.8902 T
296.379 47.52 290.599 47.52 290.599 65.2876 T
296.379 57.5324 296.379 47.52 290.599 65.2876 T
302.16 47.52 296.379 47.52 296.379 57.5324 T
302.16 52.1931 302.16 47.52 296.379 57.5324 T
307.941 47.52 302.16 47.52 302.16 52.1931 T
307.941 50.645 307.941 47.52 302.16 52.1931 T
313.721 47.52 307.941 47.52 307.941 50.645 T
313.721 48.6932 313.721 47.52 307.941 50.645 T
319.502 47.52 313.721 47.52 313.721 48.6932 T
319.502 47.776 319.502 47.52 313.721 48.6932 T
325.283 47.52 319.502 47.52 319.502 47.776 T
325.283 47.6734 325.283 47.52 319.502 47.776 T
331.064 47.52 325.283 47.52 325.283 47.6734 T
0 0 0 C
331.064 47.52 LS
325.283 47.6734 L
319.502 47.776 L
313.721 48.6932 L
307.941 50.645 L
302.16 52.1931 L
296.379 57.5324 L
290.599 65.2876 L
284.818 73.8902 L
279.037 80.9023 L
273.257 87.7339 L
267.476 94.0077 L
261.695 96.9512 L
255.915 91.7528 L
250.134 85.7723 L
244.353 80.674 L
244.353 47.52 L
250.134 47.52 L
255.915 47.52 L
261.695 47.52 L
267.476 47.52 L
273.257 47.52 L
279.037 47.52 L
284.818 47.52 L
290.599 47.52 L
296.379 47.52 L
302.16 47.52 L
307.941 47.52 L
313.721 47.52 L
319.502 47.52 L
325.283 47.52 L
331.064 47.52 LE
354.186 50.3818 LS
348.406 49.718 L
342.625 48.2821 L
336.844 48.0201 L
331.064 47.52 L
336.844 47.52 L
342.625 47.52 L
348.406 47.52 L
354.186 47.52 L
354.186 50.3818 LE
3 W
1 LJ
244.353 83.6515 LS
250.134 91.8945 L
255.915 100.282 L
261.695 108.877 L
267.476 106.039 L
273.257 98.2529 L
279.037 89.1082 L
284.818 80.4484 L
290.599 73.0952 L
296.379 67.2973 L
302.16 63.0033 L
307.941 60.023 L
313.721 58.119 L
319.502 57.0555 L
325.283 56.622 L
331.064 56.6417 L
336.844 56.9728 L
342.625 57.5056 L
348.406 58.1575 L
354.186 58.868 LE
grestore
gsave
1.0 1.0 scale
newpath 0 0 moveto 576 0 lineto 576 432 lineto 0 432 lineto
closepath clip
1 1 1 C
411.447 120.933 521.28 47.52 411.447 47.52 T
411.447 120.933 521.28 120.933 521.28 47.52 T
0.5 W
0.15 0.15 0.15 C
434.57 47.52 LS
434.57 48.6245 LE
434.57 120.933 LS
434.57 119.829 LE
463.473 47.52 LS
463.473 48.6245 LE
463.473 120.933 LS
463.473 119.829 LE
492.377 47.52 LS
492.377 48.6245 LE
492.377 120.933 LS
492.377 119.829 LE
521.28 47.52 LS
521.28 48.6245 LE
521.28 120.933 LS
521.28 119.829 LE
gsave
0.14902 0.14902 0.14902 C
(5) [10] 0 431.57 31.9776 10 /Helvetica SRX
grestore

gsave
0.14902 0.14902 0.14902 C
(10) [6 10] 0 457.473 31.9776 10 /Helvetica SRX
grestore

gsave
0.14902 0.14902 0.14902 C
(15) [6 10] 0 486.377 31.9776 10 /Helvetica SRX
grestore

gsave
0.14902 0.14902 0.14902 C
(20) [6 10] 0 515.28 31.9776 10 /Helvetica SRX
grestore

411.447 49.0599 LS
412.544 49.0599 LE
521.28 49.0599 LS
520.183 49.0599 LE
411.447 60.4762 LS
412.544 60.4762 LE
521.28 60.4762 LS
520.183 60.4762 LE
411.447 71.8924 LS
412.544 71.8924 LE
521.28 71.8924 LS
520.183 71.8924 LE
411.447 83.3087 LS
412.544 83.3087 LE
521.28 83.3087 LS
520.183 83.3087 LE
411.447 94.7249 LS
412.544 94.7249 LE
521.28 94.7249 LS
520.183 94.7249 LE
411.447 106.141 LS
412.544 106.141 LE
521.28 106.141 LS
520.183 106.141 LE
411.447 117.557 LS
412.544 117.557 LE
521.28 117.557 LS
520.183 117.557 LE
gsave
0.14902 0.14902 0.14902 C
(0.0005) [6 3 6 6 6 10] 0 373.454 45.0599 10 /Helvetica SRX
grestore

gsave
0.14902 0.14902 0.14902 C
(0.001) [6 3 6 6 10] 0 379.454 56.4762 10 /Helvetica SRX
grestore

gsave
0.14902 0.14902 0.14902 C
(0.0015) [6 3 6 6 6 10] 0 373.454 67.8924 10 /Helvetica SRX
grestore

gsave
0.14902 0.14902 0.14902 C
(0.002) [6 3 6 6 10] 0 379.454 79.3087 10 /Helvetica SRX
grestore

gsave
0.14902 0.14902 0.14902 C
(0.0025) [6 3 6 6 6 10] 0 373.454 90.7249 10 /Helvetica SRX
grestore

gsave
0.14902 0.14902 0.14902 C
(0.003) [6 3 6 6 10] 0 379.454 102.141 10 /Helvetica SRX
grestore

gsave
0.14902 0.14902 0.14902 C
(0.0035) [6 3 6 6 6 10] 0 373.454 113.557 10 /Helvetica SRX
grestore

2 LC
[16 0] 0 setdash
411.447 47.52 LS
521.28 47.52 LE
411.447 120.933 LS
521.28 120.933 LE
411.447 47.52 LS
411.447 120.933 LE
521.28 47.52 LS
521.28 120.933 LE
gsave
0 0 0 C
(reer_hat) [4 6 6 4 6 7 6 10] 0 444.863 132.933 11 /Helvetica-Bold SRX
grestore

0.9 0.9 0.9 C
411.447 47.52 411.447 76.9391 417.228 47.52 T
417.228 77.3037 417.228 47.52 411.447 76.9391 T
423.008 47.52 417.228 47.52 417.228 77.3037 T
423.008 80.9823 423.008 47.52 417.228 77.3037 T
428.789 47.52 423.008 47.52 423.008 80.9823 T
428.789 90.5607 428.789 47.52 423.008 80.9823 T
434.57 47.52 428.789 47.52 428.789 90.5607 T
434.57 100.663 434.57 47.52 428.789 90.5607 T
440.35 47.52 434.57 47.52 434.57 100.663 T
440.35 112.812 440.35 47.52 434.57 100.663 T
446.131 47.52 440.35 47.52 440.35 112.812 T
446.131 119.708 446.131 47.52 440.35 112.812 T
451.912 47.52 446.131 47.52 446.131 119.708 T
451.912 120.933 451.912 47.52 446.131 119.708 T
457.692 47.52 451.912 47.52 451.912 120.933 T
457.692 117.725 457.692 47.52 451.912 120.933 T
463.473 47.52 457.692 47.52 457.692 117.725 T
463.473 112.389 463.473 47.52 457.692 117.725 T
469.254 47.52 463.473 47.52 463.473 112.389 T
469.254 103.421 469.254 47.52 463.473 112.389 T
475.035 47.52 469.254 47.52 469.254 103.421 T
475.035 97.8138 475.035 47.52 469.254 103.421 T
480.815 47.52 475.035 47.52 475.035 97.8138 T
480.815 90.1878 480.815 47.52 475.035 97.8138 T
486.596 47.52 480.815 47.52 480.815 90.1878 T
486.596 85.3444 486.596 47.52 480.815 90.1878 T
492.377 47.52 486.596 47.52 486.596 85.3444 T
492.377 77.6313 492.377 47.52 486.596 85.3444 T
498.157 47.52 492.377 47.52 492.377 77.6313 T
498.157 71.9392 498.157 47.52 492.377 77.6313 T
503.938 47.52 498.157 47.52 498.157 71.9392 T
503.938 67.7862 503.938 47.52 498.157 71.9392 T
509.719 47.52 503.938 47.52 503.938 67.7862 T
509.719 63.7507 509.719 47.52 503.938 67.7862 T
515.499 47.52 509.719 47.52 509.719 63.7507 T
515.499 60.0419 515.499 47.52 509.719 63.7507 T
521.28 47.52 515.499 47.52 515.499 60.0419 T
521.28 57.3744 521.28 47.52 515.499 60.0419 T
0 LC
[] 0 setdash
0 0 0 C
521.28 57.3744 LS
515.499 60.0419 L
509.719 63.7507 L
503.938 67.7862 L
498.157 71.9392 L
492.377 77.6313 L
486.596 85.3444 L
480.815 90.1878 L
475.035 97.8138 L
469.254 103.421 L
463.473 112.389 L
457.692 117.725 L
451.912 120.933 L
446.131 119.708 L
440.35 112.812 L
434.57 100.663 L
428.789 90.5607 L
423.008 80.9823 L
417.228 77.3037 L
411.447 76.9391 L
411.447 47.52 L
417.228 47.52 L
423.008 47.52 L
428.789 47.52 L
434.57 47.52 L
440.35 47.52 L
446.131 47.52 L
451.912 47.52 L
457.692 47.52 L
463.473 47.52 L
469.254 47.52 L
475.035 47.52 L
480.815 47.52 L
486.596 47.52 L
492.377 47.52 L
498.157 47.52 L
503.938 47.52 L
509.719 47.52 L
515.499 47.52 L
521.28 47.52 L
521.28 57.3744 LE
1 1 1 C
411.447 47.52 411.447 57.4091 417.228 47.52 T
417.228 57.9126 417.228 47.52 411.447 57.4091 T
423.008 47.52 417.228 47.52 417.228 57.9126 T
423.008 59.9035 423.008 47.52 417.228 57.9126 T
428.789 47.52 423.008 47.52 423.008 59.9035 T
428.789 65.6026 428.789 47.52 423.008 59.9035 T
434.57 47.52 428.789 47.52 428.789 65.6026 T
434.57 68.3332 434.57 47.52 428.789 65.6026 T
440.35 47.52 434.57 47.52 434.57 68.3332 T
440.35 69.7357 440.35 47.52 434.57 68.3332 T
446.131 47.52 440.35 47.52 440.35 69.7357 T
446.131 72.1592 446.131 47.52 440.35 69.7357 T
451.912 47.52 446.131 47.52 446.131 72.1592 T
451.912 73.5483 451.912 47.52 446.131 72.1592 T
457.692 47.52 451.912 47.52 451.912 73.5483 T
457.692 73.8142 457.692 47.52 451.912 73.5483 T
463.473 47.52 457.692 47.52 457.692 73.8142 T
463.473 73.8165 463.473 47.52 457.692 73.8142 T
469.254 47.52 463.473 47.52 463.473 73.8165 T
469.254 70.2465 469.254 47.52 463.473 73.8165 T
475.035 47.52 469.254 47.52 469.254 70.2465 T
475.035 69.4145 475.035 47.52 469.254 70.2465 T
480.815 47.52 475.035 47.52 475.035 69.4145 T
480.815 65.65 480.815 47.52 475.035 69.4145 T
486.596 47.52 480.815 47.52 480.815 65.65 T
486.596 63.6113 486.596 47.52 480.815 65.65 T
492.377 47.52 486.596 47.52 486.596 63.6113 T
492.377 58.8433 492.377 47.52 486.596 63.6113 T
498.157 47.52 492.377 47.52 492.377 58.8433 T
498.157 55.8091 498.157 47.52 492.377 58.8433 T
503.938 47.52 498.157 47.52 498.157 55.8091 T
503.938 53.7142 503.938 47.52 498.157 55.8091 T
509.719 47.52 503.938 47.52 503.938 53.7142 T
509.719 51.1345 509.719 47.52 503.938 53.7142 T
515.499 47.52 509.719 47.52 509.719 51.1345 T
515.499 49.0148 515.499 47.52 509.719 51.1345 T
521.28 47.52 515.499 47.52 515.499 49.0148 T
0 0 0 C
521.28 47.52 LS
515.499 49.0148 L
509.719 51.1345 L
503.938 53.7142 L
498.157 55.8091 L
492.377 58.8433 L
486.596 63.6113 L
480.815 65.65 L
475.035 69.4145 L
469.254 70.2465 L
463.473 73.8165 L
457.692 73.8142 L
451.912 73.5483 L
446.131 72.1592 L
440.35 69.7357 L
434.57 68.3332 L
428.789 65.6026 L
423.008 59.9035 L
417.228 57.9126 L
411.447 57.4091 L
411.447 47.52 L
417.228 47.52 L
423.008 47.52 L
428.789 47.52 L
434.57 47.52 L
440.35 47.52 L
446.131 47.52 L
451.912 47.52 L
457.692 47.52 L
463.473 47.52 L
469.254 47.52 L
475.035 47.52 L
480.815 47.52 L
486.596 47.52 L
492.377 47.52 L
498.157 47.52 L
503.938 47.52 L
509.719 47.52 L
515.499 47.52 L
521.28 47.52 LE
3 W
1 LJ
411.447 67.9316 LS
417.228 68.033 L
423.008 71.142 L
428.789 77.2091 L
434.57 83.6882 L
440.35 90.2883 L
446.131 94.8181 L
451.912 96.4413 L
457.692 95.3887 L
463.473 92.3335 L
469.254 88.0133 L
475.035 83.0605 L
480.815 77.9512 L
486.596 73.0094 L
492.377 68.4334 L
498.157 64.3266 L
503.938 60.726 L
509.719 57.6255 L
515.499 54.9925 L
521.28 52.7809 LE
grestore
grestore
showpage
cleartomark
%%PageTrailer
%%Trailer
end
%%EOF
