0.0008994841821632322,0.0004590771427813043,0.001335316384862674,0.0006291037788123702,0.0003062971944201498,0.000933049732306074,0.006490980069314497,0.003710308854096599,0.009489842677537377,-0.001531599243578943,-0.002212323727507135,-0.0008069038714087313,0.0004325955240874497,0.0002140120098406034,0.0006677004773081523,0.004205286668576049,0.002392466221754556,0.006479205655827405,0.0008627585878726105,0.0004594648101516672,0.001315583825428817,0,0,0,0,-1.404542872061712e-18,1.194628885472336e-18,0,0,0,0,0,0,0,-2.373952004305687e-19,1.930637880744782e-19
0.001375359512628387,0.0007539153186659652,0.002069941286166895,0.0009746586951814561,0.0004926657622584274,0.001440068681490959,0.006654060046581752,0.003663311940801364,0.009571256605410184,-0.001505632941487711,-0.002192343678517798,-0.0008126563221122782,0.001015579550618496,0.0005115982113705181,0.001573799857605627,0.008382924037444058,0.004449877127610506,0.01265024430560835,0.001025436456274245,0.0005588391306065288,0.001522056276734892,0,0,0,1.770463256262237e-05,6.232870102592034e-06,3.241112753115709e-05,0,0,0,0,0,0,1.28874740668317e-21,-1.424871392101901e-18,1.521597147322447e-18
0.005749640491269753,0.003711481680252433,0.008134860570684497,0.001359906991423596,0.0007347541233529763,0.002117326423470433,0.006228073081327675,0.003422069944737887,0.009218473860892707,0.002223021864981244,0.001391613378526915,0.003241179153432898,0.001747408255458896,0.0008464498620254089,0.002864878868428511,0.001950978236614801,-0.001993883786201734,0.006337117195654407,0.001392049279504565,0.000774980183384865,0.002250267120468631,0,0,0,3.833705844298444e-05,1.302168742713192e-05,6.971763204729582e-05,0,0,0,0,0,0,0.03024780727243182,0.02027511968795925,0.04175150335132422
0.005233343527232998,0.003135563992328341,0.007581523042614636,0.001588985240370709,0.0008559920303350274,0.002488378016319764,0.006016303605348169,0.003204722101522096,0.008896110201255449,0.001535839024173753,0.001034668699200004,0.002187770914703055,0.002110983433888542,0.0009627417942392113,0.00338787018640091,-0.002173499128158357,-0.006824241254162796,0.001785504589435078,0.001506647673009661,0.0008593366916735394,0.002488975883181947,0,0,0,1.392427961194291e-05,-6.071224961416494e-06,4.149713772608465e-05,0,0,0,0,0,0,0.02336088934972885,0.01458973943844093,0.03232535468305667
0.004731993788477297,0.002557864902612984,0.007082341870705814,0.001695784377936128,0.0008474767291755683,0.002596748910938005,0.005792560380255623,0.003079655254359189,0.008724996863636309,0.001016816843262964,0.0006084549288313975,0.001480832462487564,0.002229531961512173,0.001106948693623912,0.003614531064343124,-0.004992238772205969,-0.009594184460632423,-0.0007063946033616514,0.001477148735727765,0.0007518082251006328,0.00235121382873092,0,0,0,-6.544223794785913e-06,-2.774792938666797e-05,1.618091475897269e-05,0,0,0,0,0,0,0.01853927114961076,0.01061656342997388,0.02697431786596966
0.004238610808992942,0.002082643522129368,0.006512511818222154,0.00173378597773533,0.0008948431456195202,0.002706398017922659,0.005465472320432855,0.002835636230951411,0.008361424665529872,0.0006325549434524978,0.0002618780807601925,0.001048987173854356,0.002182607845764607,0.0009879535091134512,0.00345297266627576,-0.006781873004629933,-0.01178052309767106,-0.002940233080832043,0.001384447096185305,0.0006649036627280956,0.002172842405267915,0,0,0,-2.188513172803532e-05,-4.432594343579271e-05,-1.000386232705605e-06,0,0,0,0,0,0,0.01454938568176804,0.007121254139179392,0.02239124486323355
0.003761987286066913,0.001877107875387919,0.006120918434285328,0.001723183470247534,0.0008320593413143882,0.002655703214403142,0.005105858639381611,0.002575742685798902,0.007948556438063874,0.0003556574812157531,1.474418815607852e-06,0.0007090856617630736,0.002102774446901583,0.0009721923047721697,0.003351857637156808,-0.007979550306322556,-0.01277835414044611,-0.003973518304626805,0.001267436138463506,0.0005355070547328019,0.00195180705490697,0,0,0,-3.267633987579989e-05,-5.550793088646625e-05,-1.220758179676797e-05,0,0,0,0,0,0,0.01133719675961186,0.00315538835960129,0.01748621732329446
0.003349632248747735,0.001271023688637803,0.005307436757072463,0.001684682334383568,0.0008302914823142362,0.002647956675605355,0.004729023271021048,0.002319775521772827,0.007492647007873894,0.0001529039910295867,-0.000187836609669964,0.0004364448766819966,0.001977926229275038,0.0007699845709465339,0.003067282383402493,-0.008642048576340043,-0.0135931044735681,-0.004801092409942063,0.001137472654503805,0.000543689958156869,0.001863861074493015,0,0,0,-3.976907244770091e-05,-6.362351879130202e-05,-1.994079631870624e-05,0,0,0,0,0,0,0.00890996024725617,0.001593678541544844,0.01445617442362463
0.002969930575410949,0.0009638745366528732,0.004761182455400642,0.001627365261120358,0.0007323352364924753,0.002531812531402743,0.004375381289294889,0.002109332648741854,0.007070571617785315,8.126834845694077e-06,-0.0002656162731750552,0.0002779484795580121,0.001829414458624401,0.0007405417069399674,0.002947722946345883,-0.008961002895202453,-0.01346977181881225,-0.004673485714300039,0.001006545267118657,0.0003855677352985606,0.001613905412812628,0,0,0,-4.356232412298266e-05,-6.694289026672462e-05,-2.402568795527938e-05,0,0,0,0,0,0,0.006960580512237475,0.0008843360706261425,0.01210202023814204
0.002637695298308709,0.0008587810970879863,0.004383755646801137,0.001561104554465018,0.0006680359960897948,0.002437026849708299,0.004023108397547683,0.001866714687715717,0.006557664884491396,-9.092579773088809e-05,-0.0003267896326282029,0.0001403981168778878,0.001686699010364419,0.0006503995409964211,0.002774151075235176,-0.009088029568033278,-0.01412137228112468,-0.005063569603365514,0.000881745937348611,0.0003110143612106074,0.001446776567148972,0,0,0,-4.601814167422666e-05,-6.823243359133334e-05,-2.689367311896215e-05,0,0,0,0,0,0,0.005496082036988348,0.0004899233440080334,0.01022292888945248
0.002362661174555753,0.0007644259638604757,0.00404705972103326,0.001486467519754878,0.0006027571904531777,0.002329895963166865,0.003705532282954384,0.001715893088494675,0.006155680544229465,-0.000156496161058904,-0.0003334640846934778,5.91878137516451e-05,0.00153581045096106,0.000491332794487804,0.002513008415846636,-0.008972403535181188,-0.01421255295222213,-0.00490501194589975,0.000770753640336788,0.0002404724954219237,0.001274849661703655,0,0,0,-4.660252099309164e-05,-6.811319211050989e-05,-2.751254512496566e-05,0,0,0,0,0,0,0.004314635787114388,0.0002684290610040258,0.008579946595999701
0.002126437233934994,0.0006824205691315152,0.003731566633732182,0.001421074616356693,0.0005306540467249239,0.002218638079125963,0.003414678208567076,0.001409243262717414,0.005564138750254161,-0.0001928835936975888,-0.0003615442712856646,-2.672007918452801e-05,0.001403265377976428,0.0005002626334750861,0.002407419216306113,-0.008705665487602149,-0.01398145769045163,-0.004500310650062355,0.0006759778217895951,0.0002068327932322952,0.001165153306510389,0,0,0,-4.624341396768866e-05,-6.608723624831158e-05,-2.567343122152572e-05,0,0,0,0,0,0,0.003400032803338567,0.0001470723158485004,0.007231649248619384
0.001934938826402534,0.0005303232175256009,0.003350289616063709,0.00136337623595435,0.000537518735291329,0.002186705081641914,0.003146103806261039,0.00128807399444548,0.005206015652803686,-0.0002107923923357961,-0.000366190069566447,-8.191866707473112e-05,0.0012864471071245,0.0004538141369739296,0.002256772425873832,-0.0084262952265068,-0.01353600938409615,-0.003875697699877834,0.0005867037968697818,0.0001747904222231935,0.001043633773330893,0,0,0,-4.554308561960117e-05,-6.492005821548999e-05,-2.491290017796497e-05,0,0,0,0,0,0,0.002669895651471479,8.058094011183336e-05,0.006165830442253455
0.001778585688508022,0.0004769320795639304,0.003076723457416981,0.001315465674078027,0.0005338445726281873,0.002145429405758827,0.002897815352253907,0.001023412142980882,0.004680722214644445,-0.0002183120489374813,-0.0003470344265147511,-0.000104382233202057,0.001183805714176548,0.0003914109969109871,0.002097129259363491,-0.008107318761247618,-0.01326116116260845,-0.003553699374817315,0.0005150197356946836,0.0001510814001106598,0.0009326764726081797,0,0,0,-4.411959745222818e-05,-6.345267640244825e-05,-2.475877799572045e-05,0,0,0,0,0,0,0.002111322946423149,4.415030709107503e-05,0.005181103103930035
0.001649257478042539,0.0004563011105262558,0.002875233594148423,0.001268674106612774,0.0004707528110666608,0.0020272720917644,0.002677075555070808,0.0009403602485772647,0.004349730182676841,-0.0002177032566685626,-0.0003327891458369694,-0.0001241257726905689,0.001101178068569429,0.0003544595353261463,0.001954502622548271,-0.00775307046319742,-0.01251081541744996,-0.00298521329491196,0.0004535649246268643,0.0001195714221011948,0.0008200192660229484,0,0,0,-4.257005168334724e-05,-6.123043277685543e-05,-2.276077958804447e-05,0,0,0,0,0,0,0.001655025672019889,2.418995873628411e-05,0.00441415380240188
0.001539212184026112,0.0004418854918582296,0.002702947212918186,0.001227914774874127,0.0004635080001117377,0.001980123719140738,0.002484190998577726,0.0008644608022438002,0.004059417801249804,-0.0002148843197207362,-0.0003114732830363216,-0.0001256258723946861,0.001033896148585993,0.0003355734544976703,0.001834214121011663,-0.007403027833167364,-0.01239327800943962,-0.003032492307885186,0.000402649651187904,0.0001016274393796628,0.0007321751905470202,0,0,0,-4.054485734025188e-05,-5.974731848853506e-05,-2.23315655589411e-05,0,0,0,0,0,0,0.001307633397721845,1.318832446298303e-05,0.003760975192494596
0.001452657871534988,0.0004686827248949968,0.002589428767752552,0.001193401094111416,0.0004460368528767925,0.00191991577853679,0.002311369039193695,0.0007979473315903783,0.003782963620710374,-0.0002074088283406888,-0.0003054930545998738,-0.0001307217994628607,0.0009737138960391817,0.0003245895812540691,0.001736028962545046,-0.007038584411598901,-0.01170026590593453,-0.002578291380939181,0.0003585764021554786,9.184102557695926e-05,0.0006606837140756339,0,0,0,-3.833277500656755e-05,-5.703984480919607e-05,-2.072021777520896e-05,0,0,0,0,0,0,0.001030117514988381,7.159827144388569e-06,0.003215597899386613
0.001380156682159254,0.0004780887212462148,0.002471438645746687,0.001161764995303465,0.0004194649877383593,0.001859595754511384,0.002153195546258428,0.0007398076431332319,0.003556270685938097,-0.0002000443457326958,-0.0002860748434416239,-0.0001211583218517407,0.000921317909852216,0.0003095528191656944,0.001641938542508021,-0.00668146862562464,-0.01133761748599884,-0.002400134848848294,0.000320709562102464,8.669833767659428e-05,0.0006008290694104774,0,0,0,-3.654850304465192e-05,-5.450859038794063e-05,-1.917252642517231e-05,0,0,0,0,0,0,0.000806156387664532,3.88700815493345e-06,0.002714618101850595
0.001320708974318102,0.0004632823601734634,0.002348735001119922,0.001134757684673783,0.0004234668278192825,0.001825573965557835,0.002013624721505723,0.0007138542799842268,0.003372141744041544,-0.0001903759839924595,-0.0002767794099261032,-0.0001153180046180156,0.000878363500566128,0.0003041028771193418,0.001573189600193442,-0.006367173424347833,-0.01099187584360662,-0.002235931857057822,0.0002882360486698205,8.050430320567018e-05,0.0005419556121561253,0,0,0,-3.468452693718437e-05,-5.278221843752399e-05,-1.862736883820542e-05,0,0,0,0,0,0,0.0006343012272909951,2.110223067097439e-06,0.002280865749973785
0.001272106357877258,0.0004588528712300408,0.002247469637290205,0.001110733647356026,0.0004189367550798189,0.001786226280691794,0.001893349957361078,0.0006448372862870551,0.003153560567675191,-0.0001811406753112796,-0.0002632227902173499,-0.0001052664695981311,0.000841173240881864,0.0002939099675634829,0.001501495864652203,-0.0060735075973878,-0.01060176380375944,-0.002090115081511953,0.0002614235997120182,7.416613632990098e-05,0.0004932574056181247,0,0,0,-3.297401029320879e-05,-5.115547927556891e-05,-1.769250188962663e-05,0,0,0,0,0,0,0.0004991925676045088,1.145621829287457e-06,0.001938748029724732
