0.0008139201316368424,0.0004287059531599357,0.001182559136050458,0.0007178168117749086,0.0004295759679691316,0.0009912963801332723,0.006580628508069277,0.004037293954002608,0.00873324192831134,-0.001676037999415068,-0.002241919759094182,-0.001060095025175725,0.0001949053250167872,5.530375786729012e-05,0.0003934809348792431,0.004567344724788177,0.003021148280113847,0.006319997186722303,0.0008451599085163772,0.0004988622576182443,0.001197052098658187,0,0,0,0,-1.253136931361272e-18,1.211739613356079e-18,0,0,0,0,-1.007106012667559e-18,7.811290495804563e-19,0,0,0
0.001162479870474896,0.0006361007244257043,0.001764536781542344,0.001098139768304912,0.0006711516512720207,0.00153000305852087,0.006736890627797813,0.004305759876532469,0.00908153037282184,-0.001667222431014209,-0.002253279800544387,-0.001079036318336866,0.0006260054747388648,0.000305862465837881,0.001002546273674864,0.009181059380882241,0.006103419283967942,0.01272823854505137,0.0008585798692311052,0.0004842226981432538,0.001282999807905008,0,0,0,1.933206674014405e-05,7.874491125714583e-06,3.025466172991772e-05,0,0,0,1.49797303884568e-21,-2.787464057317416e-18,2.787798872364905e-18,0,0,0
0.001967743768794367,0.001014844408525183,0.002978331233129946,0.001687246082967635,0.0009917700171280064,0.002343184320254872,0.006879154300639503,0.004476292746738948,0.009258618623929344,-0.001584264186326599,-0.002140081362273828,-0.001018139670582369,0.001430131041755044,0.0008416562552672656,0.002247850769338793,0.01364710432629187,0.008808509761986227,0.01873546067891919,0.001132030517133768,0.0005589406047705634,0.001771847196022749,0,0,0,4.198905617000076e-05,2.016960393770441e-05,6.752955428063616e-05,0,0,0,1.694378536558387e-20,-4.662076491955934e-18,5.091041158380501e-18,0,0,0
0.00474586187987794,0.002859281405229261,0.006763057378164545,0.003055074746019175,0.001929061178092292,0.004240922885973212,0.006653280005334933,0.004335262735214182,0.008915901982772262,-0.001416315918863338,-0.001927697977226331,-0.0008929479435816332,0.003227049834148754,0.001954483585356833,0.004563515978078111,0.01764226382742198,0.01122567989933493,0.02414459465186439,0.003016997449002582,0.001892804420250629,0.004490900138622337,0,0,0,6.459287410492494e-05,3.207200420767321e-05,0.0001051891901933248,0,0,0,2.774688361165853e-19,-9.256327010877971e-18,9.817807994578459e-18,0,0,0
-0.001922226143689824,-0.00367873911272962,-0.0001747860157203913,0.009004150744219831,0.006130770441424928,0.01207163452203706,0.006950221274054156,0.004664024917511196,0.009448835781618913,0.002114052464520027,0.001339376634587099,0.002914508706928692,0.006783821175261214,0.004446673410894606,0.00917364908911944,0.01230585743924138,0.006514269175312936,0.01746830051637708,-0.01587761122252481,-0.02142824392638643,-0.01051294890180767,0,0,0,8.574153991285801e-05,3.777541935312734e-05,0.0001354283437595801,0,0,0,0.0121450042528919,0.008147992013192624,0.01622284883065317,0,0,0
0.001127523751205741,0.0002563137974068775,0.002241784644232565,0.009214016006650731,0.006210418691823339,0.01228187765070801,0.006976679168263103,0.004566487367013631,0.009329265386829808,0.001602456048671279,0.001074219087980502,0.002172563967872582,0.007404326156369094,0.00500795343894884,0.009946272838333244,0.008321295114705408,0.00297450006027136,0.01267782975759246,-0.01157066927882003,-0.01532397013964363,-0.007539082354796986,0,0,0,6.54606958777336e-05,3.100180787821875e-05,0.0001051207164047587,0,0,0,0.0105600570061523,0.007145896886414644,0.01406713631639502,0,0,0
0.001960769351398126,0.001138476477862736,0.002822817224733942,0.00872168390075781,0.005827741516830407,0.01164106887733597,0.006795340360053744,0.004560721076209613,0.009235003692787864,0.001274513308471326,0.0008816379115013214,0.001750654410891168,0.007212071673718616,0.004902506896194692,0.009759267000208259,0.005023332927401213,0.000750088409355947,0.008814291253491483,-0.009489575862318113,-0.01269002608183777,-0.00637238748234113,0,0,0,4.515637803938562e-05,1.886123314241685e-05,7.445294172756785e-05,0,0,0,0.009214307348295609,0.006209323808999883,0.01229815080289703,0,0,0
0.002301629288068157,0.001462502205668048,0.003154164043665717,0.008060841228404177,0.005278709207901683,0.01080295776510312,0.006532408229383939,0.004369317398715098,0.008942701702637132,0.001005421299957143,0.0006391116288622899,0.001359174852647868,0.006713977989009219,0.004523610089461429,0.009177414512023255,0.002461432443935197,-0.00149730160400047,0.005511944937465202,-0.008008476664207034,-0.01064768262988556,-0.005197669943650012,0,0,0,2.811074250165105e-05,7.8267654156695e-06,5.193226443908526e-05,0,0,0,0.008056650529095743,0.005325608979008267,0.01080204900028606,0,0,0
0.002450262288699414,0.001619568462326425,0.003394709498481137,0.007356300564880416,0.004774650130364775,0.009993388031707179,0.006242773425728416,0.004218153767498997,0.008679052153118191,0.0007911255693934186,0.0004933953708636541,0.001112050513483497,0.006186244045758614,0.003994169641749409,0.00838662997971802,0.0003357019158390011,-0.002892964501447757,0.003290918613779381,-0.006812412354889839,-0.00926148500212323,-0.004449729788942812,0,0,0,1.442896679161757e-05,-2.647575337002388e-06,3.459461955325438e-05,0,0,0,0.007026231072477287,0.004693825817103049,0.009675727951895452,0,0,0
0.002510083643241402,0.001647908045149721,0.00346919271318558,0.006722773677461701,0.004339427806299228,0.009261206842044664,0.005938983029803635,0.003985522967392094,0.008351804928756031,0.0006176672499019614,0.0003444429627927377,0.0009041489537739718,0.005640222172798129,0.003646995431582882,0.007804177525592646,-0.001361671324282243,-0.00455519522581235,0.0008671536969018616,-0.005809636268419353,-0.007766347554906387,-0.003327857878740236,0,0,0,3.833484381448511e-06,-1.408917854366882e-05,1.801569856702865e-05,0,0,0,0.006153457128990687,0.003926569447269609,0.008550881026630612,0,0,0
0.002515272354443901,0.001618210689963219,0.003440301172174781,0.006125948572441535,0.003537984540788041,0.008228051477043309,0.005625837693102608,0.003709419443465366,0.007914920836210362,0.0004752410879566382,0.0002023234107157832,0.0007245149639803814,0.00512319130988795,0.002946099816189586,0.006887675580992717,-0.002751692142121749,-0.005477020203365475,-0.0005769785583140371,-0.004934166683072869,-0.006850177458851041,-0.002784015970117032,0,0,0,-4.983591459649147e-06,-2.141448540447832e-05,7.714810223025229e-06,0,0,0,0.005371360956736619,0.003067802866587152,0.007364471236821202,0,0,0
0.002487139103675507,0.001604864085901881,0.003417113983515587,0.005559170860415451,0.003108232548479491,0.007537973236921633,0.005322163093872246,0.003307659545423514,0.007374505565865806,0.0003613617168995879,9.889013216202299e-05,0.0005839317775674,0.004622811488057278,0.002795435181457873,0.006503788595540571,-0.00391971513652303,-0.006658302293161548,-0.001604072986585945,-0.004200558239824369,-0.006022903116727638,-0.002304316964929718,0,0,0,-1.244330723938428e-05,-2.866492637927269e-05,4.885856804032906e-08,0,0,0,0.004696125834986646,0.002595325254930619,0.006592019302881164,0,0,0
0.002452530856042269,0.001570830001368133,0.00338785541585367,0.005065866715151044,0.002928521077373568,0.007098416655705056,0.005042068150097874,0.003188543939445082,0.007083898361762647,0.0002655686513444391,4.674513431599444e-05,0.0004881029393374586,0.004184530151805326,0.002332078635341103,0.005795098694573408,-0.004813824068957851,-0.007887065987889706,-0.002427880773746227,-0.003580635308077968,-0.005134636371296806,-0.001742632845735479,0,0,0,-1.837690879508166e-05,-3.566703727739538e-05,-6.663331543080679e-06,0,0,0,0.00410743579921872,0.002184041127729771,0.005889514214918594,0,0,0
0.00240750963549406,0.001519763968554172,0.003316337941135948,0.004610013579609749,0.002568436906489114,0.006500767747283838,0.004752447194172203,0.002996757976602537,0.006740723285833761,0.0001889679155503373,-2.670035719396028e-06,0.0003999002231188686,0.003780577388862012,0.002071847886692324,0.005328490993795629,-0.005520268595622995,-0.00864107950060209,-0.002935524417046692,-0.003031694063969695,-0.004467923310682756,-0.001396997014920767,0,0,0,-2.316307463490855e-05,-4.056990828909165e-05,-1.101686195156383e-05,0,0,0,0.003599620649624691,0.001830854868299241,0.005246441753770735,0,0,0
0.002358858729966452,0.001472158527159885,0.003258892403863973,0.004230626503602132,0.002272518820096952,0.006001809687766622,0.004484632403963225,0.002783051504995914,0.006362309063167544,0.0001277184459735979,-5.162913968545807e-05,0.0003138990284956118,0.00344325315101845,0.001850228579635001,0.004915762986685142,-0.006098953782601611,-0.009360386922119903,-0.003239581023011988,-0.002583292720354033,-0.003924718571116273,-0.001162792309391147,0,0,0,-2.711426387658536e-05,-4.461010649320987e-05,-1.426734731895157e-05,0,0,0,0.003158460597638171,0.001489493725655701,0.004631368893798236,0,0,0
0.002311352131440595,0.001410689048794937,0.00318223764182629,0.003888271597068334,0.002107008468275938,0.00562889001037003,0.004235263987178495,0.002608453296688928,0.006053779055645223,7.729469862905464e-05,-8.313351139410061e-05,0.0002489909085639584,0.003130250565808042,0.001601050565176886,0.004491499516918029,-0.00652127571346696,-0.01008186788458172,-0.003611467326982821,-0.002175244754221059,-0.003457952921227677,-0.0009694105230929418,0,0,0,-3.018322484703593e-05,-4.676663715511822e-05,-1.716762844572366e-05,0,0,0,0.002766156660863955,0.001246787412709346,0.004150557387802337,0,0,0
0.002264018853218353,0.001354226148711268,0.003108174472608134,0.003597006761913811,0.00189100277828616,0.005217708232003913,0.004016042627014085,0.002414136027208486,0.005716697113855499,3.545388102772768e-05,-0.0001089051382349927,0.0001883694797971837,0.00286045530703922,0.00144750458008313,0.004169679433528243,-0.006810569933282529,-0.01042779979157472,-0.003697159348923443,-0.001844679460093375,-0.002992576765709354,-0.0007689569885254068,0,0,0,-3.255308968637745e-05,-4.920523987515076e-05,-1.988533297751788e-05,0,0,0,0.002424329707753609,0.001148594706945446,0.003797704748554082,0,0,0
0.002217114388647778,0.001336738115957719,0.003063256541421817,0.003333315550729209,0.001726449698236201,0.004862097963039607,0.003808214897520187,0.002223762456335323,0.005390756952371728,1.757250886731288e-06,-0.0001214618372197685,0.000141693195054048,0.00262483344660517,0.001316672030529897,0.00386842261809496,-0.00702079909136042,-0.0107941203445032,-0.003835194006414694,-0.001547865448162021,-0.002562743971637099,-0.0005575582727055128,0,0,0,-3.436227698073133e-05,-4.938332992313076e-05,-2.081914844199974e-05,0,0,0,0.002126985183667511,0.0009551714483533782,0.003374441907051712,0,0,0
0.002171260608860599,0.001370616553125808,0.003067967017188885,0.003102974200134522,0.00158848386411478,0.004545511987548594,0.003606734049402809,0.002089000814390017,0.005110734344231596,-2.491799313771793e-05,-0.000136903972645285,9.538827144537043e-05,0.002418132904694358,0.001194260332071175,0.003589296667424505,-0.007163005166742877,-0.01086240763766619,-0.003585903016057522,-0.001289521250281193,-0.002139661827482492,-0.0003485430986126133,0,0,0,-3.55817477492774e-05,-4.996339667888556e-05,-2.20356397163371e-05,0,0,0,0.001869066028325375,0.0008034316797580975,0.003005740895859635,0,0,0
0.002127191234717254,0.00133627600208527,0.003012933392529235,0.00290261778992132,0.001476369050663894,0.004273356153077878,0.003426832525491617,0.001980697346519555,0.004873178836924231,-4.587308371346867e-05,-0.0001507901173369364,5.1661093911916e-05,0.002234345107164586,0.001179242090906567,0.003414507303658777,-0.007232684615380873,-0.01141735811094993,-0.003849042183707086,-0.001066115101213452,-0.001825363692913087,-0.0002155395385021858,0,0,0,-3.630324737737852e-05,-5.066474671011471e-05,-2.294514303700091e-05,0,0,0,0.001643385812867766,0.0006959714118098276,0.002703449393189506,0,0,0
